version 1
nodes
  0 "Bone01" -1
  1 "Bone_Lefthand" 0
  2 "romi_bazzi_ROOT" 1
  3 "romi_bazzi_25" 2
  4 "romi_bazzi_17" 2
  5 "romi_bazzi_magazine" 2
  6 "romi_bazzi_DummyRoot" 2
  7 "romi_bazzi_19" 6
  8 "romi_bazzi_20" 6
  9 "romi_bazzi_16" 6
  10 "romi_bazzi_barrel" 6
  11 "romi_bazzi_01" 10
  12 "romi_bazzi_handle_dummy" 11
  13 "romi_bazzi_08" 12
  14 "romi_bazzi_21" 6
  15 "romi_bazzi_23" 14
  16 "romi_bazzi_22" 14
  17 "romi_bazzi_04" 6
  18 "Romi_RED_BIOPelvis" 6
  19 "Romi_RED_BIOSpine" 18
  20 "Romi_RED_BIOR UpperArm" 19
  21 "Romi_RED_BIOR Forearm" 20
  22 "Romi_RED_BIOL UpperArm" 19
  23 "Romi_RED_BIOL Forearm" 22
  24 "Romi_RED_BIOHead" 19
  25 "romi_bazzi_R_ring" 24
  26 "romi_bazzi_14" 25
  27 "romi_bazzi_13" 26
  28 "romi_bazzi_02" 24
  29 "romi_bazzi_11" 28
  30 "romi_bazzi_12" 29
  31 "romi_bazzi_B_Rotate" 24
  32 "romi_bazzi_10" 31
  33 "romi_bazzi_06" 32
  34 "Romi_RED_BIOR Thigh" 18
  35 "Romi_RED_BIOR Foot" 34
  36 "Romi_RED_BIOL Thigh" 18
  37 "Romi_RED_BIOL Foot" 36
  38 "romi_bazzi_03" 2
  39 "romi_bazzi_18" 2
  40 "Bone04" -1
  41 "Bone_Righthand" 40
  42 "Bone27" 41
  43 "Bone28" 42
  44 "Bone29" 43
  45 "Bone31" 41
  46 "Bone32" 45
  47 "Bone33" 46
  48 "Bone35" 41
  49 "Bone36" 48
  50 "Bone37" 49
  51 "Bone39" 41
  52 "Bone40" 51
  53 "Bone41" 52
  54 "Bone43" 41
  55 "Bone44" 54
  56 "Bone45" 55
  57 "Bone_Se_Hand-R" 41
  58 "Bone_R_Upper" 40
  59 "Bone05" 1
  60 "Bone06" 59
  61 "Bone07" 60
  62 "Bone21" 1
  63 "Bone22" 62
  64 "Bone23" 63
  65 "Bone17" 1
  66 "Bone18" 65
  67 "Bone19" 66
  68 "Bone13" 1
  69 "Bone14" 68
  70 "Bone15" 69
  71 "Bone09" 1
  72 "Bone10" 71
  73 "Bone11" 72
  74 "Bone_Se_Hand-L" 1
  75 "Bone_L_Upper" 0
end
skeleton
  time 0
    0 9.192099 1.279019 -10.628434 1.155313 -1.937085 -1.376683
    1 -0.071917 -8.498733 -0.104136 0.036157 0.260213 -0.330453
    2 0.205681 -2.342137 0.940567 1.077009 1.387827 1.085887
    3 0.000000 -4.215567 1.515048 0.000000 0.000000 0.000000
    4 0.000000 -2.341781 1.586088 0.000000 0.000000 0.000000
    5 0.000000 -5.532161 -0.621212 0.000000 0.000000 0.000000
    6 0.000000 -0.521801 2.805769 0.000000 0.000000 0.000000
    7 -0.023269 -3.431372 -0.227809 0.000000 0.000000 0.000000
    8 0.208742 -3.431373 -0.227809 0.000000 0.000000 0.000000
    9 0.000000 -4.138266 1.366610 -0.785398 0.000000 0.000000
    10 0.000001 -5.700840 -0.482988 0.000000 0.000000 0.000000
    11 0.000000 -1.383378 0.000000 0.000000 0.000000 0.000000
    12 0.000000 2.828102 0.630577 -0.698132 0.000000 0.000000
    13 0.000000 -0.000003 1.974607 0.000000 0.000000 0.000000
    14 0.039126 2.377893 -0.204922 0.000000 0.000000 0.000000
    15 0.003906 1.876654 -0.255853 0.000000 0.000000 0.000000
    16 0.000000 1.591528 1.280989 0.000000 0.000000 0.000000
    17 0.000000 2.708985 2.400939 0.479145 0.000000 0.000000
    18 0.008336 0.169230 1.076291 -3.141590 -1.570796 0.000000
    19 0.408894 -0.180171 0.000001 -0.000004 -0.000001 -0.098443
    20 0.868804 -0.017805 -0.699901 -0.500297 0.244750 2.301723
    21 0.870826 0.000000 0.000000 0.000000 0.000000 -0.492878
    22 0.868807 -0.017810 0.699904 0.500293 -0.244754 2.301725
    23 0.870829 0.000000 0.000000 0.000000 0.000000 -0.492878
    24 1.533349 -0.110793 0.000002 -3.043096 -1.570796 0.000000
    25 -1.180962 -0.243396 0.297932 -0.000290 2.792527 0.000000
    26 -0.728785 0.000034 -1.291341 0.000000 -2.792527 0.000000
    27 0.636361 0.244402 -0.432998 0.000000 0.000000 0.000000
    28 1.206620 -0.243395 0.297466 0.000055 -2.792526 0.000000
    29 0.721537 -0.000073 -1.290879 0.000000 2.792527 0.000000
    30 -0.660701 0.244475 -0.428729 0.000000 0.000000 0.000000
    31 0.033472 -0.155557 0.563323 -0.782218 0.000000 0.000000
    32 -0.002686 -0.675740 -0.385383 0.000039 0.000000 0.000000
    33 0.000000 0.171926 0.000000 0.000000 0.000000 0.000000
    34 0.000003 0.000000 -0.537490 -0.000001 3.141591 -1.429434
    35 1.488566 -0.062166 0.000000 0.000001 0.000000 0.018666
    36 0.000000 0.000001 0.537889 -0.000001 3.141591 -1.429434
    37 1.488566 -0.062165 -0.000002 0.000001 0.000000 0.018666
    38 0.000000 -3.862867 2.592260 0.000000 0.000000 0.000000
    39 0.000000 0.088304 2.588038 0.000000 0.000000 0.000000
    40 1.521708 -5.065332 -13.133044 0.527080 -3.893746 -5.350271
    41 0.096946 -8.450419 -0.009364 0.527161 -0.631770 0.039079
    42 -0.587378 -1.261647 0.201457 -0.164209 -0.774452 -2.641896
    43 1.522835 0.058680 0.016851 0.237539 -0.043040 0.987308
    44 1.117948 0.048425 -0.005765 -0.000003 0.000018 0.775136
    45 -0.963867 -2.785143 -0.085346 -0.018724 0.089565 -0.042276
    46 0.028478 -1.403069 0.006271 -1.177377 0.000000 0.000000
    47 0.021414 -0.957782 0.020047 -0.941657 0.000000 0.000000
    48 -0.249534 -2.846964 -0.174215 -0.080762 -0.069588 -0.027109
    49 0.043234 -1.683941 0.096014 -1.641337 -0.002966 -0.000335
    50 0.031729 -1.160830 0.058836 -1.206156 0.000007 0.000007
    51 0.447951 -2.798983 -0.200442 0.007430 -0.015119 -0.002954
    52 -0.032910 -1.480207 0.004936 -1.245593 0.000000 0.000002
    53 -0.027022 -1.076920 -0.020212 -1.441725 0.000000 0.000000
    54 1.164474 -2.543939 -0.170327 0.128674 0.004755 -0.053472
    55 0.024033 -1.129040 0.017806 -0.870804 -0.059348 -0.032826
    56 0.014896 -0.883991 -0.019845 -1.012506 0.074161 0.017318
    57 -0.139399 -0.111701 0.014397 0.287104 0.128861 1.462828
    58 -0.282877 0.246699 -0.109375 -0.281602 1.280992 1.784939
    59 0.583509 -1.197273 0.185379 0.002018 -1.012660 -0.380445
    60 1.535925 0.010247 0.005009 0.041536 -0.199423 -1.125862
    61 1.100770 0.004527 -0.010675 -0.000003 0.000010 -0.533644
    62 0.957766 -2.746777 -0.090301 0.043733 -0.098028 0.148425
    63 -0.033419 -1.397129 -0.011256 -0.353974 -0.018348 -0.065736
    64 -0.022362 -0.957434 0.018782 -0.737724 0.000000 0.000000
    65 0.250028 -2.820664 -0.238397 -0.432554 0.057278 -0.106682
    66 -0.049759 -1.680546 0.100479 -1.292210 0.000000 -0.000002
    67 -0.034141 -1.148309 0.084778 -1.037442 0.000000 0.000000
    68 -0.488517 -2.755600 -0.228262 -0.835668 0.054591 -0.144142
    69 0.039889 -1.479791 0.029853 -0.979208 0.000000 0.000001
    70 0.028786 -1.075733 -0.023111 -1.137903 0.000000 0.000000
    71 -1.180679 -2.507216 -0.193861 -0.828724 0.140690 -0.122920
    72 -0.024966 -1.123935 0.017594 -1.075195 0.000000 0.000001
    73 -0.020058 -0.890966 0.010091 -0.680545 0.000000 0.000000
    74 -0.028290 -0.061986 0.008014 3.389072 0.004439 -1.491707
    75 0.213654 0.249610 -0.149166 1.221085 -1.493046 -0.161010
  time 1
    0 9.192099 1.279019 -10.628434 1.155313 -1.937085 -1.376683
    1 -0.071917 -8.498733 -0.104136 0.036157 0.260213 -0.330453
    2 0.205681 -2.342137 0.940567 1.077009 1.387827 1.085887
    3 0.000000 -4.215567 1.515048 0.000000 0.000000 0.000000
    4 0.000000 -2.341781 1.586088 0.000000 0.000000 0.000000
    5 0.000000 -5.532161 -0.621212 0.000000 0.000000 0.000000
    6 0.000000 -0.521801 2.805769 0.000000 0.000000 0.000000
    7 -0.023269 -3.431372 -0.227809 0.000000 0.000000 0.000000
    8 0.208742 -3.431373 -0.227809 0.000000 0.000000 0.000000
    9 0.000000 -4.138266 1.366610 -0.785398 0.000000 0.000000
    10 0.000001 -5.700840 -0.482988 0.000000 0.000000 0.000000
    11 0.000000 -1.383378 0.000000 0.000000 0.000000 0.000000
    12 0.000000 2.828102 0.630577 -0.698132 0.000000 0.000000
    13 0.000000 -0.000003 1.974607 0.000000 0.000000 0.000000
    14 0.039126 2.377893 -0.204922 0.000000 0.000000 0.000000
    15 0.003906 1.876654 -0.255853 0.000000 0.000000 0.000000
    16 0.000000 1.591528 1.280989 0.000000 0.000000 0.000000
    17 0.000000 2.708985 2.400939 0.479145 0.000000 0.000000
    18 0.008336 0.169230 1.076291 -3.141590 -1.570796 0.000000
    19 0.408894 -0.180171 0.000001 -0.000004 -0.000768 -0.098443
    20 0.868804 -0.017805 -0.699901 -0.500128 0.245170 2.302536
    21 0.870826 0.000000 0.000000 -0.000598 -0.002092 -0.494971
    22 0.868807 -0.017810 0.699904 0.500293 -0.244754 2.301725
    23 0.870829 0.000000 0.000000 0.000000 0.000000 -0.492878
    24 1.533349 -0.110793 0.000002 -3.043096 -1.570796 0.000000
    25 -1.180962 -0.243396 0.297932 -0.000290 2.792527 0.000000
    26 -0.728785 0.000034 -1.291341 0.000000 -2.792527 0.000000
    27 0.636361 0.244402 -0.432998 0.000000 0.000000 0.000000
    28 1.206620 -0.243395 0.297466 0.000055 -2.792526 0.000000
    29 0.721537 -0.000073 -1.290879 0.000000 2.792527 0.000000
    30 -0.660701 0.244475 -0.428729 0.000000 0.000000 0.000000
    31 0.033472 -0.155557 0.563323 -0.782218 0.000000 0.000000
    32 -0.002686 -0.675740 -0.385383 0.000039 0.000000 0.000000
    33 0.000000 0.171926 0.000000 0.000000 0.000000 0.000000
    34 0.000003 0.000000 -0.537490 -0.000001 3.141591 -1.429434
    35 1.488566 -0.062166 0.000000 0.000001 0.000000 0.018666
    36 0.000000 0.000001 0.537889 -0.000001 3.141591 -1.429434
    37 1.488566 -0.062165 -0.000002 0.000001 0.000000 0.018666
    38 0.000000 -3.862867 2.592260 0.000000 0.000000 0.000000
    39 0.000000 0.088304 2.588038 0.000000 0.000000 0.000000
    40 1.521708 -5.065332 -13.133044 0.527080 -3.893746 -5.350271
    41 0.096946 -8.450419 -0.009364 0.527161 -0.631770 0.039079
    42 -0.587378 -1.261647 0.201457 -0.164209 -0.774452 -2.641896
    43 1.522835 0.058680 0.016851 0.237539 -0.043040 0.987308
    44 1.117948 0.048425 -0.005765 -0.000003 0.000018 0.775136
    45 -0.963867 -2.785143 -0.085346 -0.018724 0.089565 -0.042276
    46 0.028478 -1.403069 0.006271 -1.177377 0.000000 0.000000
    47 0.021414 -0.957782 0.020047 -0.941657 0.000000 0.000000
    48 -0.249534 -2.846964 -0.174215 -0.080762 -0.069588 -0.027109
    49 0.043234 -1.683941 0.096014 -1.641337 -0.002966 -0.000335
    50 0.031729 -1.160830 0.058836 -1.206156 0.000007 0.000007
    51 0.447951 -2.798983 -0.200442 0.007430 -0.015119 -0.002954
    52 -0.032910 -1.480207 0.004936 -1.245593 0.000000 0.000002
    53 -0.027022 -1.076920 -0.020212 -1.441725 0.000000 0.000000
    54 1.164474 -2.543939 -0.170327 0.128674 0.004755 -0.053472
    55 0.024033 -1.129040 0.017806 -0.870804 -0.059348 -0.032826
    56 0.014896 -0.883991 -0.019845 -1.012506 0.074161 0.017318
    57 -0.139399 -0.111701 0.014397 0.287104 0.128861 1.462828
    58 -0.282877 0.246699 -0.109375 -0.281602 1.280992 1.784939
    59 0.583509 -1.197273 0.185379 0.002018 -1.012660 -0.380445
    60 1.535925 0.010247 0.005009 0.041536 -0.199423 -1.125862
    61 1.100770 0.004527 -0.010675 -0.000003 0.000010 -0.533644
    62 0.957766 -2.746777 -0.090301 0.043733 -0.098028 0.148425
    63 -0.033419 -1.397129 -0.011256 -0.353974 -0.018348 -0.065736
    64 -0.022362 -0.957434 0.018782 -0.737724 0.000000 0.000000
    65 0.250028 -2.820664 -0.238397 -0.432554 0.057278 -0.106682
    66 -0.049759 -1.680546 0.100479 -1.292210 0.000000 -0.000002
    67 -0.034141 -1.148309 0.084778 -1.037442 0.000000 0.000000
    68 -0.488517 -2.755600 -0.228262 -0.835668 0.054591 -0.144142
    69 0.039889 -1.479791 0.029853 -0.979208 0.000000 0.000001
    70 0.028786 -1.075733 -0.023111 -1.137903 0.000000 0.000000
    71 -1.180679 -2.507216 -0.193861 -0.828724 0.140690 -0.122920
    72 -0.024966 -1.123935 0.017594 -1.075195 0.000000 0.000001
    73 -0.020058 -0.890966 0.010091 -0.680545 0.000000 0.000000
    74 -0.028290 -0.061986 0.008014 3.389072 0.004439 -1.491707
    75 0.213654 0.249610 -0.149166 1.221085 -1.493046 -0.161010
  time 2
    0 9.192099 1.279019 -10.628434 1.155313 -1.937085 -1.376683
    1 -0.071917 -8.498733 -0.104136 0.036157 0.260213 -0.330453
    2 0.205681 -2.342137 0.940567 1.077009 1.387827 1.085887
    3 0.000000 -4.215567 1.515048 0.000000 0.000000 0.000000
    4 0.000000 -2.341781 1.586088 0.000000 0.000000 0.000000
    5 0.000000 -5.532161 -0.621212 0.000000 0.000000 0.000000
    6 0.000000 -0.521801 2.805769 0.000000 0.000000 0.000000
    7 -0.023269 -3.431372 -0.227809 0.000000 0.000000 0.000000
    8 0.208742 -3.431373 -0.227809 0.000000 0.000000 0.000000
    9 0.000000 -4.138266 1.366610 -0.785398 0.000000 0.000000
    10 0.000001 -5.700840 -0.482988 0.000000 0.000000 0.000000
    11 0.000000 -1.383378 0.000000 0.000000 0.000000 0.000000
    12 0.000000 2.828102 0.630577 -0.698132 0.000000 0.000000
    13 0.000000 -0.000003 1.974607 0.000000 0.000000 0.000000
    14 0.039126 2.377893 -0.204922 0.000000 0.000000 0.000000
    15 0.003906 1.876654 -0.255853 0.000000 0.000000 0.000000
    16 0.000000 1.591528 1.280989 0.000000 0.000000 0.000000
    17 0.000000 2.708985 2.400939 0.479145 0.000000 0.000000
    18 0.008336 0.169230 1.076291 -3.141590 -1.570796 0.000000
    19 0.408894 -0.180171 0.000001 -0.000004 -0.002626 -0.098443
    20 0.868804 -0.017805 -0.699901 -0.499664 0.246187 2.304473
    21 0.870826 0.000000 0.000000 -0.002028 -0.007081 -0.499989
    22 0.868807 -0.017810 0.699904 0.500293 -0.244754 2.301725
    23 0.870829 0.000000 0.000000 0.000000 0.000000 -0.492878
    24 1.533349 -0.110793 0.000002 -3.043096 -1.570796 0.000000
    25 -1.180962 -0.243396 0.297932 -0.000290 2.792527 0.000000
    26 -0.728785 0.000034 -1.291341 0.000000 -2.792527 0.000000
    27 0.636361 0.244402 -0.432998 0.000000 0.000000 0.000000
    28 1.206620 -0.243395 0.297466 0.000055 -2.792526 0.000000
    29 0.721537 -0.000073 -1.290879 0.000000 2.792527 0.000000
    30 -0.660701 0.244475 -0.428729 0.000000 0.000000 0.000000
    31 0.033472 -0.155557 0.563323 -0.782218 0.000000 0.000000
    32 -0.002686 -0.675740 -0.385383 0.000039 0.000000 0.000000
    33 0.000000 0.171926 0.000000 0.000000 0.000000 0.000000
    34 0.000003 0.000000 -0.537490 -0.000001 3.141591 -1.429434
    35 1.488566 -0.062166 0.000000 0.000001 0.000000 0.018666
    36 0.000000 0.000001 0.537889 -0.000001 3.141591 -1.429434
    37 1.488566 -0.062165 -0.000002 0.000001 0.000000 0.018666
    38 0.000000 -3.862867 2.592260 0.000000 0.000000 0.000000
    39 0.000000 0.088304 2.588038 0.000000 0.000000 0.000000
    40 1.521708 -5.065332 -13.133044 0.527080 -3.893746 -5.350271
    41 0.096946 -8.450419 -0.009364 0.527161 -0.631770 0.039079
    42 -0.587378 -1.261647 0.201457 -0.164209 -0.774452 -2.641896
    43 1.522835 0.058680 0.016851 0.237539 -0.043040 0.987308
    44 1.117948 0.048425 -0.005765 -0.000003 0.000018 0.775136
    45 -0.963867 -2.785143 -0.085346 -0.018724 0.089565 -0.042276
    46 0.028478 -1.403069 0.006271 -1.177377 0.000000 0.000000
    47 0.021414 -0.957782 0.020047 -0.941657 0.000000 0.000000
    48 -0.249534 -2.846964 -0.174215 -0.080762 -0.069588 -0.027109
    49 0.043234 -1.683941 0.096014 -1.641337 -0.002966 -0.000335
    50 0.031729 -1.160830 0.058836 -1.206156 0.000007 0.000007
    51 0.447951 -2.798983 -0.200442 0.007430 -0.015119 -0.002954
    52 -0.032910 -1.480207 0.004936 -1.245593 0.000000 0.000002
    53 -0.027022 -1.076920 -0.020212 -1.441725 0.000000 0.000000
    54 1.164474 -2.543939 -0.170327 0.128674 0.004755 -0.053472
    55 0.024033 -1.129040 0.017806 -0.870804 -0.059348 -0.032826
    56 0.014896 -0.883991 -0.019845 -1.012506 0.074161 0.017318
    57 -0.139399 -0.111701 0.014397 0.287104 0.128861 1.462828
    58 -0.282877 0.246699 -0.109375 -0.281602 1.280992 1.784939
    59 0.583509 -1.197273 0.185379 0.002018 -1.012660 -0.380445
    60 1.535925 0.010247 0.005009 0.041536 -0.199423 -1.125862
    61 1.100770 0.004527 -0.010675 -0.000003 0.000010 -0.533644
    62 0.957766 -2.746777 -0.090301 0.043733 -0.098028 0.148425
    63 -0.033419 -1.397129 -0.011256 -0.353974 -0.018348 -0.065736
    64 -0.022362 -0.957434 0.018782 -0.737724 0.000000 0.000000
    65 0.250028 -2.820664 -0.238397 -0.432554 0.057278 -0.106682
    66 -0.049759 -1.680546 0.100479 -1.292210 0.000000 -0.000002
    67 -0.034141 -1.148309 0.084778 -1.037442 0.000000 0.000000
    68 -0.488517 -2.755600 -0.228262 -0.835668 0.054591 -0.144142
    69 0.039889 -1.479791 0.029853 -0.979208 0.000000 0.000001
    70 0.028786 -1.075733 -0.023111 -1.137903 0.000000 0.000000
    71 -1.180679 -2.507216 -0.193861 -0.828724 0.140690 -0.122920
    72 -0.024966 -1.123935 0.017594 -1.075195 0.000000 0.000001
    73 -0.020058 -0.890966 0.010091 -0.680545 0.000000 0.000000
    74 -0.028290 -0.061986 0.008014 3.389072 0.004439 -1.491707
    75 0.213654 0.249610 -0.149166 1.221085 -1.493046 -0.161010
  time 3
    0 9.192099 1.279019 -10.628434 1.155313 -1.937085 -1.376683
    1 -0.071917 -8.498733 -0.104136 0.036157 0.260213 -0.330453
    2 0.205681 -2.342137 0.940567 1.077009 1.387827 1.085887
    3 0.000000 -4.215567 1.515048 0.000000 0.000000 0.000000
    4 0.000000 -2.341781 1.586088 0.000000 0.000000 0.000000
    5 0.000000 -5.532161 -0.621212 0.000000 0.000000 0.000000
    6 0.000000 -0.521801 2.805769 0.000000 0.000000 0.000000
    7 -0.023269 -3.431372 -0.227809 0.000000 0.000000 0.000000
    8 0.208742 -3.431373 -0.227809 0.000000 0.000000 0.000000
    9 0.000000 -4.138266 1.366610 -0.785398 0.000000 0.000000
    10 0.000001 -5.700840 -0.482988 0.000000 0.000000 0.000000
    11 0.000000 -1.383378 0.000000 0.000000 0.000000 0.000000
    12 0.000000 2.828102 0.630577 -0.698132 0.000000 0.000000
    13 0.000000 -0.000003 1.974607 0.000000 0.000000 0.000000
    14 0.039126 2.377893 -0.204922 0.000000 0.000000 0.000000
    15 0.003906 1.876654 -0.255853 0.000000 0.000000 0.000000
    16 0.000000 1.591528 1.280989 0.000000 0.000000 0.000000
    17 0.000000 2.708985 2.400939 0.479145 0.000000 0.000000
    18 0.008336 0.169230 1.076291 -3.141590 -1.570796 0.000000
    19 0.408894 -0.180171 0.000001 -0.000004 -0.004831 -0.098443
    20 0.868804 -0.017805 -0.699901 -0.499074 0.247413 2.306786
    21 0.870826 0.000000 0.000000 -0.003730 -0.013055 -0.505990
    22 0.868807 -0.017810 0.699904 0.500293 -0.244754 2.301725
    23 0.870829 0.000000 0.000000 0.000000 0.000000 -0.492878
    24 1.533349 -0.110793 0.000002 -3.043096 -1.570796 0.000000
    25 -1.180962 -0.243396 0.297932 -0.000290 2.792527 0.000000
    26 -0.728785 0.000034 -1.291341 0.000000 -2.792527 0.000000
    27 0.636361 0.244402 -0.432998 0.000000 0.000000 0.000000
    28 1.206620 -0.243395 0.297466 0.000055 -2.792526 0.000000
    29 0.721537 -0.000073 -1.290879 0.000000 2.792527 0.000000
    30 -0.660701 0.244475 -0.428729 0.000000 0.000000 0.000000
    31 0.033472 -0.155557 0.563323 -0.782218 0.000000 0.000000
    32 -0.002686 -0.675740 -0.385383 0.000039 0.000000 0.000000
    33 0.000000 0.171926 0.000000 0.000000 0.000000 0.000000
    34 0.000003 0.000000 -0.537490 -0.000001 3.141591 -1.429434
    35 1.488566 -0.062166 0.000000 0.000001 0.000000 0.018666
    36 0.000000 0.000001 0.537889 -0.000001 3.141591 -1.429434
    37 1.488566 -0.062165 -0.000002 0.000001 0.000000 0.018666
    38 0.000000 -3.862867 2.592260 0.000000 0.000000 0.000000
    39 0.000000 0.088304 2.588038 0.000000 0.000000 0.000000
    40 1.521708 -5.065332 -13.133044 0.527080 -3.893746 -5.350271
    41 0.096946 -8.450419 -0.009364 0.527161 -0.631770 0.039079
    42 -0.587378 -1.261647 0.201457 -0.164209 -0.774452 -2.641896
    43 1.522835 0.058680 0.016851 0.237539 -0.043040 0.987308
    44 1.117948 0.048425 -0.005765 -0.000003 0.000018 0.775136
    45 -0.963867 -2.785143 -0.085346 -0.018724 0.089565 -0.042276
    46 0.028478 -1.403069 0.006271 -1.177377 0.000000 0.000000
    47 0.021414 -0.957782 0.020047 -0.941657 0.000000 0.000000
    48 -0.249534 -2.846964 -0.174215 -0.080762 -0.069588 -0.027109
    49 0.043234 -1.683941 0.096014 -1.641337 -0.002966 -0.000335
    50 0.031729 -1.160830 0.058836 -1.206156 0.000007 0.000007
    51 0.447951 -2.798983 -0.200442 0.007430 -0.015119 -0.002954
    52 -0.032910 -1.480207 0.004936 -1.245593 0.000000 0.000002
    53 -0.027022 -1.076920 -0.020212 -1.441725 0.000000 0.000000
    54 1.164474 -2.543939 -0.170327 0.128674 0.004755 -0.053472
    55 0.024033 -1.129040 0.017806 -0.870804 -0.059348 -0.032826
    56 0.014896 -0.883991 -0.019845 -1.012506 0.074161 0.017318
    57 -0.139399 -0.111701 0.014397 0.287104 0.128861 1.462828
    58 -0.282877 0.246699 -0.109375 -0.281602 1.280992 1.784939
    59 0.583509 -1.197273 0.185379 0.002018 -1.012660 -0.380445
    60 1.535925 0.010247 0.005009 0.041536 -0.199423 -1.125862
    61 1.100770 0.004527 -0.010675 -0.000003 0.000010 -0.533644
    62 0.957766 -2.746777 -0.090301 0.043733 -0.098028 0.148425
    63 -0.033419 -1.397129 -0.011256 -0.353974 -0.018348 -0.065736
    64 -0.022362 -0.957434 0.018782 -0.737724 0.000000 0.000000
    65 0.250028 -2.820664 -0.238397 -0.432554 0.057278 -0.106682
    66 -0.049759 -1.680546 0.100479 -1.292210 0.000000 -0.000002
    67 -0.034141 -1.148309 0.084778 -1.037442 0.000000 0.000000
    68 -0.488517 -2.755600 -0.228262 -0.835668 0.054591 -0.144142
    69 0.039889 -1.479791 0.029853 -0.979208 0.000000 0.000001
    70 0.028786 -1.075733 -0.023111 -1.137903 0.000000 0.000000
    71 -1.180679 -2.507216 -0.193861 -0.828724 0.140690 -0.122920
    72 -0.024966 -1.123935 0.017594 -1.075195 0.000000 0.000001
    73 -0.020058 -0.890966 0.010091 -0.680545 0.000000 0.000000
    74 -0.028290 -0.061986 0.008014 3.389072 0.004439 -1.491707
    75 0.213654 0.249610 -0.149166 1.221085 -1.493046 -0.161010
  time 4
    0 9.192099 1.279019 -10.628434 1.155313 -1.937085 -1.376683
    1 -0.071917 -8.498733 -0.104136 0.036157 0.260213 -0.330453
    2 0.205681 -2.342137 0.940567 1.077009 1.387827 1.085887
    3 0.000000 -4.215567 1.515048 0.000000 0.000000 0.000000
    4 0.000000 -2.341781 1.586088 0.000000 0.000000 0.000000
    5 0.000000 -5.532161 -0.621212 0.000000 0.000000 0.000000
    6 0.000000 -0.521801 2.805769 0.000000 0.000000 0.000000
    7 -0.023269 -3.431372 -0.227809 0.000000 0.000000 0.000000
    8 0.208742 -3.431373 -0.227809 0.000000 0.000000 0.000000
    9 0.000000 -4.138266 1.366610 -0.785398 0.000000 0.000000
    10 0.000001 -5.700840 -0.482988 0.000000 0.000000 0.000000
    11 0.000000 -1.383378 0.000000 0.000000 0.000000 0.000000
    12 0.000000 2.828102 0.630577 -0.698132 0.000000 0.000000
    13 0.000000 -0.000003 1.974607 0.000000 0.000000 0.000000
    14 0.039126 2.377893 -0.204922 0.000000 0.000000 0.000000
    15 0.003906 1.876654 -0.255853 0.000000 0.000000 0.000000
    16 0.000000 1.591528 1.280989 0.000000 0.000000 0.000000
    17 0.000000 2.708985 2.400939 0.479145 0.000000 0.000000
    18 0.008336 0.169230 1.076291 -3.141590 -1.570796 0.000000
    19 0.408894 -0.180171 0.000001 -0.000004 -0.006676 -0.098443
    20 0.868804 -0.017805 -0.699901 -0.498610 0.248429 2.308723
    21 0.870826 0.000000 0.000000 -0.005160 -0.018044 -0.511009
    22 0.868807 -0.017810 0.699904 0.500293 -0.244754 2.301725
    23 0.870829 0.000000 0.000000 0.000000 0.000000 -0.492878
    24 1.533349 -0.110793 0.000002 -3.043096 -1.570796 0.000000
    25 -1.180962 -0.243396 0.297932 -0.000290 2.792527 0.000000
    26 -0.728785 0.000034 -1.291341 0.000000 -2.792527 0.000000
    27 0.636361 0.244402 -0.432998 0.000000 0.000000 0.000000
    28 1.206620 -0.243395 0.297466 0.000055 -2.792526 0.000000
    29 0.721537 -0.000073 -1.290879 0.000000 2.792527 0.000000
    30 -0.660701 0.244475 -0.428729 0.000000 0.000000 0.000000
    31 0.033472 -0.155557 0.563323 -0.782218 0.000000 0.000000
    32 -0.002686 -0.675740 -0.385383 0.000039 0.000000 0.000000
    33 0.000000 0.171926 0.000000 0.000000 0.000000 0.000000
    34 0.000003 0.000000 -0.537490 -0.000001 3.141591 -1.429434
    35 1.488566 -0.062166 0.000000 0.000001 0.000000 0.018666
    36 0.000000 0.000001 0.537889 -0.000001 3.141591 -1.429434
    37 1.488566 -0.062165 -0.000002 0.000001 0.000000 0.018666
    38 0.000000 -3.862867 2.592260 0.000000 0.000000 0.000000
    39 0.000000 0.088304 2.588038 0.000000 0.000000 0.000000
    40 1.521708 -5.065332 -13.133044 0.527080 -3.893746 -5.350271
    41 0.096946 -8.450419 -0.009364 0.527161 -0.631770 0.039079
    42 -0.587378 -1.261647 0.201457 -0.164209 -0.774452 -2.641896
    43 1.522835 0.058680 0.016851 0.237539 -0.043040 0.987308
    44 1.117948 0.048425 -0.005765 -0.000003 0.000018 0.775136
    45 -0.963867 -2.785143 -0.085346 -0.018724 0.089565 -0.042276
    46 0.028478 -1.403069 0.006271 -1.177377 0.000000 0.000000
    47 0.021414 -0.957782 0.020047 -0.941657 0.000000 0.000000
    48 -0.249534 -2.846964 -0.174215 -0.080762 -0.069588 -0.027109
    49 0.043234 -1.683941 0.096014 -1.641337 -0.002966 -0.000335
    50 0.031729 -1.160830 0.058836 -1.206156 0.000007 0.000007
    51 0.447951 -2.798983 -0.200442 0.007430 -0.015119 -0.002954
    52 -0.032910 -1.480207 0.004936 -1.245593 0.000000 0.000002
    53 -0.027022 -1.076920 -0.020212 -1.441725 0.000000 0.000000
    54 1.164474 -2.543939 -0.170327 0.128674 0.004755 -0.053472
    55 0.024033 -1.129040 0.017806 -0.870804 -0.059348 -0.032826
    56 0.014896 -0.883991 -0.019845 -1.012506 0.074161 0.017318
    57 -0.139399 -0.111701 0.014397 0.287104 0.128861 1.462828
    58 -0.282877 0.246699 -0.109375 -0.281602 1.280992 1.784939
    59 0.583509 -1.197273 0.185379 0.002018 -1.012660 -0.380445
    60 1.535925 0.010247 0.005009 0.041536 -0.199423 -1.125862
    61 1.100770 0.004527 -0.010675 -0.000003 0.000010 -0.533644
    62 0.957766 -2.746777 -0.090301 0.043733 -0.098028 0.148425
    63 -0.033419 -1.397129 -0.011256 -0.353974 -0.018348 -0.065736
    64 -0.022362 -0.957434 0.018782 -0.737724 0.000000 0.000000
    65 0.250028 -2.820664 -0.238397 -0.432554 0.057278 -0.106682
    66 -0.049759 -1.680546 0.100479 -1.292210 0.000000 -0.000002
    67 -0.034141 -1.148309 0.084778 -1.037442 0.000000 0.000000
    68 -0.488517 -2.755600 -0.228262 -0.835668 0.054591 -0.144142
    69 0.039889 -1.479791 0.029853 -0.979208 0.000000 0.000001
    70 0.028786 -1.075733 -0.023111 -1.137903 0.000000 0.000000
    71 -1.180679 -2.507216 -0.193861 -0.828724 0.140690 -0.122920
    72 -0.024966 -1.123935 0.017594 -1.075195 0.000000 0.000001
    73 -0.020058 -0.890966 0.010091 -0.680545 0.000000 0.000000
    74 -0.028290 -0.061986 0.008014 3.389072 0.004439 -1.491707
    75 0.213654 0.249610 -0.149166 1.221085 -1.493046 -0.161010
  time 5
    0 9.192099 1.279019 -10.628434 1.155313 -1.937085 -1.376683
    1 -0.071917 -8.498733 -0.104136 0.036157 0.260213 -0.330453
    2 0.205681 -2.342137 0.940567 1.077009 1.387827 1.085887
    3 0.000000 -4.215567 1.515048 0.000000 0.000000 0.000000
    4 0.000000 -2.341781 1.586088 0.000000 0.000000 0.000000
    5 0.000000 -5.532161 -0.621212 0.000000 0.000000 0.000000
    6 0.000000 -0.521801 2.805769 0.000000 0.000000 0.000000
    7 -0.023269 -3.431372 -0.227809 0.000000 0.000000 0.000000
    8 0.208742 -3.431373 -0.227809 0.000000 0.000000 0.000000
    9 0.000000 -4.138266 1.366610 -0.785398 0.000000 0.000000
    10 0.000001 -5.700840 -0.482988 0.000000 0.000000 0.000000
    11 0.000000 -1.383378 0.000000 0.000000 0.000000 0.000000
    12 0.000000 2.828102 0.630577 -0.698132 0.000000 0.000000
    13 0.000000 -0.000003 1.974607 0.000000 0.000000 0.000000
    14 0.039126 2.377893 -0.204922 0.000000 0.000000 0.000000
    15 0.003906 1.876654 -0.255853 0.000000 0.000000 0.000000
    16 0.000000 1.591528 1.280989 0.000000 0.000000 0.000000
    17 0.000000 2.708985 2.400939 0.479145 0.000000 0.000000
    18 0.008336 0.169230 1.076291 -3.141590 -1.570796 0.000000
    19 0.408894 -0.180171 0.000001 -0.000004 -0.007455 -0.098443
    20 0.868804 -0.017805 -0.699901 -0.498399 0.248885 2.309536
    21 0.870826 0.000000 0.000000 -0.005771 -0.020136 -0.513102
    22 0.868807 -0.017810 0.699904 0.500293 -0.244754 2.301725
    23 0.870829 0.000000 0.000000 0.000000 0.000000 -0.492878
    24 1.533349 -0.110793 0.000002 -3.043096 -1.570796 0.000000
    25 -1.180962 -0.243396 0.297932 -0.000290 2.792527 0.000000
    26 -0.728785 0.000034 -1.291341 0.000000 -2.792527 0.000000
    27 0.636361 0.244402 -0.432998 0.000000 0.000000 0.000000
    28 1.206620 -0.243395 0.297466 0.000055 -2.792526 0.000000
    29 0.721537 -0.000073 -1.290879 0.000000 2.792527 0.000000
    30 -0.660701 0.244475 -0.428729 0.000000 0.000000 0.000000
    31 0.033472 -0.155557 0.563323 -0.782218 0.000000 0.000000
    32 -0.002686 -0.675740 -0.385383 0.000039 0.000000 0.000000
    33 0.000000 0.171926 0.000000 0.000000 0.000000 0.000000
    34 0.000003 0.000000 -0.537490 -0.000001 3.141591 -1.429434
    35 1.488566 -0.062166 0.000000 0.000001 0.000000 0.018666
    36 0.000000 0.000001 0.537889 -0.000001 3.141591 -1.429434
    37 1.488566 -0.062165 -0.000002 0.000001 0.000000 0.018666
    38 0.000000 -3.862867 2.592260 0.000000 0.000000 0.000000
    39 0.000000 0.088304 2.588038 0.000000 0.000000 0.000000
    40 1.521708 -5.065332 -13.133044 0.527080 -3.893746 -5.350271
    41 0.096946 -8.450419 -0.009364 0.527161 -0.631770 0.039079
    42 -0.587378 -1.261647 0.201457 -0.164209 -0.774452 -2.641896
    43 1.522835 0.058680 0.016851 0.237539 -0.043040 0.987308
    44 1.117948 0.048425 -0.005765 -0.000003 0.000018 0.775136
    45 -0.963867 -2.785143 -0.085346 -0.018724 0.089565 -0.042276
    46 0.028478 -1.403069 0.006271 -1.177377 0.000000 0.000000
    47 0.021414 -0.957782 0.020047 -0.941657 0.000000 0.000000
    48 -0.249534 -2.846964 -0.174215 -0.080762 -0.069588 -0.027109
    49 0.043234 -1.683941 0.096014 -1.641337 -0.002966 -0.000335
    50 0.031729 -1.160830 0.058836 -1.206156 0.000007 0.000007
    51 0.447951 -2.798983 -0.200442 0.007430 -0.015119 -0.002954
    52 -0.032910 -1.480207 0.004936 -1.245593 0.000000 0.000002
    53 -0.027022 -1.076920 -0.020212 -1.441725 0.000000 0.000000
    54 1.164474 -2.543939 -0.170327 0.128674 0.004755 -0.053472
    55 0.024033 -1.129040 0.017806 -0.870804 -0.059348 -0.032826
    56 0.014896 -0.883991 -0.019845 -1.012506 0.074161 0.017318
    57 -0.139399 -0.111701 0.014397 0.287104 0.128861 1.462828
    58 -0.282877 0.246699 -0.109375 -0.281602 1.280992 1.784939
    59 0.583509 -1.197273 0.185379 0.002018 -1.012660 -0.380445
    60 1.535925 0.010247 0.005009 0.041536 -0.199423 -1.125862
    61 1.100770 0.004527 -0.010675 -0.000003 0.000010 -0.533644
    62 0.957766 -2.746777 -0.090301 0.043733 -0.098028 0.148425
    63 -0.033419 -1.397129 -0.011256 -0.353974 -0.018348 -0.065736
    64 -0.022362 -0.957434 0.018782 -0.737724 0.000000 0.000000
    65 0.250028 -2.820664 -0.238397 -0.432554 0.057278 -0.106682
    66 -0.049759 -1.680546 0.100479 -1.292210 0.000000 -0.000002
    67 -0.034141 -1.148309 0.084778 -1.037442 0.000000 0.000000
    68 -0.488517 -2.755600 -0.228262 -0.835668 0.054591 -0.144142
    69 0.039889 -1.479791 0.029853 -0.979208 0.000000 0.000001
    70 0.028786 -1.075733 -0.023111 -1.137903 0.000000 0.000000
    71 -1.180679 -2.507216 -0.193861 -0.828724 0.140690 -0.122920
    72 -0.024966 -1.123935 0.017594 -1.075195 0.000000 0.000001
    73 -0.020058 -0.890966 0.010091 -0.680545 0.000000 0.000000
    74 -0.028290 -0.061986 0.008014 3.389072 0.004439 -1.491707
    75 0.213654 0.249610 -0.149166 1.221085 -1.493046 -0.161010
  time 6
    0 9.192099 1.279019 -10.628434 1.155313 -1.937085 -1.376683
    1 -0.071917 -8.498733 -0.104136 0.036157 0.260213 -0.330453
    2 0.205681 -2.342137 0.940567 1.077009 1.387827 1.085887
    3 0.000000 -4.215567 1.515048 0.000000 0.000000 0.000000
    4 0.000000 -2.341781 1.586088 0.000000 0.000000 0.000000
    5 0.000000 -5.532161 -0.621212 0.000000 0.000000 0.000000
    6 0.000000 -0.521801 2.805769 0.000000 0.000000 0.000000
    7 -0.023269 -3.431372 -0.227809 0.000000 0.000000 0.000000
    8 0.208742 -3.431373 -0.227809 0.000000 0.000000 0.000000
    9 0.000000 -4.138266 1.366610 -0.785398 0.000000 0.000000
    10 0.000001 -5.700840 -0.482988 0.000000 0.000000 0.000000
    11 0.000000 -1.383378 0.000000 0.000000 0.000000 0.000000
    12 0.000000 2.828102 0.630577 -0.698132 0.000000 0.000000
    13 0.000000 -0.000003 1.974607 0.000000 0.000000 0.000000
    14 0.039126 2.377893 -0.204922 0.000000 0.000000 0.000000
    15 0.003906 1.876654 -0.255853 0.000000 0.000000 0.000000
    16 0.000000 1.591528 1.280989 0.000000 0.000000 0.000000
    17 0.000000 2.708985 2.400939 0.479145 0.000000 0.000000
    18 0.008336 0.169230 1.076291 -3.141590 -1.570796 0.000000
    19 0.408894 -0.180171 0.000001 -0.000004 -0.006676 -0.098443
    20 0.868804 -0.017805 -0.699901 -0.498610 0.248429 2.308723
    21 0.870826 0.000000 0.000000 -0.005160 -0.018044 -0.511009
    22 0.868807 -0.017810 0.699904 0.500293 -0.244754 2.301725
    23 0.870829 0.000000 0.000000 0.000000 0.000000 -0.492878
    24 1.533349 -0.110793 0.000002 -3.043096 -1.570796 0.000000
    25 -1.180962 -0.243396 0.297932 -0.000290 2.792527 0.000000
    26 -0.728785 0.000034 -1.291341 0.000000 -2.792527 0.000000
    27 0.636361 0.244402 -0.432998 0.000000 0.000000 0.000000
    28 1.206620 -0.243395 0.297466 0.000055 -2.792526 0.000000
    29 0.721537 -0.000073 -1.290879 0.000000 2.792527 0.000000
    30 -0.660701 0.244475 -0.428729 0.000000 0.000000 0.000000
    31 0.033472 -0.155557 0.563323 -0.782218 0.000000 0.000000
    32 -0.002686 -0.675740 -0.385383 0.000039 0.000000 0.000000
    33 0.000000 0.171926 0.000000 0.000000 0.000000 0.000000
    34 0.000003 0.000000 -0.537490 -0.000001 3.141591 -1.429434
    35 1.488566 -0.062166 0.000000 0.000001 0.000000 0.018666
    36 0.000000 0.000001 0.537889 -0.000001 3.141591 -1.429434
    37 1.488566 -0.062165 -0.000002 0.000001 0.000000 0.018666
    38 0.000000 -3.862867 2.592260 0.000000 0.000000 0.000000
    39 0.000000 0.088304 2.588038 0.000000 0.000000 0.000000
    40 1.521708 -5.065332 -13.133044 0.527080 -3.893746 -5.350271
    41 0.096946 -8.450419 -0.009364 0.527161 -0.631770 0.039079
    42 -0.587378 -1.261647 0.201457 -0.164209 -0.774452 -2.641896
    43 1.522835 0.058680 0.016851 0.237539 -0.043040 0.987308
    44 1.117948 0.048425 -0.005765 -0.000003 0.000018 0.775136
    45 -0.963867 -2.785143 -0.085346 -0.018724 0.089565 -0.042276
    46 0.028478 -1.403069 0.006271 -1.177377 0.000000 0.000000
    47 0.021414 -0.957782 0.020047 -0.941657 0.000000 0.000000
    48 -0.249534 -2.846964 -0.174215 -0.080762 -0.069588 -0.027109
    49 0.043234 -1.683941 0.096014 -1.641337 -0.002966 -0.000335
    50 0.031729 -1.160830 0.058836 -1.206156 0.000007 0.000007
    51 0.447951 -2.798983 -0.200442 0.007430 -0.015119 -0.002954
    52 -0.032910 -1.480207 0.004936 -1.245593 0.000000 0.000002
    53 -0.027022 -1.076920 -0.020212 -1.441725 0.000000 0.000000
    54 1.164474 -2.543939 -0.170327 0.128674 0.004755 -0.053472
    55 0.024033 -1.129040 0.017806 -0.870804 -0.059348 -0.032826
    56 0.014896 -0.883991 -0.019845 -1.012506 0.074161 0.017318
    57 -0.139399 -0.111701 0.014397 0.287104 0.128861 1.462828
    58 -0.282877 0.246699 -0.109375 -0.281602 1.280992 1.784939
    59 0.583509 -1.197273 0.185379 0.002018 -1.012660 -0.380445
    60 1.535925 0.010247 0.005009 0.041536 -0.199423 -1.125862
    61 1.100770 0.004527 -0.010675 -0.000003 0.000010 -0.533644
    62 0.957766 -2.746777 -0.090301 0.043733 -0.098028 0.148425
    63 -0.033419 -1.397129 -0.011256 -0.353974 -0.018348 -0.065736
    64 -0.022362 -0.957434 0.018782 -0.737724 0.000000 0.000000
    65 0.250028 -2.820664 -0.238397 -0.432554 0.057278 -0.106682
    66 -0.049759 -1.680546 0.100479 -1.292210 0.000000 -0.000002
    67 -0.034141 -1.148309 0.084778 -1.037442 0.000000 0.000000
    68 -0.488517 -2.755600 -0.228262 -0.835668 0.054591 -0.144142
    69 0.039889 -1.479791 0.029853 -0.979208 0.000000 0.000001
    70 0.028786 -1.075733 -0.023111 -1.137903 0.000000 0.000000
    71 -1.180679 -2.507216 -0.193861 -0.828724 0.140690 -0.122920
    72 -0.024966 -1.123935 0.017594 -1.075195 0.000000 0.000001
    73 -0.020058 -0.890966 0.010091 -0.680545 0.000000 0.000000
    74 -0.028290 -0.061986 0.008014 3.389072 0.004439 -1.491707
    75 0.213654 0.249610 -0.149166 1.221085 -1.493046 -0.161010
  time 7
    0 9.192099 1.279019 -10.628434 1.155313 -1.937085 -1.376683
    1 -0.071917 -8.498733 -0.104136 0.036157 0.260213 -0.330453
    2 0.205681 -2.342137 0.940567 1.077009 1.387827 1.085887
    3 0.000000 -4.215567 1.515048 0.000000 0.000000 0.000000
    4 0.000000 -2.341781 1.586088 0.000000 0.000000 0.000000
    5 0.000000 -5.532161 -0.621212 0.000000 0.000000 0.000000
    6 0.000000 -0.521801 2.805769 0.000000 0.000000 0.000000
    7 -0.023269 -3.431372 -0.227809 0.000000 0.000000 0.000000
    8 0.208742 -3.431373 -0.227809 0.000000 0.000000 0.000000
    9 0.000000 -4.138266 1.366610 -0.785398 0.000000 0.000000
    10 0.000001 -5.700840 -0.482988 0.000000 0.000000 0.000000
    11 0.000000 -1.383378 0.000000 0.000000 0.000000 0.000000
    12 0.000000 2.828102 0.630577 -0.698132 0.000000 0.000000
    13 0.000000 -0.000003 1.974607 0.000000 0.000000 0.000000
    14 0.039126 2.377893 -0.204922 0.000000 0.000000 0.000000
    15 0.003906 1.876654 -0.255853 0.000000 0.000000 0.000000
    16 0.000000 1.591528 1.280989 0.000000 0.000000 0.000000
    17 0.000000 2.708985 2.400939 0.479145 0.000000 0.000000
    18 0.008336 0.169230 1.076291 -3.141590 -1.570796 0.000000
    19 0.408894 -0.180171 0.000001 -0.000004 -0.004831 -0.098443
    20 0.868804 -0.017805 -0.699901 -0.499074 0.247413 2.306786
    21 0.870826 0.000000 0.000000 -0.003730 -0.013055 -0.505990
    22 0.868807 -0.017810 0.699904 0.500293 -0.244754 2.301725
    23 0.870829 0.000000 0.000000 0.000000 0.000000 -0.492878
    24 1.533349 -0.110793 0.000002 -3.043096 -1.570796 0.000000
    25 -1.180962 -0.243396 0.297932 -0.000290 2.792527 0.000000
    26 -0.728785 0.000034 -1.291341 0.000000 -2.792527 0.000000
    27 0.636361 0.244402 -0.432998 0.000000 0.000000 0.000000
    28 1.206620 -0.243395 0.297466 0.000055 -2.792526 0.000000
    29 0.721537 -0.000073 -1.290879 0.000000 2.792527 0.000000
    30 -0.660701 0.244475 -0.428729 0.000000 0.000000 0.000000
    31 0.033472 -0.155557 0.563323 -0.782218 0.000000 0.000000
    32 -0.002686 -0.675740 -0.385383 0.000039 0.000000 0.000000
    33 0.000000 0.171926 0.000000 0.000000 0.000000 0.000000
    34 0.000003 0.000000 -0.537490 -0.000001 3.141591 -1.429434
    35 1.488566 -0.062166 0.000000 0.000001 0.000000 0.018666
    36 0.000000 0.000001 0.537889 -0.000001 3.141591 -1.429434
    37 1.488566 -0.062165 -0.000002 0.000001 0.000000 0.018666
    38 0.000000 -3.862867 2.592260 0.000000 0.000000 0.000000
    39 0.000000 0.088304 2.588038 0.000000 0.000000 0.000000
    40 1.521708 -5.065332 -13.133044 0.527080 -3.893746 -5.350271
    41 0.096946 -8.450419 -0.009364 0.527161 -0.631770 0.039079
    42 -0.587378 -1.261647 0.201457 -0.164209 -0.774452 -2.641896
    43 1.522835 0.058680 0.016851 0.237539 -0.043040 0.987308
    44 1.117948 0.048425 -0.005765 -0.000003 0.000018 0.775136
    45 -0.963867 -2.785143 -0.085346 -0.018724 0.089565 -0.042276
    46 0.028478 -1.403069 0.006271 -1.177377 0.000000 0.000000
    47 0.021414 -0.957782 0.020047 -0.941657 0.000000 0.000000
    48 -0.249534 -2.846964 -0.174215 -0.080762 -0.069588 -0.027109
    49 0.043234 -1.683941 0.096014 -1.641337 -0.002966 -0.000335
    50 0.031729 -1.160830 0.058836 -1.206156 0.000007 0.000007
    51 0.447951 -2.798983 -0.200442 0.007430 -0.015119 -0.002954
    52 -0.032910 -1.480207 0.004936 -1.245593 0.000000 0.000002
    53 -0.027022 -1.076920 -0.020212 -1.441725 0.000000 0.000000
    54 1.164474 -2.543939 -0.170327 0.128674 0.004755 -0.053472
    55 0.024033 -1.129040 0.017806 -0.870804 -0.059348 -0.032826
    56 0.014896 -0.883991 -0.019845 -1.012506 0.074161 0.017318
    57 -0.139399 -0.111701 0.014397 0.287104 0.128861 1.462828
    58 -0.282877 0.246699 -0.109375 -0.281602 1.280992 1.784939
    59 0.583509 -1.197273 0.185379 0.002018 -1.012660 -0.380445
    60 1.535925 0.010247 0.005009 0.041536 -0.199423 -1.125862
    61 1.100770 0.004527 -0.010675 -0.000003 0.000010 -0.533644
    62 0.957766 -2.746777 -0.090301 0.043733 -0.098028 0.148425
    63 -0.033419 -1.397129 -0.011256 -0.353974 -0.018348 -0.065736
    64 -0.022362 -0.957434 0.018782 -0.737724 0.000000 0.000000
    65 0.250028 -2.820664 -0.238397 -0.432554 0.057278 -0.106682
    66 -0.049759 -1.680546 0.100479 -1.292210 0.000000 -0.000002
    67 -0.034141 -1.148309 0.084778 -1.037442 0.000000 0.000000
    68 -0.488517 -2.755600 -0.228262 -0.835668 0.054591 -0.144142
    69 0.039889 -1.479791 0.029853 -0.979208 0.000000 0.000001
    70 0.028786 -1.075733 -0.023111 -1.137903 0.000000 0.000000
    71 -1.180679 -2.507216 -0.193861 -0.828724 0.140690 -0.122920
    72 -0.024966 -1.123935 0.017594 -1.075195 0.000000 0.000001
    73 -0.020058 -0.890966 0.010091 -0.680545 0.000000 0.000000
    74 -0.028290 -0.061986 0.008014 3.389072 0.004439 -1.491707
    75 0.213654 0.249610 -0.149166 1.221085 -1.493046 -0.161010
  time 8
    0 9.192099 1.279019 -10.628434 1.155313 -1.937085 -1.376683
    1 -0.071917 -8.498733 -0.104136 0.036157 0.260213 -0.330453
    2 0.205681 -2.342137 0.940567 1.077009 1.387827 1.085887
    3 0.000000 -4.215567 1.515048 0.000000 0.000000 0.000000
    4 0.000000 -2.341781 1.586088 0.000000 0.000000 0.000000
    5 0.000000 -5.532161 -0.621212 0.000000 0.000000 0.000000
    6 0.000000 -0.521801 2.805769 0.000000 0.000000 0.000000
    7 -0.023269 -3.431372 -0.227809 0.000000 0.000000 0.000000
    8 0.208742 -3.431373 -0.227809 0.000000 0.000000 0.000000
    9 0.000000 -4.138266 1.366610 -0.785398 0.000000 0.000000
    10 0.000001 -5.700840 -0.482988 0.000000 0.000000 0.000000
    11 0.000000 -1.383378 0.000000 0.000000 0.000000 0.000000
    12 0.000000 2.828102 0.630577 -0.698132 0.000000 0.000000
    13 0.000000 -0.000003 1.974607 0.000000 0.000000 0.000000
    14 0.039126 2.377893 -0.204922 0.000000 0.000000 0.000000
    15 0.003906 1.876654 -0.255853 0.000000 0.000000 0.000000
    16 0.000000 1.591528 1.280989 0.000000 0.000000 0.000000
    17 0.000000 2.708985 2.400939 0.479145 0.000000 0.000000
    18 0.008336 0.169230 1.076291 -3.141590 -1.570796 0.000000
    19 0.408894 -0.180171 0.000001 -0.000004 -0.002626 -0.098443
    20 0.868804 -0.017805 -0.699901 -0.499664 0.246187 2.304473
    21 0.870826 0.000000 0.000000 -0.002028 -0.007081 -0.499989
    22 0.868807 -0.017810 0.699904 0.500293 -0.244754 2.301725
    23 0.870829 0.000000 0.000000 0.000000 0.000000 -0.492878
    24 1.533349 -0.110793 0.000002 -3.043096 -1.570796 0.000000
    25 -1.180962 -0.243396 0.297932 -0.000290 2.792527 0.000000
    26 -0.728785 0.000034 -1.291341 0.000000 -2.792527 0.000000
    27 0.636361 0.244402 -0.432998 0.000000 0.000000 0.000000
    28 1.206620 -0.243395 0.297466 0.000055 -2.792526 0.000000
    29 0.721537 -0.000073 -1.290879 0.000000 2.792527 0.000000
    30 -0.660701 0.244475 -0.428729 0.000000 0.000000 0.000000
    31 0.033472 -0.155557 0.563323 -0.782218 0.000000 0.000000
    32 -0.002686 -0.675740 -0.385383 0.000039 0.000000 0.000000
    33 0.000000 0.171926 0.000000 0.000000 0.000000 0.000000
    34 0.000003 0.000000 -0.537490 -0.000001 3.141591 -1.429434
    35 1.488566 -0.062166 0.000000 0.000001 0.000000 0.018666
    36 0.000000 0.000001 0.537889 -0.000001 3.141591 -1.429434
    37 1.488566 -0.062165 -0.000002 0.000001 0.000000 0.018666
    38 0.000000 -3.862867 2.592260 0.000000 0.000000 0.000000
    39 0.000000 0.088304 2.588038 0.000000 0.000000 0.000000
    40 1.521708 -5.065332 -13.133044 0.527080 -3.893746 -5.350271
    41 0.096946 -8.450419 -0.009364 0.527161 -0.631770 0.039079
    42 -0.587378 -1.261647 0.201457 -0.164209 -0.774452 -2.641896
    43 1.522835 0.058680 0.016851 0.237539 -0.043040 0.987308
    44 1.117948 0.048425 -0.005765 -0.000003 0.000018 0.775136
    45 -0.963867 -2.785143 -0.085346 -0.018724 0.089565 -0.042276
    46 0.028478 -1.403069 0.006271 -1.177377 0.000000 0.000000
    47 0.021414 -0.957782 0.020047 -0.941657 0.000000 0.000000
    48 -0.249534 -2.846964 -0.174215 -0.080762 -0.069588 -0.027109
    49 0.043234 -1.683941 0.096014 -1.641337 -0.002966 -0.000335
    50 0.031729 -1.160830 0.058836 -1.206156 0.000007 0.000007
    51 0.447951 -2.798983 -0.200442 0.007430 -0.015119 -0.002954
    52 -0.032910 -1.480207 0.004936 -1.245593 0.000000 0.000002
    53 -0.027022 -1.076920 -0.020212 -1.441725 0.000000 0.000000
    54 1.164474 -2.543939 -0.170327 0.128674 0.004755 -0.053472
    55 0.024033 -1.129040 0.017806 -0.870804 -0.059348 -0.032826
    56 0.014896 -0.883991 -0.019845 -1.012506 0.074161 0.017318
    57 -0.139399 -0.111701 0.014397 0.287104 0.128861 1.462828
    58 -0.282877 0.246699 -0.109375 -0.281602 1.280992 1.784939
    59 0.583509 -1.197273 0.185379 0.002018 -1.012660 -0.380445
    60 1.535925 0.010247 0.005009 0.041536 -0.199423 -1.125862
    61 1.100770 0.004527 -0.010675 -0.000003 0.000010 -0.533644
    62 0.957766 -2.746777 -0.090301 0.043733 -0.098028 0.148425
    63 -0.033419 -1.397129 -0.011256 -0.353974 -0.018348 -0.065736
    64 -0.022362 -0.957434 0.018782 -0.737724 0.000000 0.000000
    65 0.250028 -2.820664 -0.238397 -0.432554 0.057278 -0.106682
    66 -0.049759 -1.680546 0.100479 -1.292210 0.000000 -0.000002
    67 -0.034141 -1.148309 0.084778 -1.037442 0.000000 0.000000
    68 -0.488517 -2.755600 -0.228262 -0.835668 0.054591 -0.144142
    69 0.039889 -1.479791 0.029853 -0.979208 0.000000 0.000001
    70 0.028786 -1.075733 -0.023111 -1.137903 0.000000 0.000000
    71 -1.180679 -2.507216 -0.193861 -0.828724 0.140690 -0.122920
    72 -0.024966 -1.123935 0.017594 -1.075195 0.000000 0.000001
    73 -0.020058 -0.890966 0.010091 -0.680545 0.000000 0.000000
    74 -0.028290 -0.061986 0.008014 3.389072 0.004439 -1.491707
    75 0.213654 0.249610 -0.149166 1.221085 -1.493046 -0.161010
  time 9
    0 9.192099 1.279019 -10.628434 1.155313 -1.937085 -1.376683
    1 -0.071917 -8.498733 -0.104136 0.036157 0.260213 -0.330453
    2 0.205681 -2.342137 0.940567 1.077009 1.387827 1.085887
    3 0.000000 -4.215567 1.515048 0.000000 0.000000 0.000000
    4 0.000000 -2.341781 1.586088 0.000000 0.000000 0.000000
    5 0.000000 -5.532161 -0.621212 0.000000 0.000000 0.000000
    6 0.000000 -0.521801 2.805769 0.000000 0.000000 0.000000
    7 -0.023269 -3.431372 -0.227809 0.000000 0.000000 0.000000
    8 0.208742 -3.431373 -0.227809 0.000000 0.000000 0.000000
    9 0.000000 -4.138266 1.366610 -0.785398 0.000000 0.000000
    10 0.000001 -5.700840 -0.482988 0.000000 0.000000 0.000000
    11 0.000000 -1.383378 0.000000 0.000000 0.000000 0.000000
    12 0.000000 2.828102 0.630577 -0.698132 0.000000 0.000000
    13 0.000000 -0.000003 1.974607 0.000000 0.000000 0.000000
    14 0.039126 2.377893 -0.204922 0.000000 0.000000 0.000000
    15 0.003906 1.876654 -0.255853 0.000000 0.000000 0.000000
    16 0.000000 1.591528 1.280989 0.000000 0.000000 0.000000
    17 0.000000 2.708985 2.400939 0.479145 0.000000 0.000000
    18 0.008336 0.169230 1.076291 -3.141590 -1.570796 0.000000
    19 0.408894 -0.180171 0.000001 -0.000004 -0.000768 -0.098443
    20 0.868804 -0.017805 -0.699901 -0.500128 0.245170 2.302536
    21 0.870826 0.000000 0.000000 -0.000598 -0.002092 -0.494971
    22 0.868807 -0.017810 0.699904 0.500293 -0.244754 2.301725
    23 0.870829 0.000000 0.000000 0.000000 0.000000 -0.492878
    24 1.533349 -0.110793 0.000002 -3.043096 -1.570796 0.000000
    25 -1.180962 -0.243396 0.297932 -0.000290 2.792527 0.000000
    26 -0.728785 0.000034 -1.291341 0.000000 -2.792527 0.000000
    27 0.636361 0.244402 -0.432998 0.000000 0.000000 0.000000
    28 1.206620 -0.243395 0.297466 0.000055 -2.792526 0.000000
    29 0.721537 -0.000073 -1.290879 0.000000 2.792527 0.000000
    30 -0.660701 0.244475 -0.428729 0.000000 0.000000 0.000000
    31 0.033472 -0.155557 0.563323 -0.782218 0.000000 0.000000
    32 -0.002686 -0.675740 -0.385383 0.000039 0.000000 0.000000
    33 0.000000 0.171926 0.000000 0.000000 0.000000 0.000000
    34 0.000003 0.000000 -0.537490 -0.000001 3.141591 -1.429434
    35 1.488566 -0.062166 0.000000 0.000001 0.000000 0.018666
    36 0.000000 0.000001 0.537889 -0.000001 3.141591 -1.429434
    37 1.488566 -0.062165 -0.000002 0.000001 0.000000 0.018666
    38 0.000000 -3.862867 2.592260 0.000000 0.000000 0.000000
    39 0.000000 0.088304 2.588038 0.000000 0.000000 0.000000
    40 1.521708 -5.065332 -13.133044 0.527080 -3.893746 -5.350271
    41 0.096946 -8.450419 -0.009364 0.527161 -0.631770 0.039079
    42 -0.587378 -1.261647 0.201457 -0.164209 -0.774452 -2.641896
    43 1.522835 0.058680 0.016851 0.237539 -0.043040 0.987308
    44 1.117948 0.048425 -0.005765 -0.000003 0.000018 0.775136
    45 -0.963867 -2.785143 -0.085346 -0.018724 0.089565 -0.042276
    46 0.028478 -1.403069 0.006271 -1.177377 0.000000 0.000000
    47 0.021414 -0.957782 0.020047 -0.941657 0.000000 0.000000
    48 -0.249534 -2.846964 -0.174215 -0.080762 -0.069588 -0.027109
    49 0.043234 -1.683941 0.096014 -1.641337 -0.002966 -0.000335
    50 0.031729 -1.160830 0.058836 -1.206156 0.000007 0.000007
    51 0.447951 -2.798983 -0.200442 0.007430 -0.015119 -0.002954
    52 -0.032910 -1.480207 0.004936 -1.245593 0.000000 0.000002
    53 -0.027022 -1.076920 -0.020212 -1.441725 0.000000 0.000000
    54 1.164474 -2.543939 -0.170327 0.128674 0.004755 -0.053472
    55 0.024033 -1.129040 0.017806 -0.870804 -0.059348 -0.032826
    56 0.014896 -0.883991 -0.019845 -1.012506 0.074161 0.017318
    57 -0.139399 -0.111701 0.014397 0.287104 0.128861 1.462828
    58 -0.282877 0.246699 -0.109375 -0.281602 1.280992 1.784939
    59 0.583509 -1.197273 0.185379 0.002018 -1.012660 -0.380445
    60 1.535925 0.010247 0.005009 0.041536 -0.199423 -1.125862
    61 1.100770 0.004527 -0.010675 -0.000003 0.000010 -0.533644
    62 0.957766 -2.746777 -0.090301 0.043733 -0.098028 0.148425
    63 -0.033419 -1.397129 -0.011256 -0.353974 -0.018348 -0.065736
    64 -0.022362 -0.957434 0.018782 -0.737724 0.000000 0.000000
    65 0.250028 -2.820664 -0.238397 -0.432554 0.057278 -0.106682
    66 -0.049759 -1.680546 0.100479 -1.292210 0.000000 -0.000002
    67 -0.034141 -1.148309 0.084778 -1.037442 0.000000 0.000000
    68 -0.488517 -2.755600 -0.228262 -0.835668 0.054591 -0.144142
    69 0.039889 -1.479791 0.029853 -0.979208 0.000000 0.000001
    70 0.028786 -1.075733 -0.023111 -1.137903 0.000000 0.000000
    71 -1.180679 -2.507216 -0.193861 -0.828724 0.140690 -0.122920
    72 -0.024966 -1.123935 0.017594 -1.075195 0.000000 0.000001
    73 -0.020058 -0.890966 0.010091 -0.680545 0.000000 0.000000
    74 -0.028290 -0.061986 0.008014 3.389072 0.004439 -1.491707
    75 0.213654 0.249610 -0.149166 1.221085 -1.493046 -0.161010
  time 10
    0 9.192099 1.279019 -10.628434 1.155313 -1.937085 -1.376683
    1 -0.071917 -8.498733 -0.104136 0.036157 0.260213 -0.330453
    2 0.205681 -2.342137 0.940567 1.077009 1.387827 1.085887
    3 0.000000 -4.215567 1.515048 0.000000 0.000000 0.000000
    4 0.000000 -2.341781 1.586088 0.000000 0.000000 0.000000
    5 0.000000 -5.532161 -0.621212 0.000000 0.000000 0.000000
    6 0.000000 -0.521801 2.805769 0.000000 0.000000 0.000000
    7 -0.023269 -3.431372 -0.227809 0.000000 0.000000 0.000000
    8 0.208742 -3.431373 -0.227809 0.000000 0.000000 0.000000
    9 0.000000 -4.138266 1.366610 -0.785398 0.000000 0.000000
    10 0.000001 -5.700840 -0.482988 0.000000 0.000000 0.000000
    11 0.000000 -1.383378 0.000000 0.000000 0.000000 0.000000
    12 0.000000 2.828102 0.630577 -0.698132 0.000000 0.000000
    13 0.000000 -0.000003 1.974607 0.000000 0.000000 0.000000
    14 0.039126 2.377893 -0.204922 0.000000 0.000000 0.000000
    15 0.003906 1.876654 -0.255853 0.000000 0.000000 0.000000
    16 0.000000 1.591528 1.280989 0.000000 0.000000 0.000000
    17 0.000000 2.708985 2.400939 0.479145 0.000000 0.000000
    18 0.008336 0.169230 1.076291 -3.141590 -1.570796 0.000000
    19 0.408894 -0.180171 0.000001 -0.000004 -0.000001 -0.098443
    20 0.868804 -0.017805 -0.699901 -0.500297 0.244750 2.301723
    21 0.870826 0.000000 0.000000 0.000000 0.000000 -0.492878
    22 0.868807 -0.017810 0.699904 0.500293 -0.244754 2.301725
    23 0.870829 0.000000 0.000000 0.000000 0.000000 -0.492878
    24 1.533349 -0.110793 0.000002 -3.043096 -1.570796 0.000000
    25 -1.180962 -0.243396 0.297932 -0.000290 2.792527 0.000000
    26 -0.728785 0.000034 -1.291341 0.000000 -2.792527 0.000000
    27 0.636361 0.244402 -0.432998 0.000000 0.000000 0.000000
    28 1.206620 -0.243395 0.297466 0.000055 -2.792526 0.000000
    29 0.721537 -0.000073 -1.290879 0.000000 2.792527 0.000000
    30 -0.660701 0.244475 -0.428729 0.000000 0.000000 0.000000
    31 0.033472 -0.155557 0.563323 -0.782218 0.000000 0.000000
    32 -0.002686 -0.675740 -0.385383 0.000039 0.000000 0.000000
    33 0.000000 0.171926 0.000000 0.000000 0.000000 0.000000
    34 0.000003 0.000000 -0.537490 -0.000001 3.141591 -1.429434
    35 1.488566 -0.062166 0.000000 0.000001 0.000000 0.018666
    36 0.000000 0.000001 0.537889 -0.000001 3.141591 -1.429434
    37 1.488566 -0.062165 -0.000002 0.000001 0.000000 0.018666
    38 0.000000 -3.862867 2.592260 0.000000 0.000000 0.000000
    39 0.000000 0.088304 2.588038 0.000000 0.000000 0.000000
    40 1.521708 -5.065332 -13.133044 0.527080 -3.893746 -5.350271
    41 0.096946 -8.450419 -0.009364 0.527161 -0.631770 0.039079
    42 -0.587378 -1.261647 0.201457 -0.164209 -0.774452 -2.641896
    43 1.522835 0.058680 0.016851 0.237539 -0.043040 0.987308
    44 1.117948 0.048425 -0.005765 -0.000003 0.000018 0.775136
    45 -0.963867 -2.785143 -0.085346 -0.018724 0.089565 -0.042276
    46 0.028478 -1.403069 0.006271 -1.177377 0.000000 0.000000
    47 0.021414 -0.957782 0.020047 -0.941657 0.000000 0.000000
    48 -0.249534 -2.846964 -0.174215 -0.080762 -0.069588 -0.027109
    49 0.043234 -1.683941 0.096014 -1.641337 -0.002966 -0.000335
    50 0.031729 -1.160830 0.058836 -1.206156 0.000007 0.000007
    51 0.447951 -2.798983 -0.200442 0.007430 -0.015119 -0.002954
    52 -0.032910 -1.480207 0.004936 -1.245593 0.000000 0.000002
    53 -0.027022 -1.076920 -0.020212 -1.441725 0.000000 0.000000
    54 1.164474 -2.543939 -0.170327 0.128674 0.004755 -0.053472
    55 0.024033 -1.129040 0.017806 -0.870804 -0.059348 -0.032826
    56 0.014896 -0.883991 -0.019845 -1.012506 0.074161 0.017318
    57 -0.139399 -0.111701 0.014397 0.287104 0.128861 1.462828
    58 -0.282877 0.246699 -0.109375 -0.281602 1.280992 1.784939
    59 0.583509 -1.197273 0.185379 0.002018 -1.012660 -0.380445
    60 1.535925 0.010247 0.005009 0.041536 -0.199423 -1.125862
    61 1.100770 0.004527 -0.010675 -0.000003 0.000010 -0.533644
    62 0.957766 -2.746777 -0.090301 0.043733 -0.098028 0.148425
    63 -0.033419 -1.397129 -0.011256 -0.353974 -0.018348 -0.065736
    64 -0.022362 -0.957434 0.018782 -0.737724 0.000000 0.000000
    65 0.250028 -2.820664 -0.238397 -0.432554 0.057278 -0.106682
    66 -0.049759 -1.680546 0.100479 -1.292210 0.000000 -0.000002
    67 -0.034141 -1.148309 0.084778 -1.037442 0.000000 0.000000
    68 -0.488517 -2.755600 -0.228262 -0.835668 0.054591 -0.144142
    69 0.039889 -1.479791 0.029853 -0.979208 0.000000 0.000001
    70 0.028786 -1.075733 -0.023111 -1.137903 0.000000 0.000000
    71 -1.180679 -2.507216 -0.193861 -0.828724 0.140690 -0.122920
    72 -0.024966 -1.123935 0.017594 -1.075195 0.000000 0.000001
    73 -0.020058 -0.890966 0.010091 -0.680545 0.000000 0.000000
    74 -0.028290 -0.061986 0.008014 3.389072 0.004439 -1.491707
    75 0.213654 0.249610 -0.149166 1.221085 -1.493046 -0.161010
end
