version 1
nodes
  0 "charger5_root" -1
  1 "magazineroof" 0
  2 "charge_ef01" 1
  3 "charge_ef02" 1
  4 "charge_ef03" 1
  5 "trigar" 0
  6 "magazine" 0
  7 "charge_rotation" 0
  8 "laser" 0
  9 "root" -1
  10 "Bone01" 9
  11 "Bone_L_Upper" 10
  12 "Bone_Lefthand" 10
  13 "Bone13" 12
  14 "Bone14" 13
  15 "Bone15" 14
  16 "Bone17" 12
  17 "Bone18" 16
  18 "Bone19" 17
  19 "Bone21" 12
  20 "Bone22" 19
  21 "Bone23" 20
  22 "Bone09" 12
  23 "Bone10" 22
  24 "Bone11" 23
  25 "Bone05" 12
  26 "Bone06" 25
  27 "Bone07" 26
  28 "Bone_Se_Hand-L" 12
  29 "Bone04" 9
  30 "Bone_Righthand" 29
  31 "Bone39" 30
  32 "Bone40" 31
  33 "Bone41" 32
  34 "Bone35" 30
  35 "Bone36" 34
  36 "Bone37" 35
  37 "Bone31" 30
  38 "Bone32" 37
  39 "Bone33" 38
  40 "Bone43" 30
  41 "Bone44" 40
  42 "Bone45" 41
  43 "Bone27" 30
  44 "Bone28" 43
  45 "Bone29" 44
  46 "Bone_Se_Hand-R" 30
  47 "Bone_R_Upper" 29
end
skeleton
  time 0
    0 4.628719 -12.483489 -5.148760 0.000000 0.000000 -0.000013
    1 0.000126 5.380603 2.085688 -1.570793 0.000000 3.141592
    2 -0.000003 8.744292 -22.250452 0.000000 0.000000 0.000000
    3 -0.000003 8.744292 -22.250454 0.000000 0.000000 0.000000
    4 -0.000002 8.744292 -22.250454 0.000000 0.000000 0.000000
    5 -0.003704 -0.088851 0.612631 1.570801 1.570796 0.000000
    6 -0.009867 6.068303 0.294611 0.000000 1.570796 0.000000
    7 0.000027 3.816548 1.626610 -1.570793 0.000001 3.141592
    8 -0.003843 0.913138 2.654824 -1.570793 -3.141592 1.570796
    9 1.286349 -0.821603 -3.140102 0.000000 0.000000 0.000000
    10 7.149881 1.165427 -3.463931 6.229091 -2.062251 -0.244197
    11 3.448653 9.391510 -0.282623 1.545826 -3.132864 1.309055
    12 0.010113 -8.498736 -0.068977 0.144204 0.662564 0.173616
    13 -0.488518 -2.755602 -0.228260 -0.244746 -0.005464 -0.145879
    14 0.039887 -1.546198 0.025948 -1.950276 -0.005165 0.043253
    15 0.028786 -1.173390 -0.128581 -1.116701 -0.015172 0.024089
    16 0.250027 -2.820665 -0.238396 -0.156638 -0.100116 -0.057748
    17 -0.049759 -1.594604 0.022352 -1.692623 -0.002732 -0.044381
    18 -0.034142 -1.179563 0.045718 -1.331115 0.004566 -0.035115
    19 0.957766 -2.746780 -0.090302 0.165424 -0.223746 0.095945
    20 -0.033420 -1.397129 -0.015163 -0.248252 0.005789 -0.011866
    21 -0.022360 -0.957436 0.010971 -0.329898 0.006604 -0.015424
    22 -1.180681 -2.507217 -0.193859 -0.078589 0.198780 -0.051661
    23 -0.024967 -1.127840 0.017597 -1.331203 -0.004099 -0.055560
    24 -0.020057 -0.902687 0.049154 -1.514903 -0.007634 -0.060187
    25 0.606948 -1.197277 0.185379 0.455111 -0.925238 -0.684422
    26 1.426549 -0.267106 0.087043 0.093188 -0.260641 -1.002715
    27 1.053895 -0.140009 0.028385 0.033433 -0.179999 -0.730264
    28 0.120153 -0.050270 -0.054489 0.287569 3.110905 1.561085
    29 -2.966164 -7.743055 -7.063999 0.854771 -4.110277 1.383056
    30 0.085225 -8.403542 -0.013271 -0.077172 -0.303670 0.266479
    31 0.447953 -2.798986 -0.200443 -1.223404 -0.150987 0.357291
    32 -0.032909 -1.499736 0.036191 -1.682550 0.022555 -0.034717
    33 -0.027022 -1.127703 -0.020210 -1.224256 0.024233 -0.022076
    34 -0.249534 -2.846964 -0.174213 -0.919524 -0.167550 0.229534
    35 0.043235 -1.656596 0.053042 -1.990981 -0.025053 0.018229
    36 0.031729 -1.141298 0.054932 -1.091808 -0.012110 0.006059
    37 -0.963866 -2.785145 -0.085350 -0.709627 -0.020214 0.038322
    38 0.028479 -1.418692 -0.028886 -1.498275 -0.048777 -0.038411
    39 0.021413 -0.942156 0.008327 -1.125372 -0.032155 -0.036205
    40 1.164475 -2.543940 -0.170330 -1.400985 -0.293602 0.576548
    41 0.024032 -1.148574 -0.009538 -1.327987 0.025096 0.063759
    42 0.014898 -0.899614 -0.015942 -0.966253 0.007562 0.048610
    43 -0.586770 -1.264477 0.200161 -0.213368 -0.653007 -2.515594
    44 1.565805 0.035243 0.016848 -0.017693 -0.006691 0.852145
    45 1.114041 0.044518 -0.005766 -0.027915 -0.034498 1.008552
    46 -0.139399 -0.111698 0.014397 0.286241 -0.054300 1.367747
    47 -1.295811 8.889960 -0.204276 1.570809 -0.000001 -1.570790
  time 1
    0 5.187330 -9.913098 -5.863625 0.042861 0.076121 -0.041836
    1 0.000126 5.380603 2.085688 -1.570793 0.000000 3.141592
    2 -0.000003 8.744292 -22.250452 0.000000 0.000000 0.000000
    3 -0.000003 8.744292 -22.250454 0.000000 0.000000 0.000000
    4 -0.000002 8.744292 -22.250454 0.000000 0.000000 0.000000
    5 -0.003704 -0.088851 0.612631 3.141545 1.172920 1.570792
    6 -0.009867 6.068303 0.294611 0.000000 1.570796 0.000000
    7 0.000027 3.816548 1.626610 -1.570793 0.000001 3.141592
    8 -0.003843 0.913138 2.654824 -1.570793 -3.141592 1.570796
    9 1.286349 -0.821603 -3.140102 0.000000 0.000000 0.000000
    10 7.306136 3.739724 -2.772504 5.882489 -2.050232 0.123173
    11 5.925291 7.910996 -0.345125 1.543623 -3.126538 0.999122
    12 0.014019 -8.498736 -0.065070 0.108362 0.699837 0.317154
    13 -0.488518 -2.755602 -0.228260 -0.244746 -0.005464 -0.145879
    14 0.039887 -1.546198 0.025948 -1.950276 -0.005165 0.043253
    15 0.028786 -1.173390 -0.128581 -1.116701 -0.015172 0.024089
    16 0.250027 -2.820665 -0.238396 -0.156638 -0.100116 -0.057748
    17 -0.049759 -1.594604 0.022352 -1.692623 -0.002732 -0.044381
    18 -0.034142 -1.179563 0.045718 -1.331115 0.004566 -0.035115
    19 0.957766 -2.746780 -0.090302 0.165424 -0.223746 0.095945
    20 -0.033420 -1.393223 -0.019070 -0.610888 0.008365 -0.029903
    21 -0.022360 -0.957436 0.007065 -0.432606 0.007562 -0.020518
    22 -1.180681 -2.507217 -0.193859 -0.078589 0.198780 -0.051661
    23 -0.024967 -1.127840 0.017597 -1.331203 -0.004099 -0.055560
    24 -0.020057 -0.902687 0.049154 -1.514903 -0.007634 -0.060187
    25 0.606948 -1.197277 0.185379 0.455111 -0.925238 -0.684422
    26 1.426549 -0.267106 0.087043 0.093188 -0.260641 -1.002715
    27 1.053895 -0.140009 0.028385 0.033433 -0.179999 -0.730264
    28 0.120153 -0.050270 -0.054489 0.287569 3.110905 1.561085
    29 -3.575557 -6.106287 -8.110906 -2.222072 -5.349076 -1.513297
    30 0.089131 -8.399636 -0.021084 0.090964 -0.221618 0.426508
    31 0.447953 -2.798986 -0.200443 -1.223404 -0.150987 0.357291
    32 -0.032909 -1.499736 0.036191 -1.682550 0.022555 -0.034717
    33 -0.027022 -1.127703 -0.020210 -1.224256 0.024233 -0.022076
    34 -0.249534 -2.846964 -0.174213 -0.919524 -0.167550 0.229534
    35 0.043235 -1.656596 0.053042 -1.990981 -0.025053 0.018229
    36 0.031729 -1.141298 0.054932 -1.091808 -0.012110 0.006059
    37 -0.963866 -2.785145 -0.085350 -0.709627 -0.020214 0.038322
    38 0.028479 -1.418692 -0.028886 -1.498275 -0.048777 -0.038411
    39 0.021413 -0.942156 0.008327 -1.125372 -0.032155 -0.036205
    40 1.164475 -2.543940 -0.170330 -1.400985 -0.293602 0.576548
    41 0.024032 -1.148574 -0.009538 -1.327987 0.025096 0.063759
    42 0.014898 -0.899614 -0.015942 -0.966253 0.007562 0.048610
    43 -0.586770 -1.264477 0.200161 -0.213368 -0.653007 -2.515594
    44 1.565805 0.035243 0.016848 -0.017693 -0.006691 0.852145
    45 1.114041 0.044518 -0.005766 -0.027915 -0.034498 1.008552
    46 -0.139399 -0.111698 0.014397 0.286241 -0.054300 1.367747
    47 -1.295811 8.889960 -0.204276 1.570809 -0.000001 -1.570790
  time 2
    0 5.284989 -9.401364 -6.008161 0.032442 0.089468 -0.048626
    1 0.000126 5.380603 2.085688 -1.570793 0.000000 3.141592
    2 -0.000003 8.744292 -22.250452 0.000000 0.000000 0.000000
    3 -0.000003 8.744292 -22.250454 0.000000 0.000000 0.000000
    4 -0.000002 8.744292 -22.250454 0.000000 0.000000 0.000000
    5 -0.003704 -0.088851 0.612631 3.141545 1.172920 1.570792
    6 -0.009867 6.068303 0.294611 0.000000 1.570796 0.000000
    7 0.000027 3.816548 1.626610 -1.570793 0.000001 3.141592
    8 -0.003843 0.913138 2.654824 -1.570793 -3.141592 1.570796
    9 1.286349 -0.821603 -3.140102 0.000000 0.000000 0.000000
    10 7.341293 4.149893 -2.514683 5.772163 -2.071211 0.226920
    11 6.167486 7.703959 -0.349031 1.543431 -3.125867 0.965086
    12 0.017925 -8.502643 -0.065070 0.132329 0.700446 0.400568
    13 -0.488518 -2.755602 -0.228260 -0.244746 -0.005464 -0.145879
    14 0.039887 -1.546198 0.025948 -1.950276 -0.005165 0.043253
    15 0.028786 -1.173390 -0.128581 -1.116701 -0.015172 0.024089
    16 0.250027 -2.820665 -0.238396 -0.156638 -0.100116 -0.057748
    17 -0.049759 -1.594604 0.022352 -1.692623 -0.002732 -0.044381
    18 -0.034142 -1.179563 0.045718 -1.331115 0.004566 -0.035115
    19 0.957766 -2.746780 -0.090302 0.165424 -0.223746 0.095945
    20 -0.033420 -1.393223 -0.022976 -0.640189 0.008293 -0.031377
    21 -0.022360 -0.957436 0.007065 -0.439861 0.007610 -0.020889
    22 -1.180681 -2.507217 -0.193859 -0.078589 0.198780 -0.051661
    23 -0.024967 -1.127840 0.017597 -1.331203 -0.004099 -0.055560
    24 -0.020057 -0.902687 0.049154 -1.514903 -0.007634 -0.060187
    25 0.606948 -1.197277 0.185379 0.455111 -0.925238 -0.684422
    26 1.426549 -0.267106 0.087043 0.093188 -0.260641 -1.002715
    27 1.053895 -0.140009 0.028385 0.033433 -0.179999 -0.730264
    28 0.120153 -0.050270 -0.054489 0.287569 3.110905 1.561085
    29 -3.700561 -5.813309 -8.224190 -2.214734 -5.348731 -1.466036
    30 0.093038 -8.399636 -0.021084 0.132868 -0.196522 0.436718
    31 0.447953 -2.798986 -0.200443 -1.223404 -0.150987 0.357291
    32 -0.032909 -1.499736 0.036191 -1.682550 0.022555 -0.034717
    33 -0.027022 -1.127703 -0.020210 -1.224256 0.024233 -0.022076
    34 -0.249534 -2.846964 -0.174213 -0.919524 -0.167550 0.229534
    35 0.043235 -1.656596 0.053042 -1.990981 -0.025053 0.018229
    36 0.031729 -1.141298 0.054932 -1.091808 -0.012110 0.006059
    37 -0.963866 -2.785145 -0.085350 -0.709627 -0.020214 0.038322
    38 0.028479 -1.418692 -0.028886 -1.498275 -0.048777 -0.038411
    39 0.021413 -0.942156 0.008327 -1.125372 -0.032155 -0.036205
    40 1.164475 -2.543940 -0.170330 -1.400985 -0.293602 0.576548
    41 0.024032 -1.148574 -0.009538 -1.327987 0.025096 0.063759
    42 0.014898 -0.899614 -0.015942 -0.966253 0.007562 0.048610
    43 -0.586770 -1.264477 0.200161 -0.213368 -0.653007 -2.515594
    44 1.565805 0.035243 0.016848 -0.017693 -0.006691 0.852145
    45 1.114041 0.044518 -0.005766 -0.027915 -0.034498 1.008552
    46 -0.139399 -0.111698 0.014397 0.286241 -0.054300 1.367747
    47 -1.295811 8.889960 -0.204276 1.570809 -0.000001 -1.570790
  time 3
    0 5.355304 -9.018540 -6.113633 0.019514 0.098823 -0.053497
    1 0.000126 5.380603 2.085688 -1.570793 0.000000 3.141592
    2 -0.000003 8.744292 -22.250452 0.000000 0.000000 0.000000
    3 -0.000003 8.744292 -22.250454 0.000000 0.000000 0.000000
    4 -0.000002 8.744292 -22.250454 0.000000 0.000000 0.000000
    5 -0.003704 -0.088851 0.612631 3.141545 1.172920 1.570792
    6 -0.009867 6.068303 0.294611 0.000000 1.570796 0.000000
    7 0.000027 3.816548 1.626610 -1.570793 0.000001 3.141592
    8 -0.003843 0.913138 2.654824 -1.570793 -3.141592 1.570796
    9 1.286349 -0.821603 -3.140102 0.000000 0.000000 0.000000
    10 7.380357 4.419433 -2.307646 5.688197 -2.093573 0.301886
    11 6.292490 7.590674 -0.352938 1.543431 -3.125484 0.946977
    12 0.017925 -8.510455 -0.065070 0.159037 0.696955 0.475952
    13 -0.488518 -2.755602 -0.228260 -0.244746 -0.005464 -0.145879
    14 0.039887 -1.546198 0.025948 -1.950276 -0.005165 0.043253
    15 0.028786 -1.173390 -0.128581 -1.116701 -0.015172 0.024089
    16 0.250027 -2.820665 -0.238396 -0.156638 -0.100116 -0.057748
    17 -0.049759 -1.594604 0.022352 -1.692623 -0.002732 -0.044381
    18 -0.034142 -1.179563 0.045718 -1.331115 0.004566 -0.035115
    19 0.957766 -2.746780 -0.090302 0.165424 -0.223746 0.095945
    20 -0.033420 -1.393223 -0.022976 -0.650510 0.008245 -0.031904
    21 -0.022360 -0.957436 0.007065 -0.441698 0.007622 -0.020973
    22 -1.180681 -2.507217 -0.193859 -0.078589 0.198780 -0.051661
    23 -0.024967 -1.127840 0.017597 -1.331203 -0.004099 -0.055560
    24 -0.020057 -0.902687 0.049154 -1.514903 -0.007634 -0.060187
    25 0.606948 -1.197277 0.185379 0.455111 -0.925238 -0.684422
    26 1.426549 -0.267106 0.087043 0.093188 -0.260641 -1.002715
    27 1.053895 -0.140009 0.028385 0.033433 -0.179999 -0.730264
    28 0.120153 -0.050270 -0.054489 0.287569 3.110905 1.561085
    29 -3.794314 -5.610178 -8.286692 -2.209681 -5.347558 -1.430209
    30 0.096944 -8.403542 -0.024990 0.165773 -0.174655 0.440404
    31 0.447953 -2.798986 -0.200443 -1.223404 -0.150987 0.357291
    32 -0.032909 -1.499736 0.036191 -1.682550 0.022555 -0.034717
    33 -0.027022 -1.127703 -0.020210 -1.224256 0.024233 -0.022076
    34 -0.249534 -2.846964 -0.174213 -0.919524 -0.167550 0.229534
    35 0.043235 -1.656596 0.053042 -1.990981 -0.025053 0.018229
    36 0.031729 -1.141298 0.054932 -1.091808 -0.012110 0.006059
    37 -0.963866 -2.785145 -0.085350 -0.709627 -0.020214 0.038322
    38 0.028479 -1.418692 -0.028886 -1.498275 -0.048777 -0.038411
    39 0.021413 -0.942156 0.008327 -1.125372 -0.032155 -0.036205
    40 1.164475 -2.543940 -0.170330 -1.400985 -0.293602 0.576548
    41 0.024032 -1.148574 -0.009538 -1.327987 0.025096 0.063759
    42 0.014898 -0.899614 -0.015942 -0.966253 0.007562 0.048610
    43 -0.586770 -1.264477 0.200161 -0.213368 -0.653007 -2.515594
    44 1.565805 0.035243 0.016848 -0.017693 -0.006691 0.852145
    45 1.114041 0.044518 -0.005766 -0.027915 -0.034498 1.008552
    46 -0.139399 -0.111698 0.014397 0.286241 -0.054300 1.367747
    47 -1.295811 8.889960 -0.204276 1.570809 -0.000001 -1.570790
  time 4
    0 5.363116 -8.870098 -6.183948 0.015646 0.097763 -0.057138
    1 0.000126 5.380603 2.085688 -1.570793 0.000000 3.141592
    2 -0.000003 8.744292 -22.250452 0.000000 0.000000 0.000000
    3 -0.000003 8.744292 -22.250454 0.000000 0.000000 0.000000
    4 -0.000002 8.744292 -22.250454 0.000000 0.000000 0.000000
    5 -0.003704 -0.088851 0.612631 3.141545 1.172920 1.570792
    6 -0.009867 6.068303 0.294611 0.000000 1.570796 0.000000
    7 0.000027 3.816548 1.626610 -1.570793 0.000001 3.141592
    8 -0.003843 0.913138 2.654824 -1.570793 -3.141592 1.570796
    9 1.286349 -0.821603 -3.140102 0.000000 0.000000 0.000000
    10 7.395983 4.513186 -2.229518 5.653594 -2.103771 0.331337
    11 6.319834 7.563329 -0.356844 1.543431 -3.125388 0.942616
    12 0.017925 -8.514362 -0.065070 0.166867 0.690583 0.503318
    13 -0.488518 -2.755602 -0.228260 -0.244746 -0.005464 -0.145879
    14 0.039887 -1.546198 0.025948 -1.950276 -0.005165 0.043253
    15 0.028786 -1.173390 -0.128581 -1.116701 -0.015172 0.024089
    16 0.250027 -2.820665 -0.238396 -0.156638 -0.100116 -0.057748
    17 -0.049759 -1.594604 0.022352 -1.692623 -0.002732 -0.044381
    18 -0.034142 -1.179563 0.045718 -1.331115 0.004566 -0.035115
    19 0.957766 -2.746780 -0.090302 0.165424 -0.223746 0.095945
    20 -0.033420 -1.393223 -0.022976 -0.650348 0.008245 -0.031892
    21 -0.022360 -0.957436 0.007065 -0.441090 0.007622 -0.020949
    22 -1.180681 -2.507217 -0.193859 -0.078589 0.198780 -0.051661
    23 -0.024967 -1.127840 0.017597 -1.331203 -0.004099 -0.055560
    24 -0.020057 -0.902687 0.049154 -1.514903 -0.007634 -0.060187
    25 0.606948 -1.197277 0.185379 0.455111 -0.925238 -0.684422
    26 1.426549 -0.267106 0.087043 0.093188 -0.260641 -1.002715
    27 1.053895 -0.140009 0.028385 0.033433 -0.179999 -0.730264
    28 0.120153 -0.050270 -0.054489 0.287569 3.110905 1.561085
    29 -3.852909 -5.500799 -8.321850 -2.209958 -5.342726 -1.418680
    30 0.096944 -8.403542 -0.024990 0.182332 -0.168928 0.435606
    31 0.447953 -2.798986 -0.200443 -1.223404 -0.150987 0.357291
    32 -0.032909 -1.499736 0.036191 -1.682550 0.022555 -0.034717
    33 -0.027022 -1.127703 -0.020210 -1.224256 0.024233 -0.022076
    34 -0.249534 -2.846964 -0.174213 -0.919524 -0.167550 0.229534
    35 0.043235 -1.656596 0.053042 -1.990981 -0.025053 0.018229
    36 0.031729 -1.141298 0.054932 -1.091808 -0.012110 0.006059
    37 -0.963866 -2.785145 -0.085350 -0.709627 -0.020214 0.038322
    38 0.028479 -1.418692 -0.028886 -1.498275 -0.048777 -0.038411
    39 0.021413 -0.942156 0.008327 -1.125372 -0.032155 -0.036205
    40 1.164475 -2.543940 -0.170330 -1.400985 -0.293602 0.576548
    41 0.024032 -1.148574 -0.009538 -1.327987 0.025096 0.063759
    42 0.014898 -0.899614 -0.015942 -0.966253 0.007562 0.048610
    43 -0.586770 -1.264477 0.200161 -0.213368 -0.653007 -2.515594
    44 1.565805 0.035243 0.016848 -0.017693 -0.006691 0.852145
    45 1.114041 0.044518 -0.005766 -0.027915 -0.034498 1.008552
    46 -0.139399 -0.111698 0.014397 0.286241 -0.054300 1.367747
    47 -1.295811 8.889960 -0.204276 1.570809 -0.000001 -1.570790
  time 5
    0 5.300614 -8.932600 -6.230824 0.024671 0.084353 -0.060976
    1 0.000126 5.380603 2.085688 -1.570793 0.000000 3.141592
    2 -0.000003 8.744292 -22.250452 0.000000 0.000000 0.000000
    3 -0.000003 8.744292 -22.250454 0.000000 0.000000 0.000000
    4 -0.000002 8.744292 -22.250454 0.000000 0.000000 0.000000
    5 -0.003704 -0.088851 0.612631 3.141545 1.172920 1.570792
    6 -0.009867 6.068303 0.294611 0.000000 1.570796 0.000000
    7 0.000027 3.816548 1.626610 -1.570793 0.000001 3.141592
    8 -0.003843 0.913138 2.654824 -1.570793 -3.141592 1.570796
    9 1.286349 -0.821603 -3.140102 0.000000 0.000000 0.000000
    10 7.384263 4.470215 -2.272488 5.663563 -2.098527 0.322635
    11 6.288584 7.590674 -0.352938 1.543431 -3.125484 0.947356
    12 0.014019 -8.510455 -0.065070 0.148989 0.681873 0.475753
    13 -0.488518 -2.755602 -0.228260 -0.244746 -0.005464 -0.145879
    14 0.039887 -1.546198 0.025948 -1.950276 -0.005165 0.043253
    15 0.028786 -1.173390 -0.128581 -1.116701 -0.015172 0.024089
    16 0.250027 -2.820665 -0.238396 -0.156638 -0.100116 -0.057748
    17 -0.049759 -1.594604 0.022352 -1.692623 -0.002732 -0.044381
    18 -0.034142 -1.179563 0.045718 -1.331115 0.004566 -0.035115
    19 0.957766 -2.746780 -0.090302 0.165424 -0.223746 0.095945
    20 -0.033420 -1.393223 -0.022976 -0.647489 0.008257 -0.031748
    21 -0.022360 -0.957436 0.007065 -0.440317 0.007610 -0.020913
    22 -1.180681 -2.507217 -0.193859 -0.078589 0.198780 -0.051661
    23 -0.024967 -1.127840 0.017597 -1.331203 -0.004099 -0.055560
    24 -0.020057 -0.902687 0.049154 -1.514903 -0.007634 -0.060187
    25 0.606948 -1.197277 0.185379 0.455111 -0.925238 -0.684422
    26 1.426549 -0.267106 0.087043 0.093188 -0.260641 -1.002715
    27 1.053895 -0.140009 0.028385 0.033433 -0.179999 -0.730264
    28 0.120153 -0.050270 -0.054489 0.287569 3.110905 1.561085
    29 -3.891973 -5.461736 -8.345288 -2.216603 -5.332441 -1.432306
    30 0.096944 -8.407448 -0.021084 0.185018 -0.182643 0.421359
    31 0.447953 -2.798986 -0.200443 -1.223404 -0.150987 0.357291
    32 -0.032909 -1.499736 0.036191 -1.682550 0.022555 -0.034717
    33 -0.027022 -1.127703 -0.020210 -1.224256 0.024233 -0.022076
    34 -0.249534 -2.846964 -0.174213 -0.919524 -0.167550 0.229534
    35 0.043235 -1.656596 0.053042 -1.990981 -0.025053 0.018229
    36 0.031729 -1.141298 0.054932 -1.091808 -0.012110 0.006059
    37 -0.963866 -2.785145 -0.085350 -0.709627 -0.020214 0.038322
    38 0.028479 -1.418692 -0.028886 -1.498275 -0.048777 -0.038411
    39 0.021413 -0.942156 0.008327 -1.125372 -0.032155 -0.036205
    40 1.164475 -2.543940 -0.170330 -1.400985 -0.293602 0.576548
    41 0.024032 -1.148574 -0.009538 -1.327987 0.025096 0.063759
    42 0.014898 -0.899614 -0.015942 -0.966253 0.007562 0.048610
    43 -0.586770 -1.264477 0.200161 -0.213368 -0.653007 -2.515594
    44 1.565805 0.035243 0.016848 -0.017693 -0.006691 0.852145
    45 1.114041 0.044518 -0.005766 -0.027915 -0.034498 1.008552
    46 -0.139399 -0.111698 0.014397 0.286241 -0.054300 1.367747
    47 -1.295811 8.889960 -0.204276 1.570809 -0.000001 -1.570790
  time 6
    0 5.199049 -9.104480 -6.273794 0.039829 0.064146 -0.065503
    1 0.000126 5.380603 2.085688 -1.570793 0.000000 3.141592
    2 -0.000003 8.744292 -22.250452 0.000000 0.000000 0.000000
    3 -0.000003 8.744292 -22.250454 0.000000 0.000000 0.000000
    4 -0.000002 8.744292 -22.250454 0.000000 0.000000 0.000000
    5 -0.003704 -0.088851 0.612631 3.141545 1.172920 1.570792
    6 -0.009867 6.068303 0.294611 0.000000 1.570796 0.000000
    7 0.000027 3.816548 1.626610 -1.570793 0.000001 3.141592
    8 -0.003843 0.913138 2.654824 -1.570793 -3.141592 1.570796
    9 1.286349 -0.821603 -3.140102 0.000000 0.000000 0.000000
    10 7.356919 4.349118 -2.377960 5.695577 -2.085998 0.294523
    11 6.218269 7.657082 -0.352938 1.543431 -3.125676 0.957596
    12 0.010113 -8.506549 -0.068977 0.119019 0.670121 0.422021
    13 -0.488518 -2.755602 -0.228260 -0.244746 -0.005464 -0.145879
    14 0.039887 -1.546198 0.025948 -1.950276 -0.005165 0.043253
    15 0.028786 -1.173390 -0.128581 -1.116701 -0.015172 0.024089
    16 0.250027 -2.820665 -0.238396 -0.156638 -0.100116 -0.057748
    17 -0.049759 -1.594604 0.022352 -1.692623 -0.002732 -0.044381
    18 -0.034142 -1.179563 0.045718 -1.331115 0.004566 -0.035115
    19 0.957766 -2.746780 -0.090302 0.165424 -0.223746 0.095945
    20 -0.033420 -1.393223 -0.022976 -0.642379 0.008281 -0.031497
    21 -0.022360 -0.957436 0.007065 -0.439170 0.007610 -0.020853
    22 -1.180681 -2.507217 -0.193859 -0.078589 0.198780 -0.051661
    23 -0.024967 -1.127840 0.017597 -1.331203 -0.004099 -0.055560
    24 -0.020057 -0.902687 0.049154 -1.514903 -0.007634 -0.060187
    25 0.606948 -1.197277 0.185379 0.455111 -0.925238 -0.684422
    26 1.426549 -0.267106 0.087043 0.093188 -0.260641 -1.002715
    27 1.053895 -0.140009 0.028385 0.033433 -0.179999 -0.730264
    28 0.120153 -0.050270 -0.054489 0.287569 3.110905 1.561085
    29 -3.919318 -5.453923 -8.357007 -2.227540 -5.319395 -1.459271
    30 0.096944 -8.415261 -0.017178 0.181584 -0.206699 0.401787
    31 0.447953 -2.798986 -0.200443 -1.223404 -0.150987 0.357291
    32 -0.032909 -1.499736 0.036191 -1.682550 0.022555 -0.034717
    33 -0.027022 -1.127703 -0.020210 -1.224256 0.024233 -0.022076
    34 -0.249534 -2.846964 -0.174213 -0.919524 -0.167550 0.229534
    35 0.043235 -1.656596 0.053042 -1.990981 -0.025053 0.018229
    36 0.031729 -1.141298 0.054932 -1.091808 -0.012110 0.006059
    37 -0.963866 -2.785145 -0.085350 -0.709627 -0.020214 0.038322
    38 0.028479 -1.418692 -0.028886 -1.498275 -0.048777 -0.038411
    39 0.021413 -0.942156 0.008327 -1.125372 -0.032155 -0.036205
    40 1.164475 -2.543940 -0.170330 -1.400985 -0.293602 0.576548
    41 0.024032 -1.148574 -0.009538 -1.327987 0.025096 0.063759
    42 0.014898 -0.899614 -0.015942 -0.966253 0.007562 0.048610
    43 -0.586770 -1.264477 0.200161 -0.213368 -0.653007 -2.515594
    44 1.565805 0.035243 0.016848 -0.017693 -0.006691 0.852145
    45 1.114041 0.044518 -0.005766 -0.027915 -0.034498 1.008552
    46 -0.139399 -0.111698 0.014397 0.286241 -0.054300 1.367747
    47 -1.295811 8.889960 -0.204276 1.570809 -0.000001 -1.570790
  time 7
    0 5.085764 -9.346675 -6.297232 0.056939 0.041849 -0.069489
    1 0.000126 5.380603 2.085688 -1.570793 0.000000 3.141592
    2 -0.000003 8.744292 -22.250452 0.000000 0.000000 0.000000
    3 -0.000003 8.744292 -22.250454 0.000000 0.000000 0.000000
    4 -0.000002 8.744292 -22.250454 0.000000 0.000000 0.000000
    5 -0.003704 -0.088851 0.612631 3.141545 1.172920 1.570792
    6 -0.009867 6.068303 0.294611 0.000000 1.570796 0.000000
    7 0.000027 3.816548 1.626610 -1.570793 0.000001 3.141592
    8 -0.003843 0.913138 2.654824 -1.570793 -3.141592 1.570796
    9 1.286349 -0.821603 -3.140102 0.000000 0.000000 0.000000
    10 7.325668 4.169425 -2.518590 5.743216 -2.070264 0.251494
    11 6.112797 7.750835 -0.349031 1.543527 -3.125963 0.972576
    12 0.006206 -8.498736 -0.068977 0.086744 0.656832 0.357423
    13 -0.488518 -2.755602 -0.228260 -0.244746 -0.005464 -0.145879
    14 0.039887 -1.546198 0.025948 -1.950276 -0.005165 0.043253
    15 0.028786 -1.173390 -0.128581 -1.116701 -0.015172 0.024089
    16 0.250027 -2.820665 -0.238396 -0.156638 -0.100116 -0.057748
    17 -0.049759 -1.594604 0.022352 -1.692623 -0.002732 -0.044381
    18 -0.034142 -1.179563 0.045718 -1.331115 0.004566 -0.035115
    19 0.957766 -2.746780 -0.090302 0.165424 -0.223746 0.095945
    20 -0.033420 -1.393223 -0.022976 -0.632747 0.008317 -0.031005
    21 -0.022360 -0.957436 0.007065 -0.436876 0.007586 -0.020733
    22 -1.180681 -2.507217 -0.193859 -0.078589 0.198780 -0.051661
    23 -0.024967 -1.127840 0.017597 -1.331203 -0.004099 -0.055560
    24 -0.020057 -0.902687 0.049154 -1.514903 -0.007634 -0.060187
    25 0.606948 -1.197277 0.185379 0.455111 -0.925238 -0.684422
    26 1.426549 -0.267106 0.087043 0.093188 -0.260641 -1.002715
    27 1.053895 -0.140009 0.028385 0.033433 -0.179999 -0.730264
    28 0.120153 -0.050270 -0.054489 0.287569 3.110905 1.561085
    29 -3.931037 -5.489080 -8.360913 -2.241039 -5.307109 -1.493859
    30 0.093038 -8.415261 -0.013271 0.172758 -0.235479 0.381571
    31 0.447953 -2.798986 -0.200443 -1.223404 -0.150987 0.357291
    32 -0.032909 -1.499736 0.036191 -1.682550 0.022555 -0.034717
    33 -0.027022 -1.127703 -0.020210 -1.224256 0.024233 -0.022076
    34 -0.249534 -2.846964 -0.174213 -0.919524 -0.167550 0.229534
    35 0.043235 -1.656596 0.053042 -1.990981 -0.025053 0.018229
    36 0.031729 -1.141298 0.054932 -1.091808 -0.012110 0.006059
    37 -0.963866 -2.785145 -0.085350 -0.709627 -0.020214 0.038322
    38 0.028479 -1.418692 -0.028886 -1.498275 -0.048777 -0.038411
    39 0.021413 -0.942156 0.008327 -1.125372 -0.032155 -0.036205
    40 1.164475 -2.543940 -0.170330 -1.400985 -0.293602 0.576548
    41 0.024032 -1.148574 -0.009538 -1.327987 0.025096 0.063759
    42 0.014898 -0.899614 -0.015942 -0.966253 0.007562 0.048610
    43 -0.586770 -1.264477 0.200161 -0.213368 -0.653007 -2.515594
    44 1.565805 0.035243 0.016848 -0.017693 -0.006691 0.852145
    45 1.114041 0.044518 -0.005766 -0.027915 -0.034498 1.008552
    46 -0.139399 -0.111698 0.014397 0.286241 -0.054300 1.367747
    47 -1.295811 8.889960 -0.204276 1.570809 -0.000001 -1.570790
  time 8
    0 4.980292 -9.620121 -6.297232 0.071679 0.022110 -0.071555
    1 0.000126 5.380603 2.085688 -1.570793 0.000000 3.141592
    2 -0.000003 8.744292 -22.250452 0.000000 0.000000 0.000000
    3 -0.000003 8.744292 -22.250454 0.000000 0.000000 0.000000
    4 -0.000002 8.744292 -22.250454 0.000000 0.000000 0.000000
    5 -0.003704 -0.088851 0.612631 3.141545 1.172920 1.570792
    6 -0.009867 6.068303 0.294611 0.000000 1.570796 0.000000
    7 0.000027 3.816548 1.626610 -1.570793 0.000001 3.141592
    8 -0.003843 0.913138 2.654824 -1.570793 -3.141592 1.570796
    9 1.286349 -0.821603 -3.140102 0.000000 0.000000 0.000000
    10 7.298323 3.950668 -2.667032 5.798906 -2.055622 0.198999
    11 5.979980 7.864120 -0.345125 1.543527 -3.126442 0.991348
    12 0.002300 -8.494830 -0.068977 0.060993 0.645016 0.296301
    13 -0.488518 -2.755602 -0.228260 -0.244746 -0.005464 -0.145879
    14 0.039887 -1.546198 0.025948 -1.950276 -0.005165 0.043253
    15 0.028786 -1.173390 -0.128581 -1.116701 -0.015172 0.024089
    16 0.250027 -2.820665 -0.238396 -0.156638 -0.100116 -0.057748
    17 -0.049759 -1.594604 0.022352 -1.692623 -0.002732 -0.044381
    18 -0.034142 -1.179563 0.045718 -1.331115 0.004566 -0.035115
    19 0.957766 -2.746780 -0.090302 0.165424 -0.223746 0.095945
    20 -0.033420 -1.393223 -0.019070 -0.616282 0.008353 -0.030178
    21 -0.022360 -0.957436 0.007065 -0.432662 0.007562 -0.020530
    22 -1.180681 -2.507217 -0.193859 -0.078589 0.198780 -0.051661
    23 -0.024967 -1.127840 0.017597 -1.331203 -0.004099 -0.055560
    24 -0.020057 -0.902687 0.049154 -1.514903 -0.007634 -0.060187
    25 0.606948 -1.197277 0.185379 0.455111 -0.925238 -0.684422
    26 1.426549 -0.267106 0.087043 0.093188 -0.260641 -1.002715
    27 1.053895 -0.140009 0.028385 0.033433 -0.179999 -0.730264
    28 0.120153 -0.050270 -0.054489 0.287569 3.110905 1.561085
    29 -3.911505 -5.571114 -8.345288 -2.254191 -5.298480 -1.529496
    30 0.089131 -8.419168 -0.009365 0.158962 -0.262908 0.364924
    31 0.447953 -2.798986 -0.200443 -1.223404 -0.150987 0.357291
    32 -0.032909 -1.499736 0.036191 -1.682550 0.022555 -0.034717
    33 -0.027022 -1.127703 -0.020210 -1.224256 0.024233 -0.022076
    34 -0.249534 -2.846964 -0.174213 -0.919524 -0.167550 0.229534
    35 0.043235 -1.656596 0.053042 -1.990981 -0.025053 0.018229
    36 0.031729 -1.141298 0.054932 -1.091808 -0.012110 0.006059
    37 -0.963866 -2.785145 -0.085350 -0.709627 -0.020214 0.038322
    38 0.028479 -1.418692 -0.028886 -1.498275 -0.048777 -0.038411
    39 0.021413 -0.942156 0.008327 -1.125372 -0.032155 -0.036205
    40 1.164475 -2.543940 -0.170330 -1.400985 -0.293602 0.576548
    41 0.024032 -1.148574 -0.009538 -1.327987 0.025096 0.063759
    42 0.014898 -0.899614 -0.015942 -0.966253 0.007562 0.048610
    43 -0.586770 -1.264477 0.200161 -0.213368 -0.653007 -2.515594
    44 1.565805 0.035243 0.016848 -0.017693 -0.006691 0.852145
    45 1.114041 0.044518 -0.005766 -0.027915 -0.034498 1.008552
    46 -0.139399 -0.111698 0.014397 0.286241 -0.054300 1.367747
    47 -1.295811 8.889960 -0.204276 1.570809 -0.000001 -1.570790
  time 9
    0 4.902165 -9.893566 -6.258169 0.079728 0.009605 -0.069931
    1 0.000126 5.380603 2.085688 -1.570793 0.000000 3.141592
    2 -0.000003 8.744292 -22.250452 0.000000 0.000000 0.000000
    3 -0.000003 8.744292 -22.250454 0.000000 0.000000 0.000000
    4 -0.000002 8.744292 -22.250454 0.000000 0.000000 0.000000
    5 -0.003704 -0.088851 0.612631 3.110673 1.180752 1.539872
    6 -0.009867 6.068303 0.294611 0.000000 1.570796 0.000000
    7 0.000027 3.816548 1.626610 -1.570793 0.000001 3.141592
    8 -0.003843 0.913138 2.654824 -1.570793 -3.141592 1.570796
    9 1.286349 -0.821603 -3.140102 0.000000 0.000000 0.000000
    10 7.286604 3.720193 -2.799848 5.853829 -2.045789 0.144209
    11 5.831538 7.989124 -0.341219 1.543623 -3.126826 1.012016
    12 -0.001606 -8.490924 -0.072883 0.049553 0.639156 0.251757
    13 -0.488518 -2.755602 -0.228260 -0.244746 -0.005464 -0.145879
    14 0.039887 -1.546198 0.025948 -1.950276 -0.005165 0.043253
    15 0.028786 -1.173390 -0.128581 -1.116701 -0.015172 0.024089
    16 0.250027 -2.820665 -0.238396 -0.156638 -0.100116 -0.057748
    17 -0.049759 -1.594604 0.022352 -1.692623 -0.002732 -0.044381
    18 -0.034142 -1.179563 0.045718 -1.331115 0.004566 -0.035115
    19 0.957766 -2.746780 -0.090302 0.165424 -0.223746 0.095945
    20 -0.033420 -1.393223 -0.019070 -0.590692 0.008401 -0.028884
    21 -0.022360 -0.957436 0.007065 -0.425725 0.007514 -0.020182
    22 -1.180681 -2.507217 -0.193859 -0.078589 0.198780 -0.051661
    23 -0.024967 -1.127840 0.017597 -1.331203 -0.004099 -0.055560
    24 -0.020057 -0.902687 0.049154 -1.514903 -0.007634 -0.060187
    25 0.606948 -1.197277 0.185379 0.455111 -0.925238 -0.684422
    26 1.426549 -0.267106 0.087043 0.093188 -0.260641 -1.002715
    27 1.053895 -0.140009 0.028385 0.033433 -0.179999 -0.730264
    28 0.120153 -0.050270 -0.054489 0.287569 3.110905 1.561085
    29 -3.864629 -5.703930 -8.310131 -2.263329 -5.295857 -1.559891
    30 0.085225 -8.419168 -0.009365 0.140082 -0.282514 0.355065
    31 0.447953 -2.798986 -0.200443 -1.223404 -0.150987 0.357291
    32 -0.032909 -1.499736 0.036191 -1.682550 0.022555 -0.034717
    33 -0.027022 -1.127703 -0.020210 -1.224256 0.024233 -0.022076
    34 -0.249534 -2.846964 -0.174213 -0.919524 -0.167550 0.229534
    35 0.043235 -1.656596 0.053042 -1.990981 -0.025053 0.018229
    36 0.031729 -1.141298 0.054932 -1.091808 -0.012110 0.006059
    37 -0.963866 -2.785145 -0.085350 -0.709627 -0.020214 0.038322
    38 0.028479 -1.418692 -0.028886 -1.498275 -0.048777 -0.038411
    39 0.021413 -0.942156 0.008327 -1.125372 -0.032155 -0.036205
    40 1.164475 -2.543940 -0.170330 -1.400985 -0.293602 0.576548
    41 0.024032 -1.148574 -0.009538 -1.327987 0.025096 0.063759
    42 0.014898 -0.899614 -0.015942 -0.966253 0.007562 0.048610
    43 -0.586770 -1.264477 0.200161 -0.213368 -0.653007 -2.515594
    44 1.565805 0.035243 0.016848 -0.017693 -0.006691 0.852145
    45 1.114041 0.044518 -0.005766 -0.027915 -0.034498 1.008552
    46 -0.139399 -0.111698 0.014397 0.286241 -0.054300 1.367747
    47 -1.295811 8.889960 -0.204276 1.570809 -0.000001 -1.570790
  time 10
    0 4.843569 -10.178731 -6.183948 0.081645 0.003680 -0.064273
    1 0.000126 5.380603 2.085688 -1.570793 0.000000 3.141592
    2 -0.000003 8.744292 -22.250452 0.000000 0.000000 0.000000
    3 -0.000003 8.744292 -22.250454 0.000000 0.000000 0.000000
    4 -0.000002 8.744292 -22.250454 0.000000 0.000000 0.000000
    5 -0.003704 -0.088851 0.612631 3.025199 1.202401 1.454398
    6 -0.009867 6.068303 0.294611 0.000000 1.570796 0.000000
    7 0.000027 3.816548 1.626610 -1.570793 0.000001 3.141592
    8 -0.003843 0.913138 2.654824 -1.570793 -3.141592 1.570796
    9 1.286349 -0.821603 -3.140102 0.000000 0.000000 0.000000
    10 7.286604 3.466279 -2.920946 5.909520 -2.040544 0.085690
    11 5.659658 8.125847 -0.337312 1.543719 -3.127305 1.035529
    12 -0.001606 -8.490924 -0.072883 0.051206 0.640021 0.220756
    13 -0.488518 -2.755602 -0.228260 -0.244746 -0.005464 -0.145879
    14 0.039887 -1.546198 0.025948 -1.950276 -0.005165 0.043253
    15 0.028786 -1.173390 -0.128581 -1.116701 -0.015172 0.024089
    16 0.250027 -2.820665 -0.238396 -0.156638 -0.100116 -0.057748
    17 -0.049759 -1.594604 0.022352 -1.692623 -0.002732 -0.044381
    18 -0.034142 -1.179563 0.045718 -1.331115 0.004566 -0.035115
    19 0.957766 -2.746780 -0.090302 0.165424 -0.223746 0.095945
    20 -0.033420 -1.393223 -0.019070 -0.554072 0.008401 -0.027038
    21 -0.022360 -0.957436 0.007065 -0.415555 0.007442 -0.019667
    22 -1.180681 -2.507217 -0.193859 -0.078589 0.198780 -0.051661
    23 -0.024967 -1.127840 0.017597 -1.331203 -0.004099 -0.055560
    24 -0.020057 -0.902687 0.049154 -1.514903 -0.007634 -0.060187
    25 0.606948 -1.197277 0.185379 0.455111 -0.925238 -0.684422
    26 1.426549 -0.267106 0.087043 0.093188 -0.260641 -1.002715
    27 1.053895 -0.140009 0.028385 0.033433 -0.179999 -0.730264
    28 0.120153 -0.050270 -0.054489 0.287569 3.110905 1.561085
    29 -3.790408 -5.891436 -8.251535 0.873115 -4.126429 1.555235
    30 0.085225 -8.419168 -0.009365 0.114947 -0.294952 0.350677
    31 0.447953 -2.798986 -0.200443 -1.223404 -0.150987 0.357291
    32 -0.032909 -1.499736 0.036191 -1.682550 0.022555 -0.034717
    33 -0.027022 -1.127703 -0.020210 -1.224256 0.024233 -0.022076
    34 -0.249534 -2.846964 -0.174213 -0.919524 -0.167550 0.229534
    35 0.043235 -1.656596 0.053042 -1.990981 -0.025053 0.018229
    36 0.031729 -1.141298 0.054932 -1.091808 -0.012110 0.006059
    37 -0.963866 -2.785145 -0.085350 -0.709627 -0.020214 0.038322
    38 0.028479 -1.418692 -0.028886 -1.498275 -0.048777 -0.038411
    39 0.021413 -0.942156 0.008327 -1.125372 -0.032155 -0.036205
    40 1.164475 -2.543940 -0.170330 -1.400985 -0.293602 0.576548
    41 0.024032 -1.148574 -0.009538 -1.327987 0.025096 0.063759
    42 0.014898 -0.899614 -0.015942 -0.966253 0.007562 0.048610
    43 -0.586770 -1.264477 0.200161 -0.213368 -0.653007 -2.515594
    44 1.565805 0.035243 0.016848 -0.017693 -0.006691 0.852145
    45 1.114041 0.044518 -0.005766 -0.027915 -0.034498 1.008552
    46 -0.139399 -0.111698 0.014397 0.286241 -0.054300 1.367747
    47 -1.295811 8.889960 -0.204276 1.570809 -0.000001 -1.570790
  time 11
    0 4.792786 -10.502960 -6.078476 0.081227 0.000249 -0.055958
    1 0.000126 5.380603 2.085688 -1.570793 0.000000 3.141592
    2 -0.000003 8.744292 -22.250452 0.000000 0.000000 0.000000
    3 -0.000003 8.744292 -22.250454 0.000000 0.000000 0.000000
    4 -0.000002 8.744292 -22.250454 0.000000 0.000000 0.000000
    5 -0.003704 -0.088851 0.612631 2.896149 1.235088 1.325348
    6 -0.009867 6.068303 0.294611 0.000000 1.570796 0.000000
    7 0.000027 3.816548 1.626610 -1.570793 0.000001 3.141592
    8 -0.003843 0.913138 2.654824 -1.570793 -3.141592 1.570796
    9 1.286349 -0.821603 -3.140102 0.000000 0.000000 0.000000
    10 7.290511 3.169394 -3.042043 5.970578 -2.037995 0.020669
    11 5.444808 8.286008 -0.329500 1.543910 -3.127976 1.064257
    12 0.002300 -8.487017 -0.068977 0.058470 0.644344 0.192592
    13 -0.488518 -2.755602 -0.228260 -0.244746 -0.005464 -0.145879
    14 0.039887 -1.546198 0.025948 -1.950276 -0.005165 0.043253
    15 0.028786 -1.173390 -0.128581 -1.116701 -0.015172 0.024089
    16 0.250027 -2.820665 -0.238396 -0.156638 -0.100116 -0.057748
    17 -0.049759 -1.594604 0.022352 -1.692623 -0.002732 -0.044381
    18 -0.034142 -1.179563 0.045718 -1.331115 0.004566 -0.035115
    19 0.957766 -2.746780 -0.090302 0.165424 -0.223746 0.095945
    20 -0.033420 -1.393223 -0.019070 -0.508489 0.008305 -0.024737
    21 -0.022360 -0.957436 0.010971 -0.402843 0.007335 -0.019032
    22 -1.180681 -2.507217 -0.193859 -0.078589 0.198780 -0.051661
    23 -0.024967 -1.127840 0.017597 -1.331203 -0.004099 -0.055560
    24 -0.020057 -0.902687 0.049154 -1.514903 -0.007634 -0.060187
    25 0.606948 -1.197277 0.185379 0.455111 -0.925238 -0.684422
    26 1.426549 -0.267106 0.087043 0.093188 -0.260641 -1.002715
    27 1.053895 -0.140009 0.028385 0.033433 -0.179999 -0.730264
    28 0.120153 -0.050270 -0.054489 0.287569 3.110905 1.561085
    29 -3.692748 -6.121912 -8.157782 0.868892 -4.122701 1.527603
    30 0.081319 -8.415261 -0.009365 0.084555 -0.305111 0.347459
    31 0.447953 -2.798986 -0.200443 -1.223404 -0.150987 0.357291
    32 -0.032909 -1.499736 0.036191 -1.682550 0.022555 -0.034717
    33 -0.027022 -1.127703 -0.020210 -1.224256 0.024233 -0.022076
    34 -0.249534 -2.846964 -0.174213 -0.919524 -0.167550 0.229534
    35 0.043235 -1.656596 0.053042 -1.990981 -0.025053 0.018229
    36 0.031729 -1.141298 0.054932 -1.091808 -0.012110 0.006059
    37 -0.963866 -2.785145 -0.085350 -0.709627 -0.020214 0.038322
    38 0.028479 -1.418692 -0.028886 -1.498275 -0.048777 -0.038411
    39 0.021413 -0.942156 0.008327 -1.125372 -0.032155 -0.036205
    40 1.164475 -2.543940 -0.170330 -1.400985 -0.293602 0.576548
    41 0.024032 -1.148574 -0.009538 -1.327987 0.025096 0.063759
    42 0.014898 -0.899614 -0.015942 -0.966253 0.007562 0.048610
    43 -0.586770 -1.264477 0.200161 -0.213368 -0.653007 -2.515594
    44 1.565805 0.035243 0.016848 -0.017693 -0.006691 0.852145
    45 1.114041 0.044518 -0.005766 -0.027915 -0.034498 1.008552
    46 -0.139399 -0.111698 0.014397 0.286241 -0.054300 1.367747
    47 -1.295811 8.889960 -0.204276 1.570809 -0.000001 -1.570790
  time 12
    0 4.745910 -10.846721 -5.957378 0.078962 -0.001154 -0.045920
    1 0.000126 5.380603 2.085688 -1.570793 0.000000 3.141592
    2 -0.000003 8.744292 -22.250452 0.000000 0.000000 0.000000
    3 -0.000003 8.744292 -22.250454 0.000000 0.000000 0.000000
    4 -0.000002 8.744292 -22.250454 0.000000 0.000000 0.000000
    5 -0.003704 -0.088851 0.612631 2.734310 1.276080 1.163509
    6 -0.009867 6.068303 0.294611 0.000000 1.570796 0.000000
    7 0.000027 3.816548 1.626610 -1.570793 0.000001 3.141592
    8 -0.003843 0.913138 2.654824 -1.570793 -3.141592 1.570796
    9 1.286349 -0.821603 -3.140102 0.000000 0.000000 0.000000
    10 7.286604 2.841259 -3.155328 6.031540 -2.038577 -0.044831
    11 5.194800 8.461794 -0.325593 1.544102 -3.128647 1.096966
    12 0.006206 -8.487017 -0.068977 0.069518 0.650940 0.168383
    13 -0.488518 -2.755602 -0.228260 -0.244746 -0.005464 -0.145879
    14 0.039887 -1.546198 0.025948 -1.950276 -0.005165 0.043253
    15 0.028786 -1.173390 -0.128581 -1.116701 -0.015172 0.024089
    16 0.250027 -2.820665 -0.238396 -0.156638 -0.100116 -0.057748
    17 -0.049759 -1.594604 0.022352 -1.692623 -0.002732 -0.044381
    18 -0.034142 -1.179563 0.045718 -1.331115 0.004566 -0.035115
    19 0.957766 -2.746780 -0.090302 0.165424 -0.223746 0.095945
    20 -0.033420 -1.397129 -0.019070 -0.457553 0.008078 -0.022172
    21 -0.022360 -0.957436 0.010971 -0.388583 0.007215 -0.018324
    22 -1.180681 -2.507217 -0.193859 -0.078589 0.198780 -0.051661
    23 -0.024967 -1.127840 0.017597 -1.331203 -0.004099 -0.055560
    24 -0.020057 -0.902687 0.049154 -1.514903 -0.007634 -0.060187
    25 0.606948 -1.197277 0.185379 0.455111 -0.925238 -0.684422
    26 1.426549 -0.267106 0.087043 0.093188 -0.260641 -1.002715
    27 1.053895 -0.140009 0.028385 0.033433 -0.179999 -0.730264
    28 0.120153 -0.050270 -0.054489 0.287569 3.110905 1.561085
    29 -3.579464 -6.379732 -8.040591 0.865016 -4.119043 1.499780
    30 0.077412 -8.411355 -0.009365 0.051726 -0.312899 0.343977
    31 0.447953 -2.798986 -0.200443 -1.223404 -0.150987 0.357291
    32 -0.032909 -1.499736 0.036191 -1.682550 0.022555 -0.034717
    33 -0.027022 -1.127703 -0.020210 -1.224256 0.024233 -0.022076
    34 -0.249534 -2.846964 -0.174213 -0.919524 -0.167550 0.229534
    35 0.043235 -1.656596 0.053042 -1.990981 -0.025053 0.018229
    36 0.031729 -1.141298 0.054932 -1.091808 -0.012110 0.006059
    37 -0.963866 -2.785145 -0.085350 -0.709627 -0.020214 0.038322
    38 0.028479 -1.418692 -0.028886 -1.498275 -0.048777 -0.038411
    39 0.021413 -0.942156 0.008327 -1.125372 -0.032155 -0.036205
    40 1.164475 -2.543940 -0.170330 -1.400985 -0.293602 0.576548
    41 0.024032 -1.148574 -0.009538 -1.327987 0.025096 0.063759
    42 0.014898 -0.899614 -0.015942 -0.966253 0.007562 0.048610
    43 -0.586770 -1.264477 0.200161 -0.213368 -0.653007 -2.515594
    44 1.565805 0.035243 0.016848 -0.017693 -0.006691 0.852145
    45 1.114041 0.044518 -0.005766 -0.027915 -0.034498 1.008552
    46 -0.139399 -0.111698 0.014397 0.286241 -0.054300 1.367747
    47 -1.295811 8.889960 -0.204276 1.570809 -0.000001 -1.570790
  time 13
    0 4.702940 -11.190481 -5.824562 0.075338 -0.001154 -0.035046
    1 0.000126 5.380603 2.085688 -1.570793 0.000000 3.141592
    2 -0.000003 8.744292 -22.250452 0.000000 0.000000 0.000000
    3 -0.000003 8.744292 -22.250454 0.000000 0.000000 0.000000
    4 -0.000002 8.744292 -22.250454 0.000000 0.000000 0.000000
    5 -0.003704 -0.088851 0.612631 2.550706 1.322585 0.979905
    6 -0.009867 6.068303 0.294611 0.000000 1.570796 0.000000
    7 0.000027 3.816548 1.626610 -1.570793 0.000001 3.141592
    8 -0.003843 0.913138 2.654824 -1.570793 -3.141592 1.570796
    9 1.286349 -0.821603 -3.140102 0.000000 0.000000 0.000000
    10 7.278791 2.505312 -3.249081 6.087709 -2.041710 -0.105358
    11 4.917448 8.645394 -0.317781 1.544293 -3.129317 1.132235
    12 0.006206 -8.487017 -0.068977 0.082742 0.658786 0.148768
    13 -0.488518 -2.755602 -0.228260 -0.244746 -0.005464 -0.145879
    14 0.039887 -1.546198 0.025948 -1.950276 -0.005165 0.043253
    15 0.028786 -1.173390 -0.128581 -1.116701 -0.015172 0.024089
    16 0.250027 -2.820665 -0.238396 -0.156638 -0.100116 -0.057748
    17 -0.049759 -1.594604 0.022352 -1.692623 -0.002732 -0.044381
    18 -0.034142 -1.179563 0.045718 -1.331115 0.004566 -0.035115
    19 0.957766 -2.746780 -0.090302 0.165424 -0.223746 0.095945
    20 -0.033420 -1.397129 -0.015163 -0.404832 0.007706 -0.019536
    21 -0.022360 -0.957436 0.010971 -0.373825 0.007083 -0.017593
    22 -1.180681 -2.507217 -0.193859 -0.078589 0.198780 -0.051661
    23 -0.024967 -1.127840 0.017597 -1.331203 -0.004099 -0.055560
    24 -0.020057 -0.902687 0.049154 -1.514903 -0.007634 -0.060187
    25 0.606948 -1.197277 0.185379 0.455111 -0.925238 -0.684422
    26 1.426549 -0.267106 0.087043 0.093188 -0.260641 -1.002715
    27 1.053895 -0.140009 0.028385 0.033433 -0.179999 -0.730264
    28 0.120153 -0.050270 -0.054489 0.287569 3.110905 1.561085
    29 -3.470085 -6.645365 -7.903868 0.860932 -4.116627 1.472433
    30 0.077412 -8.407448 -0.009365 0.019012 -0.318370 0.339267
    31 0.447953 -2.798986 -0.200443 -1.223404 -0.150987 0.357291
    32 -0.032909 -1.499736 0.036191 -1.682550 0.022555 -0.034717
    33 -0.027022 -1.127703 -0.020210 -1.224256 0.024233 -0.022076
    34 -0.249534 -2.846964 -0.174213 -0.919524 -0.167550 0.229534
    35 0.043235 -1.656596 0.053042 -1.990981 -0.025053 0.018229
    36 0.031729 -1.141298 0.054932 -1.091808 -0.012110 0.006059
    37 -0.963866 -2.785145 -0.085350 -0.709627 -0.020214 0.038322
    38 0.028479 -1.418692 -0.028886 -1.498275 -0.048777 -0.038411
    39 0.021413 -0.942156 0.008327 -1.125372 -0.032155 -0.036205
    40 1.164475 -2.543940 -0.170330 -1.400985 -0.293602 0.576548
    41 0.024032 -1.148574 -0.009538 -1.327987 0.025096 0.063759
    42 0.014898 -0.899614 -0.015942 -0.966253 0.007562 0.048610
    43 -0.586770 -1.264477 0.200161 -0.213368 -0.653007 -2.515594
    44 1.565805 0.035243 0.016848 -0.017693 -0.006691 0.852145
    45 1.114041 0.044518 -0.005766 -0.027915 -0.034498 1.008552
    46 -0.139399 -0.111698 0.014397 0.286241 -0.054300 1.367747
    47 -1.295811 8.889960 -0.204276 1.570809 -0.000001 -1.570790
  time 14
    0 4.667783 -11.522522 -5.691745 0.070842 -0.000249 -0.024270
    1 0.000126 5.380603 2.085688 -1.570793 0.000000 3.141592
    2 -0.000003 8.744292 -22.250452 0.000000 0.000000 0.000000
    3 -0.000003 8.744292 -22.250454 0.000000 0.000000 0.000000
    4 -0.000002 8.744292 -22.250454 0.000000 0.000000 0.000000
    5 -0.003704 -0.088851 0.612631 2.356173 1.371858 0.785372
    6 -0.009867 6.068303 0.294611 0.000000 1.570796 0.000000
    7 0.000027 3.816548 1.626610 -1.570793 0.000001 3.141592
    8 -0.003843 0.913138 2.654824 -1.570793 -3.141592 1.570796
    9 1.286349 -0.821603 -3.140102 0.000000 0.000000 0.000000
    10 7.267072 2.181083 -3.319395 6.135923 -2.046517 -0.157375
    11 4.632283 8.813367 -0.309968 1.544581 -3.130084 1.168073
    12 0.010113 -8.490924 -0.068977 0.096661 0.666727 0.134027
    13 -0.488518 -2.755602 -0.228260 -0.244746 -0.005464 -0.145879
    14 0.039887 -1.546198 0.025948 -1.950276 -0.005165 0.043253
    15 0.028786 -1.173390 -0.128581 -1.116701 -0.015172 0.024089
    16 0.250027 -2.820665 -0.238396 -0.156638 -0.100116 -0.057748
    17 -0.049759 -1.594604 0.022352 -1.692623 -0.002732 -0.044381
    18 -0.034142 -1.179563 0.045718 -1.331115 0.004566 -0.035115
    19 0.957766 -2.746780 -0.090302 0.165424 -0.223746 0.095945
    20 -0.033420 -1.397129 -0.015163 -0.353957 0.007215 -0.017007
    21 -0.022360 -0.957436 0.010971 -0.359551 0.006927 -0.016886
    22 -1.180681 -2.507217 -0.193859 -0.078589 0.198780 -0.051661
    23 -0.024967 -1.127840 0.017597 -1.331203 -0.004099 -0.055560
    24 -0.020057 -0.902687 0.049154 -1.514903 -0.007634 -0.060187
    25 0.606948 -1.197277 0.185379 0.455111 -0.925238 -0.684422
    26 1.426549 -0.267106 0.087043 0.093188 -0.260641 -1.002715
    27 1.053895 -0.140009 0.028385 0.033433 -0.179999 -0.730264
    28 0.120153 -0.050270 -0.054489 0.287569 3.110905 1.561085
    29 -3.360707 -6.899279 -7.751520 0.856432 -4.115799 1.446611
    30 0.077412 -8.403542 -0.009365 -0.011399 -0.321835 0.332919
    31 0.447953 -2.798986 -0.200443 -1.223404 -0.150987 0.357291
    32 -0.032909 -1.499736 0.036191 -1.682550 0.022555 -0.034717
    33 -0.027022 -1.127703 -0.020210 -1.224256 0.024233 -0.022076
    34 -0.249534 -2.846964 -0.174213 -0.919524 -0.167550 0.229534
    35 0.043235 -1.656596 0.053042 -1.990981 -0.025053 0.018229
    36 0.031729 -1.141298 0.054932 -1.091808 -0.012110 0.006059
    37 -0.963866 -2.785145 -0.085350 -0.709627 -0.020214 0.038322
    38 0.028479 -1.418692 -0.028886 -1.498275 -0.048777 -0.038411
    39 0.021413 -0.942156 0.008327 -1.125372 -0.032155 -0.036205
    40 1.164475 -2.543940 -0.170330 -1.400985 -0.293602 0.576548
    41 0.024032 -1.148574 -0.009538 -1.327987 0.025096 0.063759
    42 0.014898 -0.899614 -0.015942 -0.966253 0.007562 0.048610
    43 -0.586770 -1.264477 0.200161 -0.213368 -0.653007 -2.515594
    44 1.565805 0.035243 0.016848 -0.017693 -0.006691 0.852145
    45 1.114041 0.044518 -0.005766 -0.027915 -0.034498 1.008552
    46 -0.139399 -0.111698 0.014397 0.286241 -0.054300 1.367747
    47 -1.295811 8.889960 -0.204276 1.570809 -0.000001 -1.570790
  time 15
    0 4.636532 -11.815500 -5.570648 0.065999 0.000998 -0.014479
    1 0.000126 5.380603 2.085688 -1.570793 0.000000 3.141592
    2 -0.000003 8.744292 -22.250452 0.000000 0.000000 0.000000
    3 -0.000003 8.744292 -22.250454 0.000000 0.000000 0.000000
    4 -0.000002 8.744292 -22.250454 0.000000 0.000000 0.000000
    5 -0.003704 -0.088851 0.612631 2.161640 1.421143 0.590839
    6 -0.009867 6.068303 0.294611 0.000000 1.570796 0.000000
    7 0.000027 3.816548 1.626610 -1.570793 0.000001 3.141592
    8 -0.003843 0.913138 2.654824 -1.570793 -3.141592 1.570796
    9 1.286349 -0.821603 -3.140102 0.000000 0.000000 0.000000
    10 7.247540 1.888105 -3.370178 6.174360 -2.051908 -0.198682
    11 4.354931 8.965716 -0.302155 1.544868 -3.130755 1.201825
    12 0.014019 -8.490924 -0.068977 0.109710 0.673740 0.123920
    13 -0.488518 -2.755602 -0.228260 -0.244746 -0.005464 -0.145879
    14 0.039887 -1.546198 0.025948 -1.950276 -0.005165 0.043253
    15 0.028786 -1.173390 -0.128581 -1.116701 -0.015172 0.024089
    16 0.250027 -2.820665 -0.238396 -0.156638 -0.100116 -0.057748
    17 -0.049759 -1.594604 0.022352 -1.692623 -0.002732 -0.044381
    18 -0.034142 -1.179563 0.045718 -1.331115 0.004566 -0.035115
    19 0.957766 -2.746780 -0.090302 0.165424 -0.223746 0.095945
    20 -0.033420 -1.397129 -0.015163 -0.308496 0.006675 -0.014778
    21 -0.022360 -0.957436 0.010971 -0.346797 0.006795 -0.016251
    22 -1.180681 -2.507217 -0.193859 -0.078589 0.198780 -0.051661
    23 -0.024967 -1.127840 0.017597 -1.331203 -0.004099 -0.055560
    24 -0.020057 -0.902687 0.049154 -1.514903 -0.007634 -0.060187
    25 0.606948 -1.197277 0.185379 0.455111 -0.925238 -0.684422
    26 1.426549 -0.267106 0.087043 0.093188 -0.260641 -1.002715
    27 1.053895 -0.140009 0.028385 0.033433 -0.179999 -0.730264
    28 0.120153 -0.050270 -0.054489 0.287569 3.110905 1.561085
    29 -3.263048 -7.125849 -7.599171 0.851656 -4.116420 1.423362
    30 0.077412 -8.403542 -0.009365 -0.037589 -0.323787 0.325224
    31 0.447953 -2.798986 -0.200443 -1.223404 -0.150987 0.357291
    32 -0.032909 -1.499736 0.036191 -1.682550 0.022555 -0.034717
    33 -0.027022 -1.127703 -0.020210 -1.224256 0.024233 -0.022076
    34 -0.249534 -2.846964 -0.174213 -0.919524 -0.167550 0.229534
    35 0.043235 -1.656596 0.053042 -1.990981 -0.025053 0.018229
    36 0.031729 -1.141298 0.054932 -1.091808 -0.012110 0.006059
    37 -0.963866 -2.785145 -0.085350 -0.709627 -0.020214 0.038322
    38 0.028479 -1.418692 -0.028886 -1.498275 -0.048777 -0.038411
    39 0.021413 -0.942156 0.008327 -1.125372 -0.032155 -0.036205
    40 1.164475 -2.543940 -0.170330 -1.400985 -0.293602 0.576548
    41 0.024032 -1.148574 -0.009538 -1.327987 0.025096 0.063759
    42 0.014898 -0.899614 -0.015942 -0.966253 0.007562 0.048610
    43 -0.586770 -1.264477 0.200161 -0.213368 -0.653007 -2.515594
    44 1.565805 0.035243 0.016848 -0.017693 -0.006691 0.852145
    45 1.114041 0.044518 -0.005766 -0.027915 -0.034498 1.008552
    46 -0.139399 -0.111698 0.014397 0.286241 -0.054300 1.367747
    47 -1.295811 8.889960 -0.204276 1.570809 -0.000001 -1.570790
  time 16
    0 4.613093 -12.053789 -5.472988 0.061225 0.002027 -0.006655
    1 0.000126 5.380603 2.085688 -1.570793 0.000000 3.141592
    2 -0.000003 8.744292 -22.250452 0.000000 0.000000 0.000000
    3 -0.000003 8.744292 -22.250454 0.000000 0.000000 0.000000
    4 -0.000002 8.744292 -22.250454 0.000000 0.000000 0.000000
    5 -0.003704 -0.088851 0.612631 1.978036 1.467648 0.407235
    6 -0.009867 6.068303 0.294611 0.000000 1.570796 0.000000
    7 0.000027 3.816548 1.626610 -1.570793 0.000001 3.141592
    8 -0.003843 0.913138 2.654824 -1.570793 -3.141592 1.570796
    9 1.286349 -0.821603 -3.140102 0.000000 0.000000 0.000000
    10 7.228009 1.645911 -3.401429 6.202444 -2.056788 -0.228516
    11 4.112736 9.094626 -0.298249 1.545060 -3.131330 1.230932
    12 0.014019 -8.490924 -0.068977 0.120367 0.678895 0.117887
    13 -0.488518 -2.755602 -0.228260 -0.244746 -0.005464 -0.145879
    14 0.039887 -1.546198 0.025948 -1.950276 -0.005165 0.043253
    15 0.028786 -1.173390 -0.128581 -1.116701 -0.015172 0.024089
    16 0.250027 -2.820665 -0.238396 -0.156638 -0.100116 -0.057748
    17 -0.049759 -1.594604 0.022352 -1.692623 -0.002732 -0.044381
    18 -0.034142 -1.179563 0.045718 -1.331115 0.004566 -0.035115
    19 0.957766 -2.746780 -0.090302 0.165424 -0.223746 0.095945
    20 -0.033420 -1.397129 -0.015163 -0.272078 0.006160 -0.013016
    21 -0.022360 -0.957436 0.010971 -0.336572 0.006675 -0.015748
    22 -1.180681 -2.507217 -0.193859 -0.078589 0.198780 -0.051661
    23 -0.024967 -1.127840 0.017597 -1.331203 -0.004099 -0.055560
    24 -0.020057 -0.902687 0.049154 -1.514903 -0.007634 -0.060187
    25 0.606948 -1.197277 0.185379 0.455111 -0.925238 -0.684422
    26 1.426549 -0.267106 0.087043 0.093188 -0.260641 -1.002715
    27 1.053895 -0.140009 0.028385 0.033433 -0.179999 -0.730264
    28 0.120153 -0.050270 -0.054489 0.287569 3.110905 1.561085
    29 -3.181014 -7.309448 -7.462448 0.847018 -4.117939 1.404114
    30 0.077412 -8.399636 -0.009365 -0.057966 -0.324735 0.317033
    31 0.447953 -2.798986 -0.200443 -1.223404 -0.150987 0.357291
    32 -0.032909 -1.499736 0.036191 -1.682550 0.022555 -0.034717
    33 -0.027022 -1.127703 -0.020210 -1.224256 0.024233 -0.022076
    34 -0.249534 -2.846964 -0.174213 -0.919524 -0.167550 0.229534
    35 0.043235 -1.656596 0.053042 -1.990981 -0.025053 0.018229
    36 0.031729 -1.141298 0.054932 -1.091808 -0.012110 0.006059
    37 -0.963866 -2.785145 -0.085350 -0.709627 -0.020214 0.038322
    38 0.028479 -1.418692 -0.028886 -1.498275 -0.048777 -0.038411
    39 0.021413 -0.942156 0.008327 -1.125372 -0.032155 -0.036205
    40 1.164475 -2.543940 -0.170330 -1.400985 -0.293602 0.576548
    41 0.024032 -1.148574 -0.009538 -1.327987 0.025096 0.063759
    42 0.014898 -0.899614 -0.015942 -0.966253 0.007562 0.048610
    43 -0.586770 -1.264477 0.200161 -0.213368 -0.653007 -2.515594
    44 1.565805 0.035243 0.016848 -0.017693 -0.006691 0.852145
    45 1.114041 0.044518 -0.005766 -0.027915 -0.034498 1.008552
    46 -0.139399 -0.111698 0.014397 0.286241 -0.054300 1.367747
    47 -1.295811 8.889960 -0.204276 1.570809 -0.000001 -1.570790
  time 17
    0 4.597468 -12.217856 -5.398767 0.057008 0.002214 -0.001587
    1 0.000126 5.380603 2.085688 -1.570793 0.000000 3.141592
    2 -0.000003 8.744292 -22.250452 0.000000 0.000000 0.000000
    3 -0.000003 8.744292 -22.250454 0.000000 0.000000 0.000000
    4 -0.000002 8.744292 -22.250454 0.000000 0.000000 0.000000
    5 -0.003704 -0.088851 0.612631 1.816197 1.508640 0.245396
    6 -0.009867 6.068303 0.294611 0.000000 1.570796 0.000000
    7 0.000027 3.816548 1.626610 -1.570793 0.000001 3.141592
    8 -0.003843 0.913138 2.654824 -1.570793 -3.141592 1.570796
    9 1.286349 -0.821603 -3.140102 0.000000 0.000000 0.000000
    10 7.208477 1.477937 -3.420961 6.219985 -2.060066 -0.246683
    11 3.933043 9.180566 -0.294342 1.545251 -3.131713 1.252359
    12 0.014019 -8.490924 -0.068977 0.127066 0.681329 0.115091
    13 -0.488518 -2.755602 -0.228260 -0.244746 -0.005464 -0.145879
    14 0.039887 -1.546198 0.025948 -1.950276 -0.005165 0.043253
    15 0.028786 -1.173390 -0.128581 -1.116701 -0.015172 0.024089
    16 0.250027 -2.820665 -0.238396 -0.156638 -0.100116 -0.057748
    17 -0.049759 -1.594604 0.022352 -1.692623 -0.002732 -0.044381
    18 -0.034142 -1.179563 0.045718 -1.331115 0.004566 -0.035115
    19 0.957766 -2.746780 -0.090302 0.165424 -0.223746 0.095945
    20 -0.033420 -1.397129 -0.015163 -0.248252 0.005789 -0.011866
    21 -0.022360 -0.957436 0.010971 -0.329898 0.006604 -0.015424
    22 -1.180681 -2.507217 -0.193859 -0.078589 0.198780 -0.051661
    23 -0.024967 -1.127840 0.017597 -1.331203 -0.004099 -0.055560
    24 -0.020057 -0.902687 0.049154 -1.514903 -0.007634 -0.060187
    25 0.606948 -1.197277 0.185379 0.455111 -0.925238 -0.684422
    26 1.426549 -0.267106 0.087043 0.093188 -0.260641 -1.002715
    27 1.053895 -0.140009 0.028385 0.033433 -0.179999 -0.730264
    28 0.120153 -0.050270 -0.054489 0.287569 3.110905 1.561085
    29 -3.126325 -7.434452 -7.360883 0.843349 -4.119526 1.390393
    30 0.077412 -8.399636 -0.009365 -0.071013 -0.325264 0.309602
    31 0.447953 -2.798986 -0.200443 -1.223404 -0.150987 0.357291
    32 -0.032909 -1.499736 0.036191 -1.682550 0.022555 -0.034717
    33 -0.027022 -1.127703 -0.020210 -1.224256 0.024233 -0.022076
    34 -0.249534 -2.846964 -0.174213 -0.919524 -0.167550 0.229534
    35 0.043235 -1.656596 0.053042 -1.990981 -0.025053 0.018229
    36 0.031729 -1.141298 0.054932 -1.091808 -0.012110 0.006059
    37 -0.963866 -2.785145 -0.085350 -0.709627 -0.020214 0.038322
    38 0.028479 -1.418692 -0.028886 -1.498275 -0.048777 -0.038411
    39 0.021413 -0.942156 0.008327 -1.125372 -0.032155 -0.036205
    40 1.164475 -2.543940 -0.170330 -1.400985 -0.293602 0.576548
    41 0.024032 -1.148574 -0.009538 -1.327987 0.025096 0.063759
    42 0.014898 -0.899614 -0.015942 -0.966253 0.007562 0.048610
    43 -0.586770 -1.264477 0.200161 -0.213368 -0.653007 -2.515594
    44 1.565805 0.035243 0.016848 -0.017693 -0.006691 0.852145
    45 1.114041 0.044518 -0.005766 -0.027915 -0.034498 1.008552
    46 -0.139399 -0.111698 0.014397 0.286241 -0.054300 1.367747
    47 -1.295811 8.889960 -0.204276 1.570809 -0.000001 -1.570790
  time 18
    0 4.585749 -12.331141 -5.351891 0.052792 0.001809 0.001267
    1 0.000126 5.380603 2.085688 -1.570793 0.000000 3.141592
    2 -0.000003 8.744292 -22.250452 0.000000 0.000000 0.000000
    3 -0.000003 8.744292 -22.250454 0.000000 0.000000 0.000000
    4 -0.000002 8.744292 -22.250454 0.000000 0.000000 0.000000
    5 -0.003704 -0.088851 0.612631 1.687147 1.541327 0.116346
    6 -0.009867 6.068303 0.294611 0.000000 1.570796 0.000000
    7 0.000027 3.816548 1.626610 -1.570793 0.000001 3.141592
    8 -0.003843 0.913138 2.654824 -1.570793 -3.141592 1.570796
    9 1.286349 -0.821603 -3.140102 0.000000 0.000000 0.000000
    10 7.192851 1.368558 -3.432680 6.230433 -2.062033 -0.256915
    11 3.804133 9.239162 -0.290436 1.545443 -3.132001 1.267434
    12 0.014019 -8.494830 -0.068977 0.130981 0.681617 0.114931
    13 -0.488518 -2.755602 -0.228260 -0.244746 -0.005464 -0.145879
    14 0.039887 -1.546198 0.025948 -1.950276 -0.005165 0.043253
    15 0.028786 -1.173390 -0.128581 -1.116701 -0.015172 0.024089
    16 0.250027 -2.820665 -0.238396 -0.156638 -0.100116 -0.057748
    17 -0.049759 -1.594604 0.022352 -1.692623 -0.002732 -0.044381
    18 -0.034142 -1.179563 0.045718 -1.331115 0.004566 -0.035115
    19 0.957766 -2.746780 -0.090302 0.165424 -0.223746 0.095945
    20 -0.033420 -1.397129 -0.015163 -0.234362 0.005561 -0.011207
    21 -0.022360 -0.957436 0.010971 -0.326001 0.006556 -0.015232
    22 -1.180681 -2.507217 -0.193859 -0.078589 0.198780 -0.051661
    23 -0.024967 -1.127840 0.017597 -1.331203 -0.004099 -0.055560
    24 -0.020057 -0.902687 0.049154 -1.514903 -0.007634 -0.060187
    25 0.606948 -1.197277 0.185379 0.455111 -0.925238 -0.684422
    26 1.426549 -0.267106 0.087043 0.093188 -0.260641 -1.002715
    27 1.053895 -0.140009 0.028385 0.033433 -0.179999 -0.730264
    28 0.120153 -0.050270 -0.054489 0.287569 3.110905 1.561085
    29 -3.091167 -7.520392 -7.290568 0.841064 -4.120630 1.381437
    30 0.077412 -8.399636 -0.009365 -0.078630 -0.325300 0.303166
    31 0.447953 -2.798986 -0.200443 -1.223404 -0.150987 0.357291
    32 -0.032909 -1.499736 0.036191 -1.682550 0.022555 -0.034717
    33 -0.027022 -1.127703 -0.020210 -1.224256 0.024233 -0.022076
    34 -0.249534 -2.846964 -0.174213 -0.919524 -0.167550 0.229534
    35 0.043235 -1.656596 0.053042 -1.990981 -0.025053 0.018229
    36 0.031729 -1.141298 0.054932 -1.091808 -0.012110 0.006059
    37 -0.963866 -2.785145 -0.085350 -0.709627 -0.020214 0.038322
    38 0.028479 -1.418692 -0.028886 -1.498275 -0.048777 -0.038411
    39 0.021413 -0.942156 0.008327 -1.125372 -0.032155 -0.036205
    40 1.164475 -2.543940 -0.170330 -1.400985 -0.293602 0.576548
    41 0.024032 -1.148574 -0.009538 -1.327987 0.025096 0.063759
    42 0.014898 -0.899614 -0.015942 -0.966253 0.007562 0.048610
    43 -0.586770 -1.264477 0.200161 -0.213368 -0.653007 -2.515594
    44 1.565805 0.035243 0.016848 -0.017693 -0.006691 0.852145
    45 1.114041 0.044518 -0.005766 -0.027915 -0.034498 1.008552
    46 -0.139399 -0.111698 0.014397 0.286241 -0.054300 1.367747
    47 -1.295811 8.889960 -0.204276 1.570809 -0.000001 -1.570790
  time 19
    0 4.581843 -12.413175 -5.308921 0.047914 0.001497 0.003284
    1 0.000126 5.380603 2.085688 -1.570793 0.000000 3.141592
    2 -0.000003 8.744292 -22.250452 0.000000 0.000000 0.000000
    3 -0.000003 8.744292 -22.250454 0.000000 0.000000 0.000000
    4 -0.000002 8.744292 -22.250454 0.000000 0.000000 0.000000
    5 -0.003704 -0.088851 0.612631 1.601673 1.562989 0.030872
    6 -0.009867 6.068303 0.294611 0.000000 1.570796 0.000000
    7 0.000027 3.816548 1.626610 -1.570793 0.000001 3.141592
    8 -0.003843 0.913138 2.654824 -1.570793 -3.141592 1.570796
    9 1.286349 -0.821603 -3.140102 0.000000 0.000000 0.000000
    10 7.181132 1.278712 -3.440493 6.237526 -2.063417 -0.263417
    11 3.698661 9.286038 -0.290436 1.545539 -3.132288 1.279854
    12 0.014019 -8.494830 -0.068977 0.134243 0.681137 0.117048
    13 -0.488518 -2.755602 -0.228260 -0.244746 -0.005464 -0.145879
    14 0.039887 -1.546198 0.025948 -1.950276 -0.005165 0.043253
    15 0.028786 -1.173390 -0.128581 -1.116701 -0.015172 0.024089
    16 0.250027 -2.820665 -0.238396 -0.156638 -0.100116 -0.057748
    17 -0.049759 -1.594604 0.022352 -1.692623 -0.002732 -0.044381
    18 -0.034142 -1.179563 0.045718 -1.331115 0.004566 -0.035115
    19 0.957766 -2.746780 -0.090302 0.165424 -0.223746 0.095945
    20 -0.033420 -1.397129 -0.015163 -0.224913 0.005405 -0.010751
    21 -0.022360 -0.957436 0.010971 -0.323362 0.006520 -0.015101
    22 -1.180681 -2.507217 -0.193859 -0.078589 0.198780 -0.051661
    23 -0.024967 -1.127840 0.017597 -1.331203 -0.004099 -0.055560
    24 -0.020057 -0.902687 0.049154 -1.514903 -0.007634 -0.060187
    25 0.606948 -1.197277 0.185379 0.455111 -0.925238 -0.684422
    26 1.426549 -0.267106 0.087043 0.093188 -0.260641 -1.002715
    27 1.053895 -0.140009 0.028385 0.033433 -0.179999 -0.730264
    28 0.120153 -0.050270 -0.054489 0.287569 3.110905 1.561085
    29 -3.059916 -7.590707 -7.228066 0.839749 -4.121183 1.374957
    30 0.077412 -8.399636 -0.013271 -0.083926 -0.324571 0.297022
    31 0.447953 -2.798986 -0.200443 -1.223404 -0.150987 0.357291
    32 -0.032909 -1.499736 0.036191 -1.682550 0.022555 -0.034717
    33 -0.027022 -1.127703 -0.020210 -1.224256 0.024233 -0.022076
    34 -0.249534 -2.846964 -0.174213 -0.919524 -0.167550 0.229534
    35 0.043235 -1.656596 0.053042 -1.990981 -0.025053 0.018229
    36 0.031729 -1.141298 0.054932 -1.091808 -0.012110 0.006059
    37 -0.963866 -2.785145 -0.085350 -0.709627 -0.020214 0.038322
    38 0.028479 -1.418692 -0.028886 -1.498275 -0.048777 -0.038411
    39 0.021413 -0.942156 0.008327 -1.125372 -0.032155 -0.036205
    40 1.164475 -2.543940 -0.170330 -1.400985 -0.293602 0.576548
    41 0.024032 -1.148574 -0.009538 -1.327987 0.025096 0.063759
    42 0.014898 -0.899614 -0.015942 -0.966253 0.007562 0.048610
    43 -0.586770 -1.264477 0.200161 -0.213368 -0.653007 -2.515594
    44 1.565805 0.035243 0.016848 -0.017693 -0.006691 0.852145
    45 1.114041 0.044518 -0.005766 -0.027915 -0.034498 1.008552
    46 -0.139399 -0.111698 0.014397 0.286241 -0.054300 1.367747
    47 -1.295811 8.889960 -0.204276 1.570809 -0.000001 -1.570790
  time 20
    0 4.577936 -12.475677 -5.269857 0.042512 0.001185 0.004514
    1 0.000126 5.380603 2.085688 -1.570793 0.000000 3.141592
    2 -0.000003 8.744292 -22.250452 0.000000 0.000000 0.000000
    3 -0.000003 8.744292 -22.250454 0.000000 0.000000 0.000000
    4 -0.000002 8.744292 -22.250454 0.000000 0.000000 0.000000
    5 -0.003704 -0.088851 0.612631 1.570801 1.570796 0.000000
    6 -0.009867 6.068303 0.294611 0.000000 1.570796 0.000000
    7 0.000027 3.816548 1.626610 -1.570793 0.000001 3.141592
    8 -0.003843 0.913138 2.654824 -1.570793 -3.141592 1.570796
    9 1.286349 -0.821603 -3.140102 0.000000 0.000000 0.000000
    10 7.169413 1.216210 -3.444399 6.241935 -2.064291 -0.266955
    11 3.616627 9.325102 -0.286530 1.545635 -3.132480 1.289714
    12 0.014019 -8.494830 -0.068977 0.136984 0.679984 0.120963
    13 -0.488518 -2.755602 -0.228260 -0.244746 -0.005464 -0.145879
    14 0.039887 -1.546198 0.025948 -1.950276 -0.005165 0.043253
    15 0.028786 -1.173390 -0.128581 -1.116701 -0.015172 0.024089
    16 0.250027 -2.820665 -0.238396 -0.156638 -0.100116 -0.057748
    17 -0.049759 -1.594604 0.022352 -1.692623 -0.002732 -0.044381
    18 -0.034142 -1.179563 0.045718 -1.331115 0.004566 -0.035115
    19 0.957766 -2.746780 -0.090302 0.165424 -0.223746 0.095945
    20 -0.033420 -1.397129 -0.015163 -0.219317 0.005309 -0.010488
    21 -0.022360 -0.957436 0.010971 -0.321801 0.006508 -0.015029
    22 -1.180681 -2.507217 -0.193859 -0.078589 0.198780 -0.051661
    23 -0.024967 -1.127840 0.017597 -1.331203 -0.004099 -0.055560
    24 -0.020057 -0.902687 0.049154 -1.514903 -0.007634 -0.060187
    25 0.606948 -1.197277 0.185379 0.455111 -0.925238 -0.684422
    26 1.426549 -0.267106 0.087043 0.093188 -0.260641 -1.002715
    27 1.053895 -0.140009 0.028385 0.033433 -0.179999 -0.730264
    28 0.120153 -0.050270 -0.054489 0.287569 3.110905 1.561085
    29 -3.036478 -7.645396 -7.181190 0.839334 -4.121252 1.370765
    30 0.081319 -8.399636 -0.013271 -0.087245 -0.323203 0.291376
    31 0.447953 -2.798986 -0.200443 -1.223404 -0.150987 0.357291
    32 -0.032909 -1.499736 0.036191 -1.682550 0.022555 -0.034717
    33 -0.027022 -1.127703 -0.020210 -1.224256 0.024233 -0.022076
    34 -0.249534 -2.846964 -0.174213 -0.919524 -0.167550 0.229534
    35 0.043235 -1.656596 0.053042 -1.990981 -0.025053 0.018229
    36 0.031729 -1.141298 0.054932 -1.091808 -0.012110 0.006059
    37 -0.963866 -2.785145 -0.085350 -0.709627 -0.020214 0.038322
    38 0.028479 -1.418692 -0.028886 -1.498275 -0.048777 -0.038411
    39 0.021413 -0.942156 0.008327 -1.125372 -0.032155 -0.036205
    40 1.164475 -2.543940 -0.170330 -1.400985 -0.293602 0.576548
    41 0.024032 -1.148574 -0.009538 -1.327987 0.025096 0.063759
    42 0.014898 -0.899614 -0.015942 -0.966253 0.007562 0.048610
    43 -0.586770 -1.264477 0.200161 -0.213368 -0.653007 -2.515594
    44 1.565805 0.035243 0.016848 -0.017693 -0.006691 0.852145
    45 1.114041 0.044518 -0.005766 -0.027915 -0.034498 1.008552
    46 -0.139399 -0.111698 0.014397 0.286241 -0.054300 1.367747
    47 -1.295811 8.889960 -0.204276 1.570809 -0.000001 -1.570790
  time 21
    0 4.581843 -12.514740 -5.242513 0.036832 0.000967 0.005154
    1 0.000126 5.380603 2.085688 -1.570793 0.000000 3.141592
    2 -0.000003 8.744292 -22.250452 0.000000 0.000000 0.000000
    3 -0.000003 8.744292 -22.250454 0.000000 0.000000 0.000000
    4 -0.000002 8.744292 -22.250454 0.000000 0.000000 0.000000
    5 -0.003704 -0.088851 0.612631 1.570801 1.570796 0.000000
    6 -0.009867 6.068303 0.294611 0.000000 1.570796 0.000000
    7 0.000027 3.816548 1.626610 -1.570793 0.000001 3.141592
    8 -0.003843 0.913138 2.654824 -1.570793 -3.141592 1.570796
    9 1.286349 -0.821603 -3.140102 0.000000 0.000000 0.000000
    10 7.161600 1.169333 -3.448306 6.244140 -2.064801 -0.268007
    11 3.550219 9.352446 -0.286530 1.545730 -3.132576 1.297299
    12 0.014019 -8.494830 -0.068977 0.139202 0.678319 0.126277
    13 -0.488518 -2.755602 -0.228260 -0.244746 -0.005464 -0.145879
    14 0.039887 -1.546198 0.025948 -1.950276 -0.005165 0.043253
    15 0.028786 -1.173390 -0.128581 -1.116701 -0.015172 0.024089
    16 0.250027 -2.820665 -0.238396 -0.156638 -0.100116 -0.057748
    17 -0.049759 -1.594604 0.022352 -1.692623 -0.002732 -0.044381
    18 -0.034142 -1.179563 0.045718 -1.331115 0.004566 -0.035115
    19 0.957766 -2.746780 -0.090302 0.165424 -0.223746 0.095945
    20 -0.033420 -1.397129 -0.015163 -0.217005 0.005261 -0.010380
    21 -0.022360 -0.957436 0.010971 -0.321151 0.006496 -0.014993
    22 -1.180681 -2.507217 -0.193859 -0.078589 0.198780 -0.051661
    23 -0.024967 -1.127840 0.017597 -1.331203 -0.004099 -0.055560
    24 -0.020057 -0.902687 0.049154 -1.514903 -0.007634 -0.060187
    25 0.606948 -1.197277 0.185379 0.455111 -0.925238 -0.684422
    26 1.426549 -0.267106 0.087043 0.093188 -0.260641 -1.002715
    27 1.053895 -0.140009 0.028385 0.033433 -0.179999 -0.730264
    28 0.120153 -0.050270 -0.054489 0.287569 3.110905 1.561085
    29 -3.013040 -7.684460 -7.142126 0.839818 -4.120838 1.368478
    30 0.081319 -8.399636 -0.013271 -0.088953 -0.321325 0.286285
    31 0.447953 -2.798986 -0.200443 -1.223404 -0.150987 0.357291
    32 -0.032909 -1.499736 0.036191 -1.682550 0.022555 -0.034717
    33 -0.027022 -1.127703 -0.020210 -1.224256 0.024233 -0.022076
    34 -0.249534 -2.846964 -0.174213 -0.919524 -0.167550 0.229534
    35 0.043235 -1.656596 0.053042 -1.990981 -0.025053 0.018229
    36 0.031729 -1.141298 0.054932 -1.091808 -0.012110 0.006059
    37 -0.963866 -2.785145 -0.085350 -0.709627 -0.020214 0.038322
    38 0.028479 -1.418692 -0.028886 -1.498275 -0.048777 -0.038411
    39 0.021413 -0.942156 0.008327 -1.125372 -0.032155 -0.036205
    40 1.164475 -2.543940 -0.170330 -1.400985 -0.293602 0.576548
    41 0.024032 -1.148574 -0.009538 -1.327987 0.025096 0.063759
    42 0.014898 -0.899614 -0.015942 -0.966253 0.007562 0.048610
    43 -0.586770 -1.264477 0.200161 -0.213368 -0.653007 -2.515594
    44 1.565805 0.035243 0.016848 -0.017693 -0.006691 0.852145
    45 1.114041 0.044518 -0.005766 -0.027915 -0.034498 1.008552
    46 -0.139399 -0.111698 0.014397 0.286241 -0.054300 1.367747
    47 -1.295811 8.889960 -0.204276 1.570809 -0.000001 -1.570790
  time 22
    0 4.585749 -12.542085 -5.215168 0.030978 0.000748 0.005203
    1 0.000126 5.380603 2.085688 -1.570793 0.000000 3.141592
    2 -0.000003 8.744292 -22.250452 0.000000 0.000000 0.000000
    3 -0.000003 8.744292 -22.250454 0.000000 0.000000 0.000000
    4 -0.000002 8.744292 -22.250454 0.000000 0.000000 0.000000
    5 -0.003704 -0.088851 0.612631 1.570801 1.570796 0.000000
    6 -0.009867 6.068303 0.294611 0.000000 1.570796 0.000000
    7 0.000027 3.816548 1.626610 -1.570793 0.000001 3.141592
    8 -0.003843 0.913138 2.654824 -1.570793 -3.141592 1.570796
    9 1.286349 -0.821603 -3.140102 0.000000 0.000000 0.000000
    10 7.153788 1.138083 -3.452212 6.244619 -2.064946 -0.267337
    11 3.499436 9.371978 -0.282623 1.545730 -3.132672 1.302893
    12 0.014019 -8.494830 -0.068977 0.140898 0.676301 0.132509
    13 -0.488518 -2.755602 -0.228260 -0.244746 -0.005464 -0.145879
    14 0.039887 -1.546198 0.025948 -1.950276 -0.005165 0.043253
    15 0.028786 -1.173390 -0.128581 -1.116701 -0.015172 0.024089
    16 0.250027 -2.820665 -0.238396 -0.156638 -0.100116 -0.057748
    17 -0.049759 -1.594604 0.022352 -1.692623 -0.002732 -0.044381
    18 -0.034142 -1.179563 0.045718 -1.331115 0.004566 -0.035115
    19 0.957766 -2.746780 -0.090302 0.165424 -0.223746 0.095945
    20 -0.033420 -1.397129 -0.015163 -0.217390 0.005273 -0.010392
    21 -0.022360 -0.957436 0.010971 -0.321262 0.006496 -0.015005
    22 -1.180681 -2.507217 -0.193859 -0.078589 0.198780 -0.051661
    23 -0.024967 -1.127840 0.017597 -1.331203 -0.004099 -0.055560
    24 -0.020057 -0.902687 0.049154 -1.514903 -0.007634 -0.060187
    25 0.606948 -1.197277 0.185379 0.455111 -0.925238 -0.684422
    26 1.426549 -0.267106 0.087043 0.093188 -0.260641 -1.002715
    27 1.053895 -0.140009 0.028385 0.033433 -0.179999 -0.730264
    28 0.120153 -0.050270 -0.054489 0.287569 3.110905 1.561085
    29 -2.997415 -7.715711 -7.110875 0.840995 -4.119940 1.367906
    30 0.081319 -8.403542 -0.013271 -0.089298 -0.319081 0.281780
    31 0.447953 -2.798986 -0.200443 -1.223404 -0.150987 0.357291
    32 -0.032909 -1.499736 0.036191 -1.682550 0.022555 -0.034717
    33 -0.027022 -1.127703 -0.020210 -1.224256 0.024233 -0.022076
    34 -0.249534 -2.846964 -0.174213 -0.919524 -0.167550 0.229534
    35 0.043235 -1.656596 0.053042 -1.990981 -0.025053 0.018229
    36 0.031729 -1.141298 0.054932 -1.091808 -0.012110 0.006059
    37 -0.963866 -2.785145 -0.085350 -0.709627 -0.020214 0.038322
    38 0.028479 -1.418692 -0.028886 -1.498275 -0.048777 -0.038411
    39 0.021413 -0.942156 0.008327 -1.125372 -0.032155 -0.036205
    40 1.164475 -2.543940 -0.170330 -1.400985 -0.293602 0.576548
    41 0.024032 -1.148574 -0.009538 -1.327987 0.025096 0.063759
    42 0.014898 -0.899614 -0.015942 -0.966253 0.007562 0.048610
    43 -0.586770 -1.264477 0.200161 -0.213368 -0.653007 -2.515594
    44 1.565805 0.035243 0.016848 -0.017693 -0.006691 0.852145
    45 1.114041 0.044518 -0.005766 -0.027915 -0.034498 1.008552
    46 -0.139399 -0.111698 0.014397 0.286241 -0.054300 1.367747
    47 -1.295811 8.889960 -0.204276 1.570809 -0.000001 -1.570790
  time 23
    0 4.589655 -12.549898 -5.195636 0.025159 0.000561 0.004908
    1 0.000126 5.380603 2.085688 -1.570793 0.000000 3.141592
    2 -0.000003 8.744292 -22.250452 0.000000 0.000000 0.000000
    3 -0.000003 8.744292 -22.250454 0.000000 0.000000 0.000000
    4 -0.000002 8.744292 -22.250454 0.000000 0.000000 0.000000
    5 -0.003704 -0.088851 0.612631 1.570801 1.570796 0.000000
    6 -0.009867 6.068303 0.294611 0.000000 1.570796 0.000000
    7 0.000027 3.816548 1.626610 -1.570793 0.000001 3.141592
    8 -0.003843 0.913138 2.654824 -1.570793 -3.141592 1.570796
    9 1.286349 -0.821603 -3.140102 0.000000 0.000000 0.000000
    10 7.149881 1.122457 -3.456118 6.243661 -2.064873 -0.265138
    11 3.468185 9.383697 -0.282623 1.545826 -3.132768 1.306780
    12 0.014019 -8.494830 -0.068977 0.142203 0.674060 0.139340
    13 -0.488518 -2.755602 -0.228260 -0.244746 -0.005464 -0.145879
    14 0.039887 -1.546198 0.025948 -1.950276 -0.005165 0.043253
    15 0.028786 -1.173390 -0.128581 -1.116701 -0.015172 0.024089
    16 0.250027 -2.820665 -0.238396 -0.156638 -0.100116 -0.057748
    17 -0.049759 -1.594604 0.022352 -1.692623 -0.002732 -0.044381
    18 -0.034142 -1.179563 0.045718 -1.331115 0.004566 -0.035115
    19 0.957766 -2.746780 -0.090302 0.165424 -0.223746 0.095945
    20 -0.033420 -1.397129 -0.015163 -0.219885 0.005321 -0.010511
    21 -0.022360 -0.957436 0.010971 -0.321953 0.006508 -0.015041
    22 -1.180681 -2.507217 -0.193859 -0.078589 0.198780 -0.051661
    23 -0.024967 -1.127840 0.017597 -1.331203 -0.004099 -0.055560
    24 -0.020057 -0.902687 0.049154 -1.514903 -0.007634 -0.060187
    25 0.606948 -1.197277 0.185379 0.455111 -0.925238 -0.684422
    26 1.426549 -0.267106 0.087043 0.093188 -0.260641 -1.002715
    27 1.053895 -0.140009 0.028385 0.033433 -0.179999 -0.730264
    28 0.120153 -0.050270 -0.054489 0.287569 3.110905 1.561085
    29 -2.985695 -7.735242 -7.087437 0.842726 -4.118698 1.368669
    30 0.081319 -8.403542 -0.013271 -0.088607 -0.316601 0.277889
    31 0.447953 -2.798986 -0.200443 -1.223404 -0.150987 0.357291
    32 -0.032909 -1.499736 0.036191 -1.682550 0.022555 -0.034717
    33 -0.027022 -1.127703 -0.020210 -1.224256 0.024233 -0.022076
    34 -0.249534 -2.846964 -0.174213 -0.919524 -0.167550 0.229534
    35 0.043235 -1.656596 0.053042 -1.990981 -0.025053 0.018229
    36 0.031729 -1.141298 0.054932 -1.091808 -0.012110 0.006059
    37 -0.963866 -2.785145 -0.085350 -0.709627 -0.020214 0.038322
    38 0.028479 -1.418692 -0.028886 -1.498275 -0.048777 -0.038411
    39 0.021413 -0.942156 0.008327 -1.125372 -0.032155 -0.036205
    40 1.164475 -2.543940 -0.170330 -1.400985 -0.293602 0.576548
    41 0.024032 -1.148574 -0.009538 -1.327987 0.025096 0.063759
    42 0.014898 -0.899614 -0.015942 -0.966253 0.007562 0.048610
    43 -0.586770 -1.264477 0.200161 -0.213368 -0.653007 -2.515594
    44 1.565805 0.035243 0.016848 -0.017693 -0.006691 0.852145
    45 1.114041 0.044518 -0.005766 -0.027915 -0.034498 1.008552
    46 -0.139399 -0.111698 0.014397 0.286241 -0.054300 1.367747
    47 -1.295811 8.889960 -0.204276 1.570809 -0.000001 -1.570790
  time 24
    0 4.597468 -12.549898 -5.180011 0.019514 0.000437 0.004268
    1 0.000126 5.380603 2.085688 -1.570793 0.000000 3.141592
    2 -0.000003 8.744292 -22.250452 0.000000 0.000000 0.000000
    3 -0.000003 8.744292 -22.250454 0.000000 0.000000 0.000000
    4 -0.000002 8.744292 -22.250454 0.000000 0.000000 0.000000
    5 -0.003704 -0.088851 0.612631 1.570801 1.570796 0.000000
    6 -0.009867 6.068303 0.294611 0.000000 1.570796 0.000000
    7 0.000027 3.816548 1.626610 -1.570793 0.000001 3.141592
    8 -0.003843 0.913138 2.654824 -1.570793 -3.141592 1.570796
    9 1.286349 -0.821603 -3.140102 0.000000 0.000000 0.000000
    10 7.149881 1.118551 -3.460025 6.241840 -2.064509 -0.261983
    11 3.448653 9.395416 -0.282623 1.545826 -3.132864 1.309055
    12 0.014019 -8.498736 -0.068977 0.143160 0.671722 0.146371
    13 -0.488518 -2.755602 -0.228260 -0.244746 -0.005464 -0.145879
    14 0.039887 -1.546198 0.025948 -1.950276 -0.005165 0.043253
    15 0.028786 -1.173390 -0.128581 -1.116701 -0.015172 0.024089
    16 0.250027 -2.820665 -0.238396 -0.156638 -0.100116 -0.057748
    17 -0.049759 -1.594604 0.022352 -1.692623 -0.002732 -0.044381
    18 -0.034142 -1.179563 0.045718 -1.331115 0.004566 -0.035115
    19 0.957766 -2.746780 -0.090302 0.165424 -0.223746 0.095945
    20 -0.033420 -1.397129 -0.015163 -0.223940 0.005393 -0.010703
    21 -0.022360 -0.957436 0.010971 -0.323086 0.006520 -0.015089
    22 -1.180681 -2.507217 -0.193859 -0.078589 0.198780 -0.051661
    23 -0.024967 -1.127840 0.017597 -1.331203 -0.004099 -0.055560
    24 -0.020057 -0.902687 0.049154 -1.514903 -0.007634 -0.060187
    25 0.606948 -1.197277 0.185379 0.455111 -0.925238 -0.684422
    26 1.426549 -0.267106 0.087043 0.093188 -0.260641 -1.002715
    27 1.053895 -0.140009 0.028385 0.033433 -0.179999 -0.730264
    28 0.120153 -0.050270 -0.054489 0.287569 3.110905 1.561085
    29 -2.977883 -7.746962 -7.075718 0.844802 -4.117248 1.370384
    30 0.081319 -8.403542 -0.013271 -0.087149 -0.314011 0.274612
    31 0.447953 -2.798986 -0.200443 -1.223404 -0.150987 0.357291
    32 -0.032909 -1.499736 0.036191 -1.682550 0.022555 -0.034717
    33 -0.027022 -1.127703 -0.020210 -1.224256 0.024233 -0.022076
    34 -0.249534 -2.846964 -0.174213 -0.919524 -0.167550 0.229534
    35 0.043235 -1.656596 0.053042 -1.990981 -0.025053 0.018229
    36 0.031729 -1.141298 0.054932 -1.091808 -0.012110 0.006059
    37 -0.963866 -2.785145 -0.085350 -0.709627 -0.020214 0.038322
    38 0.028479 -1.418692 -0.028886 -1.498275 -0.048777 -0.038411
    39 0.021413 -0.942156 0.008327 -1.125372 -0.032155 -0.036205
    40 1.164475 -2.543940 -0.170330 -1.400985 -0.293602 0.576548
    41 0.024032 -1.148574 -0.009538 -1.327987 0.025096 0.063759
    42 0.014898 -0.899614 -0.015942 -0.966253 0.007562 0.048610
    43 -0.586770 -1.264477 0.200161 -0.213368 -0.653007 -2.515594
    44 1.565805 0.035243 0.016848 -0.017693 -0.006691 0.852145
    45 1.114041 0.044518 -0.005766 -0.027915 -0.034498 1.008552
    46 -0.139399 -0.111698 0.014397 0.286241 -0.054300 1.367747
    47 -1.295811 8.889960 -0.204276 1.570809 -0.000001 -1.570790
  time 25
    0 4.605281 -12.542085 -5.168292 0.014287 0.000281 0.003382
    1 0.000126 5.380603 2.085688 -1.570793 0.000000 3.141592
    2 -0.000003 8.744292 -22.250452 0.000000 0.000000 0.000000
    3 -0.000003 8.744292 -22.250454 0.000000 0.000000 0.000000
    4 -0.000002 8.744292 -22.250454 0.000000 0.000000 0.000000
    5 -0.003704 -0.088851 0.612631 1.570801 1.570796 0.000000
    6 -0.009867 6.068303 0.294611 0.000000 1.570796 0.000000
    7 0.000027 3.816548 1.626610 -1.570793 0.000001 3.141592
    8 -0.003843 0.913138 2.654824 -1.570793 -3.141592 1.570796
    9 1.286349 -0.821603 -3.140102 0.000000 0.000000 0.000000
    10 7.145975 1.122457 -3.460025 6.239347 -2.064072 -0.258158
    11 3.436934 9.399323 -0.282623 1.545826 -3.132864 1.310288
    12 0.010113 -8.498736 -0.068977 0.143769 0.669417 0.153282
    13 -0.488518 -2.755602 -0.228260 -0.244746 -0.005464 -0.145879
    14 0.039887 -1.546198 0.025948 -1.950276 -0.005165 0.043253
    15 0.028786 -1.173390 -0.128581 -1.116701 -0.015172 0.024089
    16 0.250027 -2.820665 -0.238396 -0.156638 -0.100116 -0.057748
    17 -0.049759 -1.594604 0.022352 -1.692623 -0.002732 -0.044381
    18 -0.034142 -1.179563 0.045718 -1.331115 0.004566 -0.035115
    19 0.957766 -2.746780 -0.090302 0.165424 -0.223746 0.095945
    20 -0.033420 -1.397129 -0.015163 -0.228969 0.005477 -0.010943
    21 -0.022360 -0.957436 0.010971 -0.324495 0.006532 -0.015161
    22 -1.180681 -2.507217 -0.193859 -0.078589 0.198780 -0.051661
    23 -0.024967 -1.127840 0.017597 -1.331203 -0.004099 -0.055560
    24 -0.020057 -0.902687 0.049154 -1.514903 -0.007634 -0.060187
    25 0.606948 -1.197277 0.185379 0.455111 -0.925238 -0.684422
    26 1.426549 -0.267106 0.087043 0.093188 -0.260641 -1.002715
    27 1.053895 -0.140009 0.028385 0.033433 -0.179999 -0.730264
    28 0.120153 -0.050270 -0.054489 0.287569 3.110905 1.561085
    29 -2.973976 -7.750868 -7.063999 0.847087 -4.115661 1.372861
    30 0.085225 -8.403542 -0.013271 -0.085192 -0.311440 0.271979
    31 0.447953 -2.798986 -0.200443 -1.223404 -0.150987 0.357291
    32 -0.032909 -1.499736 0.036191 -1.682550 0.022555 -0.034717
    33 -0.027022 -1.127703 -0.020210 -1.224256 0.024233 -0.022076
    34 -0.249534 -2.846964 -0.174213 -0.919524 -0.167550 0.229534
    35 0.043235 -1.656596 0.053042 -1.990981 -0.025053 0.018229
    36 0.031729 -1.141298 0.054932 -1.091808 -0.012110 0.006059
    37 -0.963866 -2.785145 -0.085350 -0.709627 -0.020214 0.038322
    38 0.028479 -1.418692 -0.028886 -1.498275 -0.048777 -0.038411
    39 0.021413 -0.942156 0.008327 -1.125372 -0.032155 -0.036205
    40 1.164475 -2.543940 -0.170330 -1.400985 -0.293602 0.576548
    41 0.024032 -1.148574 -0.009538 -1.327987 0.025096 0.063759
    42 0.014898 -0.899614 -0.015942 -0.966253 0.007562 0.048610
    43 -0.586770 -1.264477 0.200161 -0.213368 -0.653007 -2.515594
    44 1.565805 0.035243 0.016848 -0.017693 -0.006691 0.852145
    45 1.114041 0.044518 -0.005766 -0.027915 -0.034498 1.008552
    46 -0.139399 -0.111698 0.014397 0.286241 -0.054300 1.367747
    47 -1.295811 8.889960 -0.204276 1.570809 -0.000001 -1.570790
  time 26
    0 4.613093 -12.530366 -5.160479 0.009618 0.000187 0.002447
    1 0.000126 5.380603 2.085688 -1.570793 0.000000 3.141592
    2 -0.000003 8.744292 -22.250452 0.000000 0.000000 0.000000
    3 -0.000003 8.744292 -22.250454 0.000000 0.000000 0.000000
    4 -0.000002 8.744292 -22.250454 0.000000 0.000000 0.000000
    5 -0.003704 -0.088851 0.612631 1.570801 1.570796 0.000000
    6 -0.009867 6.068303 0.294611 0.000000 1.570796 0.000000
    7 0.000027 3.816548 1.626610 -1.570793 0.000001 3.141592
    8 -0.003843 0.913138 2.654824 -1.570793 -3.141592 1.570796
    9 1.286349 -0.821603 -3.140102 0.000000 0.000000 0.000000
    10 7.145975 1.130270 -3.460025 6.236568 -2.063562 -0.254237
    11 3.433028 9.399323 -0.282623 1.545826 -3.132864 1.310667
    12 0.010113 -8.498736 -0.068977 0.144117 0.667271 0.159674
    13 -0.488518 -2.755602 -0.228260 -0.244746 -0.005464 -0.145879
    14 0.039887 -1.546198 0.025948 -1.950276 -0.005165 0.043253
    15 0.028786 -1.173390 -0.128581 -1.116701 -0.015172 0.024089
    16 0.250027 -2.820665 -0.238396 -0.156638 -0.100116 -0.057748
    17 -0.049759 -1.594604 0.022352 -1.692623 -0.002732 -0.044381
    18 -0.034142 -1.179563 0.045718 -1.331115 0.004566 -0.035115
    19 0.957766 -2.746780 -0.090302 0.165424 -0.223746 0.095945
    20 -0.033420 -1.397129 -0.015163 -0.234362 0.005561 -0.011207
    21 -0.022360 -0.957436 0.010971 -0.326001 0.006556 -0.015232
    22 -1.180681 -2.507217 -0.193859 -0.078589 0.198780 -0.051661
    23 -0.024967 -1.127840 0.017597 -1.331203 -0.004099 -0.055560
    24 -0.020057 -0.902687 0.049154 -1.514903 -0.007634 -0.060187
    25 0.606948 -1.197277 0.185379 0.455111 -0.925238 -0.684422
    26 1.426549 -0.267106 0.087043 0.093188 -0.260641 -1.002715
    27 1.053895 -0.140009 0.028385 0.033433 -0.179999 -0.730264
    28 0.120153 -0.050270 -0.054489 0.287569 3.110905 1.561085
    29 -2.970070 -7.754774 -7.060092 0.849371 -4.114073 1.375624
    30 0.085225 -8.403542 -0.013271 -0.083005 -0.309014 0.269873
    31 0.447953 -2.798986 -0.200443 -1.223404 -0.150987 0.357291
    32 -0.032909 -1.499736 0.036191 -1.682550 0.022555 -0.034717
    33 -0.027022 -1.127703 -0.020210 -1.224256 0.024233 -0.022076
    34 -0.249534 -2.846964 -0.174213 -0.919524 -0.167550 0.229534
    35 0.043235 -1.656596 0.053042 -1.990981 -0.025053 0.018229
    36 0.031729 -1.141298 0.054932 -1.091808 -0.012110 0.006059
    37 -0.963866 -2.785145 -0.085350 -0.709627 -0.020214 0.038322
    38 0.028479 -1.418692 -0.028886 -1.498275 -0.048777 -0.038411
    39 0.021413 -0.942156 0.008327 -1.125372 -0.032155 -0.036205
    40 1.164475 -2.543940 -0.170330 -1.400985 -0.293602 0.576548
    41 0.024032 -1.148574 -0.009538 -1.327987 0.025096 0.063759
    42 0.014898 -0.899614 -0.015942 -0.966253 0.007562 0.048610
    43 -0.586770 -1.264477 0.200161 -0.213368 -0.653007 -2.515594
    44 1.565805 0.035243 0.016848 -0.017693 -0.006691 0.852145
    45 1.114041 0.044518 -0.005766 -0.027915 -0.034498 1.008552
    46 -0.139399 -0.111698 0.014397 0.286241 -0.054300 1.367747
    47 -1.295811 8.889960 -0.204276 1.570809 -0.000001 -1.570790
  time 27
    0 4.617000 -12.514740 -5.152666 0.005645 0.000094 0.001513
    1 0.000126 5.380603 2.085688 -1.570793 0.000000 3.141592
    2 -0.000003 8.744292 -22.250452 0.000000 0.000000 0.000000
    3 -0.000003 8.744292 -22.250454 0.000000 0.000000 0.000000
    4 -0.000002 8.744292 -22.250454 0.000000 0.000000 0.000000
    5 -0.003704 -0.088851 0.612631 1.570801 1.570796 0.000000
    6 -0.009867 6.068303 0.294611 0.000000 1.570796 0.000000
    7 0.000027 3.816548 1.626610 -1.570793 0.000001 3.141592
    8 -0.003843 0.913138 2.654824 -1.570793 -3.141592 1.570796
    9 1.286349 -0.821603 -3.140102 0.000000 0.000000 0.000000
    10 7.145975 1.141989 -3.463931 6.233788 -2.063052 -0.250413
    11 3.436934 9.399323 -0.282623 1.545826 -3.132864 1.310383
    12 0.010113 -8.498736 -0.068977 0.144248 0.665382 0.165267
    13 -0.488518 -2.755602 -0.228260 -0.244746 -0.005464 -0.145879
    14 0.039887 -1.546198 0.025948 -1.950276 -0.005165 0.043253
    15 0.028786 -1.173390 -0.128581 -1.116701 -0.015172 0.024089
    16 0.250027 -2.820665 -0.238396 -0.156638 -0.100116 -0.057748
    17 -0.049759 -1.594604 0.022352 -1.692623 -0.002732 -0.044381
    18 -0.034142 -1.179563 0.045718 -1.331115 0.004566 -0.035115
    19 0.957766 -2.746780 -0.090302 0.165424 -0.223746 0.095945
    20 -0.033420 -1.397129 -0.015163 -0.239574 0.005657 -0.011446
    21 -0.022360 -0.957436 0.010971 -0.327466 0.006568 -0.015304
    22 -1.180681 -2.507217 -0.193859 -0.078589 0.198780 -0.051661
    23 -0.024967 -1.127840 0.017597 -1.331203 -0.004099 -0.055560
    24 -0.020057 -0.902687 0.049154 -1.514903 -0.007634 -0.060187
    25 0.606948 -1.197277 0.185379 0.455111 -0.925238 -0.684422
    26 1.426549 -0.267106 0.087043 0.093188 -0.260641 -1.002715
    27 1.053895 -0.140009 0.028385 0.033433 -0.179999 -0.730264
    28 0.120153 -0.050270 -0.054489 0.287569 3.110905 1.561085
    29 -2.966164 -7.750868 -7.060092 0.851448 -4.112624 1.378387
    30 0.085225 -8.403542 -0.013271 -0.080856 -0.306898 0.268322
    31 0.447953 -2.798986 -0.200443 -1.223404 -0.150987 0.357291
    32 -0.032909 -1.499736 0.036191 -1.682550 0.022555 -0.034717
    33 -0.027022 -1.127703 -0.020210 -1.224256 0.024233 -0.022076
    34 -0.249534 -2.846964 -0.174213 -0.919524 -0.167550 0.229534
    35 0.043235 -1.656596 0.053042 -1.990981 -0.025053 0.018229
    36 0.031729 -1.141298 0.054932 -1.091808 -0.012110 0.006059
    37 -0.963866 -2.785145 -0.085350 -0.709627 -0.020214 0.038322
    38 0.028479 -1.418692 -0.028886 -1.498275 -0.048777 -0.038411
    39 0.021413 -0.942156 0.008327 -1.125372 -0.032155 -0.036205
    40 1.164475 -2.543940 -0.170330 -1.400985 -0.293602 0.576548
    41 0.024032 -1.148574 -0.009538 -1.327987 0.025096 0.063759
    42 0.014898 -0.899614 -0.015942 -0.966253 0.007562 0.048610
    43 -0.586770 -1.264477 0.200161 -0.213368 -0.653007 -2.515594
    44 1.565805 0.035243 0.016848 -0.017693 -0.006691 0.852145
    45 1.114041 0.044518 -0.005766 -0.027915 -0.034498 1.008552
    46 -0.139399 -0.111698 0.014397 0.286241 -0.054300 1.367747
    47 -1.295811 8.889960 -0.204276 1.570809 -0.000001 -1.570790
  time 28
    0 4.624813 -12.499115 -5.148760 0.002613 0.000031 0.000725
    1 0.000126 5.380603 2.085688 -1.570793 0.000000 3.141592
    2 -0.000003 8.744292 -22.250452 0.000000 0.000000 0.000000
    3 -0.000003 8.744292 -22.250454 0.000000 0.000000 0.000000
    4 -0.000002 8.744292 -22.250454 0.000000 0.000000 0.000000
    5 -0.003704 -0.088851 0.612631 1.570801 1.570796 0.000000
    6 -0.009867 6.068303 0.294611 0.000000 1.570796 0.000000
    7 0.000027 3.816548 1.626610 -1.570793 0.000001 3.141592
    8 -0.003843 0.913138 2.654824 -1.570793 -3.141592 1.570796
    9 1.286349 -0.821603 -3.140102 0.000000 0.000000 0.000000
    10 7.149881 1.153708 -3.463931 6.231392 -2.062615 -0.247257
    11 3.440840 9.395416 -0.282623 1.545826 -3.132864 1.309814
    12 0.010113 -8.498736 -0.068977 0.144291 0.663877 0.169661
    13 -0.488518 -2.755602 -0.228260 -0.244746 -0.005464 -0.145879
    14 0.039887 -1.546198 0.025948 -1.950276 -0.005165 0.043253
    15 0.028786 -1.173390 -0.128581 -1.116701 -0.015172 0.024089
    16 0.250027 -2.820665 -0.238396 -0.156638 -0.100116 -0.057748
    17 -0.049759 -1.594604 0.022352 -1.692623 -0.002732 -0.044381
    18 -0.034142 -1.179563 0.045718 -1.331115 0.004566 -0.035115
    19 0.957766 -2.746780 -0.090302 0.165424 -0.223746 0.095945
    20 -0.033420 -1.397129 -0.015163 -0.244014 0.005729 -0.011662
    21 -0.022360 -0.957436 0.010971 -0.328710 0.006592 -0.015364
    22 -1.180681 -2.507217 -0.193859 -0.078589 0.198780 -0.051661
    23 -0.024967 -1.127840 0.017597 -1.331203 -0.004099 -0.055560
    24 -0.020057 -0.902687 0.049154 -1.514903 -0.007634 -0.060187
    25 0.606948 -1.197277 0.185379 0.455111 -0.925238 -0.684422
    26 1.426549 -0.267106 0.087043 0.093188 -0.260641 -1.002715
    27 1.053895 -0.140009 0.028385 0.033433 -0.179999 -0.730264
    28 0.120153 -0.050270 -0.054489 0.287569 3.110905 1.561085
    29 -2.966164 -7.746962 -7.060092 0.853179 -4.111381 1.380770
    30 0.085225 -8.403542 -0.013271 -0.078995 -0.305202 0.267269
    31 0.447953 -2.798986 -0.200443 -1.223404 -0.150987 0.357291
    32 -0.032909 -1.499736 0.036191 -1.682550 0.022555 -0.034717
    33 -0.027022 -1.127703 -0.020210 -1.224256 0.024233 -0.022076
    34 -0.249534 -2.846964 -0.174213 -0.919524 -0.167550 0.229534
    35 0.043235 -1.656596 0.053042 -1.990981 -0.025053 0.018229
    36 0.031729 -1.141298 0.054932 -1.091808 -0.012110 0.006059
    37 -0.963866 -2.785145 -0.085350 -0.709627 -0.020214 0.038322
    38 0.028479 -1.418692 -0.028886 -1.498275 -0.048777 -0.038411
    39 0.021413 -0.942156 0.008327 -1.125372 -0.032155 -0.036205
    40 1.164475 -2.543940 -0.170330 -1.400985 -0.293602 0.576548
    41 0.024032 -1.148574 -0.009538 -1.327987 0.025096 0.063759
    42 0.014898 -0.899614 -0.015942 -0.966253 0.007562 0.048610
    43 -0.586770 -1.264477 0.200161 -0.213368 -0.653007 -2.515594
    44 1.565805 0.035243 0.016848 -0.017693 -0.006691 0.852145
    45 1.114041 0.044518 -0.005766 -0.027915 -0.034498 1.008552
    46 -0.139399 -0.111698 0.014397 0.286241 -0.054300 1.367747
    47 -1.295811 8.889960 -0.204276 1.570809 -0.000001 -1.570790
  time 29
    0 4.628719 -12.487396 -5.148760 0.000662 0.000000 0.000184
    1 0.000126 5.380603 2.085688 -1.570793 0.000000 3.141592
    2 -0.000003 8.744292 -22.250452 0.000000 0.000000 0.000000
    3 -0.000003 8.744292 -22.250454 0.000000 0.000000 0.000000
    4 -0.000002 8.744292 -22.250454 0.000000 0.000000 0.000000
    5 -0.003704 -0.088851 0.612631 1.570801 1.570796 0.000000
    6 -0.009867 6.068303 0.294611 0.000000 1.570796 0.000000
    7 0.000027 3.816548 1.626610 -1.570793 0.000001 3.141592
    8 -0.003843 0.913138 2.654824 -1.570793 -3.141592 1.570796
    9 1.286349 -0.821603 -3.140102 0.000000 0.000000 0.000000
    10 7.149881 1.161521 -3.463931 6.229666 -2.062324 -0.245058
    11 3.444747 9.395416 -0.282623 1.545826 -3.132864 1.309340
    12 0.010113 -8.498736 -0.068977 0.144248 0.662916 0.172578
    13 -0.488518 -2.755602 -0.228260 -0.244746 -0.005464 -0.145879
    14 0.039887 -1.546198 0.025948 -1.950276 -0.005165 0.043253
    15 0.028786 -1.173390 -0.128581 -1.116701 -0.015172 0.024089
    16 0.250027 -2.820665 -0.238396 -0.156638 -0.100116 -0.057748
    17 -0.049759 -1.594604 0.022352 -1.692623 -0.002732 -0.044381
    18 -0.034142 -1.179563 0.045718 -1.331115 0.004566 -0.035115
    19 0.957766 -2.746780 -0.090302 0.165424 -0.223746 0.095945
    20 -0.033420 -1.397129 -0.015163 -0.247096 0.005777 -0.011806
    21 -0.022360 -0.957436 0.010971 -0.329566 0.006604 -0.015412
    22 -1.180681 -2.507217 -0.193859 -0.078589 0.198780 -0.051661
    23 -0.024967 -1.127840 0.017597 -1.331203 -0.004099 -0.055560
    24 -0.020057 -0.902687 0.049154 -1.514903 -0.007634 -0.060187
    25 0.606948 -1.197277 0.185379 0.455111 -0.925238 -0.684422
    26 1.426549 -0.267106 0.087043 0.093188 -0.260641 -1.002715
    27 1.053895 -0.140009 0.028385 0.033433 -0.179999 -0.730264
    28 0.120153 -0.050270 -0.054489 0.287569 3.110905 1.561085
    29 -2.966164 -7.746962 -7.063999 0.854355 -4.110553 1.382389
    30 0.085225 -8.403542 -0.013271 -0.077671 -0.304071 0.266684
    31 0.447953 -2.798986 -0.200443 -1.223404 -0.150987 0.357291
    32 -0.032909 -1.499736 0.036191 -1.682550 0.022555 -0.034717
    33 -0.027022 -1.127703 -0.020210 -1.224256 0.024233 -0.022076
    34 -0.249534 -2.846964 -0.174213 -0.919524 -0.167550 0.229534
    35 0.043235 -1.656596 0.053042 -1.990981 -0.025053 0.018229
    36 0.031729 -1.141298 0.054932 -1.091808 -0.012110 0.006059
    37 -0.963866 -2.785145 -0.085350 -0.709627 -0.020214 0.038322
    38 0.028479 -1.418692 -0.028886 -1.498275 -0.048777 -0.038411
    39 0.021413 -0.942156 0.008327 -1.125372 -0.032155 -0.036205
    40 1.164475 -2.543940 -0.170330 -1.400985 -0.293602 0.576548
    41 0.024032 -1.148574 -0.009538 -1.327987 0.025096 0.063759
    42 0.014898 -0.899614 -0.015942 -0.966253 0.007562 0.048610
    43 -0.586770 -1.264477 0.200161 -0.213368 -0.653007 -2.515594
    44 1.565805 0.035243 0.016848 -0.017693 -0.006691 0.852145
    45 1.114041 0.044518 -0.005766 -0.027915 -0.034498 1.008552
    46 -0.139399 -0.111698 0.014397 0.286241 -0.054300 1.367747
    47 -1.295811 8.889960 -0.204276 1.570809 -0.000001 -1.570790
  time 30
    0 4.628719 -12.483489 -5.148760 0.000000 0.000000 -0.000013
    1 0.000126 5.380603 2.085688 -1.570793 0.000000 3.141592
    2 -0.000003 8.744292 -22.250452 0.000000 0.000000 0.000000
    3 -0.000003 8.744292 -22.250454 0.000000 0.000000 0.000000
    4 -0.000002 8.744292 -22.250454 0.000000 0.000000 0.000000
    5 -0.003704 -0.088851 0.612631 1.570801 1.570796 0.000000
    6 -0.009867 6.068303 0.294611 0.000000 1.570796 0.000000
    7 0.000027 3.816548 1.626610 -1.570793 0.000001 3.141592
    8 -0.003843 0.913138 2.654824 -1.570793 -3.141592 1.570796
    9 1.286349 -0.821603 -3.140102 0.000000 0.000000 0.000000
    10 7.149881 1.165427 -3.463931 6.229091 -2.062251 -0.244197
    11 3.448653 9.395416 -0.282623 1.545826 -3.132864 1.309055
    12 0.010113 -8.498736 -0.068977 0.144204 0.662564 0.173616
    13 -0.488518 -2.755602 -0.228260 -0.244746 -0.005464 -0.145879
    14 0.039887 -1.546198 0.025948 -1.950276 -0.005165 0.043253
    15 0.028786 -1.173390 -0.128581 -1.116701 -0.015172 0.024089
    16 0.250027 -2.820665 -0.238396 -0.156638 -0.100116 -0.057748
    17 -0.049759 -1.594604 0.022352 -1.692623 -0.002732 -0.044381
    18 -0.034142 -1.179563 0.045718 -1.331115 0.004566 -0.035115
    19 0.957766 -2.746780 -0.090302 0.165424 -0.223746 0.095945
    20 -0.033420 -1.397129 -0.015163 -0.248252 0.005789 -0.011866
    21 -0.022360 -0.957436 0.010971 -0.329898 0.006604 -0.015424
    22 -1.180681 -2.507217 -0.193859 -0.078589 0.198780 -0.051661
    23 -0.024967 -1.127840 0.017597 -1.331203 -0.004099 -0.055560
    24 -0.020057 -0.902687 0.049154 -1.514903 -0.007634 -0.060187
    25 0.606948 -1.197277 0.185379 0.455111 -0.925238 -0.684422
    26 1.426549 -0.267106 0.087043 0.093188 -0.260641 -1.002715
    27 1.053895 -0.140009 0.028385 0.033433 -0.179999 -0.730264
    28 0.120153 -0.050270 -0.054489 0.287569 3.110905 1.561085
    29 -2.966164 -7.743055 -7.063999 0.854771 -4.110277 1.383056
    30 0.085225 -8.403542 -0.013271 -0.077172 -0.303670 0.266479
    31 0.447953 -2.798986 -0.200443 -1.223404 -0.150987 0.357291
    32 -0.032909 -1.499736 0.036191 -1.682550 0.022555 -0.034717
    33 -0.027022 -1.127703 -0.020210 -1.224256 0.024233 -0.022076
    34 -0.249534 -2.846964 -0.174213 -0.919524 -0.167550 0.229534
    35 0.043235 -1.656596 0.053042 -1.990981 -0.025053 0.018229
    36 0.031729 -1.141298 0.054932 -1.091808 -0.012110 0.006059
    37 -0.963866 -2.785145 -0.085350 -0.709627 -0.020214 0.038322
    38 0.028479 -1.418692 -0.028886 -1.498275 -0.048777 -0.038411
    39 0.021413 -0.942156 0.008327 -1.125372 -0.032155 -0.036205
    40 1.164475 -2.543940 -0.170330 -1.400985 -0.293602 0.576548
    41 0.024032 -1.148574 -0.009538 -1.327987 0.025096 0.063759
    42 0.014898 -0.899614 -0.015942 -0.966253 0.007562 0.048610
    43 -0.586770 -1.264477 0.200161 -0.213368 -0.653007 -2.515594
    44 1.565805 0.035243 0.016848 -0.017693 -0.006691 0.852145
    45 1.114041 0.044518 -0.005766 -0.027915 -0.034498 1.008552
    46 -0.139399 -0.111698 0.014397 0.286241 -0.054300 1.367747
    47 -1.295811 8.889960 -0.204276 1.570809 -0.000001 -1.570790
end
