// Created by Crowbar 0.49.0.0

$modelname "w_m249camo.mdl"
$cd "."
$cdtexture "."
$cliptotextures
$scale 1.0

$bodygroup "studio"
{
	studio "w_m249camo"
}

$flags 0

$texturegroup "skinfamilies"
{
	{ "#256256m249camo_p.BMP" }
}


$cbox 0 0 0 0 0 0

$bbox 0 0 0 0 0 0

$hbox 0 "CSO_PW_m249RED" -2.21 -17.389999 -6.43 2.35 26.98 7.02

$sequence "idle" {
	"w_m249camo_anims\idle"
	fps 30
}
