version 1
nodes
  0 "root" -1
  1 "Bone01" 0
  2 "Bone_Lefthand" 1
  3 "uts15_root" 2
  4 "trigger" 3
  5 "reload" 3
  6 "magazine3" 3
  7 "bone_bullet1" 3
  8 "bone_bullet2" 3
  9 "bone_bullet3" 3
  10 "magazine1" 3
  11 "magazine2" 3
  12 "Bone_L_Upper" 1
  13 "Bone13" 2
  14 "Bone14" 13
  15 "Bone15" 14
  16 "Bone17" 2
  17 "Bone18" 16
  18 "Bone19" 17
  19 "Bone21" 2
  20 "Bone22" 19
  21 "Bone23" 20
  22 "Bone09" 2
  23 "Bone10" 22
  24 "Bone11" 23
  25 "Bone05" 2
  26 "Bone06" 25
  27 "Bone07" 26
  28 "Bone_Se_Hand-L" 2
  29 "Bone04" 0
  30 "Bone_Righthand" 29
  31 "Bone39" 30
  32 "Bone40" 31
  33 "Bone41" 32
  34 "Bone35" 30
  35 "Bone36" 34
  36 "Bone37" 35
  37 "Bone31" 30
  38 "Bone32" 37
  39 "Bone33" 38
  40 "Bone43" 30
  41 "Bone44" 40
  42 "Bone45" 41
  43 "Bone27" 30
  44 "Bone28" 43
  45 "Bone29" 44
  46 "Bone_Se_Hand-R" 30
  47 "Bone_R_Upper" 29
end
skeleton
  time 0
    0 -1.058626 0.000000 -3.546983 0.174514 -0.523583 -0.000031
    1 9.997994 -13.768406 -13.738864 4.376567 -0.551639 0.523563
    2 -0.071918 -8.498688 -0.104136 0.233266 0.229959 0.027314
    3 1.519834 -2.041238 1.521770 0.112947 0.226772 3.118949
    4 0.600319 2.058404 0.000000 0.000000 0.000000 0.000000
    5 -0.067739 10.600758 -0.000006 1.570788 0.000000 1.570797
    6 -0.754633 -3.610986 0.631774 0.000000 0.000001 1.570796
    7 -2.477267 2.509647 0.574230 2.530658 0.000001 1.570795
    8 10.766395 -14.303051 5.074368 0.143276 0.448817 1.854709
    9 18.638801 -18.096136 -0.000006 0.000000 0.000001 1.570796
    10 -2.170493 -0.230590 1.064516 2.530650 0.000001 1.570796
    11 -2.377869 2.285718 -0.000004 0.000000 0.000001 1.570796
    12 1.257180 8.762585 -0.153713 -1.570562 0.002683 -1.566807
    13 -0.488518 -2.755602 -0.228260 -1.085960 -0.191560 -0.439285
    14 0.039887 -1.479790 0.029854 -0.928033 0.000000 0.000001
    15 0.028786 -1.075731 -0.023109 -1.481385 0.000000 0.000000
    16 0.250027 -2.820665 -0.238396 -0.892857 -0.160399 -0.409460
    17 -0.049759 -1.680544 0.100479 -1.289132 0.000000 -0.000002
    18 -0.034142 -1.148312 0.084782 -1.087281 0.000000 0.000000
    19 0.957766 -2.746780 -0.090302 -0.417462 -0.375878 -0.028335
    20 -0.033420 -1.397129 -0.011257 -0.691853 0.124808 -0.122316
    21 -0.022360 -0.957436 0.018784 -0.519750 0.000000 0.000000
    22 -1.180681 -2.507217 -0.193859 -0.873937 -0.068285 -0.359963
    23 -0.024967 -1.123934 0.017597 -1.152494 0.000000 0.000001
    24 -0.020057 -0.890968 0.010090 -0.933434 0.000000 0.000000
    25 0.583510 -1.197277 0.185379 0.631272 -1.323162 -0.918176
    26 1.535927 0.010246 0.005009 0.412032 -0.211024 -1.135295
    27 1.100771 0.004527 -0.010679 -0.011449 0.011491 -0.607431
    28 0.120153 -0.050270 -0.054489 0.287569 3.110905 1.561085
    29 0.580820 -4.930469 -18.990144 -1.289712 -6.172363 -2.827481
    30 0.096944 -8.450418 -0.009365 -0.022538 -0.179389 -0.231245
    31 0.447953 -2.798986 -0.200443 -0.512062 -0.140872 -0.040897
    32 -0.032909 -1.480204 0.004940 -1.849951 0.000000 0.000002
    33 -0.027022 -1.076920 -0.020210 -1.481391 0.000000 0.000000
    34 -0.249534 -2.846964 -0.174213 -0.488488 -0.135815 -0.084786
    35 0.043235 -1.683941 0.096012 -1.207985 0.002823 -0.000167
    36 0.031729 -1.160830 0.058838 -1.436444 0.000642 0.008372
    37 -0.963866 -2.785145 -0.085350 -0.346960 -0.035925 -0.239075
    38 0.028479 -1.403067 0.006271 -0.285447 0.000000 0.000000
    39 0.021413 -0.957781 0.020046 -0.344215 0.000000 0.000000
    40 1.164475 -2.543940 -0.170330 -0.520045 -0.306425 0.042666
    41 0.024032 -1.129042 0.017807 -1.289832 0.000000 0.000001
    42 0.014898 -0.883989 -0.019848 -1.052873 0.000000 0.000000
    43 -0.586770 -1.264477 0.200161 -0.223604 -0.377828 -2.629091
    44 1.522835 0.058681 0.016848 -0.048470 0.126626 0.551388
    45 1.117947 0.048424 -0.005766 -0.004605 -0.024779 0.239992
    46 -0.139399 -0.111698 0.014397 0.285382 -0.030687 1.580508
    47 -1.393470 8.839177 -0.239433 1.580804 -0.005023 -1.566847
  time 1
    0 -1.160192 0.000000 -3.308695 0.162708 -0.500333 0.007437
    1 9.869084 -13.303548 -13.805273 4.368532 -0.577049 0.536240
    2 -0.071918 -8.498688 -0.104136 0.230076 0.232200 0.015138
    3 1.519834 -2.041238 1.521770 0.112947 0.226772 3.118949
    4 0.600319 2.058404 0.000000 0.000000 0.000000 0.000000
    5 -0.067739 10.600758 -0.000006 1.570788 0.000000 1.570797
    6 -0.754633 -3.610986 0.631774 0.000000 0.000001 1.570796
    7 15.867043 -21.381707 9.203400 -0.623676 3.141496 -1.570796
    8 11.153125 -14.510089 4.797015 0.135402 0.424142 1.839099
    9 18.638801 -18.096136 -0.000006 0.000000 0.000001 1.570796
    10 -2.170493 -0.230590 1.064516 2.135289 0.000001 1.570796
    11 -2.377869 1.902893 -0.000004 0.000000 0.000001 1.570796
    12 1.257180 8.762585 -0.153713 -1.570562 0.002683 -1.566807
    13 -0.488518 -2.755602 -0.228260 -1.085960 -0.191560 -0.439285
    14 0.039887 -1.479790 0.029854 -0.928033 0.000000 0.000001
    15 0.028786 -1.075731 -0.023109 -1.481385 0.000000 0.000000
    16 0.250027 -2.820665 -0.238396 -0.892857 -0.160399 -0.409460
    17 -0.049759 -1.680544 0.100479 -1.289132 0.000000 -0.000002
    18 -0.034142 -1.148312 0.084782 -1.087281 0.000000 0.000000
    19 0.957766 -2.746780 -0.090302 -0.417462 -0.375878 -0.028335
    20 -0.033420 -1.397129 -0.011257 -0.691853 0.124808 -0.122316
    21 -0.022360 -0.957436 0.018784 -0.519750 0.000000 0.000000
    22 -1.180681 -2.507217 -0.193859 -0.873937 -0.068285 -0.359963
    23 -0.024967 -1.123934 0.017597 -1.152494 0.000000 0.000001
    24 -0.020057 -0.890968 0.010090 -0.933434 0.000000 0.000000
    25 0.583510 -1.197277 0.185379 0.631272 -1.323162 -0.918176
    26 1.535927 0.010246 0.005009 0.412032 -0.211024 -1.135295
    27 1.100771 0.004527 -0.010679 -0.011449 0.011491 -0.607431
    28 0.120153 -0.050270 -0.054489 0.287569 3.110905 1.561085
    29 -1.009073 -5.950032 -18.224496 1.551007 -3.539981 0.194089
    30 0.096944 -8.450418 -0.009365 -0.022730 -0.179345 -0.230193
    31 0.447953 -2.798986 -0.200443 -0.393561 -0.140093 -0.041256
    32 -0.032909 -1.480204 0.004940 -1.844694 0.000000 0.000002
    33 -0.027022 -1.076920 -0.020210 -1.481391 0.000000 0.000000
    34 -0.249534 -2.846964 -0.174213 -0.322220 -0.135815 -0.084786
    35 0.043235 -1.683941 0.096012 -1.197156 0.002823 -0.000167
    36 0.031729 -1.160830 0.058838 -1.436444 0.000642 0.008372
    37 -0.963866 -2.785145 -0.085350 -0.194862 -0.035925 -0.239075
    38 0.028479 -1.403067 0.006271 -0.286341 0.000000 0.000000
    39 0.021413 -0.957781 0.020046 -0.339298 0.000000 0.000000
    40 1.164475 -2.543940 -0.170330 -0.368555 -0.306425 0.042666
    41 0.024032 -1.129042 0.017807 -1.251284 0.000000 0.000001
    42 0.014898 -0.883989 -0.019848 -1.052873 0.000000 0.000000
    43 -0.586770 -1.264477 0.200161 -0.223604 -0.377828 -2.629091
    44 1.522835 0.058681 0.016848 -0.048470 0.126626 0.551388
    45 1.117947 0.048424 -0.005766 -0.004605 -0.024779 0.239992
    46 -0.139399 -0.111698 0.014397 0.285382 -0.030687 1.580508
    47 -1.393470 8.839177 -0.239433 1.580804 -0.005023 -1.566847
  time 2
    0 -1.406293 0.000000 -2.742271 0.131567 -0.439019 0.027100
    1 9.560481 -12.662903 -13.863868 4.349496 -0.637543 0.566594
    2 -0.071918 -8.498688 -0.104136 0.221508 0.238216 -0.017508
    3 1.519834 -2.041238 1.521770 0.112947 0.226772 3.118949
    4 0.600319 2.058404 0.000000 0.000000 0.000000 0.000000
    5 -0.067739 10.600758 -0.000006 1.570788 0.000000 1.570797
    6 -0.754633 -3.610986 0.631774 0.000000 0.000001 1.570796
    7 15.929544 -21.362175 9.152617 -0.660588 3.141496 -1.570796
    8 11.551575 -14.724939 4.511850 0.127372 0.398976 1.823180
    9 18.638801 -18.096136 -0.000006 0.000000 0.000001 1.570796
    10 -2.170493 -0.230590 1.064516 1.265325 0.000001 1.570796
    11 -2.377869 1.055211 -0.000004 0.000000 0.000001 1.570796
    12 1.257180 8.762585 -0.153713 -1.570562 0.002683 -1.566807
    13 -0.488518 -2.755602 -0.228260 -1.085960 -0.191560 -0.439285
    14 0.039887 -1.479790 0.029854 -0.928033 0.000000 0.000001
    15 0.028786 -1.075731 -0.023109 -1.481385 0.000000 0.000000
    16 0.250027 -2.820665 -0.238396 -0.892857 -0.160399 -0.409460
    17 -0.049759 -1.680544 0.100479 -1.289132 0.000000 -0.000002
    18 -0.034142 -1.148312 0.084782 -1.087281 0.000000 0.000000
    19 0.957766 -2.746780 -0.090302 -0.417462 -0.375878 -0.028335
    20 -0.033420 -1.397129 -0.011257 -0.691853 0.124808 -0.122316
    21 -0.022360 -0.957436 0.018784 -0.519750 0.000000 0.000000
    22 -1.180681 -2.507217 -0.193859 -0.873937 -0.068285 -0.359963
    23 -0.024967 -1.123934 0.017597 -1.152494 0.000000 0.000001
    24 -0.020057 -0.890968 0.010090 -0.933434 0.000000 0.000000
    25 0.583510 -1.197277 0.185379 0.631272 -1.323162 -0.918176
    26 1.535927 0.010246 0.005009 0.412032 -0.211024 -1.135295
    27 1.100771 0.004527 -0.010679 -0.011449 0.011491 -0.607431
    28 0.120153 -0.050270 -0.054489 0.287569 3.110905 1.561085
    29 -2.720062 -7.297729 -16.404128 0.830789 -4.225870 -0.100120
    30 0.096944 -8.450418 -0.009365 -0.023269 -0.179228 -0.227079
    31 0.447953 -2.798986 -0.200443 -0.281152 -0.139326 -0.041604
    32 -0.032909 -1.480204 0.004940 -1.829359 0.000000 0.000002
    33 -0.027022 -1.076920 -0.020210 -1.481391 0.000000 0.000000
    34 -0.249534 -2.846964 -0.174213 -0.155953 -0.135815 -0.084786
    35 0.043235 -1.683941 0.096012 -1.166844 0.002823 -0.000167
    36 0.031729 -1.160830 0.058838 -1.436444 0.000642 0.008372
    37 -0.963866 -2.785145 -0.085350 0.002186 -0.035925 -0.239075
    38 0.028479 -1.403067 0.006271 -0.288880 0.000000 0.000000
    39 0.021413 -0.957781 0.020046 -0.325513 0.000000 0.000000
    40 1.164475 -2.543940 -0.170330 -0.218309 -0.306425 0.042666
    41 0.024032 -1.129042 0.017807 -1.211945 0.000000 0.000001
    42 0.014898 -0.883989 -0.019848 -1.052873 0.000000 0.000000
    43 -0.586770 -1.264477 0.200161 -0.223604 -0.377828 -2.629091
    44 1.522835 0.058681 0.016848 -0.048470 0.126626 0.551388
    45 1.117947 0.048424 -0.005766 -0.004605 -0.024779 0.239992
    46 -0.139399 -0.111698 0.014397 0.285382 -0.030687 1.580508
    47 -1.393470 8.839177 -0.239433 1.580804 -0.005023 -1.566847
  time 3
    0 -1.699271 0.000000 -2.066469 0.087535 -0.352323 0.054930
    1 9.193282 -12.014446 -13.949808 4.326729 -0.709798 0.602751
    2 -0.071918 -8.498688 -0.104136 0.209109 0.246929 -0.064788
    3 1.519834 -2.041238 1.521770 0.112947 0.226772 3.118949
    4 0.600319 2.058404 0.000000 0.000000 0.000000 0.000000
    5 -0.067739 10.600758 -0.000006 1.570788 0.000000 1.570797
    6 -0.754633 -3.610986 0.631774 0.000000 0.000001 1.570796
    7 15.999859 -21.311392 9.004175 -0.719552 3.141496 -1.570796
    8 11.953931 -14.939789 4.222779 0.119235 0.373503 1.807067
    9 18.638801 -18.096136 -0.000006 0.000000 0.000001 1.570796
    10 -2.170493 -0.230590 1.064516 0.395361 0.000001 1.570796
    11 -2.377869 0.207529 -0.000004 0.000000 0.000001 1.570796
    12 1.257180 8.762585 -0.153713 -1.570562 0.002683 -1.566807
    13 -0.488518 -2.755602 -0.228260 -1.085960 -0.191560 -0.439285
    14 0.039887 -1.479790 0.029854 -0.928033 0.000000 0.000001
    15 0.028786 -1.075731 -0.023109 -1.481385 0.000000 0.000000
    16 0.250027 -2.820665 -0.238396 -0.892857 -0.160399 -0.409460
    17 -0.049759 -1.680544 0.100479 -1.289132 0.000000 -0.000002
    18 -0.034142 -1.148312 0.084782 -1.087281 0.000000 0.000000
    19 0.957766 -2.746780 -0.090302 -0.417462 -0.375878 -0.028335
    20 -0.033420 -1.397129 -0.011257 -0.691853 0.124808 -0.122316
    21 -0.022360 -0.957436 0.018784 -0.519750 0.000000 0.000000
    22 -1.180681 -2.507217 -0.193859 -0.873937 -0.068285 -0.359963
    23 -0.024967 -1.123934 0.017597 -1.152494 0.000000 0.000001
    24 -0.020057 -0.890968 0.010090 -0.933434 0.000000 0.000000
    25 0.583510 -1.197277 0.185379 0.631272 -1.323162 -0.918176
    26 1.535927 0.010246 0.005009 0.412032 -0.211024 -1.135295
    27 1.100771 0.004527 -0.010679 -0.011449 0.011491 -0.607431
    28 0.120153 -0.050270 -0.054489 0.287569 3.110905 1.561085
    29 -4.278704 -8.653239 -14.232186 -0.035171 -5.044650 -0.470016
    30 0.096944 -8.450418 -0.009365 -0.024156 -0.179037 -0.222050
    31 0.447953 -2.798986 -0.200443 -0.186445 -0.138571 -0.041951
    32 -0.032909 -1.480204 0.004940 -1.804988 0.000000 0.000002
    33 -0.027022 -1.076920 -0.020210 -1.481391 0.000000 0.000000
    34 -0.249534 -2.846964 -0.174213 -0.010902 -0.135815 -0.084786
    35 0.043235 -1.683941 0.096012 -1.120270 0.002823 -0.000167
    36 0.031729 -1.160830 0.058838 -1.436444 0.000642 0.008372
    37 -0.963866 -2.785145 -0.085350 0.198949 -0.035925 -0.239075
    38 0.028479 -1.403067 0.006271 -0.292958 0.000000 0.000000
    39 0.021413 -0.957781 0.020046 -0.304353 0.000000 0.000000
    40 1.164475 -2.543940 -0.170330 -0.087922 -0.306425 0.042666
    41 0.024032 -1.129042 0.017807 -1.172113 0.000000 0.000001
    42 0.014898 -0.883989 -0.019848 -1.052873 0.000000 0.000000
    43 -0.586770 -1.264477 0.200161 -0.223604 -0.377828 -2.629091
    44 1.522835 0.058681 0.016848 -0.048470 0.126626 0.551388
    45 1.117947 0.048424 -0.005766 -0.004605 -0.024779 0.239992
    46 -0.139399 -0.111698 0.014397 0.285382 -0.030687 1.580508
    47 -1.393470 8.839177 -0.239433 1.580804 -0.005023 -1.566847
  time 4
    0 -1.945372 0.000000 -1.500046 0.037059 -0.252947 0.086789
    1 8.884679 -11.506618 -14.109969 4.307694 -0.770325 0.633016
    2 -0.071918 -8.498688 -0.104136 0.194397 0.257260 -0.120828
    3 1.519834 -2.041238 1.521770 0.112947 0.226772 3.118949
    4 0.600319 2.058404 0.000000 0.000000 0.000000 0.000000
    5 -0.067739 10.600758 -0.000006 1.570788 0.000000 1.570797
    6 -0.754633 -3.610986 0.631774 0.000000 0.000001 1.570796
    7 16.066267 -21.225452 8.773699 2.343219 0.000001 1.570795
    8 12.360193 -15.154640 3.933708 0.111037 0.347806 1.790811
    9 18.638801 -18.096136 -0.000006 0.000000 0.000001 1.570796
    10 -2.170493 -0.230590 1.064516 0.000000 0.000001 1.570796
    11 -2.377869 -0.175295 -0.000004 0.000000 0.000001 1.570796
    12 1.257180 8.762585 -0.153713 -1.570562 0.002683 -1.566807
    13 -0.488518 -2.755602 -0.228260 -1.085960 -0.191560 -0.439285
    14 0.039887 -1.479790 0.029854 -0.928033 0.000000 0.000001
    15 0.028786 -1.075731 -0.023109 -1.481385 0.000000 0.000000
    16 0.250027 -2.820665 -0.238396 -0.892857 -0.160399 -0.409460
    17 -0.049759 -1.680544 0.100479 -1.289132 0.000000 -0.000002
    18 -0.034142 -1.148312 0.084782 -1.087281 0.000000 0.000000
    19 0.957766 -2.746780 -0.090302 -0.417462 -0.375878 -0.028335
    20 -0.033420 -1.397129 -0.011257 -0.691853 0.124808 -0.122316
    21 -0.022360 -0.957436 0.018784 -0.519750 0.000000 0.000000
    22 -1.180681 -2.507217 -0.193859 -0.873937 -0.068285 -0.359963
    23 -0.024967 -1.123934 0.017597 -1.152494 0.000000 0.000001
    24 -0.020057 -0.890968 0.010090 -0.933434 0.000000 0.000000
    25 0.583510 -1.197277 0.185379 0.631272 -1.323162 -0.918176
    26 1.535927 0.010246 0.005009 0.412032 -0.211024 -1.135295
    27 1.100771 0.004527 -0.010679 -0.011449 0.011491 -0.607431
    28 0.120153 -0.050270 -0.054489 0.287569 3.110905 1.561085
    29 -5.411551 -9.700146 -12.415725 -0.773512 -5.730539 -0.817129
    30 0.096944 -8.450418 -0.009365 -0.025355 -0.178773 -0.215254
    31 0.447953 -2.798986 -0.200443 -0.121049 -0.137864 -0.042275
    32 -0.032909 -1.480204 0.004940 -1.772401 0.000000 0.000002
    33 -0.027022 -1.076920 -0.020210 -1.481391 0.000000 0.000000
    34 -0.249534 -2.846964 -0.174213 0.091666 -0.135815 -0.084786
    35 0.043235 -1.683941 0.096012 -1.060695 0.002823 -0.000167
    36 0.031729 -1.160830 0.058838 -1.436444 0.000642 0.008372
    37 -0.963866 -2.785145 -0.085350 0.350195 -0.035925 -0.239075
    38 0.028479 -1.403067 0.006271 -0.298395 0.000000 0.000000
    39 0.021413 -0.957781 0.020046 -0.277307 0.000000 0.000000
    40 1.164475 -2.543940 -0.170330 0.003990 -0.306425 0.042666
    41 0.024032 -1.129042 0.017807 -1.131936 0.000000 0.000001
    42 0.014898 -0.883989 -0.019848 -1.052873 0.000000 0.000000
    43 -0.586770 -1.264477 0.200161 -0.223604 -0.377828 -2.629091
    44 1.522835 0.058681 0.016848 -0.048470 0.126626 0.551388
    45 1.117947 0.048424 -0.005766 -0.004605 -0.024779 0.239992
    46 -0.139399 -0.111698 0.014397 0.285382 -0.030687 1.580508
    47 -1.393470 8.839177 -0.239433 1.580804 -0.005023 -1.566847
  time 5
    0 -2.050844 0.000000 -1.261757 -0.013388 -0.153571 0.118702
    1 8.755769 -11.303487 -14.375603 4.299658 -0.795702 0.645782
    2 -0.071918 -8.498688 -0.104136 0.178919 0.268130 -0.179792
    3 1.519834 -2.041238 1.521770 0.112947 0.226772 3.118949
    4 0.600319 2.058404 0.000000 0.000000 0.000000 0.000000
    5 -0.067739 10.600758 -0.000006 1.570788 0.000000 1.570797
    6 -0.754633 -3.610986 0.631774 0.000000 0.000001 1.570796
    7 16.136582 -21.116074 8.465096 2.246959 0.000001 1.570795
    8 12.770362 -15.373396 3.640730 0.102816 0.322047 1.774516
    9 18.638801 -18.096136 -0.000006 0.000000 0.000001 1.570796
    10 -2.170493 -0.230590 1.064516 0.000000 0.000001 1.570796
    11 -2.377869 -0.175295 -0.000004 0.000000 0.000001 1.570796
    12 1.257180 8.762585 -0.153713 -1.570562 0.002683 -1.566807
    13 -0.488518 -2.755602 -0.228260 -1.085960 -0.191560 -0.439285
    14 0.039887 -1.479790 0.029854 -0.928033 0.000000 0.000001
    15 0.028786 -1.075731 -0.023109 -1.481385 0.000000 0.000000
    16 0.250027 -2.820665 -0.238396 -0.892857 -0.160399 -0.409460
    17 -0.049759 -1.680544 0.100479 -1.289132 0.000000 -0.000002
    18 -0.034142 -1.148312 0.084782 -1.087281 0.000000 0.000000
    19 0.957766 -2.746780 -0.090302 -0.417462 -0.375878 -0.028335
    20 -0.033420 -1.397129 -0.011257 -0.691853 0.124808 -0.122316
    21 -0.022360 -0.957436 0.018784 -0.519750 0.000000 0.000000
    22 -1.180681 -2.507217 -0.193859 -0.873937 -0.068285 -0.359963
    23 -0.024967 -1.123934 0.017597 -1.152494 0.000000 0.000001
    24 -0.020057 -0.890968 0.010090 -0.933434 0.000000 0.000000
    25 0.583510 -1.197277 0.185379 0.631272 -1.323162 -0.918176
    26 1.535927 0.010246 0.005009 0.412032 -0.211024 -1.135295
    27 1.100771 0.004527 -0.010679 -0.011449 0.011491 -0.607431
    28 0.120153 -0.050270 -0.054489 0.287569 3.110905 1.561085
    29 -5.852970 -10.118128 -11.650076 -1.110492 -6.018221 -1.042899
    30 0.096944 -8.450418 -0.009365 -0.026841 -0.178451 -0.206817
    31 0.447953 -2.798986 -0.200443 -0.096683 -0.137217 -0.042562
    32 -0.032909 -1.480204 0.004940 -1.732586 0.000000 0.000002
    33 -0.027022 -1.076920 -0.020210 -1.481391 0.000000 0.000000
    34 -0.249534 -2.846964 -0.174213 0.130584 -0.135815 -0.084786
    35 0.043235 -1.683941 0.096012 -0.991377 0.002823 -0.000167
    36 0.031729 -1.160830 0.058838 -1.436444 0.000642 0.008372
    37 -0.963866 -2.785145 -0.085350 0.410670 -0.035925 -0.239075
    38 0.028479 -1.403067 0.006271 -0.305012 0.000000 0.000000
    39 0.021413 -0.957781 0.020046 -0.245827 0.000000 0.000000
    40 1.164475 -2.543940 -0.170330 0.038758 -0.306425 0.042666
    41 0.024032 -1.129042 0.017807 -1.091660 0.000000 0.000001
    42 0.014898 -0.883989 -0.019848 -1.052873 0.000000 0.000000
    43 -0.586770 -1.264477 0.200161 -0.223592 -0.377828 -2.629091
    44 1.522835 0.058681 0.016848 -0.048470 0.126626 0.551388
    45 1.117947 0.048424 -0.005766 -0.004605 -0.024779 0.239992
    46 -0.139399 -0.111698 0.014397 0.285382 -0.030687 1.580508
    47 -1.393470 8.839177 -0.239433 1.580804 -0.005023 -1.566847
  time 6
    0 -2.015687 0.000000 -1.453169 -0.057390 -0.066898 0.146478
    1 8.755769 -11.303487 -15.496731 4.319651 -0.732438 0.614089
    2 -0.071918 -8.498688 -0.104136 0.164221 0.278461 -0.235832
    3 1.519834 -2.041238 1.521770 0.112947 0.226772 3.118949
    4 0.600319 2.058404 0.000000 0.000000 0.000000 0.000000
    5 -0.067739 9.780420 -0.000006 1.570788 0.000000 1.570797
    6 -0.754633 -3.610986 0.631774 0.000000 0.000001 1.570796
    7 16.206897 -20.983257 8.086178 2.135263 0.000001 1.570795
    8 13.172718 -15.592153 3.351659 0.094606 0.296349 1.758261
    9 18.638801 -18.096136 -0.000006 0.000000 0.000001 1.570796
    10 -2.170493 -0.230590 1.064516 0.000000 0.000001 1.570796
    11 -2.377869 -0.175295 -0.000004 0.000000 0.000001 1.570796
    12 1.257180 8.762585 -0.153713 -1.570562 0.002683 -1.566807
    13 -0.488518 -2.755602 -0.228260 -1.085960 -0.191560 -0.439285
    14 0.039887 -1.479790 0.029854 -0.928033 0.000000 0.000001
    15 0.028786 -1.075731 -0.023109 -1.481385 0.000000 0.000000
    16 0.250027 -2.820665 -0.238396 -0.892857 -0.160399 -0.409460
    17 -0.049759 -1.680544 0.100479 -1.289132 0.000000 -0.000002
    18 -0.034142 -1.148312 0.084782 -1.087281 0.000000 0.000000
    19 0.957766 -2.746780 -0.090302 -0.417462 -0.375878 -0.028335
    20 -0.033420 -1.397129 -0.011257 -0.691853 0.124808 -0.122316
    21 -0.022360 -0.957436 0.018784 -0.519750 0.000000 0.000000
    22 -1.180681 -2.507217 -0.193859 -0.873937 -0.068285 -0.359963
    23 -0.024967 -1.123934 0.017597 -1.152494 0.000000 0.000001
    24 -0.020057 -0.890968 0.010090 -0.933434 0.000000 0.000000
    25 0.583510 -1.197277 0.185379 0.631272 -1.323162 -0.918176
    26 1.535927 0.010246 0.005009 0.412032 -0.211024 -1.135295
    27 1.100771 0.004527 -0.010679 -0.011449 0.011491 -0.607431
    28 0.120153 -0.050270 -0.054489 0.287569 3.110905 1.561085
    29 -5.149824 -9.864214 -12.196968 -1.152268 -6.008755 -1.164414
    30 0.096944 -8.450418 -0.009365 -0.028591 -0.178055 -0.196844
    31 0.447953 -2.798986 -0.200443 -0.098904 -0.136582 -0.042850
    32 -0.032909 -1.480204 0.004940 -1.686362 0.000000 0.000002
    33 -0.027022 -1.076920 -0.020210 -1.481391 0.000000 0.000000
    34 -0.249534 -2.846964 -0.174213 0.127368 -0.135815 -0.084786
    35 0.043235 -1.683941 0.096012 -0.915540 0.002823 -0.000167
    36 0.031729 -1.160830 0.058838 -1.436444 0.000642 0.008372
    37 -0.963866 -2.785145 -0.085350 0.408793 -0.035925 -0.239075
    38 0.028479 -1.403067 0.006271 -0.312739 0.000000 0.000000
    39 0.021413 -0.957781 0.020046 -0.211367 0.000000 0.000000
    40 1.164475 -2.543940 -0.170330 0.035873 -0.306425 0.042666
    41 0.024032 -1.129042 0.017807 -1.051532 0.000000 0.000001
    42 0.014898 -0.883989 -0.019848 -1.052873 0.000000 0.000000
    43 -0.586770 -1.264477 0.200161 -0.223592 -0.377828 -2.629091
    44 1.522835 0.058681 0.016848 -0.048470 0.126626 0.551388
    45 1.117947 0.048424 -0.005766 -0.004605 -0.024779 0.239992
    46 -0.139399 -0.111698 0.014397 0.285382 -0.030687 1.580508
    47 -1.393470 8.839177 -0.239433 1.580804 -0.005023 -1.566847
  time 7
    0 -1.925840 0.000000 -1.902402 -0.088531 -0.005585 0.166141
    1 8.755769 -11.303487 -17.235065 4.356575 -0.614935 0.555256
    2 -0.071918 -8.498688 -0.104136 0.151808 0.287173 -0.283099
    3 1.519834 -2.041238 1.521770 0.112947 0.226772 3.118949
    4 0.600319 2.058404 0.000000 0.000000 0.000000 0.000000
    5 -0.067739 7.963958 -0.000006 1.570788 0.000000 1.570797
    6 -0.754633 -3.610986 0.631774 0.000000 0.000001 1.570796
    7 16.281118 -20.827003 7.648665 2.010432 0.000001 1.570795
    8 13.578981 -15.807003 3.062587 0.086469 0.270877 1.742147
    9 18.638801 -18.096136 -0.000006 0.000000 0.000001 1.570796
    10 -2.170493 -0.230590 1.064516 0.000000 0.000001 1.570796
    11 -2.377869 -0.175295 -0.000004 0.000000 0.000001 1.570796
    12 1.257180 8.762585 -0.153713 -1.570562 0.002683 -1.566807
    13 -0.488518 -2.755602 -0.228260 -1.085960 -0.191560 -0.439285
    14 0.039887 -1.479790 0.029854 -0.928033 0.000000 0.000001
    15 0.028786 -1.075731 -0.023109 -1.481385 0.000000 0.000000
    16 0.250027 -2.820665 -0.238396 -0.892857 -0.160399 -0.409460
    17 -0.049759 -1.680544 0.100479 -1.289132 0.000000 -0.000002
    18 -0.034142 -1.148312 0.084782 -1.087313 0.000000 0.000000
    19 0.957766 -2.746780 -0.090302 -0.417462 -0.375878 -0.028335
    20 -0.033420 -1.397129 -0.011257 -0.691853 0.124808 -0.122316
    21 -0.022360 -0.957436 0.018784 -0.519750 0.000000 0.000000
    22 -1.180681 -2.507217 -0.193859 -0.873937 -0.068285 -0.359963
    23 -0.024967 -1.123934 0.017597 -1.152494 0.000000 0.000001
    24 -0.020057 -0.890968 0.010090 -0.933434 0.000000 0.000000
    25 0.583510 -1.197277 0.185379 0.631272 -1.323162 -0.918176
    26 1.535927 0.010246 0.005009 0.412032 -0.211024 -1.135295
    27 1.100771 0.004527 -0.010679 -0.011449 0.011491 -0.607431
    28 0.120153 -0.050270 -0.054489 0.287569 3.110905 1.561085
    29 -3.610715 -9.278258 -13.392317 -1.187416 -5.983420 -1.265475
    30 0.096944 -8.450418 -0.009365 -0.030580 -0.177601 -0.185503
    31 0.447953 -2.798986 -0.200443 -0.105247 -0.135911 -0.043162
    32 -0.032909 -1.480204 0.004940 -1.634717 0.000000 0.000002
    33 -0.027022 -1.076920 -0.020210 -1.481391 0.000000 0.000000
    34 -0.249534 -2.846964 -0.174213 0.118168 -0.135815 -0.084786
    35 0.043235 -1.683941 0.096012 -0.836481 0.002823 -0.000167
    36 0.031729 -1.160830 0.058838 -1.436444 0.000642 0.008372
    37 -0.963866 -2.785145 -0.085350 0.403447 -0.035925 -0.239075
    38 0.028479 -1.403067 0.006271 -0.321359 0.000000 0.000000
    39 0.021413 -0.957781 0.020046 -0.175454 0.000000 0.000000
    40 1.164475 -2.543940 -0.170330 0.027669 -0.306425 0.042666
    41 0.024032 -1.129042 0.017807 -1.011651 0.000000 0.000001
    42 0.014898 -0.883989 -0.019848 -1.052873 0.000000 0.000000
    43 -0.586770 -1.264477 0.200161 -0.223592 -0.377828 -2.629091
    44 1.522835 0.058681 0.016848 -0.048470 0.126626 0.551388
    45 1.117947 0.048424 -0.005766 -0.004605 -0.024779 0.239992
    46 -0.139399 -0.111698 0.014397 0.285382 -0.030687 1.580508
    47 -1.393470 8.839177 -0.239433 1.580804 -0.005023 -1.566847
  time 8
    0 -1.800836 0.000000 -2.437574 -0.100367 0.017665 0.173609
    1 8.755769 -11.303487 -18.133530 4.376567 -0.551639 0.523563
    2 -0.071918 -8.498688 -0.104136 0.143254 0.293202 -0.315757
    3 1.519834 -2.041238 1.521770 0.112947 0.226772 3.118949
    4 0.600319 2.058404 0.000000 0.000000 0.000000 0.000000
    5 -0.067739 6.151403 -0.000006 1.570788 0.000000 1.570797
    6 -0.754633 -3.610986 0.631774 0.000000 0.000001 1.570796
    7 16.351432 -20.651216 7.164275 1.874575 0.000001 1.570795
    8 13.973524 -16.017947 2.777423 0.078439 0.245711 1.726228
    9 18.638801 -18.096136 -0.000006 0.000000 0.000001 1.570796
    10 -2.170493 -0.230590 1.064516 0.000000 0.000001 1.570796
    11 -2.377869 -0.175295 -0.000004 0.000000 0.000001 1.570796
    12 1.257180 8.762585 -0.153713 -1.570562 0.002683 -1.566807
    13 -0.488518 -2.755602 -0.228260 -1.085960 -0.191560 -0.439285
    14 0.039887 -1.479790 0.029854 -0.928033 0.000000 0.000001
    15 0.028786 -1.075731 -0.023109 -1.481385 0.000000 0.000000
    16 0.250027 -2.820665 -0.238396 -0.892857 -0.160399 -0.409460
    17 -0.049759 -1.680544 0.100479 -1.289132 0.000000 -0.000002
    18 -0.034142 -1.148312 0.084782 -1.087281 0.000000 0.000000
    19 0.957766 -2.746780 -0.090302 -0.417462 -0.375878 -0.028335
    20 -0.033420 -1.397129 -0.011257 -0.691853 0.124808 -0.122316
    21 -0.022360 -0.957436 0.018784 -0.519750 0.000000 0.000000
    22 -1.180681 -2.507217 -0.193859 -0.873937 -0.068285 -0.359963
    23 -0.024967 -1.123934 0.017597 -1.152494 0.000000 0.000001
    24 -0.020057 -0.890968 0.010090 -0.933434 0.000000 0.000000
    25 0.583510 -1.197277 0.185379 0.631272 -1.323162 -0.918176
    26 1.535927 0.010246 0.005009 0.412032 -0.211024 -1.135295
    27 1.100771 0.004527 -0.010679 -0.011449 0.011491 -0.607431
    28 0.120153 -0.050270 -0.054489 0.287569 3.110905 1.561085
    29 -2.067699 -8.618082 -14.587666 -1.216459 -5.946764 -1.347723
    30 0.096944 -8.450418 -0.009365 -0.032785 -0.177088 -0.172900
    31 0.447953 -2.798986 -0.200443 -0.115244 -0.135204 -0.043485
    32 -0.032909 -1.480204 0.004940 -1.578472 0.000000 0.000002
    33 -0.027022 -1.076920 -0.020210 -1.481391 0.000000 0.000000
    34 -0.249534 -2.846964 -0.174213 0.103733 -0.135815 -0.084786
    35 0.043235 -1.683941 0.096012 -0.757422 0.002823 -0.000167
    36 0.031729 -1.160830 0.058838 -1.436444 0.000642 0.008372
    37 -0.963866 -2.785145 -0.085350 0.395011 -0.035925 -0.239075
    38 0.028479 -1.403067 0.006271 -0.330695 0.000000 0.000000
    39 0.021413 -0.957781 0.020046 -0.139540 0.000000 0.000000
    40 1.164475 -2.543940 -0.170330 0.014712 -0.306425 0.042666
    41 0.024032 -1.129042 0.017807 -0.972362 0.000000 0.000001
    42 0.014898 -0.883989 -0.019848 -1.052873 0.000000 0.000000
    43 -0.586770 -1.264477 0.200161 -0.223604 -0.377828 -2.629091
    44 1.522835 0.058681 0.016848 -0.048470 0.126626 0.551388
    45 1.117947 0.048424 -0.005766 -0.004605 -0.024779 0.239992
    46 -0.139399 -0.111698 0.014397 0.285382 -0.030687 1.580508
    47 -1.393470 8.839177 -0.239433 1.580804 -0.005023 -1.566847
  time 9
    0 -1.656301 0.000000 -2.890713 -0.099224 0.017450 0.171675
    1 8.755769 -11.303487 -18.133530 4.376567 -0.551639 0.523563
    2 -0.071918 -8.498688 -0.104136 0.140050 0.295443 -0.327933
    3 1.519834 -2.041238 1.521770 0.112947 0.226772 3.118949
    4 0.600319 2.058404 0.000000 0.000000 0.000000 0.000000
    5 -0.067739 5.327159 -0.000006 1.570788 0.000000 1.570797
    6 -0.754633 -3.610986 0.631774 0.000000 0.000001 1.570796
    7 16.421747 -20.463710 6.636915 1.729898 0.000001 1.570795
    8 14.364161 -16.224985 2.500070 0.070565 0.221036 1.710619
    9 18.638801 -18.096136 -0.000006 0.000000 0.000001 1.570796
    10 -2.170493 -0.230590 1.064516 0.000000 0.000001 1.570796
    11 -2.377869 -0.175295 -0.000004 0.000000 0.000001 1.570796
    12 1.257180 8.762585 -0.153713 -1.570562 0.002683 -1.566807
    13 -0.488518 -2.755602 -0.228260 -1.085960 -0.191560 -0.439285
    14 0.039887 -1.479790 0.029854 -0.928033 0.000000 0.000001
    15 0.028786 -1.075731 -0.023109 -1.481385 0.000000 0.000000
    16 0.250027 -2.820665 -0.238396 -0.892857 -0.160399 -0.409460
    17 -0.049759 -1.680544 0.100479 -1.289132 0.000000 -0.000002
    18 -0.034142 -1.148312 0.084782 -1.087281 0.000000 0.000000
    19 0.957766 -2.746780 -0.090302 -0.417462 -0.375878 -0.028335
    20 -0.033420 -1.397129 -0.011257 -0.691853 0.124808 -0.122316
    21 -0.022360 -0.957436 0.018784 -0.519750 0.000000 0.000000
    22 -1.180681 -2.507217 -0.193859 -0.873937 -0.068285 -0.359963
    23 -0.024967 -1.123934 0.017597 -1.152494 0.000000 0.000001
    24 -0.020057 -0.890968 0.010090 -0.933434 0.000000 0.000000
    25 0.583510 -1.197277 0.185379 0.631272 -1.323162 -0.918176
    26 1.535927 0.010246 0.005009 0.412032 -0.211024 -1.135295
    27 1.100771 0.004527 -0.010679 -0.011449 0.011491 -0.607431
    28 0.120153 -0.050270 -0.054489 0.287569 3.110905 1.561085
    29 -1.368459 -8.145411 -15.134558 -1.239780 -5.903241 -1.412795
    30 0.096944 -8.450418 -0.009365 -0.035170 -0.176517 -0.159203
    31 0.447953 -2.798986 -0.200443 -0.128395 -0.134472 -0.043821
    32 -0.032909 -1.480204 0.004940 -1.518666 0.000000 0.000002
    33 -0.027022 -1.076920 -0.020210 -1.481391 0.000000 0.000000
    34 -0.249534 -2.846964 -0.174213 0.084735 -0.135815 -0.084786
    35 0.043235 -1.683941 0.096012 -0.681585 0.002823 -0.000167
    36 0.031729 -1.160830 0.058838 -1.436444 0.000642 0.008372
    37 -0.963866 -2.785145 -0.085350 0.383921 -0.035925 -0.239075
    38 0.028479 -1.403067 0.006271 -0.340674 0.000000 0.000000
    39 0.021413 -0.957781 0.020046 -0.105118 0.000000 0.000000
    40 1.164475 -2.543940 -0.170330 -0.002290 -0.306425 0.042666
    41 0.024032 -1.129042 0.017807 -0.933764 0.000000 0.000001
    42 0.014898 -0.883989 -0.019848 -1.052873 0.000000 0.000000
    43 -0.586770 -1.264477 0.200161 -0.223604 -0.377828 -2.629091
    44 1.522835 0.058681 0.016848 -0.048470 0.126626 0.551388
    45 1.117947 0.048424 -0.005766 -0.004605 -0.024779 0.239992
    46 -0.139399 -0.111698 0.014397 0.285382 -0.030687 1.580508
    47 -1.393470 8.839177 -0.239433 1.580804 -0.005023 -1.566847
  time 10
    0 -1.511765 0.000000 -3.078219 -0.096031 0.016898 0.166141
    1 8.755769 -11.303487 -18.133530 4.376567 -0.551639 0.523563
    2 -0.071918 -8.498688 -0.104136 0.145219 0.291728 -0.307955
    3 1.519834 -2.041238 1.521770 0.112947 0.226772 3.118949
    4 0.600319 2.058404 0.000000 0.000000 0.000000 0.000000
    5 -0.067739 5.877957 -0.000006 1.570788 0.000000 1.570797
    6 -0.754633 -3.610986 0.631774 0.000000 0.000001 1.570796
    7 16.492062 -20.264485 6.078304 1.578701 0.000001 1.570795
    8 14.746985 -16.428116 2.226624 0.062883 0.196974 1.695397
    9 18.638801 -18.096136 -0.000006 0.000000 0.000001 1.570796
    10 -2.170493 -0.230590 1.064516 0.000000 0.000001 1.570796
    11 -2.377869 -0.175295 -0.000004 0.000000 0.000001 1.570796
    12 1.257180 8.762585 -0.153713 -1.570562 0.002683 -1.566807
    13 -0.488518 -2.755602 -0.228260 -1.085960 -0.191560 -0.439285
    14 0.039887 -1.479790 0.029854 -0.928033 0.000000 0.000001
    15 0.028786 -1.075731 -0.023109 -1.481385 0.000000 0.000000
    16 0.250027 -2.820665 -0.238396 -0.892857 -0.160399 -0.409460
    17 -0.049759 -1.680544 0.100479 -1.289132 0.000000 -0.000002
    18 -0.034142 -1.148312 0.084782 -1.087281 0.000000 0.000000
    19 0.957766 -2.746780 -0.090302 -0.417462 -0.375878 -0.028335
    20 -0.033420 -1.397129 -0.011257 -0.691853 0.124808 -0.122316
    21 -0.022360 -0.957436 0.018784 -0.519750 0.000000 0.000000
    22 -1.180681 -2.507217 -0.193859 -0.873937 -0.068285 -0.359963
    23 -0.024967 -1.123934 0.017597 -1.152494 0.000000 0.000001
    24 -0.020057 -0.890968 0.010090 -0.933434 0.000000 0.000000
    25 0.583510 -1.197277 0.185379 0.631272 -1.323162 -0.918176
    26 1.535927 0.010246 0.005009 0.412032 -0.211024 -1.135295
    27 1.100771 0.004527 -0.010679 -0.011449 0.011491 -0.607431
    28 0.120153 -0.050270 -0.054489 0.287569 3.110905 1.561085
    29 -1.516901 -7.891497 -14.900175 -1.257855 -5.857397 -1.462420
    30 0.096944 -8.450418 -0.009365 -0.037735 -0.175887 -0.144496
    31 0.447953 -2.798986 -0.200443 -0.144198 -0.133729 -0.044156
    32 -0.032909 -1.480204 0.004940 -1.456067 0.000000 0.000002
    33 -0.027022 -1.076920 -0.020210 -1.481391 0.000000 0.000000
    34 -0.249534 -2.846964 -0.174213 0.061873 -0.135815 -0.084786
    35 0.043235 -1.683941 0.096012 -0.612267 0.002823 -0.000167
    36 0.031729 -1.160830 0.058838 -1.436444 0.000642 0.008372
    37 -0.963866 -2.785145 -0.085350 0.370574 -0.035925 -0.239075
    38 0.028479 -1.403067 0.006271 -0.351119 0.000000 0.000000
    39 0.021413 -0.957781 0.020046 -0.073638 0.000000 0.000000
    40 1.164475 -2.543940 -0.170330 -0.022772 -0.306425 0.042666
    41 0.024032 -1.129042 0.017807 -0.896153 0.000000 0.000001
    42 0.014898 -0.883989 -0.019848 -1.052873 0.000000 0.000000
    43 -0.586770 -1.264477 0.200161 -0.223604 -0.377828 -2.629091
    44 1.522835 0.058681 0.016848 -0.048470 0.126626 0.551388
    45 1.117947 0.048424 -0.005766 -0.004605 -0.024779 0.239992
    46 -0.139399 -0.111698 0.014397 0.285382 -0.030687 1.580508
    47 -1.393470 8.839177 -0.239433 1.580804 -0.005023 -1.566847
  time 11
    0 -1.359416 0.000000 -2.992279 -0.091080 0.016035 0.157599
    1 8.755769 -11.303487 -18.133530 4.376567 -0.551639 0.523563
    2 -0.071918 -8.498688 -0.104136 0.158064 0.282463 -0.258231
    3 1.519834 -2.041238 1.521770 0.112947 0.226772 3.118949
    4 0.600319 2.058404 0.000000 0.000000 0.000000 0.000000
    5 -0.067739 7.186591 -0.000006 1.570788 0.000000 1.570797
    6 -0.754633 -3.610986 0.631774 0.000000 0.000001 1.570796
    7 16.558470 -20.057448 5.496255 1.423093 0.000001 1.570795
    8 15.114184 -16.627341 1.960991 0.055441 0.173668 1.680655
    9 18.638801 -18.096136 -0.000006 0.000000 0.000001 1.570796
    10 -2.170493 -0.230590 1.064516 0.000000 0.000001 1.570796
    11 -2.377869 -0.175295 -0.000004 0.000000 0.000001 1.570796
    12 1.257180 8.762585 -0.153713 -1.570562 0.002683 -1.566807
    13 -0.488518 -2.755602 -0.228260 -1.085960 -0.191560 -0.439285
    14 0.039887 -1.479790 0.029854 -0.928033 0.000000 0.000001
    15 0.028786 -1.075731 -0.023109 -1.481385 0.000000 0.000000
    16 0.250027 -2.820665 -0.238396 -0.892857 -0.160399 -0.409460
    17 -0.049759 -1.680544 0.100479 -1.289132 0.000000 -0.000002
    18 -0.034142 -1.148312 0.084782 -1.087281 0.000000 0.000000
    19 0.957766 -2.746780 -0.090302 -0.417462 -0.375878 -0.028335
    20 -0.033420 -1.397129 -0.011257 -0.691853 0.124808 -0.122316
    21 -0.022360 -0.957436 0.018784 -0.519750 0.000000 0.000000
    22 -1.180681 -2.507217 -0.193859 -0.873937 -0.068285 -0.359963
    23 -0.024967 -1.123934 0.017597 -1.152494 0.000000 0.000001
    24 -0.020057 -0.890968 0.010090 -0.933434 0.000000 0.000000
    25 0.583510 -1.197277 0.185379 0.631272 -1.323162 -0.918176
    26 1.535927 0.010246 0.005009 0.412032 -0.211024 -1.135295
    27 1.100771 0.004527 -0.010679 -0.011449 0.011491 -0.607431
    28 0.120153 -0.050270 -0.054489 0.287569 3.110905 1.561085
    29 -1.876287 -7.703992 -14.325939 -1.271112 -5.813967 -1.498063
    30 0.096944 -8.450418 -0.009365 -0.040431 -0.175213 -0.128947
    31 0.447953 -2.798986 -0.200443 -0.162186 -0.132974 -0.044504
    32 -0.032909 -1.480204 0.004940 -1.391661 0.000000 0.000002
    33 -0.027022 -1.076920 -0.020210 -1.481391 0.000000 0.000000
    34 -0.249534 -2.846964 -0.174213 0.035870 -0.135815 -0.084786
    35 0.043235 -1.683941 0.096012 -0.552692 0.002823 -0.000167
    36 0.031729 -1.160830 0.058838 -1.436444 0.000642 0.008372
    37 -0.963866 -2.785145 -0.085350 0.355389 -0.035925 -0.239075
    38 0.028479 -1.403067 0.006271 -0.361850 0.000000 0.000000
    39 0.021413 -0.957781 0.020046 -0.046554 0.000000 0.000000
    40 1.164475 -2.543940 -0.170330 -0.046054 -0.306425 0.042666
    41 0.024032 -1.129042 0.017807 -0.859727 0.000000 0.000001
    42 0.014898 -0.883989 -0.019848 -1.052873 0.000000 0.000000
    43 -0.586770 -1.264477 0.200161 -0.223604 -0.377828 -2.629091
    44 1.522835 0.058681 0.016848 -0.048470 0.126626 0.551388
    45 1.117947 0.048424 -0.005766 -0.004605 -0.024779 0.239992
    46 -0.139399 -0.111698 0.014397 0.285382 -0.030687 1.580508
    47 -1.393470 8.839177 -0.239433 1.580804 -0.005023 -1.566847
  time 12
    0 -1.179724 0.000000 -2.757897 -0.084664 0.014885 0.146478
    1 8.740143 -11.018322 -17.942118 4.377237 -0.567992 0.544364
    2 -0.071918 -8.498688 -0.104136 0.174642 0.270539 -0.194113
    3 1.519834 -2.041238 1.521770 0.112947 0.226772 3.118949
    4 0.600319 2.058404 0.000000 0.000000 0.000000 0.000000
    5 -0.067739 8.745232 -0.000006 1.570788 0.000000 1.570797
    6 -0.754633 -3.610986 0.631774 0.000000 0.000001 1.570796
    7 16.624878 -19.842598 4.898581 1.265281 0.000001 1.570795
    8 15.469663 -16.814847 1.707077 0.048274 0.151221 1.666455
    9 18.638801 -18.096136 -0.000006 0.000000 0.000001 1.570796
    10 -2.170493 -0.230590 1.064516 0.000000 0.000001 1.570796
    11 -2.377869 -0.175295 -0.000004 0.000000 0.000001 1.570796
    12 1.257180 8.762585 -0.153713 -1.570562 0.002683 -1.566807
    13 -0.488518 -2.755602 -0.228260 -1.085960 -0.191560 -0.439285
    14 0.039887 -1.479790 0.029854 -0.928033 0.000000 0.000001
    15 0.028786 -1.075731 -0.023109 -1.481385 0.000000 0.000000
    16 0.250027 -2.820665 -0.238396 -0.892857 -0.160399 -0.409460
    17 -0.049759 -1.680544 0.100479 -1.289132 0.000000 -0.000002
    18 -0.034142 -1.148312 0.084782 -1.087281 0.000000 0.000000
    19 0.957766 -2.746780 -0.090302 -0.417462 -0.375878 -0.028335
    20 -0.033420 -1.397129 -0.011257 -0.691853 0.124808 -0.122316
    21 -0.022360 -0.957436 0.018784 -0.519750 0.000000 0.000000
    22 -1.180681 -2.507217 -0.193859 -0.873937 -0.068285 -0.359963
    23 -0.024967 -1.123934 0.017597 -1.152494 0.000000 0.000001
    24 -0.020057 -0.890968 0.010090 -0.933434 0.000000 0.000000
    25 0.583510 -1.197277 0.185379 0.631272 -1.323162 -0.918176
    26 1.535927 0.010246 0.005009 0.412032 -0.211024 -1.135295
    27 1.100771 0.004527 -0.010679 -0.011449 0.011491 -0.607431
    28 0.120153 -0.050270 -0.054489 0.287569 3.110905 1.561085
    29 -2.305987 -7.582894 -13.583729 -1.280031 -5.777218 -1.521538
    30 0.096944 -8.450418 -0.009365 -0.043260 -0.174480 -0.112662
    31 0.447953 -2.798986 -0.200443 -0.181894 -0.132231 -0.044839
    32 -0.032909 -1.480204 0.004940 -1.326379 0.000000 0.000002
    33 -0.027022 -1.076920 -0.020210 -1.481391 0.000000 0.000000
    34 -0.249534 -2.846964 -0.174213 0.007398 -0.135815 -0.084786
    35 0.043235 -1.683941 0.096012 -0.506118 0.002823 -0.000167
    36 0.031729 -1.160830 0.058838 -1.436444 0.000642 0.008372
    37 -0.963866 -2.785145 -0.085350 0.338782 -0.035925 -0.239075
    38 0.028479 -1.403067 0.006271 -0.372723 0.000000 0.000000
    39 0.021413 -0.957781 0.020046 -0.025431 0.000000 0.000000
    40 1.164475 -2.543940 -0.170330 -0.071571 -0.306425 0.042666
    41 0.024032 -1.129042 0.017807 -0.824633 0.000000 0.000001
    42 0.014898 -0.883989 -0.019848 -1.052873 0.000000 0.000000
    43 -0.586770 -1.264477 0.200161 -0.223604 -0.377828 -2.629091
    44 1.522835 0.058681 0.016848 -0.048470 0.126626 0.551388
    45 1.117947 0.048424 -0.005766 -0.004605 -0.024779 0.239992
    46 -0.139399 -0.111698 0.014397 0.285382 -0.030687 1.580508
    47 -1.393470 8.839177 -0.239433 1.580804 -0.005023 -1.566847
  time 13
    0 -0.984405 0.000000 -2.414136 -0.077077 0.013567 0.133369
    1 8.693267 -10.217516 -17.403039 4.379150 -0.613534 0.602126
    2 -0.071918 -8.498688 -0.104136 0.191026 0.258794 -0.130943
    3 1.519834 -2.041238 1.521770 0.112947 0.226772 3.118949
    4 0.600319 2.058404 0.000000 0.000000 0.000000 0.000000
    5 -0.067739 10.053866 -0.000006 1.570788 0.000000 1.570797
    6 -0.754633 -3.610986 0.631774 0.000000 0.000001 1.570796
    7 16.687380 -19.631654 4.300906 1.107468 0.000001 1.570795
    8 15.805611 -16.998446 1.464882 0.041431 0.129797 1.652902
    9 18.638801 -18.096136 -0.000006 0.000000 0.000001 1.570796
    10 -2.170493 -0.230590 1.064516 0.000000 0.000001 1.570796
    11 -2.377869 -0.175295 -0.000004 0.000000 0.000001 1.570796
    12 1.257180 8.762585 -0.153713 -1.570562 0.002683 -1.566807
    13 -0.488518 -2.755602 -0.228260 -1.085960 -0.191560 -0.439285
    14 0.039887 -1.479790 0.029854 -0.928033 0.000000 0.000001
    15 0.028786 -1.075731 -0.023109 -1.481385 0.000000 0.000000
    16 0.250027 -2.820665 -0.238396 -0.892857 -0.160399 -0.409460
    17 -0.049759 -1.680544 0.100479 -1.289132 0.000000 -0.000002
    18 -0.034142 -1.148312 0.084782 -1.087281 0.000000 0.000000
    19 0.957766 -2.746780 -0.090302 -0.417462 -0.375878 -0.028335
    20 -0.033420 -1.397129 -0.011257 -0.691853 0.124808 -0.122316
    21 -0.022360 -0.957436 0.018784 -0.519750 0.000000 0.000000
    22 -1.180681 -2.507217 -0.193859 -0.873937 -0.068285 -0.359963
    23 -0.024967 -1.123934 0.017597 -1.152494 0.000000 0.000001
    24 -0.020057 -0.890968 0.010090 -0.933434 0.000000 0.000000
    25 0.583510 -1.197277 0.185379 0.631272 -1.323162 -0.918176
    26 1.535927 0.010246 0.005009 0.412032 -0.211024 -1.135295
    27 1.100771 0.004527 -0.010679 -0.011449 0.011491 -0.607431
    28 0.120153 -0.050270 -0.054489 0.287569 3.110905 1.561085
    29 -2.665373 -7.512579 -12.857144 -1.285038 -5.751883 -1.534397
    30 0.096944 -8.450418 -0.009365 -0.046184 -0.173718 -0.095788
    31 0.447953 -2.798986 -0.200443 -0.202821 -0.131488 -0.045175
    32 -0.032909 -1.480204 0.004940 -1.261097 0.000000 0.000002
    33 -0.027022 -1.076920 -0.020210 -1.481391 0.000000 0.000000
    34 -0.249534 -2.846964 -0.174213 -0.022844 -0.135815 -0.084786
    35 0.043235 -1.683941 0.096012 -0.475806 0.002823 -0.000167
    36 0.031729 -1.160830 0.058838 -1.436444 0.000642 0.008372
    37 -0.963866 -2.785145 -0.085350 0.321132 -0.035925 -0.239075
    38 0.028479 -1.403067 0.006271 -0.383597 0.000000 0.000000
    39 0.021413 -0.957781 0.020046 -0.011647 0.000000 0.000000
    40 1.164475 -2.543940 -0.170330 -0.098644 -0.306425 0.042666
    41 0.024032 -1.129042 0.017807 -0.791168 0.000000 0.000001
    42 0.014898 -0.883989 -0.019848 -1.052873 0.000000 0.000000
    43 -0.586770 -1.264477 0.200161 -0.223604 -0.377828 -2.629091
    44 1.522835 0.058681 0.016848 -0.048470 0.126626 0.551388
    45 1.117947 0.048424 -0.005766 -0.004605 -0.024779 0.239992
    46 -0.139399 -0.111698 0.014397 0.285382 -0.030687 1.580508
    47 -1.393470 8.839177 -0.239433 1.580804 -0.005023 -1.566847
  time 14
    0 -0.781274 0.000000 -1.992248 -0.068610 0.012056 0.118702
    1 8.619046 -9.002635 -16.578795 4.382115 -0.682890 0.690242
    2 -0.071918 -8.498688 -0.104136 0.203230 0.250105 -0.084059
    3 1.519834 -2.041238 1.521770 0.112947 0.226772 3.118949
    4 0.600319 2.058404 0.000000 0.000000 0.000000 0.000000
    5 -0.067739 10.600758 -0.000006 1.570788 0.000000 1.570797
    6 -0.754633 -3.610986 0.631774 0.000000 0.000001 1.570796
    7 16.745976 -19.416803 3.703232 0.951861 0.000001 1.570795
    8 16.125933 -17.170326 1.238313 0.034959 0.109537 1.640087
    9 18.638801 -18.096136 -0.000006 0.000000 0.000001 1.570796
    10 -2.170493 -0.230590 1.064516 0.000000 0.000001 1.570796
    11 -2.377869 -0.175295 -0.000004 0.000000 0.000001 1.570796
    12 1.257180 8.762585 -0.153713 -1.570562 0.002683 -1.566807
    13 -0.488518 -2.755602 -0.228260 -1.085960 -0.191560 -0.439285
    14 0.039887 -1.479790 0.029854 -0.928033 0.000000 0.000001
    15 0.028786 -1.075731 -0.023109 -1.481385 0.000000 0.000000
    16 0.250027 -2.820665 -0.238396 -0.892857 -0.160399 -0.409460
    17 -0.049759 -1.680544 0.100479 -1.289132 0.000000 -0.000002
    18 -0.034142 -1.148312 0.084782 -1.087281 0.000000 0.000000
    19 0.957766 -2.746780 -0.090302 -0.417462 -0.375878 -0.028335
    20 -0.033420 -1.397129 -0.011257 -0.691853 0.124808 -0.122316
    21 -0.022360 -0.957436 0.018784 -0.519750 0.000000 0.000000
    22 -1.180681 -2.507217 -0.193859 -0.873937 -0.068285 -0.359963
    23 -0.024967 -1.123934 0.017597 -1.152494 0.000000 0.000001
    24 -0.020057 -0.890968 0.010090 -0.933434 0.000000 0.000000
    25 0.583510 -1.197277 0.185379 0.631272 -1.323162 -0.918176
    26 1.535927 0.010246 0.005009 0.412032 -0.211024 -1.135295
    27 1.100771 0.004527 -0.010679 -0.011449 0.011491 -0.607431
    28 0.120153 -0.050270 -0.054489 0.287569 3.110905 1.561085
    29 -2.813815 -7.493048 -12.329785 -1.286612 -5.742417 -1.538281
    30 0.096944 -8.450418 -0.009365 -0.049180 -0.172897 -0.078472
    31 0.447953 -2.798986 -0.200443 -0.224428 -0.130769 -0.045511
    32 -0.032909 -1.480204 0.004940 -1.196691 0.000000 0.000002
    33 -0.027022 -1.076920 -0.020210 -1.481391 0.000000 0.000000
    34 -0.249534 -2.846964 -0.174213 -0.054133 -0.135815 -0.084786
    35 0.043235 -1.683941 0.096012 -0.464977 0.002823 -0.000167
    36 0.031729 -1.160830 0.058838 -1.436444 0.000642 0.008372
    37 -0.963866 -2.785145 -0.085350 0.302876 -0.035925 -0.239075
    38 0.028479 -1.403067 0.006271 -0.394328 0.000000 0.000000
    39 0.021413 -0.957781 0.020046 -0.006729 0.000000 0.000000
    40 1.164475 -2.543940 -0.170330 -0.126651 -0.306425 0.042666
    41 0.024032 -1.129042 0.017807 -0.759431 0.000000 0.000001
    42 0.014898 -0.883989 -0.019848 -1.052873 0.000000 0.000000
    43 -0.586770 -1.264477 0.200161 -0.223604 -0.377828 -2.629091
    44 1.522835 0.058681 0.016848 -0.048470 0.126626 0.551388
    45 1.117947 0.048424 -0.005766 -0.004605 -0.024779 0.239992
    46 -0.139399 -0.111698 0.014397 0.285382 -0.030687 1.580508
    47 -1.393470 8.839177 -0.239433 1.580804 -0.005023 -1.566847
  time 15
    0 -0.585955 0.000000 -1.539109 -0.059529 0.010475 0.103014
    1 8.529199 -7.459620 -15.539701 4.385750 -0.770846 0.801927
    2 -0.071918 -8.498688 -0.104136 0.210976 0.244724 -0.054709
    3 1.519834 -2.041238 1.521770 0.112947 0.226772 3.118949
    4 0.600319 2.058404 0.000000 0.000000 0.000000 0.000000
    5 -0.067739 10.600758 -0.000006 1.570788 0.000000 1.570797
    6 -0.754633 -3.610986 0.631774 0.000000 0.000001 1.570796
    7 16.804571 -19.209766 3.121183 0.800664 0.000001 1.570795
    8 16.426724 -17.330487 1.023463 0.028907 0.090545 1.628073
    9 18.638801 -18.096136 -0.000006 0.000000 0.000001 1.570796
    10 -2.170493 -0.230590 1.064516 0.000000 0.000001 1.570796
    11 -2.377869 -0.175295 -0.000004 0.000000 0.000001 1.570796
    12 1.257180 8.762585 -0.153713 -1.570562 0.002683 -1.566807
    13 -0.488518 -2.755602 -0.228260 -1.085960 -0.191560 -0.439285
    14 0.039887 -1.479790 0.029854 -0.928033 0.000000 0.000001
    15 0.028786 -1.075731 -0.023109 -1.481385 0.000000 0.000000
    16 0.250027 -2.820665 -0.238396 -0.892857 -0.160399 -0.409460
    17 -0.049759 -1.680544 0.100479 -1.289132 0.000000 -0.000002
    18 -0.034142 -1.148312 0.084782 -1.087281 0.000000 0.000000
    19 0.957766 -2.746780 -0.090302 -0.417462 -0.375878 -0.028335
    20 -0.033420 -1.397129 -0.011257 -0.691853 0.124808 -0.122316
    21 -0.022360 -0.957436 0.018784 -0.519750 0.000000 0.000000
    22 -1.180681 -2.507217 -0.193859 -0.873937 -0.068285 -0.359963
    23 -0.024967 -1.123934 0.017597 -1.152494 0.000000 0.000001
    24 -0.020057 -0.890968 0.010090 -0.933434 0.000000 0.000000
    25 0.583510 -1.197277 0.185379 0.631272 -1.323162 -0.918176
    26 1.535927 0.010246 0.005009 0.412032 -0.211024 -1.135295
    27 1.100771 0.004527 -0.010679 -0.011449 0.011491 -0.607431
    28 0.120153 -0.050270 -0.054489 0.287569 3.110905 1.561085
    29 -2.763032 -7.532111 -11.950867 -1.250129 -5.749377 -1.450683
    30 0.096944 -8.450418 -0.009365 -0.052224 -0.172047 -0.060819
    31 0.447953 -2.798986 -0.200443 -0.246322 -0.130074 -0.045822
    32 -0.032909 -1.480204 0.004940 -1.134147 0.000000 0.000002
    33 -0.027022 -1.076920 -0.020210 -1.481391 0.000000 0.000000
    34 -0.249534 -2.846964 -0.174213 -0.085771 -0.135815 -0.084786
    35 0.043235 -1.683941 0.096012 -0.478429 0.002823 -0.000167
    36 0.031729 -1.160830 0.058838 -1.436444 0.000642 0.008372
    37 -0.963866 -2.785145 -0.085350 0.284411 -0.035925 -0.239075
    38 0.028479 -1.403067 0.006271 -0.404772 0.000000 0.000000
    39 0.021413 -0.957781 0.020046 -0.040593 0.000000 0.000000
    40 1.164475 -2.543940 -0.170330 -0.154969 -0.306425 0.042666
    41 0.024032 -1.129042 0.017807 -0.729767 0.000000 0.000001
    42 0.014898 -0.883989 -0.019848 -1.052873 0.000000 0.000000
    43 -0.586770 -1.264477 0.200161 -0.223604 -0.377828 -2.629091
    44 1.522835 0.058681 0.016848 -0.048470 0.126626 0.551388
    45 1.117947 0.048424 -0.005766 -0.004605 -0.024779 0.239992
    46 -0.139399 -0.111698 0.014397 0.285382 -0.030687 1.580508
    47 -1.393470 8.839177 -0.239433 1.580804 -0.005023 -1.566847
  time 16
    0 -0.398450 0.000000 -1.082064 -0.050183 0.008821 0.086789
    1 8.423727 -5.682222 -14.340445 4.390055 -0.872029 0.930484
    2 -0.071918 -8.498688 -0.104136 0.216883 0.240733 -0.032657
    3 1.519834 -2.041238 1.521770 0.112947 0.226772 3.118949
    4 0.600319 2.058404 0.000000 0.000000 0.000000 0.000000
    5 -0.067739 10.600758 -0.000006 1.570788 0.000000 1.570797
    6 -0.754633 -3.610986 0.631774 0.000000 0.000001 1.570796
    7 16.859260 -19.010541 2.562572 0.656082 0.000001 1.570795
    8 16.704076 -17.478929 0.824238 0.023298 0.072984 1.616964
    9 18.638801 -18.096136 -0.000006 0.000000 0.000001 1.570796
    10 -2.170493 -0.230590 1.064516 0.000000 0.000001 1.570796
    11 -2.377869 -0.175295 -0.000004 0.000000 0.000001 1.570796
    12 1.257180 8.762585 -0.153713 -1.570562 0.002683 -1.566807
    13 -0.488518 -2.755602 -0.228260 -1.085960 -0.191560 -0.439285
    14 0.039887 -1.479790 0.029854 -0.928033 0.000000 0.000001
    15 0.028786 -1.075731 -0.023109 -1.481385 0.000000 0.000000
    16 0.250027 -2.820665 -0.238396 -0.892857 -0.160399 -0.409460
    17 -0.049759 -1.680544 0.100479 -1.289132 0.000000 -0.000002
    18 -0.034142 -1.148312 0.084782 -1.087313 0.000000 0.000000
    19 0.957766 -2.746780 -0.090302 -0.417462 -0.375878 -0.028335
    20 -0.033420 -1.397129 -0.011257 -0.691853 0.124808 -0.122316
    21 -0.022360 -0.957436 0.018784 -0.519750 0.000000 0.000000
    22 -1.180681 -2.507217 -0.193859 -0.873937 -0.068285 -0.359963
    23 -0.024967 -1.123934 0.017597 -1.152494 0.000000 0.000001
    24 -0.020057 -0.890968 0.010090 -0.933434 0.000000 0.000000
    25 0.583510 -1.197277 0.185379 0.631272 -1.323162 -0.918159
    26 1.535927 0.010246 0.005009 0.412032 -0.211024 -1.135295
    27 1.100771 0.004527 -0.010679 -0.011449 0.011491 -0.607431
    28 0.120153 -0.050270 -0.054489 0.287569 3.110905 1.561085
    29 -2.614590 -7.641490 -11.564136 -1.157800 -5.768494 -1.227847
    30 0.096944 -8.450418 -0.009365 -0.055292 -0.171153 -0.042956
    31 0.447953 -2.798986 -0.200443 -0.267966 -0.129415 -0.046122
    32 -0.032909 -1.480204 0.004940 -1.074287 0.000000 0.000002
    33 -0.027022 -1.076920 -0.020210 -1.481391 0.000000 0.000000
    34 -0.249534 -2.846964 -0.174213 -0.117060 -0.135815 -0.084786
    35 0.043235 -1.683941 0.096012 -0.514998 0.002823 -0.000167
    36 0.031729 -1.160830 0.058838 -1.436444 0.000642 0.008372
    37 -0.963866 -2.785145 -0.085350 0.266155 -0.035925 -0.239075
    38 0.028479 -1.403067 0.006271 -0.414752 0.000000 0.000000
    39 0.021413 -0.957781 0.020046 -0.132574 0.000000 0.000000
    40 1.164475 -2.543940 -0.170330 -0.182975 -0.306425 0.042666
    41 0.024032 -1.129042 0.017807 -0.702324 0.000000 0.000001
    42 0.014898 -0.883989 -0.019848 -1.052873 0.000000 0.000000
    43 -0.586770 -1.264477 0.200161 -0.223592 -0.377828 -2.629091
    44 1.522835 0.058681 0.016848 -0.048470 0.126626 0.551388
    45 1.117947 0.048424 -0.005766 -0.004605 -0.024779 0.239992
    46 -0.139399 -0.111698 0.014397 0.285382 -0.030687 1.580508
    47 -1.393470 8.839177 -0.239433 1.580804 -0.005023 -1.566847
  time 17
    0 -0.238289 0.000000 -0.664083 -0.040809 0.007167 0.070618
    1 8.306536 -3.768101 -13.051343 4.394646 -0.981192 1.069041
    2 -0.071918 -8.498688 -0.104136 0.221410 0.237761 -0.016046
    3 1.519834 -2.041238 1.521770 0.112947 0.226772 3.118949
    4 0.600319 2.058404 0.000000 0.000000 0.000000 0.000000
    5 -0.067739 10.600758 -0.000006 1.570788 0.000000 1.570797
    6 -0.754633 -3.610986 0.631774 0.000000 0.000001 1.570796
    7 16.906137 -18.823035 2.035212 0.520225 0.000001 1.570795
    8 16.957990 -17.611746 0.644545 0.018193 0.056977 1.606838
    9 18.638801 -18.096136 -0.000006 0.000000 0.000001 1.570796
    10 -2.170493 -0.230590 1.064516 0.000000 0.000001 1.570796
    11 -2.377869 -0.175295 -0.000004 0.000000 0.000001 1.570796
    12 1.257180 8.762585 -0.153713 -1.570562 0.002683 -1.566807
    13 -0.488518 -2.755602 -0.228260 -1.085960 -0.191560 -0.439285
    14 0.039887 -1.479790 0.029854 -0.928033 0.000000 0.000001
    15 0.028786 -1.075731 -0.023109 -1.481385 0.000000 0.000000
    16 0.250027 -2.820665 -0.238396 -0.892857 -0.160399 -0.409460
    17 -0.049759 -1.680544 0.100479 -1.289132 0.000000 -0.000002
    18 -0.034142 -1.148312 0.084782 -1.087281 0.000000 0.000000
    19 0.957766 -2.746780 -0.090302 -0.417462 -0.375878 -0.028335
    20 -0.033420 -1.397129 -0.011257 -0.691853 0.124808 -0.122316
    21 -0.022360 -0.957436 0.018784 -0.519750 0.000000 0.000000
    22 -1.180681 -2.507217 -0.193859 -0.873937 -0.068285 -0.359963
    23 -0.024967 -1.123934 0.017597 -1.152494 0.000000 0.000001
    24 -0.020057 -0.890968 0.010090 -0.933434 0.000000 0.000000
    25 0.583510 -1.197277 0.185379 0.631272 -1.323162 -0.918176
    26 1.535927 0.010246 0.005009 0.412032 -0.211024 -1.135295
    27 1.100771 0.004527 -0.010679 -0.011449 0.011491 -0.607431
    28 0.120153 -0.050270 -0.054489 0.287569 3.110905 1.561085
    29 -2.399740 -7.805557 -11.181312 -1.035141 -5.796613 -0.929928
    30 0.096944 -8.450418 -0.009365 -0.058360 -0.170216 -0.025051
    31 0.447953 -2.798986 -0.200443 -0.288856 -0.128804 -0.046397
    32 -0.032909 -1.480204 0.004940 -1.018041 0.000000 0.000002
    33 -0.027022 -1.076920 -0.020210 -1.481391 0.000000 0.000000
    34 -0.249534 -2.846964 -0.174213 -0.147277 -0.135815 -0.084786
    35 0.043235 -1.683941 0.096012 -0.568916 0.002823 -0.000167
    36 0.031729 -1.160830 0.058838 -1.436444 0.000642 0.008372
    37 -0.963866 -2.785145 -0.085350 0.248524 -0.035925 -0.239075
    38 0.028479 -1.403067 0.006271 -0.424124 0.000000 0.000000
    39 0.021413 -0.957781 0.020046 -0.268105 0.000000 0.000000
    40 1.164475 -2.543940 -0.170330 -0.210048 -0.306425 0.042666
    41 0.024032 -1.129042 0.017807 -0.677299 0.000000 0.000001
    42 0.014898 -0.883989 -0.019848 -1.052873 0.000000 0.000000
    43 -0.586770 -1.264477 0.200161 -0.223604 -0.377828 -2.629091
    44 1.522835 0.058681 0.016848 -0.048470 0.126626 0.551388
    45 1.117947 0.048424 -0.005766 -0.004605 -0.024779 0.239992
    46 -0.139399 -0.111698 0.014397 0.285382 -0.030687 1.580508
    47 -1.393470 8.839177 -0.239433 1.580804 -0.005023 -1.566847
  time 18
    0 -0.113285 0.000000 -0.316416 -0.031756 0.005585 0.054930
    1 8.193251 -1.807103 -11.727084 4.399334 -1.092995 1.211080
    2 -0.071918 -8.498688 -0.104136 0.225005 0.235436 -0.002995
    3 1.519834 -2.041238 1.521770 0.112947 0.226772 3.118949
    4 0.600319 2.058404 0.000000 0.000000 0.000000 0.000000
    5 -0.067739 10.600758 -0.000006 1.570788 0.000000 1.570797
    6 -0.754633 -3.610986 0.631774 0.000000 0.000001 1.570796
    7 16.949107 -18.647249 1.550823 0.395394 0.000001 1.570795
    8 17.184559 -17.732843 0.480477 0.013626 0.042687 1.597785
    9 18.638801 -18.096136 -0.000006 0.000000 0.000001 1.570796
    10 -2.170493 -0.230590 1.064516 0.000000 0.000001 1.570796
    11 -2.377869 -0.175295 -0.000004 0.000000 0.000001 1.570796
    12 1.257180 8.762585 -0.153713 -1.570562 0.002683 -1.566807
    13 -0.488518 -2.755602 -0.228260 -1.085960 -0.191560 -0.439285
    14 0.039887 -1.479790 0.029854 -0.928033 0.000000 0.000001
    15 0.028786 -1.075731 -0.023109 -1.481385 0.000000 0.000000
    16 0.250027 -2.820665 -0.238396 -0.892857 -0.160399 -0.409460
    17 -0.049759 -1.680544 0.100479 -1.289132 0.000000 -0.000002
    18 -0.034142 -1.148312 0.084782 -1.087281 0.000000 0.000000
    19 0.957766 -2.746780 -0.090302 -0.417462 -0.375878 -0.028335
    20 -0.033420 -1.397129 -0.011257 -0.691853 0.124808 -0.122316
    21 -0.022360 -0.957436 0.018784 -0.519750 0.000000 0.000000
    22 -1.180681 -2.507217 -0.193859 -0.873937 -0.068285 -0.359963
    23 -0.024967 -1.123934 0.017597 -1.152494 0.000000 0.000001
    24 -0.020057 -0.890968 0.010090 -0.933434 0.000000 0.000000
    25 0.583510 -1.197277 0.185379 0.631272 -1.323162 -0.918176
    26 1.535927 0.010246 0.005009 0.412032 -0.211024 -1.135295
    27 1.100771 0.004527 -0.010679 -0.011449 0.011491 -0.607431
    28 0.120153 -0.050270 -0.054489 0.287569 3.110905 1.561085
    29 -2.138013 -8.000876 -10.814113 -0.907760 -5.830949 -0.616991
    30 0.096944 -8.450418 -0.009365 -0.061404 -0.169263 -0.007209
    31 0.447953 -2.798986 -0.200443 -0.308565 -0.128252 -0.046649
    32 -0.032909 -1.480204 0.004940 -0.966396 0.000000 0.000002
    33 -0.027022 -1.076920 -0.020210 -1.481391 0.000000 0.000000
    34 -0.249534 -2.846964 -0.174213 -0.175748 -0.135815 -0.084786
    35 0.043235 -1.683941 0.096012 -0.634374 0.002823 -0.000167
    36 0.031729 -1.160830 0.058838 -1.436444 0.000642 0.008372
    37 -0.963866 -2.785145 -0.085350 0.231898 -0.035925 -0.239075
    38 0.028479 -1.403067 0.006271 -0.432708 0.000000 0.000000
    39 0.021413 -0.957781 0.020046 -0.432694 0.000000 0.000000
    40 1.164475 -2.543940 -0.170330 -0.235566 -0.306425 0.042666
    41 0.024032 -1.129042 0.017807 -0.654940 0.000000 0.000001
    42 0.014898 -0.883989 -0.019848 -1.052873 0.000000 0.000000
    43 -0.586770 -1.264477 0.200161 -0.223604 -0.377828 -2.629091
    44 1.522835 0.058681 0.016848 -0.048470 0.126626 0.551388
    45 1.117947 0.048424 -0.005766 -0.004605 -0.024779 0.239992
    46 -0.139399 -0.111698 0.014397 0.285382 -0.030687 1.580508
    47 -1.393470 8.839177 -0.239433 1.580804 -0.005023 -1.566847
  time 19
    0 -0.027345 0.000000 -0.085940 -0.023261 0.004075 0.040263
    1 8.076060 0.107018 -10.434076 4.403925 -1.202158 1.349637
    2 -0.071918 -8.498688 -0.104136 0.228111 0.233399 0.008354
    3 1.519834 -2.041238 1.521770 0.112947 0.226772 3.118949
    4 0.600319 2.058404 0.000000 0.000000 0.000000 0.000000
    5 -0.067739 10.600758 -0.000006 1.570788 0.000000 1.570797
    6 -0.754633 -3.610986 0.631774 0.000000 0.000001 1.570796
    7 16.988171 -18.490994 1.113309 0.283698 0.000001 1.570795
    8 17.379878 -17.838315 0.339848 0.009636 0.030196 1.589897
    9 18.638801 -18.096136 -0.000006 0.000000 0.000001 1.570796
    10 -2.170493 -0.230590 1.064516 0.000000 0.000001 1.570796
    11 -2.377869 -0.175295 -0.000004 0.000000 0.000001 1.570796
    12 1.257180 8.762585 -0.153713 -1.570562 0.002683 -1.566807
    13 -0.488518 -2.755602 -0.228260 -1.085960 -0.191560 -0.439285
    14 0.039887 -1.479790 0.029854 -0.928033 0.000000 0.000001
    15 0.028786 -1.075731 -0.023109 -1.481385 0.000000 0.000000
    16 0.250027 -2.820665 -0.238396 -0.892857 -0.160399 -0.409460
    17 -0.049759 -1.680544 0.100479 -1.289132 0.000000 -0.000002
    18 -0.034142 -1.148312 0.084782 -1.087281 0.000000 0.000000
    19 0.957766 -2.746780 -0.090302 -0.417462 -0.375878 -0.028335
    20 -0.033420 -1.397129 -0.011257 -0.691853 0.124808 -0.122316
    21 -0.022360 -0.957436 0.018784 -0.519750 0.000000 0.000000
    22 -1.180681 -2.507217 -0.193859 -0.873937 -0.068285 -0.359963
    23 -0.024967 -1.123934 0.017597 -1.152494 0.000000 0.000001
    24 -0.020057 -0.890968 0.010090 -0.933434 0.000000 0.000000
    25 0.583510 -1.197277 0.185379 0.631272 -1.323162 -0.918176
    26 1.535927 0.010246 0.005009 0.412032 -0.211024 -1.135295
    27 1.100771 0.004527 -0.010679 -0.011449 0.011491 -0.607431
    28 0.120153 -0.050270 -0.054489 0.287569 3.110905 1.561085
    29 -1.852848 -8.215726 -10.474259 -0.801220 -5.868533 -0.349192
    30 0.096944 -8.450418 -0.009365 -0.069111 -0.166142 0.039290
    31 0.447953 -2.798986 -0.200443 -0.326553 -0.127749 -0.046877
    32 -0.032909 -1.480204 0.004940 -0.920173 0.000000 0.000002
    33 -0.027022 -1.076920 -0.020210 -1.481391 0.000000 0.000000
    34 -0.249534 -2.846964 -0.174213 -0.201777 -0.135815 -0.084786
    35 0.043235 -1.683941 0.096012 -0.705602 0.002823 -0.000167
    36 0.031729 -1.160830 0.058838 -1.436444 0.000642 0.008372
    37 -0.963866 -2.785145 -0.085350 0.216713 -0.035925 -0.239075
    38 0.028479 -1.403067 0.006271 -0.440434 0.000000 0.000000
    39 0.021413 -0.957781 0.020046 -0.611812 0.000000 0.000000
    40 1.164475 -2.543940 -0.170330 -0.258848 -0.306425 0.042666
    41 0.024032 -1.129042 0.017807 -0.635444 0.000000 0.000001
    42 0.014898 -0.883989 -0.019848 -1.052873 0.000000 0.000000
    43 -0.586770 -1.264477 0.200161 -0.223592 -0.377828 -2.629091
    44 1.522835 0.058681 0.016848 -0.048470 0.126626 0.551388
    45 1.117947 0.048424 -0.005766 -0.004605 -0.024779 0.239992
    46 -0.139399 -0.111698 0.014397 0.285382 -0.030687 1.580508
    47 -1.393470 8.839177 -0.239433 1.580804 -0.005023 -1.566847
  time 20
    0 0.000000 0.000000 0.000000 -0.015673 0.002756 0.027100
    1 7.970588 1.884416 -9.238727 4.408230 -1.303341 1.478195
    2 -0.071918 -8.498688 -0.104136 0.230563 0.231757 0.017463
    3 1.519834 -2.041238 1.521770 0.112947 0.226772 3.118949
    4 0.600319 2.058404 0.000000 0.000000 0.000000 0.000000
    5 -0.067739 10.600758 -0.000006 1.570788 0.000000 1.570797
    6 -0.754633 -3.610986 0.631774 0.000000 0.000001 1.570796
    7 17.019421 -18.358177 0.738298 0.187438 0.000001 1.570795
    8 17.547852 -17.928162 0.222657 0.006280 0.019688 1.583250
    9 18.638801 -18.096136 -0.000006 0.000000 0.000001 1.570796
    10 -2.170493 -0.230590 1.064516 0.000000 0.000001 1.570796
    11 -2.377869 -0.175295 -0.000004 0.000000 0.000001 1.570796
    12 1.257180 8.762585 -0.153713 -1.570562 0.002683 -1.566807
    13 -0.488518 -2.755602 -0.228260 -1.085960 -0.191560 -0.439285
    14 0.039887 -1.479790 0.029854 -0.928033 0.000000 0.000001
    15 0.028786 -1.075731 -0.023109 -1.481385 0.000000 0.000000
    16 0.250027 -2.820665 -0.238396 -0.892857 -0.160399 -0.409460
    17 -0.049759 -1.680544 0.100479 -1.289132 0.000000 -0.000002
    18 -0.034142 -1.148312 0.084782 -1.087313 0.000000 0.000000
    19 0.957766 -2.746780 -0.090302 -0.417462 -0.375878 -0.028335
    20 -0.033420 -1.397129 -0.011257 -0.691853 0.124808 -0.122316
    21 -0.022360 -0.957436 0.018784 -0.519750 0.000000 0.000000
    22 -1.180681 -2.507217 -0.193859 -0.873937 -0.068285 -0.359963
    23 -0.024967 -1.123934 0.017597 -1.152494 0.000000 0.000001
    24 -0.020057 -0.890968 0.010090 -0.933434 0.000000 0.000000
    25 0.583510 -1.197277 0.185379 0.631272 -1.323162 -0.918176
    26 1.535927 0.010246 0.005009 0.412032 -0.211024 -1.135295
    27 1.100771 0.004527 -0.010679 -0.011449 0.011491 -0.607431
    28 0.120153 -0.050270 -0.054489 0.287569 3.110905 1.561085
    29 -1.567683 -8.434483 -10.173469 -0.704600 -5.919574 -0.094510
    30 0.096944 -8.450418 -0.009365 -0.080268 -0.161365 0.107081
    31 0.447953 -2.798986 -0.200443 -0.342356 -0.127330 -0.047069
    32 -0.032909 -1.480204 0.004940 -0.880357 0.000000 0.000002
    33 -0.027022 -1.076920 -0.020210 -1.481391 0.000000 0.000000
    34 -0.249534 -2.846964 -0.174213 -0.224639 -0.135815 -0.084786
    35 0.043235 -1.683941 0.096012 -0.776793 0.002823 -0.000167
    36 0.031729 -1.160830 0.058838 -1.436444 0.000642 0.008372
    37 -0.963866 -2.785145 -0.085350 0.203366 -0.035925 -0.239075
    38 0.028479 -1.403067 0.006271 -0.447052 0.000000 0.000000
    39 0.021413 -0.957781 0.020046 -0.790893 0.000000 0.000000
    40 1.164475 -2.543940 -0.170330 -0.279330 -0.306425 0.042666
    41 0.024032 -1.129042 0.017807 -0.619008 0.000000 0.000001
    42 0.014898 -0.883989 -0.019848 -1.052873 0.000000 0.000000
    43 -0.586770 -1.264477 0.200161 -0.223592 -0.377828 -2.629091
    44 1.522835 0.058681 0.016848 -0.048470 0.126626 0.551388
    45 1.117947 0.048424 -0.005766 -0.004605 -0.024779 0.239992
    46 -0.139399 -0.111698 0.014397 0.285382 -0.030687 1.580508
    47 -1.393470 8.839177 -0.239433 1.580804 -0.005023 -1.566847
  time 21
    0 0.000000 0.000000 0.000000 -0.009257 0.001630 0.015979
    1 7.880742 3.427431 -8.195727 1.270468 -1.750290 -1.551665
    2 -0.071918 -8.498688 -0.104136 0.232096 0.230738 0.023047
    3 1.519834 -2.041238 1.521770 0.112947 0.226772 3.118949
    4 0.600319 2.058404 0.000000 0.000000 0.000000 0.000000
    5 -0.067739 10.600758 -0.000006 1.570788 0.000000 1.570797
    6 -0.754633 -3.610986 0.631774 0.000000 0.000001 1.570796
    7 17.046766 -18.248799 0.425788 0.108724 0.000001 1.570795
    8 17.680668 -17.998476 0.124998 0.003595 0.011265 1.577922
    9 18.638801 -18.096136 -0.000006 0.000000 0.000001 1.570796
    10 -2.170493 -0.230590 1.064516 0.000000 0.000001 1.570796
    11 -2.377869 -0.175295 -0.000004 0.000000 0.000001 1.570796
    12 1.257180 8.762585 -0.153713 -1.570562 0.002683 -1.566807
    13 -0.488518 -2.755602 -0.228260 -1.085960 -0.191560 -0.439285
    14 0.039887 -1.479790 0.029854 -0.928033 0.000000 0.000001
    15 0.028786 -1.075731 -0.023109 -1.481385 0.000000 0.000000
    16 0.250027 -2.820665 -0.238396 -0.892857 -0.160399 -0.409460
    17 -0.049759 -1.680544 0.100479 -1.289132 0.000000 -0.000002
    18 -0.034142 -1.148312 0.084782 -1.087281 0.000000 0.000000
    19 0.957766 -2.746780 -0.090302 -0.417462 -0.375878 -0.028335
    20 -0.033420 -1.397129 -0.011257 -0.691853 0.124808 -0.122316
    21 -0.022360 -0.957436 0.018784 -0.519750 0.000000 0.000000
    22 -1.180681 -2.507217 -0.193859 -0.873937 -0.068285 -0.359963
    23 -0.024967 -1.123934 0.017597 -1.152494 0.000000 0.000001
    24 -0.020057 -0.890968 0.010090 -0.933434 0.000000 0.000000
    25 0.583510 -1.197277 0.185379 0.631272 -1.323162 -0.918176
    26 1.535927 0.010246 0.005009 0.412032 -0.211024 -1.135295
    27 1.100771 0.004527 -0.010679 -0.011449 0.011491 -0.607431
    28 0.120153 -0.050270 -0.054489 0.287569 3.110905 1.561085
    29 -1.302050 -8.629801 -9.915648 -0.600826 -5.986019 0.187184
    30 0.096944 -8.450418 -0.009365 -0.085973 -0.158903 0.141756
    31 0.447953 -2.798986 -0.200443 -0.355506 -0.126982 -0.047224
    32 -0.032909 -1.480204 0.004940 -0.847771 0.000000 0.000002
    33 -0.027022 -1.076920 -0.020210 -1.481391 0.000000 0.000000
    34 -0.249534 -2.846964 -0.174213 -0.243637 -0.135815 -0.084786
    35 0.043235 -1.683941 0.096012 -0.842251 0.002823 -0.000167
    36 0.031729 -1.160830 0.058838 -1.436444 0.000642 0.008372
    37 -0.963866 -2.785145 -0.085350 0.192295 -0.035925 -0.239075
    38 0.028479 -1.403067 0.006271 -0.452489 0.000000 0.000000
    39 0.021413 -0.957781 0.020046 -0.955482 0.000000 0.000000
    40 1.164475 -2.543940 -0.170330 -0.296332 -0.306425 0.042666
    41 0.024032 -1.129042 0.017807 -0.605829 0.000000 0.000001
    42 0.014898 -0.883989 -0.019848 -1.052873 0.000000 0.000000
    43 -0.586770 -1.264477 0.200161 -0.223592 -0.377828 -2.629091
    44 1.522835 0.058681 0.016848 -0.048470 0.126626 0.551388
    45 1.117947 0.048424 -0.005766 -0.004605 -0.024779 0.239992
    46 -0.139399 -0.111698 0.014397 0.285382 -0.030687 1.580508
    47 -1.393470 8.839177 -0.239433 1.580804 -0.005023 -1.566847
  time 22
    0 0.000000 0.000000 0.000000 -0.004306 0.000743 0.007437
    1 7.806521 4.646219 -7.375389 1.273337 -1.680935 -1.463549
    2 -0.071918 -8.498688 -0.104136 0.232904 0.230199 0.025996
    3 1.519834 -2.041238 1.521770 0.112947 0.226772 3.118949
    4 0.600319 2.058404 0.000000 0.000000 0.000000 0.000000
    5 -0.067739 10.600758 -0.000006 1.570788 0.000000 1.570797
    6 -0.754633 -3.610986 0.631774 0.000000 0.000001 1.570796
    7 17.066298 -18.162859 0.195312 0.049760 0.000001 1.570795
    8 17.778327 -18.049259 0.054683 0.001630 0.005091 1.574016
    9 18.638801 -18.096136 -0.000006 0.000000 0.000001 1.570796
    10 -2.170493 -0.230590 1.064516 0.000000 0.000001 1.570796
    11 -2.377869 -0.175295 -0.000004 0.000000 0.000001 1.570796
    12 1.257180 8.762585 -0.153713 -1.570562 0.002683 -1.566807
    13 -0.488518 -2.755602 -0.228260 -1.085960 -0.191560 -0.439285
    14 0.039887 -1.479790 0.029854 -0.928033 0.000000 0.000001
    15 0.028786 -1.075731 -0.023109 -1.481385 0.000000 0.000000
    16 0.250027 -2.820665 -0.238396 -0.892857 -0.160399 -0.409460
    17 -0.049759 -1.680544 0.100479 -1.289132 0.000000 -0.000002
    18 -0.034142 -1.148312 0.084782 -1.087281 0.000000 0.000000
    19 0.957766 -2.746780 -0.090302 -0.417462 -0.375878 -0.028335
    20 -0.033420 -1.397129 -0.011257 -0.691853 0.124808 -0.122316
    21 -0.022360 -0.957436 0.018784 -0.519750 0.000000 0.000000
    22 -1.180681 -2.507217 -0.193859 -0.873937 -0.068285 -0.359963
    23 -0.024967 -1.123934 0.017597 -1.152494 0.000000 0.000001
    24 -0.020057 -0.890968 0.010090 -0.933434 0.000000 0.000000
    25 0.583510 -1.197277 0.185379 0.631272 -1.323162 -0.918176
    26 1.535927 0.010246 0.005009 0.412032 -0.211024 -1.135295
    27 1.100771 0.004527 -0.010679 -0.011449 0.011491 -0.607431
    28 0.120153 -0.050270 -0.054489 0.287569 3.110905 1.561085
    29 -1.087200 -8.793869 -9.720330 -0.506303 -6.052557 0.447821
    30 0.096944 -8.450418 -0.009365 -0.081467 -0.161101 0.113877
    31 0.447953 -2.798986 -0.200443 -0.365504 -0.126730 -0.047344
    32 -0.032909 -1.480204 0.004940 -0.823400 0.000000 0.000002
    33 -0.027022 -1.076920 -0.020210 -1.481391 0.000000 0.000000
    34 -0.249534 -2.846964 -0.174213 -0.258097 -0.135815 -0.084786
    35 0.043235 -1.683941 0.096012 -0.896169 0.002823 -0.000167
    36 0.031729 -1.160830 0.058838 -1.436444 0.000642 0.008372
    37 -0.963866 -2.785145 -0.085350 0.183859 -0.035925 -0.239075
    38 0.028479 -1.403067 0.006271 -0.456566 0.000000 0.000000
    39 0.021413 -0.957781 0.020046 -1.091013 0.000000 0.000000
    40 1.164475 -2.543940 -0.170330 -0.309288 -0.306425 0.042666
    41 0.024032 -1.129042 0.017807 -0.596204 0.000000 0.000001
    42 0.014898 -0.883989 -0.019848 -1.052873 0.000000 0.000000
    43 -0.586770 -1.264477 0.200161 -0.223604 -0.377828 -2.629091
    44 1.522835 0.058681 0.016848 -0.048470 0.126626 0.551388
    45 1.117947 0.048424 -0.005766 -0.004605 -0.024779 0.239992
    46 -0.139399 -0.111698 0.014397 0.285382 -0.030687 1.580508
    47 -1.393470 8.839177 -0.239433 1.580804 -0.005023 -1.566847
  time 23
    0 0.000000 0.000000 0.000000 -0.001113 0.000192 0.001903
    1 7.759645 5.443118 -6.836310 1.275250 -1.635393 -1.405698
    2 -0.071918 -8.498688 -0.104136 0.233210 0.229995 0.027134
    3 1.519834 -2.041238 1.521770 0.112947 0.226772 3.118949
    4 0.600319 2.058404 0.000000 0.000000 0.000000 0.000000
    5 -0.067739 10.600758 -0.000006 1.570788 0.000000 1.570797
    6 -0.754633 -3.610986 0.631774 0.000000 0.000001 1.570796
    7 17.078017 -18.112076 0.046870 0.012752 0.000001 1.570795
    8 17.836923 -18.084417 0.011713 0.000407 0.001289 1.571611
    9 18.638801 -18.096136 -0.000006 0.000000 0.000001 1.570796
    10 -2.170493 -0.230590 1.064516 0.000000 0.000001 1.570796
    11 -2.377869 -0.175295 -0.000004 0.000000 0.000001 1.570796
    12 1.257180 8.762585 -0.153713 -1.570562 0.002683 -1.566807
    13 -0.488518 -2.755602 -0.228260 -1.085960 -0.191560 -0.439285
    14 0.039887 -1.479790 0.029854 -0.928033 0.000000 0.000001
    15 0.028786 -1.075731 -0.023109 -1.481385 0.000000 0.000000
    16 0.250027 -2.820665 -0.238396 -0.892857 -0.160399 -0.409460
    17 -0.049759 -1.680544 0.100479 -1.289132 0.000000 -0.000002
    18 -0.034142 -1.148312 0.084782 -1.087281 0.000000 0.000000
    19 0.957766 -2.746780 -0.090302 -0.417462 -0.375878 -0.028335
    20 -0.033420 -1.397129 -0.011257 -0.691853 0.124808 -0.122316
    21 -0.022360 -0.957436 0.018784 -0.519750 0.000000 0.000000
    22 -1.180681 -2.507217 -0.193859 -0.873937 -0.068285 -0.359963
    23 -0.024967 -1.123934 0.017597 -1.152494 0.000000 0.000001
    24 -0.020057 -0.890968 0.010090 -0.933434 0.000000 0.000000
    25 0.583510 -1.197277 0.185379 0.631272 -1.323162 -0.918176
    26 1.535927 0.010246 0.005009 0.412032 -0.211024 -1.135295
    27 1.100771 0.004527 -0.010679 -0.011449 0.011491 -0.607431
    28 0.120153 -0.050270 -0.054489 0.287569 3.110905 1.561085
    29 -0.942664 -8.903247 -9.595326 -0.437534 -6.103783 0.639414
    30 0.096944 -8.450418 -0.009365 -0.073101 -0.165189 0.062119
    31 0.447953 -2.798986 -0.200443 -0.371846 -0.126563 -0.047416
    32 -0.032909 -1.480204 0.004940 -0.808065 0.000000 0.000002
    33 -0.027022 -1.076920 -0.020210 -1.481391 0.000000 0.000000
    34 -0.249534 -2.846964 -0.174213 -0.267272 -0.135815 -0.084786
    35 0.043235 -1.683941 0.096012 -0.932738 0.002823 -0.000167
    36 0.031729 -1.160830 0.058838 -1.436444 0.000642 0.008372
    37 -0.963866 -2.785145 -0.085350 0.178494 -0.035925 -0.239075
    38 0.028479 -1.403067 0.006271 -0.459106 0.000000 0.000000
    39 0.021413 -0.957781 0.020046 -1.182994 0.000000 0.000000
    40 1.164475 -2.543940 -0.170330 -0.317492 -0.306425 0.042666
    41 0.024032 -1.129042 0.017807 -0.590232 0.000000 0.000001
    42 0.014898 -0.883989 -0.019848 -1.052873 0.000000 0.000000
    43 -0.586770 -1.264477 0.200161 -0.223604 -0.377828 -2.629091
    44 1.522835 0.058681 0.016848 -0.048470 0.126626 0.551388
    45 1.117947 0.048424 -0.005766 -0.004605 -0.024779 0.239992
    46 -0.139399 -0.111698 0.014397 0.285382 -0.030687 1.580508
    47 -1.393470 8.839177 -0.239433 1.580804 -0.005023 -1.566847
  time 24
    0 0.000000 0.000000 0.000000 0.000000 0.000000 -0.000031
    1 7.744019 5.728283 -6.644898 1.275920 -1.619072 -1.384986
    2 -0.071918 -8.498688 -0.104136 0.233266 0.229959 0.027314
    3 1.519834 -2.041238 1.521770 0.112947 0.226772 3.118949
    4 0.600319 2.058404 0.000000 0.000000 0.000000 0.000000
    5 -0.067739 10.600758 -0.000006 1.570788 0.000000 1.570797
    6 -0.754633 -3.610986 0.631774 0.000000 0.000001 1.570796
    7 17.081923 -18.096451 -0.000006 0.000000 0.000001 1.570795
    8 17.860361 -18.096136 -0.000006 0.000000 0.000001 1.570796
    9 18.638801 -18.096136 -0.000006 0.000000 0.000001 1.570796
    10 -2.170493 -0.230590 1.064516 0.000000 0.000001 1.570796
    11 -2.377869 -0.175295 -0.000004 0.000000 0.000001 1.570796
    12 1.257180 8.762585 -0.153713 -1.570562 0.002683 -1.566807
    13 -0.488518 -2.755602 -0.228260 -1.085960 -0.191560 -0.439285
    14 0.039887 -1.479790 0.029854 -0.928033 0.000000 0.000001
    15 0.028786 -1.075731 -0.023109 -1.481385 0.000000 0.000000
    16 0.250027 -2.820665 -0.238396 -0.892857 -0.160399 -0.409460
    17 -0.049759 -1.680544 0.100479 -1.289132 0.000000 -0.000002
    18 -0.034142 -1.148312 0.084782 -1.087281 0.000000 0.000000
    19 0.957766 -2.746780 -0.090302 -0.417462 -0.375878 -0.028335
    20 -0.033420 -1.397129 -0.011257 -0.691853 0.124808 -0.122316
    21 -0.022360 -0.957436 0.018784 -0.519750 0.000000 0.000000
    22 -1.180681 -2.507217 -0.193859 -0.873937 -0.068285 -0.359963
    23 -0.024967 -1.123934 0.017597 -1.152494 0.000000 0.000001
    24 -0.020057 -0.890968 0.010090 -0.933434 0.000000 0.000000
    25 0.583510 -1.197277 0.185379 0.631272 -1.323162 -0.918176
    26 1.535927 0.010246 0.005009 0.412032 -0.211024 -1.135295
    27 1.100771 0.004527 -0.010679 -0.011449 0.011491 -0.607431
    28 0.120153 -0.050270 -0.054489 0.287569 3.110905 1.561085
    29 -0.887975 -8.942311 -9.552356 -0.410971 -6.124292 0.713894
    30 0.096944 -8.450418 -0.009365 -0.068595 -0.167388 0.034261
    31 0.447953 -2.798986 -0.200443 -0.374068 -0.126515 -0.047440
    32 -0.032909 -1.480204 0.004940 -0.802807 0.000000 0.000002
    33 -0.027022 -1.076920 -0.020210 -1.481391 0.000000 0.000000
    34 -0.249534 -2.846964 -0.174213 -0.270488 -0.135815 -0.084786
    35 0.043235 -1.683941 0.096012 -0.946190 0.002823 -0.000167
    36 0.031729 -1.160830 0.058838 -1.436444 0.000642 0.008372
    37 -0.963866 -2.785145 -0.085350 0.176617 -0.035925 -0.239075
    38 0.028479 -1.403067 0.006271 -0.460000 0.000000 0.000000
    39 0.021413 -0.957781 0.020046 -1.216858 0.000000 0.000000
    40 1.164475 -2.543940 -0.170330 -0.320378 -0.306425 0.042666
    41 0.024032 -1.129042 0.017807 -0.588208 0.000000 0.000001
    42 0.014898 -0.883989 -0.019848 -1.052873 0.000000 0.000000
    43 -0.586770 -1.264477 0.200161 -0.223604 -0.377828 -2.629091
    44 1.522835 0.058681 0.016848 -0.048470 0.126626 0.551388
    45 1.117947 0.048424 -0.005766 -0.004605 -0.024779 0.239992
    46 -0.139399 -0.111698 0.014397 0.285382 -0.030687 1.580508
    47 -1.393470 8.839177 -0.239433 1.580804 -0.005023 -1.566847
  time 25
    0 0.000000 0.000000 0.000000 0.000000 0.000000 -0.000031
    1 7.744019 5.728283 -6.644898 1.275920 -1.619072 -1.384986
    2 -0.071918 -8.498688 -0.104136 0.233266 0.229959 0.027314
    3 1.519834 -2.041238 1.521770 0.112947 0.226772 3.118949
    4 0.600319 2.058404 0.000000 0.000000 0.000000 0.000000
    5 -0.067739 10.600758 -0.000006 1.570788 0.000000 1.570797
    6 -0.754633 -3.610986 0.631774 0.000000 0.000001 1.570796
    7 17.081923 -18.096451 -0.000006 0.000000 0.000001 1.570795
    8 17.860361 -18.096136 -0.000006 0.000000 0.000001 1.570796
    9 18.638801 -18.096136 -0.000006 0.000000 0.000001 1.570796
    10 -2.170493 -0.230590 1.064516 0.000000 0.000001 1.570796
    11 -2.377869 -0.175295 -0.000004 0.000000 0.000001 1.570796
    12 1.257180 8.762585 -0.153713 -1.570562 0.002683 -1.566807
    13 -0.488518 -2.755602 -0.228260 -1.085960 -0.191560 -0.439285
    14 0.039887 -1.479790 0.029854 -0.928033 0.000000 0.000001
    15 0.028786 -1.075731 -0.023109 -1.481385 0.000000 0.000000
    16 0.250027 -2.820665 -0.238396 -0.892857 -0.160399 -0.409460
    17 -0.049759 -1.680544 0.100479 -1.289132 0.000000 -0.000002
    18 -0.034142 -1.148312 0.084782 -1.087281 0.000000 0.000000
    19 0.957766 -2.746780 -0.090302 -0.417462 -0.375878 -0.028335
    20 -0.033420 -1.397129 -0.011257 -0.691853 0.124808 -0.122316
    21 -0.022360 -0.957436 0.018784 -0.519750 0.000000 0.000000
    22 -1.180681 -2.507217 -0.193859 -0.873937 -0.068285 -0.359963
    23 -0.024967 -1.123934 0.017597 -1.152494 0.000000 0.000001
    24 -0.020057 -0.890968 0.010090 -0.933434 0.000000 0.000000
    25 0.583510 -1.197277 0.185379 0.631272 -1.323162 -0.918176
    26 1.535927 0.010246 0.005009 0.412032 -0.211024 -1.135295
    27 1.100771 0.004527 -0.010679 -0.011449 0.011491 -0.607431
    28 0.120153 -0.050270 -0.054489 0.287569 3.110905 1.561085
    29 -0.887975 -8.942311 -9.552356 -0.410971 -6.124292 0.713894
    30 0.096944 -8.450418 -0.009365 -0.068595 -0.167388 0.034261
    31 0.447953 -2.798986 -0.200443 -0.374068 -0.126515 -0.047440
    32 -0.032909 -1.480204 0.004940 -0.802807 0.000000 0.000002
    33 -0.027022 -1.076920 -0.020210 -1.481391 0.000000 0.000000
    34 -0.249534 -2.846964 -0.174213 -0.270488 -0.135815 -0.084786
    35 0.043235 -1.683941 0.096012 -0.946190 0.002823 -0.000167
    36 0.031729 -1.160830 0.058838 -1.436444 0.000642 0.008372
    37 -0.963866 -2.785145 -0.085350 0.176617 -0.035925 -0.239075
    38 0.028479 -1.403067 0.006271 -0.460000 0.000000 0.000000
    39 0.021413 -0.957781 0.020046 -1.216858 0.000000 0.000000
    40 1.164475 -2.543940 -0.170330 -0.320378 -0.306425 0.042666
    41 0.024032 -1.129042 0.017807 -0.588208 0.000000 0.000001
    42 0.014898 -0.883989 -0.019848 -1.052873 0.000000 0.000000
    43 -0.586770 -1.264477 0.200161 -0.223604 -0.377828 -2.629091
    44 1.522835 0.058681 0.016848 -0.048470 0.126626 0.551388
    45 1.117947 0.048424 -0.005766 -0.004605 -0.024779 0.239992
    46 -0.139399 -0.111698 0.014397 0.285382 -0.030687 1.580508
    47 -1.393470 8.839177 -0.239433 1.580804 -0.005023 -1.566847
end
