// Created by Crowbar 0.34.0.0

$ModelName "weapons/tfa_cso/w_desperado_men_v6.mdl"

$BodyGroup "studio"
{
	studio "v_desperado_d3a3_v_refm"
}

$collisionmodel "v_desperado_d3a3_v_refm.smd"
{
	$mass 9
}

$CDMaterials "models\weapons\tfa_cso\desperado_v6"

$attachment "0" "root" -0.10 -10.10 -1.00 rotate -0 0 0
$attachment "1" "root" 20.10 -5.00 4.00 rotate -0 0 0
$attachment "2" "root" 20.10 -5.00 4.00 rotate -0 0 0
$attachment "3" "root" 20.10 -5.00 4.00 rotate -0 0 0
$attachment "4" "root" 20.10 -5.00 4.00 rotate -0 0 0
$attachment "5" "root" 20.10 -5.00 4.00 rotate -0 0 0

$Sequence "idle" {
	"anims\idle.smd"
	fps 30
}