// Created by Crowbar 0.49.0.0

$modelname "weapons/tfa_cso/c_skull5.mdl"

$Include "csonline_gmod.qci"

$bodygroup "weapon"
{
	studio "v_skull5_ref_skull5"
}

$CDMaterials "models\weapons\tfa_cso\skull5\"

$attachment 0 "M14_Bone07" 0 -33.345001 0
//$attachment 1 "M14_Bone12" 0 0 1

$definebone "Bone01" "" 0.497702 15.031928 -10.765800 -0.012834 -89.771431 179.847612 0.000000 0.000000 -0.000001 0.000000 0.000000 -0.000000
$definebone "Bone_Lefthand" "Bone01" -0.072132 -8.498729 -0.104136 16.477755 0.853593 -1.435030 0.000000 0.000001 0.000000 0.000005 0.000000 -0.000000
$definebone "Bone17" "Bone_Lefthand" 0.250027 -2.820662 -0.238397 -0.167356 0.483748 2.396453 -0.000002 0.000001 0.000000 0.000004 -0.000000 -0.000000
$definebone "M14_Bone02" "Bone17" 3.230214 11.643132 -10.823133 -0.640831 -91.044920 -163.647154 -0.000000 0.000000 0.000000 0.000000 -0.000000 -0.000005
$definebone "M14_Bone06" "M14_Bone02" 0.000004 7.330805 -0.181575 0.000000 -0.000000 -0.000005 0.000000 0.000000 0.000000 0.000000 -0.000000 -0.000005
$definebone "M14_Bone07" "M14_Bone06" -0.000006 -4.491440 2.746747 0.000000 -0.000000 -0.000005 -0.000000 0.000000 0.000000 0.000000 -0.000000 -0.000005
$definebone "M14_Bone04" "M14_Bone02" -0.000006 -5.215600 0.521221 0.000000 -0.000000 -0.000005 0.000000 0.000000 0.000000 0.000000 -0.000000 -0.000005
$definebone "M14_Bone03" "M14_Bone02" -0.000004 -2.584792 0.626897 0.000000 -0.000000 -0.000005 0.000000 0.000000 0.000000 0.000000 -0.000000 -0.000005
$definebone "M14_Bone08" "M14_Bone02" -0.000006 -3.113141 3.685756 0.000000 -0.000000 -0.000005 0.000000 0.000000 0.000000 0.000000 -0.000000 -0.000005
$definebone "M14_Bone05" "M14_Bone02" -0.000007 -7.713655 -1.563224 0.000000 -0.000000 -0.000005 0.000000 0.000000 0.000000 0.000000 -0.000000 -0.000005
$definebone "M14_Bone12" "M14_Bone05" -0.000001 -0.041039 4.583956 0.000000 -0.000000 -0.000005 0.000000 0.000000 0.000000 0.000000 -0.000000 -0.000005
$definebone "M14_Bone09" "M14_Bone02" -1.112914 -8.867437 2.842190 0.000000 -0.000000 -0.000005 0.000000 0.000000 0.000000 0.000000 -0.000000 -0.000005
$definebone "M14_Bone10" "M14_Bone09" 1.112910 1.686673 0.481230 0.000000 -0.000000 -0.000005 0.000000 0.000000 0.000000 0.000000 -0.000000 -0.000005

$sequence "idle1" {
	"v_skull5_anims\idle1"
	fps 20
	activity "ACT_VM_IDLE" 1
	snap
	loop
}
$sequence "reload" {
	"v_skull5_anims\reload"
	{ event 5004 13 "Skull5.ClipOut" }
	{ event 5004 27 "Skull5.ClipIn" }
	{ event 5004 43 "Skull5.Boltpull" }
	fps 30
	activity "ACT_VM_RELOAD" 1
	snap
}
$sequence "draw" {
	"v_skull5_anims\draw"
	{ event 5004 12 "Skull5.Draw" }
	fps 30
	activity "ACT_VM_DRAW" 1
	snap
}
$sequence "shoot1" {
	"v_skull5_anims\shoot1"
	{ event 5001 0 "22" }
	fps 30
	activity "ACT_VM_PRIMARYATTACK" 1
	snap
}
$sequence "shoot2" {
	"v_skull5_anims\shoot2"
	{ event 5001 0 "22" }
	fps 30
	activity "ACT_VM_PRIMARYATTACK" 2
	snap
}
