// Created by Crowbar 0.58

$modelname "weapons/tfa_cso/c_cold_steel_knife.mdl"

$Include "csonline_gmod.qci"

$bodygroup "weapon"
{
	studio "v_knife_w_reference"
}

$CDMaterials "models\weapons\tfa_cso\cold_steel_knife"

$definebone "Bone04" "" -8.214167 -4.486001 3.030414 0.000000 0.000000 0.000000 0.000000 0.000000 0.000000 -0.000000 0.000000 0.000000
$definebone "Bone_Righthand" "Bone04" 0.096946 -8.450418 -0.009361 -0.000000 0.000000 0.000000 0.000000 0.000000 0.000000 -0.000000 0.000000 0.000000
$definebone "Pyramid01" "Bone_Righthand" 4.128153 -2.269996 0.593499 -0.000000 0.000000 -0.000057 0.000000 0.000000 0.000000 -0.000000 0.000000 0.000000
$definebone "Woman_knife01" "Pyramid01" 0.000000 -0.000001 -0.257390 -0.000000 0.000000 0.000057 0.000000 0.000000 0.000000 -0.000000 0.000000 0.000000

$sequence "idle" {
	"v_knife_w_anims\idle"
	fps 12
	activity "ACT_VM_IDLE" 1
	snap
	loop
}
$sequence "slash1" {
	"v_knife_w_anims\slash1"
	fps 30
}
$sequence "slash2" {
	"v_knife_w_anims\slash2"
	fps 30
}
$sequence "draw" {
	"v_knife_w_anims\draw"
	{ event 5004 0 "ColdSteelKnife.Draw" }
	fps 30
	activity "ACT_VM_DRAW" 1
	snap
}
$sequence "stab" {
	"v_knife_w_anims\stab"
	{ event 5004 5 "ColdSteelKnife.Slash2" }
	fps 35
	activity "ACT_VM_MISSLEFT" 1
	snap
}
$sequence "stab_miss" {
	"v_knife_w_anims\stab_miss"
	fps 40
}
$sequence "midslash1" {
	"v_knife_w_anims\midslash1"
	{ event 5004 6 "ColdSteelKnife.Slash1" }
	fps 55
	activity "ACT_VM_HITLEFT" 1
	snap
}
$sequence "midslash2" {
	"v_knife_w_anims\midslash2"
	{ event 5004 8 "ColdSteelKnife.Slash1" }
	fps 55
	activity "ACT_VM_HITRIGHT" 1
	snap
}
