version 1
nodes
  0 "root" -1
  1 "Bone01" 0
  2 "Bone_Lefthand" 1
  3 "coilgun_root" 2
  4 "trigger" 3
  5 "reload02" 3
  6 "reload01" 5
  7 "reload03" 5
  8 "shoot" 3
  9 "magazine" 3
  10 "coil" -1
  11 "Bone_L_Upper" 1
  12 "Bone13" 2
  13 "Bone14" 12
  14 "Bone15" 13
  15 "Bone17" 2
  16 "Bone18" 15
  17 "Bone19" 16
  18 "Bone21" 2
  19 "Bone22" 18
  20 "Bone23" 19
  21 "Bone09" 2
  22 "Bone10" 21
  23 "Bone11" 22
  24 "Bone05" 2
  25 "Bone06" 24
  26 "Bone07" 25
  27 "Bone_Se_Hand-L" 2
  28 "Bone04" 0
  29 "Bone_Righthand" 28
  30 "Bone39" 29
  31 "Bone40" 30
  32 "Bone41" 31
  33 "Bone35" 29
  34 "Bone36" 33
  35 "Bone37" 34
  36 "Bone31" 29
  37 "Bone32" 36
  38 "Bone33" 37
  39 "Bone43" 29
  40 "Bone44" 39
  41 "Bone45" 40
  42 "Bone27" 29
  43 "Bone28" 42
  44 "Bone29" 43
  45 "Bone_Se_Hand-R" 29
  46 "Bone_R_Upper" 28
end
skeleton
  time 0
    0 0.000000 0.000000 0.000000 0.000000 0.000000 -0.000036
    1 9.213061 4.025732 -7.904157 -0.149965 -1.612728 -0.045697
    2 -0.071918 -8.498731 -0.104137 0.151252 0.282508 0.057556
    3 2.229949 -2.698480 1.312930 -0.053751 0.246035 3.130544
    4 0.752643 1.995335 -0.000002 0.000000 0.000000 0.000000
    5 -2.660486 9.115473 0.000080 0.000000 0.000000 -1.570796
    6 0.016596 -0.003077 0.000006 0.000002 -0.000008 3.137581
    7 2.244831 -0.591284 -0.000012 -0.000005 0.000007 -0.004021
    8 -1.047960 13.665777 0.000139 0.000002 -0.000009 1.566784
    9 0.837524 6.776000 0.000056 0.000009 0.000002 -0.004012
    10 -0.000574 -12.168339 -15.134835 -1.570796 -3.141592 1.570796
    11 1.257180 8.762585 -0.153713 -1.570562 0.002683 -1.566807
    12 -0.488518 -2.755602 -0.228260 -0.871614 -0.202562 -0.209541
    13 0.039887 -1.479790 0.029854 -2.058952 0.000000 0.000001
    14 0.028786 -1.075731 -0.023109 -0.606330 0.000000 0.000000
    15 0.250027 -2.820665 -0.238396 -0.797118 -0.167517 -0.114938
    16 -0.049759 -1.680544 0.100479 -1.934764 0.000000 -0.000002
    17 -0.034142 -1.148312 0.084782 -0.925906 0.000000 0.000000
    18 0.957766 -2.746780 -0.090302 0.034253 -0.159185 -0.078874
    19 -0.033420 -1.397129 -0.011257 -0.521018 0.000000 -0.000001
    20 -0.022360 -0.957436 0.018784 -0.975516 0.000000 0.000000
    21 -1.180681 -2.507217 -0.193859 -0.671429 -0.081516 -0.261329
    22 -0.024967 -1.123934 0.017597 -2.056303 0.000000 0.000001
    23 -0.020057 -0.890968 0.010090 -0.677843 0.000000 0.000000
    24 0.583510 -1.197277 0.185379 0.180201 -0.812074 -1.291278
    25 1.535927 0.010246 0.005009 -0.002964 -0.012979 -0.506650
    26 1.100771 0.004527 -0.010679 -0.015488 -0.004784 -1.694062
    27 0.120153 -0.050270 -0.054489 0.287569 3.110905 1.561085
    28 -0.766878 -11.977559 -11.302409 -1.941169 -5.321404 -1.065152
    29 0.096944 -8.450418 -0.009365 0.666657 -1.145432 -0.075767
    30 0.447953 -2.798986 -0.200443 -0.611951 -0.067958 0.142839
    31 -0.032909 -1.480204 0.004940 -1.165523 0.000000 0.000002
    32 -0.027022 -1.076920 -0.020210 -0.581968 0.000000 0.000000
    33 -0.249534 -2.846964 -0.174213 -0.493046 0.069637 0.253791
    34 0.043235 -1.683941 0.096012 -1.309075 0.002823 -0.000167
    35 0.031729 -1.160830 0.058838 -0.744925 0.000642 0.008372
    36 -0.963866 -2.785145 -0.085350 -0.325285 0.142178 0.358727
    37 0.028479 -1.403067 0.006271 -0.410459 0.000000 0.000000
    38 0.021413 -0.957781 0.020046 -0.738161 0.000000 0.000000
    39 1.164475 -2.543940 -0.170330 -0.610682 -0.190582 0.231604
    40 0.024032 -1.129042 0.017807 -0.709857 0.000000 0.000001
    41 0.014898 -0.883989 -0.019848 -0.845482 0.000000 0.000000
    42 -0.586770 -1.264477 0.200161 0.017478 -0.252048 -2.758607
    43 1.522835 0.058681 0.016848 -0.091590 0.094171 0.534132
    44 1.117947 0.048424 -0.005766 -0.019071 -0.016473 0.914475
    45 -0.139399 -0.111698 0.014397 0.653645 -0.030687 1.580508
    46 -1.393470 8.839177 -0.239433 1.580804 -0.005023 -1.566847
  time 1
    0 0.000000 0.871120 0.000000 0.000000 0.000000 -0.000036
    1 9.213061 4.025732 -7.904157 -0.149965 -1.612728 -0.045697
    2 -0.071918 -8.498731 -0.104137 0.151252 0.282508 0.057556
    3 2.229949 -2.698480 1.312930 -0.053751 0.246035 3.130544
    4 0.752643 1.995335 -0.000002 0.000000 0.000000 0.000000
    5 -2.660486 9.115473 0.000080 0.000000 0.000000 -1.570796
    6 0.016596 -0.003077 0.000006 0.000002 -0.000008 3.137581
    7 2.244831 -0.591284 -0.000012 -0.000005 0.000007 -0.004021
    8 -1.047960 13.782968 0.000139 0.000002 -0.000009 1.566784
    9 0.837524 6.776000 0.000056 0.000009 0.000002 -0.004012
    10 -0.000574 -12.168339 -15.134835 -1.570796 -3.141592 1.570796
    11 1.257180 8.762585 -0.153713 -1.570562 0.002683 -1.566807
    12 -0.488518 -2.755602 -0.228260 -0.871614 -0.202562 -0.209541
    13 0.039887 -1.479790 0.029854 -2.058952 0.000000 0.000001
    14 0.028786 -1.075731 -0.023109 -0.606330 0.000000 0.000000
    15 0.250027 -2.820665 -0.238396 -0.797118 -0.167517 -0.114938
    16 -0.049759 -1.680544 0.100479 -1.934764 0.000000 -0.000002
    17 -0.034142 -1.148312 0.084782 -0.925906 0.000000 0.000000
    18 0.957766 -2.746780 -0.090302 0.034253 -0.159185 -0.078874
    19 -0.033420 -1.397129 -0.011257 -0.521018 0.000000 -0.000001
    20 -0.022360 -0.957436 0.018784 -0.975516 0.000000 0.000000
    21 -1.180681 -2.507217 -0.193859 -0.671429 -0.081516 -0.261329
    22 -0.024967 -1.123934 0.017597 -2.056303 0.000000 0.000001
    23 -0.020057 -0.890968 0.010090 -0.677843 0.000000 0.000000
    24 0.583510 -1.197277 0.185379 0.180201 -0.812074 -1.291278
    25 1.535927 0.010246 0.005009 -0.002964 -0.012979 -0.506650
    26 1.100771 0.004527 -0.010679 -0.015488 -0.004784 -1.694062
    27 0.120153 -0.050270 -0.054489 0.287569 3.110905 1.561085
    28 -0.766878 -11.977559 -11.302409 -1.941169 -5.321404 -1.065152
    29 0.096944 -8.450418 -0.009365 0.666657 -1.145432 -0.075767
    30 0.447953 -2.798986 -0.200443 -0.611951 -0.067958 0.142839
    31 -0.032909 -1.480204 0.004940 -1.165523 0.000000 0.000002
    32 -0.027022 -1.076920 -0.020210 -0.581968 0.000000 0.000000
    33 -0.249534 -2.846964 -0.174213 -0.493046 0.069637 0.253791
    34 0.043235 -1.683941 0.096012 -1.309075 0.002823 -0.000167
    35 0.031729 -1.160830 0.058838 -0.744925 0.000642 0.008372
    36 -0.963866 -2.785145 -0.085350 -0.325285 0.142178 0.358727
    37 0.028479 -1.403067 0.006271 -0.410459 0.000000 0.000000
    38 0.021413 -0.957781 0.020046 -0.738161 0.000000 0.000000
    39 1.164475 -2.543940 -0.170330 -0.610682 -0.190582 0.231604
    40 0.024032 -1.129042 0.017807 -0.709857 0.000000 0.000001
    41 0.014898 -0.883989 -0.019848 -0.845482 0.000000 0.000000
    42 -0.586770 -1.264477 0.200161 0.017478 -0.252048 -2.758607
    43 1.522835 0.058681 0.016848 -0.091590 0.094171 0.534132
    44 1.117947 0.048424 -0.005766 -0.019071 -0.016473 0.914475
    45 -0.139399 -0.111698 0.014397 0.653645 -0.030687 1.580508
    46 -1.393470 8.839177 -0.239433 1.580804 -0.005023 -1.566847
  time 2
    0 0.000000 0.839869 0.000000 -0.002828 0.000000 -0.000036
    1 9.213061 4.025732 -7.904157 -0.149965 -1.612728 -0.045697
    2 -0.071918 -8.498731 -0.104137 0.151252 0.282508 0.057556
    3 2.229949 -2.698480 1.312930 -0.053751 0.246035 3.130544
    4 0.752643 1.995335 -0.000002 0.000000 0.000000 0.000000
    5 -2.660486 9.115473 0.000080 0.000000 0.000000 -1.570796
    6 0.016596 -0.003077 0.000006 0.000002 -0.000008 3.137581
    7 2.244831 -0.591284 -0.000012 -0.000005 0.000007 -0.004021
    8 -1.044053 14.087665 0.000139 0.000002 -0.000009 1.566784
    9 0.837524 6.776000 0.000056 0.000009 0.000002 -0.004012
    10 -0.000574 -12.168339 -15.134835 -1.570796 -3.141592 1.570796
    11 1.257180 8.762585 -0.153713 -1.570562 0.002683 -1.566807
    12 -0.488518 -2.755602 -0.228260 -0.871614 -0.202562 -0.209541
    13 0.039887 -1.479790 0.029854 -2.058952 0.000000 0.000001
    14 0.028786 -1.075731 -0.023109 -0.606330 0.000000 0.000000
    15 0.250027 -2.820665 -0.238396 -0.797118 -0.167517 -0.114938
    16 -0.049759 -1.680544 0.100479 -1.934764 0.000000 -0.000002
    17 -0.034142 -1.148312 0.084782 -0.925879 0.000000 0.000000
    18 0.957766 -2.746780 -0.090302 0.034253 -0.159185 -0.078874
    19 -0.033420 -1.397129 -0.011257 -0.521018 0.000000 -0.000001
    20 -0.022360 -0.957436 0.018784 -0.975516 0.000000 0.000000
    21 -1.180681 -2.507217 -0.193859 -0.671429 -0.081516 -0.261329
    22 -0.024967 -1.123934 0.017597 -2.056303 0.000000 0.000001
    23 -0.020057 -0.890968 0.010090 -0.677843 0.000000 0.000000
    24 0.583510 -1.197277 0.185379 0.180201 -0.812074 -1.291278
    25 1.535927 0.010246 0.005009 -0.002964 -0.012979 -0.506650
    26 1.100771 0.004527 -0.010679 -0.015488 -0.004784 -1.694062
    27 0.120153 -0.050270 -0.054489 0.287569 3.110905 1.561085
    28 -0.766878 -11.977559 -11.302409 -1.941169 -5.321404 -1.065152
    29 0.096944 -8.450418 -0.009365 0.666657 -1.145432 -0.075767
    30 0.447953 -2.798986 -0.200443 -0.611951 -0.067958 0.142839
    31 -0.032909 -1.480204 0.004940 -1.165523 0.000000 0.000002
    32 -0.027022 -1.076920 -0.020210 -0.581968 0.000000 0.000000
    33 -0.249534 -2.846964 -0.174213 -0.493046 0.069637 0.253791
    34 0.043235 -1.683941 0.096012 -1.309075 0.002823 -0.000167
    35 0.031729 -1.160830 0.058838 -0.744925 0.000642 0.008372
    36 -0.963866 -2.785145 -0.085350 -0.325285 0.142178 0.358727
    37 0.028479 -1.403067 0.006271 -0.410459 0.000000 0.000000
    38 0.021413 -0.957781 0.020046 -0.738161 0.000000 0.000000
    39 1.164475 -2.543940 -0.170330 -0.610682 -0.190582 0.231604
    40 0.024032 -1.129042 0.017807 -0.709857 0.000000 0.000001
    41 0.014898 -0.883989 -0.019848 -0.845482 0.000000 0.000000
    42 -0.586770 -1.264477 0.200161 0.017478 -0.252048 -2.758607
    43 1.522835 0.058681 0.016848 -0.091590 0.094171 0.534132
    44 1.117947 0.048424 -0.005766 -0.019071 -0.016473 0.914475
    45 -0.139399 -0.111698 0.014397 0.653645 -0.030687 1.580508
    46 -1.393470 8.839177 -0.239433 1.580804 -0.005023 -1.566847
  time 3
    0 0.000000 0.761742 0.000000 -0.009073 0.000000 -0.000036
    1 9.213061 4.025732 -7.904157 -0.149965 -1.612728 -0.045697
    2 -0.071918 -8.498731 -0.104137 0.151252 0.282508 0.057556
    3 2.229949 -2.698480 1.312930 -0.053751 0.246035 3.130544
    4 0.752643 1.995335 -0.000002 0.000000 0.000000 0.000000
    5 -2.660486 9.115473 0.000080 0.000000 0.000000 -1.570796
    6 0.016596 -0.003077 0.000006 0.000002 -0.000008 3.137581
    7 2.244831 -0.591284 -0.000012 -0.000005 0.000007 -0.004021
    8 -1.044053 14.505646 0.000139 0.000002 -0.000009 1.566784
    9 0.837524 6.776000 0.000056 0.000009 0.000002 -0.004012
    10 -0.000574 -12.168339 -15.134835 -1.570796 -3.141592 1.570796
    11 1.257180 8.762585 -0.153713 -1.570562 0.002683 -1.566807
    12 -0.488518 -2.755602 -0.228260 -0.871614 -0.202562 -0.209541
    13 0.039887 -1.479790 0.029854 -2.058952 0.000000 0.000001
    14 0.028786 -1.075731 -0.023109 -0.606330 0.000000 0.000000
    15 0.250027 -2.820665 -0.238396 -0.797118 -0.167517 -0.114938
    16 -0.049759 -1.680544 0.100479 -1.934764 0.000000 -0.000002
    17 -0.034142 -1.148312 0.084782 -0.925879 0.000000 0.000000
    18 0.957766 -2.746780 -0.090302 0.034253 -0.159185 -0.078874
    19 -0.033420 -1.397129 -0.011257 -0.521018 0.000000 -0.000001
    20 -0.022360 -0.957436 0.018784 -0.975516 0.000000 0.000000
    21 -1.180681 -2.507217 -0.193859 -0.671429 -0.081516 -0.261329
    22 -0.024967 -1.123934 0.017597 -2.056303 0.000000 0.000001
    23 -0.020057 -0.890968 0.010090 -0.677843 0.000000 0.000000
    24 0.583510 -1.197277 0.185379 0.180201 -0.812074 -1.291278
    25 1.535927 0.010246 0.005009 -0.002964 -0.012979 -0.506650
    26 1.100771 0.004527 -0.010679 -0.015488 -0.004784 -1.694062
    27 0.120153 -0.050270 -0.054489 0.287569 3.110905 1.561085
    28 -0.766878 -11.977559 -11.302409 -1.941169 -5.321404 -1.065152
    29 0.096944 -8.450418 -0.009365 0.666657 -1.145432 -0.075767
    30 0.447953 -2.798986 -0.200443 -0.611951 -0.067958 0.142839
    31 -0.032909 -1.480204 0.004940 -1.165523 0.000000 0.000002
    32 -0.027022 -1.076920 -0.020210 -0.581968 0.000000 0.000000
    33 -0.249534 -2.846964 -0.174213 -0.493046 0.069637 0.253791
    34 0.043235 -1.683941 0.096012 -1.309075 0.002823 -0.000167
    35 0.031729 -1.160830 0.058838 -0.744925 0.000642 0.008372
    36 -0.963866 -2.785145 -0.085350 -0.325285 0.142178 0.358727
    37 0.028479 -1.403067 0.006271 -0.410459 0.000000 0.000000
    38 0.021413 -0.957781 0.020046 -0.738161 0.000000 0.000000
    39 1.164475 -2.543940 -0.170330 -0.610682 -0.190582 0.231604
    40 0.024032 -1.129042 0.017807 -0.709857 0.000000 0.000001
    41 0.014898 -0.883989 -0.019848 -0.845482 0.000000 0.000000
    42 -0.586770 -1.264477 0.200161 0.017478 -0.252048 -2.758607
    43 1.522835 0.058681 0.016848 -0.091590 0.094171 0.534132
    44 1.117947 0.048424 -0.005766 -0.019071 -0.016473 0.914475
    45 -0.139399 -0.111698 0.014397 0.653645 -0.030687 1.580508
    46 -1.393470 8.839177 -0.239433 1.580804 -0.005023 -1.566847
  time 4
    0 0.000000 0.644551 0.000000 -0.015318 0.000000 -0.000036
    1 9.213061 4.025732 -7.904157 -0.149965 -1.612728 -0.045697
    2 -0.071918 -8.498731 -0.104137 0.151252 0.282508 0.057556
    3 2.229949 -2.698480 1.312930 -0.053751 0.246035 3.130544
    4 0.752643 1.995335 -0.000002 0.000000 0.000000 0.000000
    5 -2.660486 9.115473 0.000080 0.000000 0.000000 -1.570796
    6 0.016596 -0.003077 0.000006 0.000002 -0.000008 3.137581
    7 2.244831 -0.591284 -0.000012 -0.000005 0.000007 -0.004021
    8 -1.040147 14.958785 0.000139 0.000002 -0.000009 1.566784
    9 0.837524 6.776000 0.000056 0.000009 0.000002 -0.004012
    10 -0.000574 -12.168339 -15.134835 -1.570796 -3.141592 1.570796
    11 1.257180 8.762585 -0.153713 -1.570562 0.002683 -1.566807
    12 -0.488518 -2.755602 -0.228260 -0.871614 -0.202562 -0.209541
    13 0.039887 -1.479790 0.029854 -2.058952 0.000000 0.000001
    14 0.028786 -1.075731 -0.023109 -0.606330 0.000000 0.000000
    15 0.250027 -2.820665 -0.238396 -0.797118 -0.167517 -0.114938
    16 -0.049759 -1.680544 0.100479 -1.934764 0.000000 -0.000002
    17 -0.034142 -1.148312 0.084782 -0.925906 0.000000 0.000000
    18 0.957766 -2.746780 -0.090302 0.034253 -0.159185 -0.078874
    19 -0.033420 -1.397129 -0.011257 -0.521018 0.000000 -0.000001
    20 -0.022360 -0.957436 0.018784 -0.975516 0.000000 0.000000
    21 -1.180681 -2.507217 -0.193859 -0.671429 -0.081516 -0.261329
    22 -0.024967 -1.123934 0.017597 -2.056303 0.000000 0.000001
    23 -0.020057 -0.890968 0.010090 -0.677843 0.000000 0.000000
    24 0.583510 -1.197277 0.185379 0.180201 -0.812074 -1.291278
    25 1.535927 0.010246 0.005009 -0.002964 -0.012979 -0.506650
    26 1.100771 0.004527 -0.010679 -0.015488 -0.004784 -1.694062
    27 0.120153 -0.050270 -0.054489 0.287569 3.110905 1.561085
    28 -0.766878 -11.977559 -11.302409 -1.941169 -5.321404 -1.065152
    29 0.096944 -8.450418 -0.009365 0.666657 -1.145432 -0.075767
    30 0.447953 -2.798986 -0.200443 -0.611951 -0.067958 0.142839
    31 -0.032909 -1.480204 0.004940 -1.165523 0.000000 0.000002
    32 -0.027022 -1.076920 -0.020210 -0.581968 0.000000 0.000000
    33 -0.249534 -2.846964 -0.174213 -0.493046 0.069637 0.253791
    34 0.043235 -1.683941 0.096012 -1.309075 0.002823 -0.000167
    35 0.031729 -1.160830 0.058838 -0.744925 0.000642 0.008372
    36 -0.963866 -2.785145 -0.085350 -0.325285 0.142178 0.358727
    37 0.028479 -1.403067 0.006271 -0.410459 0.000000 0.000000
    38 0.021413 -0.957781 0.020046 -0.738161 0.000000 0.000000
    39 1.164475 -2.543940 -0.170330 -0.610682 -0.190582 0.231604
    40 0.024032 -1.129042 0.017807 -0.709857 0.000000 0.000001
    41 0.014898 -0.883989 -0.019848 -0.845482 0.000000 0.000000
    42 -0.586770 -1.264477 0.200161 0.017478 -0.252048 -2.758607
    43 1.522835 0.058681 0.016848 -0.091590 0.094171 0.534132
    44 1.117947 0.048424 -0.005766 -0.019071 -0.016473 0.914475
    45 -0.139399 -0.111698 0.014397 0.653645 -0.030687 1.580508
    46 -1.393470 8.839177 -0.239433 1.580804 -0.005023 -1.566847
  time 5
    0 0.000000 0.507828 0.000000 -0.018146 0.000000 -0.000036
    1 9.213061 4.025732 -7.904157 -0.149965 -1.612728 -0.045697
    2 -0.071918 -8.498731 -0.104137 0.151252 0.282508 0.057556
    3 2.229949 -2.698480 1.312930 -0.053751 0.246035 3.130544
    4 0.752643 1.995335 -0.000002 0.000000 0.000000 0.000000
    5 -2.660486 9.115473 0.000080 0.000000 0.000000 -1.570796
    6 0.016596 -0.003077 0.000006 0.000002 -0.000008 3.137581
    7 2.244831 -0.591284 -0.000012 -0.000005 0.000007 -0.004021
    8 -1.040147 15.376767 0.000139 0.000002 -0.000009 1.566784
    9 0.837524 6.776000 0.000056 0.000009 0.000002 -0.004012
    10 -0.000574 -12.168339 -15.134835 -1.570796 -3.141592 1.570796
    11 1.257180 8.762585 -0.153713 -1.570562 0.002683 -1.566807
    12 -0.488518 -2.755602 -0.228260 -0.871614 -0.202562 -0.209541
    13 0.039887 -1.479790 0.029854 -2.058952 0.000000 0.000001
    14 0.028786 -1.075731 -0.023109 -0.606330 0.000000 0.000000
    15 0.250027 -2.820665 -0.238396 -0.797118 -0.167517 -0.114938
    16 -0.049759 -1.680544 0.100479 -1.934764 0.000000 -0.000002
    17 -0.034142 -1.148312 0.084782 -0.925906 0.000000 0.000000
    18 0.957766 -2.746780 -0.090302 0.034253 -0.159185 -0.078874
    19 -0.033420 -1.397129 -0.011257 -0.521018 0.000000 -0.000001
    20 -0.022360 -0.957436 0.018784 -0.975516 0.000000 0.000000
    21 -1.180681 -2.507217 -0.193859 -0.671429 -0.081516 -0.261329
    22 -0.024967 -1.123934 0.017597 -2.056303 0.000000 0.000001
    23 -0.020057 -0.890968 0.010090 -0.677843 0.000000 0.000000
    24 0.583510 -1.197277 0.185379 0.180201 -0.812074 -1.291278
    25 1.535927 0.010246 0.005009 -0.002964 -0.012979 -0.506650
    26 1.100771 0.004527 -0.010679 -0.015488 -0.004784 -1.694062
    27 0.120153 -0.050270 -0.054489 0.287569 3.110905 1.561085
    28 -0.766878 -11.977559 -11.302409 -1.941169 -5.321404 -1.065152
    29 0.096944 -8.450418 -0.009365 0.666657 -1.145432 -0.075767
    30 0.447953 -2.798986 -0.200443 -0.611951 -0.067958 0.142839
    31 -0.032909 -1.480204 0.004940 -1.165523 0.000000 0.000002
    32 -0.027022 -1.076920 -0.020210 -0.581968 0.000000 0.000000
    33 -0.249534 -2.846964 -0.174213 -0.493046 0.069637 0.253791
    34 0.043235 -1.683941 0.096012 -1.309075 0.002823 -0.000167
    35 0.031729 -1.160830 0.058838 -0.744925 0.000642 0.008372
    36 -0.963866 -2.785145 -0.085350 -0.325285 0.142178 0.358727
    37 0.028479 -1.403067 0.006271 -0.410459 0.000000 0.000000
    38 0.021413 -0.957781 0.020046 -0.738161 0.000000 0.000000
    39 1.164475 -2.543940 -0.170330 -0.610682 -0.190582 0.231604
    40 0.024032 -1.129042 0.017807 -0.709857 0.000000 0.000001
    41 0.014898 -0.883989 -0.019848 -0.845482 0.000000 0.000000
    42 -0.586770 -1.264477 0.200161 0.017478 -0.252048 -2.758607
    43 1.522835 0.058681 0.016848 -0.091590 0.094171 0.534132
    44 1.117947 0.048424 -0.005766 -0.019071 -0.016473 0.914475
    45 -0.139399 -0.111698 0.014397 0.653645 -0.030687 1.580508
    46 -1.393470 8.839177 -0.239433 1.580804 -0.005023 -1.566847
  time 6
    0 0.000000 0.363292 0.000000 -0.016130 0.000000 -0.000036
    1 9.213061 4.025732 -7.904157 -0.149965 -1.612728 -0.045697
    2 -0.071918 -8.498731 -0.104137 0.151252 0.282508 0.057556
    3 2.229949 -2.698480 1.312930 -0.053751 0.246035 3.130544
    4 0.752643 1.995335 -0.000002 0.000000 0.000000 0.000000
    5 -2.660486 9.115473 0.000080 0.000000 0.000000 -1.570796
    6 0.016596 -0.003077 0.000006 0.000002 -0.000008 3.137581
    7 2.244831 -0.591284 -0.000012 -0.000005 0.000007 -0.004021
    8 -1.040147 15.681463 0.000139 0.000002 -0.000009 1.566784
    9 0.837524 6.776000 0.000056 0.000009 0.000002 -0.004012
    10 -0.000574 -12.168339 -15.134835 -1.570796 -3.141592 1.570796
    11 1.257180 8.762585 -0.153713 -1.570562 0.002683 -1.566807
    12 -0.488518 -2.755602 -0.228260 -0.871614 -0.202562 -0.209541
    13 0.039887 -1.479790 0.029854 -2.058952 0.000000 0.000001
    14 0.028786 -1.075731 -0.023109 -0.606330 0.000000 0.000000
    15 0.250027 -2.820665 -0.238396 -0.797118 -0.167517 -0.114938
    16 -0.049759 -1.680544 0.100479 -1.934764 0.000000 -0.000002
    17 -0.034142 -1.148312 0.084782 -0.925879 0.000000 0.000000
    18 0.957766 -2.746780 -0.090302 0.034253 -0.159185 -0.078874
    19 -0.033420 -1.397129 -0.011257 -0.521018 0.000000 -0.000001
    20 -0.022360 -0.957436 0.018784 -0.975516 0.000000 0.000000
    21 -1.180681 -2.507217 -0.193859 -0.671429 -0.081516 -0.261329
    22 -0.024967 -1.123934 0.017597 -2.056303 0.000000 0.000001
    23 -0.020057 -0.890968 0.010090 -0.677843 0.000000 0.000000
    24 0.583510 -1.197277 0.185379 0.180201 -0.812074 -1.291278
    25 1.535927 0.010246 0.005009 -0.002964 -0.012979 -0.506650
    26 1.100771 0.004527 -0.010679 -0.015488 -0.004784 -1.694062
    27 0.120153 -0.050270 -0.054489 0.287569 3.110905 1.561085
    28 -0.766878 -11.977559 -11.302409 -1.941169 -5.321404 -1.065152
    29 0.096944 -8.450418 -0.009365 0.666657 -1.145432 -0.075767
    30 0.447953 -2.798986 -0.200443 -0.611951 -0.067958 0.142839
    31 -0.032909 -1.480204 0.004940 -1.165523 0.000000 0.000002
    32 -0.027022 -1.076920 -0.020210 -0.581968 0.000000 0.000000
    33 -0.249534 -2.846964 -0.174213 -0.493046 0.069637 0.253791
    34 0.043235 -1.683941 0.096012 -1.309075 0.002823 -0.000167
    35 0.031729 -1.160830 0.058838 -0.744925 0.000642 0.008372
    36 -0.963866 -2.785145 -0.085350 -0.325285 0.142178 0.358727
    37 0.028479 -1.403067 0.006271 -0.410459 0.000000 0.000000
    38 0.021413 -0.957781 0.020046 -0.738161 0.000000 0.000000
    39 1.164475 -2.543940 -0.170330 -0.610682 -0.190582 0.231604
    40 0.024032 -1.129042 0.017807 -0.709857 0.000000 0.000001
    41 0.014898 -0.883989 -0.019848 -0.845482 0.000000 0.000000
    42 -0.586770 -1.264477 0.200161 0.017478 -0.252048 -2.758607
    43 1.522835 0.058681 0.016848 -0.091590 0.094171 0.534132
    44 1.117947 0.048424 -0.005766 -0.019071 -0.016473 0.914475
    45 -0.139399 -0.111698 0.014397 0.653645 -0.030687 1.580508
    46 -1.393470 8.839177 -0.239433 1.580804 -0.005023 -1.566847
  time 7
    0 0.000000 0.222663 0.000000 -0.010921 0.000000 -0.000036
    1 9.213061 4.025732 -7.904157 -0.149965 -1.612728 -0.045697
    2 -0.071918 -8.498731 -0.104137 0.151252 0.282508 0.057556
    3 2.229949 -2.698480 1.312930 -0.053751 0.246035 3.130544
    4 0.752643 1.995335 -0.000002 0.000000 0.000000 0.000000
    5 -2.660486 9.115473 0.000080 0.000000 0.000000 -1.570796
    6 0.016596 -0.003077 0.000006 0.000002 -0.000008 3.137581
    7 2.244831 -0.591284 -0.000012 -0.000005 0.000007 -0.004021
    8 -1.040147 15.798655 0.000139 0.000002 -0.000009 1.566784
    9 0.837524 6.776000 0.000056 0.000009 0.000002 -0.004012
    10 -0.000574 -12.168339 -15.134835 -1.570796 -3.141592 1.570796
    11 1.257180 8.762585 -0.153713 -1.570562 0.002683 -1.566807
    12 -0.488518 -2.755602 -0.228260 -0.871614 -0.202562 -0.209541
    13 0.039887 -1.479790 0.029854 -2.058952 0.000000 0.000001
    14 0.028786 -1.075731 -0.023109 -0.606330 0.000000 0.000000
    15 0.250027 -2.820665 -0.238396 -0.797118 -0.167517 -0.114938
    16 -0.049759 -1.680544 0.100479 -1.934764 0.000000 -0.000002
    17 -0.034142 -1.148312 0.084782 -0.925906 0.000000 0.000000
    18 0.957766 -2.746780 -0.090302 0.034253 -0.159185 -0.078874
    19 -0.033420 -1.397129 -0.011257 -0.521018 0.000000 -0.000001
    20 -0.022360 -0.957436 0.018784 -0.975516 0.000000 0.000000
    21 -1.180681 -2.507217 -0.193859 -0.671429 -0.081516 -0.261329
    22 -0.024967 -1.123934 0.017597 -2.056303 0.000000 0.000001
    23 -0.020057 -0.890968 0.010090 -0.677843 0.000000 0.000000
    24 0.583510 -1.197277 0.185379 0.180201 -0.812074 -1.291278
    25 1.535927 0.010246 0.005009 -0.002964 -0.012979 -0.506650
    26 1.100771 0.004527 -0.010679 -0.015488 -0.004784 -1.694062
    27 0.120153 -0.050270 -0.054489 0.287569 3.110905 1.561085
    28 -0.766878 -11.977559 -11.302409 -1.941169 -5.321404 -1.065152
    29 0.096944 -8.450418 -0.009365 0.666657 -1.145432 -0.075767
    30 0.447953 -2.798986 -0.200443 -0.611951 -0.067958 0.142839
    31 -0.032909 -1.480204 0.004940 -1.165523 0.000000 0.000002
    32 -0.027022 -1.076920 -0.020210 -0.581968 0.000000 0.000000
    33 -0.249534 -2.846964 -0.174213 -0.493046 0.069637 0.253791
    34 0.043235 -1.683941 0.096012 -1.309075 0.002823 -0.000167
    35 0.031729 -1.160830 0.058838 -0.744925 0.000642 0.008372
    36 -0.963866 -2.785145 -0.085350 -0.325285 0.142178 0.358727
    37 0.028479 -1.403067 0.006271 -0.410459 0.000000 0.000000
    38 0.021413 -0.957781 0.020046 -0.738161 0.000000 0.000000
    39 1.164475 -2.543940 -0.170330 -0.610682 -0.190582 0.231604
    40 0.024032 -1.129042 0.017807 -0.709857 0.000000 0.000001
    41 0.014898 -0.883989 -0.019848 -0.845482 0.000000 0.000000
    42 -0.586770 -1.264477 0.200161 0.017478 -0.252048 -2.758607
    43 1.522835 0.058681 0.016848 -0.091590 0.094171 0.534132
    44 1.117947 0.048424 -0.005766 -0.019071 -0.016473 0.914475
    45 -0.139399 -0.111698 0.014397 0.653645 -0.030687 1.580508
    46 -1.393470 8.839177 -0.239433 1.580804 -0.005023 -1.566847
  time 8
    0 0.000000 0.109378 0.000000 -0.003794 0.000000 -0.000036
    1 9.213061 4.025732 -7.904157 -0.149965 -1.612728 -0.045697
    2 -0.071918 -8.498731 -0.104137 0.151252 0.282508 0.057556
    3 2.229949 -2.698480 1.312930 -0.053751 0.246035 3.130544
    4 0.752643 1.995335 -0.000002 0.000000 0.000000 0.000000
    5 -2.660486 9.115473 0.000080 0.000000 0.000000 -1.570796
    6 0.016596 -0.003077 0.000006 0.000002 -0.000008 3.137581
    7 2.244831 -0.591284 -0.000012 -0.000005 0.000007 -0.004021
    8 -1.040147 15.798655 0.000139 0.000002 -0.000009 1.566784
    9 0.837524 6.776000 0.000056 0.000009 0.000002 -0.004012
    10 -0.000574 -12.168339 -15.134835 -1.570796 -3.141592 1.570796
    11 1.257180 8.762585 -0.153713 -1.570562 0.002683 -1.566807
    12 -0.488518 -2.755602 -0.228260 -0.871614 -0.202562 -0.209541
    13 0.039887 -1.479790 0.029854 -2.058952 0.000000 0.000001
    14 0.028786 -1.075731 -0.023109 -0.606330 0.000000 0.000000
    15 0.250027 -2.820665 -0.238396 -0.797118 -0.167517 -0.114938
    16 -0.049759 -1.680544 0.100479 -1.934764 0.000000 -0.000002
    17 -0.034142 -1.148312 0.084782 -0.925879 0.000000 0.000000
    18 0.957766 -2.746780 -0.090302 0.034253 -0.159185 -0.078874
    19 -0.033420 -1.397129 -0.011257 -0.521018 0.000000 -0.000001
    20 -0.022360 -0.957436 0.018784 -0.975516 0.000000 0.000000
    21 -1.180681 -2.507217 -0.193859 -0.671429 -0.081516 -0.261329
    22 -0.024967 -1.123934 0.017597 -2.056303 0.000000 0.000001
    23 -0.020057 -0.890968 0.010090 -0.677843 0.000000 0.000000
    24 0.583510 -1.197277 0.185379 0.180201 -0.812074 -1.291278
    25 1.535927 0.010246 0.005009 -0.002964 -0.012979 -0.506650
    26 1.100771 0.004527 -0.010679 -0.015488 -0.004784 -1.694062
    27 0.120153 -0.050270 -0.054489 0.287569 3.110905 1.561085
    28 -0.766878 -11.977559 -11.302409 -1.941169 -5.321404 -1.065152
    29 0.096944 -8.450418 -0.009365 0.666657 -1.145432 -0.075767
    30 0.447953 -2.798986 -0.200443 -0.611951 -0.067958 0.142839
    31 -0.032909 -1.480204 0.004940 -1.165523 0.000000 0.000002
    32 -0.027022 -1.076920 -0.020210 -0.581968 0.000000 0.000000
    33 -0.249534 -2.846964 -0.174213 -0.493046 0.069637 0.253791
    34 0.043235 -1.683941 0.096012 -1.309075 0.002823 -0.000167
    35 0.031729 -1.160830 0.058838 -0.744925 0.000642 0.008372
    36 -0.963866 -2.785145 -0.085350 -0.325285 0.142178 0.358727
    37 0.028479 -1.403067 0.006271 -0.410459 0.000000 0.000000
    38 0.021413 -0.957781 0.020046 -0.738161 0.000000 0.000000
    39 1.164475 -2.543940 -0.170330 -0.610682 -0.190582 0.231604
    40 0.024032 -1.129042 0.017807 -0.709857 0.000000 0.000001
    41 0.014898 -0.883989 -0.019848 -0.845482 0.000000 0.000000
    42 -0.586770 -1.264477 0.200161 0.017478 -0.252048 -2.758607
    43 1.522835 0.058681 0.016848 -0.091590 0.094171 0.534132
    44 1.117947 0.048424 -0.005766 -0.019071 -0.016473 0.914475
    45 -0.139399 -0.111698 0.014397 0.653645 -0.030687 1.580508
    46 -1.393470 8.839177 -0.239433 1.580804 -0.005023 -1.566847
  time 9
    0 0.000000 0.027345 0.000000 0.003962 0.000000 -0.000036
    1 9.213061 4.025732 -7.904157 -0.149965 -1.612728 -0.045697
    2 -0.071918 -8.498731 -0.104137 0.151252 0.282508 0.057556
    3 2.229949 -2.698480 1.312930 -0.053751 0.246035 3.130544
    4 0.752643 1.995335 -0.000002 0.000000 0.000000 0.000000
    5 -2.660486 9.115473 0.000080 0.000000 0.000000 -1.570796
    6 0.016596 -0.003077 0.000006 0.000002 -0.000008 3.137581
    7 2.244831 -0.591284 -0.000012 -0.000005 0.000007 -0.004021
    8 -1.040147 15.798655 0.000139 0.000002 -0.000009 1.566784
    9 0.837524 6.776000 0.000056 0.000009 0.000002 -0.004012
    10 -0.000574 -12.168339 -15.134835 -1.570796 -3.141592 1.570796
    11 1.257180 8.762585 -0.153713 -1.570562 0.002683 -1.566807
    12 -0.488518 -2.755602 -0.228260 -0.871614 -0.202562 -0.209541
    13 0.039887 -1.479790 0.029854 -2.058952 0.000000 0.000001
    14 0.028786 -1.075731 -0.023109 -0.606330 0.000000 0.000000
    15 0.250027 -2.820665 -0.238396 -0.797118 -0.167517 -0.114938
    16 -0.049759 -1.680544 0.100479 -1.934764 0.000000 -0.000002
    17 -0.034142 -1.148312 0.084782 -0.925906 0.000000 0.000000
    18 0.957766 -2.746780 -0.090302 0.034253 -0.159185 -0.078874
    19 -0.033420 -1.397129 -0.011257 -0.521018 0.000000 -0.000001
    20 -0.022360 -0.957436 0.018784 -0.975516 0.000000 0.000000
    21 -1.180681 -2.507217 -0.193859 -0.671429 -0.081516 -0.261329
    22 -0.024967 -1.123934 0.017597 -2.056303 0.000000 0.000001
    23 -0.020057 -0.890968 0.010090 -0.677843 0.000000 0.000000
    24 0.583510 -1.197277 0.185379 0.180201 -0.812074 -1.291278
    25 1.535927 0.010246 0.005009 -0.002964 -0.012979 -0.506650
    26 1.100771 0.004527 -0.010679 -0.015488 -0.004784 -1.694062
    27 0.120153 -0.050270 -0.054489 0.287569 3.110905 1.561085
    28 -0.766878 -11.977559 -11.302409 -1.941169 -5.321404 -1.065152
    29 0.096944 -8.450418 -0.009365 0.666657 -1.145432 -0.075767
    30 0.447953 -2.798986 -0.200443 -0.611951 -0.067958 0.142839
    31 -0.032909 -1.480204 0.004940 -1.165523 0.000000 0.000002
    32 -0.027022 -1.076920 -0.020210 -0.581968 0.000000 0.000000
    33 -0.249534 -2.846964 -0.174213 -0.493046 0.069637 0.253791
    34 0.043235 -1.683941 0.096012 -1.309075 0.002823 -0.000167
    35 0.031729 -1.160830 0.058838 -0.744925 0.000642 0.008372
    36 -0.963866 -2.785145 -0.085350 -0.325285 0.142178 0.358727
    37 0.028479 -1.403067 0.006271 -0.410459 0.000000 0.000000
    38 0.021413 -0.957781 0.020046 -0.738161 0.000000 0.000000
    39 1.164475 -2.543940 -0.170330 -0.610682 -0.190582 0.231604
    40 0.024032 -1.129042 0.017807 -0.709857 0.000000 0.000001
    41 0.014898 -0.883989 -0.019848 -0.845482 0.000000 0.000000
    42 -0.586770 -1.264477 0.200161 0.017478 -0.252048 -2.758607
    43 1.522835 0.058681 0.016848 -0.091590 0.094171 0.534132
    44 1.117947 0.048424 -0.005766 -0.019071 -0.016473 0.914475
    45 -0.139399 -0.111698 0.014397 0.653645 -0.030687 1.580508
    46 -1.393470 8.839177 -0.239433 1.580804 -0.005023 -1.566847
  time 10
    0 0.000000 0.000000 0.000000 0.011089 0.000000 -0.000036
    1 9.213061 4.025732 -7.904157 -0.149965 -1.612728 -0.045697
    2 -0.071918 -8.498731 -0.104137 0.151252 0.282508 0.057556
    3 2.229949 -2.698480 1.312930 -0.053751 0.246035 3.130544
    4 0.752643 1.995335 -0.000002 0.000000 0.000000 0.000000
    5 -2.660486 9.115473 0.000080 0.000000 0.000000 -1.570796
    6 0.016596 -0.003077 0.000006 0.000002 -0.000008 3.137581
    7 2.244831 -0.591284 -0.000012 -0.000005 0.000007 -0.004021
    8 -1.040147 15.798655 0.000139 0.000002 -0.000009 1.566784
    9 0.837524 6.776000 0.000056 0.000009 0.000002 -0.004012
    10 -0.000574 -12.168339 -15.134835 -1.570796 -3.141592 1.570796
    11 1.257180 8.762585 -0.153713 -1.570562 0.002683 -1.566807
    12 -0.488518 -2.755602 -0.228260 -0.871614 -0.202562 -0.209541
    13 0.039887 -1.479790 0.029854 -2.058952 0.000000 0.000001
    14 0.028786 -1.075731 -0.023109 -0.606330 0.000000 0.000000
    15 0.250027 -2.820665 -0.238396 -0.797118 -0.167517 -0.114938
    16 -0.049759 -1.680544 0.100479 -1.934764 0.000000 -0.000002
    17 -0.034142 -1.148312 0.084782 -0.925879 0.000000 0.000000
    18 0.957766 -2.746780 -0.090302 0.034253 -0.159185 -0.078874
    19 -0.033420 -1.397129 -0.011257 -0.521018 0.000000 -0.000001
    20 -0.022360 -0.957436 0.018784 -0.975516 0.000000 0.000000
    21 -1.180681 -2.507217 -0.193859 -0.671429 -0.081516 -0.261329
    22 -0.024967 -1.123934 0.017597 -2.056303 0.000000 0.000001
    23 -0.020057 -0.890968 0.010090 -0.677843 0.000000 0.000000
    24 0.583510 -1.197277 0.185379 0.180201 -0.812074 -1.291278
    25 1.535927 0.010246 0.005009 -0.002964 -0.012979 -0.506650
    26 1.100771 0.004527 -0.010679 -0.015488 -0.004784 -1.694062
    27 0.120153 -0.050270 -0.054489 0.287569 3.110905 1.561085
    28 -0.766878 -11.977559 -11.302409 -1.941169 -5.321404 -1.065152
    29 0.096944 -8.450418 -0.009365 0.666657 -1.145432 -0.075767
    30 0.447953 -2.798986 -0.200443 -0.611951 -0.067958 0.142839
    31 -0.032909 -1.480204 0.004940 -1.165523 0.000000 0.000002
    32 -0.027022 -1.076920 -0.020210 -0.581968 0.000000 0.000000
    33 -0.249534 -2.846964 -0.174213 -0.493046 0.069637 0.253791
    34 0.043235 -1.683941 0.096012 -1.309075 0.002823 -0.000167
    35 0.031729 -1.160830 0.058838 -0.744925 0.000642 0.008372
    36 -0.963866 -2.785145 -0.085350 -0.325285 0.142178 0.358727
    37 0.028479 -1.403067 0.006271 -0.410459 0.000000 0.000000
    38 0.021413 -0.957781 0.020046 -0.738161 0.000000 0.000000
    39 1.164475 -2.543940 -0.170330 -0.610682 -0.190582 0.231604
    40 0.024032 -1.129042 0.017807 -0.709857 0.000000 0.000001
    41 0.014898 -0.883989 -0.019848 -0.845482 0.000000 0.000000
    42 -0.586770 -1.264477 0.200161 0.017478 -0.252048 -2.758607
    43 1.522835 0.058681 0.016848 -0.091590 0.094171 0.534132
    44 1.117947 0.048424 -0.005766 -0.019071 -0.016473 0.914475
    45 -0.139399 -0.111698 0.014397 0.653645 -0.030687 1.580508
    46 -1.393470 8.839177 -0.239433 1.580804 -0.005023 -1.566847
  time 11
    0 0.000000 0.000000 -0.003906 0.016312 0.000000 -0.000036
    1 9.213061 4.025732 -7.904157 -0.149965 -1.612728 -0.045697
    2 -0.071918 -8.498731 -0.104137 0.151252 0.282508 0.057556
    3 2.229949 -2.698480 1.312930 -0.053751 0.246035 3.130544
    4 0.752643 1.995335 -0.000002 0.000000 0.000000 0.000000
    5 -2.660486 9.115473 0.000080 0.000000 0.000000 -1.570796
    6 0.016596 -0.003077 0.000006 0.000002 -0.000008 3.137581
    7 2.244831 -0.591284 -0.000012 -0.000005 0.000007 -0.004021
    8 -1.040147 15.798655 0.000139 0.000002 -0.000009 1.566784
    9 0.837524 6.776000 0.000056 0.000009 0.000002 -0.004012
    10 -0.000574 -12.168339 -15.134835 -1.570796 -3.141592 1.570796
    11 1.257180 8.762585 -0.153713 -1.570562 0.002683 -1.566807
    12 -0.488518 -2.755602 -0.228260 -0.871614 -0.202562 -0.209541
    13 0.039887 -1.479790 0.029854 -2.058952 0.000000 0.000001
    14 0.028786 -1.075731 -0.023109 -0.606330 0.000000 0.000000
    15 0.250027 -2.820665 -0.238396 -0.797118 -0.167517 -0.114938
    16 -0.049759 -1.680544 0.100479 -1.934764 0.000000 -0.000002
    17 -0.034142 -1.148312 0.084782 -0.925879 0.000000 0.000000
    18 0.957766 -2.746780 -0.090302 0.034253 -0.159185 -0.078874
    19 -0.033420 -1.397129 -0.011257 -0.521018 0.000000 -0.000001
    20 -0.022360 -0.957436 0.018784 -0.975516 0.000000 0.000000
    21 -1.180681 -2.507217 -0.193859 -0.671429 -0.081516 -0.261329
    22 -0.024967 -1.123934 0.017597 -2.056303 0.000000 0.000001
    23 -0.020057 -0.890968 0.010090 -0.677843 0.000000 0.000000
    24 0.583510 -1.197277 0.185379 0.180201 -0.812074 -1.291278
    25 1.535927 0.010246 0.005009 -0.002964 -0.012979 -0.506650
    26 1.100771 0.004527 -0.010679 -0.015488 -0.004784 -1.694062
    27 0.120153 -0.050270 -0.054489 0.287569 3.110905 1.561085
    28 -0.766878 -11.977559 -11.302409 -1.941169 -5.321404 -1.065152
    29 0.096944 -8.450418 -0.009365 0.666657 -1.145432 -0.075767
    30 0.447953 -2.798986 -0.200443 -0.611951 -0.067958 0.142839
    31 -0.032909 -1.480204 0.004940 -1.165523 0.000000 0.000002
    32 -0.027022 -1.076920 -0.020210 -0.581968 0.000000 0.000000
    33 -0.249534 -2.846964 -0.174213 -0.493046 0.069637 0.253791
    34 0.043235 -1.683941 0.096012 -1.309075 0.002823 -0.000167
    35 0.031729 -1.160830 0.058838 -0.744925 0.000642 0.008372
    36 -0.963866 -2.785145 -0.085350 -0.325285 0.142178 0.358727
    37 0.028479 -1.403067 0.006271 -0.410459 0.000000 0.000000
    38 0.021413 -0.957781 0.020046 -0.738161 0.000000 0.000000
    39 1.164475 -2.543940 -0.170330 -0.610682 -0.190582 0.231604
    40 0.024032 -1.129042 0.017807 -0.709857 0.000000 0.000001
    41 0.014898 -0.883989 -0.019848 -0.845482 0.000000 0.000000
    42 -0.586770 -1.264477 0.200161 0.017478 -0.252048 -2.758607
    43 1.522835 0.058681 0.016848 -0.091590 0.094171 0.534132
    44 1.117947 0.048424 -0.005766 -0.019071 -0.016473 0.914475
    45 -0.139399 -0.111698 0.014397 0.653645 -0.030687 1.580508
    46 -1.393470 8.839177 -0.239433 1.580804 -0.005023 -1.566847
  time 12
    0 0.000000 0.000000 -0.019532 0.018328 0.000000 -0.000036
    1 9.213061 4.025732 -7.904157 -0.149965 -1.612728 -0.045697
    2 -0.071918 -8.498731 -0.104137 0.151252 0.282508 0.057556
    3 2.229949 -2.698480 1.312930 -0.053751 0.246035 3.130544
    4 0.752643 1.995335 -0.000002 0.000000 0.000000 0.000000
    5 -2.660486 9.115473 0.000080 0.000000 0.000000 -1.570796
    6 0.016596 -0.003077 0.000006 0.000002 -0.000008 3.137581
    7 2.244831 -0.591284 -0.000012 -0.000005 0.000007 -0.004021
    8 -1.040147 15.798655 0.000139 0.000002 -0.000009 1.566784
    9 0.837524 6.776000 0.000056 0.000009 0.000002 -0.004012
    10 -0.000574 -12.168339 -15.134835 -1.570796 -3.141592 1.570796
    11 1.257180 8.762585 -0.153713 -1.570562 0.002683 -1.566807
    12 -0.488518 -2.755602 -0.228260 -0.871614 -0.202562 -0.209541
    13 0.039887 -1.479790 0.029854 -2.058952 0.000000 0.000001
    14 0.028786 -1.075731 -0.023109 -0.606330 0.000000 0.000000
    15 0.250027 -2.820665 -0.238396 -0.797118 -0.167517 -0.114938
    16 -0.049759 -1.680544 0.100479 -1.934764 0.000000 -0.000002
    17 -0.034142 -1.148312 0.084782 -0.925906 0.000000 0.000000
    18 0.957766 -2.746780 -0.090302 0.034253 -0.159185 -0.078874
    19 -0.033420 -1.397129 -0.011257 -0.521018 0.000000 -0.000001
    20 -0.022360 -0.957436 0.018784 -0.975516 0.000000 0.000000
    21 -1.180681 -2.507217 -0.193859 -0.671429 -0.081516 -0.261329
    22 -0.024967 -1.123934 0.017597 -2.056303 0.000000 0.000001
    23 -0.020057 -0.890968 0.010090 -0.677843 0.000000 0.000000
    24 0.583510 -1.197277 0.185379 0.180201 -0.812074 -1.291278
    25 1.535927 0.010246 0.005009 -0.002964 -0.012979 -0.506650
    26 1.100771 0.004527 -0.010679 -0.015488 -0.004784 -1.694062
    27 0.120153 -0.050270 -0.054489 0.287569 3.110905 1.561085
    28 -0.766878 -11.977559 -11.302409 -1.941169 -5.321404 -1.065152
    29 0.096944 -8.450418 -0.009365 0.666657 -1.145432 -0.075767
    30 0.447953 -2.798986 -0.200443 -0.611951 -0.067958 0.142839
    31 -0.032909 -1.480204 0.004940 -1.165523 0.000000 0.000002
    32 -0.027022 -1.076920 -0.020210 -0.581968 0.000000 0.000000
    33 -0.249534 -2.846964 -0.174213 -0.493046 0.069637 0.253791
    34 0.043235 -1.683941 0.096012 -1.309075 0.002823 -0.000167
    35 0.031729 -1.160830 0.058838 -0.744925 0.000642 0.008372
    36 -0.963866 -2.785145 -0.085350 -0.325285 0.142178 0.358727
    37 0.028479 -1.403067 0.006271 -0.410459 0.000000 0.000000
    38 0.021413 -0.957781 0.020046 -0.738161 0.000000 0.000000
    39 1.164475 -2.543940 -0.170330 -0.610682 -0.190582 0.231604
    40 0.024032 -1.129042 0.017807 -0.709857 0.000000 0.000001
    41 0.014898 -0.883989 -0.019848 -0.845482 0.000000 0.000000
    42 -0.586770 -1.264477 0.200161 0.017478 -0.252048 -2.758607
    43 1.522835 0.058681 0.016848 -0.091590 0.094171 0.534132
    44 1.117947 0.048424 -0.005766 -0.019071 -0.016473 0.914475
    45 -0.139399 -0.111698 0.014397 0.653645 -0.030687 1.580508
    46 -1.393470 8.839177 -0.239433 1.580804 -0.005023 -1.566847
  time 13
    0 0.000000 0.000000 -0.042970 0.017348 0.000000 -0.000036
    1 9.213061 4.025732 -7.904157 -0.149965 -1.612728 -0.045697
    2 -0.071918 -8.498731 -0.104137 0.151252 0.282508 0.057556
    3 2.229949 -2.698480 1.312930 -0.053751 0.246035 3.130544
    4 0.752643 1.995335 -0.000002 0.000000 0.000000 0.000000
    5 -2.660486 9.115473 0.000080 0.000000 0.000000 -1.570796
    6 0.016596 -0.003077 0.000006 0.000002 -0.000008 3.137581
    7 2.244831 -0.591284 -0.000012 -0.000005 0.000007 -0.004021
    8 -1.040147 15.798655 0.000139 0.000002 -0.000009 1.566784
    9 0.837524 6.776000 0.000056 0.000009 0.000002 -0.004012
    10 -0.000574 -12.168339 -15.134835 -1.570796 -3.141592 1.570796
    11 1.257180 8.762585 -0.153713 -1.570562 0.002683 -1.566807
    12 -0.488518 -2.755602 -0.228260 -0.871614 -0.202562 -0.209541
    13 0.039887 -1.479790 0.029854 -2.058952 0.000000 0.000001
    14 0.028786 -1.075731 -0.023109 -0.606330 0.000000 0.000000
    15 0.250027 -2.820665 -0.238396 -0.797118 -0.167517 -0.114938
    16 -0.049759 -1.680544 0.100479 -1.934764 0.000000 -0.000002
    17 -0.034142 -1.148312 0.084782 -0.925879 0.000000 0.000000
    18 0.957766 -2.746780 -0.090302 0.034253 -0.159185 -0.078874
    19 -0.033420 -1.397129 -0.011257 -0.521018 0.000000 -0.000001
    20 -0.022360 -0.957436 0.018784 -0.975516 0.000000 0.000000
    21 -1.180681 -2.507217 -0.193859 -0.671429 -0.081516 -0.261329
    22 -0.024967 -1.123934 0.017597 -2.056303 0.000000 0.000001
    23 -0.020057 -0.890968 0.010090 -0.677843 0.000000 0.000000
    24 0.583510 -1.197277 0.185379 0.180201 -0.812074 -1.291278
    25 1.535927 0.010246 0.005009 -0.002964 -0.012979 -0.506650
    26 1.100771 0.004527 -0.010679 -0.015488 -0.004784 -1.694062
    27 0.120153 -0.050270 -0.054489 0.287569 3.110905 1.561085
    28 -0.766878 -11.977559 -11.302409 -1.941169 -5.321404 -1.065152
    29 0.096944 -8.450418 -0.009365 0.666657 -1.145432 -0.075767
    30 0.447953 -2.798986 -0.200443 -0.611951 -0.067958 0.142839
    31 -0.032909 -1.480204 0.004940 -1.165523 0.000000 0.000002
    32 -0.027022 -1.076920 -0.020210 -0.581968 0.000000 0.000000
    33 -0.249534 -2.846964 -0.174213 -0.493046 0.069637 0.253791
    34 0.043235 -1.683941 0.096012 -1.309075 0.002823 -0.000167
    35 0.031729 -1.160830 0.058838 -0.744925 0.000642 0.008372
    36 -0.963866 -2.785145 -0.085350 -0.325285 0.142178 0.358727
    37 0.028479 -1.403067 0.006271 -0.410459 0.000000 0.000000
    38 0.021413 -0.957781 0.020046 -0.738161 0.000000 0.000000
    39 1.164475 -2.543940 -0.170330 -0.610661 -0.190582 0.231604
    40 0.024032 -1.129042 0.017807 -0.709857 0.000000 0.000001
    41 0.014898 -0.883989 -0.019848 -0.845482 0.000000 0.000000
    42 -0.586770 -1.264477 0.200161 0.017478 -0.252048 -2.758607
    43 1.522835 0.058681 0.016848 -0.091590 0.094171 0.534132
    44 1.117947 0.048424 -0.005766 -0.019071 -0.016473 0.914475
    45 -0.139399 -0.111698 0.014397 0.653645 -0.030687 1.580508
    46 -1.393470 8.839177 -0.239433 1.580804 -0.005023 -1.566847
  time 14
    0 0.000000 0.000000 -0.066408 0.014772 0.000000 -0.000036
    1 9.213061 4.025732 -7.904157 -0.149965 -1.612728 -0.045697
    2 -0.071918 -8.498731 -0.104137 0.151252 0.282508 0.057556
    3 2.229949 -2.698480 1.312930 -0.053751 0.246035 3.130544
    4 0.752643 1.995335 -0.000002 0.000000 0.000000 0.000000
    5 -2.660486 9.115473 0.000080 0.000000 0.000000 -1.570796
    6 0.016596 -0.003077 0.000006 0.000002 -0.000008 3.137581
    7 2.244831 -0.591284 -0.000012 -0.000005 0.000007 -0.004021
    8 -1.040147 15.798655 0.000139 0.000002 -0.000009 1.566784
    9 0.837524 6.776000 0.000056 0.000009 0.000002 -0.004012
    10 -0.000574 -12.168339 -15.134835 -1.570796 -3.141592 1.570796
    11 1.257180 8.762585 -0.153713 -1.570562 0.002683 -1.566807
    12 -0.488518 -2.755602 -0.228260 -0.871614 -0.202562 -0.209541
    13 0.039887 -1.479790 0.029854 -2.058952 0.000000 0.000001
    14 0.028786 -1.075731 -0.023109 -0.606330 0.000000 0.000000
    15 0.250027 -2.820665 -0.238396 -0.797118 -0.167517 -0.114938
    16 -0.049759 -1.680544 0.100479 -1.934764 0.000000 -0.000002
    17 -0.034142 -1.148312 0.084782 -0.925906 0.000000 0.000000
    18 0.957766 -2.746780 -0.090302 0.034253 -0.159185 -0.078874
    19 -0.033420 -1.397129 -0.011257 -0.521018 0.000000 -0.000001
    20 -0.022360 -0.957436 0.018784 -0.975516 0.000000 0.000000
    21 -1.180681 -2.507217 -0.193859 -0.671429 -0.081516 -0.261329
    22 -0.024967 -1.123934 0.017597 -2.056303 0.000000 0.000001
    23 -0.020057 -0.890968 0.010090 -0.677843 0.000000 0.000000
    24 0.583510 -1.197277 0.185379 0.180201 -0.812074 -1.291278
    25 1.535927 0.010246 0.005009 -0.002964 -0.012979 -0.506650
    26 1.100771 0.004527 -0.010679 -0.015488 -0.004784 -1.694062
    27 0.120153 -0.050270 -0.054489 0.287569 3.110905 1.561085
    28 -0.766878 -11.977559 -11.302409 -1.941169 -5.321404 -1.065152
    29 0.096944 -8.450418 -0.009365 0.666657 -1.145432 -0.075767
    30 0.447953 -2.798986 -0.200443 -0.611951 -0.067958 0.142839
    31 -0.032909 -1.480204 0.004940 -1.165523 0.000000 0.000002
    32 -0.027022 -1.076920 -0.020210 -0.581968 0.000000 0.000000
    33 -0.249534 -2.846964 -0.174213 -0.493046 0.069637 0.253791
    34 0.043235 -1.683941 0.096012 -1.309075 0.002823 -0.000167
    35 0.031729 -1.160830 0.058838 -0.744925 0.000642 0.008372
    36 -0.963866 -2.785145 -0.085350 -0.325285 0.142178 0.358727
    37 0.028479 -1.403067 0.006271 -0.410459 0.000000 0.000000
    38 0.021413 -0.957781 0.020046 -0.738161 0.000000 0.000000
    39 1.164475 -2.543940 -0.170330 -0.610682 -0.190582 0.231604
    40 0.024032 -1.129042 0.017807 -0.709857 0.000000 0.000001
    41 0.014898 -0.883989 -0.019848 -0.845482 0.000000 0.000000
    42 -0.586770 -1.264477 0.200161 0.017478 -0.252048 -2.758607
    43 1.522835 0.058681 0.016848 -0.091590 0.094171 0.534132
    44 1.117947 0.048424 -0.005766 -0.019071 -0.016473 0.914475
    45 -0.139399 -0.111698 0.014397 0.653645 -0.030687 1.580508
    46 -1.393470 8.839177 -0.239433 1.580804 -0.005023 -1.566847
  time 15
    0 0.000000 0.000000 -0.089846 0.011131 0.000000 -0.000036
    1 9.213061 4.025732 -7.904157 -0.149965 -1.612728 -0.045697
    2 -0.071918 -8.498731 -0.104137 0.151252 0.282508 0.057556
    3 2.229949 -2.698480 1.312930 -0.053751 0.246035 3.130544
    4 0.752643 1.995335 -0.000002 0.000000 0.000000 0.000000
    5 -2.660486 9.115473 0.000080 0.000000 0.000000 -1.570796
    6 0.016596 -0.003077 0.000006 0.000002 -0.000008 3.137581
    7 2.244831 -0.591284 -0.000012 -0.000005 0.000007 -0.004021
    8 -1.040147 15.798655 0.000139 0.000002 -0.000009 1.566784
    9 0.837524 6.776000 0.000056 0.000009 0.000002 -0.004012
    10 -0.000574 -12.168339 -15.134835 -1.570796 -3.141592 1.570796
    11 1.257180 8.762585 -0.153713 -1.570562 0.002683 -1.566807
    12 -0.488518 -2.755602 -0.228260 -0.871614 -0.202562 -0.209541
    13 0.039887 -1.479790 0.029854 -2.058952 0.000000 0.000001
    14 0.028786 -1.075731 -0.023109 -0.606330 0.000000 0.000000
    15 0.250027 -2.820665 -0.238396 -0.797118 -0.167517 -0.114938
    16 -0.049759 -1.680544 0.100479 -1.934764 0.000000 -0.000002
    17 -0.034142 -1.148312 0.084782 -0.925906 0.000000 0.000000
    18 0.957766 -2.746780 -0.090302 0.034253 -0.159185 -0.078874
    19 -0.033420 -1.397129 -0.011257 -0.521018 0.000000 -0.000001
    20 -0.022360 -0.957436 0.018784 -0.975516 0.000000 0.000000
    21 -1.180681 -2.507217 -0.193859 -0.671429 -0.081516 -0.261329
    22 -0.024967 -1.123934 0.017597 -2.056303 0.000000 0.000001
    23 -0.020057 -0.890968 0.010090 -0.677843 0.000000 0.000000
    24 0.583510 -1.197277 0.185379 0.180201 -0.812074 -1.291278
    25 1.535927 0.010246 0.005009 -0.002964 -0.012979 -0.506650
    26 1.100771 0.004527 -0.010679 -0.015488 -0.004784 -1.694062
    27 0.120153 -0.050270 -0.054489 0.287569 3.110905 1.561085
    28 -0.766878 -11.977559 -11.302409 -1.941169 -5.321404 -1.065152
    29 0.096944 -8.450418 -0.009365 0.666657 -1.145432 -0.075767
    30 0.447953 -2.798986 -0.200443 -0.611951 -0.067958 0.142839
    31 -0.032909 -1.480204 0.004940 -1.165523 0.000000 0.000002
    32 -0.027022 -1.076920 -0.020210 -0.581968 0.000000 0.000000
    33 -0.249534 -2.846964 -0.174213 -0.493046 0.069637 0.253791
    34 0.043235 -1.683941 0.096012 -1.309075 0.002823 -0.000167
    35 0.031729 -1.160830 0.058838 -0.744925 0.000642 0.008372
    36 -0.963866 -2.785145 -0.085350 -0.325285 0.142178 0.358727
    37 0.028479 -1.403067 0.006271 -0.410459 0.000000 0.000000
    38 0.021413 -0.957781 0.020046 -0.738161 0.000000 0.000000
    39 1.164475 -2.543940 -0.170330 -0.610682 -0.190582 0.231604
    40 0.024032 -1.129042 0.017807 -0.709857 0.000000 0.000001
    41 0.014898 -0.883989 -0.019848 -0.845482 0.000000 0.000000
    42 -0.586770 -1.264477 0.200161 0.017478 -0.252048 -2.758607
    43 1.522835 0.058681 0.016848 -0.091590 0.094171 0.534132
    44 1.117947 0.048424 -0.005766 -0.019071 -0.016473 0.914475
    45 -0.139399 -0.111698 0.014397 0.653645 -0.030687 1.580508
    46 -1.393470 8.839177 -0.239433 1.580804 -0.005023 -1.566847
  time 16
    0 0.000000 0.000000 -0.105472 0.006973 0.000000 -0.000036
    1 9.213061 4.025732 -7.904157 -0.149965 -1.612728 -0.045697
    2 -0.071918 -8.498731 -0.104137 0.151252 0.282508 0.057556
    3 2.229949 -2.698480 1.312930 -0.053751 0.246035 3.130544
    4 0.752643 1.995335 -0.000002 0.000000 0.000000 0.000000
    5 -2.660486 9.115473 0.000080 0.000000 0.000000 -1.570796
    6 0.016596 -0.003077 0.000006 0.000002 -0.000008 3.137581
    7 2.244831 -0.591284 -0.000012 -0.000005 0.000007 -0.004021
    8 -1.040147 15.798655 0.000139 0.000002 -0.000009 1.566784
    9 0.837524 6.776000 0.000056 0.000009 0.000002 -0.004012
    10 -0.000574 -12.168339 -15.134835 -1.570796 -3.141592 1.570796
    11 1.257180 8.762585 -0.153713 -1.570562 0.002683 -1.566807
    12 -0.488518 -2.755602 -0.228260 -0.871614 -0.202562 -0.209541
    13 0.039887 -1.479790 0.029854 -2.058952 0.000000 0.000001
    14 0.028786 -1.075731 -0.023109 -0.606330 0.000000 0.000000
    15 0.250027 -2.820665 -0.238396 -0.797118 -0.167517 -0.114938
    16 -0.049759 -1.680544 0.100479 -1.934764 0.000000 -0.000002
    17 -0.034142 -1.148312 0.084782 -0.925879 0.000000 0.000000
    18 0.957766 -2.746780 -0.090302 0.034253 -0.159185 -0.078874
    19 -0.033420 -1.397129 -0.011257 -0.521018 0.000000 -0.000001
    20 -0.022360 -0.957436 0.018784 -0.975516 0.000000 0.000000
    21 -1.180681 -2.507217 -0.193859 -0.671429 -0.081516 -0.261329
    22 -0.024967 -1.123934 0.017597 -2.056303 0.000000 0.000001
    23 -0.020057 -0.890968 0.010090 -0.677843 0.000000 0.000000
    24 0.583510 -1.197277 0.185379 0.180201 -0.812074 -1.291278
    25 1.535927 0.010246 0.005009 -0.002964 -0.012979 -0.506650
    26 1.100771 0.004527 -0.010679 -0.015488 -0.004784 -1.694062
    27 0.120153 -0.050270 -0.054489 0.287569 3.110905 1.561085
    28 -0.766878 -11.977559 -11.302409 -1.941169 -5.321404 -1.065152
    29 0.096944 -8.450418 -0.009365 0.666657 -1.145432 -0.075767
    30 0.447953 -2.798986 -0.200443 -0.611951 -0.067958 0.142839
    31 -0.032909 -1.480204 0.004940 -1.165523 0.000000 0.000002
    32 -0.027022 -1.076920 -0.020210 -0.581968 0.000000 0.000000
    33 -0.249534 -2.846964 -0.174213 -0.493046 0.069637 0.253791
    34 0.043235 -1.683941 0.096012 -1.309075 0.002823 -0.000167
    35 0.031729 -1.160830 0.058838 -0.744925 0.000642 0.008372
    36 -0.963866 -2.785145 -0.085350 -0.325285 0.142178 0.358727
    37 0.028479 -1.403067 0.006271 -0.410459 0.000000 0.000000
    38 0.021413 -0.957781 0.020046 -0.738161 0.000000 0.000000
    39 1.164475 -2.543940 -0.170330 -0.610682 -0.190582 0.231604
    40 0.024032 -1.129042 0.017807 -0.709857 0.000000 0.000001
    41 0.014898 -0.883989 -0.019848 -0.845482 0.000000 0.000000
    42 -0.586770 -1.264477 0.200161 0.017478 -0.252048 -2.758607
    43 1.522835 0.058681 0.016848 -0.091590 0.094171 0.534132
    44 1.117947 0.048424 -0.005766 -0.019071 -0.016473 0.914475
    45 -0.139399 -0.111698 0.014397 0.653645 -0.030687 1.580508
    46 -1.393470 8.839177 -0.239433 1.580804 -0.005023 -1.566847
  time 17
    0 0.000000 0.000000 -0.109378 0.002800 0.000000 -0.000036
    1 9.213061 4.025732 -7.904157 -0.149965 -1.612728 -0.045697
    2 -0.071918 -8.498731 -0.104137 0.151252 0.282508 0.057556
    3 2.229949 -2.698480 1.312930 -0.053751 0.246035 3.130544
    4 0.752643 1.995335 -0.000002 0.000000 0.000000 0.000000
    5 -2.660486 9.115473 0.000080 0.000000 0.000000 -1.570796
    6 0.016596 -0.003077 0.000006 0.000002 -0.000008 3.137581
    7 2.244831 -0.591284 -0.000012 -0.000005 0.000007 -0.004021
    8 -1.040147 15.798655 0.000139 0.000002 -0.000009 1.566784
    9 0.837524 6.776000 0.000056 0.000009 0.000002 -0.004012
    10 -0.000574 -12.168339 -15.134835 -1.570796 -3.141592 1.570796
    11 1.257180 8.762585 -0.153713 -1.570562 0.002683 -1.566807
    12 -0.488518 -2.755602 -0.228260 -0.871614 -0.202562 -0.209541
    13 0.039887 -1.479790 0.029854 -2.058952 0.000000 0.000001
    14 0.028786 -1.075731 -0.023109 -0.606330 0.000000 0.000000
    15 0.250027 -2.820665 -0.238396 -0.797118 -0.167517 -0.114938
    16 -0.049759 -1.680544 0.100479 -1.934764 0.000000 -0.000002
    17 -0.034142 -1.148312 0.084782 -0.925906 0.000000 0.000000
    18 0.957766 -2.746780 -0.090302 0.034253 -0.159185 -0.078874
    19 -0.033420 -1.397129 -0.011257 -0.521018 0.000000 -0.000001
    20 -0.022360 -0.957436 0.018784 -0.975516 0.000000 0.000000
    21 -1.180681 -2.507217 -0.193859 -0.671429 -0.081516 -0.261329
    22 -0.024967 -1.123934 0.017597 -2.056303 0.000000 0.000001
    23 -0.020057 -0.890968 0.010090 -0.677843 0.000000 0.000000
    24 0.583510 -1.197277 0.185379 0.180201 -0.812074 -1.291278
    25 1.535927 0.010246 0.005009 -0.002964 -0.012979 -0.506650
    26 1.100771 0.004527 -0.010679 -0.015488 -0.004784 -1.694062
    27 0.120153 -0.050270 -0.054489 0.287569 3.110905 1.561085
    28 -0.766878 -11.977559 -11.302409 -1.941169 -5.321404 -1.065152
    29 0.096944 -8.450418 -0.009365 0.666657 -1.145432 -0.075767
    30 0.447953 -2.798986 -0.200443 -0.611951 -0.067958 0.142839
    31 -0.032909 -1.480204 0.004940 -1.165523 0.000000 0.000002
    32 -0.027022 -1.076920 -0.020210 -0.581968 0.000000 0.000000
    33 -0.249534 -2.846964 -0.174213 -0.493046 0.069637 0.253791
    34 0.043235 -1.683941 0.096012 -1.309075 0.002823 -0.000167
    35 0.031729 -1.160830 0.058838 -0.744925 0.000642 0.008372
    36 -0.963866 -2.785145 -0.085350 -0.325285 0.142178 0.358727
    37 0.028479 -1.403067 0.006271 -0.410459 0.000000 0.000000
    38 0.021413 -0.957781 0.020046 -0.738161 0.000000 0.000000
    39 1.164475 -2.543940 -0.170330 -0.610661 -0.190582 0.231604
    40 0.024032 -1.129042 0.017807 -0.709857 0.000000 0.000001
    41 0.014898 -0.883989 -0.019848 -0.845482 0.000000 0.000000
    42 -0.586770 -1.264477 0.200161 0.017478 -0.252048 -2.758607
    43 1.522835 0.058681 0.016848 -0.091590 0.094171 0.534132
    44 1.117947 0.048424 -0.005766 -0.019071 -0.016473 0.914475
    45 -0.139399 -0.111698 0.014397 0.653645 -0.030687 1.580508
    46 -1.393470 8.839177 -0.239433 1.580804 -0.005023 -1.566847
  time 18
    0 0.000000 0.000000 -0.105472 -0.000826 0.000000 -0.000036
    1 9.213061 4.025732 -7.904157 -0.149965 -1.612728 -0.045697
    2 -0.071918 -8.498731 -0.104137 0.151252 0.282508 0.057556
    3 2.229949 -2.698480 1.312930 -0.053751 0.246035 3.130544
    4 0.752643 1.995335 -0.000002 0.000000 0.000000 0.000000
    5 -2.660486 9.115473 0.000080 0.000000 0.000000 -1.570796
    6 0.016596 -0.003077 0.000006 0.000002 -0.000008 3.137581
    7 2.244831 -0.591284 -0.000012 -0.000005 0.000007 -0.004021
    8 -1.040147 15.798655 0.000139 0.000002 -0.000009 1.566784
    9 0.837524 6.776000 0.000056 0.000009 0.000002 -0.004012
    10 -0.000574 -12.168339 -15.134835 -1.570796 -3.141592 1.570796
    11 1.257180 8.762585 -0.153713 -1.570562 0.002683 -1.566807
    12 -0.488518 -2.755602 -0.228260 -0.871614 -0.202562 -0.209541
    13 0.039887 -1.479790 0.029854 -2.058952 0.000000 0.000001
    14 0.028786 -1.075731 -0.023109 -0.606330 0.000000 0.000000
    15 0.250027 -2.820665 -0.238396 -0.797118 -0.167517 -0.114938
    16 -0.049759 -1.680544 0.100479 -1.934764 0.000000 -0.000002
    17 -0.034142 -1.148312 0.084782 -0.925879 0.000000 0.000000
    18 0.957766 -2.746780 -0.090302 0.034253 -0.159185 -0.078874
    19 -0.033420 -1.397129 -0.011257 -0.521018 0.000000 -0.000001
    20 -0.022360 -0.957436 0.018784 -0.975516 0.000000 0.000000
    21 -1.180681 -2.507217 -0.193859 -0.671429 -0.081516 -0.261329
    22 -0.024967 -1.123934 0.017597 -2.056303 0.000000 0.000001
    23 -0.020057 -0.890968 0.010090 -0.677843 0.000000 0.000000
    24 0.583510 -1.197277 0.185379 0.180201 -0.812074 -1.291278
    25 1.535927 0.010246 0.005009 -0.002964 -0.012979 -0.506650
    26 1.100771 0.004527 -0.010679 -0.015488 -0.004784 -1.694062
    27 0.120153 -0.050270 -0.054489 0.287569 3.110905 1.561085
    28 -0.766878 -11.977559 -11.302409 -1.941169 -5.321404 -1.065152
    29 0.096944 -8.450418 -0.009365 0.666657 -1.145432 -0.075767
    30 0.447953 -2.798986 -0.200443 -0.611951 -0.067958 0.142839
    31 -0.032909 -1.480204 0.004940 -1.165523 0.000000 0.000002
    32 -0.027022 -1.076920 -0.020210 -0.581968 0.000000 0.000000
    33 -0.249534 -2.846964 -0.174213 -0.493046 0.069637 0.253791
    34 0.043235 -1.683941 0.096012 -1.309075 0.002823 -0.000167
    35 0.031729 -1.160830 0.058838 -0.744925 0.000642 0.008372
    36 -0.963866 -2.785145 -0.085350 -0.325285 0.142178 0.358727
    37 0.028479 -1.403067 0.006271 -0.410459 0.000000 0.000000
    38 0.021413 -0.957781 0.020046 -0.738161 0.000000 0.000000
    39 1.164475 -2.543940 -0.170330 -0.610682 -0.190582 0.231604
    40 0.024032 -1.129042 0.017807 -0.709857 0.000000 0.000001
    41 0.014898 -0.883989 -0.019848 -0.845482 0.000000 0.000000
    42 -0.586770 -1.264477 0.200161 0.017478 -0.252048 -2.758607
    43 1.522835 0.058681 0.016848 -0.091590 0.094171 0.534132
    44 1.117947 0.048424 -0.005766 -0.019071 -0.016473 0.914475
    45 -0.139399 -0.111698 0.014397 0.653645 -0.030687 1.580508
    46 -1.393470 8.839177 -0.239433 1.580804 -0.005023 -1.566847
  time 19
    0 0.000000 0.000000 -0.093753 -0.003402 0.000000 -0.000036
    1 9.213061 4.025732 -7.904157 -0.149965 -1.612728 -0.045697
    2 -0.071918 -8.498731 -0.104137 0.151252 0.282508 0.057556
    3 2.229949 -2.698480 1.312930 -0.053751 0.246035 3.130544
    4 0.752643 1.995335 -0.000002 0.000000 0.000000 0.000000
    5 -2.660486 9.115473 0.000080 0.000000 0.000000 -1.570796
    6 0.016596 -0.003077 0.000006 0.000002 -0.000008 3.137581
    7 2.244831 -0.591284 -0.000012 -0.000005 0.000007 -0.004021
    8 -1.040147 15.798655 0.000139 0.000002 -0.000009 1.566784
    9 0.837524 6.776000 0.000056 0.000009 0.000002 -0.004012
    10 -0.000574 -12.168339 -15.134835 -1.570796 -3.141592 1.570796
    11 1.257180 8.762585 -0.153713 -1.570562 0.002683 -1.566807
    12 -0.488518 -2.755602 -0.228260 -0.871614 -0.202562 -0.209541
    13 0.039887 -1.479790 0.029854 -2.058952 0.000000 0.000001
    14 0.028786 -1.075731 -0.023109 -0.606330 0.000000 0.000000
    15 0.250027 -2.820665 -0.238396 -0.797118 -0.167517 -0.114938
    16 -0.049759 -1.680544 0.100479 -1.934764 0.000000 -0.000002
    17 -0.034142 -1.148312 0.084782 -0.925879 0.000000 0.000000
    18 0.957766 -2.746780 -0.090302 0.034253 -0.159185 -0.078874
    19 -0.033420 -1.397129 -0.011257 -0.521018 0.000000 -0.000001
    20 -0.022360 -0.957436 0.018784 -0.975516 0.000000 0.000000
    21 -1.180681 -2.507217 -0.193859 -0.671429 -0.081516 -0.261329
    22 -0.024967 -1.123934 0.017597 -2.056303 0.000000 0.000001
    23 -0.020057 -0.890968 0.010090 -0.677843 0.000000 0.000000
    24 0.583510 -1.197277 0.185379 0.180201 -0.812074 -1.291278
    25 1.535927 0.010246 0.005009 -0.002964 -0.012979 -0.506650
    26 1.100771 0.004527 -0.010679 -0.015488 -0.004784 -1.694062
    27 0.120153 -0.050270 -0.054489 0.287569 3.110905 1.561085
    28 -0.766878 -11.977559 -11.302409 -1.941169 -5.321404 -1.065152
    29 0.096944 -8.450418 -0.009365 0.666657 -1.145432 -0.075767
    30 0.447953 -2.798986 -0.200443 -0.611951 -0.067958 0.142839
    31 -0.032909 -1.480204 0.004940 -1.165523 0.000000 0.000002
    32 -0.027022 -1.076920 -0.020210 -0.581968 0.000000 0.000000
    33 -0.249534 -2.846964 -0.174213 -0.493046 0.069637 0.253791
    34 0.043235 -1.683941 0.096012 -1.309075 0.002823 -0.000167
    35 0.031729 -1.160830 0.058838 -0.744925 0.000642 0.008372
    36 -0.963866 -2.785145 -0.085350 -0.325285 0.142178 0.358727
    37 0.028479 -1.403067 0.006271 -0.410459 0.000000 0.000000
    38 0.021413 -0.957781 0.020046 -0.738161 0.000000 0.000000
    39 1.164475 -2.543940 -0.170330 -0.610682 -0.190582 0.231604
    40 0.024032 -1.129042 0.017807 -0.709857 0.000000 0.000001
    41 0.014898 -0.883989 -0.019848 -0.845482 0.000000 0.000000
    42 -0.586770 -1.264477 0.200161 0.017478 -0.252048 -2.758607
    43 1.522835 0.058681 0.016848 -0.091590 0.094171 0.534132
    44 1.117947 0.048424 -0.005766 -0.019071 -0.016473 0.914475
    45 -0.139399 -0.111698 0.014397 0.653645 -0.030687 1.580508
    46 -1.393470 8.839177 -0.239433 1.580804 -0.005023 -1.566847
  time 20
    0 0.000000 0.000000 -0.074221 -0.004382 0.000000 -0.000036
    1 9.213061 4.025732 -7.904157 -0.149965 -1.612728 -0.045697
    2 -0.071918 -8.498731 -0.104137 0.151252 0.282508 0.057556
    3 2.229949 -2.698480 1.312930 -0.053751 0.246035 3.130544
    4 0.752643 1.995335 -0.000002 0.000000 0.000000 0.000000
    5 -2.660486 9.115473 0.000080 0.000000 0.000000 -1.570796
    6 0.016596 -0.003077 0.000006 0.000002 -0.000008 3.137581
    7 2.244831 -0.591284 -0.000012 -0.000005 0.000007 -0.004021
    8 -1.040147 15.798655 0.000139 0.000002 -0.000009 1.566784
    9 0.837524 6.776000 0.000056 0.000009 0.000002 -0.004012
    10 -0.000574 -12.168339 -15.134835 -1.570796 -3.141592 1.570796
    11 1.257180 8.762585 -0.153713 -1.570562 0.002683 -1.566807
    12 -0.488518 -2.755602 -0.228260 -0.871614 -0.202562 -0.209541
    13 0.039887 -1.479790 0.029854 -2.058952 0.000000 0.000001
    14 0.028786 -1.075731 -0.023109 -0.606330 0.000000 0.000000
    15 0.250027 -2.820665 -0.238396 -0.797118 -0.167517 -0.114938
    16 -0.049759 -1.680544 0.100479 -1.934764 0.000000 -0.000002
    17 -0.034142 -1.148312 0.084782 -0.925879 0.000000 0.000000
    18 0.957766 -2.746780 -0.090302 0.034253 -0.159185 -0.078874
    19 -0.033420 -1.397129 -0.011257 -0.521018 0.000000 -0.000001
    20 -0.022360 -0.957436 0.018784 -0.975516 0.000000 0.000000
    21 -1.180681 -2.507217 -0.193859 -0.671429 -0.081516 -0.261329
    22 -0.024967 -1.123934 0.017597 -2.056303 0.000000 0.000001
    23 -0.020057 -0.890968 0.010090 -0.677843 0.000000 0.000000
    24 0.583510 -1.197277 0.185379 0.180201 -0.812074 -1.291278
    25 1.535927 0.010246 0.005009 -0.002964 -0.012979 -0.506650
    26 1.100771 0.004527 -0.010679 -0.015488 -0.004784 -1.694062
    27 0.120153 -0.050270 -0.054489 0.287569 3.110905 1.561085
    28 -0.766878 -11.977559 -11.302409 -1.941169 -5.321404 -1.065152
    29 0.096944 -8.450418 -0.009365 0.666657 -1.145432 -0.075767
    30 0.447953 -2.798986 -0.200443 -0.611951 -0.067958 0.142839
    31 -0.032909 -1.480204 0.004940 -1.165523 0.000000 0.000002
    32 -0.027022 -1.076920 -0.020210 -0.581968 0.000000 0.000000
    33 -0.249534 -2.846964 -0.174213 -0.493046 0.069637 0.253791
    34 0.043235 -1.683941 0.096012 -1.309075 0.002823 -0.000167
    35 0.031729 -1.160830 0.058838 -0.744925 0.000642 0.008372
    36 -0.963866 -2.785145 -0.085350 -0.325285 0.142178 0.358727
    37 0.028479 -1.403067 0.006271 -0.410459 0.000000 0.000000
    38 0.021413 -0.957781 0.020046 -0.738161 0.000000 0.000000
    39 1.164475 -2.543940 -0.170330 -0.610682 -0.190582 0.231604
    40 0.024032 -1.129042 0.017807 -0.709857 0.000000 0.000001
    41 0.014898 -0.883989 -0.019848 -0.845482 0.000000 0.000000
    42 -0.586770 -1.264477 0.200161 0.017478 -0.252048 -2.758607
    43 1.522835 0.058681 0.016848 -0.091590 0.094171 0.534132
    44 1.117947 0.048424 -0.005766 -0.019071 -0.016473 0.914475
    45 -0.139399 -0.111698 0.014397 0.653645 -0.030687 1.580508
    46 -1.393470 8.839177 -0.239433 1.580804 -0.005023 -1.566847
  time 21
    0 0.000000 0.000000 -0.054689 -0.003920 0.000000 -0.000036
    1 9.213061 4.025732 -7.904157 -0.149965 -1.612728 -0.045697
    2 -0.071918 -8.498731 -0.104137 0.151252 0.282508 0.057556
    3 2.229949 -2.698480 1.312930 -0.053751 0.246035 3.130544
    4 0.752643 1.995335 -0.000002 0.000000 0.000000 0.000000
    5 -2.660486 9.115473 0.000080 0.000000 0.000000 -1.570796
    6 0.016596 -0.003077 0.000006 0.000002 -0.000008 3.137581
    7 2.244831 -0.591284 -0.000012 -0.000005 0.000007 -0.004021
    8 -1.040147 15.798655 0.000139 0.000002 -0.000009 1.566784
    9 0.837524 6.776000 0.000056 0.000009 0.000002 -0.004012
    10 -0.000574 -12.168339 -15.134835 -1.570796 -3.141592 1.570796
    11 1.257180 8.762585 -0.153713 -1.570562 0.002683 -1.566807
    12 -0.488518 -2.755602 -0.228260 -0.871614 -0.202562 -0.209541
    13 0.039887 -1.479790 0.029854 -2.058952 0.000000 0.000001
    14 0.028786 -1.075731 -0.023109 -0.606330 0.000000 0.000000
    15 0.250027 -2.820665 -0.238396 -0.797118 -0.167517 -0.114938
    16 -0.049759 -1.680544 0.100479 -1.934764 0.000000 -0.000002
    17 -0.034142 -1.148312 0.084782 -0.925906 0.000000 0.000000
    18 0.957766 -2.746780 -0.090302 0.034253 -0.159185 -0.078874
    19 -0.033420 -1.397129 -0.011257 -0.521018 0.000000 -0.000001
    20 -0.022360 -0.957436 0.018784 -0.975516 0.000000 0.000000
    21 -1.180681 -2.507217 -0.193859 -0.671429 -0.081516 -0.261329
    22 -0.024967 -1.123934 0.017597 -2.056303 0.000000 0.000001
    23 -0.020057 -0.890968 0.010090 -0.677843 0.000000 0.000000
    24 0.583510 -1.197277 0.185379 0.180201 -0.812074 -1.291278
    25 1.535927 0.010246 0.005009 -0.002964 -0.012979 -0.506650
    26 1.100771 0.004527 -0.010679 -0.015488 -0.004784 -1.694062
    27 0.120153 -0.050270 -0.054489 0.287569 3.110905 1.561085
    28 -0.766878 -11.977559 -11.302409 -1.941169 -5.321404 -1.065152
    29 0.096944 -8.450418 -0.009365 0.666657 -1.145432 -0.075767
    30 0.447953 -2.798986 -0.200443 -0.611951 -0.067958 0.142839
    31 -0.032909 -1.480204 0.004940 -1.165523 0.000000 0.000002
    32 -0.027022 -1.076920 -0.020210 -0.581968 0.000000 0.000000
    33 -0.249534 -2.846964 -0.174213 -0.493046 0.069637 0.253791
    34 0.043235 -1.683941 0.096012 -1.309075 0.002823 -0.000167
    35 0.031729 -1.160830 0.058838 -0.744925 0.000642 0.008372
    36 -0.963866 -2.785145 -0.085350 -0.325285 0.142178 0.358727
    37 0.028479 -1.403067 0.006271 -0.410459 0.000000 0.000000
    38 0.021413 -0.957781 0.020046 -0.738161 0.000000 0.000000
    39 1.164475 -2.543940 -0.170330 -0.610682 -0.190582 0.231604
    40 0.024032 -1.129042 0.017807 -0.709857 0.000000 0.000001
    41 0.014898 -0.883989 -0.019848 -0.845482 0.000000 0.000000
    42 -0.586770 -1.264477 0.200161 0.017478 -0.252048 -2.758607
    43 1.522835 0.058681 0.016848 -0.091590 0.094171 0.534132
    44 1.117947 0.048424 -0.005766 -0.019071 -0.016473 0.914475
    45 -0.139399 -0.111698 0.014397 0.653645 -0.030687 1.580508
    46 -1.393470 8.839177 -0.239433 1.580804 -0.005023 -1.566847
  time 22
    0 0.000000 0.000000 -0.035157 -0.002842 0.000000 -0.000036
    1 9.213061 4.025732 -7.904157 -0.149965 -1.612728 -0.045697
    2 -0.071918 -8.498731 -0.104137 0.151252 0.282508 0.057556
    3 2.229949 -2.698480 1.312930 -0.053751 0.246035 3.130544
    4 0.752643 1.995335 -0.000002 0.000000 0.000000 0.000000
    5 -2.660486 9.115473 0.000080 0.000000 0.000000 -1.570796
    6 0.016596 -0.003077 0.000006 0.000002 -0.000008 3.137581
    7 2.244831 -0.591284 -0.000012 -0.000005 0.000007 -0.004021
    8 -1.040147 15.798655 0.000139 0.000002 -0.000009 1.566784
    9 0.837524 6.776000 0.000056 0.000009 0.000002 -0.004012
    10 -0.000574 -12.168339 -15.134835 -1.570796 -3.141592 1.570796
    11 1.257180 8.762585 -0.153713 -1.570562 0.002683 -1.566807
    12 -0.488518 -2.755602 -0.228260 -0.871614 -0.202562 -0.209541
    13 0.039887 -1.479790 0.029854 -2.058952 0.000000 0.000001
    14 0.028786 -1.075731 -0.023109 -0.606330 0.000000 0.000000
    15 0.250027 -2.820665 -0.238396 -0.797118 -0.167517 -0.114938
    16 -0.049759 -1.680544 0.100479 -1.934764 0.000000 -0.000002
    17 -0.034142 -1.148312 0.084782 -0.925879 0.000000 0.000000
    18 0.957766 -2.746780 -0.090302 0.034253 -0.159185 -0.078874
    19 -0.033420 -1.397129 -0.011257 -0.521018 0.000000 -0.000001
    20 -0.022360 -0.957436 0.018784 -0.975516 0.000000 0.000000
    21 -1.180681 -2.507217 -0.193859 -0.671429 -0.081516 -0.261329
    22 -0.024967 -1.123934 0.017597 -2.056303 0.000000 0.000001
    23 -0.020057 -0.890968 0.010090 -0.677843 0.000000 0.000000
    24 0.583510 -1.197277 0.185379 0.180201 -0.812074 -1.291278
    25 1.535927 0.010246 0.005009 -0.002964 -0.012979 -0.506650
    26 1.100771 0.004527 -0.010679 -0.015488 -0.004784 -1.694062
    27 0.120153 -0.050270 -0.054489 0.287569 3.110905 1.561085
    28 -0.766878 -11.977559 -11.302409 -1.941169 -5.321404 -1.065152
    29 0.096944 -8.450418 -0.009365 0.666657 -1.145432 -0.075767
    30 0.447953 -2.798986 -0.200443 -0.611951 -0.067958 0.142839
    31 -0.032909 -1.480204 0.004940 -1.165523 0.000000 0.000002
    32 -0.027022 -1.076920 -0.020210 -0.581968 0.000000 0.000000
    33 -0.249534 -2.846964 -0.174213 -0.493046 0.069637 0.253791
    34 0.043235 -1.683941 0.096012 -1.309075 0.002823 -0.000167
    35 0.031729 -1.160830 0.058838 -0.744925 0.000642 0.008372
    36 -0.963866 -2.785145 -0.085350 -0.325285 0.142178 0.358727
    37 0.028479 -1.403067 0.006271 -0.410459 0.000000 0.000000
    38 0.021413 -0.957781 0.020046 -0.738161 0.000000 0.000000
    39 1.164475 -2.543940 -0.170330 -0.610682 -0.190582 0.231604
    40 0.024032 -1.129042 0.017807 -0.709857 0.000000 0.000001
    41 0.014898 -0.883989 -0.019848 -0.845482 0.000000 0.000000
    42 -0.586770 -1.264477 0.200161 0.017478 -0.252048 -2.758607
    43 1.522835 0.058681 0.016848 -0.091590 0.094171 0.534132
    44 1.117947 0.048424 -0.005766 -0.019071 -0.016473 0.914475
    45 -0.139399 -0.111698 0.014397 0.653645 -0.030687 1.580508
    46 -1.393470 8.839177 -0.239433 1.580804 -0.005023 -1.566847
  time 23
    0 0.000000 0.000000 -0.015625 -0.001540 0.000000 -0.000036
    1 9.213061 4.025732 -7.904157 -0.149965 -1.612728 -0.045697
    2 -0.071918 -8.498731 -0.104137 0.151252 0.282508 0.057556
    3 2.229949 -2.698480 1.312930 -0.053751 0.246035 3.130544
    4 0.752643 1.995335 -0.000002 0.000000 0.000000 0.000000
    5 -2.660486 9.115473 0.000080 0.000000 0.000000 -1.570796
    6 0.016596 -0.003077 0.000006 0.000002 -0.000008 3.137581
    7 2.244831 -0.591284 -0.000012 -0.000005 0.000007 -0.004021
    8 -1.040147 15.798655 0.000139 0.000002 -0.000009 1.566784
    9 0.837524 6.776000 0.000056 0.000009 0.000002 -0.004012
    10 -0.000574 -12.168339 -15.134835 -1.570796 -3.141592 1.570796
    11 1.257180 8.762585 -0.153713 -1.570562 0.002683 -1.566807
    12 -0.488518 -2.755602 -0.228260 -0.871614 -0.202562 -0.209541
    13 0.039887 -1.479790 0.029854 -2.058952 0.000000 0.000001
    14 0.028786 -1.075731 -0.023109 -0.606349 0.000000 0.000000
    15 0.250027 -2.820665 -0.238396 -0.797118 -0.167517 -0.114938
    16 -0.049759 -1.680544 0.100479 -1.934764 0.000000 -0.000002
    17 -0.034142 -1.148312 0.084782 -0.925879 0.000000 0.000000
    18 0.957766 -2.746780 -0.090302 0.034253 -0.159185 -0.078874
    19 -0.033420 -1.397129 -0.011257 -0.521018 0.000000 -0.000001
    20 -0.022360 -0.957436 0.018784 -0.975516 0.000000 0.000000
    21 -1.180681 -2.507217 -0.193859 -0.671429 -0.081516 -0.261329
    22 -0.024967 -1.123934 0.017597 -2.056303 0.000000 0.000001
    23 -0.020057 -0.890968 0.010090 -0.677843 0.000000 0.000000
    24 0.583510 -1.197277 0.185379 0.180201 -0.812074 -1.291278
    25 1.535927 0.010246 0.005009 -0.002964 -0.012979 -0.506650
    26 1.100771 0.004527 -0.010679 -0.015488 -0.004784 -1.694062
    27 0.120153 -0.050270 -0.054489 0.287569 3.110905 1.561085
    28 -0.766878 -11.977559 -11.302409 -1.941169 -5.321404 -1.065152
    29 0.096944 -8.450418 -0.009365 0.666657 -1.145432 -0.075767
    30 0.447953 -2.798986 -0.200443 -0.611951 -0.067958 0.142839
    31 -0.032909 -1.480204 0.004940 -1.165523 0.000000 0.000002
    32 -0.027022 -1.076920 -0.020210 -0.581968 0.000000 0.000000
    33 -0.249534 -2.846964 -0.174213 -0.493046 0.069637 0.253791
    34 0.043235 -1.683941 0.096012 -1.309075 0.002823 -0.000167
    35 0.031729 -1.160830 0.058838 -0.744925 0.000642 0.008372
    36 -0.963866 -2.785145 -0.085350 -0.325285 0.142178 0.358727
    37 0.028479 -1.403067 0.006271 -0.410459 0.000000 0.000000
    38 0.021413 -0.957781 0.020046 -0.738161 0.000000 0.000000
    39 1.164475 -2.543940 -0.170330 -0.610682 -0.190582 0.231604
    40 0.024032 -1.129042 0.017807 -0.709857 0.000000 0.000001
    41 0.014898 -0.883989 -0.019848 -0.845482 0.000000 0.000000
    42 -0.586770 -1.264477 0.200161 0.017478 -0.252048 -2.758607
    43 1.522835 0.058681 0.016848 -0.091590 0.094171 0.534132
    44 1.117947 0.048424 -0.005766 -0.019071 -0.016473 0.914475
    45 -0.139399 -0.111698 0.014397 0.653645 -0.030687 1.580508
    46 -1.393470 8.839177 -0.239433 1.580804 -0.005023 -1.566847
  time 24
    0 0.000000 0.000000 -0.003906 -0.000448 0.000000 -0.000036
    1 9.213061 4.025732 -7.904157 -0.149965 -1.612728 -0.045697
    2 -0.071918 -8.498731 -0.104137 0.151252 0.282508 0.057556
    3 2.229949 -2.698480 1.312930 -0.053751 0.246035 3.130544
    4 0.752643 1.995335 -0.000002 0.000000 0.000000 0.000000
    5 -2.660486 9.115473 0.000080 0.000000 0.000000 -1.570796
    6 0.016596 -0.003077 0.000006 0.000002 -0.000008 3.137581
    7 2.244831 -0.591284 -0.000012 -0.000005 0.000007 -0.004021
    8 -1.040147 15.798655 0.000139 0.000002 -0.000009 1.566784
    9 0.837524 6.776000 0.000056 0.000009 0.000002 -0.004012
    10 -0.000574 -12.168339 -15.134835 -1.570796 -3.141592 1.570796
    11 1.257180 8.762585 -0.153713 -1.570562 0.002683 -1.566807
    12 -0.488518 -2.755602 -0.228260 -0.871614 -0.202562 -0.209541
    13 0.039887 -1.479790 0.029854 -2.058952 0.000000 0.000001
    14 0.028786 -1.075731 -0.023109 -0.606330 0.000000 0.000000
    15 0.250027 -2.820665 -0.238396 -0.797118 -0.167517 -0.114938
    16 -0.049759 -1.680544 0.100479 -1.934764 0.000000 -0.000002
    17 -0.034142 -1.148312 0.084782 -0.925879 0.000000 0.000000
    18 0.957766 -2.746780 -0.090302 0.034253 -0.159185 -0.078874
    19 -0.033420 -1.397129 -0.011257 -0.521018 0.000000 -0.000001
    20 -0.022360 -0.957436 0.018784 -0.975516 0.000000 0.000000
    21 -1.180681 -2.507217 -0.193859 -0.671429 -0.081516 -0.261329
    22 -0.024967 -1.123934 0.017597 -2.056303 0.000000 0.000001
    23 -0.020057 -0.890968 0.010090 -0.677843 0.000000 0.000000
    24 0.583510 -1.197277 0.185379 0.180201 -0.812074 -1.291278
    25 1.535927 0.010246 0.005009 -0.002964 -0.012979 -0.506650
    26 1.100771 0.004527 -0.010679 -0.015488 -0.004784 -1.694062
    27 0.120153 -0.050270 -0.054489 0.287569 3.110905 1.561085
    28 -0.766878 -11.977559 -11.302409 -1.941169 -5.321404 -1.065152
    29 0.096944 -8.450418 -0.009365 0.666657 -1.145432 -0.075767
    30 0.447953 -2.798986 -0.200443 -0.611951 -0.067958 0.142839
    31 -0.032909 -1.480204 0.004940 -1.165523 0.000000 0.000002
    32 -0.027022 -1.076920 -0.020210 -0.581968 0.000000 0.000000
    33 -0.249534 -2.846964 -0.174213 -0.493046 0.069637 0.253791
    34 0.043235 -1.683941 0.096012 -1.309075 0.002823 -0.000167
    35 0.031729 -1.160830 0.058838 -0.744925 0.000642 0.008372
    36 -0.963866 -2.785145 -0.085350 -0.325285 0.142178 0.358727
    37 0.028479 -1.403067 0.006271 -0.410459 0.000000 0.000000
    38 0.021413 -0.957781 0.020046 -0.738161 0.000000 0.000000
    39 1.164475 -2.543940 -0.170330 -0.610682 -0.190582 0.231604
    40 0.024032 -1.129042 0.017807 -0.709857 0.000000 0.000001
    41 0.014898 -0.883989 -0.019848 -0.845482 0.000000 0.000000
    42 -0.586770 -1.264477 0.200161 0.017478 -0.252048 -2.758607
    43 1.522835 0.058681 0.016848 -0.091590 0.094171 0.534132
    44 1.117947 0.048424 -0.005766 -0.019071 -0.016473 0.914475
    45 -0.139399 -0.111698 0.014397 0.653645 -0.030687 1.580508
    46 -1.393470 8.839177 -0.239433 1.580804 -0.005023 -1.566847
  time 25
    0 0.000000 0.000000 0.000000 0.000000 0.000000 -0.000036
    1 9.213061 4.025732 -7.904157 -0.149965 -1.612728 -0.045697
    2 -0.071918 -8.498731 -0.104137 0.151252 0.282508 0.057556
    3 2.229949 -2.698480 1.312930 -0.053751 0.246035 3.130544
    4 0.752643 1.995335 -0.000002 0.000000 0.000000 0.000000
    5 -2.660486 9.115473 0.000080 0.000000 0.000000 -1.570796
    6 0.016596 -0.003077 0.000006 0.000002 -0.000008 3.137581
    7 2.244831 -0.591284 -0.000012 -0.000005 0.000007 -0.004021
    8 -1.040147 15.798655 0.000139 0.000002 -0.000009 1.566784
    9 0.837524 6.776000 0.000056 0.000009 0.000002 -0.004012
    10 -0.000574 -12.168339 -15.134835 -1.570796 -3.141592 1.570796
    11 1.257180 8.762585 -0.153713 -1.570562 0.002683 -1.566807
    12 -0.488518 -2.755602 -0.228260 -0.871614 -0.202562 -0.209541
    13 0.039887 -1.479790 0.029854 -2.058952 0.000000 0.000001
    14 0.028786 -1.075731 -0.023109 -0.606330 0.000000 0.000000
    15 0.250027 -2.820665 -0.238396 -0.797118 -0.167517 -0.114938
    16 -0.049759 -1.680544 0.100479 -1.934764 0.000000 -0.000002
    17 -0.034142 -1.148312 0.084782 -0.925906 0.000000 0.000000
    18 0.957766 -2.746780 -0.090302 0.034253 -0.159185 -0.078874
    19 -0.033420 -1.397129 -0.011257 -0.521018 0.000000 -0.000001
    20 -0.022360 -0.957436 0.018784 -0.975516 0.000000 0.000000
    21 -1.180681 -2.507217 -0.193859 -0.671429 -0.081516 -0.261329
    22 -0.024967 -1.123934 0.017597 -2.056303 0.000000 0.000001
    23 -0.020057 -0.890968 0.010090 -0.677843 0.000000 0.000000
    24 0.583510 -1.197277 0.185379 0.180201 -0.812074 -1.291278
    25 1.535927 0.010246 0.005009 -0.002964 -0.012979 -0.506650
    26 1.100771 0.004527 -0.010679 -0.015488 -0.004784 -1.694062
    27 0.120153 -0.050270 -0.054489 0.287569 3.110905 1.561085
    28 -0.766878 -11.977559 -11.302409 -1.941169 -5.321404 -1.065152
    29 0.096944 -8.450418 -0.009365 0.666657 -1.145432 -0.075767
    30 0.447953 -2.798986 -0.200443 -0.611951 -0.067958 0.142839
    31 -0.032909 -1.480204 0.004940 -1.165523 0.000000 0.000002
    32 -0.027022 -1.076920 -0.020210 -0.581968 0.000000 0.000000
    33 -0.249534 -2.846964 -0.174213 -0.493046 0.069637 0.253791
    34 0.043235 -1.683941 0.096012 -1.309075 0.002823 -0.000167
    35 0.031729 -1.160830 0.058838 -0.744925 0.000642 0.008372
    36 -0.963866 -2.785145 -0.085350 -0.325285 0.142178 0.358727
    37 0.028479 -1.403067 0.006271 -0.410459 0.000000 0.000000
    38 0.021413 -0.957781 0.020046 -0.738161 0.000000 0.000000
    39 1.164475 -2.543940 -0.170330 -0.610682 -0.190582 0.231604
    40 0.024032 -1.129042 0.017807 -0.709857 0.000000 0.000001
    41 0.014898 -0.883989 -0.019848 -0.845482 0.000000 0.000000
    42 -0.586770 -1.264477 0.200161 0.017478 -0.252048 -2.758607
    43 1.522835 0.058681 0.016848 -0.091590 0.094171 0.534132
    44 1.117947 0.048424 -0.005766 -0.019071 -0.016473 0.914475
    45 -0.139399 -0.111698 0.014397 0.653645 -0.030687 1.580508
    46 -1.393470 8.839177 -0.239433 1.580804 -0.005023 -1.566847
end
