version 1
nodes
  0 "Bone01" -1
  1 "Bone_Lefthand" 0
  2 "Bone02" 1
  3 "Bone03" 2
  4 "Bone48" 3
  5 "Bone49" 4
  6 "Bone25" 3
  7 "Bone51" 3
  8 "Bone 04" 1
  9 "Bone13" 8
  10 "Bone14" 9
  11 "Bone15" 10
  12 "Bone17" 8
  13 "Bone18" 12
  14 "Bone19" 13
  15 "Bone21" 8
  16 "Bone22" 15
  17 "Bone23" 16
  18 "Bone05" 8
  19 "Bone06" 18
  20 "Bone07" 19
  21 "Bone09" 8
  22 "Bone10" 21
  23 "Bone11" 22
  24 "Bone04" -1
  25 "Bone_Righthand" 24
  26 "Bone26" 25
  27 "Bone35" 26
  28 "Bone36" 27
  29 "Bone37" 28
  30 "Bone31" 26
  31 "Bone32" 30
  32 "Bone33" 31
  33 "Bone39" 26
  34 "Bone40" 33
  35 "Bone41" 34
  36 "Bone43" 26
  37 "Bone44" 36
  38 "Bone45" 37
  39 "Bone27" 26
  40 "Bone28" 39
  41 "Bone29" 40
end
skeleton
  time 0
    0 9.958185 5.841519 -5.940084 -1.354335 -2.432248 -5.376414
    1 0.000000 -8.563282 -0.000003 -0.015119 0.507010 -1.027941
    2 -0.109710 -3.119558 0.832132 0.656026 1.697471 1.123747
    3 0.000000 1.322671 2.154066 0.000000 0.000000 0.000000
    4 0.000000 -2.226188 0.667243 0.000000 0.000000 0.000000
    5 0.000000 -0.744802 -0.000001 0.000000 -0.267036 0.000000
    6 0.000001 -2.694760 -0.628573 0.000000 0.000000 0.000000
    7 0.000002 -5.701931 -1.088361 0.000000 0.000000 0.000000
    8 -0.003480 -0.404829 0.000000 0.000000 0.000000 0.000000
    9 -0.519309 -2.501155 -0.278958 -1.448623 0.000000 -0.122173
    10 -0.010598 -1.208185 -0.000001 -0.609135 0.000000 0.000000
    11 0.000000 -0.763066 0.000000 -1.192070 0.000000 0.000000
    12 0.105981 -2.607134 -0.278958 -1.476549 0.000000 -0.148353
    13 0.000000 -1.250579 0.000000 -0.684195 0.000000 0.000000
    14 0.000000 -0.932634 0.000000 -1.488764 0.000000 0.000000
    15 0.763064 -2.490556 -0.278958 -0.344835 0.055297 0.283572
    16 -0.012322 -1.280916 -0.000001 -0.322907 0.000000 0.000000
    17 -0.001697 -0.749371 0.000000 -0.593412 0.000000 0.000000
    18 0.354567 0.016267 0.318133 0.358628 -0.477803 -0.702075
    19 1.887165 0.012878 -0.000001 -0.292705 -0.088530 -0.686815
    20 1.001873 -0.000270 0.000001 0.000000 0.000000 -0.708597
    21 -1.123359 -2.195093 -0.278957 -1.337000 -0.006064 -0.061811
    22 0.010772 -0.963791 0.000001 -0.485233 0.000000 0.000000
    23 -0.010412 -0.631915 0.000000 -0.977401 0.000000 0.000000
    24 1.840389 2.287417 -17.014486 1.407822 -1.019812 -0.348030
    25 0.089928 -8.543166 -0.000001 0.386094 0.122644 0.292059
    26 0.000000 -0.359714 0.000000 0.000000 0.000000 0.000000
    27 -0.170480 -2.636148 -0.277655 -1.787196 0.000000 0.000000
    28 0.010599 -1.261178 0.000001 -0.253073 0.000000 0.000000
    29 -0.000001 -0.943233 -0.000001 -0.532326 0.000000 0.000000
    30 -0.827564 -2.508974 -0.277656 -1.432907 0.000000 0.000000
    31 0.000000 -1.292971 0.000000 -0.554988 0.000000 0.000000
    32 0.000000 -0.752466 0.000000 -0.633551 0.000000 0.000000
    33 0.444213 -2.561961 -0.277656 -1.837245 -0.049654 -0.023029
    34 0.021021 -1.208186 0.000000 -0.427606 0.000000 0.000000
    35 0.010597 -0.741867 -0.000001 -0.453786 0.000000 0.000000
    36 1.047444 -2.222822 -0.277656 -1.801437 -0.095845 -0.030507
    37 0.000000 -0.996223 -0.000001 -0.549786 0.000000 0.000000
    38 -0.000001 -0.614690 0.000000 -0.523599 0.000000 0.000000
    39 -0.308254 -0.007814 0.307166 -0.129374 -0.297499 -2.570662
    40 1.978378 0.019543 0.000000 -0.093458 -0.047313 0.082472
    41 0.982426 0.003186 0.000000 0.000000 0.000000 0.425839
  time 1
    0 9.958185 5.568073 -5.916646 -1.341306 -2.369471 -5.395689
    1 0.000000 -8.563282 -0.000003 -0.016322 0.505009 -1.049692
    2 -0.109710 -3.119558 0.832132 0.656026 1.697471 1.123747
    3 0.000000 1.322671 2.154066 0.000000 0.000000 0.000000
    4 0.000000 -2.226188 0.667243 0.000000 0.000000 0.000000
    5 0.000000 -0.744802 -0.000001 0.000000 -0.267036 0.000000
    6 0.000001 -2.694760 -0.628573 0.000000 0.000000 0.000000
    7 0.000002 -5.701931 -1.088361 0.000000 0.000000 0.000000
    8 -0.003480 -0.404829 0.000000 0.000000 0.000000 0.000000
    9 -0.519309 -2.501155 -0.278958 -1.448623 0.000000 -0.122173
    10 -0.010598 -1.208185 -0.000001 -0.551580 0.000000 0.000000
    11 0.000000 -0.763066 0.000000 -1.184592 0.000000 0.000000
    12 0.105981 -2.607134 -0.278958 -1.448714 0.006663 -0.145944
    13 0.000000 -1.250579 0.000000 -0.652699 0.000000 0.000000
    14 0.000000 -0.932634 0.000000 -1.417085 0.000000 0.000000
    15 0.763064 -2.490556 -0.278958 -0.307707 0.055297 0.283572
    16 -0.012322 -1.280916 -0.000001 -0.279009 0.000000 0.000000
    17 -0.001697 -0.749371 0.000000 -0.578204 0.000000 0.000000
    18 0.354567 0.016267 0.318133 0.376473 -0.464452 -0.741402
    19 1.887165 0.012878 -0.000001 -0.294383 -0.082658 -0.667295
    20 1.001873 -0.000270 0.000001 0.000000 0.000000 -0.667587
    21 -1.123359 -2.195093 -0.278957 -1.337000 -0.006064 -0.061811
    22 0.010772 -0.963791 0.000001 -0.425562 0.000000 0.000000
    23 -0.010412 -0.631915 0.000000 -0.960203 0.000000 0.000000
    24 1.574756 1.990533 -16.928545 1.236448 -1.022570 -0.225276
    25 0.089928 -8.543166 -0.000001 0.391177 0.130252 0.287357
    26 0.000000 -0.359714 0.000000 0.000000 0.000000 0.000000
    27 -0.170480 -2.636148 -0.277655 -1.787196 0.000000 0.000000
    28 0.010599 -1.261178 0.000001 -0.253073 0.000000 0.000000
    29 -0.000001 -0.943233 -0.000001 -0.532326 0.000000 0.000000
    30 -0.827564 -2.508974 -0.277656 -1.432907 0.000000 0.000000
    31 0.000000 -1.292971 0.000000 -0.554988 0.000000 0.000000
    32 0.000000 -0.752466 0.000000 -0.633551 0.000000 0.000000
    33 0.444213 -2.561961 -0.277656 -1.837245 -0.049654 -0.023029
    34 0.021021 -1.208186 0.000000 -0.427606 0.000000 0.000000
    35 0.010597 -0.741867 -0.000001 -0.453786 0.000000 0.000000
    36 1.047444 -2.222822 -0.277656 -1.801437 -0.095845 -0.030507
    37 0.000000 -0.996223 -0.000001 -0.549786 0.000000 0.000000
    38 -0.000001 -0.614690 0.000000 -0.523599 0.000000 0.000000
    39 -0.308254 -0.007814 0.307166 -0.129374 -0.297499 -2.570662
    40 1.978378 0.019543 0.000000 -0.093458 -0.047313 0.082472
    41 0.982426 0.003186 0.000000 0.000000 0.000000 0.425839
  time 2
    0 9.958185 5.306346 -5.889301 -1.324871 -2.304096 -5.418537
    1 0.000000 -8.563282 -0.000003 -0.020850 0.503043 -1.078309
    2 -0.109710 -3.119558 0.832132 0.656026 1.697471 1.123747
    3 0.000000 1.322671 2.154066 0.000000 0.000000 0.000000
    4 0.000000 -2.226188 0.667243 0.000000 0.000000 0.000000
    5 0.000000 -0.744802 -0.000001 0.000000 -0.267036 0.000000
    6 0.000001 -2.694760 -0.628573 0.000000 0.000000 0.000000
    7 0.000002 -5.701931 -1.088361 0.000000 0.000000 0.000000
    8 -0.003480 -0.404829 0.000000 0.000000 0.000000 0.000000
    9 -0.519309 -2.501155 -0.278958 -1.448623 0.000000 -0.122173
    10 -0.010598 -1.208185 -0.000001 -0.489129 0.000000 0.000000
    11 0.000000 -0.763066 0.000000 -1.176574 0.000000 0.000000
    12 0.105981 -2.607134 -0.278958 -1.418404 0.013866 -0.143116
    13 0.000000 -1.250579 0.000000 -0.617716 0.000000 0.000000
    14 0.000000 -0.932634 0.000000 -1.338526 0.000000 0.000000
    15 0.763064 -2.490556 -0.278958 -0.266791 0.055297 0.283572
    16 -0.012322 -1.280916 -0.000001 -0.232039 0.000000 0.000000
    17 -0.001697 -0.749371 0.000000 -0.556489 0.000000 0.000000
    18 0.354567 0.016267 0.318133 0.395265 -0.449328 -0.783917
    19 1.887165 0.012878 -0.000001 -0.295857 -0.077049 -0.648797
    20 1.001873 -0.000270 0.000001 0.000000 0.000000 -0.624454
    21 -1.123359 -2.195093 -0.278957 -1.337000 -0.006064 -0.061811
    22 0.010772 -0.963791 0.000001 -0.360594 0.000000 0.000000
    23 -0.010412 -0.631915 0.000000 -0.941651 0.000000 0.000000
    24 1.328655 1.674117 -16.823074 1.062617 -1.014581 -0.102447
    25 0.089928 -8.543166 -0.000001 0.396078 0.139007 0.280601
    26 0.000000 -0.359714 0.000000 0.000000 0.000000 0.000000
    27 -0.170480 -2.636148 -0.277655 -1.787196 0.000000 0.000000
    28 0.010599 -1.261178 0.000001 -0.253073 0.000000 0.000000
    29 -0.000001 -0.943233 -0.000001 -0.532326 0.000000 0.000000
    30 -0.827564 -2.508974 -0.277656 -1.432907 0.000000 0.000000
    31 0.000000 -1.292971 0.000000 -0.554988 0.000000 0.000000
    32 0.000000 -0.752466 0.000000 -0.633551 0.000000 0.000000
    33 0.444213 -2.561961 -0.277656 -1.837245 -0.049654 -0.023029
    34 0.021021 -1.208186 0.000000 -0.427606 0.000000 0.000000
    35 0.010597 -0.741867 -0.000001 -0.453786 0.000000 0.000000
    36 1.047444 -2.222822 -0.277656 -1.801437 -0.095845 -0.030507
    37 0.000000 -0.996223 -0.000001 -0.549786 0.000000 0.000000
    38 -0.000001 -0.614690 0.000000 -0.523599 0.000000 0.000000
    39 -0.308254 -0.007814 0.307166 -0.129374 -0.297499 -2.570662
    40 1.978378 0.019543 0.000000 -0.093458 -0.047313 0.082472
    41 0.982426 0.003186 0.000000 0.000000 0.000000 0.425839
  time 3
    0 9.958185 5.064152 -5.861957 -1.303923 -2.236876 -5.445898
    1 0.000000 -8.563282 -0.000003 -0.026981 0.500958 -1.110350
    2 -0.109710 -3.119558 0.832132 0.656026 1.697471 1.123747
    3 0.000000 1.322671 2.154066 0.000000 0.000000 0.000000
    4 0.000000 -2.226188 0.667243 0.000000 0.000000 0.000000
    5 0.000000 -0.744802 -0.000001 0.000000 -0.267036 0.000000
    6 0.000001 -2.694760 -0.628573 0.000000 0.000000 0.000000
    7 0.000002 -5.701931 -1.088361 0.000000 0.000000 0.000000
    8 -0.003480 -0.404829 0.000000 0.000000 0.000000 0.000000
    9 -0.519309 -2.501155 -0.278958 -1.448623 0.000000 -0.122173
    10 -0.010598 -1.208185 -0.000001 -0.422766 0.000000 0.000000
    11 0.000000 -0.763066 0.000000 -1.168113 0.000000 0.000000
    12 0.105981 -2.607134 -0.278958 -1.386132 0.021428 -0.139868
    13 0.000000 -1.250579 0.000000 -0.580325 0.000000 0.000000
    14 0.000000 -0.932634 0.000000 -1.254609 0.000000 0.000000
    15 0.763064 -2.490556 -0.278958 -0.223539 0.055297 0.283572
    16 -0.012322 -1.280916 -0.000001 -0.183127 0.000000 0.000000
    17 -0.001697 -0.749371 0.000000 -0.530715 0.000000 0.000000
    18 0.354567 0.016267 0.318133 0.414213 -0.432681 -0.828241
    19 1.887165 0.012878 -0.000001 -0.297175 -0.071620 -0.630944
    20 1.001873 -0.000270 0.000001 0.000000 0.000000 -0.579911
    21 -1.123359 -2.195093 -0.278957 -1.337000 -0.006064 -0.061811
    22 0.010772 -0.963791 0.000001 -0.291450 0.000000 0.000000
    23 -0.010412 -0.631915 0.000000 -0.921972 0.000000 0.000000
    24 1.094273 1.342076 -16.678538 0.892279 -0.995654 0.014795
    25 0.089928 -8.543166 -0.000001 0.400828 0.148377 0.272657
    26 0.000000 -0.359714 0.000000 0.000000 0.000000 0.000000
    27 -0.170480 -2.636148 -0.277655 -1.787196 0.000000 0.000000
    28 0.010599 -1.261178 0.000001 -0.253073 0.000000 0.000000
    29 -0.000001 -0.943233 -0.000001 -0.532326 0.000000 0.000000
    30 -0.827564 -2.508974 -0.277656 -1.432907 0.000000 0.000000
    31 0.000000 -1.292971 0.000000 -0.554988 0.000000 0.000000
    32 0.000000 -0.752466 0.000000 -0.633551 0.000000 0.000000
    33 0.444213 -2.561961 -0.277656 -1.837245 -0.049654 -0.023029
    34 0.021021 -1.208186 0.000000 -0.427606 0.000000 0.000000
    35 0.010597 -0.741867 -0.000001 -0.453786 0.000000 0.000000
    36 1.047444 -2.222822 -0.277656 -1.801437 -0.095845 -0.030507
    37 0.000000 -0.996223 -0.000001 -0.549786 0.000000 0.000000
    38 -0.000001 -0.614690 0.000000 -0.523599 0.000000 0.000000
    39 -0.308254 -0.007814 0.307166 -0.129374 -0.297499 -2.570662
    40 1.978378 0.019543 0.000000 -0.093458 -0.047313 0.082472
    41 0.982426 0.003186 0.000000 0.000000 0.000000 0.425839
  time 4
    0 9.958185 4.837582 -5.838519 -1.277014 -2.168486 -5.479183
    1 0.000000 -8.563282 -0.000003 -0.033029 0.498693 -1.142317
    2 -0.109710 -3.119558 0.832132 0.656026 1.697471 1.123747
    3 0.000000 1.322671 2.154066 0.000000 0.000000 0.000000
    4 0.000000 -2.226188 0.667243 0.000000 0.000000 0.000000
    5 0.000000 -0.744802 -0.000001 0.000000 -0.267036 0.000000
    6 0.000001 -2.694760 -0.628573 0.000000 0.000000 0.000000
    7 0.000002 -5.701931 -1.088361 0.000000 0.000000 0.000000
    8 -0.003480 -0.404829 0.000000 0.000000 0.000000 0.000000
    9 -0.519309 -2.501155 -0.278958 -1.448623 0.000000 -0.122173
    10 -0.010598 -1.208185 -0.000001 -0.353351 0.000000 0.000000
    11 0.000000 -0.763066 0.000000 -1.159268 0.000000 0.000000
    12 0.105981 -2.607134 -0.278958 -1.352323 0.029218 -0.136201
    13 0.000000 -1.250579 0.000000 -0.541542 0.000000 0.000000
    14 0.000000 -0.932634 0.000000 -1.167053 0.000000 0.000000
    15 0.763064 -2.490556 -0.278958 -0.179292 0.055297 0.283572
    16 -0.012322 -1.280916 -0.000001 -0.133477 0.000000 0.000000
    17 -0.001697 -0.749371 0.000000 -0.503301 0.000000 0.000000
    18 0.354567 0.016267 0.318133 0.432705 -0.414872 -0.873071
    19 1.887165 0.012878 -0.000001 -0.298386 -0.066263 -0.613449
    20 1.001873 -0.000270 0.000001 0.000000 0.000000 -0.534622
    21 -1.123359 -2.195093 -0.278957 -1.337000 -0.006064 -0.061811
    22 0.010772 -0.963791 0.000001 -0.219097 0.000000 0.000000
    23 -0.010412 -0.631915 0.000000 -0.901419 0.000000 0.000000
    24 0.875516 1.002222 -16.526189 0.730400 -0.966551 0.121534
    25 0.089928 -8.543166 -0.000001 0.405457 0.157987 0.264440
    26 0.000000 -0.359714 0.000000 0.000000 0.000000 0.000000
    27 -0.170480 -2.636148 -0.277655 -1.787196 0.000000 0.000000
    28 0.010599 -1.261178 0.000001 -0.253073 0.000000 0.000000
    29 -0.000001 -0.943233 -0.000001 -0.532326 0.000000 0.000000
    30 -0.827564 -2.508974 -0.277656 -1.432907 0.000000 0.000000
    31 0.000000 -1.292971 0.000000 -0.554988 0.000000 0.000000
    32 0.000000 -0.752466 0.000000 -0.633551 0.000000 0.000000
    33 0.444213 -2.561961 -0.277656 -1.837245 -0.049654 -0.023029
    34 0.021021 -1.208186 0.000000 -0.427606 0.000000 0.000000
    35 0.010597 -0.741867 -0.000001 -0.453786 0.000000 0.000000
    36 1.047444 -2.222822 -0.277656 -1.801437 -0.095845 -0.030507
    37 0.000000 -0.996223 -0.000001 -0.549786 0.000000 0.000000
    38 -0.000001 -0.614690 0.000000 -0.523599 0.000000 0.000000
    39 -0.308254 -0.007814 0.307166 -0.129374 -0.297499 -2.570662
    40 1.978378 0.019543 0.000000 -0.093458 -0.047313 0.082472
    41 0.982426 0.003186 0.000000 0.000000 0.000000 0.425839
  time 5
    0 9.958185 4.630545 -5.807268 -1.242015 -2.099739 -5.520553
    1 0.000000 -8.563282 -0.000003 -0.037306 0.496320 -1.170823
    2 -0.109710 -3.119558 0.832132 0.656026 1.697471 1.123747
    3 0.000000 1.322671 2.154066 0.000000 0.000000 0.000000
    4 0.000000 -2.226188 0.667243 0.000000 0.000000 0.000000
    5 0.000000 -0.744802 -0.000001 0.000000 -0.267036 0.000000
    6 0.000001 -2.694760 -0.628573 0.000000 0.000000 0.000000
    7 0.000002 -5.701931 -1.088361 0.000000 0.000000 0.000000
    8 -0.003480 -0.404829 0.000000 0.000000 0.000000 0.000000
    9 -0.519309 -2.501155 -0.278958 -1.448623 0.000000 -0.122173
    10 -0.010598 -1.208185 -0.000001 -0.281805 0.000000 0.000000
    11 0.000000 -0.763066 0.000000 -1.150148 0.000000 0.000000
    12 0.105981 -2.607134 -0.278958 -1.317504 0.037092 -0.132150
    13 0.000000 -1.250579 0.000000 -0.502389 0.000000 0.000000
    14 0.000000 -0.932634 0.000000 -1.077347 0.000000 0.000000
    15 0.763064 -2.490556 -0.278958 -0.135536 0.055297 0.283572
    16 -0.012322 -1.280916 -0.000001 -0.084221 0.000000 0.000000
    17 -0.001697 -0.749371 0.000000 -0.476721 0.000000 0.000000
    18 0.354567 0.016267 0.318133 0.450154 -0.396320 -0.917193
    19 1.887165 0.012878 -0.000001 -0.299500 -0.060882 -0.595972
    20 1.001873 -0.000270 0.000001 0.000000 0.000000 -0.489365
    21 -1.123359 -2.195093 -0.278957 -1.337000 -0.006064 -0.061811
    22 0.010772 -0.963791 0.000001 -0.144718 0.000000 0.000000
    23 -0.010412 -0.631915 0.000000 -0.880194 0.000000 0.000000
    24 0.668478 0.646742 -16.334777 0.580311 -0.928508 0.214866
    25 0.089928 -8.543166 -0.000001 0.410117 0.167276 0.256885
    26 0.000000 -0.359714 0.000000 0.000000 0.000000 0.000000
    27 -0.170480 -2.636148 -0.277655 -1.787196 0.000000 0.000000
    28 0.010599 -1.261178 0.000001 -0.253073 0.000000 0.000000
    29 -0.000001 -0.943233 -0.000001 -0.532326 0.000000 0.000000
    30 -0.827564 -2.508974 -0.277656 -1.432907 0.000000 0.000000
    31 0.000000 -1.292971 0.000000 -0.554988 0.000000 0.000000
    32 0.000000 -0.752466 0.000000 -0.633551 0.000000 0.000000
    33 0.444213 -2.561961 -0.277656 -1.837245 -0.049654 -0.023029
    34 0.021021 -1.208186 0.000000 -0.427606 0.000000 0.000000
    35 0.010597 -0.741867 -0.000001 -0.453786 0.000000 0.000000
    36 1.047444 -2.222822 -0.277656 -1.801437 -0.095845 -0.030507
    37 0.000000 -0.996223 -0.000001 -0.549786 0.000000 0.000000
    38 -0.000001 -0.614690 0.000000 -0.523599 0.000000 0.000000
    39 -0.308254 -0.007814 0.307166 -0.129374 -0.297499 -2.570662
    40 1.978378 0.019543 0.000000 -0.093458 -0.047313 0.082472
    41 0.982426 0.003186 0.000000 0.000000 0.000000 0.425839
  time 6
    0 9.958185 4.439132 -5.779923 -1.195606 -2.031548 -5.573301
    1 0.000000 -8.563282 -0.000003 -0.038174 0.494031 -1.192369
    2 -0.109710 -3.119558 0.832132 0.656026 1.697471 1.123747
    3 0.000000 1.322671 2.154066 0.000000 0.000000 0.000000
    4 0.000000 -2.226188 0.667243 0.000000 0.000000 0.000000
    5 0.000000 -0.744802 -0.000001 0.000000 -0.267036 0.000000
    6 0.000001 -2.694760 -0.628573 0.000000 0.000000 0.000000
    7 0.000002 -5.701931 -1.088361 0.000000 0.000000 0.000000
    8 -0.003480 -0.404829 0.000000 0.000000 0.000000 0.000000
    9 -0.519309 -2.501155 -0.278958 -1.448623 0.000000 -0.122173
    10 -0.010598 -1.208185 -0.000001 -0.209019 0.000000 0.000000
    11 0.000000 -0.763066 0.000000 -1.140776 0.000000 0.000000
    12 0.105981 -2.607134 -0.278958 -1.282172 0.044942 -0.127751
    13 0.000000 -1.250579 0.000000 -0.463930 0.000000 0.000000
    14 0.000000 -0.932634 0.000000 -0.987079 0.000000 0.000000
    15 0.763064 -2.490556 -0.278958 -0.093686 0.055297 0.283572
    16 -0.012322 -1.280916 -0.000001 -0.036465 0.000000 0.000000
    17 -0.001697 -0.749371 0.000000 -0.453366 0.000000 0.000000
    18 0.354567 0.016267 0.318133 0.466142 -0.377552 -0.959455
    19 1.887165 0.012878 -0.000001 -0.300531 -0.055381 -0.578173
    20 1.001873 -0.000270 0.000001 0.000000 0.000000 -0.444805
    21 -1.123359 -2.195093 -0.278957 -1.337000 -0.006064 -0.061811
    22 0.010772 -0.963791 0.000001 -0.069249 0.000000 0.000000
    23 -0.010412 -0.631915 0.000000 -0.858514 0.000000 0.000000
    24 0.480973 0.217042 -16.076957 0.443156 -0.882856 0.293747
    25 0.089928 -8.543166 -0.000001 0.414806 0.175845 0.250859
    26 0.000000 -0.359714 0.000000 0.000000 0.000000 0.000000
    27 -0.170480 -2.636148 -0.277655 -1.787196 0.000000 0.000000
    28 0.010599 -1.261178 0.000001 -0.253073 0.000000 0.000000
    29 -0.000001 -0.943233 -0.000001 -0.532326 0.000000 0.000000
    30 -0.827564 -2.508974 -0.277656 -1.432907 0.000000 0.000000
    31 0.000000 -1.292971 0.000000 -0.554988 0.000000 0.000000
    32 0.000000 -0.752466 0.000000 -0.633551 0.000000 0.000000
    33 0.444213 -2.561961 -0.277656 -1.837245 -0.049654 -0.023029
    34 0.021021 -1.208186 0.000000 -0.427606 0.000000 0.000000
    35 0.010597 -0.741867 -0.000001 -0.453786 0.000000 0.000000
    36 1.047444 -2.222822 -0.277656 -1.801437 -0.095845 -0.030507
    37 0.000000 -0.996223 -0.000001 -0.549786 0.000000 0.000000
    38 -0.000001 -0.614690 0.000000 -0.523599 0.000000 0.000000
    39 -0.308254 -0.007814 0.307166 -0.129374 -0.297499 -2.570662
    40 1.978378 0.019543 0.000000 -0.093458 -0.047313 0.082472
    41 0.982426 0.003186 0.000000 0.000000 0.000000 0.425839
  time 7
    0 9.958185 4.267252 -5.752578 -1.132676 -1.965022 -5.642314
    1 0.000000 -8.563282 -0.000003 -0.034031 0.492006 -1.203645
    2 -0.109710 -3.119558 0.832132 0.656026 1.697471 1.123747
    3 0.000000 1.322671 2.154066 0.000000 0.000000 0.000000
    4 0.000000 -2.226188 0.667243 0.000000 0.000000 0.000000
    5 0.000000 -0.744802 -0.000001 0.000000 -0.267036 0.000000
    6 0.000001 -2.694760 -0.628573 0.000000 0.000000 0.000000
    7 0.000002 -5.701931 -1.088361 0.000000 0.000000 0.000000
    8 -0.003480 -0.404829 0.000000 0.000000 0.000000 0.000000
    9 -0.519309 -2.501155 -0.278958 -1.448623 0.000000 -0.122173
    10 -0.010598 -1.208185 -0.000001 -0.135978 0.000000 0.000000
    11 0.000000 -0.763066 0.000000 -1.131260 0.000000 0.000000
    12 0.105981 -2.607134 -0.278958 -1.246767 0.052624 -0.123089
    13 0.000000 -1.250579 0.000000 -0.427233 0.000000 0.000000
    14 0.000000 -0.932634 0.000000 -0.897902 0.000000 0.000000
    15 0.763064 -2.490556 -0.278958 -0.055131 0.055297 0.283572
    16 -0.012322 -1.280916 -0.000001 0.008613 0.000000 0.000000
    17 -0.001697 -0.749371 0.000000 -0.435711 0.000000 0.000000
    18 0.354567 0.016267 0.318133 0.480308 -0.359144 -0.998782
    19 1.887165 0.012878 -0.000001 -0.301502 -0.049664 -0.559728
    20 1.001873 -0.000270 0.000001 0.000000 0.000000 -0.401672
    21 -1.123359 -2.195093 -0.278957 -1.337000 -0.006064 -0.061811
    22 0.010772 -0.963791 0.000001 0.006189 0.000000 0.000000
    23 -0.010412 -0.631915 0.000000 -0.836606 0.000000 0.000000
    24 0.309092 -0.306412 -15.744916 0.318882 -0.831212 0.358476
    25 0.089928 -8.543166 -0.000001 0.419798 0.183186 0.247230
    26 0.000000 -0.359714 0.000000 0.000000 0.000000 0.000000
    27 -0.170480 -2.636148 -0.277655 -1.787196 0.000000 0.000000
    28 0.010599 -1.261178 0.000001 -0.253073 0.000000 0.000000
    29 -0.000001 -0.943233 -0.000001 -0.532326 0.000000 0.000000
    30 -0.827564 -2.508974 -0.277656 -1.432907 0.000000 0.000000
    31 0.000000 -1.292971 0.000000 -0.554988 0.000000 0.000000
    32 0.000000 -0.752466 0.000000 -0.633551 0.000000 0.000000
    33 0.444213 -2.561961 -0.277656 -1.837245 -0.049654 -0.023029
    34 0.021021 -1.208186 0.000000 -0.427606 0.000000 0.000000
    35 0.010597 -0.741867 -0.000001 -0.453786 0.000000 0.000000
    36 1.047444 -2.222822 -0.277656 -1.801437 -0.095845 -0.030507
    37 0.000000 -0.996223 -0.000001 -0.549786 0.000000 0.000000
    38 -0.000001 -0.614690 0.000000 -0.523599 0.000000 0.000000
    39 -0.308254 -0.007814 0.307166 -0.129374 -0.297499 -2.570662
    40 1.978378 0.019543 0.000000 -0.093458 -0.047313 0.082472
    41 0.982426 0.003186 0.000000 0.000000 0.000000 0.425839
  time 8
    0 9.958185 4.107091 -5.721328 -1.045221 -1.901531 -5.735869
    1 0.000000 -8.563282 -0.000003 -0.023272 0.490304 -1.201245
    2 -0.109710 -3.119558 0.832132 0.656026 1.697471 1.123747
    3 0.000000 1.322671 2.154066 0.000000 0.000000 0.000000
    4 0.000000 -2.226188 0.667243 0.000000 0.000000 0.000000
    5 0.000000 -0.744802 -0.000001 0.000000 -0.267036 0.000000
    6 0.000001 -2.694760 -0.628573 0.000000 0.000000 0.000000
    7 0.000002 -5.701931 -1.088361 0.000000 0.000000 0.000000
    8 -0.003480 -0.404829 0.000000 0.000000 0.000000 0.000000
    9 -0.519309 -2.501155 -0.278958 -1.448623 0.000000 -0.122173
    10 -0.010598 -1.208185 -0.000001 -0.063479 0.000000 0.000000
    11 0.000000 -0.763066 0.000000 -1.121685 0.000000 0.000000
    12 0.105981 -2.607134 -0.278958 -1.211815 0.060055 -0.118248
    13 0.000000 -1.250579 0.000000 -0.393317 0.000000 0.000000
    14 0.000000 -0.932634 0.000000 -0.811405 0.000000 0.000000
    15 0.763064 -2.490556 -0.278958 -0.021335 0.055297 0.283572
    16 -0.012322 -1.280916 -0.000001 0.049807 0.000000 0.000000
    17 -0.001697 -0.749371 0.000000 -0.426174 0.000000 0.000000
    18 0.354567 0.016267 0.318133 0.492436 -0.341730 -1.034137
    19 1.887165 0.012878 -0.000001 -0.302401 -0.043624 -0.540316
    20 1.001873 -0.000270 0.000001 0.000000 0.000000 -0.360663
    21 -1.123359 -2.195093 -0.278957 -1.337000 -0.006064 -0.061811
    22 0.010772 -0.963791 0.000001 0.080598 0.000000 0.000000
    23 -0.010412 -0.631915 0.000000 -0.814698 0.000000 0.000000
    24 0.156744 -0.900180 -15.342560 0.206343 -0.775003 0.410244
    25 0.089928 -8.543166 -0.000001 0.425123 0.188791 0.246956
    26 0.000000 -0.359714 0.000000 0.000000 0.000000 0.000000
    27 -0.170480 -2.636148 -0.277655 -1.787196 0.000000 0.000000
    28 0.010599 -1.261178 0.000001 -0.253073 0.000000 0.000000
    29 -0.000001 -0.943233 -0.000001 -0.532326 0.000000 0.000000
    30 -0.827564 -2.508974 -0.277656 -1.432907 0.000000 0.000000
    31 0.000000 -1.292971 0.000000 -0.554988 0.000000 0.000000
    32 0.000000 -0.752466 0.000000 -0.633551 0.000000 0.000000
    33 0.444213 -2.561961 -0.277656 -1.837245 -0.049654 -0.023029
    34 0.021021 -1.208186 0.000000 -0.427606 0.000000 0.000000
    35 0.010597 -0.741867 -0.000001 -0.453786 0.000000 0.000000
    36 1.047444 -2.222822 -0.277656 -1.801437 -0.095845 -0.030507
    37 0.000000 -0.996223 -0.000001 -0.549786 0.000000 0.000000
    38 -0.000001 -0.614690 0.000000 -0.523599 0.000000 0.000000
    39 -0.308254 -0.007814 0.307166 -0.129374 -0.297499 -2.570662
    40 1.978378 0.019543 0.000000 -0.093458 -0.047313 0.082472
    41 0.982426 0.003186 0.000000 0.000000 0.000000 0.425839
  time 9
    0 9.958185 3.970368 -5.690077 -0.919958 -1.843039 -5.866938
    1 0.000000 -8.563282 -0.000003 -0.004310 0.488758 -1.181726
    2 -0.109710 -3.119558 0.832132 0.656026 1.697471 1.123747
    3 0.000000 1.322671 2.154066 0.000000 0.000000 0.000000
    4 0.000000 -2.226188 0.667243 0.000000 0.000000 0.000000
    5 0.000000 -0.744802 -0.000001 0.000000 -0.267036 0.000000
    6 0.000001 -2.694760 -0.628573 0.000000 0.000000 0.000000
    7 0.000002 -5.701931 -1.088361 0.000000 0.000000 0.000000
    8 -0.003480 -0.404829 0.000000 0.000000 0.000000 0.000000
    9 -0.519309 -2.501155 -0.278958 -1.448623 0.000000 -0.122173
    10 -0.010598 -1.208185 -0.000001 0.007431 0.000000 0.000000
    11 0.000000 -0.763066 0.000000 -1.112097 0.000000 0.000000
    12 0.105981 -2.607134 -0.278958 -1.177786 0.067090 -0.113262
    13 0.000000 -1.250579 0.000000 -0.363200 0.000000 0.000000
    14 0.000000 -0.932634 0.000000 -0.729108 0.000000 0.000000
    15 0.763064 -2.490556 -0.278958 0.006325 0.055297 0.283572
    16 -0.012322 -1.280916 -0.000001 0.086037 0.000000 0.000000
    17 -0.001697 -0.749371 0.000000 -0.427203 0.000000 0.000000
    18 0.354567 0.016267 0.318133 0.502311 -0.325946 -1.064572
    19 1.887165 0.012878 -0.000001 -0.303239 -0.037152 -0.519595
    20 1.001873 -0.000270 0.000001 0.000000 0.000000 -0.322506
    21 -1.123359 -2.195093 -0.278957 -1.337000 -0.006064 -0.061811
    22 0.010772 -0.963791 0.000001 0.152889 0.000000 0.000000
    23 -0.010412 -0.631915 0.000000 -0.793030 0.000000 0.000000
    24 0.020021 -1.536918 -14.854263 0.104391 -0.715370 0.450616
    25 0.089928 -8.543166 -0.000001 0.430993 0.192181 0.250882
    26 0.000000 -0.359714 0.000000 0.000000 0.000000 0.000000
    27 -0.170480 -2.636148 -0.277655 -1.787196 0.000000 0.000000
    28 0.010599 -1.261178 0.000001 -0.253073 0.000000 0.000000
    29 -0.000001 -0.943233 -0.000001 -0.532326 0.000000 0.000000
    30 -0.827564 -2.508974 -0.277656 -1.432907 0.000000 0.000000
    31 0.000000 -1.292971 0.000000 -0.554988 0.000000 0.000000
    32 0.000000 -0.752466 0.000000 -0.633551 0.000000 0.000000
    33 0.444213 -2.561961 -0.277656 -1.837245 -0.049654 -0.023029
    34 0.021021 -1.208186 0.000000 -0.427606 0.000000 0.000000
    35 0.010597 -0.741867 -0.000001 -0.453786 0.000000 0.000000
    36 1.047444 -2.222822 -0.277656 -1.801437 -0.095845 -0.030507
    37 0.000000 -0.996223 -0.000001 -0.549786 0.000000 0.000000
    38 -0.000001 -0.614690 0.000000 -0.523599 0.000000 0.000000
    39 -0.308254 -0.007814 0.307166 -0.129374 -0.297499 -2.570662
    40 1.978378 0.019543 0.000000 -0.093458 -0.047313 0.082472
    41 0.982426 0.003186 0.000000 0.000000 0.000000 0.425839
  time 10
    0 9.958185 3.845364 -5.658826 -0.737300 -1.792679 0.227708
    1 0.000000 -8.563282 -0.000003 0.023624 0.486636 -1.143043
    2 -0.109710 -3.119558 0.832132 0.656026 1.697471 1.123747
    3 0.000000 1.322671 2.154066 0.000000 0.000000 0.000000
    4 0.000000 -2.226188 0.667243 0.000000 0.000000 0.000000
    5 0.000000 -0.744802 -0.000001 0.000000 -0.267036 0.000000
    6 0.000001 -2.694760 -0.628573 0.000000 0.000000 0.000000
    7 0.000002 -5.701931 -1.088361 0.000000 0.000000 0.000000
    8 -0.003480 -0.404829 0.000000 0.000000 0.000000 0.000000
    9 -0.519309 -2.501155 -0.278958 -1.448623 0.000000 -0.122173
    10 -0.010598 -1.208185 -0.000001 0.075988 0.000000 0.000000
    11 0.000000 -0.763066 0.000000 -1.102569 0.000000 0.000000
    12 0.105981 -2.607134 -0.278958 -1.145207 0.073633 -0.108300
    13 0.000000 -1.250579 0.000000 -0.337984 0.000000 0.000000
    14 0.000000 -0.932634 0.000000 -0.652633 0.000000 0.000000
    15 0.763064 -2.490556 -0.278958 0.026412 0.055297 0.283572
    16 -0.012322 -1.280916 -0.000001 0.116121 0.000000 0.000000
    17 -0.001697 -0.749371 0.000000 -0.441188 0.000000 0.000000
    18 0.354567 0.016267 0.318133 0.509850 -0.312488 -1.089087
    19 1.887165 0.012878 -0.000001 -0.303994 -0.030153 -0.497261
    20 1.001873 -0.000270 0.000001 0.000000 0.000000 -0.287866
    21 -1.123359 -2.195093 -0.278957 -1.337000 -0.006064 -0.061811
    22 0.010772 -0.963791 0.000001 0.222064 0.000000 0.000000
    23 -0.010412 -0.631915 0.000000 -0.771793 0.000000 0.000000
    24 -0.097170 -2.224439 -14.287840 0.011608 -0.653360 0.481156
    25 0.089928 -8.543166 -0.000001 0.437437 0.192875 0.259898
    26 0.000000 -0.359714 0.000000 0.000000 0.000000 0.000000
    27 -0.170480 -2.636148 -0.277655 -1.787196 0.000000 0.000000
    28 0.010599 -1.261178 0.000001 -0.253073 0.000000 0.000000
    29 -0.000001 -0.943233 -0.000001 -0.532326 0.000000 0.000000
    30 -0.827564 -2.508974 -0.277656 -1.432907 0.000000 0.000000
    31 0.000000 -1.292971 0.000000 -0.554988 0.000000 0.000000
    32 0.000000 -0.752466 0.000000 -0.633551 0.000000 0.000000
    33 0.444213 -2.561961 -0.277656 -1.837245 -0.049654 -0.023029
    34 0.021021 -1.208186 0.000000 -0.427606 0.000000 0.000000
    35 0.010597 -0.741867 -0.000001 -0.453786 0.000000 0.000000
    36 1.047444 -2.222822 -0.277656 -1.801437 -0.095845 -0.030507
    37 0.000000 -0.996223 -0.000001 -0.549786 0.000000 0.000000
    38 -0.000001 -0.614690 0.000000 -0.523599 0.000000 0.000000
    39 -0.308254 -0.007814 0.307166 -0.129374 -0.297499 -2.570662
    40 1.978378 0.019543 0.000000 -0.093458 -0.047313 0.082472
    41 0.982426 0.003186 0.000000 0.000000 0.000000 0.425839
  time 11
    0 9.958185 3.739892 -5.627575 -0.475618 -1.755092 -0.039320
    1 0.000000 -8.563282 -0.000003 0.058992 0.482813 -1.087873
    2 -0.109710 -3.119558 0.832132 0.656026 1.697471 1.123747
    3 0.000000 1.322671 2.154066 0.000000 0.000000 0.000000
    4 0.000000 -2.226188 0.667243 0.000000 0.000000 0.000000
    5 0.000000 -0.744802 -0.000001 0.000000 -0.267036 0.000000
    6 0.000001 -2.694760 -0.628573 0.000000 0.000000 0.000000
    7 0.000002 -5.701931 -1.088361 0.000000 0.000000 0.000000
    8 -0.003480 -0.404829 0.000000 0.000000 0.000000 0.000000
    9 -0.519309 -2.501155 -0.278958 -1.448623 0.000000 -0.122173
    10 -0.010598 -1.208185 -0.000001 0.141142 0.000000 0.000000
    11 0.000000 -0.763066 0.000000 -1.093209 0.000000 0.000000
    12 0.105981 -2.607134 -0.278958 -1.114561 0.079674 -0.103423
    13 0.000000 -1.250579 0.000000 -0.318653 0.000000 0.000000
    14 0.000000 -0.932634 0.000000 -0.583567 0.000000 0.000000
    15 0.763064 -2.490556 -0.278958 0.037485 0.055297 0.283572
    16 -0.012322 -1.280916 -0.000001 0.138930 0.000000 0.000000
    17 -0.001697 -0.749371 0.000000 -0.470632 0.000000 0.000000
    18 0.354567 0.016267 0.318133 0.514943 -0.302001 -1.106758
    19 1.887165 0.012878 -0.000001 -0.304630 -0.022531 -0.472955
    20 1.001873 -0.000270 0.000001 0.000000 0.000000 -0.257522
    21 -1.123359 -2.195093 -0.278957 -1.337000 -0.006064 -0.061811
    22 0.010772 -0.963791 0.000001 0.287032 0.000000 0.000000
    23 -0.010412 -0.631915 0.000000 -0.751240 0.000000 0.000000
    24 -0.198736 -2.951024 -13.647195 -0.073260 -0.590017 0.503353
    25 0.089928 -8.543166 -0.000001 0.445515 0.189939 0.276857
    26 0.000000 -0.359714 0.000000 0.000000 0.000000 0.000000
    27 -0.170480 -2.636148 -0.277655 -1.787196 0.000000 0.000000
    28 0.010599 -1.261178 0.000001 -0.253073 0.000000 0.000000
    29 -0.000001 -0.943233 -0.000001 -0.532326 0.000000 0.000000
    30 -0.827564 -2.508974 -0.277656 -1.432907 0.000000 0.000000
    31 0.000000 -1.292971 0.000000 -0.554988 0.000000 0.000000
    32 0.000000 -0.752466 0.000000 -0.633551 0.000000 0.000000
    33 0.444213 -2.561961 -0.277656 -1.837245 -0.049654 -0.023029
    34 0.021021 -1.208186 0.000000 -0.427606 0.000000 0.000000
    35 0.010597 -0.741867 -0.000001 -0.453786 0.000000 0.000000
    36 1.047444 -2.222822 -0.277656 -1.801437 -0.095845 -0.030507
    37 0.000000 -0.996223 -0.000001 -0.549786 0.000000 0.000000
    38 -0.000001 -0.614690 0.000000 -0.523599 0.000000 0.000000
    39 -0.308254 -0.007814 0.307166 -0.129374 -0.297499 -2.570662
    40 1.978378 0.019543 0.000000 -0.093458 -0.047313 0.082472
    41 0.982426 0.003186 0.000000 0.000000 0.000000 0.425839
  time 12
    0 9.958185 3.650046 -5.592417 -0.138830 -1.736051 -0.381192
    1 0.000000 -8.563282 -0.000003 0.099839 0.476294 -1.020163
    2 -0.109710 -3.119558 0.832132 0.656026 1.697471 1.123747
    3 0.000000 1.322671 2.154066 0.000000 0.000000 0.000000
    4 0.000000 -2.226188 0.667243 0.000000 0.000000 0.000000
    5 0.000000 -0.744802 -0.000001 0.000000 -0.267036 0.000000
    6 0.000001 -2.694760 -0.628573 0.000000 0.000000 0.000000
    7 0.000002 -5.701931 -1.088361 0.000000 0.000000 0.000000
    8 -0.003480 -0.404829 0.000000 0.000000 0.000000 0.000000
    9 -0.519309 -2.501155 -0.278958 -1.448623 0.000000 -0.122173
    10 -0.010598 -1.208185 -0.000001 0.202036 0.000000 0.000000
    11 0.000000 -0.763066 0.000000 -1.084089 0.000000 0.000000
    12 0.105981 -2.607134 -0.278958 -1.086360 0.085067 -0.098785
    13 0.000000 -1.250579 0.000000 -0.306309 0.000000 0.000000
    14 0.000000 -0.932634 0.000000 -0.523499 0.000000 0.000000
    15 0.763064 -2.490556 -0.278958 0.040146 0.055297 0.283572
    16 -0.012322 -1.280916 -0.000001 0.156431 0.000000 0.000000
    17 -0.001697 -0.749371 0.000000 -0.519955 0.000000 0.000000
    18 0.354567 0.016267 0.318133 0.517460 -0.295122 -1.116574
    19 1.887165 0.012878 -0.000001 -0.305109 -0.014178 -0.446372
    20 1.001873 -0.000270 0.000001 0.000000 0.000000 -0.232138
    21 -1.123359 -2.195093 -0.278957 -1.337000 -0.006064 -0.061811
    22 0.010772 -0.963791 0.000001 0.346734 0.000000 0.000000
    23 -0.010412 -0.631915 0.000000 -0.731573 0.000000 0.000000
    24 -0.300301 -3.634638 -12.889360 -0.151252 -0.526105 0.518474
    25 0.089928 -8.543166 -0.000001 0.455590 0.183319 0.302285
    26 0.000000 -0.359714 0.000000 0.000000 0.000000 0.000000
    27 -0.170480 -2.636148 -0.277655 -1.787196 0.000000 0.000000
    28 0.010599 -1.261178 0.000001 -0.253073 0.000000 0.000000
    29 -0.000001 -0.943233 -0.000001 -0.532326 0.000000 0.000000
    30 -0.827564 -2.508974 -0.277656 -1.432907 0.000000 0.000000
    31 0.000000 -1.292971 0.000000 -0.554988 0.000000 0.000000
    32 0.000000 -0.752466 0.000000 -0.633551 0.000000 0.000000
    33 0.444213 -2.561961 -0.277656 -1.837245 -0.049654 -0.023029
    34 0.021021 -1.208186 0.000000 -0.427606 0.000000 0.000000
    35 0.010597 -0.741867 -0.000001 -0.453786 0.000000 0.000000
    36 1.047444 -2.222822 -0.277656 -1.801437 -0.095845 -0.030507
    37 0.000000 -0.996223 -0.000001 -0.549786 0.000000 0.000000
    38 -0.000001 -0.614690 0.000000 -0.523599 0.000000 0.000000
    39 -0.308254 -0.007814 0.307166 -0.129374 -0.297499 -2.570662
    40 1.978378 0.019543 0.000000 -0.093458 -0.047313 0.082472
    41 0.982426 0.003186 0.000000 0.000000 0.000000 0.425839
  time 13
    0 9.958185 3.579731 -5.561166 0.209200 -1.738133 -0.733877
    1 0.000000 -8.563282 -0.000003 0.144095 0.466335 -0.943912
    2 -0.109710 -3.119558 0.832132 0.656026 1.697471 1.123747
    3 0.000000 1.322671 2.154066 0.000000 0.000000 0.000000
    4 0.000000 -2.226188 0.667243 0.000000 0.000000 0.000000
    5 0.000000 -0.744802 -0.000001 0.000000 -0.267036 0.000000
    6 0.000001 -2.694760 -0.628573 0.000000 0.000000 0.000000
    7 0.000002 -5.701931 -1.088361 0.000000 0.000000 0.000000
    8 -0.003480 -0.404829 0.000000 0.000000 0.000000 0.000000
    9 -0.519309 -2.501155 -0.278958 -1.448623 0.000000 -0.122173
    10 -0.010598 -1.208185 -0.000001 0.257810 0.000000 0.000000
    11 0.000000 -0.763066 0.000000 -1.075232 0.000000 0.000000
    12 0.105981 -2.607134 -0.278958 -1.061087 0.089777 -0.094494
    13 0.000000 -1.250579 0.000000 -0.301946 0.000000 0.000000
    14 0.000000 -0.932634 0.000000 -0.474015 0.000000 0.000000
    15 0.763064 -2.490556 -0.278958 0.036455 0.055297 0.283572
    16 -0.012322 -1.280916 -0.000001 0.171374 0.000000 0.000000
    17 -0.001697 -0.749371 0.000000 -0.589214 0.000000 0.000000
    18 0.354567 0.016267 0.318133 0.515878 -0.293636 -1.113816
    19 1.887165 0.012878 -0.000001 -0.305421 -0.003104 -0.411257
    20 1.001873 -0.000270 0.000001 0.000000 0.000000 -0.211650
    21 -1.123359 -2.195093 -0.278957 -1.337000 -0.006064 -0.061811
    22 0.010772 -0.963791 0.000001 0.400080 0.000000 0.000000
    23 -0.010412 -0.631915 0.000000 -0.713021 0.000000 0.000000
    24 -0.417492 -4.255751 -11.932299 -0.223186 -0.462097 0.527784
    25 0.089928 -8.543166 -0.000001 0.466724 0.173656 0.333784
    26 0.000000 -0.359714 0.000000 0.000000 0.000000 0.000000
    27 -0.170480 -2.636148 -0.277655 -1.787196 0.000000 0.000000
    28 0.010599 -1.261178 0.000001 -0.253073 0.000000 0.000000
    29 -0.000001 -0.943233 -0.000001 -0.532326 0.000000 0.000000
    30 -0.827564 -2.508974 -0.277656 -1.432907 0.000000 0.000000
    31 0.000000 -1.292971 0.000000 -0.554988 0.000000 0.000000
    32 0.000000 -0.752466 0.000000 -0.633551 0.000000 0.000000
    33 0.444213 -2.561961 -0.277656 -1.837245 -0.049654 -0.023029
    34 0.021021 -1.208186 0.000000 -0.427606 0.000000 0.000000
    35 0.010597 -0.741867 -0.000001 -0.453786 0.000000 0.000000
    36 1.047444 -2.222822 -0.277656 -1.801437 -0.095845 -0.030507
    37 0.000000 -0.996223 -0.000001 -0.549786 0.000000 0.000000
    38 -0.000001 -0.614690 0.000000 -0.523599 0.000000 0.000000
    39 -0.308254 -0.007814 0.307166 -0.129374 -0.297499 -2.570662
    40 1.978378 0.019543 0.000000 -0.093458 -0.047313 0.082472
    41 0.982426 0.003186 0.000000 0.000000 0.000000 0.425839
  time 14
    0 9.958185 3.525042 -5.526009 0.492170 -1.756718 -1.021309
    1 0.000000 -8.563282 -0.000003 0.189688 0.452612 -0.863158
    2 -0.109710 -3.119558 0.832132 0.656026 1.697471 1.123747
    3 0.000000 1.322671 2.154066 0.000000 0.000000 0.000000
    4 0.000000 -2.226188 0.667243 0.000000 0.000000 0.000000
    5 0.000000 -0.744802 -0.000001 0.000000 -0.267036 0.000000
    6 0.000001 -2.694760 -0.628573 0.000000 0.000000 0.000000
    7 0.000002 -5.701931 -1.088361 0.000000 0.000000 0.000000
    8 -0.003480 -0.404829 0.000000 0.000000 0.000000 0.000000
    9 -0.519309 -2.501155 -0.278958 -1.448623 0.000000 -0.122173
    10 -0.010598 -1.208185 -0.000001 0.307447 0.000000 0.000000
    11 0.000000 -0.763066 0.000000 -1.066771 0.000000 0.000000
    12 0.105981 -2.607134 -0.278958 -1.039299 0.093743 -0.090695
    13 0.000000 -1.250579 0.000000 -0.321433 0.000000 0.000000
    14 0.000000 -0.932634 0.000000 -0.436704 0.000000 0.000000
    15 0.763064 -2.490556 -0.278958 0.027179 0.055297 0.283572
    16 -0.012322 -1.280916 -0.000001 0.183615 0.000000 0.000000
    17 -0.001697 -0.749371 0.000000 -0.674320 0.000000 0.000000
    18 0.354567 0.016267 0.318133 0.509502 -0.298118 -1.096575
    19 1.887165 0.012878 -0.000001 -0.305229 0.011589 -0.364635
    20 1.001873 -0.000270 0.000001 0.000000 0.000000 -0.195667
    21 -1.123359 -2.195093 -0.278957 -1.337000 -0.006064 -0.061811
    22 0.010772 -0.963791 0.000001 0.446134 0.000000 0.000000
    23 -0.010412 -0.631915 0.000000 -0.695823 0.000000 0.000000
    24 -0.542496 -4.849519 -10.807265 -0.289717 -0.398755 0.532179
    25 0.089928 -8.543166 -0.000001 0.477919 0.161697 0.368798
    26 0.000000 -0.359714 0.000000 0.000000 0.000000 0.000000
    27 -0.170480 -2.636148 -0.277655 -1.787196 0.000000 0.000000
    28 0.010599 -1.261178 0.000001 -0.253073 0.000000 0.000000
    29 -0.000001 -0.943233 -0.000001 -0.532326 0.000000 0.000000
    30 -0.827564 -2.508974 -0.277656 -1.432907 0.000000 0.000000
    31 0.000000 -1.292971 0.000000 -0.554988 0.000000 0.000000
    32 0.000000 -0.752466 0.000000 -0.633551 0.000000 0.000000
    33 0.444213 -2.561961 -0.277656 -1.837245 -0.049654 -0.023029
    34 0.021021 -1.208186 0.000000 -0.427606 0.000000 0.000000
    35 0.010597 -0.741867 -0.000001 -0.453786 0.000000 0.000000
    36 1.047444 -2.222822 -0.277656 -1.801437 -0.095845 -0.030507
    37 0.000000 -0.996223 -0.000001 -0.549786 0.000000 0.000000
    38 -0.000001 -0.614690 0.000000 -0.523599 0.000000 0.000000
    39 -0.308254 -0.007814 0.307166 -0.129374 -0.297499 -2.570662
    40 1.978378 0.019543 0.000000 -0.093458 -0.047313 0.082472
    41 0.982426 0.003186 0.000000 0.000000 0.000000 0.425839
  time 15
    0 9.958185 3.485978 -5.494758 0.691178 -1.783832 -1.224401
    1 0.000000 -8.563282 -0.000003 0.234579 0.435354 -0.781921
    2 -0.109710 -3.119558 0.832132 0.656026 1.697471 1.123747
    3 0.000000 1.322671 2.154066 0.000000 0.000000 0.000000
    4 0.000000 -2.226188 0.667243 0.000000 0.000000 0.000000
    5 0.000000 -0.744802 -0.000001 0.000000 -0.267036 0.000000
    6 0.000001 -2.694760 -0.628573 0.000000 0.000000 0.000000
    7 0.000002 -5.701931 -1.088361 0.000000 0.000000 0.000000
    8 -0.003480 -0.404829 0.000000 0.000000 0.000000 0.000000
    9 -0.519309 -2.501155 -0.278958 -1.448623 0.000000 -0.122173
    10 -0.010598 -1.208185 -0.000001 0.350152 0.000000 0.000000
    11 0.000000 -0.763066 0.000000 -1.058777 0.000000 0.000000
    12 0.105981 -2.607134 -0.278958 -1.021435 0.096943 -0.087543
    13 0.000000 -1.250579 0.000000 -0.372739 0.000000 0.000000
    14 0.000000 -0.932634 0.000000 -0.413152 0.000000 0.000000
    15 0.763064 -2.490556 -0.278958 0.013133 0.055297 0.283572
    16 -0.012322 -1.280916 -0.000001 0.193004 0.000000 0.000000
    17 -0.001697 -0.749371 0.000000 -0.771243 0.000000 0.000000
    18 0.354567 0.016267 0.318133 0.499279 -0.307226 -1.068025
    19 1.887165 0.012878 -0.000001 -0.304150 0.028440 -0.311058
    20 1.001873 -0.000270 0.000001 0.000000 0.000000 -0.184466
    21 -1.123359 -2.195093 -0.278957 -1.337000 -0.006064 -0.061811
    22 0.010772 -0.963791 0.000001 0.483806 0.000000 0.000000
    23 -0.010412 -0.631915 0.000000 -0.680183 0.000000 0.000000
    24 -0.647968 -5.361254 -9.690043 -0.351335 -0.336364 0.532626
    25 0.089928 -8.543166 -0.000001 0.488387 0.148297 0.404954
    26 0.000000 -0.359714 0.000000 0.000000 0.000000 0.000000
    27 -0.170480 -2.636148 -0.277655 -1.787196 0.000000 0.000000
    28 0.010599 -1.261178 0.000001 -0.253073 0.000000 0.000000
    29 -0.000001 -0.943233 -0.000001 -0.532326 0.000000 0.000000
    30 -0.827564 -2.508974 -0.277656 -1.432907 0.000000 0.000000
    31 0.000000 -1.292971 0.000000 -0.554988 0.000000 0.000000
    32 0.000000 -0.752466 0.000000 -0.633551 0.000000 0.000000
    33 0.444213 -2.561961 -0.277656 -1.837245 -0.049654 -0.023029
    34 0.021021 -1.208186 0.000000 -0.427606 0.000000 0.000000
    35 0.010597 -0.741867 -0.000001 -0.453786 0.000000 0.000000
    36 1.047444 -2.222822 -0.277656 -1.801437 -0.095845 -0.030507
    37 0.000000 -0.996223 -0.000001 -0.549786 0.000000 0.000000
    38 -0.000001 -0.614690 0.000000 -0.523599 0.000000 0.000000
    39 -0.308254 -0.007814 0.307166 -0.129374 -0.297499 -2.570662
    40 1.978378 0.019543 0.000000 -0.093458 -0.047313 0.082472
    41 0.982426 0.003186 0.000000 0.000000 0.000000 0.425839
  time 16
    0 9.958185 3.466447 -5.451788 0.824872 -1.813227 -1.361488
    1 0.000000 -8.563282 -0.000003 0.277097 0.415304 -0.703902
    2 -0.109710 -3.119558 0.832132 0.656026 1.697471 1.123747
    3 0.000000 1.322671 2.154066 0.000000 0.000000 0.000000
    4 0.000000 -2.226188 0.667243 0.000000 0.000000 0.000000
    5 0.000000 -0.744802 -0.000001 0.000000 -0.267036 0.000000
    6 0.000001 -2.694760 -0.628573 0.000000 0.000000 0.000000
    7 0.000002 -5.701931 -1.088361 0.000000 0.000000 0.000000
    8 -0.003480 -0.404829 0.000000 0.000000 0.000000 0.000000
    9 -0.519309 -2.501155 -0.278958 -1.448623 0.000000 -0.122173
    10 -0.010598 -1.208185 -0.000001 0.384939 0.000000 0.000000
    11 0.000000 -0.763066 0.000000 -1.051275 0.000000 0.000000
    12 0.105981 -2.607134 -0.278958 -1.008067 0.099292 -0.085134
    13 0.000000 -1.250579 0.000000 -0.445306 0.000000 0.000000
    14 0.000000 -0.932634 0.000000 -0.404916 0.000000 0.000000
    15 0.763064 -2.490556 -0.278958 -0.004916 0.055297 0.283572
    16 -0.012322 -1.280916 -0.000001 0.199394 0.000000 0.000000
    17 -0.001697 -0.749371 0.000000 -0.876006 0.000000 0.000000
    18 0.354567 0.016267 0.318133 0.486060 -0.319582 -1.031266
    19 1.887165 0.012878 -0.000001 -0.302065 0.045925 -0.255097
    20 1.001873 -0.000270 0.000001 0.000000 0.000000 -0.178307
    21 -1.123359 -2.195093 -0.278957 -1.337000 -0.006064 -0.061811
    22 0.010772 -0.963791 0.000001 0.511975 0.000000 0.000000
    23 -0.010412 -0.631915 0.000000 -0.666353 0.000000 0.000000
    24 -0.714376 -5.751891 -8.752515 -0.408260 -0.275399 0.529870
    25 0.089928 -8.543166 -0.000001 0.497403 0.134336 0.439900
    26 0.000000 -0.359714 0.000000 0.000000 0.000000 0.000000
    27 -0.170480 -2.636148 -0.277655 -1.787196 0.000000 0.000000
    28 0.010599 -1.261178 0.000001 -0.253073 0.000000 0.000000
    29 -0.000001 -0.943233 -0.000001 -0.532326 0.000000 0.000000
    30 -0.827564 -2.508974 -0.277656 -1.432907 0.000000 0.000000
    31 0.000000 -1.292971 0.000000 -0.554988 0.000000 0.000000
    32 0.000000 -0.752466 0.000000 -0.633551 0.000000 0.000000
    33 0.444213 -2.561961 -0.277656 -1.837245 -0.049654 -0.023029
    34 0.021021 -1.208186 0.000000 -0.427606 0.000000 0.000000
    35 0.010597 -0.741867 -0.000001 -0.453786 0.000000 0.000000
    36 1.047444 -2.222822 -0.277656 -1.801437 -0.095845 -0.030507
    37 0.000000 -0.996223 -0.000001 -0.549786 0.000000 0.000000
    38 -0.000001 -0.614690 0.000000 -0.523599 0.000000 0.000000
    39 -0.308254 -0.007814 0.307166 -0.129374 -0.297499 -2.570662
    40 1.978378 0.019543 0.000000 -0.093458 -0.047313 0.082472
    41 0.982426 0.003186 0.000000 0.000000 0.000000 0.425839
  time 17
    0 9.958185 3.462540 -5.416631 0.914114 -1.840956 -1.453820
    1 0.000000 -8.563282 -0.000003 0.315840 0.393648 -0.632545
    2 -0.109710 -3.119558 0.832132 0.656026 1.697471 1.123747
    3 0.000000 1.322671 2.154066 0.000000 0.000000 0.000000
    4 0.000000 -2.226188 0.667243 0.000000 0.000000 0.000000
    5 0.000000 -0.744802 -0.000001 0.000000 -0.267036 0.000000
    6 0.000001 -2.694760 -0.628573 0.000000 0.000000 0.000000
    7 0.000002 -5.701931 -1.088361 0.000000 0.000000 0.000000
    8 -0.003480 -0.404829 0.000000 0.000000 0.000000 0.000000
    9 -0.519309 -2.501155 -0.278958 -1.448623 0.000000 -0.122173
    10 -0.010598 -1.208185 -0.000001 0.410918 0.000000 0.000000
    11 0.000000 -0.763066 0.000000 -1.044396 0.000000 0.000000
    12 0.105981 -2.607134 -0.278958 -0.999662 0.100754 -0.083612
    13 0.000000 -1.250579 0.000000 -0.528467 0.000000 0.000000
    14 0.000000 -0.932634 0.000000 -0.460122 0.000000 0.000000
    15 0.763064 -2.490556 -0.278958 -0.026165 0.055297 0.283572
    16 -0.012322 -1.280916 -0.000001 0.202713 0.000000 0.000000
    17 -0.001697 -0.749371 0.000000 -0.984384 0.000000 0.000000
    18 0.354567 0.016267 0.318133 0.470792 -0.333856 -0.989447
    19 1.887165 0.012878 -0.000001 -0.299153 0.062584 -0.201323
    20 1.001873 -0.000270 0.000001 0.000000 0.000000 -0.177464
    21 -1.123359 -2.195093 -0.278957 -1.337000 -0.006064 -0.061811
    22 0.010772 -0.963791 0.000001 0.529642 0.000000 0.000000
    23 -0.010412 -0.631915 0.000000 -0.654524 0.000000 0.000000
    24 -0.714376 -5.970647 -8.006398 -0.460710 -0.216242 0.524656
    25 0.089928 -8.543166 -0.000001 0.504423 0.120909 0.471285
    26 0.000000 -0.359714 0.000000 0.000000 0.000000 0.000000
    27 -0.170480 -2.636148 -0.277655 -1.787196 0.000000 0.000000
    28 0.010599 -1.261178 0.000001 -0.253073 0.000000 0.000000
    29 -0.000001 -0.943233 -0.000001 -0.532326 0.000000 0.000000
    30 -0.827564 -2.508974 -0.277656 -1.432907 0.000000 0.000000
    31 0.000000 -1.292971 0.000000 -0.554988 0.000000 0.000000
    32 0.000000 -0.752466 0.000000 -0.633551 0.000000 0.000000
    33 0.444213 -2.561961 -0.277656 -1.837245 -0.049654 -0.023029
    34 0.021021 -1.208186 0.000000 -0.427606 0.000000 0.000000
    35 0.010597 -0.741867 -0.000001 -0.453786 0.000000 0.000000
    36 1.047444 -2.222822 -0.277656 -1.801437 -0.095845 -0.030507
    37 0.000000 -0.996223 -0.000001 -0.549786 0.000000 0.000000
    38 -0.000001 -0.614690 0.000000 -0.523599 0.000000 0.000000
    39 -0.308254 -0.007814 0.307166 -0.129374 -0.297499 -2.570662
    40 1.978378 0.019543 0.000000 -0.093458 -0.047313 0.082472
    41 0.982426 0.003186 0.000000 0.000000 0.000000 0.425839
  time 18
    0 9.958185 3.474259 -5.377567 0.969210 -1.862794 -1.511081
    1 0.000000 -8.563282 -0.000003 0.349922 0.372016 -0.571031
    2 -0.109710 -3.119558 0.832132 0.656026 1.697471 1.123747
    3 0.000000 1.322671 2.154066 0.000000 0.000000 0.000000
    4 0.000000 -2.226188 0.667243 0.000000 0.000000 0.000000
    5 0.000000 -0.744802 -0.000001 0.000000 -0.267036 0.000000
    6 0.000001 -2.694760 -0.628573 0.000000 0.000000 0.000000
    7 0.000002 -5.701931 -1.088361 0.000000 0.000000 0.000000
    8 -0.003480 -0.404829 0.000000 0.000000 0.000000 0.000000
    9 -0.519309 -2.501155 -0.278958 -1.448623 0.000000 -0.122173
    10 -0.010598 -1.208185 -0.000001 0.427199 0.000000 0.000000
    11 0.000000 -0.763066 0.000000 -1.038188 0.000000 0.000000
    12 0.105981 -2.607134 -0.278958 -0.996763 0.101258 -0.083085
    13 0.000000 -1.250579 0.000000 -0.611628 0.000000 0.000000
    14 0.000000 -0.932634 0.000000 -0.605663 0.000000 0.000000
    15 0.763064 -2.490556 -0.278958 -0.049834 0.055297 0.283572
    16 -0.012322 -1.280916 -0.000001 0.202762 0.000000 0.000000
    17 -0.001697 -0.749371 0.000000 -1.092400 0.000000 0.000000
    18 0.354567 0.016267 0.318133 0.454541 -0.348885 -0.945818
    19 1.887165 0.012878 -0.000001 -0.295881 0.076941 -0.154360
    20 1.001873 -0.000270 0.000001 0.000000 0.000000 -0.182230
    21 -1.123359 -2.195093 -0.278957 -1.337000 -0.006064 -0.061811
    22 0.010772 -0.963791 0.000001 0.535781 0.000000 0.000000
    23 -0.010412 -0.631915 0.000000 -0.644924 0.000000 0.000000
    24 -0.667500 -6.052681 -7.381379 -0.508847 -0.158987 0.517580
    25 0.089928 -8.543166 -0.000001 0.508991 0.109057 0.496918
    26 0.000000 -0.359714 0.000000 0.000000 0.000000 0.000000
    27 -0.170480 -2.636148 -0.277655 -1.787196 0.000000 0.000000
    28 0.010599 -1.261178 0.000001 -0.253073 0.000000 0.000000
    29 -0.000001 -0.943233 -0.000001 -0.532326 0.000000 0.000000
    30 -0.827564 -2.508974 -0.277656 -1.432907 0.000000 0.000000
    31 0.000000 -1.292971 0.000000 -0.554988 0.000000 0.000000
    32 0.000000 -0.752466 0.000000 -0.633551 0.000000 0.000000
    33 0.444213 -2.561961 -0.277656 -1.837245 -0.049654 -0.023029
    34 0.021021 -1.208186 0.000000 -0.427606 0.000000 0.000000
    35 0.010597 -0.741867 -0.000001 -0.453786 0.000000 0.000000
    36 1.047444 -2.222822 -0.277656 -1.801437 -0.095845 -0.030507
    37 0.000000 -0.996223 -0.000001 -0.549786 0.000000 0.000000
    38 -0.000001 -0.614690 0.000000 -0.523599 0.000000 0.000000
    39 -0.308254 -0.007814 0.307166 -0.129374 -0.297499 -2.570662
    40 1.978378 0.019543 0.000000 -0.093458 -0.047313 0.082472
    41 0.982426 0.003186 0.000000 0.000000 0.000000 0.425839
  time 19
    0 9.958185 3.505510 -5.338503 0.998673 -1.876460 -1.542015
    1 0.000000 -8.563282 -0.000003 0.378757 0.352205 -0.522151
    2 -0.109710 -3.119558 0.832132 0.656026 1.697471 1.123747
    3 0.000000 1.322671 2.154066 0.000000 0.000000 0.000000
    4 0.000000 -2.226188 0.667243 0.000000 0.000000 0.000000
    5 0.000000 -0.744802 -0.000001 0.000000 -0.267036 0.000000
    6 0.000001 -2.694760 -0.628573 0.000000 0.000000 0.000000
    7 0.000002 -5.701931 -1.088361 0.000000 0.000000 0.000000
    8 -0.003480 -0.404829 0.000000 0.000000 0.000000 0.000000
    9 -0.519309 -2.501155 -0.278958 -1.448623 0.000000 -0.122173
    10 -0.010598 -1.208185 -0.000001 0.432763 0.000000 0.000000
    11 0.000000 -0.763066 0.000000 -1.032723 0.000000 0.000000
    12 0.105981 -2.607134 -0.278958 -1.003220 0.100131 -0.084247
    13 0.000000 -1.250579 0.000000 -0.684195 0.000000 0.000000
    14 0.000000 -0.932634 0.000000 -0.811405 0.000000 0.000000
    15 0.763064 -2.490556 -0.278958 -0.075110 0.055297 0.283572
    16 -0.012322 -1.280916 -0.000001 0.199419 0.000000 0.000000
    17 -0.001697 -0.749371 0.000000 -1.195940 0.000000 0.000000
    18 0.354567 0.016267 0.318133 0.438613 -0.363662 -0.903759
    19 1.887165 0.012878 -0.000001 -0.292957 0.087679 -0.118851
    20 1.001873 -0.000270 0.000001 0.000000 0.000000 -0.192863
    21 -1.123359 -2.195093 -0.278957 -1.337000 -0.006064 -0.061811
    22 0.010772 -0.963791 0.000001 0.522195 0.000000 0.000000
    23 -0.010412 -0.631915 0.000000 -0.637794 0.000000 0.000000
    24 -0.616717 -6.087838 -6.885270 -0.552401 -0.104014 0.509312
    25 0.089928 -8.543166 -0.000001 0.510746 0.099847 0.514539
    26 0.000000 -0.359714 0.000000 0.000000 0.000000 0.000000
    27 -0.170480 -2.636148 -0.277655 -1.787196 0.000000 0.000000
    28 0.010599 -1.261178 0.000001 -0.253073 0.000000 0.000000
    29 -0.000001 -0.943233 -0.000001 -0.532326 0.000000 0.000000
    30 -0.827564 -2.508974 -0.277656 -1.432907 0.000000 0.000000
    31 0.000000 -1.292971 0.000000 -0.554988 0.000000 0.000000
    32 0.000000 -0.752466 0.000000 -0.633551 0.000000 0.000000
    33 0.444213 -2.561961 -0.277656 -1.837245 -0.049654 -0.023029
    34 0.021021 -1.208186 0.000000 -0.427606 0.000000 0.000000
    35 0.010597 -0.741867 -0.000001 -0.453786 0.000000 0.000000
    36 1.047444 -2.222822 -0.277656 -1.801437 -0.095845 -0.030507
    37 0.000000 -0.996223 -0.000001 -0.549786 0.000000 0.000000
    38 -0.000001 -0.614690 0.000000 -0.523599 0.000000 0.000000
    39 -0.308254 -0.007814 0.307166 -0.129374 -0.297499 -2.570662
    40 1.978378 0.019543 0.000000 -0.093458 -0.047313 0.082472
    41 0.982426 0.003186 0.000000 0.000000 0.000000 0.425839
  time 20
    0 9.958185 3.552387 -5.299440 1.010680 -1.882510 -1.554614
    1 0.000000 -8.563282 -0.000003 0.401980 0.336110 -0.488733
    2 -0.109710 -3.119558 0.832132 0.656026 1.697471 1.123747
    3 0.000000 1.322671 2.154066 0.000000 0.000000 0.000000
    4 0.000000 -2.226188 0.667243 0.000000 0.000000 0.000000
    5 0.000000 -0.744802 -0.000001 0.000000 -0.267036 0.000000
    6 0.000001 -2.694760 -0.628573 0.000000 0.000000 0.000000
    7 0.000002 -5.701931 -1.088361 0.000000 0.000000 0.000000
    8 -0.003480 -0.404829 0.000000 0.000000 0.000000 0.000000
    9 -0.519309 -2.501155 -0.278958 -1.448623 0.000000 -0.122173
    10 -0.010598 -1.208185 -0.000001 0.318862 0.000000 0.000000
    11 0.000000 -0.763066 0.000000 -1.028085 0.000000 0.000000
    12 0.105981 -2.607134 -0.278958 -1.021435 0.096943 -0.087543
    13 0.000000 -1.250579 0.000000 -0.684195 0.000000 0.000000
    14 0.000000 -0.932634 0.000000 -1.047214 0.000000 0.000000
    15 0.763064 -2.490556 -0.278958 -0.101236 0.055297 0.283572
    16 -0.012322 -1.280916 -0.000001 0.192561 0.000000 0.000000
    17 -0.001697 -0.749371 0.000000 -1.290999 0.000000 0.000000
    18 0.354567 0.016267 0.318133 0.424543 -0.377384 -0.866772
    19 1.887165 0.012878 -0.000001 -0.291219 0.093492 -0.099492
    20 1.001873 -0.000270 0.000001 0.000000 0.000000 -0.209623
    21 -1.123359 -2.195093 -0.278957 -1.337000 -0.006064 -0.061811
    22 0.010772 -0.963791 0.000001 0.483806 0.000000 0.000000
    23 -0.010412 -0.631915 0.000000 -0.633359 0.000000 0.000000
    24 -0.604998 -6.169872 -6.557135 -0.591260 -0.051514 0.500522
    25 0.089928 -8.543166 -0.000001 0.509384 0.094402 0.521911
    26 0.000000 -0.359714 0.000000 0.000000 0.000000 0.000000
    27 -0.170480 -2.636148 -0.277655 -1.787196 0.000000 0.000000
    28 0.010599 -1.261178 0.000001 -0.253073 0.000000 0.000000
    29 -0.000001 -0.943233 -0.000001 -0.532326 0.000000 0.000000
    30 -0.827564 -2.508974 -0.277656 -1.432907 0.000000 0.000000
    31 0.000000 -1.292971 0.000000 -0.554988 0.000000 0.000000
    32 0.000000 -0.752466 0.000000 -0.633551 0.000000 0.000000
    33 0.444213 -2.561961 -0.277656 -1.837245 -0.049654 -0.023029
    34 0.021021 -1.208186 0.000000 -0.427606 0.000000 0.000000
    35 0.010597 -0.741867 -0.000001 -0.453786 0.000000 0.000000
    36 1.047444 -2.222822 -0.277656 -1.801437 -0.095845 -0.030507
    37 0.000000 -0.996223 -0.000001 -0.549786 0.000000 0.000000
    38 -0.000001 -0.614690 0.000000 -0.523599 0.000000 0.000000
    39 -0.308254 -0.007814 0.307166 -0.129374 -0.297499 -2.570662
    40 1.978378 0.019543 0.000000 -0.093458 -0.047313 0.082472
    41 0.982426 0.003186 0.000000 0.000000 0.000000 0.425839
  time 21
    0 9.958185 3.618795 -5.260376 1.009488 -1.881915 -1.553298
    1 0.000000 -8.563282 -0.000003 0.420357 0.324665 -0.470740
    2 -0.109710 -3.119558 0.832132 0.656026 1.697471 1.123747
    3 0.000000 1.322671 2.154066 0.000000 0.000000 0.000000
    4 0.000000 -2.226188 0.667243 0.000000 0.000000 0.000000
    5 0.000000 -0.744802 -0.000001 0.000000 -0.267036 0.000000
    6 0.000001 -2.694760 -0.628573 0.000000 0.000000 0.000000
    7 0.000002 -5.701931 -1.088361 0.000000 0.000000 0.000000
    8 -0.003480 -0.404829 0.000000 0.000000 0.000000 0.000000
    9 -0.519309 -2.501155 -0.278958 -1.448623 0.000000 -0.122173
    10 -0.010598 -1.208185 -0.000001 0.042091 0.000000 0.000000
    11 0.000000 -0.763066 0.000000 -1.024358 0.000000 0.000000
    12 0.105981 -2.607134 -0.278958 -1.049724 0.091862 -0.092541
    13 0.000000 -1.250579 0.000000 -0.684195 0.000000 0.000000
    14 0.000000 -0.932634 0.000000 -1.283089 0.000000 0.000000
    15 0.763064 -2.490556 -0.278958 -0.127399 0.055297 0.283572
    16 -0.012322 -1.280916 -0.000001 0.182091 0.000000 0.000000
    17 -0.001697 -0.749371 0.000000 -1.373437 0.000000 0.000000
    18 0.354567 0.016267 0.318133 0.414009 -0.389489 -0.838487
    19 1.887165 0.012878 -0.000001 -0.291351 0.093037 -0.100944
    20 1.001873 -0.000270 0.000001 0.000000 0.000000 -0.232787
    21 -1.123359 -2.195093 -0.278957 -1.337000 -0.006064 -0.061811
    22 0.010772 -0.963791 0.000001 0.424104 0.000000 0.000000
    23 -0.010412 -0.631915 0.000000 -0.631837 0.000000 0.000000
    24 -0.644062 -6.333940 -6.432131 -0.617348 -0.003960 0.494861
    25 0.089928 -8.543166 -0.000001 0.504634 0.092560 0.518784
    26 0.000000 -0.359714 0.000000 0.000000 0.000000 0.000000
    27 -0.170480 -2.636148 -0.277655 -1.787196 0.000000 0.000000
    28 0.010599 -1.261178 0.000001 -0.253073 0.000000 0.000000
    29 -0.000001 -0.943233 -0.000001 -0.532326 0.000000 0.000000
    30 -0.827564 -2.508974 -0.277656 -1.432907 0.000000 0.000000
    31 0.000000 -1.292971 0.000000 -0.554988 0.000000 0.000000
    32 0.000000 -0.752466 0.000000 -0.633551 0.000000 0.000000
    33 0.444213 -2.561961 -0.277656 -1.837245 -0.049654 -0.023029
    34 0.021021 -1.208186 0.000000 -0.427606 0.000000 0.000000
    35 0.010597 -0.741867 -0.000001 -0.453786 0.000000 0.000000
    36 1.047444 -2.222822 -0.277656 -1.801437 -0.095845 -0.030507
    37 0.000000 -0.996223 -0.000001 -0.549786 0.000000 0.000000
    38 -0.000001 -0.614690 0.000000 -0.523599 0.000000 0.000000
    39 -0.308254 -0.007814 0.307166 -0.129374 -0.297499 -2.570662
    40 1.978378 0.019543 0.000000 -0.093458 -0.047313 0.082472
    41 0.982426 0.003186 0.000000 0.000000 0.000000 0.425839
  time 22
    0 9.958185 3.696922 -5.221312 0.997396 -1.875826 -1.540698
    1 0.000000 -8.563282 -0.000003 0.435410 0.317270 -0.464879
    2 -0.109710 -3.119558 0.832132 0.656026 1.697471 1.123747
    3 0.000000 1.322671 2.154066 0.000000 0.000000 0.000000
    4 0.000000 -2.226188 0.667243 0.000000 0.000000 0.000000
    5 0.000000 -0.744802 -0.000001 0.000000 -0.267036 0.000000
    6 0.000001 -2.694760 -0.628573 0.000000 0.000000 0.000000
    7 0.000002 -5.701931 -1.088361 0.000000 0.000000 0.000000
    8 -0.003480 -0.404829 0.000000 0.000000 0.000000 0.000000
    9 -0.519309 -2.501155 -0.278958 -1.448623 0.000000 -0.122173
    10 -0.010598 -1.208185 -0.000001 -0.299834 0.000000 0.000000
    11 0.000000 -0.763066 0.000000 -1.021577 0.000000 0.000000
    12 0.105981 -2.607134 -0.278958 -1.086360 0.085067 -0.098785
    13 0.000000 -1.250579 0.000000 -0.684195 0.000000 0.000000
    14 0.000000 -0.932634 0.000000 -1.488764 0.000000 0.000000
    15 0.763064 -2.490556 -0.278958 -0.152806 0.055297 0.283572
    16 -0.012322 -1.280916 -0.000001 0.167811 0.000000 0.000000
    17 -0.001697 -0.749371 0.000000 -1.439192 0.000000 0.000000
    18 0.354567 0.016267 0.318133 0.406746 -0.401006 -0.817654
    19 1.887165 0.012878 -0.000001 -0.293508 0.085750 -0.125286
    20 1.001873 -0.000270 0.000001 0.000000 0.000000 -0.264800
    21 -1.123359 -2.195093 -0.278957 -1.337000 -0.006064 -0.061811
    22 0.010772 -0.963791 0.000001 0.346734 0.000000 0.000000
    23 -0.010412 -0.631915 0.000000 -0.639891 0.000000 0.000000
    24 -0.706564 -6.517539 -6.463382 -0.624717 0.037317 0.495979
    25 0.089928 -8.543166 -0.000001 0.496889 0.093174 0.507417
    26 0.000000 -0.359714 0.000000 0.000000 0.000000 0.000000
    27 -0.170480 -2.636148 -0.277655 -1.787196 0.000000 0.000000
    28 0.010599 -1.261178 0.000001 -0.253073 0.000000 0.000000
    29 -0.000001 -0.943233 -0.000001 -0.532326 0.000000 0.000000
    30 -0.827564 -2.508974 -0.277656 -1.432907 0.000000 0.000000
    31 0.000000 -1.292971 0.000000 -0.554988 0.000000 0.000000
    32 0.000000 -0.752466 0.000000 -0.633551 0.000000 0.000000
    33 0.444213 -2.561961 -0.277656 -1.837245 -0.049654 -0.023029
    34 0.021021 -1.208186 0.000000 -0.427606 0.000000 0.000000
    35 0.010597 -0.741867 -0.000001 -0.453786 0.000000 0.000000
    36 1.047444 -2.222822 -0.277656 -1.801437 -0.095845 -0.030507
    37 0.000000 -0.996223 -0.000001 -0.549786 0.000000 0.000000
    38 -0.000001 -0.614690 0.000000 -0.523599 0.000000 0.000000
    39 -0.308254 -0.007814 0.307166 -0.129374 -0.297499 -2.570662
    40 1.978378 0.019543 0.000000 -0.093458 -0.047313 0.082472
    41 0.982426 0.003186 0.000000 0.000000 0.000000 0.425839
  time 23
    0 9.958185 3.798488 -5.178342 0.975511 -1.865611 -1.517662
    1 0.000000 -8.563282 -0.000003 0.447889 0.313435 -0.468842
    2 -0.109710 -3.119558 0.832132 0.656026 1.697471 1.123747
    3 0.000000 1.322671 2.154066 0.000000 0.000000 0.000000
    4 0.000000 -2.226188 0.667243 0.000000 0.000000 0.000000
    5 0.000000 -0.744802 -0.000001 0.000000 -0.267036 0.000000
    6 0.000001 -2.694760 -0.628573 0.000000 0.000000 0.000000
    7 0.000002 -5.701931 -1.088361 0.000000 0.000000 0.000000
    8 -0.003480 -0.404829 0.000000 0.000000 0.000000 0.000000
    9 -0.519309 -2.501155 -0.278958 -1.448623 0.000000 -0.122173
    10 -0.010598 -1.208185 -0.000001 -0.609135 0.000000 0.000000
    11 0.000000 -0.763066 0.000000 -1.019875 0.000000 0.000000
    12 0.105981 -2.607134 -0.278958 -1.129613 0.076725 -0.105844
    13 0.000000 -1.250579 0.000000 -0.684195 0.000000 0.000000
    14 0.000000 -0.932634 0.000000 -1.488764 0.000000 0.000000
    15 0.763064 -2.490556 -0.278958 -0.176679 0.055297 0.283572
    16 -0.012322 -1.280916 -0.000001 0.149622 0.000000 0.000000
    17 -0.001697 -0.749371 0.000000 -1.484205 0.000000 0.000000
    18 0.354567 0.016267 0.318133 0.401089 -0.413230 -0.800096
    19 1.887165 0.012878 -0.000001 -0.296960 0.072555 -0.168807
    20 1.001873 -0.000270 0.000001 0.000000 0.000000 -0.306588
    21 -1.123359 -2.195093 -0.278957 -1.337000 -0.006064 -0.061811
    22 0.010772 -0.963791 0.000001 0.255093 0.000000 0.000000
    23 -0.010412 -0.631915 0.000000 -0.662158 0.000000 0.000000
    24 -0.804223 -6.634730 -6.553229 -0.616093 0.073363 0.503502
    25 0.089928 -8.543166 -0.000001 0.486572 0.095683 0.489248
    26 0.000000 -0.359714 0.000000 0.000000 0.000000 0.000000
    27 -0.170480 -2.636148 -0.277655 -1.787196 0.000000 0.000000
    28 0.010599 -1.261178 0.000001 -0.253073 0.000000 0.000000
    29 -0.000001 -0.943233 -0.000001 -0.532326 0.000000 0.000000
    30 -0.827564 -2.508974 -0.277656 -1.432907 0.000000 0.000000
    31 0.000000 -1.292971 0.000000 -0.554988 0.000000 0.000000
    32 0.000000 -0.752466 0.000000 -0.633551 0.000000 0.000000
    33 0.444213 -2.561961 -0.277656 -1.837245 -0.049654 -0.023029
    34 0.021021 -1.208186 0.000000 -0.427606 0.000000 0.000000
    35 0.010597 -0.741867 -0.000001 -0.453786 0.000000 0.000000
    36 1.047444 -2.222822 -0.277656 -1.801437 -0.095845 -0.030507
    37 0.000000 -0.996223 -0.000001 -0.549786 0.000000 0.000000
    38 -0.000001 -0.614690 0.000000 -0.523599 0.000000 0.000000
    39 -0.308254 -0.007814 0.307166 -0.129374 -0.297499 -2.570662
    40 1.978378 0.019543 0.000000 -0.093458 -0.047313 0.082472
    41 0.982426 0.003186 0.000000 0.000000 0.000000 0.425839
  time 24
    0 9.958185 3.911773 -5.135372 0.944685 -1.852500 -1.485506
    1 0.000000 -8.563282 -0.000003 0.458381 0.312524 -0.480490
    2 -0.109710 -3.119558 0.832132 0.656026 1.697471 1.123747
    3 0.000000 1.322671 2.154066 0.000000 0.000000 0.000000
    4 0.000000 -2.226188 0.667243 0.000000 0.000000 0.000000
    5 0.000000 -0.744802 -0.000001 0.000000 -0.267036 0.000000
    6 0.000001 -2.694760 -0.628573 0.000000 0.000000 0.000000
    7 0.000002 -5.701931 -1.088361 0.000000 0.000000 0.000000
    8 -0.003480 -0.404829 0.000000 0.000000 0.000000 0.000000
    9 -0.519309 -2.501155 -0.278958 -1.448623 0.000000 -0.122173
    10 -0.010598 -1.208185 -0.000001 -0.609135 0.000000 0.000000
    11 0.000000 -0.763066 0.000000 -1.019276 0.000000 0.000000
    12 0.105981 -2.607134 -0.278958 -1.177786 0.067090 -0.113262
    13 0.000000 -1.250579 0.000000 -0.684195 0.000000 0.000000
    14 0.000000 -0.932634 0.000000 -1.488764 0.000000 0.000000
    15 0.763064 -2.490556 -0.278958 -0.198228 0.055297 0.283572
    16 -0.012322 -1.280916 -0.000001 0.127378 0.000000 0.000000
    17 -0.001697 -0.749371 0.000000 -1.504474 0.000000 0.000000
    18 0.354567 0.016267 0.318133 0.396691 -0.426089 -0.785170
    19 1.887165 0.012878 -0.000001 -0.300687 0.054470 -0.227600
    20 1.001873 -0.000270 0.000001 0.000000 0.000000 -0.356205
    21 -1.123359 -2.195093 -0.278957 -1.337000 -0.006064 -0.061811
    22 0.010772 -0.963791 0.000001 0.152889 0.000000 0.000000
    23 -0.010412 -0.631915 0.000000 -0.695823 0.000000 0.000000
    24 -0.952665 -6.650355 -6.697765 -0.594753 0.104939 0.516909
    25 0.089928 -8.543166 -0.000001 0.474258 0.099500 0.465692
    26 0.000000 -0.359714 0.000000 0.000000 0.000000 0.000000
    27 -0.170480 -2.636148 -0.277655 -1.787196 0.000000 0.000000
    28 0.010599 -1.261178 0.000001 -0.253073 0.000000 0.000000
    29 -0.000001 -0.943233 -0.000001 -0.532326 0.000000 0.000000
    30 -0.827564 -2.508974 -0.277656 -1.432907 0.000000 0.000000
    31 0.000000 -1.292971 0.000000 -0.554988 0.000000 0.000000
    32 0.000000 -0.752466 0.000000 -0.633551 0.000000 0.000000
    33 0.444213 -2.561961 -0.277656 -1.837245 -0.049654 -0.023029
    34 0.021021 -1.208186 0.000000 -0.427606 0.000000 0.000000
    35 0.010597 -0.741867 -0.000001 -0.453786 0.000000 0.000000
    36 1.047444 -2.222822 -0.277656 -1.801437 -0.095845 -0.030507
    37 0.000000 -0.996223 -0.000001 -0.549786 0.000000 0.000000
    38 -0.000001 -0.614690 0.000000 -0.523599 0.000000 0.000000
    39 -0.308254 -0.007814 0.307166 -0.129374 -0.297499 -2.570662
    40 1.978378 0.019543 0.000000 -0.093458 -0.047313 0.082472
    41 0.982426 0.003186 0.000000 0.000000 0.000000 0.425839
  time 25
    0 9.958185 4.044589 -5.092402 0.905599 -1.837921 -1.444982
    1 0.000000 -8.563282 -0.000003 0.467436 0.313855 -0.497701
    2 -0.109710 -3.119558 0.832132 0.656026 1.697471 1.123747
    3 0.000000 1.322671 2.154066 0.000000 0.000000 0.000000
    4 0.000000 -2.226188 0.667243 0.000000 0.000000 0.000000
    5 0.000000 -0.744802 -0.000001 0.000000 -0.267036 0.000000
    6 0.000001 -2.694760 -0.628573 0.000000 0.000000 0.000000
    7 0.000002 -5.701931 -1.088361 0.000000 0.000000 0.000000
    8 -0.003480 -0.404829 0.000000 0.000000 0.000000 0.000000
    9 -0.519309 -2.501155 -0.278958 -1.448623 0.000000 -0.122173
    10 -0.010598 -1.208185 -0.000001 -0.609135 0.000000 0.000000
    11 0.000000 -0.763066 0.000000 -1.051275 0.000000 0.000000
    12 0.105981 -2.607134 -0.278958 -1.229196 0.056376 -0.120693
    13 0.000000 -1.250579 0.000000 -0.684195 0.000000 0.000000
    14 0.000000 -0.932634 0.000000 -1.488764 0.000000 0.000000
    15 0.763064 -2.490556 -0.278958 -0.219680 0.055297 0.283572
    16 -0.012322 -1.280916 -0.000001 0.087585 0.000000 0.000000
    17 -0.001697 -0.749371 0.000000 -1.462519 0.000000 0.000000
    18 0.354567 0.016267 0.318133 0.393228 -0.439428 -0.772204
    19 1.887165 0.012878 -0.000001 -0.303743 0.032610 -0.297740
    20 1.001873 -0.000270 0.000001 0.000000 0.000000 -0.411673
    21 -1.123359 -2.195093 -0.278957 -1.337000 -0.006064 -0.061811
    22 0.010772 -0.963791 0.000001 0.043580 0.000000 0.000000
    23 -0.010412 -0.631915 0.000000 -0.738009 0.000000 0.000000
    24 -1.136264 -6.599573 -6.904802 -0.563589 0.132901 0.535084
    25 0.089928 -8.543166 -0.000001 0.460341 0.104092 0.438142
    26 0.000000 -0.359714 0.000000 0.000000 0.000000 0.000000
    27 -0.170480 -2.636148 -0.277655 -1.787196 0.000000 0.000000
    28 0.010599 -1.261178 0.000001 -0.253073 0.000000 0.000000
    29 -0.000001 -0.943233 -0.000001 -0.532326 0.000000 0.000000
    30 -0.827564 -2.508974 -0.277656 -1.432907 0.000000 0.000000
    31 0.000000 -1.292971 0.000000 -0.554988 0.000000 0.000000
    32 0.000000 -0.752466 0.000000 -0.633551 0.000000 0.000000
    33 0.444213 -2.561961 -0.277656 -1.837245 -0.049654 -0.023029
    34 0.021021 -1.208186 0.000000 -0.427606 0.000000 0.000000
    35 0.010597 -0.741867 -0.000001 -0.453786 0.000000 0.000000
    36 1.047444 -2.222822 -0.277656 -1.801437 -0.095845 -0.030507
    37 0.000000 -0.996223 -0.000001 -0.549786 0.000000 0.000000
    38 -0.000001 -0.614690 0.000000 -0.523599 0.000000 0.000000
    39 -0.308254 -0.007814 0.307166 -0.129374 -0.297499 -2.570662
    40 1.978378 0.019543 0.000000 -0.093458 -0.047313 0.082472
    41 0.982426 0.003186 0.000000 0.000000 0.000000 0.425839
  time 26
    0 9.958185 4.193031 -5.049432 0.859700 -1.823085 -1.397499
    1 0.000000 -8.563282 -0.000003 0.475506 0.316671 -0.518336
    2 -0.109710 -3.119558 0.832132 0.656026 1.697471 1.123747
    3 0.000000 1.322671 2.154066 0.000000 0.000000 0.000000
    4 0.000000 -2.226188 0.667243 0.000000 0.000000 0.000000
    5 0.000000 -0.744802 -0.000001 0.000000 -0.267036 0.000000
    6 0.000001 -2.694760 -0.628573 0.000000 0.000000 0.000000
    7 0.000002 -5.701931 -1.088361 0.000000 0.000000 0.000000
    8 -0.003480 -0.404829 0.000000 0.000000 0.000000 0.000000
    9 -0.519309 -2.501155 -0.278958 -1.448623 0.000000 -0.122173
    10 -0.010598 -1.208185 -0.000001 -0.609135 0.000000 0.000000
    11 0.000000 -0.763066 0.000000 -1.121685 0.000000 0.000000
    12 0.105981 -2.607134 -0.278958 -1.282172 0.044942 -0.127751
    13 0.000000 -1.250579 0.000000 -0.684195 0.000000 0.000000
    14 0.000000 -0.932634 0.000000 -1.488764 0.000000 0.000000
    15 0.763064 -2.490556 -0.278958 -0.243254 0.055297 0.283572
    16 -0.012322 -1.280916 -0.000001 0.022402 0.000000 0.000000
    17 -0.001697 -0.749371 0.000000 -1.341490 0.000000 0.000000
    18 0.354567 0.016267 0.318133 0.390339 -0.453103 -0.760503
    19 1.887165 0.012878 -0.000001 -0.305337 0.008174 -0.375444
    20 1.001873 -0.000270 0.000001 0.000000 0.000000 -0.471065
    21 -1.123359 -2.195093 -0.278957 -1.337000 -0.006064 -0.061811
    22 0.010772 -0.963791 0.000001 -0.069249 0.000000 0.000000
    23 -0.010412 -0.631915 0.000000 -0.785875 0.000000 0.000000
    24 -1.296425 -6.525352 -7.088401 -0.526149 0.158105 0.556834
    25 0.089928 -8.543166 -0.000001 0.445364 0.108897 0.408104
    26 0.000000 -0.359714 0.000000 0.000000 0.000000 0.000000
    27 -0.170480 -2.636148 -0.277655 -1.787196 0.000000 0.000000
    28 0.010599 -1.261178 0.000001 -0.253073 0.000000 0.000000
    29 -0.000001 -0.943233 -0.000001 -0.532326 0.000000 0.000000
    30 -0.827564 -2.508974 -0.277656 -1.432907 0.000000 0.000000
    31 0.000000 -1.292971 0.000000 -0.554988 0.000000 0.000000
    32 0.000000 -0.752466 0.000000 -0.633551 0.000000 0.000000
    33 0.444213 -2.561961 -0.277656 -1.837245 -0.049654 -0.023029
    34 0.021021 -1.208186 0.000000 -0.427606 0.000000 0.000000
    35 0.010597 -0.741867 -0.000001 -0.453786 0.000000 0.000000
    36 1.047444 -2.222822 -0.277656 -1.801437 -0.095845 -0.030507
    37 0.000000 -0.996223 -0.000001 -0.549786 0.000000 0.000000
    38 -0.000001 -0.614690 0.000000 -0.523599 0.000000 0.000000
    39 -0.308254 -0.007814 0.307166 -0.129374 -0.297499 -2.570662
    40 1.978378 0.019543 0.000000 -0.093458 -0.047313 0.082472
    41 0.982426 0.003186 0.000000 0.000000 0.000000 0.425839
  time 27
    0 9.958185 4.361005 -5.002556 0.809459 -1.809201 -1.345598
    1 0.000000 -8.563282 -0.000003 0.483157 0.320182 -0.540386
    2 -0.109710 -3.119558 0.832132 0.656026 1.697471 1.123747
    3 0.000000 1.322671 2.154066 0.000000 0.000000 0.000000
    4 0.000000 -2.226188 0.667243 0.000000 0.000000 0.000000
    5 0.000000 -0.744802 -0.000001 0.000000 -0.267036 0.000000
    6 0.000001 -2.694760 -0.628573 0.000000 0.000000 0.000000
    7 0.000002 -5.701931 -1.088361 0.000000 0.000000 0.000000
    8 -0.003480 -0.404829 0.000000 0.000000 0.000000 0.000000
    9 -0.519309 -2.501155 -0.278958 -1.448623 0.000000 -0.122173
    10 -0.010598 -1.208185 -0.000001 -0.609135 0.000000 0.000000
    11 0.000000 -0.763066 0.000000 -1.192070 0.000000 0.000000
    12 0.105981 -2.607134 -0.278958 -1.335016 0.033149 -0.134211
    13 0.000000 -1.250579 0.000000 -0.684195 0.000000 0.000000
    14 0.000000 -0.932634 0.000000 -1.488764 0.000000 0.000000
    15 0.763064 -2.490556 -0.278958 -0.268289 0.055297 0.283572
    16 -0.012322 -1.280916 -0.000001 -0.059716 0.000000 0.000000
    17 -0.001697 -0.749371 0.000000 -1.167664 0.000000 0.000000
    18 0.354567 0.016267 0.318133 0.387655 -0.466909 -0.749409
    19 1.887165 0.012878 -0.000001 -0.304953 -0.017485 -0.456930
    20 1.001873 -0.000270 0.000001 0.000000 0.000000 -0.532401
    21 -1.123359 -2.195093 -0.278957 -1.337000 -0.006064 -0.061811
    22 0.010772 -0.963791 0.000001 -0.182110 0.000000 0.000000
    23 -0.010412 -0.631915 0.000000 -0.836606 0.000000 0.000000
    24 -1.417523 -6.439412 -7.221218 -0.485652 0.181406 0.580595
    25 0.089928 -8.543166 -0.000001 0.429843 0.113515 0.376970
    26 0.000000 -0.359714 0.000000 0.000000 0.000000 0.000000
    27 -0.170480 -2.636148 -0.277655 -1.787196 0.000000 0.000000
    28 0.010599 -1.261178 0.000001 -0.253073 0.000000 0.000000
    29 -0.000001 -0.943233 -0.000001 -0.532326 0.000000 0.000000
    30 -0.827564 -2.508974 -0.277656 -1.432907 0.000000 0.000000
    31 0.000000 -1.292971 0.000000 -0.554988 0.000000 0.000000
    32 0.000000 -0.752466 0.000000 -0.633551 0.000000 0.000000
    33 0.444213 -2.561961 -0.277656 -1.837245 -0.049654 -0.023029
    34 0.021021 -1.208186 0.000000 -0.427606 0.000000 0.000000
    35 0.010597 -0.741867 -0.000001 -0.453786 0.000000 0.000000
    36 1.047444 -2.222822 -0.277656 -1.801437 -0.095845 -0.030507
    37 0.000000 -0.996223 -0.000001 -0.549786 0.000000 0.000000
    38 -0.000001 -0.614690 0.000000 -0.523599 0.000000 0.000000
    39 -0.308254 -0.007814 0.307166 -0.129374 -0.297499 -2.570662
    40 1.978378 0.019543 0.000000 -0.093458 -0.047313 0.082472
    41 0.982426 0.003186 0.000000 0.000000 0.000000 0.425839
  time 28
    0 9.958185 4.544604 -4.959586 0.758962 -1.797241 -1.293791
    1 0.000000 -8.563282 -0.000003 0.490909 0.323586 -0.561728
    2 -0.109710 -3.119558 0.832132 0.656026 1.697471 1.123747
    3 0.000000 1.322671 2.154066 0.000000 0.000000 0.000000
    4 0.000000 -2.226188 0.667243 0.000000 0.000000 0.000000
    5 0.000000 -0.744802 -0.000001 0.000000 -0.267036 0.000000
    6 0.000001 -2.694760 -0.628573 0.000000 0.000000 0.000000
    7 0.000002 -5.701931 -1.088361 0.000000 0.000000 0.000000
    8 -0.003480 -0.404829 0.000000 0.000000 0.000000 0.000000
    9 -0.519309 -2.501155 -0.278958 -1.448623 0.000000 -0.122173
    10 -0.010598 -1.208185 -0.000001 -0.609135 0.000000 0.000000
    11 0.000000 -0.763066 0.000000 -1.192070 0.000000 0.000000
    12 0.105981 -2.607134 -0.278958 -1.386132 0.021428 -0.139868
    13 0.000000 -1.250579 0.000000 -0.684195 0.000000 0.000000
    14 0.000000 -0.932634 0.000000 -1.488764 0.000000 0.000000
    15 0.763064 -2.490556 -0.278958 -0.294044 0.055297 0.283572
    16 -0.012322 -1.280916 -0.000001 -0.150265 0.000000 0.000000
    17 -0.001697 -0.749371 0.000000 -0.967423 0.000000 0.000000
    18 0.354567 0.016267 0.318133 0.384778 -0.480703 -0.738189
    19 1.887165 0.012878 -0.000001 -0.302484 -0.043060 -0.538488
    20 1.001873 -0.000270 0.000001 0.000000 0.000000 -0.593737
    21 -1.123359 -2.195093 -0.278957 -1.337000 -0.006064 -0.061811
    22 0.010772 -0.963791 0.000001 -0.291450 0.000000 0.000000
    23 -0.010412 -0.631915 0.000000 -0.887337 0.000000 0.000000
    24 -1.515182 -6.326127 -7.330596 -0.445592 0.204327 0.604953
    25 0.089928 -8.543166 -0.000001 0.414383 0.117519 0.346247
    26 0.000000 -0.359714 0.000000 0.000000 0.000000 0.000000
    27 -0.170480 -2.636148 -0.277655 -1.787196 0.000000 0.000000
    28 0.010599 -1.261178 0.000001 -0.253073 0.000000 0.000000
    29 -0.000001 -0.943233 -0.000001 -0.532326 0.000000 0.000000
    30 -0.827564 -2.508974 -0.277656 -1.432907 0.000000 0.000000
    31 0.000000 -1.292971 0.000000 -0.554988 0.000000 0.000000
    32 0.000000 -0.752466 0.000000 -0.633551 0.000000 0.000000
    33 0.444213 -2.561961 -0.277656 -1.837245 -0.049654 -0.023029
    34 0.021021 -1.208186 0.000000 -0.427606 0.000000 0.000000
    35 0.010597 -0.741867 -0.000001 -0.453786 0.000000 0.000000
    36 1.047444 -2.222822 -0.277656 -1.801437 -0.095845 -0.030507
    37 0.000000 -0.996223 -0.000001 -0.549786 0.000000 0.000000
    38 -0.000001 -0.614690 0.000000 -0.523599 0.000000 0.000000
    39 -0.308254 -0.007814 0.307166 -0.129374 -0.297499 -2.570662
    40 1.978378 0.019543 0.000000 -0.093458 -0.047313 0.082472
    41 0.982426 0.003186 0.000000 0.000000 0.000000 0.425839
  time 29
    0 9.958185 4.747736 -4.912709 0.714085 -1.788077 -1.247813
    1 0.000000 -8.563282 -0.000003 0.499413 0.326055 -0.580279
    2 -0.109710 -3.119558 0.832132 0.656026 1.697471 1.123747
    3 0.000000 1.322671 2.154066 0.000000 0.000000 0.000000
    4 0.000000 -2.226188 0.667243 0.000000 0.000000 0.000000
    5 0.000000 -0.744802 -0.000001 0.000000 -0.267036 0.000000
    6 0.000001 -2.694760 -0.628573 0.000000 0.000000 0.000000
    7 0.000002 -5.701931 -1.088361 0.000000 0.000000 0.000000
    8 -0.003480 -0.404829 0.000000 0.000000 0.000000 0.000000
    9 -0.519309 -2.501155 -0.278958 -1.448623 0.000000 -0.122173
    10 -0.010598 -1.208185 -0.000001 -0.609135 0.000000 0.000000
    11 0.000000 -0.763066 0.000000 -1.192070 0.000000 0.000000
    12 0.105981 -2.607134 -0.278958 -1.433837 0.010223 -0.144590
    13 0.000000 -1.250579 0.000000 -0.684195 0.000000 0.000000
    14 0.000000 -0.932634 0.000000 -1.488764 0.000000 0.000000
    15 0.763064 -2.490556 -0.278958 -0.319799 0.055297 0.283572
    16 -0.012322 -1.280916 -0.000001 -0.240814 0.000000 0.000000
    17 -0.001697 -0.749371 0.000000 -0.767239 0.000000 0.000000
    18 0.354567 0.016267 0.318133 0.381303 -0.494282 -0.726122
    19 1.887165 0.012878 -0.000001 -0.298194 -0.067161 -0.616371
    20 1.001873 -0.000270 0.000001 0.000000 0.000000 -0.653128
    21 -1.123359 -2.195093 -0.278957 -1.337000 -0.006064 -0.061811
    22 0.010772 -0.963791 0.000001 -0.393654 0.000000 0.000000
    23 -0.010412 -0.631915 0.000000 -0.935215 0.000000 0.000000
    24 -1.589403 -6.189404 -7.412630 -0.409352 0.228295 0.628192
    25 0.089928 -8.543166 -0.000001 0.399558 0.120642 0.317441
    26 0.000000 -0.359714 0.000000 0.000000 0.000000 0.000000
    27 -0.170480 -2.636148 -0.277655 -1.787196 0.000000 0.000000
    28 0.010599 -1.261178 0.000001 -0.253073 0.000000 0.000000
    29 -0.000001 -0.943233 -0.000001 -0.532326 0.000000 0.000000
    30 -0.827564 -2.508974 -0.277656 -1.432907 0.000000 0.000000
    31 0.000000 -1.292971 0.000000 -0.554988 0.000000 0.000000
    32 0.000000 -0.752466 0.000000 -0.633551 0.000000 0.000000
    33 0.444213 -2.561961 -0.277656 -1.837245 -0.049654 -0.023029
    34 0.021021 -1.208186 0.000000 -0.427606 0.000000 0.000000
    35 0.010597 -0.741867 -0.000001 -0.453786 0.000000 0.000000
    36 1.047444 -2.222822 -0.277656 -1.801437 -0.095845 -0.030507
    37 0.000000 -0.996223 -0.000001 -0.549786 0.000000 0.000000
    38 -0.000001 -0.614690 0.000000 -0.523599 0.000000 0.000000
    39 -0.308254 -0.007814 0.307166 -0.129374 -0.297499 -2.570662
    40 1.978378 0.019543 0.000000 -0.093458 -0.047313 0.082472
    41 0.982426 0.003186 0.000000 0.000000 0.000000 0.425839
  time 30
    0 9.958185 4.962586 -4.869739 0.682407 -1.782305 -1.215281
    1 0.000000 -8.563282 -0.000003 0.509253 0.326798 -0.593936
    2 -0.109710 -3.119558 0.832132 0.656026 1.697471 1.123747
    3 0.000000 1.322671 2.154066 0.000000 0.000000 0.000000
    4 0.000000 -2.226188 0.667243 0.000000 0.000000 0.000000
    5 0.000000 -0.744802 -0.000001 0.000000 -0.267036 0.000000
    6 0.000001 -2.694760 -0.628573 0.000000 0.000000 0.000000
    7 0.000002 -5.701931 -1.088361 0.000000 0.000000 0.000000
    8 -0.003480 -0.404829 0.000000 0.000000 0.000000 0.000000
    9 -0.519309 -2.501155 -0.278958 -1.448623 0.000000 -0.122173
    10 -0.010598 -1.208185 -0.000001 -0.609135 0.000000 0.000000
    11 0.000000 -0.763066 0.000000 -1.192070 0.000000 0.000000
    12 0.105981 -2.607134 -0.278958 -1.476549 0.000000 -0.148353
    13 0.000000 -1.250579 0.000000 -0.684195 0.000000 0.000000
    14 0.000000 -0.932634 0.000000 -1.488764 0.000000 0.000000
    15 0.763064 -2.490556 -0.278958 -0.344835 0.055297 0.283572
    16 -0.012322 -1.280916 -0.000001 -0.322907 0.000000 0.000000
    17 -0.001697 -0.749371 0.000000 -0.593412 0.000000 0.000000
    18 0.354567 0.016267 0.318133 0.376749 -0.507429 -0.712448
    19 1.887165 0.012878 -0.000001 -0.292705 -0.088530 -0.686815
    20 1.001873 -0.000270 0.000001 0.000000 0.000000 -0.708597
    21 -1.123359 -2.195093 -0.278957 -1.337000 -0.006064 -0.061811
    22 0.010772 -0.963791 0.000001 -0.485233 0.000000 0.000000
    23 -0.010412 -0.631915 0.000000 -0.977401 0.000000 0.000000
    24 -1.640186 -6.029243 -7.475132 -0.380480 0.255020 0.648676
    25 0.089928 -8.543166 -0.000001 0.386094 0.122644 0.292059
    26 0.000000 -0.359714 0.000000 0.000000 0.000000 0.000000
    27 -0.170480 -2.636148 -0.277655 -1.787196 0.000000 0.000000
    28 0.010599 -1.261178 0.000001 -0.253073 0.000000 0.000000
    29 -0.000001 -0.943233 -0.000001 -0.532326 0.000000 0.000000
    30 -0.827564 -2.508974 -0.277656 -1.432907 0.000000 0.000000
    31 0.000000 -1.292971 0.000000 -0.554988 0.000000 0.000000
    32 0.000000 -0.752466 0.000000 -0.633551 0.000000 0.000000
    33 0.444213 -2.561961 -0.277656 -1.837245 -0.049654 -0.023029
    34 0.021021 -1.208186 0.000000 -0.427606 0.000000 0.000000
    35 0.010597 -0.741867 -0.000001 -0.453786 0.000000 0.000000
    36 1.047444 -2.222822 -0.277656 -1.801437 -0.095845 -0.030507
    37 0.000000 -0.996223 -0.000001 -0.549786 0.000000 0.000000
    38 -0.000001 -0.614690 0.000000 -0.523599 0.000000 0.000000
    39 -0.308254 -0.007814 0.307166 -0.129374 -0.297499 -2.570662
    40 1.978378 0.019543 0.000000 -0.093458 -0.047313 0.082472
    41 0.982426 0.003186 0.000000 0.000000 0.000000 0.425839
end
