// Created by Crowbar 0.58

$modelname "weapons/tfa_cso/c_butterflyknife.mdl"

$Include "csonline_gmod.qci"

$bodygroup "weapon"
{
	studio "v_jknife_CSO_NEXON_Korea_JKnife_REF"
}

$CDMaterials "models\weapons\tfa_cso\butterflyknife\"

$definebone "Bone04" "" -11.328125 -1.097951 -6.226684 -21.209278 -134.519471 -153.365766 -0.000000 0.000001 0.000000 0.000002 0.000003 0.000001
$definebone "Bone_Righthand" "Bone04" 0.096944 -8.450418 -0.009365 -14.423010 9.806688 -18.433658 -0.000000 -0.000000 0.000000 0.000002 0.000002 -0.000002
$definebone "NEXON_CSO_JKnife_Root" "Bone_Righthand" -3.522396 3.257828 -4.000506 -3.954557 -136.576437 -80.107697 0.000000 0.000000 0.000000 0.000002 -0.000003 0.000001
$definebone "NEXON_CSO_JKnife_body" "NEXON_CSO_JKnife_Root" 2.670661 0.228810 -0.000696 0.000002 -0.000003 0.000001 0.000000 0.000000 0.000000 0.000002 -0.000003 0.000001
$definebone "NEXON_CSO_JKnife_Stick00" "NEXON_CSO_JKnife_body" -0.000066 -0.428590 -0.009439 0.000002 -1.434402 0.000001 0.000000 0.000000 0.000000 0.000002 -0.000003 0.000001
$definebone "NEXON_CSO_JKnife_Stick01" "NEXON_CSO_JKnife_Root" 2.670594 0.228795 -0.010135 0.000002 -0.000003 0.000001 0.000000 0.000000 0.000000 0.000002 -0.000003 0.000001
$definebone "NEXON_CSO_JKnife_Pin" "NEXON_CSO_JKnife_Stick01" -5.034415 0.218050 0.020352 -0.000038 -174.949956 -90.000024 0.000000 0.000000 0.000000 0.000003 -0.000002 0.000001

$sequence "Nexon_CSO_idle" {
	"v_jknife_anims\Nexon_CSO_idle"
	fps 16
	activity "ACT_VM_IDLE" 1
	snap
}
$sequence "Nexon_CSO_slash1" {
	"v_jknife_anims\Nexon_CSO_slash1"
	fps 30
}
$sequence "Nexon_CSO_slash2" {
	"v_jknife_anims\Nexon_CSO_slash2"
	fps 30
}
$sequence "Nexon_CSO_draw" {
	"v_jknife_anims\Nexon_CSO_draw"
	{ event 5004 1 "ButterflyKnife.Draw" }
	fps 30
	activity "ACT_VM_DRAW" 1
	snap
}
$sequence "Nexon_CSO_stab" {
	"v_jknife_anims\Nexon_CSO_stab"
	{ event 5004 1 "ButterflyKnife.Slash2" }
	fps 33
	activity "ACT_VM_PRIMARYATTACK" 1
	snap
}
$sequence "Nexon_CSO_stab_miss" {
	"v_jknife_anims\Nexon_CSO_stab_miss"
	fps 30
}
$sequence "Nexon_CSO_midslash1" {
	"v_jknife_anims\Nexon_CSO_midslash1"
	{ event 5004 1 "ButterflyKnife.Slash1" }
	fps 30
	activity "ACT_VM_HITLEFT" 1
	snap
}
$sequence "Nexon_CSO_midslash2" {
	"v_jknife_anims\Nexon_CSO_midslash2"
	{ event 5004 1 "ButterflyKnife.Slash1" }
	fps 30
	activity "ACT_VM_HITRIGHT" 1
	snap
}
$sequence "Nexon_CSO_stab2" {
	"v_jknife_anims\Nexon_CSO_stab2"
	{ event 5004 1 "ButterflyKnife.Slash2" }
	fps 33
	activity "ACT_VM_MISSLEFT" 1
	snap
}
$sequence "Nexon_CSO_stab3" {
	"v_jknife_anims\Nexon_CSO_stab3"
	{ event 5004 1 "ButterflyKnife.Slash2" }
	fps 33
	activity "ACT_VM_MISSRIGHT" 1
	snap
}
