version 1
nodes
  0 "Bip01" -1
  1 "Bip01 Pelvis" 0
  2 "Bip01 Spine" 1
  3 "Bip01 Spine1" 2
  4 "Bip01 Spine2" 3
  5 "Bip01 Spine3" 4
  6 "Bip01 Neck" 5
  7 "Bip01 Head" 6
  8 "Bip01 L Clavicle" 6
  9 "Bip01 L UpperArm" 8
  10 "Bip01 L Forearm" 9
  11 "Bip01 L Hand" 10
  12 "Bip01 L Finger0" 11
  13 "Bip01 L Finger01" 12
  14 "Bip01 L Finger1" 11
  15 "Bip01 L Finger11" 14
  16 "lflash" 11
  17 "gunslinger_p00" 16
  18 "Plane002" 16
  19 "Bip01 R Clavicle" 6
  20 "Bip01 R UpperArm" 19
  21 "Bip01 R Forearm" 20
  22 "Bip01 R Hand" 21
  23 "Bip01 R Finger0" 22
  24 "Bip01 R Finger01" 23
  25 "Bip01 R Finger1" 22
  26 "Bip01 R Finger11" 25
  27 "rflash" 22
  28 "gunslinger_p" 27
  29 "Plane003" 27
  30 "Bip01 L Thigh" 1
  31 "Bip01 L Calf" 30
  32 "Bip01 L Foot" 31
  33 "Bip01 L Toe0" 32
  34 "Bip01 R Thigh" 31
  35 "Bip01 R Calf" 34
  36 "Bip01 R Foot" 35
  37 "Bip01 R Toe0" 36
end
skeleton
  time 0
    0 -6.306825 3.027436 -8.014934 -0.015339 0.017745 -1.047574
    1 -2.276896 0.000003 -1.238186 -1.570795 -1.570796 0.000000
    2 1.797779 0.711859 0.000057 -0.046816 0.017984 0.214919
    3 4.119240 -0.003218 0.000058 -0.046811 0.017984 0.214197
    4 4.119240 -0.003218 0.000059 -0.046811 0.017984 0.214199
    5 4.119236 -0.003218 0.000058 -0.046811 0.017984 0.214174
    6 4.119690 -0.003365 -0.000021 0.005760 -0.065509 0.312238
    7 4.443600 0.000000 0.000000 0.565233 -0.492083 -0.408938
    8 0.113430 0.013489 1.728975 -2.669315 -1.367352 -0.783466
    9 5.849109 0.000002 0.000000 -0.858752 -0.062854 -0.178365
    10 9.697663 0.000002 -0.000004 0.000000 0.000000 -0.126373
    11 10.762129 0.000000 0.000004 -1.572372 0.008375 0.001413
    12 0.867325 -0.222958 -0.645012 1.880709 0.522696 0.904654
    13 2.270588 -0.000003 0.000004 0.000000 0.000000 0.307301
    14 3.240425 -0.290821 -0.028107 -0.000597 0.000527 0.723045
    15 2.011150 0.000000 -0.000001 0.000000 0.000000 1.745329
    16 14.442873 0.913799 -4.104937 0.000001 0.000000 0.000000
    17 -11.669996 0.000000 6.586209 0.000000 0.000000 -1.570796
    18 15.510132 -0.000004 0.000009 0.000000 0.000000 -1.570796
    19 -0.113422 -0.006420 -1.728976 0.003915 1.410407 -3.451694
    20 5.849107 0.000002 -0.000004 1.194499 0.667100 -1.028590
    21 9.697662 0.000004 0.000000 0.000000 0.000000 -0.271476
    22 10.762133 -0.000004 0.000000 1.537367 -0.057894 0.120064
    23 0.867320 -0.222958 0.645016 -1.880709 -0.522696 0.904654
    24 2.270591 -0.000004 -0.000004 0.000000 0.000000 0.307301
    25 3.240422 -0.290825 0.028111 0.000597 -0.000527 0.723045
    26 2.011154 -0.000004 -0.000004 0.000000 0.000000 1.745329
    27 14.688067 1.140224 3.090294 0.000001 0.000000 0.000000
    28 -11.427856 -0.000004 -5.355434 0.000000 0.000001 1.570797
    29 16.527203 0.000011 -0.000008 0.000000 0.000000 -1.570796
    30 -0.000006 0.000007 3.619081 -2.487692 -0.124115 1.161827
    31 16.573921 0.000002 0.000000 0.000000 0.000000 -1.437147
    32 15.128182 0.000001 0.000000 0.184671 -0.297020 -0.632262
    33 5.758665 4.244732 -0.000001 0.000000 0.000000 1.570796
    34 -6.659762 -16.730077 5.701241 0.786904 -1.066468 -0.478918
    35 16.573921 -0.000001 -0.000001 0.000000 0.000000 -2.564402
    36 15.128182 0.000000 0.000002 -0.284690 -0.072276 0.435712
    37 5.758665 4.244732 -0.000001 0.000000 0.000000 1.570796
end
