// Created by Crowbar 0.49.0.0

$modelname "weapons/tfa_cso/c_ak47wg.mdl"

$Include "csonline_gmod.qci"

$bodygroup "weapon"
{
	studio "v_ak47_f_ak47_template"
}

$CDMaterials "models\weapons\tfa_cso\ak47wg"

$attachment 0 "Bone 04" 2.75 -22.5 2.9
//$attachment 1 "Bone52" 0 -3 0


$sequence "idle1" {
	"v_ak47_anims\idle1"
	fps 30
	loop
	activity "ACT_VM_IDLE" 1
	snap
}
$sequence "reload" {
	"v_ak47_anims\reload"
	{ event 5004 13 "AK47.ClipOut" }
	{ event 5004 57 "AK47.ClipIn" }
	fps 37
	activity "ACT_VM_RELOAD" 1
	snap
}
$sequence "draw" {
	"v_ak47_anims\draw"
	{ event 5004 11 "AK47.Draw" }
	fps 30
	activity "ACT_VM_DRAW" 1
	snap
}
$sequence "shoot1" {
	"v_ak47_anims\shoot1"
	{ event 5001 0 "22" }
	fps 20
	activity "ACT_VM_PRIMARYATTACK" 1
	snap
}
$sequence "shoot2" {
	"v_ak47_anims\shoot2"
	{ event 5001 0 "22" }
	fps 20
	activity "ACT_VM_PRIMARYATTACK" 2
	snap
}
$sequence "shoot3" {
	"v_ak47_anims\shoot3"
	{ event 5001 0 "22" }
	fps 20
	activity "ACT_VM_PRIMARYATTACK" 3
	snap
}
