// Created by Crowbar 0.56

$modelname "weapons/tfa_cso/w_dualsword_fire_rb.mdl"

$bodygroup "studio"
{
	studio "w_dualsword_fire_p_dualsword_fire.smd"
}


$surfaceprop "default"

$contents "solid"

$illumposition 0.494 -0.006 11.081

$cdmaterials "models\weapons\tfa_cso\dual_sword_rainbow\"

$cbox 0 0 0 0 0 0

$bbox -2.15 -3.094 -16.144 2.163 4.082 38.336

$definebone "root" "" 0 0 0 0 0 0 0 0 0 0 0 0


$sequence "idle" {
	"w_dualsword_fire_anims\idle.smd"
	fadein 0.2
	fadeout 0.2
	fps 30
}

$collisionmodel "w_dualsword_fire_physics.smd"
{
	$mass 9
	$inertia 1
	$damping 0
	$rotdamping 0
	$rootbone " "

}
