// Created by Crowbar 0.49.0.0

$modelname "weapons/tfa_cso/w_ak47g.mdl"

$bodygroup "studio"
{
	studio "w_g_ak47_w_reference_gacha_ak47"
}

$collisionmodel "w_g_ak47_w_reference_gacha_ak47.smd"
{
	$mass 9
}

$CDMaterials "models\weapons\tfa_cso\ak47"

$attachment "0" "Gacha_ak47_PW" 15.70 11.20 -1.00 rotate -0 0 0

$sequence "idle" {
	"w_g_ak47_anims\idle"
	fps 30
}
