// Created by Crowbar 0.49.0.0

$modelname "weapons/tfa_cso/c_m95_xmas.mdl"

$Include "csonline_gmod.qci"

$bodygroup "studio"
{
	studio "v_m95xmas_v_ref_a"
}
$bodygroup "studio"
{
	studio "v_m95xmas_v_ref_b"
}

$CDMaterials "models\weapons\tfa_cso\m95_xmas"

$attachment 0 "m95_root" -22.799999 -1.200001 0
//$attachment 1 "m95_root" 5 -1.3 0.54

$definebone "Bone_Root" "" 0.000000 0.000000 0.000000 0.000000 0.000000 0.000000 0.000000 0.000000 0.000000 -0.000000 0.000000 0.000000
$definebone "Bone01" "Bone_Root" 0.497702 0.002174 -0.149878 -0.012892 -89.771431 179.847612 0.000000 0.000000 0.000000 0.000000 0.000000 -0.000000
$definebone "Bone_Lefthand" "Bone01" -0.071918 -8.498730 -0.104137 16.477755 0.853593 -1.435030 0.000000 0.000001 0.000000 0.000003 0.000000 -0.000000
$definebone "m95_root" "Bone_Lefthand" 6.964408 8.716433 7.065908 16.772134 178.913474 88.163536 0.000000 0.000000 0.000000 -0.000000 0.000003 -0.000000
$definebone "trigger" "m95_root" -0.663507 0.613433 -0.000001 0.000058 90.303701 -0.000000 0.000000 0.000000 0.000000 0.000000 -0.000003 -0.000000
$definebone "magazine" "m95_root" 6.222709 -0.236896 -0.000001 0.000000 90.303701 0.000057 0.000000 0.000000 -0.000000 0.000000 -0.000003 -0.000000
$definebone "load" "m95_root" 3.353898 -1.140598 0.000000 -0.000000 0.303671 0.000057 0.000000 0.000000 -0.000000 -0.000000 0.000003 -0.000000
$definebone "m95_sub1" "m95_root" 22.697081 -1.392941 -0.000002 0.000000 100.824474 -0.000000 0.000000 0.000000 -0.000000 0.000000 -0.000004 -0.000000
$definebone "m95_sub2" "m95_root" 20.838169 -1.147627 -0.000002 0.000000 88.381713 -0.000000 0.000000 0.000000 0.000000 0.000000 -0.000003 -0.000000
$definebone "m95_sub3" "m95_root" 18.744837 -0.964796 -0.000002 0.000000 66.527334 -0.000000 0.000000 0.000000 -0.000000 0.000000 0.000003 -0.000000
$definebone "m95_sub4" "m95_root" 17.122187 -1.004016 -0.000002 0.000000 66.567789 -0.000000 0.000000 0.000000 0.000000 0.000000 -0.000000 -0.000000
$definebone "m95_sub5" "m95_root" 15.559480 -0.797958 -0.000001 0.000000 68.037086 0.000057 0.000000 0.000000 0.000000 0.000000 0.000002 -0.000000

$sequence "idle1" {
	"v_m95xmas_anims\idle1"
	fps 15
	loop
	activity "ACT_VM_IDLE" 1
	snap
}
$sequence "shoot1" {
	"v_m95xmas_anims\shoot1"
	{ event 5001 0 "23" }
	{ event 5004 26 "M95.BoltPull" }
	fps 30
	activity "ACT_VM_PRIMARYATTACK" 1
	snap
}
$sequence "shoot2" {
	"v_m95xmas_anims\shoot2"
	{ event 5001 0 "23" }
	{ event 5004 26 "M95.BoltPull" }
	fps 30
	activity "ACT_VM_PRIMARYATTACK" 2
	snap
}
$sequence "reload" {
	"v_m95xmas_anims\reload"
	{ event 5004 28 "M95.ClipOut" }
	{ event 5004 64 "M95.ClipIn" }
	fps 30
	activity "ACT_VM_RELOAD" 1
	snap
}
$sequence "draw" {
	"v_m95xmas_anims\draw"
	fps 30
	activity "ACT_VM_DRAW" 1
	snap
}
