// Created by Crowbar 0.58

$modelname "weapons/tfa_cso/w_tknifeex2.mdl"

$bodygroup "studio"
{
	studio "tknifeB"
}

$collisionmodel "tknifeB.smd"
{
	$mass 1
}

$CDMaterials "models\weapons\tfa_cso\tknifeex2"

$Sequence "idle" {
	"tknifeb_anims\idle.smd"
	fps 30
}