version 1
nodes
  0 "root" -1
  1 "Bone01" 0
  2 "Bone_Lefthand" 1
  3 "Bone_QBZ95B" 2
  4 "Bone_Bullet_Clip" 3
  5 "Bone_Trigger" 3
  6 "Bone_Bullet_Case" 3
  7 "Bone_Magazine" 3
  8 "Bone13" 2
  9 "Bone14" 8
  10 "Bone15" 9
  11 "Bone17" 2
  12 "Bone18" 11
  13 "Bone19" 12
  14 "Bone21" 2
  15 "Bone22" 14
  16 "Bone23" 15
  17 "Bone09" 2
  18 "Bone10" 17
  19 "Bone11" 18
  20 "Bone05" 2
  21 "Bone06" 20
  22 "Bone07" 21
  23 "Bone_Se_Hand-L" 2
  24 "Bone04" 0
  25 "Bone_Righthand" 24
  26 "Bone39" 25
  27 "Bone40" 26
  28 "Bone41" 27
  29 "Bone35" 25
  30 "Bone36" 29
  31 "Bone37" 30
  32 "Bone31" 25
  33 "Bone32" 32
  34 "Bone33" 33
  35 "Bone43" 25
  36 "Bone44" 35
  37 "Bone45" 36
  38 "Bone27" 25
  39 "Bone28" 38
  40 "Bone29" 39
  41 "Bone_Se_Hand-R" 25
end
skeleton
  time 0
    0 1.169504 7.988522 -11.954264 0.000000 0.000000 0.000000
    1 12.060553 -11.218767 -0.031940 0.750877 -2.386447 -1.389525
    2 -0.071919 -8.498731 -0.104136 0.178716 0.515882 -0.471973
    3 1.470883 -2.792118 0.726656 -0.351378 -0.026468 -3.279846
    4 -2.562689 2.867152 -0.000002 0.000001 0.000000 -3.141592
    5 -0.815617 2.114319 -0.000001 0.000001 0.000000 -0.374586
    6 -1.521637 -4.592964 0.466992 0.000001 0.000000 -3.141591
    7 0.704241 -4.909328 0.000002 0.000001 0.000000 0.000000
    8 -0.488517 -2.755600 -0.228261 -0.721249 -0.081949 -0.452612
    9 0.039887 -1.479789 0.029853 -1.744424 0.000000 0.000000
    10 0.028785 -1.075730 -0.023111 -1.070625 0.000000 0.000001
    11 0.125024 -3.051139 -0.574344 -0.799992 -0.047060 -0.393136
    12 -0.049759 -1.680545 0.100480 -1.558612 0.000000 -0.000002
    13 -0.034141 -1.148311 0.084779 -1.112872 0.000000 0.000000
    14 0.957766 -2.746777 -0.090301 0.261097 -0.158969 -0.144553
    15 -0.033419 -1.397127 -0.011255 -1.200859 0.135953 -0.247387
    16 -0.022360 -0.957435 0.018783 -1.253372 -0.052648 0.158832
    17 -1.200212 -2.612687 -0.084483 -0.819559 0.107001 -0.434663
    18 -0.024966 -1.123933 0.017594 -1.746586 0.000000 0.000001
    19 -0.020057 -0.890966 0.010091 -0.424577 0.000000 0.000000
    20 0.583510 -1.197274 0.185377 0.041775 -0.932216 -0.526993
    21 1.535926 0.010245 0.005008 -0.115188 0.228163 -1.325298
    22 1.100770 0.004527 -0.010676 -0.031080 0.118321 -0.649584
    23 0.018586 -0.093236 -0.167773 3.423337 6.142846 -1.288278
    24 -1.626750 -18.431202 0.738590 -1.395424 -5.205778 -0.556276
    25 0.096944 -8.450418 -0.009364 0.061055 -0.883977 0.294306
    26 0.447952 -2.798983 -0.200442 -1.040226 -0.028328 0.435174
    27 -0.032910 -1.480207 0.004936 -1.052168 0.000000 0.000002
    28 -0.027022 -1.076920 -0.020212 -0.483247 0.000000 0.000000
    29 -0.249534 -2.846962 -0.174216 -1.105365 -0.017670 0.423979
    30 0.043235 -1.683940 0.096014 -0.977014 0.002823 -0.000167
    31 0.031730 -1.160831 0.058836 -0.525499 0.000642 0.008372
    32 -0.963866 -2.785142 -0.085346 -0.428823 0.161605 0.055456
    33 0.028479 -1.403069 0.006271 -1.244462 0.000000 0.000000
    34 0.021413 -0.957782 0.020047 -0.446120 0.000000 0.000000
    35 1.164475 -2.543938 -0.170328 -1.061121 -0.017417 0.527819
    36 0.024033 -1.129041 0.017806 -1.014840 0.000000 0.000001
    37 0.014896 -0.883990 -0.019845 -0.546132 0.000000 0.000000
    38 -0.500830 -1.428542 0.403295 0.207873 -0.490157 -2.998458
    39 1.522835 0.058681 0.016850 0.087666 -0.054420 0.786199
    40 1.117948 0.048424 -0.005764 -0.003862 -0.024910 0.210085
    41 -0.115961 -0.170293 -0.005135 0.576230 0.066071 1.373638
  time 1
    0 1.169504 7.023649 -11.954264 0.000000 0.000000 0.000000
    1 12.060553 -11.218767 -0.031940 0.750877 -2.386447 -1.389525
    2 -0.071919 -8.498731 -0.104136 0.183430 0.516122 -0.473510
    3 1.470883 -2.792118 0.726656 -0.351378 -0.026468 -3.279846
    4 -2.562689 1.296792 -0.000002 0.000001 0.000000 -3.141592
    5 -0.815617 2.114319 -0.000001 0.000001 0.000000 -0.374586
    6 -1.521637 -4.592964 0.466992 3.141593 -0.892701 0.000001
    7 0.704241 -4.909328 0.000002 0.000001 0.000000 0.000000
    8 -0.488517 -2.755600 -0.228261 -0.721249 -0.081949 -0.452612
    9 0.039887 -1.479789 0.029853 -1.744424 0.000000 0.000000
    10 0.028785 -1.075730 -0.023111 -1.070625 0.000000 0.000001
    11 0.125024 -3.051139 -0.574344 -0.799992 -0.047048 -0.393136
    12 -0.049759 -1.680545 0.100480 -1.558612 0.000000 -0.000002
    13 -0.034141 -1.148311 0.084779 -1.112839 0.000000 0.000000
    14 0.957766 -2.746777 -0.090301 0.261097 -0.158969 -0.144553
    15 -0.033419 -1.397127 -0.011255 -1.200859 0.135953 -0.247387
    16 -0.022360 -0.957435 0.018783 -1.253372 -0.052648 0.158832
    17 -1.200212 -2.612687 -0.084483 -0.819559 0.107001 -0.434663
    18 -0.024966 -1.123933 0.017594 -1.746586 0.000000 0.000001
    19 -0.020057 -0.890966 0.010091 -0.424577 0.000000 0.000000
    20 0.583510 -1.197274 0.185377 0.041775 -0.932216 -0.526993
    21 1.535926 0.010245 0.005008 -0.115188 0.228163 -1.325298
    22 1.100770 0.004527 -0.010676 -0.031080 0.118321 -0.649584
    23 0.018586 -0.093236 -0.167773 3.423337 6.142846 -1.288278
    24 -1.548622 -18.431202 0.738590 -1.395424 -5.205778 -0.556276
    25 0.096944 -8.450418 -0.009364 0.061055 -0.883977 0.294306
    26 0.447952 -2.798983 -0.200442 -1.040226 -0.028328 0.435174
    27 -0.032910 -1.480207 0.004936 -1.052168 0.000000 0.000002
    28 -0.027022 -1.076920 -0.020212 -0.483247 0.000000 0.000000
    29 -0.249534 -2.846962 -0.174216 -1.105365 -0.017670 0.423979
    30 0.043235 -1.683940 0.096014 -0.977014 0.002823 -0.000167
    31 0.031730 -1.160831 0.058836 -0.525499 0.000642 0.008372
    32 -0.963866 -2.785142 -0.085346 -0.428823 0.161605 0.055456
    33 0.028479 -1.403069 0.006271 -1.244462 0.000000 0.000000
    34 0.021413 -0.957782 0.020047 -0.446120 0.000000 0.000000
    35 1.164475 -2.543938 -0.170328 -1.061121 -0.017417 0.527819
    36 0.024033 -1.129041 0.017806 -1.014840 0.000000 0.000001
    37 0.014896 -0.883990 -0.019845 -0.546132 0.000000 0.000000
    38 -0.500830 -1.428542 0.403295 0.206171 -0.490942 -2.994737
    39 1.522835 0.058681 0.016850 0.086334 -0.054643 0.791255
    40 1.117948 0.048424 -0.005764 -0.004066 -0.024779 0.219450
    41 -0.115961 -0.170293 -0.005135 0.576230 0.066071 1.373638
  time 2
    0 1.165598 8.312751 -11.954264 0.000000 0.000000 0.000000
    1 12.060553 -11.218767 -0.031940 0.750877 -2.386447 -1.389525
    2 -0.071919 -8.498731 -0.104136 0.194538 0.516362 -0.475027
    3 1.470883 -2.792118 0.726656 -0.351378 -0.026468 -3.279846
    4 -2.562689 -0.277475 -0.000002 0.000001 0.000000 -3.141592
    5 -0.815617 2.114319 -0.000001 0.000001 0.000000 -0.374586
    6 -1.521637 -4.592964 0.466992 3.141593 -1.484573 0.000001
    7 0.704241 -4.909328 0.000002 0.000001 0.000000 0.000000
    8 -0.488517 -2.755600 -0.228261 -0.721249 -0.081949 -0.452612
    9 0.039887 -1.479789 0.029853 -1.744424 0.000000 0.000000
    10 0.028785 -1.075730 -0.023111 -1.070625 0.000000 0.000001
    11 0.125024 -3.051139 -0.574344 -0.799992 -0.047060 -0.393136
    12 -0.049759 -1.680545 0.100480 -1.558612 0.000000 -0.000002
    13 -0.034141 -1.148311 0.084779 -1.112872 0.000000 0.000000
    14 0.957766 -2.746777 -0.090301 0.261097 -0.158969 -0.144553
    15 -0.033419 -1.397127 -0.011255 -1.200859 0.135953 -0.247387
    16 -0.022360 -0.957435 0.018783 -1.253372 -0.052648 0.158832
    17 -1.200212 -2.612687 -0.084483 -0.819559 0.107001 -0.434663
    18 -0.024966 -1.123933 0.017594 -1.746586 0.000000 0.000001
    19 -0.020057 -0.890966 0.010091 -0.424577 0.000000 0.000000
    20 0.583510 -1.197274 0.185377 0.041775 -0.932216 -0.526993
    21 1.535926 0.010245 0.005008 -0.115188 0.228163 -1.325298
    22 1.100770 0.004527 -0.010676 -0.031080 0.118321 -0.649584
    23 0.018586 -0.093236 -0.167773 3.423337 6.142846 -1.288278
    24 -1.470495 -18.431202 0.738590 -1.395424 -5.205778 -0.556276
    25 0.096944 -8.450418 -0.009364 0.061055 -0.883977 0.294306
    26 0.447952 -2.798983 -0.200442 -1.040226 -0.028328 0.435174
    27 -0.032910 -1.480207 0.004936 -1.052168 0.000000 0.000002
    28 -0.027022 -1.076920 -0.020212 -0.483247 0.000000 0.000000
    29 -0.249534 -2.846962 -0.174216 -1.105365 -0.017670 0.423979
    30 0.043235 -1.683940 0.096014 -0.977014 0.002823 -0.000167
    31 0.031730 -1.160831 0.058836 -0.525499 0.000642 0.008372
    32 -0.963866 -2.785142 -0.085346 -0.428823 0.161605 0.055456
    33 0.028479 -1.403069 0.006271 -1.244462 0.000000 0.000000
    34 0.021413 -0.957782 0.020047 -0.446120 0.000000 0.000000
    35 1.164475 -2.543938 -0.170328 -1.061121 -0.017417 0.527819
    36 0.024033 -1.129041 0.017806 -1.014840 0.000000 0.000001
    37 0.014896 -0.883990 -0.019845 -0.546132 0.000000 0.000000
    38 -0.500830 -1.428542 0.403295 0.202090 -0.492805 -2.985889
    39 1.522835 0.058681 0.016850 0.083032 -0.055122 0.803894
    40 1.117948 0.048424 -0.005764 -0.004545 -0.024491 0.241727
    41 -0.115961 -0.170293 -0.005135 0.576230 0.066071 1.373638
  time 3
    0 1.161691 9.605759 -11.954264 0.000000 0.000000 0.000000
    1 12.060553 -11.218767 -0.031940 0.750877 -2.386447 -1.389525
    2 -0.071919 -8.498731 -0.104136 0.212688 0.509726 -0.439876
    3 1.470883 -2.792118 0.726656 -0.351378 -0.026468 -3.279846
    4 -2.562689 0.570207 -0.000002 0.000001 0.000000 -3.141592
    5 -0.815617 2.114319 -0.000001 0.000001 0.000000 -0.374586
    6 -1.521637 -4.592964 0.466992 0.000001 -0.557848 -3.141591
    7 0.704241 -4.909328 0.000002 0.000001 0.000000 0.000000
    8 -0.488517 -2.755600 -0.228261 -0.721249 -0.081949 -0.452612
    9 0.039887 -1.479789 0.029853 -1.744424 0.000000 0.000000
    10 0.028785 -1.075730 -0.023111 -1.070625 0.000000 0.000001
    11 0.125024 -3.051139 -0.574344 -0.799992 -0.047048 -0.393136
    12 -0.049759 -1.680545 0.100480 -1.558612 0.000000 -0.000002
    13 -0.034141 -1.148311 0.084779 -1.112872 0.000000 0.000000
    14 0.957766 -2.746777 -0.090301 0.261097 -0.158969 -0.144553
    15 -0.033419 -1.397127 -0.011255 -1.200859 0.135953 -0.247387
    16 -0.022360 -0.957435 0.018783 -1.253372 -0.052648 0.158832
    17 -1.200212 -2.612687 -0.084483 -0.819559 0.107001 -0.434663
    18 -0.024966 -1.123933 0.017594 -1.746586 0.000000 0.000001
    19 -0.020057 -0.890966 0.010091 -0.424577 0.000000 0.000000
    20 0.583510 -1.197274 0.185377 0.041775 -0.932216 -0.526993
    21 1.535926 0.010245 0.005008 -0.115188 0.228163 -1.325298
    22 1.100770 0.004527 -0.010676 -0.031080 0.118321 -0.649584
    23 0.018586 -0.093236 -0.167773 3.423337 6.142846 -1.288278
    24 -1.462682 -18.501516 0.965159 -1.396002 -5.206063 -0.556750
    25 0.096944 -8.450418 -0.009364 0.041378 -0.841615 0.270280
    26 0.447952 -2.798983 -0.200442 -1.040226 -0.028328 0.435174
    27 -0.032910 -1.480207 0.004936 -1.052168 0.000000 0.000002
    28 -0.027022 -1.076920 -0.020212 -0.483247 0.000000 0.000000
    29 -0.249534 -2.846962 -0.174216 -1.105365 -0.017670 0.423979
    30 0.043235 -1.683940 0.096014 -0.977014 0.002823 -0.000167
    31 0.031730 -1.160831 0.058836 -0.525499 0.000642 0.008372
    32 -0.963866 -2.785142 -0.085346 -0.428823 0.161605 0.055456
    33 0.028479 -1.403069 0.006271 -1.244462 0.000000 0.000000
    34 0.021413 -0.957782 0.020047 -0.446120 0.000000 0.000000
    35 1.164475 -2.543938 -0.170328 -1.061121 -0.017417 0.527819
    36 0.024033 -1.129041 0.017806 -1.014840 0.000000 0.000001
    37 0.014896 -0.883990 -0.019845 -0.546132 0.000000 0.000000
    38 -0.500830 -1.428542 0.403295 0.197229 -0.495053 -2.975333
    39 1.522835 0.058681 0.016850 0.078716 -0.055760 0.820358
    40 1.117948 0.048424 -0.005764 -0.005121 -0.024143 0.268320
    41 -0.115961 -0.170293 -0.005135 0.576230 0.066071 1.373638
  time 4
    0 1.161691 9.527632 -11.954264 0.000000 0.000000 0.000000
    1 12.060553 -11.218767 -0.031940 0.750877 -2.386447 -1.389525
    2 -0.071919 -8.498731 -0.104136 0.233012 0.497414 -0.374583
    3 1.470883 -2.792118 0.726656 -0.351378 -0.026468 -3.279846
    4 -2.562689 2.144474 -0.000002 0.000001 0.000000 -3.141592
    5 -0.815617 2.114319 -0.000001 0.000001 0.000000 -0.374586
    6 -1.521637 -4.592964 0.466992 0.000001 0.033934 -3.141591
    7 0.704241 -4.909328 0.000002 0.000001 0.000000 0.000000
    8 -0.488517 -2.755600 -0.228261 -0.721249 -0.081949 -0.452612
    9 0.039887 -1.479789 0.029853 -1.744424 0.000000 0.000000
    10 0.028785 -1.075730 -0.023111 -1.070625 0.000000 0.000001
    11 0.125024 -3.051139 -0.574344 -0.799992 -0.047048 -0.393136
    12 -0.049759 -1.680545 0.100480 -1.558612 0.000000 -0.000002
    13 -0.034141 -1.148311 0.084779 -1.112872 0.000000 0.000000
    14 0.957766 -2.746777 -0.090301 0.261097 -0.158969 -0.144553
    15 -0.033419 -1.397127 -0.011255 -1.200859 0.135953 -0.247387
    16 -0.022360 -0.957435 0.018783 -1.253372 -0.052648 0.158832
    17 -1.200212 -2.612687 -0.084483 -0.819559 0.107001 -0.434663
    18 -0.024966 -1.123933 0.017594 -1.746586 0.000000 0.000001
    19 -0.020057 -0.890966 0.010091 -0.424577 0.000000 0.000000
    20 0.583510 -1.197274 0.185377 0.041775 -0.932216 -0.526993
    21 1.535926 0.010245 0.005008 -0.115188 0.228163 -1.325298
    22 1.100770 0.004527 -0.010676 -0.031080 0.118321 -0.649584
    23 0.018586 -0.093236 -0.167773 3.423337 6.142846 -1.288278
    24 -1.458776 -18.634333 1.383141 -1.397606 -5.206633 -0.558078
    25 0.096944 -8.450418 -0.009364 0.004841 -0.762965 0.225671
    26 0.447952 -2.798983 -0.200442 -1.040226 -0.028328 0.435174
    27 -0.032910 -1.480207 0.004936 -1.052168 0.000000 0.000002
    28 -0.027022 -1.076920 -0.020212 -0.483247 0.000000 0.000000
    29 -0.249534 -2.846962 -0.174216 -1.105365 -0.017670 0.423979
    30 0.043235 -1.683940 0.096014 -0.977014 0.002823 -0.000167
    31 0.031730 -1.160831 0.058836 -0.525499 0.000642 0.008372
    32 -0.963866 -2.785142 -0.085346 -0.428823 0.161605 0.055456
    33 0.028479 -1.403069 0.006271 -1.244462 0.000000 0.000000
    34 0.021413 -0.957782 0.020047 -0.446120 0.000000 0.000000
    35 1.164475 -2.543938 -0.170328 -1.061121 -0.017417 0.527819
    36 0.024033 -1.129041 0.017806 -1.014840 0.000000 0.000001
    37 0.014896 -0.883990 -0.019845 -0.546132 0.000000 0.000000
    38 -0.500830 -1.428542 0.403295 0.193148 -0.496931 -2.966486
    39 1.522835 0.058681 0.016850 0.074371 -0.056431 0.836855
    40 1.117948 0.048424 -0.005764 -0.005600 -0.023844 0.290598
    41 -0.115961 -0.170293 -0.005135 0.576230 0.066071 1.373638
  time 5
    0 1.161691 9.316688 -11.954264 0.000000 0.000000 0.000000
    1 12.060553 -11.218767 -0.031940 0.750877 -2.386447 -1.389525
    2 -0.071919 -8.498731 -0.104136 0.242638 0.490778 -0.339431
    3 1.470883 -2.792118 0.726656 -0.351378 -0.026468 -3.279846
    4 -2.562689 2.984343 -0.000002 0.000001 0.000000 -3.141592
    5 -0.815617 2.114319 -0.000001 0.000001 0.000000 -0.374586
    6 -1.521637 -4.592964 0.466992 0.000001 -0.038691 -3.141591
    7 0.704241 -4.909328 0.000002 0.000001 0.000000 0.000000
    8 -0.488517 -2.755600 -0.228261 -0.721249 -0.081949 -0.452612
    9 0.039887 -1.479789 0.029853 -1.744424 0.000000 0.000000
    10 0.028785 -1.075730 -0.023111 -1.070625 0.000000 0.000001
    11 0.125024 -3.051139 -0.574344 -0.799992 -0.047048 -0.393136
    12 -0.049759 -1.680545 0.100480 -1.558612 0.000000 -0.000002
    13 -0.034141 -1.148311 0.084779 -1.112872 0.000000 0.000000
    14 0.957766 -2.746777 -0.090301 0.261097 -0.158969 -0.144553
    15 -0.033419 -1.397127 -0.011255 -1.200859 0.135953 -0.247387
    16 -0.022360 -0.957435 0.018783 -1.253372 -0.052648 0.158832
    17 -1.200212 -2.612687 -0.084483 -0.819559 0.107001 -0.434663
    18 -0.024966 -1.123933 0.017594 -1.746586 0.000000 0.000001
    19 -0.020057 -0.890966 0.010091 -0.424577 0.000000 0.000000
    20 0.583510 -1.197274 0.185377 0.041775 -0.932216 -0.526993
    21 1.535926 0.010245 0.005008 -0.115188 0.228163 -1.325298
    22 1.100770 0.004527 -0.010676 -0.031080 0.118321 -0.649584
    23 0.018586 -0.093236 -0.167773 3.423337 6.142846 -1.288278
    24 -1.458776 -18.708554 1.609710 -1.399916 -5.207392 -0.560070
    25 0.096944 -8.450418 -0.009364 -0.014836 -0.720603 0.201646
    26 0.447952 -2.798983 -0.200442 -1.040226 -0.028328 0.435174
    27 -0.032910 -1.480207 0.004936 -1.052168 0.000000 0.000002
    28 -0.027022 -1.076920 -0.020212 -0.483247 0.000000 0.000000
    29 -0.249534 -2.846962 -0.174216 -1.105365 -0.017670 0.423979
    30 0.043235 -1.683940 0.096014 -0.977014 0.002823 -0.000167
    31 0.031730 -1.160831 0.058836 -0.525499 0.000642 0.008372
    32 -0.963866 -2.785142 -0.085346 -0.428823 0.161605 0.055456
    33 0.028479 -1.403069 0.006271 -1.244462 0.000000 0.000000
    34 0.021413 -0.957782 0.020047 -0.446120 0.000000 0.000000
    35 1.164475 -2.543938 -0.170328 -1.061121 -0.017417 0.527819
    36 0.024033 -1.129041 0.017806 -1.014840 0.000000 0.000001
    37 0.014896 -0.883990 -0.019845 -0.546132 0.000000 0.000000
    38 -0.500830 -1.428542 0.403295 0.191446 -0.497716 -2.962780
    39 1.522835 0.058681 0.016850 0.071041 -0.056910 0.849594
    40 1.117948 0.048424 -0.005764 -0.005792 -0.023724 0.299931
    41 -0.115961 -0.170293 -0.005135 0.576230 0.066071 1.373638
  time 6
    0 1.161691 9.015897 -11.954264 0.000000 0.000000 0.000000
    1 12.060553 -11.218767 -0.031940 0.750877 -2.386447 -1.389525
    2 -0.071919 -8.498731 -0.104136 0.237938 0.492026 -0.349033
    3 1.470883 -2.792118 0.726656 -0.351378 -0.026468 -3.279846
    4 -2.562689 2.925748 -0.000002 0.000001 0.000000 -3.141592
    5 -0.815617 2.114319 -0.000001 0.000001 0.000000 -0.374586
    6 -1.521637 -4.592964 0.466992 0.000001 -0.111406 -3.141591
    7 0.704241 -4.909328 0.000002 0.000001 0.000000 0.000000
    8 -0.488517 -2.755600 -0.228261 -0.721249 -0.081949 -0.452612
    9 0.039887 -1.479789 0.029853 -1.744424 0.000000 0.000000
    10 0.028785 -1.075730 -0.023111 -1.070625 0.000000 0.000001
    11 0.125024 -3.051139 -0.574344 -0.799992 -0.047048 -0.393136
    12 -0.049759 -1.680545 0.100480 -1.558612 0.000000 -0.000002
    13 -0.034141 -1.148311 0.084779 -1.112872 0.000000 0.000000
    14 0.957766 -2.746777 -0.090301 0.261097 -0.158969 -0.144553
    15 -0.033419 -1.397127 -0.011255 -1.200859 0.135953 -0.247387
    16 -0.022360 -0.957435 0.018783 -1.253372 -0.052648 0.158832
    17 -1.200212 -2.612687 -0.084483 -0.819559 0.107001 -0.434663
    18 -0.024966 -1.123933 0.017594 -1.746586 0.000000 0.000001
    19 -0.020057 -0.890966 0.010091 -0.424577 0.000000 0.000000
    20 0.583510 -1.197274 0.185377 0.041775 -0.932216 -0.526993
    21 1.535926 0.010245 0.005008 -0.115188 0.228163 -1.325298
    22 1.100770 0.004527 -0.010676 -0.031080 0.118321 -0.649584
    23 0.018586 -0.093236 -0.167773 3.423337 6.142846 -1.288278
    24 -1.466589 -18.696835 1.551115 -1.402675 -5.208436 -0.562535
    25 0.096944 -8.450418 -0.009364 -0.009073 -0.733454 0.208721
    26 0.447952 -2.798983 -0.200442 -1.040226 -0.028328 0.435174
    27 -0.032910 -1.480207 0.004936 -1.052168 0.000000 0.000002
    28 -0.027022 -1.076920 -0.020212 -0.483247 0.000000 0.000000
    29 -0.249534 -2.846962 -0.174216 -1.105365 -0.017670 0.423979
    30 0.043235 -1.683940 0.096014 -0.977014 0.002823 -0.000167
    31 0.031730 -1.160831 0.058836 -0.525499 0.000642 0.008372
    32 -0.963866 -2.785142 -0.085346 -0.428823 0.161605 0.055456
    33 0.028479 -1.403069 0.006271 -1.244462 0.000000 0.000000
    34 0.021413 -0.957782 0.020047 -0.446120 0.000000 0.000000
    35 1.164475 -2.543938 -0.170328 -1.061121 -0.017417 0.527819
    36 0.024033 -1.129041 0.017806 -1.014840 0.000000 0.000001
    37 0.014896 -0.883990 -0.019845 -0.546132 0.000000 0.000000
    38 -0.500830 -1.428542 0.403295 0.192348 -0.497285 -2.964745
    39 1.522835 0.058681 0.016850 0.068434 -0.057293 0.859539
    40 1.117948 0.048424 -0.005764 -0.005684 -0.023784 0.294977
    41 -0.115961 -0.170293 -0.005135 0.576230 0.066071 1.373638
  time 7
    0 1.165598 8.656511 -11.954264 0.000000 0.000000 0.000000
    1 12.060553 -11.218767 -0.031940 0.750877 -2.386447 -1.389525
    2 -0.071919 -8.498731 -0.104136 0.225814 0.495350 -0.373804
    3 1.470883 -2.792118 0.726656 -0.351378 -0.026468 -3.279846
    4 -2.562689 2.867152 -0.000002 0.000001 0.000000 -3.141592
    5 -0.815617 2.114319 -0.000001 0.000001 0.000000 -0.374586
    6 -1.521637 -4.592964 0.466992 0.000001 0.000000 -3.141591
    7 0.704241 -4.909328 0.000002 0.000001 0.000000 0.000000
    8 -0.488517 -2.755600 -0.228261 -0.721249 -0.081949 -0.452612
    9 0.039887 -1.479789 0.029853 -1.744424 0.000000 0.000000
    10 0.028785 -1.075730 -0.023111 -1.070625 0.000000 0.000001
    11 0.125024 -3.051139 -0.574344 -0.799992 -0.047048 -0.393136
    12 -0.049759 -1.680545 0.100480 -1.558612 0.000000 -0.000002
    13 -0.034141 -1.148311 0.084779 -1.112839 0.000000 0.000000
    14 0.957766 -2.746777 -0.090301 0.261097 -0.158969 -0.144553
    15 -0.033419 -1.397127 -0.011255 -1.200859 0.135953 -0.247387
    16 -0.022360 -0.957435 0.018783 -1.253372 -0.052648 0.158832
    17 -1.200212 -2.612687 -0.084483 -0.819559 0.107001 -0.434663
    18 -0.024966 -1.123933 0.017594 -1.746586 0.000000 0.000001
    19 -0.020057 -0.890966 0.010091 -0.424577 0.000000 0.000000
    20 0.583510 -1.197274 0.185377 0.041775 -0.932216 -0.526993
    21 1.535926 0.010245 0.005008 -0.115188 0.228163 -1.325298
    22 1.100770 0.004527 -0.010676 -0.031080 0.118321 -0.649584
    23 0.018586 -0.093236 -0.167773 3.423337 6.142846 -1.288278
    24 -1.490027 -18.665584 1.406579 -1.405755 -5.209575 -0.565191
    25 0.096944 -8.450418 -0.009364 0.005818 -0.766552 0.226997
    26 0.447952 -2.798983 -0.200442 -1.040226 -0.028328 0.435174
    27 -0.032910 -1.480207 0.004936 -1.052168 0.000000 0.000002
    28 -0.027022 -1.076920 -0.020212 -0.483247 0.000000 0.000000
    29 -0.249534 -2.846962 -0.174216 -1.105365 -0.017670 0.423979
    30 0.043235 -1.683940 0.096014 -0.977014 0.002823 -0.000167
    31 0.031730 -1.160831 0.058836 -0.525499 0.000642 0.008372
    32 -0.963866 -2.785142 -0.085346 -0.428823 0.161605 0.055456
    33 0.028479 -1.403069 0.006271 -1.244462 0.000000 0.000000
    34 0.021413 -0.957782 0.020047 -0.446120 0.000000 0.000000
    35 1.164475 -2.543938 -0.170328 -1.061121 -0.017417 0.527819
    36 0.024033 -1.129041 0.017806 -1.014840 0.000000 0.000001
    37 0.014896 -0.883990 -0.019845 -0.546132 0.000000 0.000000
    38 -0.500830 -1.428542 0.403295 0.194686 -0.496207 -2.969839
    39 1.522835 0.058681 0.016850 0.065769 -0.057676 0.869716
    40 1.117948 0.048424 -0.005764 -0.005408 -0.023952 0.282128
    41 -0.115961 -0.170293 -0.005135 0.576230 0.066071 1.373638
  time 8
    0 1.165598 8.281500 -11.954264 0.000000 0.000000 0.000000
    1 12.060553 -11.218767 -0.031940 0.750877 -2.386447 -1.389525
    2 -0.071919 -8.498731 -0.104136 0.209216 0.500162 -0.407738
    3 1.470883 -2.792118 0.726656 -0.351378 -0.026468 -3.279846
    4 -2.562689 2.867152 -0.000002 0.000001 0.000000 -3.141592
    5 -0.815617 2.114319 -0.000001 0.000001 0.000000 -0.374586
    6 -1.521637 -4.592964 0.466992 0.000001 0.000000 -3.141591
    7 0.704241 -4.909328 0.000002 0.000001 0.000000 0.000000
    8 -0.488517 -2.755600 -0.228261 -0.721249 -0.081949 -0.452612
    9 0.039887 -1.479789 0.029853 -1.744424 0.000000 0.000000
    10 0.028785 -1.075730 -0.023111 -1.070625 0.000000 0.000001
    11 0.125024 -3.051139 -0.574344 -0.799992 -0.047048 -0.393136
    12 -0.049759 -1.680545 0.100480 -1.558612 0.000000 -0.000002
    13 -0.034141 -1.148311 0.084779 -1.112839 0.000000 0.000000
    14 0.957766 -2.746777 -0.090301 0.261097 -0.158969 -0.144553
    15 -0.033419 -1.397127 -0.011255 -1.200859 0.135953 -0.247387
    16 -0.022360 -0.957435 0.018783 -1.253372 -0.052648 0.158832
    17 -1.200212 -2.612687 -0.084483 -0.819559 0.107001 -0.434663
    18 -0.024966 -1.123933 0.017594 -1.746586 0.000000 0.000001
    19 -0.020057 -0.890966 0.010091 -0.424577 0.000000 0.000000
    20 0.583510 -1.197274 0.185377 0.041775 -0.932216 -0.526993
    21 1.535926 0.010245 0.005008 -0.115188 0.228163 -1.325298
    22 1.100770 0.004527 -0.010676 -0.031080 0.118321 -0.649584
    23 0.018586 -0.093236 -0.167773 3.423337 6.142846 -1.288278
    24 -1.521278 -18.626520 1.203448 -1.408771 -5.210619 -0.567846
    25 0.096944 -8.450418 -0.009364 0.026166 -0.811840 0.252069
    26 0.447952 -2.798983 -0.200442 -1.040226 -0.028328 0.435174
    27 -0.032910 -1.480207 0.004936 -1.052168 0.000000 0.000002
    28 -0.027022 -1.076920 -0.020212 -0.483247 0.000000 0.000000
    29 -0.249534 -2.846962 -0.174216 -1.105365 -0.017670 0.423979
    30 0.043235 -1.683940 0.096014 -0.977014 0.002823 -0.000167
    31 0.031730 -1.160831 0.058836 -0.525499 0.000642 0.008372
    32 -0.963866 -2.785142 -0.085346 -0.428823 0.161605 0.055456
    33 0.028479 -1.403069 0.006271 -1.244462 0.000000 0.000000
    34 0.021413 -0.957782 0.020047 -0.446120 0.000000 0.000000
    35 1.164475 -2.543938 -0.170328 -1.061121 -0.017417 0.527819
    36 0.024033 -1.129041 0.017806 -1.014840 0.000000 0.000001
    37 0.014896 -0.883990 -0.019845 -0.546132 0.000000 0.000000
    38 -0.500830 -1.428542 0.403295 0.197906 -0.494729 -2.976818
    39 1.522835 0.058681 0.016850 0.063191 -0.058059 0.879495
    40 1.117948 0.048424 -0.005764 -0.005037 -0.024191 0.264581
    41 -0.115961 -0.170293 -0.005135 0.576230 0.066071 1.373638
  time 9
    0 1.165598 7.922114 -11.954264 0.000000 0.000000 0.000000
    1 12.060553 -11.218767 -0.031940 0.750877 -2.386447 -1.389525
    2 -0.071919 -8.498731 -0.104136 0.191136 0.505838 -0.444786
    3 1.470883 -2.792118 0.726656 -0.351378 -0.026468 -3.279846
    4 -2.562689 2.867152 -0.000002 0.000001 0.000000 -3.141592
    5 -0.815617 2.114319 -0.000001 0.000001 0.000000 -0.374586
    6 -1.521637 -4.592964 0.466992 0.000001 0.000000 -3.141591
    7 0.704241 -4.909328 0.000002 0.000001 0.000000 0.000000
    8 -0.488517 -2.755600 -0.228261 -0.721249 -0.081949 -0.452612
    9 0.039887 -1.479789 0.029853 -1.744424 0.000000 0.000000
    10 0.028785 -1.075730 -0.023111 -1.070625 0.000000 0.000001
    11 0.125024 -3.051139 -0.574344 -0.799992 -0.047048 -0.393136
    12 -0.049759 -1.680545 0.100480 -1.558612 0.000000 -0.000002
    13 -0.034141 -1.148311 0.084779 -1.112872 0.000000 0.000000
    14 0.957766 -2.746777 -0.090301 0.261097 -0.158969 -0.144553
    15 -0.033419 -1.397127 -0.011255 -1.200859 0.135953 -0.247387
    16 -0.022360 -0.957435 0.018783 -1.253372 -0.052648 0.158832
    17 -1.200212 -2.612687 -0.084483 -0.819559 0.107001 -0.434663
    18 -0.024966 -1.123933 0.017594 -1.746586 0.000000 0.000001
    19 -0.020057 -0.890966 0.010091 -0.424577 0.000000 0.000000
    20 0.583510 -1.197274 0.185377 0.041775 -0.932216 -0.526993
    21 1.535926 0.010245 0.005008 -0.115188 0.228163 -1.325298
    22 1.100770 0.004527 -0.010676 -0.031080 0.118321 -0.649584
    23 0.018586 -0.093236 -0.167773 3.423337 6.142846 -1.288278
    24 -1.552529 -18.575737 0.984691 -1.411595 -5.211663 -0.570217
    25 0.096944 -8.450418 -0.009364 0.048342 -0.861156 0.279514
    26 0.447952 -2.798983 -0.200442 -1.040226 -0.028328 0.435174
    27 -0.032910 -1.480207 0.004936 -1.052168 0.000000 0.000002
    28 -0.027022 -1.076920 -0.020212 -0.483247 0.000000 0.000000
    29 -0.249534 -2.846962 -0.174216 -1.105365 -0.017670 0.423979
    30 0.043235 -1.683940 0.096014 -0.977014 0.002823 -0.000167
    31 0.031730 -1.160831 0.058836 -0.525499 0.000642 0.008372
    32 -0.963866 -2.785142 -0.085346 -0.428823 0.161605 0.055456
    33 0.028479 -1.403069 0.006271 -1.244462 0.000000 0.000000
    34 0.021413 -0.957782 0.020047 -0.446120 0.000000 0.000000
    35 1.164475 -2.543938 -0.170328 -1.061121 -0.017417 0.527819
    36 0.024033 -1.129041 0.017806 -1.014840 0.000000 0.000001
    37 0.014896 -0.883990 -0.019845 -0.546132 0.000000 0.000000
    38 -0.500830 -1.428542 0.403295 0.201413 -0.493128 -2.984404
    39 1.522835 0.058681 0.016850 0.060903 -0.058410 0.888209
    40 1.117948 0.048424 -0.005764 -0.004629 -0.024443 0.245467
    41 -0.115961 -0.170293 -0.005135 0.576230 0.066071 1.373638
  time 10
    0 1.165598 7.621323 -11.954264 0.000000 0.000000 0.000000
    1 12.060553 -11.218767 -0.031940 0.750877 -2.386447 -1.389525
    2 -0.071919 -8.498731 -0.104136 0.174524 0.511766 -0.478939
    3 1.470883 -2.792118 0.726656 -0.351378 -0.026468 -3.279846
    4 -2.562689 2.867152 -0.000002 0.000001 0.000000 -3.141592
    5 -0.815617 2.114319 -0.000001 0.000001 0.000000 -0.374586
    6 -1.521637 -4.592964 0.466992 0.000001 0.000000 -3.141591
    7 0.704241 -4.909328 0.000002 0.000001 0.000000 0.000000
    8 -0.488517 -2.755600 -0.228261 -0.721249 -0.081949 -0.452612
    9 0.039887 -1.479789 0.029853 -1.744424 0.000000 0.000000
    10 0.028785 -1.075730 -0.023111 -1.070625 0.000000 0.000001
    11 0.125024 -3.051139 -0.574344 -0.799992 -0.047048 -0.393136
    12 -0.049759 -1.680545 0.100480 -1.558612 0.000000 -0.000002
    13 -0.034141 -1.148311 0.084779 -1.112872 0.000000 0.000000
    14 0.957766 -2.746777 -0.090301 0.261097 -0.158969 -0.144553
    15 -0.033419 -1.397127 -0.011255 -1.200859 0.135953 -0.247387
    16 -0.022360 -0.957435 0.018783 -1.253372 -0.052648 0.158832
    17 -1.200212 -2.612687 -0.084483 -0.819559 0.107001 -0.434663
    18 -0.024966 -1.123933 0.017594 -1.746586 0.000000 0.000001
    19 -0.020057 -0.890966 0.010091 -0.424577 0.000000 0.000000
    20 0.583510 -1.197274 0.185377 0.041775 -0.932216 -0.526993
    21 1.535926 0.010245 0.005008 -0.115188 0.228163 -1.325298
    22 1.100770 0.004527 -0.010676 -0.031080 0.118321 -0.649584
    23 0.018586 -0.093236 -0.167773 3.423337 6.142846 -1.288278
    24 -1.583780 -18.528861 0.777654 -1.413905 -5.212517 -0.572209
    25 0.096944 -8.450418 -0.009364 0.068689 -0.906423 0.304972
    26 0.447952 -2.798983 -0.200442 -1.040226 -0.028328 0.435174
    27 -0.032910 -1.480207 0.004936 -1.052168 0.000000 0.000002
    28 -0.027022 -1.076920 -0.020212 -0.483247 0.000000 0.000000
    29 -0.249534 -2.846962 -0.174216 -1.105365 -0.017670 0.423979
    30 0.043235 -1.683940 0.096014 -0.977014 0.002823 -0.000167
    31 0.031730 -1.160831 0.058836 -0.525499 0.000642 0.008372
    32 -0.963866 -2.785142 -0.085346 -0.428823 0.161605 0.055456
    33 0.028479 -1.403069 0.006271 -1.244462 0.000000 0.000000
    34 0.021413 -0.957782 0.020047 -0.446120 0.000000 0.000000
    35 1.164475 -2.543938 -0.170328 -1.061121 -0.017417 0.527819
    36 0.024033 -1.129041 0.017806 -1.014840 0.000000 0.000001
    37 0.014896 -0.883990 -0.019845 -0.546132 0.000000 0.000000
    38 -0.500830 -1.428542 0.403295 0.204612 -0.491650 -2.991383
    39 1.522835 0.058681 0.016850 0.059049 -0.058666 0.895227
    40 1.117948 0.048424 -0.005764 -0.004246 -0.024671 0.227920
    41 -0.115961 -0.170293 -0.005135 0.576230 0.066071 1.373638
  time 11
    0 1.169504 7.410379 -11.954264 0.000000 0.000000 0.000000
    1 12.060553 -11.218767 -0.031940 0.750877 -2.386447 -1.389525
    2 -0.071919 -8.498731 -0.104136 0.162358 0.517347 -0.504170
    3 1.470883 -2.792118 0.726656 -0.351378 -0.026468 -3.279846
    4 -2.562689 2.867152 -0.000002 0.000001 0.000000 -3.141592
    5 -0.815617 2.114319 -0.000001 0.000001 0.000000 -0.365862
    6 -1.521637 -4.592964 0.466992 0.000001 0.000000 -3.141591
    7 0.704241 -4.909328 0.000002 0.000001 0.000000 0.000000
    8 -0.488517 -2.755600 -0.228261 -0.721249 -0.081949 -0.452612
    9 0.039887 -1.479789 0.029853 -1.744424 0.000000 0.000000
    10 0.028785 -1.075730 -0.023111 -1.070625 0.000000 0.000001
    11 0.125024 -3.051139 -0.574344 -0.799992 -0.047048 -0.393136
    12 -0.049759 -1.680545 0.100480 -1.558612 0.000000 -0.000002
    13 -0.034141 -1.148311 0.084779 -1.112872 0.000000 0.000000
    14 0.957766 -2.746777 -0.090301 0.261301 -0.158969 -0.144553
    15 -0.033419 -1.397127 -0.011255 -1.188416 0.133580 -0.243060
    16 -0.022360 -0.957435 0.018783 -1.245008 -0.051725 0.156063
    17 -1.200212 -2.612687 -0.084483 -0.819559 0.107001 -0.434663
    18 -0.024966 -1.123933 0.017594 -1.746586 0.000000 0.000001
    19 -0.020057 -0.890966 0.010091 -0.424577 0.000000 0.000000
    20 0.583510 -1.197274 0.185377 0.041775 -0.932216 -0.526993
    21 1.535926 0.010245 0.005008 -0.115188 0.228163 -1.325298
    22 1.100770 0.004527 -0.010676 -0.031080 0.118321 -0.649584
    23 0.018586 -0.093236 -0.167773 3.423337 6.142846 -1.288278
    24 -1.607218 -18.485891 0.629212 -1.415445 -5.213087 -0.573631
    25 0.096944 -8.450418 -0.009364 0.083580 -0.939542 0.323995
    26 0.447952 -2.798983 -0.200442 -1.040226 -0.028328 0.435174
    27 -0.032910 -1.480207 0.004936 -1.052168 0.000000 0.000002
    28 -0.027022 -1.076920 -0.020212 -0.483247 0.000000 0.000000
    29 -0.249534 -2.846962 -0.174216 -1.105365 -0.017670 0.423979
    30 0.043235 -1.683940 0.096014 -0.977014 0.002823 -0.000167
    31 0.031730 -1.160831 0.058836 -0.525499 0.000642 0.008372
    32 -0.963866 -2.785142 -0.085346 -0.428823 0.161605 0.055456
    33 0.028479 -1.403069 0.006271 -1.244462 0.000000 0.000000
    34 0.021413 -0.957782 0.020047 -0.446120 0.000000 0.000000
    35 1.164475 -2.543938 -0.170328 -1.061121 -0.017417 0.527819
    36 0.024033 -1.129041 0.017806 -1.014840 0.000000 0.000001
    37 0.014896 -0.883990 -0.019845 -0.546132 0.000000 0.000000
    38 -0.500830 -1.428542 0.403295 0.206971 -0.490572 -2.996478
    39 1.522835 0.058681 0.016850 0.057833 -0.058857 0.899917
    40 1.117948 0.048424 -0.005764 -0.003970 -0.024838 0.215071
    41 -0.115961 -0.170293 -0.005135 0.576230 0.066071 1.373638
  time 12
    0 1.169504 7.332252 -11.954264 0.000000 0.000000 0.000000
    1 12.060553 -11.218767 -0.031940 0.750877 -2.386447 -1.389525
    2 -0.071919 -8.498731 -0.104136 0.157602 0.521955 -0.514410
    3 1.470883 -2.792118 0.726656 -0.351378 -0.026468 -3.279846
    4 -2.562689 2.867152 -0.000002 0.000001 0.000000 -3.141592
    5 -0.815617 2.114319 -0.000001 0.000001 0.000000 -0.341940
    6 -1.521637 -4.592964 0.466992 0.000001 0.000000 -3.141591
    7 0.704241 -4.909328 0.000002 0.000001 0.000000 0.000000
    8 -0.488517 -2.755600 -0.228261 -0.721249 -0.081949 -0.452612
    9 0.039887 -1.479789 0.029853 -1.744424 0.000000 0.000000
    10 0.028785 -1.075730 -0.023111 -1.070625 0.000000 0.000001
    11 0.125024 -3.051139 -0.574344 -0.799992 -0.047048 -0.393136
    12 -0.049759 -1.680545 0.100480 -1.558612 0.000000 -0.000002
    13 -0.034141 -1.148311 0.084779 -1.112872 0.000000 0.000000
    14 0.957766 -2.746777 -0.090301 0.261888 -0.158969 -0.144553
    15 -0.033419 -1.397127 -0.011255 -1.153956 0.127013 -0.231112
    16 -0.022360 -0.957435 0.018783 -1.221872 -0.049185 0.148381
    17 -1.200212 -2.612687 -0.084483 -0.819559 0.107001 -0.434663
    18 -0.024966 -1.123933 0.017594 -1.746586 0.000000 0.000001
    19 -0.020057 -0.890966 0.010091 -0.424577 0.000000 0.000000
    20 0.583510 -1.197274 0.185377 0.041775 -0.932216 -0.526993
    21 1.535926 0.010245 0.005008 -0.115188 0.228163 -1.325298
    22 1.100770 0.004527 -0.010676 -0.031080 0.118321 -0.649584
    23 0.018586 -0.093236 -0.167773 3.423337 6.142846 -1.288278
    24 -1.618937 -18.454640 0.566710 -1.416022 -5.213277 -0.574105
    25 0.096944 -8.450418 -0.009364 0.089358 -0.952372 0.332182
    26 0.447952 -2.798983 -0.200442 -1.040226 -0.028328 0.435174
    27 -0.032910 -1.480207 0.004936 -1.052168 0.000000 0.000002
    28 -0.027022 -1.076920 -0.020212 -0.483247 0.000000 0.000000
    29 -0.249534 -2.846962 -0.174216 -1.105365 -0.017670 0.423979
    30 0.043235 -1.683940 0.096014 -0.977014 0.002823 -0.000167
    31 0.031730 -1.160831 0.058836 -0.525499 0.000642 0.008372
    32 -0.963866 -2.785142 -0.085346 -0.428823 0.161605 0.055456
    33 0.028479 -1.403069 0.006271 -1.244462 0.000000 0.000000
    34 0.021413 -0.957782 0.020047 -0.446120 0.000000 0.000000
    35 1.164475 -2.543938 -0.170328 -1.061121 -0.017417 0.527819
    36 0.024033 -1.129041 0.017806 -1.014840 0.000000 0.000001
    37 0.014896 -0.883990 -0.019845 -0.546132 0.000000 0.000000
    38 -0.500830 -1.428542 0.403295 0.207873 -0.490157 -2.998458
    39 1.522835 0.058681 0.016850 0.057369 -0.058921 0.901613
    40 1.117948 0.048424 -0.005764 -0.003862 -0.024910 0.210085
    41 -0.115961 -0.170293 -0.005135 0.576230 0.066071 1.373638
  time 13
    0 1.169504 7.359597 -11.958170 0.000000 0.000000 0.000000
    1 12.060553 -11.214860 -0.031940 0.750877 -2.386447 -1.389525
    2 -0.071919 -8.498731 -0.104136 0.157559 0.526059 -0.515029
    3 1.470883 -2.792118 0.726656 -0.351378 -0.026468 -3.279846
    4 -2.562689 2.867152 -0.000002 0.000001 0.000000 -3.141592
    5 -0.815617 2.114319 -0.000001 0.000001 0.000000 -0.306186
    6 -1.521637 -4.592964 0.466992 0.000001 0.000000 -3.141591
    7 0.704241 -4.909328 0.000002 0.000001 0.000000 0.000000
    8 -0.488517 -2.755600 -0.228261 -0.721249 -0.081949 -0.452612
    9 0.039887 -1.479789 0.029853 -1.744424 0.000000 0.000000
    10 0.028785 -1.075730 -0.023111 -1.070625 0.000000 0.000001
    11 0.125024 -3.051139 -0.574344 -0.799992 -0.047048 -0.393136
    12 -0.049759 -1.680545 0.100480 -1.558612 0.000000 -0.000002
    13 -0.034141 -1.148311 0.084779 -1.112839 0.000000 0.000000
    14 0.957766 -2.746777 -0.090301 0.262775 -0.158969 -0.144553
    15 -0.033419 -1.397127 -0.011255 -1.101902 0.117077 -0.213027
    16 -0.022360 -0.957435 0.018783 -1.186882 -0.045338 0.136780
    17 -1.200212 -2.612687 -0.084483 -0.819559 0.107001 -0.434663
    18 -0.024966 -1.123933 0.017594 -1.746586 0.000000 0.000001
    19 -0.020057 -0.890966 0.010091 -0.424577 0.000000 0.000000
    20 0.583510 -1.197274 0.185377 0.041775 -0.932216 -0.526993
    21 1.535926 0.010245 0.005008 -0.115188 0.228163 -1.325298
    22 1.100770 0.004527 -0.010676 -0.031080 0.118321 -0.649584
    23 0.018586 -0.093236 -0.167773 3.423337 6.142846 -1.288278
    24 -1.618937 -18.435108 0.558897 -1.415316 -5.212992 -0.573442
    25 0.096944 -8.450418 -0.009364 0.088060 -0.951404 0.333379
    26 0.447952 -2.798983 -0.200442 -1.040226 -0.028328 0.435174
    27 -0.032910 -1.480207 0.004936 -1.052168 0.000000 0.000002
    28 -0.027022 -1.076920 -0.020212 -0.483247 0.000000 0.000000
    29 -0.249534 -2.846962 -0.174216 -1.105365 -0.017670 0.423979
    30 0.043235 -1.683940 0.096014 -0.977014 0.002823 -0.000167
    31 0.031730 -1.160831 0.058836 -0.525499 0.000642 0.008372
    32 -0.963866 -2.785142 -0.085346 -0.428823 0.161605 0.055456
    33 0.028479 -1.403069 0.006271 -1.244462 0.000000 0.000000
    34 0.021413 -0.957782 0.020047 -0.446120 0.000000 0.000000
    35 1.164475 -2.543938 -0.170328 -1.061121 -0.017417 0.527819
    36 0.024033 -1.129041 0.017806 -1.014840 0.000000 0.000001
    37 0.014896 -0.883990 -0.019845 -0.546132 0.000000 0.000000
    38 -0.500830 -1.428542 0.403295 0.207873 -0.490157 -2.998458
    39 1.522835 0.058681 0.016850 0.058412 -0.058761 0.897655
    40 1.117948 0.048424 -0.005764 -0.003862 -0.024910 0.210085
    41 -0.115961 -0.170293 -0.005135 0.576230 0.066071 1.373638
  time 14
    0 1.169504 7.426005 -11.962077 0.000000 0.000000 0.000000
    1 12.060553 -11.203141 -0.031940 0.750877 -2.386447 -1.389525
    2 -0.071919 -8.498731 -0.104136 0.157531 0.529947 -0.515388
    3 1.470883 -2.792118 0.726656 -0.351378 -0.026468 -3.279846
    4 -2.562689 2.867152 -0.000002 0.000001 0.000000 -3.141592
    5 -0.815617 2.114319 -0.000001 0.000001 0.000000 -0.261999
    6 -1.521637 -4.592964 0.466992 0.000001 0.000000 -3.141591
    7 0.704241 -4.909328 0.000002 0.000001 0.000000 0.000000
    8 -0.488517 -2.755600 -0.228261 -0.721249 -0.081949 -0.452612
    9 0.039887 -1.479789 0.029853 -1.744424 0.000000 0.000000
    10 0.028785 -1.075730 -0.023111 -1.070625 0.000000 0.000001
    11 0.125024 -3.051139 -0.574344 -0.799992 -0.047060 -0.393136
    12 -0.049759 -1.680545 0.100480 -1.558612 0.000000 -0.000002
    13 -0.034141 -1.148311 0.084779 -1.112872 0.000000 0.000000
    14 0.957766 -2.746777 -0.090301 0.263890 -0.158969 -0.144553
    15 -0.033419 -1.397127 -0.011255 -1.036493 0.104602 -0.190328
    16 -0.022360 -0.957435 0.018783 -1.142951 -0.040508 0.122207
    17 -1.200212 -2.612687 -0.084483 -0.819559 0.107001 -0.434663
    18 -0.024966 -1.123933 0.017594 -1.746586 0.000000 0.000001
    19 -0.020057 -0.890966 0.010091 -0.424577 0.000000 0.000000
    20 0.583510 -1.197274 0.185377 0.041775 -0.932216 -0.526993
    21 1.535926 0.010245 0.005008 -0.115188 0.228163 -1.325298
    22 1.100770 0.004527 -0.010676 -0.031080 0.118321 -0.649584
    23 0.018586 -0.093236 -0.167773 3.423337 6.142846 -1.288278
    24 -1.622843 -18.415576 0.554991 -1.413391 -5.212327 -0.571829
    25 0.096944 -8.450418 -0.009364 0.084585 -0.948741 0.334383
    26 0.447952 -2.798983 -0.200442 -1.040226 -0.028328 0.435174
    27 -0.032910 -1.480207 0.004936 -1.052168 0.000000 0.000002
    28 -0.027022 -1.076920 -0.020212 -0.483247 0.000000 0.000000
    29 -0.249534 -2.846962 -0.174216 -1.105365 -0.017670 0.423979
    30 0.043235 -1.683940 0.096014 -0.977014 0.002823 -0.000167
    31 0.031730 -1.160831 0.058836 -0.525499 0.000642 0.008372
    32 -0.963866 -2.785142 -0.085346 -0.428823 0.161605 0.055456
    33 0.028479 -1.403069 0.006271 -1.244462 0.000000 0.000000
    34 0.021413 -0.957782 0.020047 -0.446120 0.000000 0.000000
    35 1.164475 -2.543938 -0.170328 -1.061121 -0.017417 0.527819
    36 0.024033 -1.129041 0.017806 -1.014840 0.000000 0.000001
    37 0.014896 -0.883990 -0.019845 -0.546132 0.000000 0.000000
    38 -0.500830 -1.428542 0.403295 0.207873 -0.490157 -2.998458
    39 1.522835 0.058681 0.016850 0.061193 -0.058346 0.887045
    40 1.117948 0.048424 -0.005764 -0.003862 -0.024910 0.210085
    41 -0.115961 -0.170293 -0.005135 0.576230 0.066071 1.373638
  time 15
    0 1.169504 7.527570 -11.965983 0.000000 0.000000 0.000000
    1 12.060553 -11.179703 -0.031940 0.750877 -2.386447 -1.389525
    2 -0.071919 -8.498731 -0.104136 0.157531 0.532863 -0.515548
    3 1.470883 -2.792118 0.726656 -0.351378 -0.026468 -3.279846
    4 -2.562689 2.867152 -0.000002 0.000001 0.000000 -3.141592
    5 -0.815617 2.114319 -0.000001 0.000001 0.000000 -0.212761
    6 -1.521637 -4.592964 0.466992 0.000001 0.000000 -3.141591
    7 0.704241 -4.909328 0.000002 0.000001 0.000000 0.000000
    8 -0.488517 -2.755600 -0.228261 -0.721249 -0.081949 -0.452612
    9 0.039887 -1.479789 0.029853 -1.744424 0.000000 0.000000
    10 0.028785 -1.075730 -0.023111 -1.070625 0.000000 0.000001
    11 0.125024 -3.051139 -0.574344 -0.799992 -0.047048 -0.393136
    12 -0.049759 -1.680545 0.100480 -1.558612 0.000000 -0.000002
    13 -0.034141 -1.148311 0.084779 -1.112839 0.000000 0.000000
    14 0.957766 -2.746777 -0.090301 0.265148 -0.158969 -0.144553
    15 -0.033419 -1.397127 -0.011255 -0.962104 0.090412 -0.164525
    16 -0.022360 -0.957435 0.018783 -1.092997 -0.035007 0.105632
    17 -1.200212 -2.612687 -0.084483 -0.819559 0.107001 -0.434663
    18 -0.024966 -1.123933 0.017594 -1.746586 0.000000 0.000001
    19 -0.020057 -0.890966 0.010091 -0.424577 0.000000 0.000000
    20 0.583510 -1.197274 0.185377 0.041775 -0.932216 -0.526993
    21 1.535926 0.010245 0.005008 -0.115188 0.228163 -1.325298
    22 1.100770 0.004527 -0.010676 -0.031080 0.118321 -0.649584
    23 0.018586 -0.093236 -0.167773 3.423337 6.142846 -1.288278
    24 -1.622843 -18.399951 0.551084 -1.410696 -5.211378 -0.569458
    25 0.096944 -8.450418 -0.009364 0.079561 -0.944758 0.335174
    26 0.447952 -2.798983 -0.200442 -1.040226 -0.028328 0.435174
    27 -0.032910 -1.480207 0.004936 -1.052168 0.000000 0.000002
    28 -0.027022 -1.076920 -0.020212 -0.483247 0.000000 0.000000
    29 -0.249534 -2.846962 -0.174216 -1.105365 -0.017670 0.423979
    30 0.043235 -1.683940 0.096014 -0.977014 0.002823 -0.000167
    31 0.031730 -1.160831 0.058836 -0.525499 0.000642 0.008372
    32 -0.963866 -2.785142 -0.085346 -0.428823 0.161605 0.055456
    33 0.028479 -1.403069 0.006271 -1.244462 0.000000 0.000000
    34 0.021413 -0.957782 0.020047 -0.446120 0.000000 0.000000
    35 1.164475 -2.543938 -0.170328 -1.061121 -0.017417 0.527819
    36 0.024033 -1.129041 0.017806 -1.014840 0.000000 0.000001
    37 0.014896 -0.883990 -0.019845 -0.546132 0.000000 0.000000
    38 -0.500830 -1.428542 0.403295 0.207873 -0.490157 -2.998458
    39 1.522835 0.058681 0.016850 0.065219 -0.057740 0.871712
    40 1.117948 0.048424 -0.005764 -0.003862 -0.024910 0.210085
    41 -0.115961 -0.170293 -0.005135 0.576230 0.066071 1.373638
  time 16
    0 1.169504 7.644762 -11.973796 0.000000 0.000000 0.000000
    1 12.060553 -11.156265 -0.031940 0.750877 -2.386447 -1.389525
    2 -0.071919 -8.498731 -0.104136 0.157517 0.534015 -0.515588
    3 1.470883 -2.792118 0.726656 -0.351378 -0.026468 -3.279846
    4 -2.562689 2.867152 -0.000002 0.000001 0.000000 -3.141592
    5 -0.815617 2.114319 -0.000001 0.000001 0.000000 -0.161810
    6 -1.521637 -4.592964 0.466992 0.000001 0.000000 -3.141591
    7 0.704241 -4.909328 0.000002 0.000001 0.000000 0.000000
    8 -0.488517 -2.755600 -0.228261 -0.721249 -0.081949 -0.452612
    9 0.039887 -1.479789 0.029853 -1.744424 0.000000 0.000000
    10 0.028785 -1.075730 -0.023111 -1.070625 0.000000 0.000001
    11 0.125024 -3.051139 -0.574344 -0.799992 -0.047048 -0.393136
    12 -0.049759 -1.680545 0.100480 -1.558612 0.000000 -0.000002
    13 -0.034141 -1.148311 0.084779 -1.112872 0.000000 0.000000
    14 0.957766 -2.746777 -0.090301 0.266490 -0.158969 -0.144553
    15 -0.033419 -1.397127 -0.011255 -0.883111 0.075347 -0.137105
    16 -0.022360 -0.957435 0.018783 -1.039935 -0.029170 0.088027
    17 -1.200212 -2.612687 -0.084483 -0.819559 0.107001 -0.434663
    18 -0.024966 -1.123933 0.017594 -1.746586 0.000000 0.000001
    19 -0.020057 -0.890966 0.010091 -0.424577 0.000000 0.000000
    20 0.583510 -1.197274 0.185377 0.041775 -0.932216 -0.526993
    21 1.535926 0.010245 0.005008 -0.115188 0.228163 -1.325298
    22 1.100770 0.004527 -0.010676 -0.031080 0.118321 -0.649584
    23 0.018586 -0.093236 -0.167773 3.423337 6.142846 -1.288278
    24 -1.622843 -18.384325 0.547178 -1.407424 -5.210144 -0.566613
    25 0.096944 -8.450418 -0.009364 0.073616 -0.939807 0.335794
    26 0.447952 -2.798983 -0.200442 -1.040226 -0.028328 0.435174
    27 -0.032910 -1.480207 0.004936 -1.052168 0.000000 0.000002
    28 -0.027022 -1.076920 -0.020212 -0.483247 0.000000 0.000000
    29 -0.249534 -2.846962 -0.174216 -1.105365 -0.017670 0.423979
    30 0.043235 -1.683940 0.096014 -0.977014 0.002823 -0.000167
    31 0.031730 -1.160831 0.058836 -0.525499 0.000642 0.008372
    32 -0.963866 -2.785142 -0.085346 -0.428823 0.161605 0.055456
    33 0.028479 -1.403069 0.006271 -1.244462 0.000000 0.000000
    34 0.021413 -0.957782 0.020047 -0.446120 0.000000 0.000000
    35 1.164475 -2.543938 -0.170328 -1.061121 -0.017417 0.527819
    36 0.024033 -1.129041 0.017806 -1.014840 0.000000 0.000001
    37 0.014896 -0.883990 -0.019845 -0.546132 0.000000 0.000000
    38 -0.500830 -1.428542 0.403295 0.207873 -0.490157 -2.998458
    39 1.522835 0.058681 0.016850 0.069998 -0.057037 0.853485
    40 1.117948 0.048424 -0.005764 -0.003862 -0.024910 0.210085
    41 -0.115961 -0.170293 -0.005135 0.576230 0.066071 1.373638
  time 17
    0 1.169504 7.765859 -11.977702 0.000000 0.000000 0.000000
    1 12.060553 -11.132827 -0.031940 0.750877 -2.386447 -1.389525
    2 -0.071919 -8.498731 -0.104136 0.157686 0.534015 -0.515308
    3 1.470883 -2.792118 0.726656 -0.351378 -0.026468 -3.279846
    4 -2.562689 2.867152 -0.000002 0.000001 0.000000 -3.141592
    5 -0.815617 2.114319 -0.000001 0.000001 0.000000 -0.112572
    6 -1.521637 -4.592964 0.466992 0.000001 0.000000 -3.141591
    7 0.704241 -4.909328 0.000002 0.000001 0.000000 0.000000
    8 -0.488517 -2.755600 -0.228261 -0.721249 -0.081949 -0.452612
    9 0.039887 -1.479789 0.029853 -1.744424 0.000000 0.000000
    10 0.028785 -1.075730 -0.023111 -1.070625 0.000000 0.000001
    11 0.125024 -3.051139 -0.574344 -0.799992 -0.047048 -0.393136
    12 -0.049759 -1.680545 0.100480 -1.558612 0.000000 -0.000002
    13 -0.034141 -1.148311 0.084779 -1.112839 0.000000 0.000000
    14 0.957766 -2.746777 -0.090301 0.267832 -0.158969 -0.144553
    15 -0.033419 -1.397127 -0.011255 -0.803845 0.060223 -0.109588
    16 -0.022360 -0.957435 0.018783 -0.986681 -0.023322 0.070362
    17 -1.200212 -2.612687 -0.084483 -0.819559 0.107001 -0.434663
    18 -0.024966 -1.123933 0.017594 -1.746586 0.000000 0.000001
    19 -0.020057 -0.890966 0.010091 -0.424577 0.000000 0.000000
    20 0.583510 -1.197274 0.185377 0.041775 -0.932216 -0.526993
    21 1.535926 0.010245 0.005008 -0.115188 0.228163 -1.325298
    22 1.100770 0.004527 -0.010676 -0.031080 0.118321 -0.649584
    23 0.018586 -0.093236 -0.167773 3.423337 6.142846 -1.288278
    24 -1.626750 -18.372606 0.547178 -1.404023 -5.208911 -0.563673
    25 0.096944 -8.450418 -0.009364 0.067349 -0.934239 0.336264
    26 0.447952 -2.798983 -0.200442 -1.040226 -0.028328 0.435174
    27 -0.032910 -1.480207 0.004936 -1.052168 0.000000 0.000002
    28 -0.027022 -1.076920 -0.020212 -0.483247 0.000000 0.000000
    29 -0.249534 -2.846962 -0.174216 -1.105365 -0.017670 0.423979
    30 0.043235 -1.683940 0.096014 -0.977014 0.002823 -0.000167
    31 0.031730 -1.160831 0.058836 -0.525499 0.000642 0.008372
    32 -0.963866 -2.785142 -0.085346 -0.428823 0.161605 0.055456
    33 0.028479 -1.403069 0.006271 -1.244462 0.000000 0.000000
    34 0.021413 -0.957782 0.020047 -0.446120 0.000000 0.000000
    35 1.164475 -2.543938 -0.170328 -1.061121 -0.017417 0.527819
    36 0.024033 -1.129041 0.017806 -1.014840 0.000000 0.000001
    37 0.014896 -0.883990 -0.019845 -0.546132 0.000000 0.000000
    38 -0.500830 -1.428542 0.403295 0.207873 -0.490157 -2.998458
    39 1.522835 0.058681 0.016850 0.075038 -0.056303 0.834327
    40 1.117948 0.048424 -0.005764 -0.003862 -0.024910 0.210085
    41 -0.115961 -0.170293 -0.005135 0.576230 0.066071 1.373638
  time 18
    0 1.169504 7.883050 -11.985515 0.000000 0.000000 0.000000
    1 12.060553 -11.109389 -0.031940 0.750877 -2.386447 -1.389525
    2 -0.071919 -8.498731 -0.104136 0.158194 0.533991 -0.514410
    3 1.470883 -2.792118 0.726656 -0.351378 -0.026468 -3.279846
    4 -2.562689 2.867152 -0.000002 0.000001 0.000000 -3.141592
    5 -0.815617 2.114319 -0.000001 0.000001 0.000000 -0.068385
    6 -1.521637 -4.592964 0.466992 0.000001 0.000000 -3.141591
    7 0.704241 -4.909328 0.000002 0.000001 0.000000 0.000000
    8 -0.488517 -2.755600 -0.228261 -0.721249 -0.081949 -0.452612
    9 0.039887 -1.479789 0.029853 -1.744424 0.000000 0.000000
    10 0.028785 -1.075730 -0.023111 -1.070625 0.000000 0.000001
    11 0.125024 -3.051139 -0.574344 -0.799992 -0.047048 -0.393136
    12 -0.049759 -1.680545 0.100480 -1.558612 0.000000 -0.000002
    13 -0.034141 -1.148311 0.084779 -1.112839 0.000000 0.000000
    14 0.957766 -2.746777 -0.090301 0.269115 -0.158969 -0.144553
    15 -0.033419 -1.397127 -0.011255 -0.728636 0.045877 -0.083486
    16 -0.022360 -0.957435 0.018783 -0.936152 -0.017761 0.053595
    17 -1.200212 -2.612687 -0.084483 -0.819559 0.107001 -0.434663
    18 -0.024966 -1.123933 0.017594 -1.746586 0.000000 0.000001
    19 -0.020057 -0.890966 0.010091 -0.424577 0.000000 0.000000
    20 0.583510 -1.197274 0.185377 0.041775 -0.932216 -0.526993
    21 1.535926 0.010245 0.005008 -0.115188 0.228163 -1.325298
    22 1.100770 0.004527 -0.010676 -0.031080 0.118321 -0.649584
    23 0.018586 -0.093236 -0.167773 3.423337 6.142846 -1.288278
    24 -1.626750 -18.364793 0.543272 -1.400750 -5.207772 -0.560923
    25 0.096944 -8.450418 -0.009364 0.061390 -0.928451 0.336585
    26 0.447952 -2.798983 -0.200442 -1.040226 -0.028328 0.435174
    27 -0.032910 -1.480207 0.004936 -1.052168 0.000000 0.000002
    28 -0.027022 -1.076920 -0.020212 -0.483247 0.000000 0.000000
    29 -0.249534 -2.846962 -0.174216 -1.105365 -0.017670 0.423979
    30 0.043235 -1.683940 0.096014 -0.977014 0.002823 -0.000167
    31 0.031730 -1.160831 0.058836 -0.525499 0.000642 0.008372
    32 -0.963866 -2.785142 -0.085346 -0.428823 0.161605 0.055456
    33 0.028479 -1.403069 0.006271 -1.244462 0.000000 0.000000
    34 0.021413 -0.957782 0.020047 -0.446120 0.000000 0.000000
    35 1.164475 -2.543938 -0.170328 -1.061121 -0.017417 0.527819
    36 0.024033 -1.129041 0.017806 -1.014840 0.000000 0.000001
    37 0.014896 -0.883990 -0.019845 -0.546132 0.000000 0.000000
    38 -0.500830 -1.428542 0.403295 0.207873 -0.490157 -2.998458
    39 1.522835 0.058681 0.016850 0.079817 -0.055601 0.816134
    40 1.117948 0.048424 -0.005764 -0.003862 -0.024910 0.210085
    41 -0.115961 -0.170293 -0.005135 0.576230 0.066071 1.373638
  time 19
    0 1.169504 7.984616 -11.989421 0.000000 0.000000 0.000000
    1 12.060553 -11.089857 -0.031940 0.750877 -2.386447 -1.389525
    2 -0.071919 -8.498731 -0.104136 0.158999 0.533955 -0.512913
    3 1.470883 -2.792118 0.726656 -0.351378 -0.026468 -3.279846
    4 -2.562689 2.867152 -0.000002 0.000001 0.000000 -3.141592
    5 -0.815617 2.114319 -0.000001 0.000001 0.000000 -0.032631
    6 -1.521637 -4.592964 0.466992 0.000001 0.000000 -3.141591
    7 0.704241 -4.909328 0.000002 0.000001 0.000000 0.000000
    8 -0.488517 -2.755600 -0.228261 -0.721249 -0.081949 -0.452612
    9 0.039887 -1.479789 0.029853 -1.744424 0.000000 0.000000
    10 0.028785 -1.075730 -0.023111 -1.070625 0.000000 0.000001
    11 0.125024 -3.051139 -0.574344 -0.799992 -0.047048 -0.393136
    12 -0.049759 -1.680545 0.100480 -1.558612 0.000000 -0.000002
    13 -0.034141 -1.148311 0.084779 -1.112872 0.000000 0.000000
    14 0.957766 -2.746777 -0.090301 0.270253 -0.158969 -0.144553
    15 -0.033419 -1.397127 -0.011255 -0.661814 0.033137 -0.060295
    16 -0.022360 -0.957435 0.018783 -0.891262 -0.012824 0.038710
    17 -1.200212 -2.612687 -0.084483 -0.819559 0.107001 -0.434663
    18 -0.024966 -1.123933 0.017594 -1.746586 0.000000 0.000001
    19 -0.020057 -0.890966 0.010091 -0.424577 0.000000 0.000000
    20 0.583510 -1.197274 0.185377 0.041775 -0.932216 -0.526993
    21 1.535926 0.010245 0.005008 -0.115188 0.228163 -1.325298
    22 1.100770 0.004527 -0.010676 -0.031080 0.118321 -0.649584
    23 0.018586 -0.093236 -0.167773 3.423337 6.142846 -1.288278
    24 -1.626750 -18.356981 0.543272 -1.398055 -5.206728 -0.558457
    25 0.096944 -8.450418 -0.009364 0.056380 -0.922774 0.336799
    26 0.447952 -2.798983 -0.200442 -1.040226 -0.028328 0.435174
    27 -0.032910 -1.480207 0.004936 -1.052168 0.000000 0.000002
    28 -0.027022 -1.076920 -0.020212 -0.483247 0.000000 0.000000
    29 -0.249534 -2.846962 -0.174216 -1.105365 -0.017670 0.423979
    30 0.043235 -1.683940 0.096014 -0.977014 0.002823 -0.000167
    31 0.031730 -1.160831 0.058836 -0.525499 0.000642 0.008372
    32 -0.963866 -2.785142 -0.085346 -0.428823 0.161605 0.055456
    33 0.028479 -1.403069 0.006271 -1.244462 0.000000 0.000000
    34 0.021413 -0.957782 0.020047 -0.446120 0.000000 0.000000
    35 1.164475 -2.543938 -0.170328 -1.061121 -0.017417 0.527819
    36 0.024033 -1.129041 0.017806 -1.014840 0.000000 0.000001
    37 0.014896 -0.883990 -0.019845 -0.546132 0.000000 0.000000
    38 -0.500830 -1.428542 0.403295 0.207873 -0.490157 -2.998458
    39 1.522835 0.058681 0.016850 0.083843 -0.054994 0.800767
    40 1.117948 0.048424 -0.005764 -0.003862 -0.024910 0.210085
    41 -0.115961 -0.170293 -0.005135 0.576230 0.066071 1.373638
  time 20
    0 1.169504 8.051024 -11.993328 0.000000 0.000000 0.000000
    1 12.060553 -11.074231 -0.031940 0.750877 -2.386447 -1.389525
    2 -0.071919 -8.498731 -0.104136 0.160114 0.533895 -0.510777
    3 1.470883 -2.792118 0.726656 -0.351378 -0.026468 -3.279846
    4 -2.562689 2.867152 -0.000002 0.000001 0.000000 -3.141592
    5 -0.815617 2.114319 -0.000001 0.000001 0.000000 -0.008709
    6 -1.521637 -4.592964 0.466992 0.000001 0.000000 -3.141591
    7 0.704241 -4.909328 0.000002 0.000001 0.000000 0.000000
    8 -0.488517 -2.755600 -0.228261 -0.721249 -0.081949 -0.452612
    9 0.039887 -1.479789 0.029853 -1.744424 0.000000 0.000000
    10 0.028785 -1.075730 -0.023111 -1.070625 0.000000 0.000001
    11 0.125024 -3.051139 -0.574344 -0.799992 -0.047048 -0.393136
    12 -0.049759 -1.680545 0.100480 -1.558612 0.000000 -0.000002
    13 -0.034141 -1.148311 0.084779 -1.112872 0.000000 0.000000
    14 0.957766 -2.746777 -0.090301 0.271176 -0.158969 -0.144553
    15 -0.033419 -1.397127 -0.011255 -0.607754 0.022819 -0.041528
    16 -0.022360 -0.957435 0.018783 -0.854967 -0.008833 0.026666
    17 -1.200212 -2.612687 -0.084483 -0.819559 0.107001 -0.434663
    18 -0.024966 -1.123933 0.017594 -1.746586 0.000000 0.000001
    19 -0.020057 -0.890966 0.010091 -0.424577 0.000000 0.000000
    20 0.583510 -1.197274 0.185377 0.041775 -0.932216 -0.526993
    21 1.535926 0.010245 0.005008 -0.115188 0.228163 -1.325298
    22 1.100770 0.004527 -0.010676 -0.031080 0.118321 -0.649584
    23 0.018586 -0.093236 -0.167773 3.423337 6.142846 -1.288278
    24 -1.626750 -18.353074 0.543272 -1.396130 -5.206063 -0.556845
    25 0.096944 -8.450418 -0.009364 0.052905 -0.917580 0.336906
    26 0.447952 -2.798983 -0.200442 -1.040226 -0.028328 0.435174
    27 -0.032910 -1.480207 0.004936 -1.052168 0.000000 0.000002
    28 -0.027022 -1.076920 -0.020212 -0.483247 0.000000 0.000000
    29 -0.249534 -2.846962 -0.174216 -1.105365 -0.017670 0.423979
    30 0.043235 -1.683940 0.096014 -0.977014 0.002823 -0.000167
    31 0.031730 -1.160831 0.058836 -0.525499 0.000642 0.008372
    32 -0.963866 -2.785142 -0.085346 -0.428823 0.161605 0.055456
    33 0.028479 -1.403069 0.006271 -1.244462 0.000000 0.000000
    34 0.021413 -0.957782 0.020047 -0.446120 0.000000 0.000000
    35 1.164475 -2.543938 -0.170328 -1.061121 -0.017417 0.527819
    36 0.024033 -1.129041 0.017806 -1.014840 0.000000 0.000001
    37 0.014896 -0.883990 -0.019845 -0.546132 0.000000 0.000000
    38 -0.500830 -1.428542 0.403295 0.207873 -0.490157 -2.998458
    39 1.522835 0.058681 0.016850 0.086623 -0.054579 0.790157
    40 1.117948 0.048424 -0.005764 -0.003862 -0.024910 0.210085
    41 -0.115961 -0.170293 -0.005135 0.576230 0.066071 1.373638
  time 21
    0 1.169504 8.078369 -11.997234 0.000000 0.000000 0.000000
    1 12.060553 -11.070325 -0.031940 0.750877 -2.386447 -1.389525
    2 -0.071919 -8.498731 -0.104136 0.161483 0.533799 -0.507983
    3 1.470883 -2.792118 0.726656 -0.351378 -0.026468 -3.279846
    4 -2.562689 2.867152 -0.000002 0.000001 0.000000 -3.141592
    5 -0.815617 2.114319 -0.000001 0.000001 0.000000 0.000000
    6 -1.521637 -4.592964 0.466992 0.000001 0.000000 -3.141591
    7 0.704241 -4.909328 0.000002 0.000001 0.000000 0.000000
    8 -0.488517 -2.755600 -0.228261 -0.721249 -0.081949 -0.452612
    9 0.039887 -1.479789 0.029853 -1.744424 0.000000 0.000000
    10 0.028785 -1.075730 -0.023111 -1.070625 0.000000 0.000001
    11 0.125024 -3.051139 -0.574344 -0.799992 -0.047048 -0.393136
    12 -0.049759 -1.680545 0.100480 -1.558612 0.000000 -0.000002
    13 -0.034141 -1.148311 0.084779 -1.112839 0.000000 0.000000
    14 0.957766 -2.746777 -0.090301 0.271799 -0.158969 -0.144553
    15 -0.033419 -1.397127 -0.011255 -0.570787 0.015760 -0.028692
    16 -0.022360 -0.957435 0.018783 -0.830105 -0.006100 0.018420
    17 -1.200212 -2.612687 -0.084483 -0.819559 0.107001 -0.434663
    18 -0.024966 -1.123933 0.017594 -1.746586 0.000000 0.000001
    19 -0.020057 -0.890966 0.010091 -0.424577 0.000000 0.000000
    20 0.583510 -1.197274 0.185377 0.041775 -0.932216 -0.526993
    21 1.535926 0.010245 0.005008 -0.115188 0.228163 -1.325298
    22 1.100770 0.004527 -0.010676 -0.031080 0.118321 -0.649584
    23 0.018586 -0.093236 -0.167773 3.423337 6.142846 -1.288278
    24 -1.626750 -18.353074 0.543272 -1.395424 -5.205778 -0.556276
    25 0.096944 -8.450418 -0.009364 0.051607 -0.913223 0.336948
    26 0.447952 -2.798983 -0.200442 -1.040226 -0.028328 0.435174
    27 -0.032910 -1.480207 0.004936 -1.052168 0.000000 0.000002
    28 -0.027022 -1.076920 -0.020212 -0.483247 0.000000 0.000000
    29 -0.249534 -2.846962 -0.174216 -1.105365 -0.017670 0.423979
    30 0.043235 -1.683940 0.096014 -0.977014 0.002823 -0.000167
    31 0.031730 -1.160831 0.058836 -0.525499 0.000642 0.008372
    32 -0.963866 -2.785142 -0.085346 -0.428823 0.161605 0.055456
    33 0.028479 -1.403069 0.006271 -1.244462 0.000000 0.000000
    34 0.021413 -0.957782 0.020047 -0.446120 0.000000 0.000000
    35 1.164475 -2.543938 -0.170328 -1.061121 -0.017417 0.527819
    36 0.024033 -1.129041 0.017806 -1.014840 0.000000 0.000001
    37 0.014896 -0.883990 -0.019845 -0.546132 0.000000 0.000000
    38 -0.500830 -1.428542 0.403295 0.207873 -0.490157 -2.998458
    39 1.522835 0.058681 0.016850 0.087666 -0.054420 0.786199
    40 1.117948 0.048424 -0.005764 -0.003862 -0.024910 0.210085
    41 -0.115961 -0.170293 -0.005135 0.576230 0.066071 1.373638
  time 22
    0 1.169504 8.074462 -11.993328 0.000000 0.000000 0.000000
    1 12.060553 -11.074231 -0.031940 0.750877 -2.386447 -1.389525
    2 -0.071919 -8.498731 -0.104136 0.163275 0.533103 -0.504290
    3 1.470883 -2.792118 0.726656 -0.351378 -0.026468 -3.279846
    4 -2.562689 2.867152 -0.000002 0.000001 0.000000 -3.141592
    5 -0.815617 2.114319 -0.000001 0.000001 0.000000 0.000000
    6 -1.521637 -4.592964 0.466992 0.000001 0.000000 -3.141591
    7 0.704241 -4.909328 0.000002 0.000001 0.000000 0.000000
    8 -0.488517 -2.755600 -0.228261 -0.721249 -0.081949 -0.452612
    9 0.039887 -1.479789 0.029853 -1.744424 0.000000 0.000000
    10 0.028785 -1.075730 -0.023111 -1.070625 0.000000 0.000001
    11 0.125024 -3.051139 -0.574344 -0.799992 -0.047048 -0.393136
    12 -0.049759 -1.680545 0.100480 -1.558612 0.000000 -0.000002
    13 -0.034141 -1.148311 0.084779 -1.112839 0.000000 0.000000
    14 0.957766 -2.746777 -0.090301 0.272207 -0.158969 -0.144553
    15 -0.033419 -1.397127 -0.011255 -0.546629 0.011158 -0.020303
    16 -0.022360 -0.957435 0.018783 -0.813875 -0.004314 0.013039
    17 -1.200212 -2.612687 -0.084483 -0.819559 0.107001 -0.434663
    18 -0.024966 -1.123933 0.017594 -1.746586 0.000000 0.000001
    19 -0.020057 -0.890966 0.010091 -0.424577 0.000000 0.000000
    20 0.583510 -1.197274 0.185377 0.041775 -0.932216 -0.526993
    21 1.535926 0.010245 0.005008 -0.115188 0.228163 -1.325298
    22 1.100770 0.004527 -0.010676 -0.031080 0.118321 -0.649584
    23 0.018586 -0.093236 -0.167773 3.423337 6.142846 -1.288278
    24 -1.626750 -18.353074 0.551084 -1.395424 -5.205778 -0.556276
    25 0.096944 -8.450418 -0.009364 0.051942 -0.909218 0.335473
    26 0.447952 -2.798983 -0.200442 -1.040226 -0.028328 0.435174
    27 -0.032910 -1.480207 0.004936 -1.052168 0.000000 0.000002
    28 -0.027022 -1.076920 -0.020212 -0.483247 0.000000 0.000000
    29 -0.249534 -2.846962 -0.174216 -1.105365 -0.017670 0.423979
    30 0.043235 -1.683940 0.096014 -0.977014 0.002823 -0.000167
    31 0.031730 -1.160831 0.058836 -0.525499 0.000642 0.008372
    32 -0.963866 -2.785142 -0.085346 -0.428823 0.161605 0.055456
    33 0.028479 -1.403069 0.006271 -1.244462 0.000000 0.000000
    34 0.021413 -0.957782 0.020047 -0.446120 0.000000 0.000000
    35 1.164475 -2.543938 -0.170328 -1.061121 -0.017417 0.527819
    36 0.024033 -1.129041 0.017806 -1.014840 0.000000 0.000001
    37 0.014896 -0.883990 -0.019845 -0.546132 0.000000 0.000000
    38 -0.500830 -1.428542 0.403295 0.207873 -0.490157 -2.998458
    39 1.522835 0.058681 0.016850 0.087666 -0.054420 0.786199
    40 1.117948 0.048424 -0.005764 -0.003862 -0.024910 0.210085
    41 -0.115961 -0.170293 -0.005135 0.576230 0.066071 1.373638
  time 23
    0 1.169504 8.066649 -11.993328 0.000000 0.000000 0.000000
    1 12.060553 -11.089857 -0.031940 0.750877 -2.386447 -1.389525
    2 -0.071919 -8.498731 -0.104136 0.165491 0.531411 -0.499679
    3 1.470883 -2.792118 0.726656 -0.351378 -0.026468 -3.279846
    4 -2.562689 2.867152 -0.000002 0.000001 0.000000 -3.141592
    5 -0.815617 2.114319 -0.000001 0.000001 0.000000 0.000000
    6 -1.521637 -4.592964 0.466992 0.000001 0.000000 -3.141591
    7 0.704241 -4.909328 0.000002 0.000001 0.000000 0.000000
    8 -0.488517 -2.755600 -0.228261 -0.721249 -0.081949 -0.452612
    9 0.039887 -1.479789 0.029853 -1.744424 0.000000 0.000000
    10 0.028785 -1.075730 -0.023111 -1.070625 0.000000 0.000001
    11 0.125024 -3.051139 -0.574344 -0.799992 -0.047048 -0.393136
    12 -0.049759 -1.680545 0.100480 -1.558612 0.000000 -0.000002
    13 -0.034141 -1.148311 0.084779 -1.112872 0.000000 0.000000
    14 0.957766 -2.746777 -0.090301 0.272530 -0.158969 -0.144553
    15 -0.033419 -1.397127 -0.011255 -0.527667 0.007550 -0.013735
    16 -0.022360 -0.957435 0.018783 -0.801176 -0.002912 0.008821
    17 -1.200212 -2.612687 -0.084483 -0.819559 0.107001 -0.434663
    18 -0.024966 -1.123933 0.017594 -1.746586 0.000000 0.000001
    19 -0.020057 -0.890966 0.010091 -0.424577 0.000000 0.000000
    20 0.583510 -1.197274 0.185377 0.041775 -0.932216 -0.526993
    21 1.535926 0.010245 0.005008 -0.115188 0.228163 -1.325298
    22 1.100770 0.004527 -0.010676 -0.031080 0.118321 -0.649584
    23 0.018586 -0.093236 -0.167773 3.423337 6.142846 -1.288278
    24 -1.626750 -18.360887 0.566710 -1.395424 -5.205778 -0.556276
    25 0.096944 -8.450418 -0.009364 0.052807 -0.904927 0.331562
    26 0.447952 -2.798983 -0.200442 -1.040226 -0.028328 0.435174
    27 -0.032910 -1.480207 0.004936 -1.052168 0.000000 0.000002
    28 -0.027022 -1.076920 -0.020212 -0.483247 0.000000 0.000000
    29 -0.249534 -2.846962 -0.174216 -1.105365 -0.017670 0.423979
    30 0.043235 -1.683940 0.096014 -0.977014 0.002823 -0.000167
    31 0.031730 -1.160831 0.058836 -0.525499 0.000642 0.008372
    32 -0.963866 -2.785142 -0.085346 -0.428823 0.161605 0.055456
    33 0.028479 -1.403069 0.006271 -1.244462 0.000000 0.000000
    34 0.021413 -0.957782 0.020047 -0.446120 0.000000 0.000000
    35 1.164475 -2.543938 -0.170328 -1.061121 -0.017417 0.527819
    36 0.024033 -1.129041 0.017806 -1.014840 0.000000 0.000001
    37 0.014896 -0.883990 -0.019845 -0.546132 0.000000 0.000000
    38 -0.500830 -1.428542 0.403295 0.207873 -0.490157 -2.998458
    39 1.522835 0.058681 0.016850 0.087666 -0.054420 0.786199
    40 1.117948 0.048424 -0.005764 -0.003862 -0.024910 0.210085
    41 -0.115961 -0.170293 -0.005135 0.576230 0.066071 1.373638
  time 24
    0 1.169504 8.054930 -11.985515 0.000000 0.000000 0.000000
    1 12.060553 -11.109389 -0.031940 0.750877 -2.386447 -1.389525
    2 -0.071919 -8.498731 -0.104136 0.167975 0.529011 -0.494489
    3 1.470883 -2.792118 0.726656 -0.351378 -0.026468 -3.279846
    4 -2.562689 2.867152 -0.000002 0.000001 0.000000 -3.141592
    5 -0.815617 2.114319 -0.000001 0.000001 0.000000 0.000000
    6 -1.521637 -4.592964 0.466992 0.000001 0.000000 -3.141591
    7 0.704241 -4.909328 0.000002 0.000001 0.000000 0.000000
    8 -0.488517 -2.755600 -0.228261 -0.721249 -0.081949 -0.452612
    9 0.039887 -1.479789 0.029853 -1.744424 0.000000 0.000000
    10 0.028785 -1.075730 -0.023111 -1.070625 0.000000 0.000001
    11 0.125024 -3.051139 -0.574344 -0.799992 -0.047060 -0.393136
    12 -0.049759 -1.680545 0.100480 -1.558612 0.000000 -0.000002
    13 -0.034141 -1.148311 0.084779 -1.112839 0.000000 0.000000
    14 0.957766 -2.746777 -0.090301 0.272770 -0.158969 -0.144553
    15 -0.033419 -1.397127 -0.011255 -0.513355 0.004806 -0.008762
    16 -0.022360 -0.957435 0.018783 -0.791546 -0.001858 0.005621
    17 -1.200212 -2.612687 -0.084483 -0.819559 0.107001 -0.434663
    18 -0.024966 -1.123933 0.017594 -1.746586 0.000000 0.000001
    19 -0.020057 -0.890966 0.010091 -0.424577 0.000000 0.000000
    20 0.583510 -1.197274 0.185377 0.041775 -0.932216 -0.526993
    21 1.535926 0.010245 0.005008 -0.115188 0.228163 -1.325298
    22 1.100770 0.004527 -0.010676 -0.031080 0.118321 -0.649584
    23 0.018586 -0.093236 -0.167773 3.423337 6.142846 -1.288278
    24 -1.626750 -18.372606 0.594054 -1.395424 -5.205778 -0.556276
    25 0.096944 -8.450418 -0.009364 0.054063 -0.900569 0.325898
    26 0.447952 -2.798983 -0.200442 -1.040226 -0.028328 0.435174
    27 -0.032910 -1.480207 0.004936 -1.052168 0.000000 0.000002
    28 -0.027022 -1.076920 -0.020212 -0.483247 0.000000 0.000000
    29 -0.249534 -2.846962 -0.174216 -1.105365 -0.017670 0.423979
    30 0.043235 -1.683940 0.096014 -0.977014 0.002823 -0.000167
    31 0.031730 -1.160831 0.058836 -0.525499 0.000642 0.008372
    32 -0.963866 -2.785142 -0.085346 -0.428823 0.161605 0.055456
    33 0.028479 -1.403069 0.006271 -1.244462 0.000000 0.000000
    34 0.021413 -0.957782 0.020047 -0.446120 0.000000 0.000000
    35 1.164475 -2.543938 -0.170328 -1.061121 -0.017417 0.527819
    36 0.024033 -1.129041 0.017806 -1.014840 0.000000 0.000001
    37 0.014896 -0.883990 -0.019845 -0.546132 0.000000 0.000000
    38 -0.500830 -1.428542 0.403295 0.207873 -0.490157 -2.998458
    39 1.522835 0.058681 0.016850 0.087666 -0.054420 0.786199
    40 1.117948 0.048424 -0.005764 -0.003862 -0.024910 0.210085
    41 -0.115961 -0.170293 -0.005135 0.576230 0.066071 1.373638
  time 25
    0 1.169504 8.043211 -11.981609 0.000000 0.000000 0.000000
    1 12.060553 -11.132827 -0.031940 0.750877 -2.386447 -1.389525
    2 -0.071919 -8.498731 -0.104136 0.170544 0.526191 -0.489120
    3 1.470883 -2.792118 0.726656 -0.351378 -0.026468 -3.279846
    4 -2.562689 2.867152 -0.000002 0.000001 0.000000 -3.141592
    5 -0.815617 2.114319 -0.000001 0.000001 0.000000 0.000000
    6 -1.521637 -4.592964 0.466992 0.000001 0.000000 -3.141591
    7 0.704241 -4.909328 0.000002 0.000001 0.000000 0.000000
    8 -0.488517 -2.755600 -0.228261 -0.721249 -0.081949 -0.452612
    9 0.039887 -1.479789 0.029853 -1.744424 0.000000 0.000000
    10 0.028785 -1.075730 -0.023111 -1.070625 0.000000 0.000001
    11 0.125024 -3.051139 -0.574344 -0.799992 -0.047048 -0.393136
    12 -0.049759 -1.680545 0.100480 -1.558612 0.000000 -0.000002
    13 -0.034141 -1.148311 0.084779 -1.112872 0.000000 0.000000
    14 0.957766 -2.746777 -0.090301 0.272950 -0.158969 -0.144553
    15 -0.033419 -1.397127 -0.011255 -0.502962 0.002828 -0.005154
    16 -0.022360 -0.957435 0.018783 -0.784563 -0.001091 0.003308
    17 -1.200212 -2.612687 -0.084483 -0.819559 0.107001 -0.434663
    18 -0.024966 -1.123933 0.017594 -1.746586 0.000000 0.000001
    19 -0.020057 -0.890966 0.010091 -0.424577 0.000000 0.000000
    20 0.583510 -1.197274 0.185377 0.041775 -0.932216 -0.526993
    21 1.535926 0.010245 0.005008 -0.115188 0.228163 -1.325298
    22 1.100770 0.004527 -0.010676 -0.031080 0.118321 -0.649584
    23 0.018586 -0.093236 -0.167773 3.423337 6.142846 -1.288278
    24 -1.626750 -18.384325 0.625305 -1.395424 -5.205778 -0.556276
    25 0.096944 -8.450418 -0.009364 0.055557 -0.896322 0.319165
    26 0.447952 -2.798983 -0.200442 -1.040226 -0.028328 0.435174
    27 -0.032910 -1.480207 0.004936 -1.052168 0.000000 0.000002
    28 -0.027022 -1.076920 -0.020212 -0.483247 0.000000 0.000000
    29 -0.249534 -2.846962 -0.174216 -1.105365 -0.017670 0.423979
    30 0.043235 -1.683940 0.096014 -0.977014 0.002823 -0.000167
    31 0.031730 -1.160831 0.058836 -0.525499 0.000642 0.008372
    32 -0.963866 -2.785142 -0.085346 -0.428823 0.161605 0.055456
    33 0.028479 -1.403069 0.006271 -1.244462 0.000000 0.000000
    34 0.021413 -0.957782 0.020047 -0.446120 0.000000 0.000000
    35 1.164475 -2.543938 -0.170328 -1.061121 -0.017417 0.527819
    36 0.024033 -1.129041 0.017806 -1.014840 0.000000 0.000001
    37 0.014896 -0.883990 -0.019845 -0.546132 0.000000 0.000000
    38 -0.500830 -1.428542 0.403295 0.207873 -0.490157 -2.998458
    39 1.522835 0.058681 0.016850 0.087666 -0.054420 0.786199
    40 1.117948 0.048424 -0.005764 -0.003862 -0.024910 0.210085
    41 -0.115961 -0.170293 -0.005135 0.576230 0.066071 1.373638
  time 26
    0 1.169504 8.027586 -11.973796 0.000000 0.000000 0.000000
    1 12.060553 -11.156265 -0.031940 0.750877 -2.386447 -1.389525
    2 -0.071919 -8.498731 -0.104136 0.173028 0.523251 -0.483910
    3 1.470883 -2.792118 0.726656 -0.351378 -0.026468 -3.279846
    4 -2.562689 2.867152 -0.000002 0.000001 0.000000 -3.141592
    5 -0.815617 2.114319 -0.000001 0.000001 0.000000 0.000000
    6 -1.521637 -4.592964 0.466992 0.000001 0.000000 -3.141591
    7 0.704241 -4.909328 0.000002 0.000001 0.000000 0.000000
    8 -0.488517 -2.755600 -0.228261 -0.721249 -0.081949 -0.452612
    9 0.039887 -1.479789 0.029853 -1.744424 0.000000 0.000000
    10 0.028785 -1.075730 -0.023111 -1.070625 0.000000 0.000001
    11 0.125024 -3.051139 -0.574344 -0.799992 -0.047048 -0.393136
    12 -0.049759 -1.680545 0.100480 -1.558612 0.000000 -0.000002
    13 -0.034141 -1.148311 0.084779 -1.112839 0.000000 0.000000
    14 0.957766 -2.746777 -0.090301 0.273070 -0.158969 -0.144553
    15 -0.033419 -1.397127 -0.011255 -0.495897 0.001486 -0.002710
    16 -0.022360 -0.957435 0.018783 -0.779805 -0.000575 0.001738
    17 -1.200212 -2.612687 -0.084483 -0.819559 0.107001 -0.434663
    18 -0.024966 -1.123933 0.017594 -1.746586 0.000000 0.000001
    19 -0.020057 -0.890966 0.010091 -0.424577 0.000000 0.000000
    20 0.583510 -1.197274 0.185377 0.041775 -0.932216 -0.526993
    21 1.535926 0.010245 0.005008 -0.115188 0.228163 -1.325298
    22 1.100770 0.004527 -0.010676 -0.031080 0.118321 -0.649584
    23 0.018586 -0.093236 -0.167773 3.423337 6.142846 -1.288278
    24 -1.626750 -18.396044 0.656556 -1.395424 -5.205778 -0.556276
    25 0.096944 -8.450418 -0.009364 0.057120 -0.892405 0.312089
    26 0.447952 -2.798983 -0.200442 -1.040226 -0.028328 0.435174
    27 -0.032910 -1.480207 0.004936 -1.052168 0.000000 0.000002
    28 -0.027022 -1.076920 -0.020212 -0.483247 0.000000 0.000000
    29 -0.249534 -2.846962 -0.174216 -1.105365 -0.017670 0.423979
    30 0.043235 -1.683940 0.096014 -0.977014 0.002823 -0.000167
    31 0.031730 -1.160831 0.058836 -0.525499 0.000642 0.008372
    32 -0.963866 -2.785142 -0.085346 -0.428823 0.161605 0.055456
    33 0.028479 -1.403069 0.006271 -1.244462 0.000000 0.000000
    34 0.021413 -0.957782 0.020047 -0.446120 0.000000 0.000000
    35 1.164475 -2.543938 -0.170328 -1.061121 -0.017417 0.527819
    36 0.024033 -1.129041 0.017806 -1.014840 0.000000 0.000001
    37 0.014896 -0.883990 -0.019845 -0.546132 0.000000 0.000000
    38 -0.500830 -1.428542 0.403295 0.207873 -0.490157 -2.998458
    39 1.522835 0.058681 0.016850 0.087666 -0.054420 0.786199
    40 1.117948 0.048424 -0.005764 -0.003862 -0.024910 0.210085
    41 -0.115961 -0.170293 -0.005135 0.576230 0.066071 1.373638
  time 27
    0 1.169504 8.011960 -11.969890 0.000000 0.000000 0.000000
    1 12.060553 -11.179703 -0.031940 0.750877 -2.386447 -1.389525
    2 -0.071919 -8.498731 -0.104136 0.175258 0.520455 -0.479239
    3 1.470883 -2.792118 0.726656 -0.351378 -0.026468 -3.279846
    4 -2.562689 2.867152 -0.000002 0.000001 0.000000 -3.141592
    5 -0.815617 2.114319 -0.000001 0.000001 0.000000 0.000000
    6 -1.521637 -4.592964 0.466992 0.000001 0.000000 -3.141591
    7 0.704241 -4.909328 0.000002 0.000001 0.000000 0.000000
    8 -0.488517 -2.755600 -0.228261 -0.721249 -0.081949 -0.452612
    9 0.039887 -1.479789 0.029853 -1.744424 0.000000 0.000000
    10 0.028785 -1.075730 -0.023111 -1.070625 0.000000 0.000001
    11 0.125024 -3.051139 -0.574344 -0.799992 -0.047048 -0.393136
    12 -0.049759 -1.680545 0.100480 -1.558612 0.000000 -0.000002
    13 -0.034141 -1.148311 0.084779 -1.112872 0.000000 0.000000
    14 0.957766 -2.746777 -0.090301 0.273142 -0.158969 -0.144553
    15 -0.033419 -1.397127 -0.011255 -0.491521 0.000647 -0.001187
    16 -0.022360 -0.957435 0.018783 -0.776889 -0.000252 0.000755
    17 -1.200212 -2.612687 -0.084483 -0.819559 0.107001 -0.434663
    18 -0.024966 -1.123933 0.017594 -1.746586 0.000000 0.000001
    19 -0.020057 -0.890966 0.010091 -0.424577 0.000000 0.000000
    20 0.583510 -1.197274 0.185377 0.041775 -0.932216 -0.526993
    21 1.535926 0.010245 0.005008 -0.115188 0.228163 -1.325298
    22 1.100770 0.004527 -0.010676 -0.031080 0.118321 -0.649584
    23 0.018586 -0.093236 -0.167773 3.423337 6.142846 -1.288278
    24 -1.626750 -18.407763 0.687807 -1.395424 -5.205778 -0.556276
    25 0.096944 -8.450418 -0.009364 0.058599 -0.889016 0.305356
    26 0.447952 -2.798983 -0.200442 -1.040226 -0.028328 0.435174
    27 -0.032910 -1.480207 0.004936 -1.052168 0.000000 0.000002
    28 -0.027022 -1.076920 -0.020212 -0.483247 0.000000 0.000000
    29 -0.249534 -2.846962 -0.174216 -1.105365 -0.017670 0.423979
    30 0.043235 -1.683940 0.096014 -0.977014 0.002823 -0.000167
    31 0.031730 -1.160831 0.058836 -0.525499 0.000642 0.008372
    32 -0.963866 -2.785142 -0.085346 -0.428823 0.161605 0.055456
    33 0.028479 -1.403069 0.006271 -1.244462 0.000000 0.000000
    34 0.021413 -0.957782 0.020047 -0.446120 0.000000 0.000000
    35 1.164475 -2.543938 -0.170328 -1.061121 -0.017417 0.527819
    36 0.024033 -1.129041 0.017806 -1.014840 0.000000 0.000001
    37 0.014896 -0.883990 -0.019845 -0.546132 0.000000 0.000000
    38 -0.500830 -1.428542 0.403295 0.207873 -0.490157 -2.998458
    39 1.522835 0.058681 0.016850 0.087666 -0.054420 0.786199
    40 1.117948 0.048424 -0.005764 -0.003862 -0.024910 0.210085
    41 -0.115961 -0.170293 -0.005135 0.576230 0.066071 1.373638
  time 28
    0 1.169504 8.000241 -11.962077 0.000000 0.000000 0.000000
    1 12.060553 -11.203141 -0.031940 0.750877 -2.386447 -1.389525
    2 -0.071919 -8.498731 -0.104136 0.177065 0.518103 -0.475446
    3 1.470883 -2.792118 0.726656 -0.351378 -0.026468 -3.279846
    4 -2.562689 2.867152 -0.000002 0.000001 0.000000 -3.141592
    5 -0.815617 2.114319 -0.000001 0.000001 0.000000 0.000000
    6 -1.521637 -4.592964 0.466992 0.000001 0.000000 -3.141591
    7 0.704241 -4.909328 0.000002 0.000001 0.000000 0.000000
    8 -0.488517 -2.755600 -0.228261 -0.721249 -0.081949 -0.452612
    9 0.039887 -1.479789 0.029853 -1.744424 0.000000 0.000000
    10 0.028785 -1.075730 -0.023111 -1.070625 0.000000 0.000001
    11 0.125024 -3.051139 -0.574344 -0.799992 -0.047048 -0.393136
    12 -0.049759 -1.680545 0.100480 -1.558612 0.000000 -0.000002
    13 -0.034141 -1.148311 0.084779 -1.112872 0.000000 0.000000
    14 0.957766 -2.746777 -0.090301 0.273190 -0.158969 -0.144553
    15 -0.033419 -1.397127 -0.011255 -0.489197 0.000204 -0.000373
    16 -0.022360 -0.957435 0.018783 -0.775316 -0.000072 0.000240
    17 -1.200212 -2.612687 -0.084483 -0.819559 0.107001 -0.434663
    18 -0.024966 -1.123933 0.017594 -1.746586 0.000000 0.000001
    19 -0.020057 -0.890966 0.010091 -0.424577 0.000000 0.000000
    20 0.583510 -1.197274 0.185377 0.041775 -0.932216 -0.526993
    21 1.535926 0.010245 0.005008 -0.115188 0.228163 -1.325298
    22 1.100770 0.004527 -0.010676 -0.031080 0.118321 -0.649584
    23 0.018586 -0.093236 -0.167773 3.423337 6.142846 -1.288278
    24 -1.626750 -18.419482 0.715152 -1.395424 -5.205778 -0.556276
    25 0.096944 -8.450418 -0.009364 0.059855 -0.886353 0.299692
    26 0.447952 -2.798983 -0.200442 -1.040226 -0.028328 0.435174
    27 -0.032910 -1.480207 0.004936 -1.052168 0.000000 0.000002
    28 -0.027022 -1.076920 -0.020212 -0.483247 0.000000 0.000000
    29 -0.249534 -2.846962 -0.174216 -1.105365 -0.017670 0.423979
    30 0.043235 -1.683940 0.096014 -0.977014 0.002823 -0.000167
    31 0.031730 -1.160831 0.058836 -0.525499 0.000642 0.008372
    32 -0.963866 -2.785142 -0.085346 -0.428823 0.161605 0.055456
    33 0.028479 -1.403069 0.006271 -1.244462 0.000000 0.000000
    34 0.021413 -0.957782 0.020047 -0.446120 0.000000 0.000000
    35 1.164475 -2.543938 -0.170328 -1.061121 -0.017417 0.527819
    36 0.024033 -1.129041 0.017806 -1.014840 0.000000 0.000001
    37 0.014896 -0.883990 -0.019845 -0.546132 0.000000 0.000000
    38 -0.500830 -1.428542 0.403295 0.207873 -0.490157 -2.998458
    39 1.522835 0.058681 0.016850 0.087666 -0.054420 0.786199
    40 1.117948 0.048424 -0.005764 -0.003862 -0.024910 0.210085
    41 -0.115961 -0.170293 -0.005135 0.576230 0.066071 1.373638
  time 29
    0 1.169504 7.992428 -11.958170 0.000000 0.000000 0.000000
    1 12.060553 -11.214860 -0.031940 0.750877 -2.386447 -1.389525
    2 -0.071919 -8.498731 -0.104136 0.178278 0.516482 -0.472891
    3 1.470883 -2.792118 0.726656 -0.351378 -0.026468 -3.279846
    4 -2.562689 2.867152 -0.000002 0.000001 0.000000 -3.141592
    5 -0.815617 2.114319 -0.000001 0.000001 0.000000 0.000000
    6 -1.521637 -4.592964 0.466992 0.000001 0.000000 -3.141591
    7 0.704241 -4.909328 0.000002 0.000001 0.000000 0.000000
    8 -0.488517 -2.755600 -0.228261 -0.721249 -0.081949 -0.452612
    9 0.039887 -1.479789 0.029853 -1.744424 0.000000 0.000000
    10 0.028785 -1.075730 -0.023111 -1.070625 0.000000 0.000001
    11 0.125024 -3.051139 -0.574344 -0.799992 -0.047048 -0.393136
    12 -0.049759 -1.680545 0.100480 -1.558612 0.000000 -0.000002
    13 -0.034141 -1.148311 0.084779 -1.112872 0.000000 0.000000
    14 0.957766 -2.746777 -0.090301 0.273202 -0.158969 -0.144553
    15 -0.033419 -1.397127 -0.011255 -0.488285 0.000024 -0.000049
    16 -0.022360 -0.957435 0.018783 -0.774703 -0.000012 0.000036
    17 -1.200212 -2.612687 -0.084483 -0.819559 0.107001 -0.434663
    18 -0.024966 -1.123933 0.017594 -1.746586 0.000000 0.000001
    19 -0.020057 -0.890966 0.010091 -0.424577 0.000000 0.000000
    20 0.583510 -1.197274 0.185377 0.041775 -0.932216 -0.526993
    21 1.535926 0.010245 0.005008 -0.115188 0.228163 -1.325298
    22 1.100770 0.004527 -0.010676 -0.031080 0.118321 -0.649584
    23 0.018586 -0.093236 -0.167773 3.423337 6.142846 -1.288278
    24 -1.626750 -18.427295 0.730777 -1.395424 -5.205778 -0.556276
    25 0.096944 -8.450418 -0.009364 0.060734 -0.884593 0.295781
    26 0.447952 -2.798983 -0.200442 -1.040226 -0.028328 0.435174
    27 -0.032910 -1.480207 0.004936 -1.052168 0.000000 0.000002
    28 -0.027022 -1.076920 -0.020212 -0.483247 0.000000 0.000000
    29 -0.249534 -2.846962 -0.174216 -1.105365 -0.017670 0.423979
    30 0.043235 -1.683940 0.096014 -0.977014 0.002823 -0.000167
    31 0.031730 -1.160831 0.058836 -0.525499 0.000642 0.008372
    32 -0.963866 -2.785142 -0.085346 -0.428823 0.161605 0.055456
    33 0.028479 -1.403069 0.006271 -1.244462 0.000000 0.000000
    34 0.021413 -0.957782 0.020047 -0.446120 0.000000 0.000000
    35 1.164475 -2.543938 -0.170328 -1.061121 -0.017417 0.527819
    36 0.024033 -1.129041 0.017806 -1.014840 0.000000 0.000001
    37 0.014896 -0.883990 -0.019845 -0.546132 0.000000 0.000000
    38 -0.500830 -1.428542 0.403295 0.207873 -0.490157 -2.998458
    39 1.522835 0.058681 0.016850 0.087666 -0.054420 0.786199
    40 1.117948 0.048424 -0.005764 -0.003862 -0.024910 0.210085
    41 -0.115961 -0.170293 -0.005135 0.576230 0.066071 1.373638
  time 30
    0 1.169504 7.988522 -11.954264 0.000000 0.000000 0.000000
    1 12.060553 -11.218767 -0.031940 0.750877 -2.386447 -1.389525
    2 -0.071919 -8.498731 -0.104136 0.178716 0.515882 -0.471973
    3 1.470883 -2.792118 0.726656 -0.351378 -0.026468 -3.279846
    4 -2.562689 2.867152 -0.000002 0.000001 0.000000 -3.141592
    5 -0.815617 2.114319 -0.000001 0.000001 0.000000 0.000000
    6 -1.521637 -4.592964 0.466992 0.000001 0.000000 -3.141591
    7 0.704241 -4.909328 0.000002 0.000001 0.000000 0.000000
    8 -0.488517 -2.755600 -0.228261 -0.721249 -0.081949 -0.452612
    9 0.039887 -1.479789 0.029853 -1.744424 0.000000 0.000000
    10 0.028785 -1.075730 -0.023111 -1.070625 0.000000 0.000001
    11 0.125024 -3.051139 -0.574344 -0.799992 -0.047060 -0.393136
    12 -0.049759 -1.680545 0.100480 -1.558612 0.000000 -0.000002
    13 -0.034141 -1.148311 0.084779 -1.112872 0.000000 0.000000
    14 0.957766 -2.746777 -0.090301 0.273202 -0.158969 -0.144553
    15 -0.033419 -1.397127 -0.011255 -0.488103 0.000000 -0.000001
    16 -0.022360 -0.957435 0.018783 -0.774587 0.000000 0.000000
    17 -1.200212 -2.612687 -0.084483 -0.819559 0.107001 -0.434663
    18 -0.024966 -1.123933 0.017594 -1.746586 0.000000 0.000001
    19 -0.020057 -0.890966 0.010091 -0.424577 0.000000 0.000000
    20 0.583510 -1.197274 0.185377 0.041775 -0.932216 -0.526993
    21 1.535926 0.010245 0.005008 -0.115188 0.228163 -1.325298
    22 1.100770 0.004527 -0.010676 -0.031080 0.118321 -0.649584
    23 0.018586 -0.093236 -0.167773 3.423337 6.142846 -1.288278
    24 -1.626750 -18.431202 0.738590 -1.395424 -5.205778 -0.556276
    25 0.096944 -8.450418 -0.009364 0.061055 -0.883977 0.294306
    26 0.447952 -2.798983 -0.200442 -1.040226 -0.028328 0.435174
    27 -0.032910 -1.480207 0.004936 -1.052168 0.000000 0.000002
    28 -0.027022 -1.076920 -0.020212 -0.483247 0.000000 0.000000
    29 -0.249534 -2.846962 -0.174216 -1.105365 -0.017670 0.423979
    30 0.043235 -1.683940 0.096014 -0.977014 0.002823 -0.000167
    31 0.031730 -1.160831 0.058836 -0.525499 0.000642 0.008372
    32 -0.963866 -2.785142 -0.085346 -0.428823 0.161605 0.055456
    33 0.028479 -1.403069 0.006271 -1.244462 0.000000 0.000000
    34 0.021413 -0.957782 0.020047 -0.446120 0.000000 0.000000
    35 1.164475 -2.543938 -0.170328 -1.061121 -0.017417 0.527819
    36 0.024033 -1.129041 0.017806 -1.014840 0.000000 0.000001
    37 0.014896 -0.883990 -0.019845 -0.546132 0.000000 0.000000
    38 -0.500830 -1.428542 0.403295 0.207873 -0.490157 -2.998458
    39 1.522835 0.058681 0.016850 0.087666 -0.054420 0.786199
    40 1.117948 0.048424 -0.005764 -0.003862 -0.024910 0.210085
    41 -0.115961 -0.170293 -0.005135 0.576230 0.066071 1.373638
end
