// Created by Crowbar 0.49.0.0

$modelname "weapons/tfa_cso/c_vulcanus11.mdl"

$Include "csonline_gmod.qci"

$bodygroup "weapon"
{
	studio "v_vulcanus11"
}

$CDMaterials "models\weapons\tfa_cso\vulcanus11"

$attachment 0 "vulcanus11_root" 20 -1.2 0
//$attachment 1 "vulcanus11_root" 5.5 -1.2 0.3

$definebone "vulcanus11_root" "" 0.000000 0.000000 0.000000 0.000000 -89.999983 89.999983 0.000000 0.000000 0.000000 -0.000000 0.000000 0.000000
$definebone "bullet" "vulcanus11_root" 2.844352 -3.675503 0.000151 -0.000000 0.000000 0.000000 0.000000 0.000000 0.000000 -0.000000 0.000000 0.000000
$definebone "triger" "vulcanus11_root" 0.444448 -1.806709 0.000000 -0.000000 -89.999983 -0.000573 0.000000 0.000000 0.000000 -0.000000 -0.000000 0.000000
$definebone "pump" "vulcanus11_root" 7.631212 -2.347096 -0.000001 -0.000000 0.000000 0.000000 0.000000 0.000000 0.000000 -0.000000 0.000000 0.000000
$definebone "bmode01" "vulcanus11_root" 0.568517 1.477742 0.000000 -0.000000 0.000000 0.000000 0.000000 0.000000 0.000000 -0.000000 0.000000 0.000000
$definebone "bmode02" "vulcanus11_root" 13.920698 0.355225 -0.000002 -0.000000 0.000000 0.000000 0.000000 0.000000 0.000000 -0.000000 0.000000 0.000000
$definebone "bmode03" "bmode02" -6.672884 0.000001 0.000002 -0.000000 0.000000 0.000000 0.000000 0.000000 0.000000 -0.000000 0.000000 0.000000
$definebone "bmode04" "vulcanus11_root" 0.485187 1.671306 0.000000 -0.000000 0.000000 0.000000 0.000000 0.000000 0.000000 -0.000000 0.000000 0.000000
$definebone "button" "bmode04" 0.651094 0.256233 0.000151 -0.000000 89.999983 0.000000 0.000000 0.000000 0.000000 -0.000000 -0.000000 0.000000
$definebone "pump02" "vulcanus11_root" 4.102913 -1.089239 0.701719 -89.999983 90.000038 0.000000 0.000000 0.000000 0.000000 -0.000000 0.000000 -0.000000

$sequence "idle" {
	"v_vulcanus11_anims\idle"
	fps 30
	loop
}
$sequence "shoot1" {
	"v_vulcanus11_anims\shoot1"
	{ event 5001 1 "21" }
	fps 30
}
$sequence "shoot2" {
	"v_vulcanus11_anims\shoot2"
	{ event 5001 1 "21" }
	fps 30
}
$sequence "insert" {
	"v_vulcanus11_anims\insert"
	{ event 5004 5 "weapons/vulcanus11_insert.wav" }
	fps 30
}
$sequence "after_reload" {
	"v_vulcanus11_anims\after_reload"
	{ event 5004 8 "weapons/vulcanus11_reload.wav" }
	fps 30
}
$sequence "start_reload" {
	"v_vulcanus11_anims\start_reload"
	fps 30
}
$sequence "draw" {
	"v_vulcanus11_anims\draw"
	{ event 5004 12 "weapons/vulcanus11_reload.wav" }
	fps 30
}
$sequence "shoot3" {
	"v_vulcanus11_anims\shoot3"
	{ event 5001 1 "21" }
	fps 45
	activity "ACT_VM_PRIMARYATTACK" 1
	snap
}
$sequence "func_change1" {
	"v_vulcanus11_anims\func_change1"
	{ event 5004 4 "weapons/vulcanus11_func_change1.wav" }
	fps 30
}
$sequence "func_change2" {
	"v_vulcanus11_anims\func_change2"
	{ event 5004 11 "weapons/vulcanus11_func_change2.wav" }
	fps 30
}
$sequence "idle2" {
	"v_vulcanus11_anims\idle2"
	fps 30
	loop
	activity "ACT_VM_IDLE" 1
	snap
}
$sequence "insert2" {
	"v_vulcanus11_anims\insert2"
	{ event 5004 5 "Vulcanus11.Insert" }
	fps 30
	activity "ACT_VM_RELOAD" 1
	snap
}
$sequence "after_reload2" {
	"v_vulcanus11_anims\after_reload2"
	{ event 5004 8 "Vulcanus11.Reload" }
	fps 30
	activity "ACT_SHOTGUN_RELOAD_FINISH" 1
	snap
}
$sequence "start_reload2" {
	"v_vulcanus11_anims\start_reload2"
	fps 30
	activity "ACT_SHOTGUN_RELOAD_START" 1
	snap
}
$sequence "draw2" {
	"v_vulcanus11_anims\draw2"
	{ event 5004 12 "Vulcanus11.Draw" }
	fps 30
	activity "ACT_VM_DRAW" 1
	snap
}
