version 1
nodes
  0 "root" -1
  1 "Bone01" 0
  2 "Bone_Lefthand" 1
  3 "Bone02" 2
  4 "Dummy02" 3
  5 "Bone24" 4
  6 "Bone03" 3
  7 "Bone04" 0
  8 "Bone_Righthand" 7
  9 "Bone08" 8
  10 "Bone20" 9
  11 "Dummy01" 9
  12 "Bone16" 11
  13 "Bone_L_Upper" 1
  14 "Bone13" 2
  15 "Bone14" 14
  16 "Bone15" 15
  17 "Bone17" 2
  18 "Bone18" 17
  19 "Bone19" 18
  20 "Bone21" 2
  21 "Bone22" 20
  22 "Bone23" 21
  23 "Bone09" 2
  24 "Bone10" 23
  25 "Bone11" 24
  26 "Bone05" 2
  27 "Bone06" 26
  28 "Bone07" 27
  29 "Bone_Se_Hand-L" 2
  30 "Bone39" 8
  31 "Bone40" 30
  32 "Bone41" 31
  33 "Bone35" 8
  34 "Bone36" 33
  35 "Bone37" 34
  36 "Bone31" 8
  37 "Bone32" 36
  38 "Bone33" 37
  39 "Bone43" 8
  40 "Bone44" 39
  41 "Bone45" 40
  42 "Bone27" 8
  43 "Bone28" 42
  44 "Bone29" 43
  45 "Bone_Se_Hand-R" 8
  46 "Bone_R_Upper" 7
end
skeleton
  time 0
    0 -0.349399 1.166145 0.203512 0.000000 0.000000 0.000000
    1 9.053743 -2.659048 -10.579631 -0.867891 -1.135955 0.553610
    2 -0.071918 -8.498730 -0.104136 0.222510 0.036521 -0.265908
    3 2.834877 -3.284037 0.535784 -3.053061 0.124698 -1.545787
    4 -0.937847 3.087766 -0.006773 0.000000 0.000000 1.745329
    5 0.000000 0.000000 -0.000001 0.000000 0.000000 0.000000
    6 9.280671 -0.119233 0.129653 0.013190 0.190174 -1.575995
    7 -9.004620 -0.948894 -9.667364 -1.817346 1.303200 -1.534289
    8 0.096945 -8.450418 -0.009363 0.113763 -0.325066 0.078794
    9 -2.961830 -3.210661 0.985425 -0.073896 0.213120 -1.439451
    10 9.226532 0.012792 0.018556 0.017134 -0.145892 -1.609947
    11 -0.937847 3.087766 -0.010345 0.000000 0.000000 1.745330
    12 0.000000 0.000000 -0.000005 0.000000 0.000000 0.000000
    13 1.257180 8.762585 -0.153713 -1.570562 0.002683 -1.566807
    14 -0.488518 -2.755602 -0.228260 -0.647307 -0.134082 -0.416251
    15 0.039887 -1.479790 0.029854 -2.301996 0.000000 0.000001
    16 0.028786 -1.075731 -0.023109 -0.271941 0.000000 0.000000
    17 0.250027 -2.820665 -0.238396 -0.437374 -0.105209 -0.434549
    18 -0.049759 -1.680544 0.100479 -2.367108 0.000000 -0.000002
    19 -0.034142 -1.148312 0.084782 -0.535839 0.000000 0.000000
    20 0.957766 -2.746780 -0.090302 0.362703 -0.147176 -0.203865
    21 -0.033420 -1.397129 -0.011257 -1.115593 0.000000 -0.000001
    22 -0.022360 -0.957436 0.018784 -1.148778 0.000000 0.000000
    23 -1.180681 -2.507217 -0.193859 -0.393134 0.029677 -0.287744
    24 -0.024967 -1.123934 0.017597 -2.113280 0.000000 0.000001
    25 -0.020057 -0.890968 0.010090 -0.761958 0.000000 0.000000
    26 0.583510 -1.197277 0.185379 0.535783 -0.585068 -1.177524
    27 1.535927 0.010246 0.005009 -0.002964 -0.012979 -0.682290
    28 1.100771 0.004527 -0.010679 -0.016147 -0.001453 -1.484153
    29 0.120153 -0.050270 -0.054489 0.287569 3.110905 1.561085
    30 0.447953 -2.798986 -0.200443 -1.437466 0.114004 0.072885
    31 -0.032909 -1.480204 0.004940 -1.509334 0.000000 0.000002
    32 -0.027022 -1.076920 -0.020210 -0.468857 0.000000 0.000000
    33 -0.249534 -2.846964 -0.174213 -1.276464 0.102703 0.104139
    34 0.043235 -1.683941 0.096012 -1.748945 0.002823 -0.000167
    35 0.031729 -1.160830 0.058838 -0.441250 0.000642 0.008372
    36 -0.963866 -2.785145 -0.085350 -0.526978 0.117202 0.219423
    37 0.028479 -1.403067 0.006271 -1.600774 0.000000 0.000000
    38 0.021413 -0.957781 0.020046 -1.315037 0.000000 0.000000
    39 1.164475 -2.543940 -0.170330 -1.221927 -0.015463 0.162804
    40 0.024032 -1.129042 0.017807 -1.512647 0.000000 0.000001
    41 0.014898 -0.883989 -0.019848 -0.378788 0.000000 0.000000
    42 -0.586770 -1.264477 0.200161 0.326456 -0.694116 -2.834291
    43 1.522835 0.058681 0.016848 0.001410 0.008985 1.061041
    44 1.117947 0.048424 -0.005766 -0.024907 -0.003817 1.474654
    45 -0.139399 -0.111698 0.014397 0.326501 0.088632 1.606227
    46 -2.666946 9.350911 -0.262871 1.580804 -0.005023 -1.416213
  time 1
    0 -0.349399 1.166145 0.203512 0.000000 0.000000 0.000000
    1 9.061555 -2.612171 -10.567912 -0.869369 -1.137255 0.555133
    2 -0.071918 -8.498730 -0.104136 0.222299 0.043125 -0.263509
    3 2.834877 -3.284037 0.535784 -3.053061 0.124698 -1.545787
    4 -0.937847 3.087766 -0.006773 0.000000 0.000000 1.745329
    5 0.000000 0.000000 -0.000001 0.000000 0.000000 0.000000
    6 9.280671 -0.119233 0.129653 0.013190 0.190174 -1.575995
    7 -9.188219 -0.620759 -9.421262 1.119018 1.844084 1.393711
    8 0.096945 -8.450418 -0.009363 0.117720 -0.333601 0.067974
    9 -2.961830 -3.210661 0.985425 -0.073896 0.213120 -1.439451
    10 35.231232 -1.170838 2.670981 0.017134 -0.145892 -1.609947
    11 -0.937847 3.087766 -0.010345 0.000000 0.000000 1.745330
    12 0.000000 0.000000 -0.000005 0.000000 0.000000 0.000000
    13 1.257180 8.762585 -0.153713 -1.570562 0.002683 -1.566807
    14 -0.488518 -2.755602 -0.228260 -0.647307 -0.134082 -0.416251
    15 0.039887 -1.479790 0.029854 -2.301996 0.000000 0.000001
    16 0.028786 -1.075731 -0.023109 -0.271941 0.000000 0.000000
    17 0.250027 -2.820665 -0.238396 -0.437374 -0.105209 -0.434549
    18 -0.049759 -1.680544 0.100479 -2.367108 0.000000 -0.000002
    19 -0.034142 -1.148312 0.084782 -0.535839 0.000000 0.000000
    20 0.957766 -2.746780 -0.090302 0.362703 -0.147176 -0.203865
    21 -0.033420 -1.397129 -0.011257 -1.115593 0.000000 -0.000001
    22 -0.022360 -0.957436 0.018784 -1.148778 0.000000 0.000000
    23 -1.180681 -2.507217 -0.193859 -0.393134 0.029677 -0.287744
    24 -0.024967 -1.123934 0.017597 -2.113280 0.000000 0.000001
    25 -0.020057 -0.890968 0.010090 -0.761958 0.000000 0.000000
    26 0.583510 -1.197277 0.185379 0.535783 -0.585068 -1.177524
    27 1.535927 0.010246 0.005009 -0.002964 -0.012979 -0.682290
    28 1.100771 0.004527 -0.010679 -0.016147 -0.001453 -1.484153
    29 0.120153 -0.050270 -0.054489 0.287569 3.110905 1.561085
    30 0.447953 -2.798986 -0.200443 -1.437466 0.114004 0.072885
    31 -0.032909 -1.480204 0.004940 -1.509334 0.000000 0.000002
    32 -0.027022 -1.076920 -0.020210 -0.468857 0.000000 0.000000
    33 -0.249534 -2.846964 -0.174213 -1.276464 0.102703 0.104139
    34 0.043235 -1.683941 0.096012 -1.748945 0.002823 -0.000167
    35 0.031729 -1.160830 0.058838 -0.441250 0.000642 0.008372
    36 -0.963866 -2.785145 -0.085350 -0.526978 0.117202 0.219423
    37 0.028479 -1.403067 0.006271 -1.600774 0.000000 0.000000
    38 0.021413 -0.957781 0.020046 -1.315037 0.000000 0.000000
    39 1.164475 -2.543940 -0.170330 -1.221927 -0.015463 0.162804
    40 0.024032 -1.129042 0.017807 -1.512647 0.000000 0.000001
    41 0.014898 -0.883989 -0.019848 -0.378788 0.000000 0.000000
    42 -0.586770 -1.264477 0.200161 0.326456 -0.694116 -2.834291
    43 1.522835 0.058681 0.016848 0.001410 0.008985 1.061041
    44 1.117947 0.048424 -0.005766 -0.024907 -0.003817 1.474654
    45 -0.139399 -0.111698 0.014397 0.326501 0.088632 1.606227
    46 -2.666946 9.350911 -0.262871 1.580804 -0.005023 -1.416213
  time 2
    0 -0.349399 1.166145 0.203512 0.000000 0.000000 0.000000
    1 9.069368 -2.561389 -10.556193 -0.871258 -1.138763 0.557079
    2 -0.071918 -8.498730 -0.104136 0.222141 0.050627 -0.260805
    3 2.834877 -3.284037 0.535784 -3.053061 0.124698 -1.545787
    4 -0.937847 3.087766 -0.006773 0.000000 0.000000 1.745329
    5 0.000000 0.000000 -0.000001 0.000000 0.000000 0.000000
    6 9.280671 -0.119233 0.129653 0.013190 0.190174 -1.575995
    7 -9.270253 -0.437159 -9.284539 0.989174 1.853362 1.258268
    8 0.096945 -8.450418 -0.009363 0.120440 -0.340517 0.062634
    9 -2.961830 -3.210661 0.985425 -0.073896 0.213120 -1.439451
    10 9.226532 0.012792 0.018556 0.017134 -0.145892 -1.609947
    11 -0.937847 3.087766 -0.010345 0.000000 0.000000 1.745330
    12 0.000000 0.000000 -0.000005 0.000000 0.000000 0.000000
    13 1.257180 8.762585 -0.153713 -1.570562 0.002683 -1.566807
    14 -0.488518 -2.755602 -0.228260 -0.647307 -0.134082 -0.416251
    15 0.039887 -1.479790 0.029854 -2.301996 0.000000 0.000001
    16 0.028786 -1.075731 -0.023109 -0.271941 0.000000 0.000000
    17 0.250027 -2.820665 -0.238396 -0.437374 -0.105209 -0.434549
    18 -0.049759 -1.680544 0.100479 -2.367108 0.000000 -0.000002
    19 -0.034142 -1.148312 0.084782 -0.535839 0.000000 0.000000
    20 0.957766 -2.746780 -0.090302 0.362703 -0.147176 -0.203865
    21 -0.033420 -1.397129 -0.011257 -1.115593 0.000000 -0.000001
    22 -0.022360 -0.957436 0.018784 -1.148778 0.000000 0.000000
    23 -1.180681 -2.507217 -0.193859 -0.393134 0.029677 -0.287744
    24 -0.024967 -1.123934 0.017597 -2.113280 0.000000 0.000001
    25 -0.020057 -0.890968 0.010090 -0.761958 0.000000 0.000000
    26 0.583510 -1.197277 0.185379 0.535783 -0.585068 -1.177524
    27 1.535927 0.010246 0.005009 -0.002964 -0.012979 -0.682290
    28 1.100771 0.004527 -0.010679 -0.016147 -0.001453 -1.484153
    29 0.120153 -0.050270 -0.054489 0.287569 3.110905 1.561085
    30 0.447953 -2.798986 -0.200443 -1.437466 0.114004 0.072885
    31 -0.032909 -1.480204 0.004940 -1.509334 0.000000 0.000002
    32 -0.027022 -1.076920 -0.020210 -0.468857 0.000000 0.000000
    33 -0.249534 -2.846964 -0.174213 -1.276464 0.102703 0.104139
    34 0.043235 -1.683941 0.096012 -1.748945 0.002823 -0.000167
    35 0.031729 -1.160830 0.058838 -0.441250 0.000642 0.008372
    36 -0.963866 -2.785145 -0.085350 -0.526978 0.117202 0.219423
    37 0.028479 -1.403067 0.006271 -1.600774 0.000000 0.000000
    38 0.021413 -0.957781 0.020046 -1.315037 0.000000 0.000000
    39 1.164475 -2.543940 -0.170330 -1.221927 -0.015463 0.162804
    40 0.024032 -1.129042 0.017807 -1.512647 0.000000 0.000001
    41 0.014898 -0.883989 -0.019848 -0.378788 0.000000 0.000000
    42 -0.586770 -1.264477 0.200161 0.326456 -0.694116 -2.834291
    43 1.522835 0.058681 0.016848 0.001410 0.008985 1.061041
    44 1.117947 0.048424 -0.005766 -0.024907 -0.003817 1.474654
    45 -0.139399 -0.111698 0.014397 0.326501 0.088632 1.606227
    46 -2.666946 9.350911 -0.262871 1.580804 -0.005023 -1.416213
  time 3
    0 -0.349399 1.166145 0.203512 0.000000 0.000000 0.000000
    1 9.077181 -2.518419 -10.548380 -0.873393 -1.140387 0.559364
    2 -0.071918 -8.498730 -0.104136 0.221957 0.057686 -0.258245
    3 2.834877 -3.284037 0.535784 -3.053061 0.124698 -1.545787
    4 -0.937847 3.087766 -0.006773 0.000000 0.000000 1.745329
    5 0.000000 0.000000 -0.000001 0.000000 0.000000 0.000000
    6 9.280671 -0.119233 0.129653 0.013190 0.190174 -1.575995
    7 -9.231189 -0.409815 -9.280633 0.985836 1.850383 1.254677
    8 0.096945 -8.450418 -0.009363 0.119971 -0.344514 0.071669
    9 -2.961830 -3.210661 0.985425 -0.073896 0.213120 -1.439451
    10 9.226532 0.012792 0.018556 0.017134 -0.145892 -1.609947
    11 -0.937847 3.087766 -0.010345 0.000000 0.000000 1.745330
    12 0.000000 0.000000 -0.000005 0.000000 0.000000 0.000000
    13 1.257180 8.762585 -0.153713 -1.570562 0.002683 -1.566807
    14 -0.488518 -2.755602 -0.228260 -0.647307 -0.134082 -0.416251
    15 0.039887 -1.479790 0.029854 -2.301996 0.000000 0.000001
    16 0.028786 -1.075731 -0.023109 -0.271941 0.000000 0.000000
    17 0.250027 -2.820665 -0.238396 -0.437374 -0.105209 -0.434549
    18 -0.049759 -1.680544 0.100479 -2.367108 0.000000 -0.000002
    19 -0.034142 -1.148312 0.084782 -0.535839 0.000000 0.000000
    20 0.957766 -2.746780 -0.090302 0.362703 -0.147176 -0.203865
    21 -0.033420 -1.397129 -0.011257 -1.115593 0.000000 -0.000001
    22 -0.022360 -0.957436 0.018784 -1.148778 0.000000 0.000000
    23 -1.180681 -2.507217 -0.193859 -0.393134 0.029677 -0.287744
    24 -0.024967 -1.123934 0.017597 -2.113280 0.000000 0.000001
    25 -0.020057 -0.890968 0.010090 -0.761958 0.000000 0.000000
    26 0.583510 -1.197277 0.185379 0.535783 -0.585068 -1.177524
    27 1.535927 0.010246 0.005009 -0.002964 -0.012979 -0.682290
    28 1.100771 0.004527 -0.010679 -0.016147 -0.001453 -1.484153
    29 0.120153 -0.050270 -0.054489 0.287569 3.110905 1.561085
    30 0.447953 -2.798986 -0.200443 -1.437466 0.114004 0.072885
    31 -0.032909 -1.480204 0.004940 -1.509334 0.000000 0.000002
    32 -0.027022 -1.076920 -0.020210 -0.468857 0.000000 0.000000
    33 -0.249534 -2.846964 -0.174213 -1.276464 0.102703 0.104139
    34 0.043235 -1.683941 0.096012 -1.748945 0.002823 -0.000167
    35 0.031729 -1.160830 0.058838 -0.441250 0.000642 0.008372
    36 -0.963866 -2.785145 -0.085350 -0.526978 0.117202 0.219423
    37 0.028479 -1.403067 0.006271 -1.600774 0.000000 0.000000
    38 0.021413 -0.957781 0.020046 -1.315037 0.000000 0.000000
    39 1.164475 -2.543940 -0.170330 -1.221927 -0.015463 0.162804
    40 0.024032 -1.129042 0.017807 -1.512647 0.000000 0.000001
    41 0.014898 -0.883989 -0.019848 -0.378788 0.000000 0.000000
    42 -0.586770 -1.264477 0.200161 0.326456 -0.694116 -2.834291
    43 1.522835 0.058681 0.016848 0.001410 0.008985 1.061041
    44 1.117947 0.048424 -0.005766 -0.024907 -0.003817 1.474654
    45 -0.139399 -0.111698 0.014397 0.326501 0.088632 1.606227
    46 -2.666946 9.350911 -0.262871 1.580804 -0.005023 -1.416213
  time 4
    0 -0.349399 1.166145 0.203512 0.000000 0.000000 0.000000
    1 9.084993 -2.475448 -10.536661 -0.875528 -1.141988 0.561648
    2 -0.071918 -8.498730 -0.104136 0.221852 0.062935 -0.256364
    3 2.834877 -3.284037 0.535784 -3.053061 0.124698 -1.545787
    4 -0.937847 3.087766 -0.006773 0.000000 0.000000 1.745329
    5 0.000000 0.000000 -0.000001 0.000000 0.000000 0.000000
    6 9.280671 -0.119233 0.129653 0.013190 0.190174 -1.575995
    7 -9.149155 -0.437159 -9.327509 1.024720 1.842495 1.295114
    8 0.096945 -8.450418 -0.009363 0.118264 -0.347090 0.085653
    9 -2.961830 -3.210661 0.985425 -0.073896 0.213120 -1.439451
    10 9.226532 0.012792 0.018556 0.017134 -0.145892 -1.609947
    11 -0.937847 3.087766 -0.010345 0.000000 0.000000 1.745330
    12 0.000000 0.000000 -0.000005 0.000000 0.000000 0.000000
    13 1.257180 8.762585 -0.153713 -1.570562 0.002683 -1.566807
    14 -0.488518 -2.755602 -0.228260 -0.647307 -0.134082 -0.416251
    15 0.039887 -1.479790 0.029854 -2.301996 0.000000 0.000001
    16 0.028786 -1.075731 -0.023109 -0.271941 0.000000 0.000000
    17 0.250027 -2.820665 -0.238396 -0.437374 -0.105209 -0.434549
    18 -0.049759 -1.680544 0.100479 -2.367108 0.000000 -0.000002
    19 -0.034142 -1.148312 0.084782 -0.535839 0.000000 0.000000
    20 0.957766 -2.746780 -0.090302 0.362703 -0.147176 -0.203865
    21 -0.033420 -1.397129 -0.011257 -1.115593 0.000000 -0.000001
    22 -0.022360 -0.957436 0.018784 -1.148778 0.000000 0.000000
    23 -1.180681 -2.507217 -0.193859 -0.393134 0.029677 -0.287744
    24 -0.024967 -1.123934 0.017597 -2.113280 0.000000 0.000001
    25 -0.020057 -0.890968 0.010090 -0.761958 0.000000 0.000000
    26 0.583510 -1.197277 0.185379 0.535783 -0.585068 -1.177524
    27 1.535927 0.010246 0.005009 -0.002964 -0.012979 -0.682290
    28 1.100771 0.004527 -0.010679 -0.016147 -0.001453 -1.484153
    29 0.120153 -0.050270 -0.054489 0.287569 3.110905 1.561085
    30 0.447953 -2.798986 -0.200443 -1.437466 0.114004 0.072885
    31 -0.032909 -1.480204 0.004940 -1.509334 0.000000 0.000002
    32 -0.027022 -1.076920 -0.020210 -0.468857 0.000000 0.000000
    33 -0.249534 -2.846964 -0.174213 -1.276464 0.102703 0.104139
    34 0.043235 -1.683941 0.096012 -1.748945 0.002823 -0.000167
    35 0.031729 -1.160830 0.058838 -0.441250 0.000642 0.008372
    36 -0.963866 -2.785145 -0.085350 -0.512433 0.117202 0.219423
    37 0.028479 -1.403067 0.006271 -1.586211 0.000000 0.000000
    38 0.021413 -0.957781 0.020046 -1.300506 0.000000 0.000000
    39 1.164475 -2.543940 -0.170330 -1.221927 -0.015463 0.162804
    40 0.024032 -1.129042 0.017807 -1.512647 0.000000 0.000001
    41 0.014898 -0.883989 -0.019848 -0.378788 0.000000 0.000000
    42 -0.586770 -1.264477 0.200161 0.326456 -0.694116 -2.834291
    43 1.522835 0.058681 0.016848 0.001410 0.008985 1.061041
    44 1.117947 0.048424 -0.005766 -0.024907 -0.003817 1.474654
    45 -0.139399 -0.111698 0.014397 0.326501 0.088632 1.606227
    46 -2.666946 9.350911 -0.262871 1.580804 -0.005023 -1.416213
  time 5
    0 -0.349399 1.166145 0.203512 0.000000 0.000000 0.000000
    1 9.092806 -2.436385 -10.528848 -0.877499 -1.143496 0.563763
    2 -0.071918 -8.498730 -0.104136 0.221878 0.065021 -0.255648
    3 2.834877 -3.284037 0.535784 -3.053061 0.124698 -1.545787
    4 -0.937847 3.087766 -0.006773 0.000000 0.000000 1.745329
    5 0.000000 0.000000 -0.000001 0.000000 0.000000 0.000000
    6 9.280671 -0.119233 0.129653 0.013190 0.190174 -1.575995
    7 -9.055402 -0.499661 -9.390011 1.076177 1.835033 1.348511
    8 0.096945 -8.450418 -0.009363 0.117027 -0.347702 0.094046
    9 -2.961830 -3.210661 0.985425 -0.073896 0.213120 -1.439451
    10 9.226532 0.012792 0.018556 0.017134 -0.145892 -1.609947
    11 -0.937847 3.087766 -0.010345 0.000000 0.000000 1.745330
    12 0.000000 0.000000 -0.000005 0.000000 0.000000 0.000000
    13 1.257180 8.762585 -0.153713 -1.570562 0.002683 -1.566807
    14 -0.488518 -2.755602 -0.228260 -0.647307 -0.134082 -0.416251
    15 0.039887 -1.479790 0.029854 -2.301996 0.000000 0.000001
    16 0.028786 -1.075731 -0.023109 -0.271941 0.000000 0.000000
    17 0.250027 -2.820665 -0.238396 -0.437374 -0.105209 -0.434549
    18 -0.049759 -1.680544 0.100479 -2.367108 0.000000 -0.000002
    19 -0.034142 -1.148312 0.084782 -0.535839 0.000000 0.000000
    20 0.957766 -2.746780 -0.090302 0.362703 -0.147176 -0.203865
    21 -0.033420 -1.397129 -0.011257 -1.115593 0.000000 -0.000001
    22 -0.022360 -0.957436 0.018784 -1.148778 0.000000 0.000000
    23 -1.180681 -2.507217 -0.193859 -0.393134 0.029677 -0.287744
    24 -0.024967 -1.123934 0.017597 -2.113280 0.000000 0.000001
    25 -0.020057 -0.890968 0.010090 -0.761958 0.000000 0.000000
    26 0.583510 -1.197277 0.185379 0.535783 -0.585068 -1.177524
    27 1.535927 0.010246 0.005009 -0.002964 -0.012979 -0.682290
    28 1.100771 0.004527 -0.010679 -0.016147 -0.001453 -1.484153
    29 0.120153 -0.050270 -0.054489 0.287569 3.110905 1.561085
    30 0.447953 -2.798986 -0.200443 -1.437466 0.114004 0.072885
    31 -0.032909 -1.480204 0.004940 -1.509334 0.000000 0.000002
    32 -0.027022 -1.076920 -0.020210 -0.468857 0.000000 0.000000
    33 -0.249534 -2.846964 -0.174213 -1.276464 0.102703 0.104139
    34 0.043235 -1.683941 0.096012 -1.748945 0.002823 -0.000167
    35 0.031729 -1.160830 0.058838 -0.441250 0.000642 0.008372
    36 -0.963866 -2.785145 -0.085350 -0.474879 0.117202 0.219423
    37 0.028479 -1.403067 0.006271 -1.548628 0.000000 0.000000
    38 0.021413 -0.957781 0.020046 -1.262953 0.000000 0.000000
    39 1.164475 -2.543940 -0.170330 -1.221927 -0.015463 0.162804
    40 0.024032 -1.129042 0.017807 -1.512647 0.000000 0.000001
    41 0.014898 -0.883989 -0.019848 -0.378788 0.000000 0.000000
    42 -0.586770 -1.264477 0.200161 0.326456 -0.694116 -2.834291
    43 1.522835 0.058681 0.016848 0.001410 0.008985 1.061041
    44 1.117947 0.048424 -0.005766 -0.024907 -0.003817 1.474654
    45 -0.139399 -0.111698 0.014397 0.326501 0.088632 1.606227
    46 -2.666946 9.350911 -0.262871 1.580804 -0.005023 -1.416213
  time 6
    0 -0.349399 1.166145 0.203512 0.000000 0.000000 0.000000
    1 9.100619 -2.405134 -10.521036 -0.878977 -1.144795 0.565286
    2 -0.071918 -8.498730 -0.104136 0.221983 0.063618 -0.256203
    3 2.834877 -3.284037 0.535784 -3.053061 0.124698 -1.545787
    4 -0.937847 3.087766 -0.006773 0.000000 0.000000 1.745329
    5 0.000000 0.000000 -0.000001 0.000000 0.000000 0.000000
    6 9.280671 -0.119233 0.129653 0.013190 0.190174 -1.575995
    7 -9.004620 -0.581695 -9.432981 1.104971 1.831997 1.378410
    8 0.096945 -8.450418 -0.009363 0.116656 -0.347054 0.095878
    9 -2.961830 -3.210661 0.985425 -0.073896 0.213120 -1.439451
    10 9.226532 0.012792 0.018556 0.017134 -0.145892 -1.609947
    11 -0.937847 3.087766 -0.010345 0.000000 0.000000 1.745330
    12 0.000000 0.000000 -0.000005 0.000000 0.000000 0.000000
    13 1.257180 8.762585 -0.153713 -1.570562 0.002683 -1.566807
    14 -0.488518 -2.755602 -0.228260 -0.647307 -0.134082 -0.416251
    15 0.039887 -1.479790 0.029854 -2.301996 0.000000 0.000001
    16 0.028786 -1.075731 -0.023109 -0.271941 0.000000 0.000000
    17 0.250027 -2.820665 -0.238396 -0.437374 -0.105209 -0.434549
    18 -0.049759 -1.680544 0.100479 -2.367108 0.000000 -0.000002
    19 -0.034142 -1.148312 0.084782 -0.535839 0.000000 0.000000
    20 0.957766 -2.746780 -0.090302 0.362703 -0.147176 -0.203865
    21 -0.033420 -1.397129 -0.011257 -1.115593 0.000000 -0.000001
    22 -0.022360 -0.957436 0.018784 -1.148778 0.000000 0.000000
    23 -1.180681 -2.507217 -0.193859 -0.393134 0.029677 -0.287744
    24 -0.024967 -1.123934 0.017597 -2.113280 0.000000 0.000001
    25 -0.020057 -0.890968 0.010090 -0.761958 0.000000 0.000000
    26 0.583510 -1.197277 0.185379 0.535783 -0.585068 -1.177524
    27 1.535927 0.010246 0.005009 -0.002964 -0.012979 -0.682290
    28 1.100771 0.004527 -0.010679 -0.016147 -0.001453 -1.484153
    29 0.120153 -0.050270 -0.054489 0.287569 3.110905 1.561085
    30 0.447953 -2.798986 -0.200443 -1.437466 0.114004 0.072885
    31 -0.032909 -1.480204 0.004940 -1.509334 0.000000 0.000002
    32 -0.027022 -1.076920 -0.020210 -0.468857 0.000000 0.000000
    33 -0.249534 -2.846964 -0.174213 -1.276464 0.102703 0.104139
    34 0.043235 -1.683941 0.096012 -1.748945 0.002823 -0.000167
    35 0.031729 -1.160830 0.058838 -0.441250 0.000642 0.008372
    36 -0.963866 -2.785145 -0.085350 -0.423525 0.117202 0.219423
    37 0.028479 -1.403067 0.006271 -1.497283 0.000000 0.000000
    38 0.021413 -0.957781 0.020046 -1.211593 0.000000 0.000000
    39 1.164475 -2.543940 -0.170330 -1.221927 -0.015463 0.162804
    40 0.024032 -1.129042 0.017807 -1.512647 0.000000 0.000001
    41 0.014898 -0.883989 -0.019848 -0.378788 0.000000 0.000000
    42 -0.586770 -1.264477 0.200161 0.326456 -0.694116 -2.834291
    43 1.522835 0.058681 0.016848 0.001410 0.008985 1.061041
    44 1.117947 0.048424 -0.005766 -0.024907 -0.003817 1.474654
    45 -0.139399 -0.111698 0.014397 0.326501 0.088632 1.606227
    46 -2.666946 9.350911 -0.262871 1.580804 -0.005023 -1.416213
  time 7
    0 -0.349399 1.166145 0.203512 0.000000 0.000000 0.000000
    1 9.108432 -2.381696 -10.517129 -0.879798 -1.145770 0.566047
    2 -0.071918 -8.498730 -0.104136 0.222194 0.059915 -0.257618
    3 2.834877 -3.284037 0.535784 -3.053061 0.124698 -1.545787
    4 -0.937847 3.087766 -0.006773 0.000000 0.000000 1.745329
    5 0.000000 0.000000 -0.000001 0.000000 0.000000 0.000000
    6 9.280671 -0.119233 0.129653 0.013190 0.190174 -1.575995
    7 -8.988994 -0.675448 -9.452513 1.106368 1.832820 1.379893
    8 0.096945 -8.450418 -0.009363 0.116286 -0.346243 0.097319
    9 -2.961830 -3.210661 0.985425 -0.073896 0.213120 -1.439451
    10 9.226532 0.012792 0.018556 0.017134 -0.145892 -1.609947
    11 -0.937847 3.087766 -0.010345 0.000000 0.000000 1.745330
    12 0.000000 0.000000 -0.000005 0.000000 0.000000 0.000000
    13 1.257180 8.762585 -0.153713 -1.570562 0.002683 -1.566807
    14 -0.488518 -2.755602 -0.228260 -0.647307 -0.134082 -0.416251
    15 0.039887 -1.479790 0.029854 -2.301996 0.000000 0.000001
    16 0.028786 -1.075731 -0.023109 -0.271941 0.000000 0.000000
    17 0.250027 -2.820665 -0.238396 -0.437374 -0.105209 -0.434549
    18 -0.049759 -1.680544 0.100479 -2.367108 0.000000 -0.000002
    19 -0.034142 -1.148312 0.084782 -0.535839 0.000000 0.000000
    20 0.957766 -2.746780 -0.090302 0.362703 -0.147176 -0.203865
    21 -0.033420 -1.397129 -0.011257 -1.115593 0.000000 -0.000001
    22 -0.022360 -0.957436 0.018784 -1.148778 0.000000 0.000000
    23 -1.180681 -2.507217 -0.193859 -0.393134 0.029677 -0.287744
    24 -0.024967 -1.123934 0.017597 -2.113280 0.000000 0.000001
    25 -0.020057 -0.890968 0.010090 -0.761958 0.000000 0.000000
    26 0.583510 -1.197277 0.185379 0.535783 -0.585068 -1.177524
    27 1.535927 0.010246 0.005009 -0.002964 -0.012979 -0.682290
    28 1.100771 0.004527 -0.010679 -0.016147 -0.001453 -1.484153
    29 0.120153 -0.050270 -0.054489 0.287569 3.110905 1.561085
    30 0.447953 -2.798986 -0.200443 -1.437466 0.114004 0.072885
    31 -0.032909 -1.480204 0.004940 -1.509334 0.000000 0.000002
    32 -0.027022 -1.076920 -0.020210 -0.468857 0.000000 0.000000
    33 -0.249534 -2.846964 -0.174213 -1.276464 0.102703 0.104139
    34 0.043235 -1.683941 0.096012 -1.748945 0.002823 -0.000167
    35 0.031729 -1.160830 0.058838 -0.441250 0.000642 0.008372
    36 -0.963866 -2.785145 -0.085350 -0.367583 0.117202 0.219423
    37 0.028479 -1.403067 0.006271 -1.441334 0.000000 0.000000
    38 0.021413 -0.957781 0.020046 -1.155645 0.000000 0.000000
    39 1.164475 -2.543940 -0.170330 -1.221927 -0.015463 0.162804
    40 0.024032 -1.129042 0.017807 -1.512647 0.000000 0.000001
    41 0.014898 -0.883989 -0.019848 -0.378788 0.000000 0.000000
    42 -0.586770 -1.264477 0.200161 0.326456 -0.694116 -2.834291
    43 1.522835 0.058681 0.016848 0.001410 0.008985 1.061041
    44 1.117947 0.048424 -0.005766 -0.024907 -0.003817 1.474654
    45 -0.139399 -0.111698 0.014397 0.326501 0.088632 1.606227
    46 -2.666946 9.350911 -0.262871 1.580804 -0.005023 -1.416213
  time 8
    0 -0.349399 1.166145 0.203512 0.000000 0.000000 0.000000
    1 9.116244 -2.369977 -10.513223 -0.879634 -1.146373 0.565794
    2 -0.071918 -8.498730 -0.104136 0.222431 0.054786 -0.259552
    3 2.834877 -3.284037 0.535784 -3.053061 0.124698 -1.545787
    4 -0.937847 3.087766 -0.006773 0.000000 0.000000 1.745329
    5 0.000000 0.000000 -0.000001 0.000000 0.000000 0.000000
    6 9.280671 -0.119233 0.129653 0.013190 0.190174 -1.575995
    7 -8.981181 -0.788732 -9.472045 1.102177 1.834721 1.375678
    8 0.096945 -8.450418 -0.009363 0.115964 -0.345253 0.098415
    9 -2.961830 -3.210661 0.985425 -0.073896 0.213120 -1.439451
    10 9.226532 0.012792 0.018556 0.017134 -0.145892 -1.609947
    11 -0.937847 3.087766 -0.010345 0.000000 0.000000 1.745330
    12 0.000000 0.000000 -0.000005 0.000000 0.000000 0.000000
    13 1.257180 8.762585 -0.153713 -1.570562 0.002683 -1.566807
    14 -0.488518 -2.755602 -0.228260 -0.647307 -0.134082 -0.416251
    15 0.039887 -1.479790 0.029854 -2.301996 0.000000 0.000001
    16 0.028786 -1.075731 -0.023109 -0.271941 0.000000 0.000000
    17 0.250027 -2.820665 -0.238396 -0.437374 -0.105209 -0.434549
    18 -0.049759 -1.680544 0.100479 -2.367108 0.000000 -0.000002
    19 -0.034142 -1.148312 0.084782 -0.535839 0.000000 0.000000
    20 0.957766 -2.746780 -0.090302 0.362703 -0.147176 -0.203865
    21 -0.033420 -1.397129 -0.011257 -1.115593 0.000000 -0.000001
    22 -0.022360 -0.957436 0.018784 -1.148778 0.000000 0.000000
    23 -1.180681 -2.507217 -0.193859 -0.393134 0.029677 -0.287744
    24 -0.024967 -1.123934 0.017597 -2.113280 0.000000 0.000001
    25 -0.020057 -0.890968 0.010090 -0.761958 0.000000 0.000000
    26 0.583510 -1.197277 0.185379 0.535783 -0.585068 -1.177524
    27 1.535927 0.010246 0.005009 -0.002964 -0.012979 -0.682290
    28 1.100771 0.004527 -0.010679 -0.016147 -0.001453 -1.484153
    29 0.120153 -0.050270 -0.054489 0.287569 3.110905 1.561085
    30 0.447953 -2.798986 -0.200443 -1.437466 0.114004 0.072885
    31 -0.032909 -1.480204 0.004940 -1.509334 0.000000 0.000002
    32 -0.027022 -1.076920 -0.020210 -0.468857 0.000000 0.000000
    33 -0.249534 -2.846964 -0.174213 -1.276464 0.102703 0.104139
    34 0.043235 -1.683941 0.096012 -1.748945 0.002823 -0.000167
    35 0.031729 -1.160830 0.058838 -0.441250 0.000642 0.008372
    36 -0.963866 -2.785145 -0.085350 -0.316230 0.117202 0.219423
    37 0.028479 -1.403067 0.006271 -1.389989 0.000000 0.000000
    38 0.021413 -0.957781 0.020046 -1.104285 0.000000 0.000000
    39 1.164475 -2.543940 -0.170330 -1.221927 -0.015463 0.162804
    40 0.024032 -1.129042 0.017807 -1.512647 0.000000 0.000001
    41 0.014898 -0.883989 -0.019848 -0.378788 0.000000 0.000000
    42 -0.586770 -1.264477 0.200161 0.326456 -0.694116 -2.834291
    43 1.522835 0.058681 0.016848 0.001410 0.008985 1.061041
    44 1.117947 0.048424 -0.005766 -0.024907 -0.003817 1.474654
    45 -0.139399 -0.111698 0.014397 0.326501 0.088632 1.606227
    46 -2.666946 9.350911 -0.262871 1.580804 -0.005023 -1.416213
  time 9
    0 -0.349399 1.166145 0.203512 0.000000 0.000000 0.000000
    1 9.124057 -2.362164 -10.517129 -0.878320 -1.146442 0.564271
    2 -0.071918 -8.498730 -0.104136 0.222720 0.049057 -0.261718
    3 2.834877 -3.284037 0.535784 -3.053061 0.124698 -1.545787
    4 -0.937847 3.087766 -0.006773 0.000000 0.000000 1.745329
    5 0.000000 0.000000 -0.000001 0.000000 0.000000 0.000000
    6 9.280671 -0.119233 0.129653 0.013190 0.190174 -1.575995
    7 -8.977275 -0.913736 -9.487671 1.094105 1.837416 1.367325
    8 0.096945 -8.450418 -0.009363 0.115667 -0.344154 0.099198
    9 -2.961830 -3.210661 0.985425 -0.073896 0.213120 -1.439451
    10 9.226532 0.012792 0.018556 0.017134 -0.145892 -1.609947
    11 -0.937847 3.087766 -0.010345 0.000000 0.000000 1.745330
    12 0.000000 0.000000 -0.000005 0.000000 0.000000 0.000000
    13 1.257180 8.762585 -0.153713 -1.570562 0.002683 -1.566807
    14 -0.488518 -2.755602 -0.228260 -0.647307 -0.134082 -0.416251
    15 0.039887 -1.479790 0.029854 -2.301996 0.000000 0.000001
    16 0.028786 -1.075731 -0.023109 -0.271941 0.000000 0.000000
    17 0.250027 -2.820665 -0.238396 -0.437374 -0.105209 -0.434549
    18 -0.049759 -1.680544 0.100479 -2.367108 0.000000 -0.000002
    19 -0.034142 -1.148312 0.084782 -0.535839 0.000000 0.000000
    20 0.957766 -2.746780 -0.090302 0.362703 -0.147176 -0.203865
    21 -0.033420 -1.397129 -0.011257 -1.115593 0.000000 -0.000001
    22 -0.022360 -0.957436 0.018784 -1.148778 0.000000 0.000000
    23 -1.180681 -2.507217 -0.193859 -0.393134 0.029677 -0.287744
    24 -0.024967 -1.123934 0.017597 -2.113280 0.000000 0.000001
    25 -0.020057 -0.890968 0.010090 -0.761958 0.000000 0.000000
    26 0.583510 -1.197277 0.185379 0.535783 -0.585068 -1.177524
    27 1.535927 0.010246 0.005009 -0.002964 -0.012979 -0.682290
    28 1.100771 0.004527 -0.010679 -0.016147 -0.001453 -1.484153
    29 0.120153 -0.050270 -0.054489 0.287569 3.110905 1.561085
    30 0.447953 -2.798986 -0.200443 -1.437466 0.114004 0.072885
    31 -0.032909 -1.480204 0.004940 -1.509334 0.000000 0.000002
    32 -0.027022 -1.076920 -0.020210 -0.468857 0.000000 0.000000
    33 -0.249534 -2.846964 -0.174213 -1.276464 0.102703 0.104139
    34 0.043235 -1.683941 0.096012 -1.748945 0.002823 -0.000167
    35 0.031729 -1.160830 0.058838 -0.441250 0.000642 0.008372
    36 -0.963866 -2.785145 -0.085350 -0.278675 0.117202 0.219423
    37 0.028479 -1.403067 0.006271 -1.352456 0.000000 0.000000
    38 0.021413 -0.957781 0.020046 -1.066731 0.000000 0.000000
    39 1.164475 -2.543940 -0.170330 -1.221927 -0.015463 0.162804
    40 0.024032 -1.129042 0.017807 -1.512647 0.000000 0.000001
    41 0.014898 -0.883989 -0.019848 -0.378788 0.000000 0.000000
    42 -0.586770 -1.264477 0.200161 0.326456 -0.694116 -2.834291
    43 1.522835 0.058681 0.016848 0.001410 0.008985 1.061041
    44 1.117947 0.048424 -0.005766 -0.024907 -0.003817 1.474654
    45 -0.139399 -0.111698 0.014397 0.326501 0.088632 1.606227
    46 -2.666946 9.350911 -0.262871 1.580804 -0.005023 -1.416213
  time 10
    0 -0.349399 1.166145 0.203512 0.000000 0.000000 0.000000
    1 9.135776 -2.373883 -10.521036 -0.875281 -1.145816 0.560802
    2 -0.071918 -8.498730 -0.104136 0.223010 0.043616 -0.263759
    3 2.834877 -3.284037 0.535784 -3.053061 0.124698 -1.545787
    4 -0.937847 3.087766 -0.006773 0.000000 0.000000 1.745329
    5 0.000000 0.000000 -0.000001 0.000000 0.000000 0.000000
    6 9.280671 -0.119233 0.129653 0.013190 0.190174 -1.575995
    7 -8.981181 -1.042646 -9.503296 1.083705 1.840651 1.356552
    8 0.096945 -8.450418 -0.009363 0.115395 -0.342948 0.099715
    9 -2.961830 -3.210661 0.985425 -0.073896 0.213120 -1.439451
    10 9.226532 0.012792 0.018556 0.017134 -0.145892 -1.609947
    11 -0.937847 3.087766 -0.010345 0.000000 0.000000 1.745330
    12 0.000000 0.000000 -0.000005 0.000000 0.000000 0.000000
    13 1.257180 8.762585 -0.153713 -1.570562 0.002683 -1.566807
    14 -0.488518 -2.755602 -0.228260 -0.647307 -0.134082 -0.416251
    15 0.039887 -1.479790 0.029854 -2.301996 0.000000 0.000001
    16 0.028786 -1.075731 -0.023109 -0.271941 0.000000 0.000000
    17 0.250027 -2.820665 -0.238396 -0.437374 -0.105209 -0.434549
    18 -0.049759 -1.680544 0.100479 -2.367108 0.000000 -0.000002
    19 -0.034142 -1.148312 0.084782 -0.535839 0.000000 0.000000
    20 0.957766 -2.746780 -0.090302 0.362703 -0.147176 -0.203865
    21 -0.033420 -1.397129 -0.011257 -1.115593 0.000000 -0.000001
    22 -0.022360 -0.957436 0.018784 -1.148778 0.000000 0.000000
    23 -1.180681 -2.507217 -0.193859 -0.393134 0.029677 -0.287744
    24 -0.024967 -1.123934 0.017597 -2.113280 0.000000 0.000001
    25 -0.020057 -0.890968 0.010090 -0.761958 0.000000 0.000000
    26 0.583510 -1.197277 0.185379 0.535783 -0.585068 -1.177524
    27 1.535927 0.010246 0.005009 -0.002964 -0.012979 -0.682290
    28 1.100771 0.004527 -0.010679 -0.016147 -0.001453 -1.484153
    29 0.120153 -0.050270 -0.054489 0.287569 3.110905 1.561085
    30 0.447953 -2.798986 -0.200443 -1.437466 0.114004 0.072885
    31 -0.032909 -1.480204 0.004940 -1.509334 0.000000 0.000002
    32 -0.027022 -1.076920 -0.020210 -0.468857 0.000000 0.000000
    33 -0.249534 -2.846964 -0.174213 -1.276464 0.102703 0.104139
    34 0.043235 -1.683941 0.096012 -1.748945 0.002823 -0.000167
    35 0.031729 -1.160830 0.058838 -0.441250 0.000642 0.008372
    36 -0.963866 -2.785145 -0.085350 -0.264114 0.117202 0.219423
    37 0.028479 -1.403067 0.006271 -1.337894 0.000000 0.000000
    38 0.021413 -0.957781 0.020046 -1.052201 0.000000 0.000000
    39 1.164475 -2.543940 -0.170330 -1.221927 -0.015463 0.162804
    40 0.024032 -1.129042 0.017807 -1.512647 0.000000 0.000001
    41 0.014898 -0.883989 -0.019848 -0.378788 0.000000 0.000000
    42 -0.586770 -1.264477 0.200161 0.326456 -0.694116 -2.834291
    43 1.522835 0.058681 0.016848 0.001410 0.008985 1.061041
    44 1.117947 0.048424 -0.005766 -0.024907 -0.003817 1.474654
    45 -0.139399 -0.111698 0.014397 0.326501 0.088632 1.606227
    46 -2.666946 9.350911 -0.262871 1.580804 -0.005023 -1.416213
  time 11
    0 -0.349399 1.166145 0.203512 0.000000 0.000000 0.000000
    1 9.147495 -2.397321 -10.532755 -0.870437 -1.144517 0.555303
    2 -0.071918 -8.498730 -0.104136 0.223246 0.039326 -0.265406
    3 2.834877 -3.284037 0.535784 -3.053061 0.124698 -1.545787
    4 -0.937847 3.087766 -0.006773 0.000000 0.000000 1.745329
    5 0.000000 0.000000 -0.000001 0.000000 0.000000 0.000000
    6 9.280671 -0.119233 0.129653 0.013190 0.190174 -1.575995
    7 -8.985088 -1.167650 -9.518921 1.072529 1.844141 1.344998
    8 0.096945 -8.450418 -0.009363 0.115123 -0.341651 0.099997
    9 -2.961830 -3.210661 0.985425 -0.073896 0.213120 -1.439451
    10 9.226532 0.012792 0.018556 0.017134 -0.145892 -1.609947
    11 -0.937847 3.087766 -0.010345 0.000000 0.000000 1.745330
    12 0.000000 0.000000 -0.000005 0.000000 0.000000 0.000000
    13 1.257180 8.762585 -0.153713 -1.570562 0.002683 -1.566807
    14 -0.488518 -2.755602 -0.228260 -0.647307 -0.134082 -0.416251
    15 0.039887 -1.479790 0.029854 -2.301996 0.000000 0.000001
    16 0.028786 -1.075731 -0.023109 -0.271941 0.000000 0.000000
    17 0.250027 -2.820665 -0.238396 -0.437374 -0.105209 -0.434549
    18 -0.049759 -1.680544 0.100479 -2.367108 0.000000 -0.000002
    19 -0.034142 -1.148312 0.084782 -0.535839 0.000000 0.000000
    20 0.957766 -2.746780 -0.090302 0.362703 -0.147176 -0.203865
    21 -0.033420 -1.397129 -0.011257 -1.115593 0.000000 -0.000001
    22 -0.022360 -0.957436 0.018784 -1.148778 0.000000 0.000000
    23 -1.180681 -2.507217 -0.193859 -0.393134 0.029677 -0.287744
    24 -0.024967 -1.123934 0.017597 -2.113280 0.000000 0.000001
    25 -0.020057 -0.890968 0.010090 -0.761958 0.000000 0.000000
    26 0.583510 -1.197277 0.185379 0.535783 -0.585068 -1.177524
    27 1.535927 0.010246 0.005009 -0.002964 -0.012979 -0.682290
    28 1.100771 0.004527 -0.010679 -0.016147 -0.001453 -1.484153
    29 0.120153 -0.050270 -0.054489 0.287569 3.110905 1.561085
    30 0.447953 -2.798986 -0.200443 -1.437466 0.114004 0.072885
    31 -0.032909 -1.480204 0.004940 -1.509334 0.000000 0.000002
    32 -0.027022 -1.076920 -0.020210 -0.468857 0.000000 0.000000
    33 -0.249534 -2.846964 -0.174213 -1.276464 0.102703 0.104139
    34 0.043235 -1.683941 0.096012 -1.748945 0.002823 -0.000167
    35 0.031729 -1.160830 0.058838 -0.441250 0.000642 0.008372
    36 -0.963866 -2.785145 -0.085350 -0.264114 0.117202 0.219423
    37 0.028479 -1.403067 0.006271 -1.337894 0.000000 0.000000
    38 0.021413 -0.957781 0.020046 -1.052201 0.000000 0.000000
    39 1.164475 -2.543940 -0.170330 -1.221927 -0.015463 0.162804
    40 0.024032 -1.129042 0.017807 -1.512647 0.000000 0.000001
    41 0.014898 -0.883989 -0.019848 -0.378788 0.000000 0.000000
    42 -0.586770 -1.264477 0.200161 0.326456 -0.694116 -2.834291
    43 1.522835 0.058681 0.016848 0.001410 0.008985 1.061041
    44 1.117947 0.048424 -0.005766 -0.024907 -0.003817 1.474654
    45 -0.139399 -0.111698 0.014397 0.326501 0.088632 1.606227
    46 -2.666946 9.350911 -0.262871 1.580804 -0.005023 -1.416213
  time 12
    0 -0.349399 1.166145 0.203512 0.000000 0.000000 0.000000
    1 9.159214 -2.432478 -10.544474 -0.864442 -1.142707 0.548365
    2 -0.071918 -8.498730 -0.104136 0.223431 0.037037 -0.266302
    3 2.834877 -3.284037 0.535784 -3.053061 0.124698 -1.545787
    4 -0.937847 3.087766 -0.006773 0.000000 0.000000 1.745329
    5 0.000000 0.000000 -0.000001 0.000000 0.000000 0.000000
    6 9.280671 -0.119233 0.129653 0.013190 0.190174 -1.575995
    7 -8.992900 -1.284841 -9.530641 1.061818 1.847602 1.333913
    8 0.096945 -8.450418 -0.009363 0.114876 -0.340319 0.100106
    9 -2.961830 -3.210661 0.985425 -0.073896 0.213120 -1.439451
    10 9.226532 0.012792 0.018556 0.017134 -0.145892 -1.609947
    11 -0.937847 3.087766 -0.010345 0.000000 0.000000 1.745330
    12 0.000000 0.000000 -0.000005 0.000000 0.000000 0.000000
    13 1.257180 8.762585 -0.153713 -1.570562 0.002683 -1.566807
    14 -0.488518 -2.755602 -0.228260 -0.647307 -0.134082 -0.416251
    15 0.039887 -1.479790 0.029854 -2.301996 0.000000 0.000001
    16 0.028786 -1.075731 -0.023109 -0.271941 0.000000 0.000000
    17 0.250027 -2.820665 -0.238396 -0.437374 -0.105209 -0.434549
    18 -0.049759 -1.680544 0.100479 -2.367108 0.000000 -0.000002
    19 -0.034142 -1.148312 0.084782 -0.535839 0.000000 0.000000
    20 0.957766 -2.746780 -0.090302 0.362703 -0.147176 -0.203865
    21 -0.033420 -1.397129 -0.011257 -1.115593 0.000000 -0.000001
    22 -0.022360 -0.957436 0.018784 -1.148778 0.000000 0.000000
    23 -1.180681 -2.507217 -0.193859 -0.393134 0.029677 -0.287744
    24 -0.024967 -1.123934 0.017597 -2.113280 0.000000 0.000001
    25 -0.020057 -0.890968 0.010090 -0.761958 0.000000 0.000000
    26 0.583510 -1.197277 0.185379 0.535783 -0.585068 -1.177524
    27 1.535927 0.010246 0.005009 -0.002964 -0.012979 -0.682290
    28 1.100771 0.004527 -0.010679 -0.016147 -0.001453 -1.484153
    29 0.120153 -0.050270 -0.054489 0.287569 3.110905 1.561085
    30 0.447953 -2.798986 -0.200443 -1.437466 0.114004 0.072885
    31 -0.032909 -1.480204 0.004940 -1.509334 0.000000 0.000002
    32 -0.027022 -1.076920 -0.020210 -0.468857 0.000000 0.000000
    33 -0.249534 -2.846964 -0.174213 -1.276464 0.102703 0.104139
    34 0.043235 -1.683941 0.096012 -1.748945 0.002823 -0.000167
    35 0.031729 -1.160830 0.058838 -0.441250 0.000642 0.008372
    36 -0.963866 -2.785145 -0.085350 -0.264114 0.117202 0.219423
    37 0.028479 -1.403067 0.006271 -1.337894 0.000000 0.000000
    38 0.021413 -0.957781 0.020046 -1.052201 0.000000 0.000000
    39 1.164475 -2.543940 -0.170330 -1.221927 -0.015463 0.162804
    40 0.024032 -1.129042 0.017807 -1.512647 0.000000 0.000001
    41 0.014898 -0.883989 -0.019848 -0.378788 0.000000 0.000000
    42 -0.586770 -1.264477 0.200161 0.326456 -0.694116 -2.834291
    43 1.522835 0.058681 0.016848 0.001410 0.008985 1.061041
    44 1.117947 0.048424 -0.005766 -0.024907 -0.003817 1.474654
    45 -0.139399 -0.111698 0.014397 0.326501 0.088632 1.606227
    46 -2.666946 9.350911 -0.262871 1.580804 -0.005023 -1.416213
  time 13
    0 -0.349399 1.166145 0.203512 0.000000 0.000000 0.000000
    1 9.170934 -2.475448 -10.564006 -0.857791 -1.140572 0.540835
    2 -0.071918 -8.498730 -0.104136 0.223562 0.036677 -0.266499
    3 2.834877 -3.284037 0.535784 -3.053061 0.124698 -1.545787
    4 -0.937847 3.087766 -0.006773 0.000000 0.000000 1.745329
    5 0.000000 0.000000 -0.000001 0.000000 0.000000 0.000000
    6 9.280671 -0.119233 0.129653 0.013190 0.190174 -1.575995
    7 -9.000713 -1.386407 -9.542360 1.053048 1.850723 1.324779
    8 0.096945 -8.450418 -0.009363 0.114653 -0.338950 0.100075
    9 -2.961830 -3.210661 0.985425 -0.073896 0.213120 -1.439451
    10 9.226532 0.012792 0.018556 0.017134 -0.145892 -1.609947
    11 -0.937847 3.087766 -0.010345 0.000000 0.000000 1.745330
    12 0.000000 0.000000 -0.000005 0.000000 0.000000 0.000000
    13 1.257180 8.762585 -0.153713 -1.570562 0.002683 -1.566807
    14 -0.488518 -2.755602 -0.228260 -0.647307 -0.134082 -0.416251
    15 0.039887 -1.479790 0.029854 -2.301996 0.000000 0.000001
    16 0.028786 -1.075731 -0.023109 -0.271941 0.000000 0.000000
    17 0.250027 -2.820665 -0.238396 -0.437374 -0.105209 -0.434549
    18 -0.049759 -1.680544 0.100479 -2.367108 0.000000 -0.000002
    19 -0.034142 -1.148312 0.084782 -0.535839 0.000000 0.000000
    20 0.957766 -2.746780 -0.090302 0.362703 -0.147176 -0.203865
    21 -0.033420 -1.397129 -0.011257 -1.115593 0.000000 -0.000001
    22 -0.022360 -0.957436 0.018784 -1.148778 0.000000 0.000000
    23 -1.180681 -2.507217 -0.193859 -0.393134 0.029677 -0.287744
    24 -0.024967 -1.123934 0.017597 -2.113280 0.000000 0.000001
    25 -0.020057 -0.890968 0.010090 -0.761958 0.000000 0.000000
    26 0.583510 -1.197277 0.185379 0.535783 -0.585068 -1.177524
    27 1.535927 0.010246 0.005009 -0.002964 -0.012979 -0.682290
    28 1.100771 0.004527 -0.010679 -0.016147 -0.001453 -1.484153
    29 0.120153 -0.050270 -0.054489 0.287569 3.110905 1.561085
    30 0.447953 -2.798986 -0.200443 -1.437466 0.114004 0.072885
    31 -0.032909 -1.480204 0.004940 -1.509334 0.000000 0.000002
    32 -0.027022 -1.076920 -0.020210 -0.468857 0.000000 0.000000
    33 -0.249534 -2.846964 -0.174213 -1.276464 0.102703 0.104139
    34 0.043235 -1.683941 0.096012 -1.748945 0.002823 -0.000167
    35 0.031729 -1.160830 0.058838 -0.441250 0.000642 0.008372
    36 -0.963866 -2.785145 -0.085350 -0.264114 0.117202 0.219423
    37 0.028479 -1.403067 0.006271 -1.337894 0.000000 0.000000
    38 0.021413 -0.957781 0.020046 -1.052201 0.000000 0.000000
    39 1.164475 -2.543940 -0.170330 -1.221927 -0.015463 0.162804
    40 0.024032 -1.129042 0.017807 -1.512647 0.000000 0.000001
    41 0.014898 -0.883989 -0.019848 -0.378788 0.000000 0.000000
    42 -0.586770 -1.264477 0.200161 0.326456 -0.694116 -2.834291
    43 1.522835 0.058681 0.016848 0.001410 0.008985 1.061041
    44 1.117947 0.048424 -0.005766 -0.024907 -0.003817 1.474654
    45 -0.139399 -0.111698 0.014397 0.326501 0.088632 1.606227
    46 -2.666946 9.350911 -0.262871 1.580804 -0.005023 -1.416213
  time 14
    0 -0.349399 1.166145 0.203512 0.000000 0.000000 0.000000
    1 9.182653 -2.518419 -10.579631 -0.851058 -1.138299 0.533220
    2 -0.071918 -8.498730 -0.104136 0.223641 0.037420 -0.266320
    3 2.834877 -3.284037 0.535784 -3.053061 0.124698 -1.545787
    4 -0.937847 3.087766 -0.006773 0.000000 0.000000 1.745329
    5 0.000000 0.000000 -0.000001 0.000000 0.000000 0.000000
    6 9.280671 -0.119233 0.129653 0.013190 0.190174 -1.575995
    7 -9.004620 -1.464534 -9.554079 1.047305 1.853220 1.318846
    8 0.096945 -8.450418 -0.009363 0.114455 -0.337581 0.099934
    9 -2.961830 -3.210661 0.985425 -0.073896 0.213120 -1.439451
    10 9.226532 0.012792 0.018556 0.017134 -0.145892 -1.609947
    11 -0.937847 3.087766 -0.010345 0.000000 0.000000 1.745330
    12 0.000000 0.000000 -0.000005 0.000000 0.000000 0.000000
    13 1.257180 8.762585 -0.153713 -1.570562 0.002683 -1.566807
    14 -0.488518 -2.755602 -0.228260 -0.647307 -0.134082 -0.416251
    15 0.039887 -1.479790 0.029854 -2.301996 0.000000 0.000001
    16 0.028786 -1.075731 -0.023109 -0.271941 0.000000 0.000000
    17 0.250027 -2.820665 -0.238396 -0.437374 -0.105209 -0.434549
    18 -0.049759 -1.680544 0.100479 -2.367108 0.000000 -0.000002
    19 -0.034142 -1.148312 0.084782 -0.535839 0.000000 0.000000
    20 0.957766 -2.746780 -0.090302 0.362703 -0.147176 -0.203865
    21 -0.033420 -1.397129 -0.011257 -1.115593 0.000000 -0.000001
    22 -0.022360 -0.957436 0.018784 -1.148778 0.000000 0.000000
    23 -1.180681 -2.507217 -0.193859 -0.393134 0.029677 -0.287744
    24 -0.024967 -1.123934 0.017597 -2.113280 0.000000 0.000001
    25 -0.020057 -0.890968 0.010090 -0.761958 0.000000 0.000000
    26 0.583510 -1.197277 0.185379 0.535783 -0.585068 -1.177524
    27 1.535927 0.010246 0.005009 -0.002964 -0.012979 -0.682290
    28 1.100771 0.004527 -0.010679 -0.016147 -0.001453 -1.484153
    29 0.120153 -0.050270 -0.054489 0.287569 3.110905 1.561085
    30 0.447953 -2.798986 -0.200443 -1.437466 0.114004 0.072885
    31 -0.032909 -1.480204 0.004940 -1.509334 0.000000 0.000002
    32 -0.027022 -1.076920 -0.020210 -0.468857 0.000000 0.000000
    33 -0.249534 -2.846964 -0.174213 -1.276464 0.102703 0.104139
    34 0.043235 -1.683941 0.096012 -1.748945 0.002823 -0.000167
    35 0.031729 -1.160830 0.058838 -0.441250 0.000642 0.008372
    36 -0.963866 -2.785145 -0.085350 -0.264114 0.117202 0.219423
    37 0.028479 -1.403067 0.006271 -1.337894 0.000000 0.000000
    38 0.021413 -0.957781 0.020046 -1.052201 0.000000 0.000000
    39 1.164475 -2.543940 -0.170330 -1.221927 -0.015463 0.162804
    40 0.024032 -1.129042 0.017807 -1.512647 0.000000 0.000001
    41 0.014898 -0.883989 -0.019848 -0.378788 0.000000 0.000000
    42 -0.586770 -1.264477 0.200161 0.326456 -0.694116 -2.834291
    43 1.522835 0.058681 0.016848 0.001410 0.008985 1.061041
    44 1.117947 0.048424 -0.005766 -0.024907 -0.003817 1.474654
    45 -0.139399 -0.111698 0.014397 0.326501 0.088632 1.606227
    46 -2.666946 9.350911 -0.262871 1.580804 -0.005023 -1.416213
  time 15
    0 -0.349399 1.166145 0.203512 0.000000 0.000000 0.000000
    1 9.194372 -2.565295 -10.595257 -0.844817 -1.136048 0.526114
    2 -0.071918 -8.498730 -0.104136 0.223694 0.038990 -0.265818
    3 2.834877 -3.284037 0.535784 -3.053061 0.124698 -1.545787
    4 -0.937847 3.087766 -0.006773 0.000000 0.000000 1.745329
    5 0.000000 0.000000 -0.000001 0.000000 0.000000 0.000000
    6 9.280671 -0.119233 0.129653 0.013190 0.190174 -1.575995
    7 -9.004620 -1.515317 -9.565798 1.045830 1.854724 1.317363
    8 0.096945 -8.450418 -0.009363 0.114257 -0.336249 0.099730
    9 -2.961830 -3.210661 0.985425 -0.073896 0.213120 -1.439451
    10 9.226532 0.012792 0.018556 0.017134 -0.145892 -1.609947
    11 -0.937847 3.087766 -0.010345 0.000000 0.000000 1.745330
    12 0.000000 0.000000 -0.000005 0.000000 0.000000 0.000000
    13 1.257180 8.762585 -0.153713 -1.570562 0.002683 -1.566807
    14 -0.488518 -2.755602 -0.228260 -0.647307 -0.134082 -0.416251
    15 0.039887 -1.479790 0.029854 -2.301996 0.000000 0.000001
    16 0.028786 -1.075731 -0.023109 -0.271941 0.000000 0.000000
    17 0.250027 -2.820665 -0.238396 -0.437374 -0.105209 -0.434549
    18 -0.049759 -1.680544 0.100479 -2.367108 0.000000 -0.000002
    19 -0.034142 -1.148312 0.084782 -0.535839 0.000000 0.000000
    20 0.957766 -2.746780 -0.090302 0.362703 -0.147176 -0.203865
    21 -0.033420 -1.397129 -0.011257 -1.115593 0.000000 -0.000001
    22 -0.022360 -0.957436 0.018784 -1.148778 0.000000 0.000000
    23 -1.180681 -2.507217 -0.193859 -0.393134 0.029677 -0.287744
    24 -0.024967 -1.123934 0.017597 -2.113280 0.000000 0.000001
    25 -0.020057 -0.890968 0.010090 -0.761958 0.000000 0.000000
    26 0.583510 -1.197277 0.185379 0.535783 -0.585068 -1.177524
    27 1.535927 0.010246 0.005009 -0.002964 -0.012979 -0.682290
    28 1.100771 0.004527 -0.010679 -0.016147 -0.001453 -1.484153
    29 0.120153 -0.050270 -0.054489 0.287569 3.110905 1.561085
    30 0.447953 -2.798986 -0.200443 -1.437466 0.114004 0.072885
    31 -0.032909 -1.480204 0.004940 -1.509334 0.000000 0.000002
    32 -0.027022 -1.076920 -0.020210 -0.468857 0.000000 0.000000
    33 -0.249534 -2.846964 -0.174213 -1.276464 0.102703 0.104139
    34 0.043235 -1.683941 0.096012 -1.748945 0.002823 -0.000167
    35 0.031729 -1.160830 0.058838 -0.441250 0.000642 0.008372
    36 -0.963866 -2.785145 -0.085350 -0.264114 0.117202 0.219423
    37 0.028479 -1.403067 0.006271 -1.337894 0.000000 0.000000
    38 0.021413 -0.957781 0.020046 -1.052201 0.000000 0.000000
    39 1.164475 -2.543940 -0.170330 -1.221927 -0.015463 0.162804
    40 0.024032 -1.129042 0.017807 -1.512647 0.000000 0.000001
    41 0.014898 -0.883989 -0.019848 -0.378788 0.000000 0.000000
    42 -0.586770 -1.264477 0.200161 0.326456 -0.694116 -2.834291
    43 1.522835 0.058681 0.016848 0.001410 0.008985 1.061041
    44 1.117947 0.048424 -0.005766 -0.024907 -0.003817 1.474654
    45 -0.139399 -0.111698 0.014397 0.326501 0.088632 1.606227
    46 -2.666946 9.350911 -0.262871 1.580804 -0.005023 -1.416213
  time 16
    0 -0.349399 1.166145 0.203512 0.000000 0.000000 0.000000
    1 9.202185 -2.608265 -10.610882 -0.839644 -1.134053 0.520276
    2 -0.071918 -8.498730 -0.104136 0.223747 0.041135 -0.265120
    3 2.834877 -3.284037 0.535784 -3.053061 0.124698 -1.545787
    4 -0.937847 3.087766 -0.006773 0.000000 0.000000 1.745329
    5 0.000000 0.000000 -0.000001 0.000000 0.000000 0.000000
    6 9.280671 -0.119233 0.129653 0.013190 0.190174 -1.575995
    7 -9.004620 -1.542662 -9.577517 1.047460 1.855490 1.319081
    8 0.096945 -8.450418 -0.009363 0.114084 -0.334970 0.099511
    9 -2.961830 -3.210661 0.985425 -0.073896 0.213120 -1.439451
    10 9.226532 0.012792 0.018556 0.017134 -0.145892 -1.609947
    11 -0.937847 3.087766 -0.010345 0.000000 0.000000 1.745330
    12 0.000000 0.000000 -0.000005 0.000000 0.000000 0.000000
    13 1.257180 8.762585 -0.153713 -1.570562 0.002683 -1.566807
    14 -0.488518 -2.755602 -0.228260 -0.647307 -0.134082 -0.416251
    15 0.039887 -1.479790 0.029854 -2.301996 0.000000 0.000001
    16 0.028786 -1.075731 -0.023109 -0.271941 0.000000 0.000000
    17 0.250027 -2.820665 -0.238396 -0.437374 -0.105209 -0.434549
    18 -0.049759 -1.680544 0.100479 -2.367108 0.000000 -0.000002
    19 -0.034142 -1.148312 0.084782 -0.535839 0.000000 0.000000
    20 0.957766 -2.746780 -0.090302 0.362703 -0.147176 -0.203865
    21 -0.033420 -1.397129 -0.011257 -1.115593 0.000000 -0.000001
    22 -0.022360 -0.957436 0.018784 -1.148778 0.000000 0.000000
    23 -1.180681 -2.507217 -0.193859 -0.393134 0.029677 -0.287744
    24 -0.024967 -1.123934 0.017597 -2.113280 0.000000 0.000001
    25 -0.020057 -0.890968 0.010090 -0.761958 0.000000 0.000000
    26 0.583510 -1.197277 0.185379 0.535783 -0.585068 -1.177524
    27 1.535927 0.010246 0.005009 -0.002964 -0.012979 -0.682290
    28 1.100771 0.004527 -0.010679 -0.016147 -0.001453 -1.484153
    29 0.120153 -0.050270 -0.054489 0.287569 3.110905 1.561085
    30 0.447953 -2.798986 -0.200443 -1.437466 0.114004 0.072885
    31 -0.032909 -1.480204 0.004940 -1.509334 0.000000 0.000002
    32 -0.027022 -1.076920 -0.020210 -0.468857 0.000000 0.000000
    33 -0.249534 -2.846964 -0.174213 -1.276464 0.102703 0.104139
    34 0.043235 -1.683941 0.096012 -1.748945 0.002823 -0.000167
    35 0.031729 -1.160830 0.058838 -0.441250 0.000642 0.008372
    36 -0.963866 -2.785145 -0.085350 -0.264114 0.117202 0.219423
    37 0.028479 -1.403067 0.006271 -1.337894 0.000000 0.000000
    38 0.021413 -0.957781 0.020046 -1.052201 0.000000 0.000000
    39 1.164475 -2.543940 -0.170330 -1.221927 -0.015463 0.162804
    40 0.024032 -1.129042 0.017807 -1.512647 0.000000 0.000001
    41 0.014898 -0.883989 -0.019848 -0.378788 0.000000 0.000000
    42 -0.586770 -1.264477 0.200161 0.326456 -0.694116 -2.834291
    43 1.522835 0.058681 0.016848 0.001410 0.008985 1.061041
    44 1.117947 0.048424 -0.005766 -0.024907 -0.003817 1.474654
    45 -0.139399 -0.111698 0.014397 0.326501 0.088632 1.606227
    46 -2.666946 9.350911 -0.262871 1.580804 -0.005023 -1.416213
  time 17
    0 -0.349399 1.166145 0.203512 0.000000 0.000000 0.000000
    1 9.206091 -2.643422 -10.622601 -0.835949 -1.132498 0.516130
    2 -0.071918 -8.498730 -0.104136 0.223773 0.043568 -0.264314
    3 2.834877 -3.284037 0.535784 -3.053061 0.124698 -1.545787
    4 -0.937847 3.087766 -0.006773 0.000000 0.000000 1.745329
    5 0.000000 0.000000 -0.000001 0.000000 0.000000 0.000000
    6 9.280671 -0.119233 0.129653 0.013190 0.190174 -1.575995
    7 -9.004620 -1.558287 -9.585330 1.050177 1.856001 1.321969
    8 0.096945 -8.450418 -0.009363 0.113911 -0.333782 0.099323
    9 -2.961830 -3.210661 0.985425 -0.073896 0.213120 -1.439451
    10 9.226532 0.012792 0.018556 0.017134 -0.145892 -1.609947
    11 -0.937847 3.087766 -0.010345 0.000000 0.000000 1.745330
    12 0.000000 0.000000 -0.000005 0.000000 0.000000 0.000000
    13 1.257180 8.762585 -0.153713 -1.570562 0.002683 -1.566807
    14 -0.488518 -2.755602 -0.228260 -0.647307 -0.134082 -0.416251
    15 0.039887 -1.479790 0.029854 -2.301996 0.000000 0.000001
    16 0.028786 -1.075731 -0.023109 -0.271941 0.000000 0.000000
    17 0.250027 -2.820665 -0.238396 -0.437374 -0.105209 -0.434549
    18 -0.049759 -1.680544 0.100479 -2.367108 0.000000 -0.000002
    19 -0.034142 -1.148312 0.084782 -0.535839 0.000000 0.000000
    20 0.957766 -2.746780 -0.090302 0.362703 -0.147176 -0.203865
    21 -0.033420 -1.397129 -0.011257 -1.115593 0.000000 -0.000001
    22 -0.022360 -0.957436 0.018784 -1.148778 0.000000 0.000000
    23 -1.180681 -2.507217 -0.193859 -0.393134 0.029677 -0.287744
    24 -0.024967 -1.123934 0.017597 -2.113280 0.000000 0.000001
    25 -0.020057 -0.890968 0.010090 -0.761958 0.000000 0.000000
    26 0.583510 -1.197277 0.185379 0.535783 -0.585068 -1.177524
    27 1.535927 0.010246 0.005009 -0.002964 -0.012979 -0.682290
    28 1.100771 0.004527 -0.010679 -0.016147 -0.001453 -1.484153
    29 0.120153 -0.050270 -0.054489 0.287569 3.110905 1.561085
    30 0.447953 -2.798986 -0.200443 -1.437466 0.114004 0.072885
    31 -0.032909 -1.480204 0.004940 -1.509334 0.000000 0.000002
    32 -0.027022 -1.076920 -0.020210 -0.468857 0.000000 0.000000
    33 -0.249534 -2.846964 -0.174213 -1.276464 0.102703 0.104139
    34 0.043235 -1.683941 0.096012 -1.748945 0.002823 -0.000167
    35 0.031729 -1.160830 0.058838 -0.441250 0.000642 0.008372
    36 -0.963866 -2.785145 -0.085350 -0.264114 0.117202 0.219423
    37 0.028479 -1.403067 0.006271 -1.337894 0.000000 0.000000
    38 0.021413 -0.957781 0.020046 -1.052201 0.000000 0.000000
    39 1.164475 -2.543940 -0.170330 -1.221927 -0.015463 0.162804
    40 0.024032 -1.129042 0.017807 -1.512647 0.000000 0.000001
    41 0.014898 -0.883989 -0.019848 -0.378788 0.000000 0.000000
    42 -0.586770 -1.264477 0.200161 0.326456 -0.694116 -2.834291
    43 1.522835 0.058681 0.016848 0.001410 0.008985 1.061041
    44 1.117947 0.048424 -0.005766 -0.024907 -0.003817 1.474654
    45 -0.139399 -0.111698 0.014397 0.326501 0.088632 1.606227
    46 -2.666946 9.350911 -0.262871 1.580804 -0.005023 -1.416213
  time 18
    0 -0.349399 1.166145 0.203512 0.000000 0.000000 0.000000
    1 9.206091 -2.662954 -10.626508 -0.834306 -1.131570 0.514269
    2 -0.071918 -8.498730 -0.104136 0.223747 0.046025 -0.263455
    3 2.834877 -3.284037 0.535784 -3.053061 0.124698 -1.545787
    4 -0.937847 3.087766 -0.006773 0.000000 0.000000 1.745329
    5 0.000000 0.000000 -0.000001 0.000000 0.000000 0.000000
    6 9.280671 -0.119233 0.129653 0.013190 0.190174 -1.575995
    7 -9.004620 -1.566100 -9.593143 1.053980 1.856256 1.325950
    8 0.096945 -8.450418 -0.009363 0.113738 -0.332701 0.099198
    9 -2.961830 -3.210661 0.985425 -0.073896 0.213120 -1.439451
    10 9.226532 0.012792 0.018556 0.017134 -0.145892 -1.609947
    11 -0.937847 3.087766 -0.010345 0.000000 0.000000 1.745330
    12 0.000000 0.000000 -0.000005 0.000000 0.000000 0.000000
    13 1.257180 8.762585 -0.153713 -1.570562 0.002683 -1.566807
    14 -0.488518 -2.755602 -0.228260 -0.647307 -0.134082 -0.416251
    15 0.039887 -1.479790 0.029854 -2.301996 0.000000 0.000001
    16 0.028786 -1.075731 -0.023109 -0.271941 0.000000 0.000000
    17 0.250027 -2.820665 -0.238396 -0.437374 -0.105209 -0.434549
    18 -0.049759 -1.680544 0.100479 -2.367108 0.000000 -0.000002
    19 -0.034142 -1.148312 0.084782 -0.535839 0.000000 0.000000
    20 0.957766 -2.746780 -0.090302 0.362703 -0.147176 -0.203865
    21 -0.033420 -1.397129 -0.011257 -1.115593 0.000000 -0.000001
    22 -0.022360 -0.957436 0.018784 -1.148778 0.000000 0.000000
    23 -1.180681 -2.507217 -0.193859 -0.393134 0.029677 -0.287744
    24 -0.024967 -1.123934 0.017597 -2.113280 0.000000 0.000001
    25 -0.020057 -0.890968 0.010090 -0.761958 0.000000 0.000000
    26 0.583510 -1.197277 0.185379 0.535783 -0.585068 -1.177524
    27 1.535927 0.010246 0.005009 -0.002964 -0.012979 -0.682290
    28 1.100771 0.004527 -0.010679 -0.016147 -0.001453 -1.484153
    29 0.120153 -0.050270 -0.054489 0.287569 3.110905 1.561085
    30 0.447953 -2.798986 -0.200443 -1.437466 0.114004 0.072885
    31 -0.032909 -1.480204 0.004940 -1.509334 0.000000 0.000002
    32 -0.027022 -1.076920 -0.020210 -0.468857 0.000000 0.000000
    33 -0.249534 -2.846964 -0.174213 -1.276464 0.102703 0.104139
    34 0.043235 -1.683941 0.096012 -1.748945 0.002823 -0.000167
    35 0.031729 -1.160830 0.058838 -0.441250 0.000642 0.008372
    36 -0.963866 -2.785145 -0.085350 -0.264114 0.117202 0.219423
    37 0.028479 -1.403067 0.006271 -1.337894 0.000000 0.000000
    38 0.021413 -0.957781 0.020046 -1.052201 0.000000 0.000000
    39 1.164475 -2.543940 -0.170330 -1.221927 -0.015463 0.162804
    40 0.024032 -1.129042 0.017807 -1.512647 0.000000 0.000001
    41 0.014898 -0.883989 -0.019848 -0.378788 0.000000 0.000000
    42 -0.586770 -1.264477 0.200161 0.326456 -0.694116 -2.834291
    43 1.522835 0.058681 0.016848 0.001410 0.008985 1.061041
    44 1.117947 0.048424 -0.005766 -0.024907 -0.003817 1.474654
    45 -0.139399 -0.111698 0.014397 0.326501 0.088632 1.606227
    46 -2.666946 9.350911 -0.262871 1.580804 -0.005023 -1.416213
  time 19
    0 -0.349399 1.166145 0.203512 0.000000 0.000000 0.000000
    1 9.198278 -2.678580 -10.630414 -0.834471 -1.131222 0.514523
    2 -0.071918 -8.498730 -0.104136 0.223720 0.048242 -0.262685
    3 2.834877 -3.284037 0.535784 -3.053061 0.124698 -1.545787
    4 -0.937847 3.087766 -0.006773 0.000000 0.000000 1.745329
    5 0.000000 0.000000 -0.000001 0.000000 0.000000 0.000000
    6 9.280671 -0.119233 0.129653 0.013190 0.190174 -1.575995
    7 -9.004620 -1.570006 -9.604862 1.058636 1.856313 1.330790
    8 0.096945 -8.450418 -0.009363 0.113590 -0.331747 0.099182
    9 -2.961830 -3.210661 0.985425 -0.073896 0.213120 -1.439451
    10 9.226532 0.012792 0.018556 0.017134 -0.145892 -1.609947
    11 -0.937847 3.087766 -0.010345 0.000000 0.000000 1.745330
    12 0.000000 0.000000 -0.000005 0.000000 0.000000 0.000000
    13 1.257180 8.762585 -0.153713 -1.570562 0.002683 -1.566807
    14 -0.488518 -2.755602 -0.228260 -0.647307 -0.134082 -0.416251
    15 0.039887 -1.479790 0.029854 -2.301996 0.000000 0.000001
    16 0.028786 -1.075731 -0.023109 -0.271941 0.000000 0.000000
    17 0.250027 -2.820665 -0.238396 -0.437374 -0.105209 -0.434549
    18 -0.049759 -1.680544 0.100479 -2.367108 0.000000 -0.000002
    19 -0.034142 -1.148312 0.084782 -0.535839 0.000000 0.000000
    20 0.957766 -2.746780 -0.090302 0.362703 -0.147176 -0.203865
    21 -0.033420 -1.397129 -0.011257 -1.115593 0.000000 -0.000001
    22 -0.022360 -0.957436 0.018784 -1.148778 0.000000 0.000000
    23 -1.180681 -2.507217 -0.193859 -0.393134 0.029677 -0.287744
    24 -0.024967 -1.123934 0.017597 -2.113280 0.000000 0.000001
    25 -0.020057 -0.890968 0.010090 -0.761958 0.000000 0.000000
    26 0.583510 -1.197277 0.185379 0.535783 -0.585068 -1.177524
    27 1.535927 0.010246 0.005009 -0.002964 -0.012979 -0.682290
    28 1.100771 0.004527 -0.010679 -0.016147 -0.001453 -1.484153
    29 0.120153 -0.050270 -0.054489 0.287569 3.110905 1.561085
    30 0.447953 -2.798986 -0.200443 -1.437466 0.114004 0.072885
    31 -0.032909 -1.480204 0.004940 -1.509334 0.000000 0.000002
    32 -0.027022 -1.076920 -0.020210 -0.468857 0.000000 0.000000
    33 -0.249534 -2.846964 -0.174213 -1.276464 0.102703 0.104139
    34 0.043235 -1.683941 0.096012 -1.748945 0.002823 -0.000167
    35 0.031729 -1.160830 0.058838 -0.441250 0.000642 0.008372
    36 -0.963866 -2.785145 -0.085350 -0.264114 0.117202 0.219423
    37 0.028479 -1.403067 0.006271 -1.337894 0.000000 0.000000
    38 0.021413 -0.957781 0.020046 -1.052201 0.000000 0.000000
    39 1.164475 -2.543940 -0.170330 -1.221927 -0.015463 0.162804
    40 0.024032 -1.129042 0.017807 -1.512647 0.000000 0.000001
    41 0.014898 -0.883989 -0.019848 -0.378788 0.000000 0.000000
    42 -0.586770 -1.264477 0.200161 0.326456 -0.694116 -2.834291
    43 1.522835 0.058681 0.016848 0.001410 0.008985 1.061041
    44 1.117947 0.048424 -0.005766 -0.024907 -0.003817 1.474654
    45 -0.139399 -0.111698 0.014397 0.326501 0.088632 1.606227
    46 -2.666946 9.350911 -0.262871 1.580804 -0.005023 -1.416213
  time 20
    0 -0.349399 1.166145 0.203512 0.000000 0.000000 0.000000
    1 9.190465 -2.686392 -10.630414 -0.835702 -1.131153 0.515961
    2 -0.071918 -8.498730 -0.104136 0.223641 0.049944 -0.262040
    3 2.834877 -3.284037 0.535784 -3.053061 0.124698 -1.545787
    4 -0.937847 3.087766 -0.006773 0.000000 0.000000 1.745329
    5 0.000000 0.000000 -0.000001 0.000000 0.000000 0.000000
    6 9.280671 -0.119233 0.129653 0.013190 0.190174 -1.575995
    7 -9.004620 -1.562194 -9.612674 1.063992 1.856228 1.336411
    8 0.096945 -8.450418 -0.009363 0.113441 -0.330954 0.099308
    9 -2.961830 -3.210661 0.985425 -0.073896 0.213120 -1.439451
    10 9.226532 0.012792 0.018556 0.017134 -0.145892 -1.609947
    11 -0.937847 3.087766 -0.010345 0.000000 0.000000 1.745330
    12 0.000000 0.000000 -0.000005 0.000000 0.000000 0.000000
    13 1.257180 8.762585 -0.153713 -1.570562 0.002683 -1.566807
    14 -0.488518 -2.755602 -0.228260 -0.647307 -0.134082 -0.416251
    15 0.039887 -1.479790 0.029854 -2.301996 0.000000 0.000001
    16 0.028786 -1.075731 -0.023109 -0.271941 0.000000 0.000000
    17 0.250027 -2.820665 -0.238396 -0.437374 -0.105209 -0.434549
    18 -0.049759 -1.680544 0.100479 -2.367108 0.000000 -0.000002
    19 -0.034142 -1.148312 0.084782 -0.535839 0.000000 0.000000
    20 0.957766 -2.746780 -0.090302 0.362703 -0.147176 -0.203865
    21 -0.033420 -1.397129 -0.011257 -1.115593 0.000000 -0.000001
    22 -0.022360 -0.957436 0.018784 -1.148778 0.000000 0.000000
    23 -1.180681 -2.507217 -0.193859 -0.393134 0.029677 -0.287744
    24 -0.024967 -1.123934 0.017597 -2.113280 0.000000 0.000001
    25 -0.020057 -0.890968 0.010090 -0.761958 0.000000 0.000000
    26 0.583510 -1.197277 0.185379 0.535783 -0.585068 -1.177524
    27 1.535927 0.010246 0.005009 -0.002964 -0.012979 -0.682290
    28 1.100771 0.004527 -0.010679 -0.016147 -0.001453 -1.484153
    29 0.120153 -0.050270 -0.054489 0.287569 3.110905 1.561085
    30 0.447953 -2.798986 -0.200443 -1.437466 0.114004 0.072885
    31 -0.032909 -1.480204 0.004940 -1.509334 0.000000 0.000002
    32 -0.027022 -1.076920 -0.020210 -0.468857 0.000000 0.000000
    33 -0.249534 -2.846964 -0.174213 -1.276464 0.102703 0.104139
    34 0.043235 -1.683941 0.096012 -1.748945 0.002823 -0.000167
    35 0.031729 -1.160830 0.058838 -0.441250 0.000642 0.008372
    36 -0.963866 -2.785145 -0.085350 -0.264114 0.117202 0.219423
    37 0.028479 -1.403067 0.006271 -1.337894 0.000000 0.000000
    38 0.021413 -0.957781 0.020046 -1.052201 0.000000 0.000000
    39 1.164475 -2.543940 -0.170330 -1.221927 -0.015463 0.162804
    40 0.024032 -1.129042 0.017807 -1.512647 0.000000 0.000001
    41 0.014898 -0.883989 -0.019848 -0.378788 0.000000 0.000000
    42 -0.586770 -1.264477 0.200161 0.326456 -0.694116 -2.834291
    43 1.522835 0.058681 0.016848 0.001410 0.008985 1.061041
    44 1.117947 0.048424 -0.005766 -0.024907 -0.003817 1.474654
    45 -0.139399 -0.111698 0.014397 0.326501 0.088632 1.606227
    46 -2.666946 9.350911 -0.262871 1.580804 -0.005023 -1.416213
  time 21
    0 -0.349399 1.166145 0.203512 0.000000 0.000000 0.000000
    1 9.182653 -2.690299 -10.630414 -0.837919 -1.131338 0.518499
    2 -0.071918 -8.498730 -0.104136 0.223536 0.051250 -0.261521
    3 2.834877 -3.284037 0.535784 -3.053061 0.124698 -1.545787
    4 -0.937847 3.087766 -0.006773 0.000000 0.000000 1.745329
    5 0.000000 0.000000 -0.000001 0.000000 0.000000 0.000000
    6 9.280671 -0.119233 0.129653 0.013190 0.190174 -1.575995
    7 -9.004620 -1.550474 -9.620487 1.070045 1.856001 1.342656
    8 0.096945 -8.450418 -0.009363 0.113318 -0.330414 0.099480
    9 -2.961830 -3.210661 0.985425 -0.073896 0.213120 -1.439451
    10 9.226532 0.012792 0.018556 0.017134 -0.145892 -1.609947
    11 -0.937847 3.087766 -0.010345 0.000000 0.000000 1.745330
    12 0.000000 0.000000 -0.000005 0.000000 0.000000 0.000000
    13 1.257180 8.762585 -0.153713 -1.570562 0.002683 -1.566807
    14 -0.488518 -2.755602 -0.228260 -0.647307 -0.134082 -0.416251
    15 0.039887 -1.479790 0.029854 -2.301996 0.000000 0.000001
    16 0.028786 -1.075731 -0.023109 -0.271941 0.000000 0.000000
    17 0.250027 -2.820665 -0.238396 -0.437374 -0.105209 -0.434549
    18 -0.049759 -1.680544 0.100479 -2.367108 0.000000 -0.000002
    19 -0.034142 -1.148312 0.084782 -0.535839 0.000000 0.000000
    20 0.957766 -2.746780 -0.090302 0.362703 -0.147176 -0.203865
    21 -0.033420 -1.397129 -0.011257 -1.115593 0.000000 -0.000001
    22 -0.022360 -0.957436 0.018784 -1.148778 0.000000 0.000000
    23 -1.180681 -2.507217 -0.193859 -0.393134 0.029677 -0.287744
    24 -0.024967 -1.123934 0.017597 -2.113280 0.000000 0.000001
    25 -0.020057 -0.890968 0.010090 -0.761958 0.000000 0.000000
    26 0.583510 -1.197277 0.185379 0.535783 -0.585068 -1.177524
    27 1.535927 0.010246 0.005009 -0.002964 -0.012979 -0.682290
    28 1.100771 0.004527 -0.010679 -0.016147 -0.001453 -1.484153
    29 0.120153 -0.050270 -0.054489 0.287569 3.110905 1.561085
    30 0.447953 -2.798986 -0.200443 -1.437466 0.114004 0.072885
    31 -0.032909 -1.480204 0.004940 -1.509334 0.000000 0.000002
    32 -0.027022 -1.076920 -0.020210 -0.468857 0.000000 0.000000
    33 -0.249534 -2.846964 -0.174213 -1.276464 0.102703 0.104139
    34 0.043235 -1.683941 0.096012 -1.748945 0.002823 -0.000167
    35 0.031729 -1.160830 0.058838 -0.441250 0.000642 0.008372
    36 -0.963866 -2.785145 -0.085350 -0.264114 0.117202 0.219423
    37 0.028479 -1.403067 0.006271 -1.337894 0.000000 0.000000
    38 0.021413 -0.957781 0.020046 -1.052201 0.000000 0.000000
    39 1.164475 -2.543940 -0.170330 -1.221927 -0.015463 0.162804
    40 0.024032 -1.129042 0.017807 -1.512647 0.000000 0.000001
    41 0.014898 -0.883989 -0.019848 -0.378788 0.000000 0.000000
    42 -0.586770 -1.264477 0.200161 0.326456 -0.694116 -2.834291
    43 1.522835 0.058681 0.016848 0.001410 0.008985 1.061041
    44 1.117947 0.048424 -0.005766 -0.024907 -0.003817 1.474654
    45 -0.139399 -0.111698 0.014397 0.326501 0.088632 1.606227
    46 -2.666946 9.350911 -0.262871 1.580804 -0.005023 -1.416213
  time 22
    0 -0.349399 1.166145 0.203512 0.000000 0.000000 0.000000
    1 9.170934 -2.694205 -10.626508 -0.840793 -1.131709 0.521968
    2 -0.071918 -8.498730 -0.104136 0.223378 0.052473 -0.261002
    3 2.834877 -3.284037 0.535784 -3.053061 0.124698 -1.545787
    4 -0.937847 3.087766 -0.006773 0.000000 0.000000 1.745329
    5 0.000000 0.000000 -0.000001 0.000000 0.000000 0.000000
    6 9.280671 -0.119233 0.129653 0.013190 0.190174 -1.575995
    7 -9.004620 -1.530943 -9.624393 1.076487 1.855689 1.349448
    8 0.096945 -8.450418 -0.009363 0.113243 -0.330108 0.099574
    9 -2.961830 -3.210661 0.985425 -0.073896 0.213120 -1.439451
    10 9.226532 0.012792 0.018556 0.017134 -0.145892 -1.609947
    11 -0.937847 3.087766 -0.010345 0.000000 0.000000 1.745330
    12 0.000000 0.000000 -0.000005 0.000000 0.000000 0.000000
    13 1.257180 8.762585 -0.153713 -1.570562 0.002683 -1.566807
    14 -0.488518 -2.755602 -0.228260 -0.647307 -0.134082 -0.416251
    15 0.039887 -1.479790 0.029854 -2.301996 0.000000 0.000001
    16 0.028786 -1.075731 -0.023109 -0.271941 0.000000 0.000000
    17 0.250027 -2.820665 -0.238396 -0.437374 -0.105209 -0.434549
    18 -0.049759 -1.680544 0.100479 -2.367108 0.000000 -0.000002
    19 -0.034142 -1.148312 0.084782 -0.535839 0.000000 0.000000
    20 0.957766 -2.746780 -0.090302 0.362703 -0.147176 -0.203865
    21 -0.033420 -1.397129 -0.011257 -1.115593 0.000000 -0.000001
    22 -0.022360 -0.957436 0.018784 -1.148778 0.000000 0.000000
    23 -1.180681 -2.507217 -0.193859 -0.393134 0.029677 -0.287744
    24 -0.024967 -1.123934 0.017597 -2.113280 0.000000 0.000001
    25 -0.020057 -0.890968 0.010090 -0.761958 0.000000 0.000000
    26 0.583510 -1.197277 0.185379 0.535783 -0.585068 -1.177524
    27 1.535927 0.010246 0.005009 -0.002964 -0.012979 -0.682290
    28 1.100771 0.004527 -0.010679 -0.016147 -0.001453 -1.484153
    29 0.120153 -0.050270 -0.054489 0.287569 3.110905 1.561085
    30 0.447953 -2.798986 -0.200443 -1.437466 0.114004 0.072885
    31 -0.032909 -1.480204 0.004940 -1.509334 0.000000 0.000002
    32 -0.027022 -1.076920 -0.020210 -0.468857 0.000000 0.000000
    33 -0.249534 -2.846964 -0.174213 -1.276464 0.102703 0.104139
    34 0.043235 -1.683941 0.096012 -1.748945 0.002823 -0.000167
    35 0.031729 -1.160830 0.058838 -0.441250 0.000642 0.008372
    36 -0.963866 -2.785145 -0.085350 -0.264114 0.117202 0.219423
    37 0.028479 -1.403067 0.006271 -1.337894 0.000000 0.000000
    38 0.021413 -0.957781 0.020046 -1.052201 0.000000 0.000000
    39 1.164475 -2.543940 -0.170330 -1.221927 -0.015463 0.162804
    40 0.024032 -1.129042 0.017807 -1.512647 0.000000 0.000001
    41 0.014898 -0.883989 -0.019848 -0.378788 0.000000 0.000000
    42 -0.586770 -1.264477 0.200161 0.326456 -0.694116 -2.834291
    43 1.522835 0.058681 0.016848 0.001410 0.008985 1.061041
    44 1.117947 0.048424 -0.005766 -0.024907 -0.003817 1.474654
    45 -0.139399 -0.111698 0.014397 0.326501 0.088632 1.606227
    46 -2.666946 9.350911 -0.262871 1.580804 -0.005023 -1.416213
  time 23
    0 -0.349399 1.166145 0.203512 0.000000 0.000000 0.000000
    1 9.155308 -2.694205 -10.622601 -0.844242 -1.132243 0.526029
    2 -0.071918 -8.498730 -0.104136 0.223194 0.053623 -0.260483
    3 2.834877 -3.284037 0.535784 -3.053061 0.124698 -1.545787
    4 -0.937847 3.087766 -0.006773 0.000000 0.000000 1.745329
    5 0.000000 0.000000 -0.000001 0.000000 0.000000 0.000000
    6 9.280671 -0.119233 0.129653 0.013190 0.190174 -1.575995
    7 -9.004620 -1.507504 -9.632206 1.083317 1.855291 1.356552
    8 0.096945 -8.450418 -0.009363 0.113243 -0.330036 0.099605
    9 -2.961830 -3.210661 0.985425 -0.073896 0.213120 -1.439451
    10 9.226532 0.012792 0.018556 0.017134 -0.145892 -1.609947
    11 -0.937847 3.087766 -0.010345 0.000000 0.000000 1.745330
    12 0.000000 0.000000 -0.000005 0.000000 0.000000 0.000000
    13 1.257180 8.762585 -0.153713 -1.570562 0.002683 -1.566807
    14 -0.488518 -2.755602 -0.228260 -0.647307 -0.134082 -0.416251
    15 0.039887 -1.479790 0.029854 -2.301996 0.000000 0.000001
    16 0.028786 -1.075731 -0.023109 -0.271941 0.000000 0.000000
    17 0.250027 -2.820665 -0.238396 -0.437374 -0.105209 -0.434549
    18 -0.049759 -1.680544 0.100479 -2.367108 0.000000 -0.000002
    19 -0.034142 -1.148312 0.084782 -0.535839 0.000000 0.000000
    20 0.957766 -2.746780 -0.090302 0.362703 -0.147176 -0.203865
    21 -0.033420 -1.397129 -0.011257 -1.115593 0.000000 -0.000001
    22 -0.022360 -0.957436 0.018784 -1.148778 0.000000 0.000000
    23 -1.180681 -2.507217 -0.193859 -0.393134 0.029677 -0.287744
    24 -0.024967 -1.123934 0.017597 -2.113280 0.000000 0.000001
    25 -0.020057 -0.890968 0.010090 -0.761958 0.000000 0.000000
    26 0.583510 -1.197277 0.185379 0.535783 -0.585068 -1.177524
    27 1.535927 0.010246 0.005009 -0.002964 -0.012979 -0.682290
    28 1.100771 0.004527 -0.010679 -0.016147 -0.001453 -1.484153
    29 0.120153 -0.050270 -0.054489 0.287569 3.110905 1.561085
    30 0.447953 -2.798986 -0.200443 -1.437466 0.114004 0.072885
    31 -0.032909 -1.480204 0.004940 -1.509334 0.000000 0.000002
    32 -0.027022 -1.076920 -0.020210 -0.468857 0.000000 0.000000
    33 -0.249534 -2.846964 -0.174213 -1.276464 0.102703 0.104139
    34 0.043235 -1.683941 0.096012 -1.748945 0.002823 -0.000167
    35 0.031729 -1.160830 0.058838 -0.441250 0.000642 0.008372
    36 -0.963866 -2.785145 -0.085350 -0.264114 0.117202 0.219423
    37 0.028479 -1.403067 0.006271 -1.337894 0.000000 0.000000
    38 0.021413 -0.957781 0.020046 -1.052201 0.000000 0.000000
    39 1.164475 -2.543940 -0.170330 -1.221927 -0.015463 0.162804
    40 0.024032 -1.129042 0.017807 -1.512647 0.000000 0.000001
    41 0.014898 -0.883989 -0.019848 -0.378788 0.000000 0.000000
    42 -0.586770 -1.264477 0.200161 0.326456 -0.694116 -2.834291
    43 1.522835 0.058681 0.016848 0.001410 0.008985 1.061041
    44 1.117947 0.048424 -0.005766 -0.024907 -0.003817 1.474654
    45 -0.139399 -0.111698 0.014397 0.326501 0.088632 1.606227
    46 -2.666946 9.350911 -0.262871 1.580804 -0.005023 -1.416213
  time 24
    0 -0.349399 1.166145 0.203512 0.000000 0.000000 0.000000
    1 9.143589 -2.694205 -10.618695 -0.848184 -1.132893 0.530598
    2 -0.071918 -8.498730 -0.104136 0.223010 0.054726 -0.259963
    3 2.834877 -3.284037 0.535784 -3.053061 0.124698 -1.545787
    4 -0.937847 3.087766 -0.006773 0.000000 0.000000 1.745329
    5 0.000000 0.000000 -0.000001 0.000000 0.000000 0.000000
    6 9.280671 -0.119233 0.129653 0.013190 0.190174 -1.575995
    7 -9.004620 -1.480160 -9.640019 1.090380 1.854894 1.363968
    8 0.096945 -8.450418 -0.009363 0.113243 -0.330090 0.099574
    9 -2.961830 -3.210661 0.985425 -0.073896 0.213120 -1.439451
    10 9.226532 0.012792 0.018556 0.017134 -0.145892 -1.609947
    11 -0.937847 3.087766 -0.010345 0.000000 0.000000 1.745330
    12 0.000000 0.000000 -0.000005 0.000000 0.000000 0.000000
    13 1.257180 8.762585 -0.153713 -1.570562 0.002683 -1.566807
    14 -0.488518 -2.755602 -0.228260 -0.647307 -0.134082 -0.416251
    15 0.039887 -1.479790 0.029854 -2.301996 0.000000 0.000001
    16 0.028786 -1.075731 -0.023109 -0.271941 0.000000 0.000000
    17 0.250027 -2.820665 -0.238396 -0.437374 -0.105209 -0.434549
    18 -0.049759 -1.680544 0.100479 -2.367108 0.000000 -0.000002
    19 -0.034142 -1.148312 0.084782 -0.535839 0.000000 0.000000
    20 0.957766 -2.746780 -0.090302 0.362703 -0.147176 -0.203865
    21 -0.033420 -1.397129 -0.011257 -1.115593 0.000000 -0.000001
    22 -0.022360 -0.957436 0.018784 -1.148778 0.000000 0.000000
    23 -1.180681 -2.507217 -0.193859 -0.393134 0.029677 -0.287744
    24 -0.024967 -1.123934 0.017597 -2.113280 0.000000 0.000001
    25 -0.020057 -0.890968 0.010090 -0.761958 0.000000 0.000000
    26 0.583510 -1.197277 0.185379 0.535783 -0.585068 -1.177524
    27 1.535927 0.010246 0.005009 -0.002964 -0.012979 -0.682290
    28 1.100771 0.004527 -0.010679 -0.016147 -0.001453 -1.484153
    29 0.120153 -0.050270 -0.054489 0.287569 3.110905 1.561085
    30 0.447953 -2.798986 -0.200443 -1.437466 0.114004 0.072885
    31 -0.032909 -1.480204 0.004940 -1.509334 0.000000 0.000002
    32 -0.027022 -1.076920 -0.020210 -0.468857 0.000000 0.000000
    33 -0.249534 -2.846964 -0.174213 -1.276464 0.102703 0.104139
    34 0.043235 -1.683941 0.096012 -1.748945 0.002823 -0.000167
    35 0.031729 -1.160830 0.058838 -0.441250 0.000642 0.008372
    36 -0.963866 -2.785145 -0.085350 -0.264114 0.117202 0.219423
    37 0.028479 -1.403067 0.006271 -1.337894 0.000000 0.000000
    38 0.021413 -0.957781 0.020046 -1.052201 0.000000 0.000000
    39 1.164475 -2.543940 -0.170330 -1.221927 -0.015463 0.162804
    40 0.024032 -1.129042 0.017807 -1.512647 0.000000 0.000001
    41 0.014898 -0.883989 -0.019848 -0.378788 0.000000 0.000000
    42 -0.586770 -1.264477 0.200161 0.326456 -0.694116 -2.834291
    43 1.522835 0.058681 0.016848 0.001410 0.008985 1.061041
    44 1.117947 0.048424 -0.005766 -0.024907 -0.003817 1.474654
    45 -0.139399 -0.111698 0.014397 0.326501 0.088632 1.606227
    46 -2.666946 9.350911 -0.262871 1.580804 -0.005023 -1.416213
  time 25
    0 -0.349399 1.166145 0.203512 0.000000 0.000000 0.000000
    1 9.127964 -2.690299 -10.610882 -0.852372 -1.133589 0.535420
    2 -0.071918 -8.498730 -0.104136 0.222799 0.055804 -0.259444
    3 2.834877 -3.284037 0.535784 -3.053061 0.124698 -1.545787
    4 -0.937847 3.087766 -0.006773 0.000000 0.000000 1.745329
    5 0.000000 0.000000 -0.000001 0.000000 0.000000 0.000000
    6 9.280671 -0.119233 0.129653 0.013190 0.190174 -1.575995
    7 -9.004620 -1.448909 -9.647832 1.097520 1.854497 1.371384
    8 0.096945 -8.450418 -0.009363 0.113293 -0.330270 0.099527
    9 -2.961830 -3.210661 0.985425 -0.073896 0.213120 -1.439451
    10 9.226532 0.012792 0.018556 0.017134 -0.145892 -1.609947
    11 -0.937847 3.087766 -0.010345 0.000000 0.000000 1.745330
    12 0.000000 0.000000 -0.000005 0.000000 0.000000 0.000000
    13 1.257180 8.762585 -0.153713 -1.570562 0.002683 -1.566807
    14 -0.488518 -2.755602 -0.228260 -0.647307 -0.134082 -0.416251
    15 0.039887 -1.479790 0.029854 -2.301996 0.000000 0.000001
    16 0.028786 -1.075731 -0.023109 -0.271941 0.000000 0.000000
    17 0.250027 -2.820665 -0.238396 -0.437374 -0.105209 -0.434549
    18 -0.049759 -1.680544 0.100479 -2.367108 0.000000 -0.000002
    19 -0.034142 -1.148312 0.084782 -0.535839 0.000000 0.000000
    20 0.957766 -2.746780 -0.090302 0.362703 -0.147176 -0.203865
    21 -0.033420 -1.397129 -0.011257 -1.115593 0.000000 -0.000001
    22 -0.022360 -0.957436 0.018784 -1.148778 0.000000 0.000000
    23 -1.180681 -2.507217 -0.193859 -0.393134 0.029677 -0.287744
    24 -0.024967 -1.123934 0.017597 -2.113280 0.000000 0.000001
    25 -0.020057 -0.890968 0.010090 -0.761958 0.000000 0.000000
    26 0.583510 -1.197277 0.185379 0.535783 -0.585068 -1.177524
    27 1.535927 0.010246 0.005009 -0.002964 -0.012979 -0.682290
    28 1.100771 0.004527 -0.010679 -0.016147 -0.001453 -1.484153
    29 0.120153 -0.050270 -0.054489 0.287569 3.110905 1.561085
    30 0.447953 -2.798986 -0.200443 -1.437466 0.114004 0.072885
    31 -0.032909 -1.480204 0.004940 -1.509334 0.000000 0.000002
    32 -0.027022 -1.076920 -0.020210 -0.468857 0.000000 0.000000
    33 -0.249534 -2.846964 -0.174213 -1.276464 0.102703 0.104139
    34 0.043235 -1.683941 0.096012 -1.748945 0.002823 -0.000167
    35 0.031729 -1.160830 0.058838 -0.441250 0.000642 0.008372
    36 -0.963866 -2.785145 -0.085350 -0.264114 0.117202 0.219423
    37 0.028479 -1.403067 0.006271 -1.337894 0.000000 0.000000
    38 0.021413 -0.957781 0.020046 -1.052201 0.000000 0.000000
    39 1.164475 -2.543940 -0.170330 -1.221927 -0.015463 0.162804
    40 0.024032 -1.129042 0.017807 -1.512647 0.000000 0.000001
    41 0.014898 -0.883989 -0.019848 -0.378788 0.000000 0.000000
    42 -0.586770 -1.264477 0.200161 0.326456 -0.694116 -2.834291
    43 1.522835 0.058681 0.016848 0.001410 0.008985 1.061041
    44 1.117947 0.048424 -0.005766 -0.024907 -0.003817 1.474654
    45 -0.139399 -0.111698 0.014397 0.326501 0.088632 1.606227
    46 -2.666946 9.350911 -0.262871 1.580804 -0.005023 -1.416213
  time 26
    0 -0.349399 1.166145 0.203512 0.000000 0.000000 0.000000
    1 9.108432 -2.682486 -10.603069 -0.856559 -1.134285 0.540412
    2 -0.071918 -8.498730 -0.104136 0.222562 0.056847 -0.258925
    3 2.834877 -3.284037 0.535784 -3.053061 0.124698 -1.545787
    4 -0.937847 3.087766 -0.006773 0.000000 0.000000 1.745329
    5 0.000000 0.000000 -0.000001 0.000000 0.000000 0.000000
    6 9.280671 -0.119233 0.129653 0.013190 0.190174 -1.575995
    7 -9.004620 -1.417658 -9.651738 1.104505 1.854128 1.378723
    8 0.096945 -8.450418 -0.009363 0.113342 -0.330486 0.099449
    9 -2.961830 -3.210661 0.985425 -0.073896 0.213120 -1.439451
    10 9.226532 0.012792 0.018556 0.017134 -0.145892 -1.609947
    11 -0.937847 3.087766 -0.010345 0.000000 0.000000 1.745330
    12 0.000000 0.000000 -0.000005 0.000000 0.000000 0.000000
    13 1.257180 8.762585 -0.153713 -1.570562 0.002683 -1.566807
    14 -0.488518 -2.755602 -0.228260 -0.647307 -0.134082 -0.416251
    15 0.039887 -1.479790 0.029854 -2.301996 0.000000 0.000001
    16 0.028786 -1.075731 -0.023109 -0.271941 0.000000 0.000000
    17 0.250027 -2.820665 -0.238396 -0.437374 -0.105209 -0.434549
    18 -0.049759 -1.680544 0.100479 -2.367108 0.000000 -0.000002
    19 -0.034142 -1.148312 0.084782 -0.535839 0.000000 0.000000
    20 0.957766 -2.746780 -0.090302 0.362703 -0.147176 -0.203865
    21 -0.033420 -1.397129 -0.011257 -1.115593 0.000000 -0.000001
    22 -0.022360 -0.957436 0.018784 -1.148778 0.000000 0.000000
    23 -1.180681 -2.507217 -0.193859 -0.393134 0.029677 -0.287744
    24 -0.024967 -1.123934 0.017597 -2.113280 0.000000 0.000001
    25 -0.020057 -0.890968 0.010090 -0.761958 0.000000 0.000000
    26 0.583510 -1.197277 0.185379 0.535783 -0.585068 -1.177524
    27 1.535927 0.010246 0.005009 -0.002964 -0.012979 -0.682290
    28 1.100771 0.004527 -0.010679 -0.016147 -0.001453 -1.484153
    29 0.120153 -0.050270 -0.054489 0.287569 3.110905 1.561085
    30 0.447953 -2.798986 -0.200443 -1.437466 0.114004 0.072885
    31 -0.032909 -1.480204 0.004940 -1.509334 0.000000 0.000002
    32 -0.027022 -1.076920 -0.020210 -0.468857 0.000000 0.000000
    33 -0.249534 -2.846964 -0.174213 -1.276464 0.102703 0.104139
    34 0.043235 -1.683941 0.096012 -1.748945 0.002823 -0.000167
    35 0.031729 -1.160830 0.058838 -0.441250 0.000642 0.008372
    36 -0.963866 -2.785145 -0.085350 -0.264114 0.117202 0.219423
    37 0.028479 -1.403067 0.006271 -1.337894 0.000000 0.000000
    38 0.021413 -0.957781 0.020046 -1.052201 0.000000 0.000000
    39 1.164475 -2.543940 -0.170330 -1.221927 -0.015463 0.162804
    40 0.024032 -1.129042 0.017807 -1.512647 0.000000 0.000001
    41 0.014898 -0.883989 -0.019848 -0.378788 0.000000 0.000000
    42 -0.586770 -1.264477 0.200161 0.326456 -0.694116 -2.834291
    43 1.522835 0.058681 0.016848 0.001410 0.008985 1.061041
    44 1.117947 0.048424 -0.005766 -0.024907 -0.003817 1.474654
    45 -0.139399 -0.111698 0.014397 0.326501 0.088632 1.606227
    46 -2.666946 9.350911 -0.262871 1.580804 -0.005023 -1.416213
  time 27
    0 -0.349399 1.166145 0.203512 0.000000 0.000000 0.000000
    1 9.092806 -2.674673 -10.595257 -0.860665 -1.134934 0.545150
    2 -0.071918 -8.498730 -0.104136 0.222352 0.057902 -0.258424
    3 2.834877 -3.284037 0.535784 -3.053061 0.124698 -1.545787
    4 -0.937847 3.087766 -0.006773 0.000000 0.000000 1.745329
    5 0.000000 0.000000 -0.000001 0.000000 0.000000 0.000000
    6 9.280671 -0.119233 0.129653 0.013190 0.190174 -1.575995
    7 -9.004620 -1.378594 -9.655644 1.111335 1.853816 1.385826
    8 0.096945 -8.450418 -0.009363 0.113392 -0.330720 0.099386
    9 -2.961830 -3.210661 0.985425 -0.073896 0.213120 -1.439451
    10 9.226532 0.012792 0.018556 0.017134 -0.145892 -1.609947
    11 -0.937847 3.087766 -0.010345 0.000000 0.000000 1.745330
    12 0.000000 0.000000 -0.000005 0.000000 0.000000 0.000000
    13 1.257180 8.762585 -0.153713 -1.570562 0.002683 -1.566807
    14 -0.488518 -2.755602 -0.228260 -0.647307 -0.134082 -0.416251
    15 0.039887 -1.479790 0.029854 -2.301996 0.000000 0.000001
    16 0.028786 -1.075731 -0.023109 -0.271941 0.000000 0.000000
    17 0.250027 -2.820665 -0.238396 -0.437374 -0.105209 -0.434549
    18 -0.049759 -1.680544 0.100479 -2.367108 0.000000 -0.000002
    19 -0.034142 -1.148312 0.084782 -0.535839 0.000000 0.000000
    20 0.957766 -2.746780 -0.090302 0.362703 -0.147176 -0.203865
    21 -0.033420 -1.397129 -0.011257 -1.115593 0.000000 -0.000001
    22 -0.022360 -0.957436 0.018784 -1.148778 0.000000 0.000000
    23 -1.180681 -2.507217 -0.193859 -0.393134 0.029677 -0.287744
    24 -0.024967 -1.123934 0.017597 -2.113280 0.000000 0.000001
    25 -0.020057 -0.890968 0.010090 -0.761958 0.000000 0.000000
    26 0.583510 -1.197277 0.185379 0.535783 -0.585068 -1.177524
    27 1.535927 0.010246 0.005009 -0.002964 -0.012979 -0.682290
    28 1.100771 0.004527 -0.010679 -0.016147 -0.001453 -1.484153
    29 0.120153 -0.050270 -0.054489 0.287569 3.110905 1.561085
    30 0.447953 -2.798986 -0.200443 -1.437466 0.114004 0.072885
    31 -0.032909 -1.480204 0.004940 -1.509334 0.000000 0.000002
    32 -0.027022 -1.076920 -0.020210 -0.468857 0.000000 0.000000
    33 -0.249534 -2.846964 -0.174213 -1.276464 0.102703 0.104139
    34 0.043235 -1.683941 0.096012 -1.748945 0.002823 -0.000167
    35 0.031729 -1.160830 0.058838 -0.441250 0.000642 0.008372
    36 -0.963866 -2.785145 -0.085350 -0.264114 0.117202 0.219423
    37 0.028479 -1.403067 0.006271 -1.337894 0.000000 0.000000
    38 0.021413 -0.957781 0.020046 -1.052201 0.000000 0.000000
    39 1.164475 -2.543940 -0.170330 -1.221927 -0.015463 0.162804
    40 0.024032 -1.129042 0.017807 -1.512647 0.000000 0.000001
    41 0.014898 -0.883989 -0.019848 -0.378788 0.000000 0.000000
    42 -0.586770 -1.264477 0.200161 0.326456 -0.694116 -2.834291
    43 1.522835 0.058681 0.016848 0.001410 0.008985 1.061041
    44 1.117947 0.048424 -0.005766 -0.024907 -0.003817 1.474654
    45 -0.139399 -0.111698 0.014397 0.326501 0.088632 1.606227
    46 -2.666946 9.350911 -0.262871 1.580804 -0.005023 -1.416213
  time 28
    0 -0.349399 1.166145 0.203512 0.000000 0.000000 0.000000
    1 9.073274 -2.666861 -10.587444 -0.864524 -1.135514 0.549634
    2 -0.071918 -8.498730 -0.104136 0.222167 0.058968 -0.257904
    3 2.834877 -3.284037 0.535784 -3.053061 0.124698 -1.545787
    4 -0.937847 3.087766 -0.006773 0.000000 0.000000 1.745329
    5 0.000000 0.000000 -0.000001 0.000000 0.000000 0.000000
    6 9.280671 -0.119233 0.129653 0.013190 0.190174 -1.575995
    7 -9.004620 -1.343437 -9.659551 1.117776 1.853589 1.392462
    8 0.096945 -8.450418 -0.009363 0.113417 -0.330882 0.099339
    9 -2.961830 -3.210661 0.985425 -0.073896 0.213120 -1.439451
    10 9.226532 0.012792 0.018556 0.017134 -0.145892 -1.609947
    11 -0.937847 3.087766 -0.010345 0.000000 0.000000 1.745330
    12 0.000000 0.000000 -0.000005 0.000000 0.000000 0.000000
    13 1.257180 8.762585 -0.153713 -1.570562 0.002683 -1.566807
    14 -0.488518 -2.755602 -0.228260 -0.647307 -0.134082 -0.416251
    15 0.039887 -1.479790 0.029854 -2.301996 0.000000 0.000001
    16 0.028786 -1.075731 -0.023109 -0.271941 0.000000 0.000000
    17 0.250027 -2.820665 -0.238396 -0.437374 -0.105209 -0.434549
    18 -0.049759 -1.680544 0.100479 -2.367108 0.000000 -0.000002
    19 -0.034142 -1.148312 0.084782 -0.535839 0.000000 0.000000
    20 0.957766 -2.746780 -0.090302 0.362703 -0.147176 -0.203865
    21 -0.033420 -1.397129 -0.011257 -1.115593 0.000000 -0.000001
    22 -0.022360 -0.957436 0.018784 -1.148778 0.000000 0.000000
    23 -1.180681 -2.507217 -0.193859 -0.393134 0.029677 -0.287744
    24 -0.024967 -1.123934 0.017597 -2.113280 0.000000 0.000001
    25 -0.020057 -0.890968 0.010090 -0.761958 0.000000 0.000000
    26 0.583510 -1.197277 0.185379 0.535783 -0.585068 -1.177524
    27 1.535927 0.010246 0.005009 -0.002964 -0.012979 -0.682290
    28 1.100771 0.004527 -0.010679 -0.016147 -0.001453 -1.484153
    29 0.120153 -0.050270 -0.054489 0.287569 3.110905 1.561085
    30 0.447953 -2.798986 -0.200443 -1.437466 0.114004 0.072885
    31 -0.032909 -1.480204 0.004940 -1.509334 0.000000 0.000002
    32 -0.027022 -1.076920 -0.020210 -0.468857 0.000000 0.000000
    33 -0.249534 -2.846964 -0.174213 -1.276464 0.102703 0.104139
    34 0.043235 -1.683941 0.096012 -1.748945 0.002823 -0.000167
    35 0.031729 -1.160830 0.058838 -0.441250 0.000642 0.008372
    36 -0.963866 -2.785145 -0.085350 -0.264114 0.117202 0.219423
    37 0.028479 -1.403067 0.006271 -1.337894 0.000000 0.000000
    38 0.021413 -0.957781 0.020046 -1.052201 0.000000 0.000000
    39 1.164475 -2.543940 -0.170330 -1.221927 -0.015463 0.162804
    40 0.024032 -1.129042 0.017807 -1.512647 0.000000 0.000001
    41 0.014898 -0.883989 -0.019848 -0.378788 0.000000 0.000000
    42 -0.586770 -1.264477 0.200161 0.326456 -0.694116 -2.834291
    43 1.522835 0.058681 0.016848 0.001410 0.008985 1.061041
    44 1.117947 0.048424 -0.005766 -0.024907 -0.003817 1.474654
    45 -0.139399 -0.111698 0.014397 0.326501 0.088632 1.606227
    46 -2.666946 9.350911 -0.262871 1.580804 -0.005023 -1.416213
  time 29
    0 -0.349399 1.166145 0.203512 0.000000 0.000000 0.000000
    1 9.053743 -2.659048 -10.579631 -0.867891 -1.135955 0.553610
    2 -0.071918 -8.498730 -0.104136 0.221957 0.060071 -0.257385
    3 2.834877 -3.284037 0.535784 -3.053061 0.124698 -1.545787
    4 -0.937847 3.087766 -0.006773 0.000000 0.000000 1.745329
    5 0.000000 0.000000 -0.000001 0.000000 0.000000 0.000000
    6 9.280671 -0.119233 0.129653 0.013190 0.190174 -1.575995
    7 -9.004620 -1.304373 -9.667364 1.123675 1.853504 1.398629
    8 0.096945 -8.450418 -0.009363 0.113441 -0.330954 0.099308
    9 -2.961830 -3.210661 0.985425 -0.073896 0.213120 -1.439451
    10 9.226532 0.012792 0.018556 0.017134 -0.145892 -1.609947
    11 -0.937847 3.087766 -0.010345 0.000000 0.000000 1.745330
    12 0.000000 0.000000 -0.000005 0.000000 0.000000 0.000000
    13 1.257180 8.762585 -0.153713 -1.570562 0.002683 -1.566807
    14 -0.488518 -2.755602 -0.228260 -0.647307 -0.134082 -0.416251
    15 0.039887 -1.479790 0.029854 -2.301996 0.000000 0.000001
    16 0.028786 -1.075731 -0.023109 -0.271941 0.000000 0.000000
    17 0.250027 -2.820665 -0.238396 -0.437374 -0.105209 -0.434549
    18 -0.049759 -1.680544 0.100479 -2.367108 0.000000 -0.000002
    19 -0.034142 -1.148312 0.084782 -0.535839 0.000000 0.000000
    20 0.957766 -2.746780 -0.090302 0.362703 -0.147176 -0.203865
    21 -0.033420 -1.397129 -0.011257 -1.115593 0.000000 -0.000001
    22 -0.022360 -0.957436 0.018784 -1.148778 0.000000 0.000000
    23 -1.180681 -2.507217 -0.193859 -0.393134 0.029677 -0.287744
    24 -0.024967 -1.123934 0.017597 -2.113280 0.000000 0.000001
    25 -0.020057 -0.890968 0.010090 -0.761958 0.000000 0.000000
    26 0.583510 -1.197277 0.185379 0.535783 -0.585068 -1.177524
    27 1.535927 0.010246 0.005009 -0.002964 -0.012979 -0.682290
    28 1.100771 0.004527 -0.010679 -0.016147 -0.001453 -1.484153
    29 0.120153 -0.050270 -0.054489 0.287569 3.110905 1.561085
    30 0.447953 -2.798986 -0.200443 -1.437466 0.114004 0.072885
    31 -0.032909 -1.480204 0.004940 -1.509334 0.000000 0.000002
    32 -0.027022 -1.076920 -0.020210 -0.468857 0.000000 0.000000
    33 -0.249534 -2.846964 -0.174213 -1.276464 0.102703 0.104139
    34 0.043235 -1.683941 0.096012 -1.748945 0.002823 -0.000167
    35 0.031729 -1.160830 0.058838 -0.441250 0.000642 0.008372
    36 -0.963866 -2.785145 -0.085350 -0.264114 0.117202 0.219423
    37 0.028479 -1.403067 0.006271 -1.337894 0.000000 0.000000
    38 0.021413 -0.957781 0.020046 -1.052201 0.000000 0.000000
    39 1.164475 -2.543940 -0.170330 -1.221927 -0.015463 0.162804
    40 0.024032 -1.129042 0.017807 -1.512647 0.000000 0.000001
    41 0.014898 -0.883989 -0.019848 -0.378788 0.000000 0.000000
    42 -0.586770 -1.264477 0.200161 0.326456 -0.694116 -2.834291
    43 1.522835 0.058681 0.016848 0.001410 0.008985 1.061041
    44 1.117947 0.048424 -0.005766 -0.024907 -0.003817 1.474654
    45 -0.139399 -0.111698 0.014397 0.326501 0.088632 1.606227
    46 -2.666946 9.350911 -0.262871 1.580804 -0.005023 -1.416213
end
