version 1
nodes
  0 "Bone01" -1
  1 "Bone_Lefthand" 0
  2 "BONE_SteyrTMP" 1
  3 "Bone03" 2
  4 "BONE_Magazine" 3
  5 "BONE_Trigger" 3
  6 "BONE_Ejector" 3
  7 "Bone 04" 1
  8 "Bone13" 7
  9 "Bone14" 8
  10 "Bone15" 9
  11 "Bone17" 7
  12 "Bone18" 11
  13 "Bone19" 12
  14 "Bone21" 7
  15 "Bone22" 14
  16 "Bone23" 15
  17 "Bone05" 7
  18 "Bone06" 17
  19 "Bone07" 18
  20 "Bone09" 7
  21 "Bone10" 20
  22 "Bone11" 21
  23 "Bone04" -1
  24 "Bone_Righthand" 23
  25 "Bone26" 24
  26 "Bone35" 25
  27 "Bone36" 26
  28 "Bone37" 27
  29 "Bone31" 25
  30 "Bone32" 29
  31 "Bone33" 30
  32 "Bone39" 25
  33 "Bone40" 32
  34 "Bone41" 33
  35 "Bone43" 25
  36 "Bone44" 35
  37 "Bone45" 36
  38 "Bone27" 25
  39 "Bone28" 38
  40 "Bone29" 39
end
skeleton
  time 0
    0 8.106566 1.165595 -7.444036 1.364571 -0.595416 -1.675351
    1 0.000001 -8.563286 0.000002 0.365126 0.018308 -0.526610
    2 -0.369222 -3.628151 0.519134 -1.186399 1.434476 -1.173754
    3 0.000000 2.607914 0.629496 0.000000 0.000000 0.000000
    4 0.000000 -1.303957 1.019184 0.000000 0.000000 0.000000
    5 -0.000001 -2.877697 1.453836 0.000000 0.000000 0.000000
    6 -0.000001 -0.239809 2.158269 0.000000 0.000000 0.000000
    7 -0.003480 -0.404830 0.000001 0.000000 0.000000 0.000000
    8 -0.519308 -2.501153 -0.278957 -1.003564 0.000000 -0.122173
    9 -0.010598 -1.208185 0.000001 -1.221727 0.000000 0.000000
    10 0.000000 -0.763067 0.000000 -1.178108 0.000000 0.000000
    11 0.105981 -2.607133 -0.278957 -0.890118 0.000000 -0.148353
    12 0.000001 -1.250579 0.000000 -1.300264 0.000000 0.000000
    13 0.000000 -0.932634 0.000000 -1.274094 0.000000 0.000000
    14 0.763064 -2.490556 -0.278957 -0.295638 0.025479 0.214361
    15 -0.012322 -1.280917 0.000001 -0.785372 0.000000 0.000000
    16 -0.001697 -0.749371 0.000000 -0.593412 0.000000 0.000000
    17 0.354567 0.016268 0.318133 0.342077 -0.443527 -1.083976
    18 1.887165 0.012878 0.000000 -0.301502 -0.049640 -0.559682
    19 1.001874 -0.000270 0.000000 0.000000 0.000000 -0.759198
    20 -1.123358 -2.195092 -0.278957 -0.864264 0.002816 -0.081154
    21 0.010772 -0.963791 0.000001 -0.575966 0.000000 0.000000
    22 -0.010412 -0.631916 -0.000001 -1.431159 0.000000 0.000000
    23 -0.577655 -5.615167 -9.483005 1.565137 0.482292 -4.058073
    24 0.089932 -8.543163 0.000002 0.044189 0.080655 0.503149
    25 0.000000 -0.359713 0.000000 0.000000 0.000000 0.000000
    26 -0.170479 -2.636148 -0.277654 -1.160687 0.000000 0.000000
    27 0.010599 -1.261177 0.000001 -0.881370 0.000000 0.000000
    28 -0.000001 -0.943233 0.000000 -0.916292 0.000000 0.000000
    29 -0.827562 -2.508974 -0.277655 -1.239206 0.000000 0.000000
    30 0.000000 -1.292971 0.000000 -0.811549 0.000000 0.000000
    31 0.000000 -0.752466 0.000000 -1.160644 0.000000 0.000000
    32 0.444214 -2.561961 -0.277654 -1.116425 -0.047988 -0.024479
    33 0.021022 -1.208186 0.000000 -0.733035 0.000000 0.000000
    34 0.010598 -0.741867 -0.000001 -0.846473 0.000000 0.000000
    35 1.047446 -2.222822 -0.277654 -0.854492 -0.053779 -0.039460
    36 0.000000 -0.996223 -0.000002 -0.584707 0.000000 0.000000
    37 -0.000001 -0.614690 0.000000 -0.916284 0.000000 0.000000
    38 -0.308253 -0.007814 0.307165 0.078469 -0.558446 -2.106404
    39 1.978378 0.019544 -0.000001 -0.000002 -0.000010 0.567231
    40 0.982426 0.003186 0.000000 0.000000 0.000000 0.593405
  time 1
    0 8.106566 1.165595 -7.444036 1.316254 -0.740439 -1.578146
    1 0.000001 -8.563286 0.000002 0.363149 0.027919 -0.503444
    2 -0.369222 -3.628151 0.519134 -1.186399 1.434476 -1.173754
    3 0.000000 2.607914 0.629496 0.000000 0.000000 0.000000
    4 0.000000 -1.303957 1.019184 0.000000 0.000000 0.000000
    5 -0.000001 -2.877697 1.453836 0.000000 0.000000 0.000000
    6 -0.000001 -0.239809 2.158269 0.000000 0.000000 0.000000
    7 -0.003480 -0.404830 0.000001 0.000000 0.000000 0.000000
    8 -0.519308 -2.501153 -0.278957 -1.003564 0.000000 -0.122173
    9 -0.010598 -1.208185 0.000001 -1.221727 0.000000 0.000000
    10 0.000000 -0.763067 0.000000 -1.178108 0.000000 0.000000
    11 0.105981 -2.607133 -0.278957 -0.890118 0.000000 -0.148353
    12 0.000001 -1.250579 0.000000 -1.300264 0.000000 0.000000
    13 0.000000 -0.932634 0.000000 -1.274094 0.000000 0.000000
    14 0.763064 -2.490556 -0.278957 -0.295638 0.025479 0.214361
    15 -0.012322 -1.280917 0.000001 -0.785372 0.000000 0.000000
    16 -0.001697 -0.749371 0.000000 -0.593412 0.000000 0.000000
    17 0.354567 0.016268 0.318133 0.342077 -0.443527 -1.083976
    18 1.887165 0.012878 0.000000 -0.301502 -0.049640 -0.559682
    19 1.001874 -0.000270 0.000000 0.000000 0.000000 -0.759198
    20 -1.123358 -2.195092 -0.278957 -0.864264 0.002816 -0.081154
    21 0.010772 -0.963791 0.000001 -0.575966 0.000000 0.000000
    22 -0.010412 -0.631916 -0.000001 -1.431159 0.000000 0.000000
    23 -0.577655 -5.326096 -9.174402 -1.542270 2.521883 -0.937690
    24 0.089932 -8.543163 0.000002 0.037514 0.019267 0.495251
    25 0.000000 -0.359713 0.000000 0.000000 0.000000 0.000000
    26 -0.170479 -2.636148 -0.277654 -1.063906 0.000000 0.000000
    27 0.010599 -1.261177 0.000001 -0.797301 0.000000 0.000000
    28 -0.000001 -0.943233 0.000000 -0.845103 0.000000 0.000000
    29 -0.827562 -2.508974 -0.277655 -1.115918 0.000000 0.000000
    30 0.000000 -1.292971 0.000000 -0.731622 0.000000 0.000000
    31 0.000000 -0.752466 0.000000 -1.055583 0.000000 0.000000
    32 0.444214 -2.561961 -0.277654 -1.042083 -0.047988 -0.024479
    33 0.021022 -1.208186 0.000000 -0.697283 0.000000 0.000000
    34 0.010598 -0.741867 -0.000001 -0.777561 0.000000 0.000000
    35 1.047446 -2.222822 -0.277654 -0.812894 -0.053779 -0.039460
    36 0.000000 -0.996223 -0.000002 -0.560067 0.000000 0.000000
    37 -0.000001 -0.614690 0.000000 -0.904487 0.000000 0.000000
    38 -0.308253 -0.007814 0.307165 0.086011 -0.612673 -2.090750
    39 1.978378 0.019544 -0.000001 -0.000002 -0.000010 0.550907
    40 0.982426 0.003186 0.000000 0.000000 0.000000 0.552502
  time 2
    0 8.106566 1.165595 -7.444036 1.229138 -0.888385 -1.439599
    1 0.000001 -8.563286 0.000002 0.361003 0.041510 -0.481248
    2 -0.369222 -3.628151 0.519134 -1.186399 1.434476 -1.173754
    3 0.000000 2.607914 0.629496 0.000000 0.000000 0.000000
    4 0.000000 -1.303957 1.019184 0.000000 0.000000 0.000000
    5 -0.000001 -2.877697 1.453836 0.000000 0.000000 0.000000
    6 -0.000001 -0.239809 2.158269 0.000000 0.000000 0.000000
    7 -0.003480 -0.404830 0.000001 0.000000 0.000000 0.000000
    8 -0.519308 -2.501153 -0.278957 -1.003564 0.000000 -0.122173
    9 -0.010598 -1.208185 0.000001 -1.221727 0.000000 0.000000
    10 0.000000 -0.763067 0.000000 -1.178108 0.000000 0.000000
    11 0.105981 -2.607133 -0.278957 -0.890118 0.000000 -0.148353
    12 0.000001 -1.250579 0.000000 -1.300264 0.000000 0.000000
    13 0.000000 -0.932634 0.000000 -1.274094 0.000000 0.000000
    14 0.763064 -2.490556 -0.278957 -0.295638 0.025479 0.214361
    15 -0.012322 -1.280917 0.000001 -0.785372 0.000000 0.000000
    16 -0.001697 -0.749371 0.000000 -0.593412 0.000000 0.000000
    17 0.354567 0.016268 0.318133 0.342077 -0.443527 -1.083976
    18 1.887165 0.012878 0.000000 -0.301502 -0.049640 -0.559682
    19 1.001874 -0.000270 0.000000 0.000000 0.000000 -0.759198
    20 -1.123358 -2.195092 -0.278957 -0.864264 0.002816 -0.081154
    21 0.010772 -0.963791 0.000001 -0.575966 0.000000 0.000000
    22 -0.010412 -0.631916 -0.000001 -1.431159 0.000000 0.000000
    23 -0.577655 -5.083901 -8.936114 -1.506921 2.383608 -0.959368
    24 0.089932 -8.543163 0.000002 0.029760 -0.049383 0.489031
    25 0.000000 -0.359713 0.000000 0.000000 0.000000 0.000000
    26 -0.170479 -2.636148 -0.277654 -0.956690 0.000000 0.000000
    27 0.010599 -1.261177 0.000001 -0.707638 0.000000 0.000000
    28 -0.000001 -0.943233 0.000000 -0.767509 0.000000 0.000000
    29 -0.827562 -2.508974 -0.277655 -0.979357 0.000000 0.000000
    30 0.000000 -1.292971 0.000000 -0.645218 0.000000 0.000000
    31 0.000000 -0.752466 0.000000 -0.944950 0.000000 0.000000
    32 0.444214 -2.561961 -0.277654 -0.959703 -0.047988 -0.024479
    33 0.021022 -1.208186 0.000000 -0.659158 0.000000 0.000000
    34 0.010598 -0.741867 -0.000001 -0.705887 0.000000 0.000000
    35 1.047446 -2.222822 -0.277654 -0.767844 -0.053779 -0.039460
    36 0.000000 -0.996223 -0.000002 -0.532941 0.000000 0.000000
    37 -0.000001 -0.614690 0.000000 -0.889049 0.000000 0.000000
    38 -0.308253 -0.007814 0.307165 0.093599 -0.674025 -2.072926
    39 1.978378 0.019544 -0.000001 -0.000002 -0.000010 0.532595
    40 0.982426 0.003186 0.000000 0.000000 0.000000 0.506349
  time 3
    0 8.106566 1.165595 -7.444036 1.078665 -1.027259 -1.238299
    1 0.000001 -8.563286 0.000002 0.358990 0.057102 -0.459604
    2 -0.369222 -3.628151 0.519134 -1.186399 1.434476 -1.173754
    3 0.000000 2.607914 0.629496 0.000000 0.000000 0.000000
    4 0.000000 -1.303957 1.019184 0.000000 0.000000 0.000000
    5 -0.000001 -2.877697 1.453836 0.000000 0.000000 0.000000
    6 -0.000001 -0.239809 2.158269 0.000000 0.000000 0.000000
    7 -0.003480 -0.404830 0.000001 0.000000 0.000000 0.000000
    8 -0.519308 -2.501153 -0.278957 -1.003564 0.000000 -0.122173
    9 -0.010598 -1.208185 0.000001 -1.221727 0.000000 0.000000
    10 0.000000 -0.763067 0.000000 -1.178108 0.000000 0.000000
    11 0.105981 -2.607133 -0.278957 -0.890118 0.000000 -0.148353
    12 0.000001 -1.250579 0.000000 -1.300264 0.000000 0.000000
    13 0.000000 -0.932634 0.000000 -1.274094 0.000000 0.000000
    14 0.763064 -2.490556 -0.278957 -0.295638 0.025479 0.214361
    15 -0.012322 -1.280917 0.000001 -0.785372 0.000000 0.000000
    16 -0.001697 -0.749371 0.000000 -0.593412 0.000000 0.000000
    17 0.354567 0.016268 0.318133 0.342077 -0.443527 -1.083976
    18 1.887165 0.012878 0.000000 -0.301502 -0.049640 -0.559682
    19 1.001874 -0.000270 0.000000 0.000000 0.000000 -0.759198
    20 -1.123358 -2.195092 -0.278957 -0.864264 0.002816 -0.081154
    21 0.010772 -0.963791 0.000001 -0.575966 0.000000 0.000000
    22 -0.010412 -0.631916 -0.000001 -1.431159 0.000000 0.000000
    23 -0.577655 -4.892489 -8.752514 -1.470620 2.244812 -0.976711
    24 0.089932 -8.543163 0.000002 0.021742 -0.120948 0.483853
    25 0.000000 -0.359713 0.000000 0.000000 0.000000 0.000000
    26 -0.170479 -2.636148 -0.277654 -0.846819 0.000000 0.000000
    27 0.010599 -1.261177 0.000001 -0.616524 0.000000 0.000000
    28 -0.000001 -0.943233 0.000000 -0.688327 0.000000 0.000000
    29 -0.827562 -2.508974 -0.277655 -0.839487 0.000000 0.000000
    30 0.000000 -1.292971 0.000000 -0.557241 0.000000 0.000000
    31 0.000000 -0.752466 0.000000 -0.832923 0.000000 0.000000
    32 0.444214 -2.561961 -0.277654 -0.875230 -0.047988 -0.024479
    33 0.021022 -1.208186 0.000000 -0.620453 0.000000 0.000000
    34 0.010598 -0.741867 -0.000001 -0.633561 0.000000 0.000000
    35 1.047446 -2.222822 -0.277654 -0.721848 -0.053779 -0.039460
    36 0.000000 -0.996223 -0.000002 -0.505228 0.000000 0.000000
    37 -0.000001 -0.614690 0.000000 -0.872713 0.000000 0.000000
    38 -0.308253 -0.007814 0.307165 0.100529 -0.739451 -2.053584
    39 1.978378 0.019544 -0.000001 -0.000002 -0.000010 0.513051
    40 0.982426 0.003186 0.000000 0.000000 0.000000 0.457200
  time 4
    0 8.106566 1.165595 -7.444036 0.829628 -1.139912 -0.941331
    1 0.000001 -8.563286 0.000002 0.357300 0.072718 -0.437936
    2 -0.369222 -3.628151 0.519134 -1.186399 1.434476 -1.173754
    3 0.000000 2.607914 0.629496 0.000000 0.000000 0.000000
    4 0.000000 -1.303957 1.019184 0.000000 0.000000 0.000000
    5 -0.000001 -2.877697 1.453836 0.000000 0.000000 0.000000
    6 -0.000001 -0.239809 2.158269 0.000000 0.000000 0.000000
    7 -0.003480 -0.404830 0.000001 0.000000 0.000000 0.000000
    8 -0.519308 -2.501153 -0.278957 -1.003564 0.000000 -0.122173
    9 -0.010598 -1.208185 0.000001 -1.221727 0.000000 0.000000
    10 0.000000 -0.763067 0.000000 -1.178108 0.000000 0.000000
    11 0.105981 -2.607133 -0.278957 -0.890118 0.000000 -0.148353
    12 0.000001 -1.250579 0.000000 -1.300264 0.000000 0.000000
    13 0.000000 -0.932634 0.000000 -1.274094 0.000000 0.000000
    14 0.763064 -2.490556 -0.278957 -0.295638 0.025479 0.214361
    15 -0.012322 -1.280917 0.000001 -0.785372 0.000000 0.000000
    16 -0.001697 -0.749371 0.000000 -0.593412 0.000000 0.000000
    17 0.354567 0.016268 0.318133 0.342077 -0.443527 -1.083976
    18 1.887165 0.012878 0.000000 -0.301502 -0.049640 -0.559682
    19 1.001874 -0.000270 0.000000 0.000000 0.000000 -0.759198
    20 -1.123358 -2.195092 -0.278957 -0.864264 0.002816 -0.081154
    21 0.010772 -0.963791 0.000001 -0.575966 0.000000 0.000000
    22 -0.010412 -0.631916 -0.000001 -1.431159 0.000000 0.000000
    23 -0.577655 -4.747953 -8.627511 -1.430985 2.106257 -0.982943
    24 0.089932 -8.543163 0.000002 0.014348 -0.191126 0.478904
    25 0.000000 -0.359713 0.000000 0.000000 0.000000 0.000000
    26 -0.170479 -2.636148 -0.277654 -0.742166 0.000000 0.000000
    27 0.010599 -1.261177 0.000001 -0.528274 0.000000 0.000000
    28 -0.000001 -0.943233 0.000000 -0.612348 0.000000 0.000000
    29 -0.827562 -2.508974 -0.277655 -0.706237 0.000000 0.000000
    30 0.000000 -1.292971 0.000000 -0.472451 0.000000 0.000000
    31 0.000000 -0.752466 0.000000 -0.723710 0.000000 0.000000
    32 0.444214 -2.561961 -0.277654 -0.794859 -0.047988 -0.024479
    33 0.021022 -1.208186 0.000000 -0.582910 0.000000 0.000000
    34 0.010598 -0.741867 -0.000001 -0.562577 0.000000 0.000000
    35 1.047446 -2.222822 -0.277654 -0.677662 -0.053779 -0.039460
    36 0.000000 -0.996223 -0.000002 -0.478709 0.000000 0.000000
    37 -0.000001 -0.614690 0.000000 -0.858196 0.000000 0.000000
    38 -0.308253 -0.007814 0.307165 0.106169 -0.805945 -2.033301
    39 1.978378 0.019544 -0.000001 -0.000002 -0.000010 0.492975
    40 0.982426 0.003186 0.000000 0.000000 0.000000 0.407308
  time 5
    0 8.106566 1.165595 -7.444036 0.467720 -1.204441 -0.536510
    1 0.000001 -8.563286 0.000002 0.356126 0.086428 -0.415777
    2 -0.369222 -3.628151 0.519134 -1.186399 1.434476 -1.173754
    3 0.000000 2.607914 0.629496 0.000000 0.000000 0.000000
    4 0.000000 -1.303957 1.019184 0.000000 0.000000 0.000000
    5 -0.000001 -2.877697 1.453836 0.000000 0.000000 0.000000
    6 -0.000001 -0.239809 2.158269 0.000000 0.000000 0.000000
    7 -0.003480 -0.404830 0.000001 0.000000 0.000000 0.000000
    8 -0.519308 -2.501153 -0.278957 -1.003564 0.000000 -0.122173
    9 -0.010598 -1.208185 0.000001 -1.221727 0.000000 0.000000
    10 0.000000 -0.763067 0.000000 -1.178108 0.000000 0.000000
    11 0.105981 -2.607133 -0.278957 -0.890118 0.000000 -0.148353
    12 0.000001 -1.250579 0.000000 -1.300264 0.000000 0.000000
    13 0.000000 -0.932634 0.000000 -1.274094 0.000000 0.000000
    14 0.763064 -2.490556 -0.278957 -0.295638 0.025479 0.214361
    15 -0.012322 -1.280917 0.000001 -0.785372 0.000000 0.000000
    16 -0.001697 -0.749371 0.000000 -0.593412 0.000000 0.000000
    17 0.354567 0.016268 0.318133 0.342077 -0.443527 -1.083976
    18 1.887165 0.012878 0.000000 -0.301502 -0.049640 -0.559682
    19 1.001874 -0.000270 0.000000 0.000000 0.000000 -0.759198
    20 -1.123358 -2.195092 -0.278957 -0.864264 0.002816 -0.081154
    21 0.010772 -0.963791 0.000001 -0.575966 0.000000 0.000000
    22 -0.010412 -0.631916 -0.000001 -1.431159 0.000000 0.000000
    23 -0.577655 -4.654200 -8.565009 -1.379248 1.969182 -0.965330
    24 0.089932 -8.543163 0.000002 0.008547 -0.255570 0.473163
    25 0.000000 -0.359713 0.000000 0.000000 0.000000 0.000000
    26 -0.170479 -2.636148 -0.277654 -0.650664 0.000000 0.000000
    27 0.010599 -1.261177 0.000001 -0.446993 0.000000 0.000000
    28 -0.000001 -0.943233 0.000000 -0.544334 0.000000 0.000000
    29 -0.827562 -2.508974 -0.277655 -0.589600 0.000000 0.000000
    30 0.000000 -1.292971 0.000000 -0.395731 0.000000 0.000000
    31 0.000000 -0.752466 0.000000 -0.621408 0.000000 0.000000
    32 0.444214 -2.561961 -0.277654 -0.724507 -0.047988 -0.024479
    33 0.021022 -1.208186 0.000000 -0.548344 0.000000 0.000000
    34 0.010598 -0.741867 -0.000001 -0.495008 0.000000 0.000000
    35 1.047446 -2.222822 -0.277654 -0.637831 -0.053779 -0.039460
    36 0.000000 -0.996223 -0.000002 -0.455282 0.000000 0.000000
    37 -0.000001 -0.614690 0.000000 -0.848197 0.000000 0.000000
    38 -0.308253 -0.007814 0.307165 0.110019 -0.870547 -2.012712
    39 1.978378 0.019544 -0.000001 -0.000002 -0.000010 0.473165
    40 0.982426 0.003186 0.000000 0.000000 0.000000 0.358903
  time 6
    0 8.106566 1.165595 -7.444036 0.073202 -1.209221 -0.106177
    1 0.000001 -8.563286 0.000002 0.355466 0.096195 -0.392598
    2 -0.369222 -3.628151 0.519134 -1.186399 1.434476 -1.173754
    3 0.000000 2.607914 0.629496 0.000000 0.000000 0.000000
    4 0.000000 -1.303957 1.019184 0.000000 0.000000 0.000000
    5 -0.000001 -2.877697 1.453836 0.000000 0.000000 0.000000
    6 -0.000001 -0.239809 2.158269 0.000000 0.000000 0.000000
    7 -0.003480 -0.404830 0.000001 0.000000 0.000000 0.000000
    8 -0.519308 -2.501153 -0.278957 -1.003564 0.000000 -0.122173
    9 -0.010598 -1.208185 0.000001 -1.221727 0.000000 0.000000
    10 0.000000 -0.763067 0.000000 -1.178108 0.000000 0.000000
    11 0.105981 -2.607133 -0.278957 -0.890118 0.000000 -0.148353
    12 0.000001 -1.250579 0.000000 -1.300264 0.000000 0.000000
    13 0.000000 -0.932634 0.000000 -1.274094 0.000000 0.000000
    14 0.763064 -2.490556 -0.278957 -0.295638 0.025479 0.214361
    15 -0.012322 -1.280917 0.000001 -0.785372 0.000000 0.000000
    16 -0.001697 -0.749371 0.000000 -0.593412 0.000000 0.000000
    17 0.354567 0.016268 0.318133 0.342077 -0.443527 -1.083976
    18 1.887165 0.012878 0.000000 -0.301502 -0.049640 -0.559682
    19 1.001874 -0.000270 0.000000 0.000000 0.000000 -0.759198
    20 -1.123358 -2.195092 -0.278957 -0.864264 0.002816 -0.081154
    21 0.010772 -0.963791 0.000001 -0.575966 0.000000 0.000000
    22 -0.010412 -0.631916 -0.000001 -1.431159 0.000000 0.000000
    23 -0.577655 -4.607324 -8.565009 -1.285971 1.835509 -0.890269
    24 0.089932 -8.543163 0.000002 0.005467 -0.309962 0.465469
    25 0.000000 -0.359713 0.000000 0.000000 0.000000 0.000000
    26 -0.170479 -2.636148 -0.277654 -0.580183 0.000000 0.000000
    27 0.010599 -1.261177 0.000001 -0.376996 0.000000 0.000000
    28 -0.000001 -0.943233 0.000000 -0.489129 0.000000 0.000000
    29 -0.827562 -2.508974 -0.277655 -0.499507 0.000000 0.000000
    30 0.000000 -1.292971 0.000000 -0.331883 0.000000 0.000000
    31 0.000000 -0.752466 0.000000 -0.530224 0.000000 0.000000
    32 0.444214 -2.561961 -0.277654 -0.670286 -0.047988 -0.024479
    33 0.021022 -1.208186 0.000000 -0.518542 0.000000 0.000000
    34 0.010598 -0.741867 -0.000001 -0.432904 0.000000 0.000000
    35 1.047446 -2.222822 -0.277654 -0.605028 -0.053779 -0.039460
    36 0.000000 -0.996223 -0.000002 -0.436787 0.000000 0.000000
    37 -0.000001 -0.614690 0.000000 -0.845435 0.000000 0.000000
    38 -0.308253 -0.007814 0.307165 0.111899 -0.930160 -1.992520
    39 1.978378 0.019544 -0.000001 -0.000002 -0.000010 0.454360
    40 0.982426 0.003186 0.000000 0.000000 0.000000 0.314248
  time 7
    0 8.106566 1.165595 -7.444036 -0.236729 -1.173117 0.229854
    1 0.000001 -8.563286 0.000002 0.355311 0.100090 -0.367910
    2 -0.369222 -3.628151 0.519134 -1.186399 1.434476 -1.173754
    3 0.000000 2.607914 0.629496 0.000000 0.000000 0.000000
    4 0.000000 -1.303957 1.019184 0.000000 0.000000 0.000000
    5 -0.000001 -2.877697 1.453836 0.000000 0.000000 0.000000
    6 -0.000001 -0.239809 2.158269 0.000000 0.000000 0.000000
    7 -0.003480 -0.404830 0.000001 0.000000 0.000000 0.000000
    8 -0.519308 -2.501153 -0.278957 -1.003564 0.000000 -0.122173
    9 -0.010598 -1.208185 0.000001 -1.221727 0.000000 0.000000
    10 0.000000 -0.763067 0.000000 -1.178108 0.000000 0.000000
    11 0.105981 -2.607133 -0.278957 -0.890118 0.000000 -0.148353
    12 0.000001 -1.250579 0.000000 -1.300264 0.000000 0.000000
    13 0.000000 -0.932634 0.000000 -1.274094 0.000000 0.000000
    14 0.763064 -2.490556 -0.278957 -0.295638 0.025479 0.214361
    15 -0.012322 -1.280917 0.000001 -0.785372 0.000000 0.000000
    16 -0.001697 -0.749371 0.000000 -0.593412 0.000000 0.000000
    17 0.354567 0.016268 0.318133 0.342077 -0.443527 -1.083976
    18 1.887165 0.012878 0.000000 -0.301502 -0.049640 -0.559682
    19 1.001874 -0.000270 0.000000 0.000000 0.000000 -0.759198
    20 -1.123358 -2.195092 -0.278957 -0.864264 0.002816 -0.081154
    21 0.010772 -0.963791 0.000001 -0.575966 0.000000 0.000000
    22 -0.010412 -0.631916 -0.000001 -1.431159 0.000000 0.000000
    23 -0.577655 -4.607324 -8.623604 -0.927058 1.705599 -0.519303
    24 0.089932 -8.543163 0.000002 0.006270 -0.349916 0.454539
    25 0.000000 -0.359713 0.000000 0.000000 0.000000 0.000000
    26 -0.170479 -2.636148 -0.277654 -0.538566 0.000000 0.000000
    27 0.010599 -1.261177 0.000001 -0.322503 0.000000 0.000000
    28 -0.000001 -0.943233 0.000000 -0.451470 0.000000 0.000000
    29 -0.827562 -2.508974 -0.277655 -0.445951 0.000000 0.000000
    30 0.000000 -1.292971 0.000000 -0.285707 0.000000 0.000000
    31 0.000000 -0.752466 0.000000 -0.454283 0.000000 0.000000
    32 0.444214 -2.561961 -0.277654 -0.638166 -0.047988 -0.024479
    33 0.021022 -1.208186 0.000000 -0.495297 0.000000 0.000000
    34 0.010598 -0.741867 -0.000001 -0.378300 0.000000 0.000000
    35 1.047446 -2.222822 -0.277654 -0.581883 -0.053779 -0.039460
    36 0.000000 -0.996223 -0.000002 -0.425044 0.000000 0.000000
    37 -0.000001 -0.614690 0.000000 -0.852629 0.000000 0.000000
    38 -0.308253 -0.007814 0.307165 0.111945 -0.981762 -1.973792
    39 1.978378 0.019544 -0.000001 -0.000002 -0.000010 0.437278
    40 0.982426 0.003186 0.000000 0.000000 0.000000 0.275598
  time 8
    0 8.106566 1.165595 -7.444036 -0.441442 -1.128589 0.448067
    1 0.000001 -8.563286 0.000002 0.355514 0.096112 -0.341232
    2 -0.369222 -3.628151 0.519134 -1.186399 1.434476 -1.173754
    3 0.000000 2.607914 0.629496 0.000000 0.000000 0.000000
    4 0.000000 -1.303957 1.019184 0.000000 0.000000 0.000000
    5 -0.000001 -2.877697 1.453836 0.000000 0.000000 0.000000
    6 -0.000001 -0.239809 2.158269 0.000000 0.000000 0.000000
    7 -0.003480 -0.404830 0.000001 0.000000 0.000000 0.000000
    8 -0.519308 -2.501153 -0.278957 -1.003564 0.000000 -0.122173
    9 -0.010598 -1.208185 0.000001 -1.221727 0.000000 0.000000
    10 0.000000 -0.763067 0.000000 -1.178108 0.000000 0.000000
    11 0.105981 -2.607133 -0.278957 -0.890118 0.000000 -0.148353
    12 0.000001 -1.250579 0.000000 -1.300264 0.000000 0.000000
    13 0.000000 -0.932634 0.000000 -1.274094 0.000000 0.000000
    14 0.763064 -2.490556 -0.278957 -0.295638 0.025479 0.214361
    15 -0.012322 -1.280917 0.000001 -0.785372 0.000000 0.000000
    16 -0.001697 -0.749371 0.000000 -0.593412 0.000000 0.000000
    17 0.354567 0.016268 0.318133 0.342077 -0.443527 -1.083976
    18 1.887165 0.012878 0.000000 -0.301502 -0.049640 -0.559682
    19 1.001874 -0.000270 0.000000 0.000000 0.000000 -0.759198
    20 -1.123358 -2.195092 -0.278957 -0.864264 0.002816 -0.081154
    21 0.010772 -0.963791 0.000001 -0.575966 0.000000 0.000000
    22 -0.010412 -0.631916 -0.000001 -1.431159 0.000000 0.000000
    23 -0.577655 -4.658107 -8.744702 0.402646 1.679945 -5.431561
    24 0.089932 -8.543163 0.000002 0.011975 -0.371056 0.439247
    25 0.000000 -0.359713 0.000000 0.000000 0.000000 0.000000
    26 -0.170479 -2.636148 -0.277654 -0.566697 0.000000 0.000000
    27 0.010599 -1.261177 0.000001 -0.315763 0.000000 0.000000
    28 -0.000001 -0.943233 0.000000 -0.698145 0.000000 0.000000
    29 -0.827562 -2.508974 -0.277655 -0.453914 0.000000 0.000000
    30 0.000000 -1.292971 0.000000 -0.275470 0.000000 0.000000
    31 0.000000 -0.752466 0.000000 -0.470045 0.000000 0.000000
    32 0.444214 -2.561961 -0.277654 -0.659475 -0.047988 -0.024479
    33 0.021022 -1.208186 0.000000 -0.515433 0.000000 0.000000
    34 0.010598 -0.741867 -0.000001 -0.445080 0.000000 0.000000
    35 1.047446 -2.222822 -0.277654 -0.578958 -0.053779 -0.039460
    36 0.000000 -0.996223 -0.000002 -0.463580 0.000000 0.000000
    37 -0.000001 -0.614690 0.000000 -0.907334 0.000000 0.000000
    38 -0.308253 -0.007814 0.307165 0.110631 -1.022348 -1.957975
    39 1.978378 0.019544 -0.000001 -0.000002 -0.000010 0.422718
    40 0.982426 0.003186 0.000000 0.000000 0.000000 0.245193
  time 9
    0 8.106566 1.165595 -7.444036 -0.556909 -1.124528 0.548860
    1 0.000001 -8.563286 0.000002 0.355778 0.082305 -0.312134
    2 -0.369222 -3.628151 0.519134 -1.186399 1.434476 -1.173754
    3 0.000000 2.607914 0.629496 0.000000 0.000000 0.000000
    4 0.000000 -1.303957 1.019184 0.000000 0.000000 0.000000
    5 -0.000001 -2.877697 1.453836 0.000000 0.000000 0.000000
    6 -0.000001 -0.239809 2.158269 0.000000 0.000000 0.000000
    7 -0.003480 -0.404830 0.000001 0.000000 0.000000 0.000000
    8 -0.519308 -2.501153 -0.278957 -1.003564 0.000000 -0.122173
    9 -0.010598 -1.208185 0.000001 -1.221727 0.000000 0.000000
    10 0.000000 -0.763067 0.000000 -1.178108 0.000000 0.000000
    11 0.105981 -2.607133 -0.278957 -0.890118 0.000000 -0.148353
    12 0.000001 -1.250579 0.000000 -1.300264 0.000000 0.000000
    13 0.000000 -0.932634 0.000000 -1.274094 0.000000 0.000000
    14 0.763064 -2.490556 -0.278957 -0.295638 0.025479 0.214361
    15 -0.012322 -1.280917 0.000001 -0.785372 0.000000 0.000000
    16 -0.001697 -0.749371 0.000000 -0.593412 0.000000 0.000000
    17 0.354567 0.016268 0.318133 0.342077 -0.443527 -1.083976
    18 1.887165 0.012878 0.000000 -0.301502 -0.049640 -0.559682
    19 1.001874 -0.000270 0.000000 0.000000 0.000000 -0.759198
    20 -1.123358 -2.195092 -0.278957 -0.864264 0.002816 -0.081154
    21 0.010772 -0.963791 0.000001 -0.575966 0.000000 0.000000
    22 -0.010412 -0.631916 -0.000001 -1.431159 0.000000 0.000000
    23 -0.577655 -4.759672 -8.924395 0.952783 1.783561 -4.831168
    24 0.089932 -8.543163 0.000002 0.029616 -0.337369 0.414942
    25 0.000000 -0.359713 0.000000 0.000000 0.000000 0.000000
    26 -0.170479 -2.636148 -0.277654 -0.667506 0.000000 0.000000
    27 0.010599 -1.261177 0.000001 -0.362638 0.000000 0.000000
    28 -0.000001 -0.943233 0.000000 -0.744061 0.000000 0.000000
    29 -0.827562 -2.508974 -0.277655 -0.524645 0.000000 0.000000
    30 0.000000 -1.292971 0.000000 -0.305227 0.000000 0.000000
    31 0.000000 -0.752466 0.000000 -0.558497 0.000000 0.000000
    32 0.444214 -2.561961 -0.277654 -0.736478 -0.047988 -0.024479
    33 0.021022 -1.208186 0.000000 -0.558501 0.000000 0.000000
    34 0.010598 -0.741867 -0.000001 -0.496646 0.000000 0.000000
    35 1.047446 -2.222822 -0.277654 -0.598316 -0.053779 -0.039460
    36 0.000000 -0.996223 -0.000002 -0.514896 0.000000 0.000000
    37 -0.000001 -0.614690 0.000000 -0.996511 0.000000 0.000000
    38 -0.308253 -0.007814 0.307165 0.109091 -1.048897 -1.946948
    39 1.978378 0.019544 -0.000001 -0.000002 -0.000010 0.411378
    40 0.982426 0.003186 0.000000 0.000000 0.000000 0.225310
  time 10
    0 8.106566 1.165595 -7.444036 -0.617538 -1.178314 0.563893
    1 0.000001 -8.563286 0.000002 0.355442 0.039532 -0.273951
    2 -0.369222 -3.628151 0.519134 -1.186399 1.434476 -1.173754
    3 0.000000 2.607914 0.629496 0.000000 0.000000 0.000000
    4 0.000000 -1.303957 1.019184 0.000000 0.000000 0.000000
    5 -0.000001 -2.877697 1.453836 0.000000 0.000000 0.000000
    6 -0.000001 -0.239809 2.158269 0.000000 0.000000 0.000000
    7 -0.003480 -0.404830 0.000001 0.000000 0.000000 0.000000
    8 -0.519308 -2.501153 -0.278957 -1.003564 0.000000 -0.122173
    9 -0.010598 -1.208185 0.000001 -1.221727 0.000000 0.000000
    10 0.000000 -0.763067 0.000000 -1.178108 0.000000 0.000000
    11 0.105981 -2.607133 -0.278957 -0.890118 0.000000 -0.148353
    12 0.000001 -1.250579 0.000000 -1.300264 0.000000 0.000000
    13 0.000000 -0.932634 0.000000 -1.274094 0.000000 0.000000
    14 0.763064 -2.490556 -0.278957 -0.295638 0.025479 0.214361
    15 -0.012322 -1.280917 0.000001 -0.785372 0.000000 0.000000
    16 -0.001697 -0.749371 0.000000 -0.593412 0.000000 0.000000
    17 0.354567 0.016268 0.318133 0.342077 -0.443527 -1.083976
    18 1.887165 0.012878 0.000000 -0.301502 -0.049640 -0.559682
    19 1.001874 -0.000270 0.000000 0.000000 0.000000 -0.759198
    20 -1.123358 -2.195092 -0.278957 -0.864264 0.002816 -0.081154
    21 0.010772 -0.963791 0.000001 -0.575966 0.000000 0.000000
    22 -0.010412 -0.631916 -0.000001 -1.431159 0.000000 0.000000
    23 -0.577655 -4.904208 -9.162683 -2.038955 1.277325 -1.500869
    24 0.089932 -8.543163 0.000002 0.057157 -0.242757 0.382692
    25 0.000000 -0.359713 0.000000 0.000000 0.000000 0.000000
    26 -0.170479 -2.636148 -0.277654 -0.791747 0.000000 0.000000
    27 0.010599 -1.261177 0.000001 -0.427594 0.000000 0.000000
    28 -0.000001 -0.943233 0.000000 -0.780106 0.000000 0.000000
    29 -0.827562 -2.508974 -0.277655 -0.632351 0.000000 0.000000
    30 0.000000 -1.292971 0.000000 -0.358519 0.000000 0.000000
    31 0.000000 -0.752466 0.000000 -0.639000 0.000000 0.000000
    32 0.444214 -2.561961 -0.277654 -0.831535 -0.047988 -0.024479
    33 0.021022 -1.208186 0.000000 -0.584544 0.000000 0.000000
    34 0.010598 -0.741867 -0.000001 -0.547501 0.000000 0.000000
    35 1.047446 -2.222822 -0.277654 -0.629583 -0.053779 -0.039460
    36 0.000000 -0.996223 -0.000002 -0.530592 0.000000 0.000000
    37 -0.000001 -0.614690 0.000000 -1.047191 0.000000 0.000000
    38 -0.308253 -0.007814 0.307165 0.108343 -1.058418 -1.942863
    39 1.978378 0.019544 -0.000001 -0.000002 -0.000010 0.404016
    40 0.982426 0.003186 0.000000 0.000000 0.000000 0.218179
  time 11
    0 8.106566 1.165595 -7.444036 -0.643693 -1.262566 0.530637
    1 0.000001 -8.563286 0.000002 0.352075 -0.036138 -0.225665
    2 -0.369222 -3.628151 0.519134 -1.186399 1.434476 -1.173754
    3 0.000000 2.607914 0.629496 0.000000 0.000000 0.000000
    4 0.000000 -1.303957 1.019184 0.000000 0.000000 0.000000
    5 -0.000001 -2.877697 1.453836 0.000000 0.000000 0.000000
    6 -0.000001 -0.239809 2.158269 0.000000 0.000000 0.000000
    7 -0.003480 -0.404830 0.000001 0.000000 0.000000 0.000000
    8 -0.519308 -2.501153 -0.278957 -1.003564 0.000000 -0.122173
    9 -0.010598 -1.208185 0.000001 -1.221727 0.000000 0.000000
    10 0.000000 -0.763067 0.000000 -1.178108 0.000000 0.000000
    11 0.105981 -2.607133 -0.278957 -0.890118 0.000000 -0.148353
    12 0.000001 -1.250579 0.000000 -1.300264 0.000000 0.000000
    13 0.000000 -0.932634 0.000000 -1.274094 0.000000 0.000000
    14 0.763064 -2.490556 -0.278957 -0.295638 0.025479 0.214361
    15 -0.012322 -1.280917 0.000001 -0.785372 0.000000 0.000000
    16 -0.001697 -0.749371 0.000000 -0.593412 0.000000 0.000000
    17 0.354567 0.016268 0.318133 0.342077 -0.443527 -1.083976
    18 1.887165 0.012878 0.000000 -0.301502 -0.049640 -0.559682
    19 1.001874 -0.000270 0.000000 0.000000 0.000000 -0.759198
    20 -1.123358 -2.195092 -0.278957 -0.864264 0.002816 -0.081154
    21 0.010772 -0.963791 0.000001 -0.575966 0.000000 0.000000
    22 -0.010412 -0.631916 -0.000001 -1.431159 0.000000 0.000000
    23 -0.577655 -5.146403 -9.557226 -1.947965 1.239024 -1.385704
    24 0.089932 -8.543163 0.000002 0.083942 -0.128070 0.347637
    25 0.000000 -0.359713 0.000000 0.000000 0.000000 0.000000
    26 -0.170479 -2.636148 -0.277654 -0.890176 0.000000 0.000000
    27 0.010599 -1.261177 0.000001 -0.493829 0.000000 0.000000
    28 -0.000001 -0.943233 0.000000 -0.808529 0.000000 0.000000
    29 -0.827562 -2.508974 -0.277655 -0.751143 0.000000 0.000000
    30 0.000000 -1.292971 0.000000 -0.418904 0.000000 0.000000
    31 0.000000 -0.752466 0.000000 -0.722863 0.000000 0.000000
    32 0.444214 -2.561961 -0.277654 -0.907010 -0.047988 -0.024479
    33 0.021022 -1.208186 0.000000 -0.609870 0.000000 0.000000
    34 0.010598 -0.741867 -0.000001 -0.597763 0.000000 0.000000
    35 1.047446 -2.222822 -0.277654 -0.662512 -0.053779 -0.039460
    36 0.000000 -0.996223 -0.000002 -0.542766 0.000000 0.000000
    37 -0.000001 -0.614690 0.000000 -1.045435 0.000000 0.000000
    38 -0.308253 -0.007814 0.307165 0.110110 -1.032876 -1.953655
    39 1.978378 0.019544 -0.000001 -0.000002 -0.000010 0.401411
    40 0.982426 0.003186 0.000000 0.000000 0.000000 0.237295
  time 12
    0 8.106566 1.165595 -7.444036 -0.644158 -1.346169 0.473920
    1 0.000001 -8.563286 0.000002 0.344213 -0.123746 -0.174683
    2 -0.369222 -3.628151 0.519134 -1.186399 1.434476 -1.173754
    3 0.000000 2.607914 0.629496 0.000000 0.000000 0.000000
    4 0.000000 -1.303957 1.019184 0.000000 0.000000 0.000000
    5 -0.000001 -2.877697 1.453836 0.000000 0.000000 0.000000
    6 -0.000001 -0.239809 2.158269 0.000000 0.000000 0.000000
    7 -0.003480 -0.404830 0.000001 0.000000 0.000000 0.000000
    8 -0.519308 -2.501153 -0.278957 -1.003564 0.000000 -0.122173
    9 -0.010598 -1.208185 0.000001 -1.221727 0.000000 0.000000
    10 0.000000 -0.763067 0.000000 -1.178108 0.000000 0.000000
    11 0.105981 -2.607133 -0.278957 -0.890118 0.000000 -0.148353
    12 0.000001 -1.250579 0.000000 -1.300264 0.000000 0.000000
    13 0.000000 -0.932634 0.000000 -1.274094 0.000000 0.000000
    14 0.763064 -2.490556 -0.278957 -0.295638 0.025479 0.214361
    15 -0.012322 -1.280917 0.000001 -0.785372 0.000000 0.000000
    16 -0.001697 -0.749371 0.000000 -0.593412 0.000000 0.000000
    17 0.354567 0.016268 0.318133 0.342077 -0.443527 -1.083976
    18 1.887165 0.012878 0.000000 -0.301502 -0.049640 -0.559682
    19 1.001874 -0.000270 0.000000 0.000000 0.000000 -0.759198
    20 -1.123358 -2.195092 -0.278957 -0.864264 0.002816 -0.081154
    21 0.010772 -0.963791 0.000001 -0.575966 0.000000 0.000000
    22 -0.010412 -0.631916 -0.000001 -1.431159 0.000000 0.000000
    23 -0.577655 -5.435474 -10.006459 -1.870885 1.222335 -1.287701
    24 0.089932 -8.543163 0.000002 0.103489 -0.034775 0.310341
    25 0.000000 -0.359713 0.000000 0.000000 0.000000 0.000000
    26 -0.170479 -2.636148 -0.277654 -0.953883 0.000000 0.000000
    27 0.010599 -1.261177 0.000001 -0.566805 0.000000 0.000000
    28 -0.000001 -0.943233 0.000000 -0.831606 0.000000 0.000000
    29 -0.827562 -2.508974 -0.277655 -0.855257 0.000000 0.000000
    30 0.000000 -1.292971 0.000000 -0.484557 0.000000 0.000000
    31 0.000000 -0.752466 0.000000 -0.809185 0.000000 0.000000
    32 0.444214 -2.561961 -0.277654 -0.956081 -0.047988 -0.024479
    33 0.021022 -1.208186 0.000000 -0.634772 0.000000 0.000000
    34 0.010598 -0.741867 -0.000001 -0.647632 0.000000 0.000000
    35 1.047446 -2.222822 -0.277654 -0.695715 -0.053779 -0.039460
    36 0.000000 -0.996223 -0.000002 -0.552414 0.000000 0.000000
    37 -0.000001 -0.614690 0.000000 -1.029227 0.000000 0.000000
    38 -0.308253 -0.007814 0.307165 0.112126 -0.965650 -1.979794
    39 1.978378 0.019544 -0.000001 -0.000002 -0.000010 0.413346
    40 0.982426 0.003186 0.000000 0.000000 0.000000 0.287666
  time 13
    0 8.106566 1.165595 -7.444036 -0.666453 -1.397844 0.456381
    1 0.000001 -8.563286 0.000002 0.333415 -0.202425 -0.128542
    2 -0.369222 -3.628151 0.519134 -1.186399 1.434476 -1.173754
    3 0.000000 2.607914 0.629496 0.000000 0.000000 0.000000
    4 0.000000 -1.303957 1.019184 0.000000 0.000000 0.000000
    5 -0.000001 -2.877697 1.453836 0.000000 0.000000 0.000000
    6 -0.000001 -0.239809 2.158269 0.000000 0.000000 0.000000
    7 -0.003480 -0.404830 0.000001 0.000000 0.000000 0.000000
    8 -0.519308 -2.501153 -0.278957 -1.003564 0.000000 -0.122173
    9 -0.010598 -1.208185 0.000001 -1.221727 0.000000 0.000000
    10 0.000000 -0.763067 0.000000 -1.178108 0.000000 0.000000
    11 0.105981 -2.607133 -0.278957 -0.890118 0.000000 -0.148353
    12 0.000001 -1.250579 0.000000 -1.300264 0.000000 0.000000
    13 0.000000 -0.932634 0.000000 -1.274094 0.000000 0.000000
    14 0.763064 -2.490556 -0.278957 -0.295638 0.025479 0.214361
    15 -0.012322 -1.280917 0.000001 -0.785372 0.000000 0.000000
    16 -0.001697 -0.749371 0.000000 -0.593412 0.000000 0.000000
    17 0.354567 0.016268 0.318133 0.342077 -0.443527 -1.083976
    18 1.887165 0.012878 0.000000 -0.301502 -0.049640 -0.559682
    19 1.001874 -0.000270 0.000000 0.000000 0.000000 -0.759198
    20 -1.123358 -2.195092 -0.278957 -0.864264 0.002816 -0.081154
    21 0.010772 -0.963791 0.000001 -0.575966 0.000000 0.000000
    22 -0.010412 -0.631916 -0.000001 -1.431159 0.000000 0.000000
    23 -0.577655 -5.638605 -10.252560 -1.793233 1.219374 -1.191234
    24 0.089932 -8.543163 0.000002 0.107947 -0.032560 0.226532
    25 0.000000 -0.359713 0.000000 0.000000 0.000000 0.000000
    26 -0.170479 -2.636148 -0.277654 -1.009169 0.000000 0.000000
    27 0.010599 -1.261177 0.000001 -0.644343 0.000000 0.000000
    28 -0.000001 -0.943233 0.000000 -0.851639 0.000000 0.000000
    29 -0.827562 -2.508974 -0.277655 -0.946818 0.000000 0.000000
    30 0.000000 -1.292971 0.000000 -0.561468 0.000000 0.000000
    31 0.000000 -0.752466 0.000000 -0.897063 0.000000 0.000000
    32 0.444214 -2.561961 -0.277654 -0.998898 -0.047988 -0.024479
    33 0.021022 -1.208186 0.000000 -0.659337 0.000000 0.000000
    34 0.010598 -0.741867 -0.000001 -0.697243 0.000000 0.000000
    35 1.047446 -2.222822 -0.277654 -0.733463 -0.053779 -0.039460
    36 0.000000 -0.996223 -0.000002 -0.560497 0.000000 0.000000
    37 -0.000001 -0.614690 0.000000 -1.003384 0.000000 0.000000
    38 -0.308253 -0.007814 0.307165 0.110019 -0.870547 -2.012712
    39 1.978378 0.019544 -0.000001 -0.000002 -0.000010 0.443881
    40 0.982426 0.003186 0.000000 0.000000 0.000000 0.358903
  time 14
    0 8.106566 1.165595 -7.444036 -0.724553 -1.396799 0.503361
    1 0.000001 -8.563286 0.000002 0.324426 -0.251729 -0.096124
    2 -0.369222 -3.628151 0.519134 -1.186399 1.434476 -1.173754
    3 0.000000 2.607914 0.629496 0.000000 0.000000 0.000000
    4 0.000000 -1.303957 1.019184 0.000000 0.000000 0.000000
    5 -0.000001 -2.877697 1.453836 0.000000 0.000000 0.000000
    6 -0.000001 -0.239809 2.158269 0.000000 0.000000 0.000000
    7 -0.003480 -0.404830 0.000001 0.000000 0.000000 0.000000
    8 -0.519308 -2.501153 -0.278957 -1.003564 0.000000 -0.122173
    9 -0.010598 -1.208185 0.000001 -1.221727 0.000000 0.000000
    10 0.000000 -0.763067 0.000000 -1.178108 0.000000 0.000000
    11 0.105981 -2.607133 -0.278957 -0.890118 0.000000 -0.148353
    12 0.000001 -1.250579 0.000000 -1.300264 0.000000 0.000000
    13 0.000000 -0.932634 0.000000 -1.274094 0.000000 0.000000
    14 0.763064 -2.490556 -0.278957 -0.295638 0.025479 0.214361
    15 -0.012322 -1.280917 0.000001 -0.785372 0.000000 0.000000
    16 -0.001697 -0.749371 0.000000 -0.593412 0.000000 0.000000
    17 0.354567 0.016268 0.318133 0.342077 -0.443527 -1.083976
    18 1.887165 0.012878 0.000000 -0.301502 -0.049640 -0.559682
    19 1.001874 -0.000270 0.000000 0.000000 0.000000 -0.759198
    20 -1.123358 -2.195092 -0.278957 -0.864264 0.002816 -0.081154
    21 0.010772 -0.963791 0.000001 -0.575966 0.000000 0.000000
    22 -0.010412 -0.631916 -0.000001 -1.431159 0.000000 0.000000
    23 -0.577655 -5.712826 -10.201777 -1.710912 1.221735 -1.091424
    24 0.089932 -8.543163 0.000002 0.083163 0.002907 0.235377
    25 0.000000 -0.359713 0.000000 0.000000 0.000000 0.000000
    26 -0.170479 -2.636148 -0.277654 -1.059665 0.000000 0.000000
    27 0.010599 -1.261177 0.000001 -0.724097 0.000000 0.000000
    28 -0.000001 -0.943233 0.000000 -0.870905 0.000000 0.000000
    29 -0.827562 -2.508974 -0.277655 -1.043281 0.000000 0.000000
    30 0.000000 -1.292971 0.000000 -0.644835 0.000000 0.000000
    31 0.000000 -0.752466 0.000000 -0.985543 0.000000 0.000000
    32 0.444214 -2.561961 -0.277654 -1.038092 -0.047988 -0.024479
    33 0.021022 -1.208186 0.000000 -0.683769 0.000000 0.000000
    34 0.010598 -0.741867 -0.000001 -0.746816 0.000000 0.000000
    35 1.047446 -2.222822 -0.277654 -0.773799 -0.053779 -0.039460
    36 0.000000 -0.996223 -0.000002 -0.567934 0.000000 0.000000
    37 -0.000001 -0.614690 0.000000 -0.972766 0.000000 0.000000
    38 -0.308253 -0.007814 0.307165 0.102590 -0.761636 -2.046895
    39 1.978378 0.019544 -0.000001 -0.000002 -0.000010 0.484998
    40 0.982426 0.003186 0.000000 0.000000 0.000000 0.440542
  time 15
    0 8.106566 1.165595 -7.444036 -0.753969 -1.364152 0.539806
    1 0.000001 -8.563286 0.000002 0.332911 -0.208429 -0.117696
    2 -0.369222 -3.628151 0.519134 -1.186399 1.434476 -1.173754
    3 0.000000 2.607914 0.629496 0.000000 0.000000 0.000000
    4 0.000000 -1.303957 1.019184 0.000000 0.000000 0.000000
    5 -0.000001 -2.877697 1.453836 0.000000 0.000000 0.000000
    6 -0.000001 -0.239809 2.158269 0.000000 0.000000 0.000000
    7 -0.003480 -0.404830 0.000001 0.000000 0.000000 0.000000
    8 -0.519308 -2.501153 -0.278957 -1.003564 0.000000 -0.122173
    9 -0.010598 -1.208185 0.000001 -1.221727 0.000000 0.000000
    10 0.000000 -0.763067 0.000000 -1.178108 0.000000 0.000000
    11 0.105981 -2.607133 -0.278957 -0.890118 0.000000 -0.148353
    12 0.000001 -1.250579 0.000000 -1.300264 0.000000 0.000000
    13 0.000000 -0.932634 0.000000 -1.274094 0.000000 0.000000
    14 0.763064 -2.490556 -0.278957 -0.295638 0.025479 0.214361
    15 -0.012322 -1.280917 0.000001 -0.785372 0.000000 0.000000
    16 -0.001697 -0.749371 0.000000 -0.593412 0.000000 0.000000
    17 0.354567 0.016268 0.318133 0.342077 -0.443527 -1.083976
    18 1.887165 0.012878 0.000000 -0.301502 -0.049640 -0.559682
    19 1.001874 -0.000270 0.000000 0.000000 0.000000 -0.759198
    20 -1.123358 -2.195092 -0.278957 -0.864264 0.002816 -0.081154
    21 0.010772 -0.963791 0.000001 -0.575966 0.000000 0.000000
    22 -0.010412 -0.631916 -0.000001 -1.431159 0.000000 0.000000
    23 -0.577655 -5.705014 -9.943957 -1.628115 1.221175 -0.990982
    24 0.089932 -8.543163 0.000002 0.053909 0.045244 0.260449
    25 0.000000 -0.359713 0.000000 0.000000 0.000000 0.000000
    26 -0.170479 -2.636148 -0.277654 -1.109001 0.000000 0.000000
    27 0.010599 -1.261177 0.000001 -0.803889 0.000000 0.000000
    28 -0.000001 -0.943233 0.000000 -0.891707 0.000000 0.000000
    29 -0.827562 -2.508974 -0.277655 -1.141743 0.000000 0.000000
    30 0.000000 -1.292971 0.000000 -0.729817 0.000000 0.000000
    31 0.000000 -0.752466 0.000000 -1.073694 0.000000 0.000000
    32 0.444214 -2.561961 -0.277654 -1.076353 -0.047988 -0.024479
    33 0.021022 -1.208186 0.000000 -0.708290 0.000000 0.000000
    34 0.010598 -0.741867 -0.000001 -0.796506 0.000000 0.000000
    35 1.047446 -2.222822 -0.277654 -0.814787 -0.053779 -0.039460
    36 0.000000 -0.996223 -0.000002 -0.575685 0.000000 0.000000
    37 -0.000001 -0.614690 0.000000 -0.942106 0.000000 0.000000
    38 -0.308253 -0.007814 0.307165 0.091130 -0.652954 -2.079072
    39 1.978378 0.019544 -0.000001 -0.000002 -0.000010 0.528739
    40 0.982426 0.003186 0.000000 0.000000 0.000000 0.522181
  time 16
    0 8.106566 1.165595 -7.444036 -0.774334 -1.331388 0.567253
    1 0.000001 -8.563286 0.000002 0.347149 -0.117022 -0.166593
    2 -0.369222 -3.628151 0.519134 -1.186399 1.434476 -1.173754
    3 0.000000 2.607914 0.629496 0.000000 0.000000 0.000000
    4 0.000000 -1.303957 1.019184 0.000000 0.000000 0.000000
    5 -0.000001 -2.877697 1.453836 0.000000 0.000000 0.000000
    6 -0.000001 -0.239809 2.158269 0.000000 0.000000 0.000000
    7 -0.003480 -0.404830 0.000001 0.000000 0.000000 0.000000
    8 -0.519308 -2.501153 -0.278957 -1.003564 0.000000 -0.122173
    9 -0.010598 -1.208185 0.000001 -1.221727 0.000000 0.000000
    10 0.000000 -0.763067 0.000000 -1.178108 0.000000 0.000000
    11 0.105981 -2.607133 -0.278957 -0.890118 0.000000 -0.148353
    12 0.000001 -1.250579 0.000000 -1.300264 0.000000 0.000000
    13 0.000000 -0.932634 0.000000 -1.274094 0.000000 0.000000
    14 0.763064 -2.490556 -0.278957 -0.295638 0.025479 0.214361
    15 -0.012322 -1.280917 0.000001 -0.785372 0.000000 0.000000
    16 -0.001697 -0.749371 0.000000 -0.593412 0.000000 0.000000
    17 0.354567 0.016268 0.318133 0.342077 -0.443527 -1.083976
    18 1.887165 0.012878 0.000000 -0.301502 -0.049640 -0.559682
    19 1.001874 -0.000270 0.000000 0.000000 0.000000 -0.759198
    20 -1.123358 -2.195092 -0.278957 -0.864264 0.002816 -0.081154
    21 0.010772 -0.963791 0.000001 -0.575966 0.000000 0.000000
    22 -0.010412 -0.631916 -0.000001 -1.431159 0.000000 0.000000
    23 -0.577655 -5.615167 -9.483005 -1.556752 1.210529 -0.901018
    24 0.089932 -8.543163 0.000002 0.025661 0.088295 0.284334
    25 0.000000 -0.359713 0.000000 0.000000 0.000000 0.000000
    26 -0.170479 -2.636148 -0.277654 -1.160687 0.000000 0.000000
    27 0.010599 -1.261177 0.000001 -0.881370 0.000000 0.000000
    28 -0.000001 -0.943233 0.000000 -0.916292 0.000000 0.000000
    29 -0.827562 -2.508974 -0.277655 -1.239206 0.000000 0.000000
    30 0.000000 -1.292971 0.000000 -0.811549 0.000000 0.000000
    31 0.000000 -0.752466 0.000000 -1.160644 0.000000 0.000000
    32 0.444214 -2.561961 -0.277654 -1.116425 -0.047988 -0.024479
    33 0.021022 -1.208186 0.000000 -0.733035 0.000000 0.000000
    34 0.010598 -0.741867 -0.000001 -0.846473 0.000000 0.000000
    35 1.047446 -2.222822 -0.277654 -0.854492 -0.053779 -0.039460
    36 0.000000 -0.996223 -0.000002 -0.584707 0.000000 0.000000
    37 -0.000001 -0.614690 0.000000 -0.916284 0.000000 0.000000
    38 -0.308253 -0.007814 0.307165 0.078469 -0.558446 -2.106404
    39 1.978378 0.019544 -0.000001 -0.000002 -0.000010 0.567231
    40 0.982426 0.003186 0.000000 0.000000 0.000000 0.593405
end
