version 1
nodes
  0 "Bone01" -1
  1 "Bone_Lefthand" 0
  2 "Bone_AK47" 1
  3 "Bone03" 2
  4 "Bone25" 3
  5 "Bone48" 3
  6 "Bone50" 3
  7 "Bone52" 3
  8 "Bone 04" 1
  9 "Bone13" 8
  10 "Bone14" 9
  11 "Bone15" 10
  12 "Bone17" 8
  13 "Bone18" 12
  14 "Bone19" 13
  15 "Bone21" 8
  16 "Bone22" 15
  17 "Bone23" 16
  18 "Bone05" 8
  19 "Bone06" 18
  20 "Bone07" 19
  21 "Bone04" -1
  22 "Bone_Righthand" 21
  23 "Bone26" 22
  24 "Bone35" 23
  25 "Bone36" 24
  26 "Bone37" 25
  27 "Bone31" 23
  28 "Bone32" 27
  29 "Bone33" 28
  30 "Bone39" 23
  31 "Bone40" 30
  32 "Bone41" 31
  33 "Bone43" 23
  34 "Bone44" 33
  35 "Bone45" 34
  36 "Bone27" 23
  37 "Bone28" 36
  38 "Bone29" 37
  39 "Bone09" 8
  40 "Bone10" 39
  41 "Bone11" 40
end
skeleton
  time 0
    0 8.602675 3.161749 -8.096399 -0.774286 -1.331380 0.567319
    1 0.000000 -8.563284 -0.000001 0.347509 -0.125220 -0.169570
    2 -0.834451 -3.073735 0.513625 -1.247037 1.437608 -1.233844
    3 0.000000 2.160511 0.950626 0.000000 0.000000 0.000000
    4 0.000000 -3.109922 1.710279 0.218156 0.000000 0.000000
    5 0.000000 -4.793802 0.448359 0.000000 0.000000 0.000000
    6 0.000000 -6.345619 1.761433 0.000000 0.000000 0.000000
    7 0.000001 -5.765821 2.989244 0.000000 0.000000 0.000000
    8 -0.003480 -0.404829 0.000000 0.000000 0.000000 0.000000
    9 -0.519309 -2.501154 -0.278955 -1.003564 0.000000 -0.122173
    10 -0.010599 -1.208185 -0.000001 -1.090831 0.000000 0.000000
    11 0.000000 -0.763066 0.000000 -1.343903 0.000000 0.000000
    12 0.105981 -2.607137 -0.278956 -0.890118 0.000000 -0.148353
    13 0.000000 -1.250580 -0.000001 -1.213004 0.000000 0.000000
    14 0.000000 -0.932633 0.000000 -1.483530 0.000000 0.000000
    15 0.763064 -2.490561 -0.278956 -0.235619 0.000000 0.130900
    16 -0.012322 -1.280918 -0.000001 -0.898810 0.000000 0.000000
    17 -0.001696 -0.749371 0.000000 -1.169370 0.000000 0.000000
    18 0.354567 0.016267 0.318133 0.342077 -0.443527 -1.083976
    19 1.887165 0.012877 0.000000 -0.305433 0.000000 -0.401426
    20 1.001876 -0.000270 0.000000 0.000000 0.000000 -0.488692
    21 0.172369 -10.373125 -10.080679 -0.554979 0.255020 0.648650
    22 0.089931 -8.543161 0.000001 0.512980 0.031489 0.240363
    23 -0.000001 -0.359712 -0.000001 0.000000 0.000000 0.000000
    24 -0.170480 -2.636145 -0.277658 -1.692969 0.000000 0.000000
    25 0.010598 -1.261177 -0.000002 -0.253073 0.000000 0.000000
    26 0.000000 -0.943232 -0.000003 -0.532326 0.000000 0.000000
    27 -0.827567 -2.508974 -0.277658 -1.396263 0.000000 0.000000
    28 -0.000001 -1.292973 0.000000 -0.445059 0.000000 0.000000
    29 0.000000 -0.752468 -0.000004 -0.445059 0.000000 0.000000
    30 0.444210 -2.561962 -0.277657 -1.727307 -0.046226 -0.024599
    31 0.021024 -1.208186 0.000008 -0.427606 0.000000 0.000000
    32 0.010596 -0.741867 -0.000002 -0.453786 0.000000 0.000000
    33 1.047444 -2.222818 -0.277656 -1.508123 -0.078971 -0.038609
    34 0.000001 -0.996222 -0.000002 -0.863938 0.000000 0.000000
    35 -0.000002 -0.614689 0.000001 -0.523599 0.000000 0.000000
    36 -0.308255 -0.007813 0.307167 -0.145110 -0.159878 -2.467082
    37 1.978374 0.019543 0.000002 -0.087921 -0.056961 -0.023672
    38 0.982430 0.003183 0.000001 0.000000 0.000000 0.418879
    39 -1.118738 -2.197477 -0.285026 -0.933746 0.000013 -0.087266
    40 0.003906 -0.964973 0.000003 -0.610853 0.000000 0.000000
    41 -0.007812 -0.626411 0.000000 -1.213004 0.000000 0.000000
  time 1
    0 8.602675 3.880521 -8.408909 -0.954839 -1.278043 0.751505
    1 0.000000 -8.563284 -0.000001 0.356222 -0.102138 -0.238218
    2 -0.834451 -3.073735 0.513625 -1.247037 1.437608 -1.233844
    3 0.000000 2.160511 0.950626 0.000000 0.000000 0.000000
    4 0.000000 -3.133360 1.710279 0.184826 0.000000 0.000000
    5 0.000000 -4.793802 0.448359 0.000000 0.000000 0.000000
    6 0.000000 -6.345619 1.761433 0.000000 0.000000 0.000000
    7 0.011720 -3.765760 2.989244 0.000000 0.000000 0.000000
    8 -0.003480 -0.404829 0.000000 0.000000 0.000000 0.000000
    9 -0.519309 -2.501154 -0.278955 -1.003564 0.000000 -0.122173
    10 -0.010599 -1.208185 -0.000001 -1.090831 0.000000 0.000000
    11 0.000000 -0.763066 0.000000 -1.343903 0.000000 0.000000
    12 0.105981 -2.607137 -0.278956 -0.890118 0.000000 -0.148353
    13 0.000000 -1.250580 -0.000001 -1.213004 0.000000 0.000000
    14 0.000000 -0.932633 0.000000 -1.483530 0.000000 0.000000
    15 0.763064 -2.490561 -0.278956 -0.235619 0.000000 0.130900
    16 -0.012322 -1.280918 -0.000001 -0.905737 0.000000 0.000000
    17 -0.001696 -0.749371 0.000000 -1.176627 0.000000 0.000000
    18 0.354567 0.016267 0.318133 0.342077 -0.443527 -1.083976
    19 1.887165 0.012877 0.000000 -0.305433 0.000000 -0.401426
    20 1.001876 -0.000270 0.000000 0.000000 0.000000 -0.488692
    21 -0.011231 -10.478597 -9.842390 -0.582510 0.311586 0.750416
    22 0.089931 -8.543161 0.000001 0.519446 -0.008731 0.061573
    23 -0.000001 -0.359712 -0.000001 0.000000 0.000000 0.000000
    24 -0.170480 -2.636145 -0.277658 -1.692969 0.000000 0.000000
    25 0.010598 -1.261177 -0.000002 -0.253073 0.000000 0.000000
    26 0.000000 -0.943232 -0.000003 -0.532326 0.000000 0.000000
    27 -0.827567 -2.508974 -0.277658 -1.396263 0.000000 0.000000
    28 -0.000001 -1.292973 0.000000 -0.445059 0.000000 0.000000
    29 0.000000 -0.752468 -0.000004 -0.445059 0.000000 0.000000
    30 0.444210 -2.561962 -0.277657 -1.727307 -0.046226 -0.024599
    31 0.021024 -1.208186 0.000008 -0.427606 0.000000 0.000000
    32 0.010596 -0.741867 -0.000002 -0.453786 0.000000 0.000000
    33 1.047444 -2.222818 -0.277656 -1.508123 -0.078971 -0.038609
    34 0.000001 -0.996222 -0.000002 -0.863938 0.000000 0.000000
    35 -0.000002 -0.614689 0.000001 -0.523599 0.000000 0.000000
    36 -0.308255 -0.007813 0.307167 -0.145110 -0.159878 -2.467082
    37 1.978374 0.019543 0.000002 -0.087921 -0.056961 -0.023672
    38 0.982430 0.003183 0.000001 0.000000 0.000000 0.418879
    39 -1.118738 -2.197477 -0.285026 -0.933746 0.000013 -0.087266
    40 0.003906 -0.964973 0.000003 -0.610853 0.000000 0.000000
    41 -0.007812 -0.626411 0.000000 -1.213004 0.000000 0.000000
  time 2
    0 8.602675 4.376630 -8.619853 -1.035172 -1.241616 0.834288
    1 0.000000 -8.563284 -0.000001 0.360788 -0.087481 -0.280607
    2 -0.834451 -3.073735 0.513625 -1.247037 1.437608 -1.233844
    3 0.000000 2.160511 0.950626 0.000000 0.000000 0.000000
    4 0.000000 -3.195862 1.710279 0.148669 0.000000 0.000000
    5 0.000000 -4.793802 0.448359 0.000000 0.000000 0.000000
    6 0.000000 -6.345619 1.761433 0.000000 0.000000 0.000000
    7 0.000001 -4.765790 2.989244 0.000000 0.000000 0.000000
    8 -0.003480 -0.404829 0.000000 0.000000 0.000000 0.000000
    9 -0.519309 -2.501154 -0.278955 -1.003564 0.000000 -0.122173
    10 -0.010599 -1.208185 -0.000001 -1.090831 0.000000 0.000000
    11 0.000000 -0.763066 0.000000 -1.343903 0.000000 0.000000
    12 0.105981 -2.607137 -0.278956 -0.890118 0.000000 -0.148353
    13 0.000000 -1.250580 -0.000001 -1.213004 0.000000 0.000000
    14 0.000000 -0.932633 0.000000 -1.483530 0.000000 0.000000
    15 0.763064 -2.490561 -0.278956 -0.235619 0.000000 0.130900
    16 -0.012322 -1.280918 -0.000001 -0.921023 0.000000 0.000000
    17 -0.001696 -0.749371 0.000000 -1.192584 0.000000 0.000000
    18 0.354567 0.016267 0.318133 0.342077 -0.443527 -1.083976
    19 1.887165 0.012877 0.000000 -0.305433 0.000000 -0.401426
    20 1.001876 -0.000270 0.000000 0.000000 0.000000 -0.488692
    21 -0.136235 -10.486409 -9.721293 -0.592802 0.347904 0.814108
    22 0.089931 -8.543161 0.000001 0.524741 -0.034726 -0.053725
    23 -0.000001 -0.359712 -0.000001 0.000000 0.000000 0.000000
    24 -0.170480 -2.636145 -0.277658 -1.692969 0.000000 0.000000
    25 0.010598 -1.261177 -0.000002 -0.253073 0.000000 0.000000
    26 0.000000 -0.943232 -0.000003 -0.532326 0.000000 0.000000
    27 -0.827567 -2.508974 -0.277658 -1.396263 0.000000 0.000000
    28 -0.000001 -1.292973 0.000000 -0.445059 0.000000 0.000000
    29 0.000000 -0.752468 -0.000004 -0.445059 0.000000 0.000000
    30 0.444210 -2.561962 -0.277657 -1.727307 -0.046226 -0.024599
    31 0.021024 -1.208186 0.000008 -0.427606 0.000000 0.000000
    32 0.010596 -0.741867 -0.000002 -0.453786 0.000000 0.000000
    33 1.047444 -2.222818 -0.277656 -1.508123 -0.078971 -0.038609
    34 0.000001 -0.996222 -0.000002 -0.863938 0.000000 0.000000
    35 -0.000002 -0.614689 0.000001 -0.523599 0.000000 0.000000
    36 -0.308255 -0.007813 0.307167 -0.145110 -0.159878 -2.467082
    37 1.978374 0.019543 0.000002 -0.087921 -0.056961 -0.023672
    38 0.982430 0.003183 0.000001 0.000000 0.000000 0.418879
    39 -1.118738 -2.197477 -0.285026 -0.933746 0.000013 -0.087266
    40 0.003906 -0.964973 0.000003 -0.610853 0.000000 0.000000
    41 -0.007812 -0.626411 0.000000 -1.213004 0.000000 0.000000
  time 3
    0 8.602675 4.564136 -8.682355 -1.023789 -1.247164 0.822510
    1 0.000000 -8.563284 -0.000001 0.360428 -0.088260 -0.278019
    2 -0.834451 -3.073735 0.513625 -1.247037 1.437608 -1.233844
    3 0.000000 2.160511 0.950626 0.000000 0.000000 0.000000
    4 0.000000 -3.262270 1.710279 0.111756 0.000000 0.000000
    5 0.000000 -4.793802 0.448359 0.000000 0.000000 0.000000
    6 0.000000 -6.345619 1.761433 0.000000 0.000000 0.000000
    7 0.000001 -5.765821 2.989244 0.000000 0.000000 0.000000
    8 -0.003480 -0.404829 0.000000 0.000000 0.000000 0.000000
    9 -0.519309 -2.501154 -0.278955 -1.003564 0.000000 -0.122173
    10 -0.010599 -1.208185 -0.000001 -1.090831 0.000000 0.000000
    11 0.000000 -0.763066 0.000000 -1.343903 0.000000 0.000000
    12 0.105981 -2.607137 -0.278956 -0.890118 0.000000 -0.148353
    13 0.000000 -1.250580 -0.000001 -1.213004 0.000000 0.000000
    14 0.000000 -0.932633 0.000000 -1.483530 0.000000 0.000000
    15 0.763064 -2.490561 -0.278956 -0.235619 0.000000 0.130900
    16 -0.012322 -1.280918 -0.000001 -0.936290 0.000000 0.000000
    17 -0.001696 -0.749371 0.000000 -1.208599 0.000000 0.000000
    18 0.354567 0.016267 0.318133 0.342077 -0.443527 -1.083976
    19 1.887165 0.012877 0.000000 -0.305433 0.000000 -0.401426
    20 1.001876 -0.000270 0.000000 0.000000 0.000000 -0.488692
    21 -0.179205 -10.349686 -9.744731 -0.579873 0.345655 0.811351
    22 0.089931 -8.543161 0.000001 0.516884 -0.039016 -0.059973
    23 -0.000001 -0.359712 -0.000001 0.000000 0.000000 0.000000
    24 -0.170480 -2.636145 -0.277658 -1.692969 0.000000 0.000000
    25 0.010598 -1.261177 -0.000002 -0.253073 0.000000 0.000000
    26 0.000000 -0.943232 -0.000003 -0.532326 0.000000 0.000000
    27 -0.827567 -2.508974 -0.277658 -1.396263 0.000000 0.000000
    28 -0.000001 -1.292973 0.000000 -0.445059 0.000000 0.000000
    29 0.000000 -0.752468 -0.000004 -0.445059 0.000000 0.000000
    30 0.444210 -2.561962 -0.277657 -1.727307 -0.046226 -0.024599
    31 0.021024 -1.208186 0.000008 -0.427606 0.000000 0.000000
    32 0.010596 -0.741867 -0.000002 -0.453786 0.000000 0.000000
    33 1.047444 -2.222818 -0.277656 -1.508123 -0.078971 -0.038609
    34 0.000001 -0.996222 -0.000002 -0.863938 0.000000 0.000000
    35 -0.000002 -0.614689 0.000001 -0.523599 0.000000 0.000000
    36 -0.308255 -0.007813 0.307167 -0.145110 -0.159878 -2.467082
    37 1.978374 0.019543 0.000002 -0.087921 -0.056961 -0.023672
    38 0.982430 0.003183 0.000001 0.000000 0.000000 0.418879
    39 -1.118738 -2.197477 -0.285026 -0.933746 0.000013 -0.087266
    40 0.003906 -0.964973 0.000003 -0.610853 0.000000 0.000000
    41 -0.007812 -0.626411 0.000000 -1.213004 0.000000 0.000000
  time 4
    0 8.602675 4.450851 -8.596415 -0.986632 -1.264208 0.784540
    1 0.000000 -8.563284 -0.000001 0.359074 -0.092322 -0.265746
    2 -0.834451 -3.073735 0.513625 -1.247037 1.437608 -1.233844
    3 0.000000 2.160511 0.950626 0.000000 0.000000 0.000000
    4 0.000000 -3.324772 1.710279 0.076318 0.000000 0.000000
    5 0.000000 -4.793802 0.448359 0.000000 0.000000 0.000000
    6 0.000000 -6.345619 1.761433 0.000000 0.000000 0.000000
    7 0.000001 -5.765821 2.989244 0.000000 0.000000 0.000000
    8 -0.003480 -0.404829 0.000000 0.000000 0.000000 0.000000
    9 -0.519309 -2.501154 -0.278955 -1.003564 0.000000 -0.122173
    10 -0.010599 -1.208185 -0.000001 -1.090831 0.000000 0.000000
    11 0.000000 -0.763066 0.000000 -1.343903 0.000000 0.000000
    12 0.105981 -2.607137 -0.278956 -0.890118 0.000000 -0.148353
    13 0.000000 -1.250580 -0.000001 -1.213004 0.000000 0.000000
    14 0.000000 -0.932633 0.000000 -1.483530 0.000000 0.000000
    15 0.763064 -2.490561 -0.278956 -0.235619 0.000000 0.130900
    16 -0.012322 -1.280918 -0.000001 -0.943217 0.000000 0.000000
    17 -0.001696 -0.749371 0.000000 -1.215913 0.000000 0.000000
    18 0.354567 0.016267 0.318133 0.342077 -0.443527 -1.083976
    19 1.887165 0.012877 0.000000 -0.305433 0.000000 -0.401426
    20 1.001876 -0.000270 0.000000 0.000000 0.000000 -0.488692
    21 -0.167486 -10.197338 -9.838484 -0.560318 0.335370 0.794271
    22 0.089931 -8.543161 0.000001 0.505001 -0.039388 -0.044570
    23 -0.000001 -0.359712 -0.000001 0.000000 0.000000 0.000000
    24 -0.170480 -2.636145 -0.277658 -1.692969 0.000000 0.000000
    25 0.010598 -1.261177 -0.000002 -0.253073 0.000000 0.000000
    26 0.000000 -0.943232 -0.000003 -0.532326 0.000000 0.000000
    27 -0.827567 -2.508974 -0.277658 -1.396263 0.000000 0.000000
    28 -0.000001 -1.292973 0.000000 -0.445059 0.000000 0.000000
    29 0.000000 -0.752468 -0.000004 -0.445059 0.000000 0.000000
    30 0.444210 -2.561962 -0.277657 -1.727307 -0.046226 -0.024599
    31 0.021024 -1.208186 0.000008 -0.427606 0.000000 0.000000
    32 0.010596 -0.741867 -0.000002 -0.453786 0.000000 0.000000
    33 1.047444 -2.222818 -0.277656 -1.508123 -0.078971 -0.038609
    34 0.000001 -0.996222 -0.000002 -0.863938 0.000000 0.000000
    35 -0.000002 -0.614689 0.000001 -0.523599 0.000000 0.000000
    36 -0.308255 -0.007813 0.307167 -0.145110 -0.159878 -2.467082
    37 1.978374 0.019543 0.000002 -0.087921 -0.056961 -0.023672
    38 0.982430 0.003183 0.000001 0.000000 0.000000 0.418879
    39 -1.118738 -2.197477 -0.285026 -0.933746 0.000013 -0.087266
    40 0.003906 -0.964973 0.000003 -0.610853 0.000000 0.000000
    41 -0.007812 -0.626411 0.000000 -1.213004 0.000000 0.000000
  time 5
    0 8.602675 4.165686 -8.440160 -0.931943 -1.285663 0.728622
    1 0.000000 -8.563284 -0.000001 0.357049 -0.098387 -0.247734
    2 -0.834451 -3.073735 0.513625 -1.247037 1.437608 -1.233844
    3 0.000000 2.160511 0.950626 0.000000 0.000000 0.000000
    4 0.000000 -3.344304 1.710279 0.044439 0.000000 0.000000
    5 0.000000 -4.793802 0.448359 0.000000 0.000000 0.000000
    6 0.000000 -6.345619 1.761433 0.000000 0.000000 0.000000
    7 0.000001 -5.765821 2.989244 0.000000 0.000000 0.000000
    8 -0.003480 -0.404829 0.000000 0.000000 0.000000 0.000000
    9 -0.519309 -2.501154 -0.278955 -1.003564 0.000000 -0.122173
    10 -0.010599 -1.208185 -0.000001 -1.090831 0.000000 0.000000
    11 0.000000 -0.763066 0.000000 -1.343903 0.000000 0.000000
    12 0.105981 -2.607137 -0.278956 -0.890118 0.000000 -0.148353
    13 0.000000 -1.250580 -0.000001 -1.213004 0.000000 0.000000
    14 0.000000 -0.932633 0.000000 -1.483530 0.000000 0.000000
    15 0.763064 -2.490561 -0.278956 -0.235619 0.000000 0.130900
    16 -0.012322 -1.280918 -0.000001 -0.933516 0.000000 0.000000
    17 -0.001696 -0.749371 0.000000 -1.205731 0.000000 0.000000
    18 0.354567 0.016267 0.318133 0.342077 -0.443527 -1.083976
    19 1.887165 0.012877 0.000000 -0.305433 0.000000 -0.401426
    20 1.001876 -0.000270 0.000000 0.000000 0.000000 -0.488692
    21 -0.104984 -10.193432 -9.963488 -0.537997 0.320666 0.768385
    22 0.089931 -8.543161 0.000001 0.491386 -0.036464 -0.014992
    23 -0.000001 -0.359712 -0.000001 0.000000 0.000000 0.000000
    24 -0.170480 -2.636145 -0.277658 -1.692969 0.000000 0.000000
    25 0.010598 -1.261177 -0.000002 -0.253073 0.000000 0.000000
    26 0.000000 -0.943232 -0.000003 -0.532326 0.000000 0.000000
    27 -0.827567 -2.508974 -0.277658 -1.396263 0.000000 0.000000
    28 -0.000001 -1.292973 0.000000 -0.445059 0.000000 0.000000
    29 0.000000 -0.752468 -0.000004 -0.445059 0.000000 0.000000
    30 0.444210 -2.561962 -0.277657 -1.727307 -0.046226 -0.024599
    31 0.021024 -1.208186 0.000008 -0.427606 0.000000 0.000000
    32 0.010596 -0.741867 -0.000002 -0.453786 0.000000 0.000000
    33 1.047444 -2.222818 -0.277656 -1.508123 -0.078971 -0.038609
    34 0.000001 -0.996222 -0.000002 -0.863938 0.000000 0.000000
    35 -0.000002 -0.614689 0.000001 -0.523599 0.000000 0.000000
    36 -0.308255 -0.007813 0.307167 -0.145110 -0.159878 -2.467082
    37 1.978374 0.019543 0.000002 -0.087921 -0.056961 -0.023672
    38 0.982430 0.003183 0.000001 0.000000 0.000000 0.418879
    39 -1.118738 -2.197477 -0.285026 -0.933746 0.000013 -0.087266
    40 0.003906 -0.964973 0.000003 -0.610853 0.000000 0.000000
    41 -0.007812 -0.626411 0.000000 -1.213004 0.000000 0.000000
  time 6
    0 8.602675 3.845364 -8.268280 -0.872805 -1.304890 0.668386
    1 0.000000 -8.563284 -0.000001 0.354676 -0.105062 -0.227767
    2 -0.834451 -3.073735 0.513625 -1.247037 1.437608 -1.233844
    3 0.000000 2.160511 0.950626 0.000000 0.000000 0.000000
    4 0.000000 -3.344304 1.710279 0.018277 0.000000 0.000000
    5 0.000000 -4.793802 0.448359 0.000000 0.000000 0.000000
    6 0.000000 -6.345619 1.761433 0.000000 0.000000 0.000000
    7 0.000001 -5.765821 2.989244 0.000000 0.000000 0.000000
    8 -0.003480 -0.404829 0.000000 0.000000 0.000000 0.000000
    9 -0.519309 -2.501154 -0.278955 -1.003564 0.000000 -0.122173
    10 -0.010599 -1.208185 -0.000001 -1.090831 0.000000 0.000000
    11 0.000000 -0.763066 0.000000 -1.343903 0.000000 0.000000
    12 0.105981 -2.607137 -0.278956 -0.890118 0.000000 -0.148353
    13 0.000000 -1.250580 -0.000001 -1.213004 0.000000 0.000000
    14 0.000000 -0.932633 0.000000 -1.483530 0.000000 0.000000
    15 0.763064 -2.490561 -0.278956 -0.235619 0.000000 0.130900
    16 -0.012322 -1.280918 -0.000001 -0.898810 0.000000 0.000000
    17 -0.001696 -0.749371 0.000000 -1.169370 0.000000 0.000000
    18 0.354567 0.016267 0.318133 0.342077 -0.443527 -1.083976
    19 1.887165 0.012877 0.000000 -0.305433 0.000000 -0.401426
    20 1.001876 -0.000270 0.000000 0.000000 0.000000 -0.488692
    21 -0.019044 -10.197338 -10.018177 -0.516320 0.304998 0.739296
    22 0.089931 -8.543161 0.000001 0.478454 -0.031130 0.021232
    23 -0.000001 -0.359712 -0.000001 0.000000 0.000000 0.000000
    24 -0.170480 -2.636145 -0.277658 -1.692969 0.000000 0.000000
    25 0.010598 -1.261177 -0.000002 -0.253073 0.000000 0.000000
    26 0.000000 -0.943232 -0.000003 -0.532326 0.000000 0.000000
    27 -0.827567 -2.508974 -0.277658 -1.396263 0.000000 0.000000
    28 -0.000001 -1.292973 0.000000 -0.445059 0.000000 0.000000
    29 0.000000 -0.752468 -0.000004 -0.445059 0.000000 0.000000
    30 0.444210 -2.561962 -0.277657 -1.727307 -0.046226 -0.024599
    31 0.021024 -1.208186 0.000008 -0.427606 0.000000 0.000000
    32 0.010596 -0.741867 -0.000002 -0.453786 0.000000 0.000000
    33 1.047444 -2.222818 -0.277656 -1.508123 -0.078971 -0.038609
    34 0.000001 -0.996222 -0.000002 -0.863938 0.000000 0.000000
    35 -0.000002 -0.614689 0.000001 -0.523599 0.000000 0.000000
    36 -0.308255 -0.007813 0.307167 -0.145110 -0.159878 -2.467082
    37 1.978374 0.019543 0.000002 -0.087921 -0.056961 -0.023672
    38 0.982430 0.003183 0.000001 0.000000 0.000000 0.418879
    39 -1.118738 -2.197477 -0.285026 -0.933746 0.000013 -0.087266
    40 0.003906 -0.964973 0.000003 -0.610853 0.000000 0.000000
    41 -0.007812 -0.626411 0.000000 -1.213004 0.000000 0.000000
  time 7
    0 8.602675 3.626607 -8.154995 -0.831854 -1.316364 0.626658
    1 0.000000 -8.563284 -0.000001 0.352423 -0.111030 -0.209754
    2 -0.834451 -3.073735 0.513625 -1.247037 1.437608 -1.233844
    3 0.000000 2.160511 0.950626 0.000000 0.000000 0.000000
    4 0.000000 -3.344304 1.710279 0.000000 0.000000 0.000000
    5 0.000000 -4.793802 0.448359 0.000000 0.000000 0.000000
    6 0.000000 -6.345619 1.761433 0.000000 0.000000 0.000000
    7 0.000001 -5.765821 2.989244 0.000000 0.000000 0.000000
    8 -0.003480 -0.404829 0.000000 0.000000 0.000000 0.000000
    9 -0.519309 -2.501154 -0.278955 -1.003564 0.000000 -0.122173
    10 -0.010599 -1.208185 -0.000001 -1.090831 0.000000 0.000000
    11 0.000000 -0.763066 0.000000 -1.343903 0.000000 0.000000
    12 0.105981 -2.607137 -0.278956 -0.890118 0.000000 -0.148353
    13 0.000000 -1.250580 -0.000001 -1.213004 0.000000 0.000000
    14 0.000000 -0.932633 0.000000 -1.483530 0.000000 0.000000
    15 0.763064 -2.490561 -0.278956 -0.235619 0.000000 0.130900
    16 -0.012322 -1.280918 -0.000001 -0.818446 0.000000 0.000000
    17 -0.001696 -0.749371 0.000000 -1.085136 0.000000 0.000000
    18 0.354567 0.016267 0.318133 0.342077 -0.443527 -1.083976
    19 1.887165 0.012877 0.000000 -0.305433 0.000000 -0.401426
    20 1.001876 -0.000270 0.000000 0.000000 0.000000 -0.488692
    21 0.082522 -10.103585 -9.791608 -0.499081 0.291258 0.712698
    22 0.089931 -8.543161 0.000001 0.468719 -0.024695 0.056734
    23 -0.000001 -0.359712 -0.000001 0.000000 0.000000 0.000000
    24 -0.170480 -2.636145 -0.277658 -1.692969 0.000000 0.000000
    25 0.010598 -1.261177 -0.000002 -0.253073 0.000000 0.000000
    26 0.000000 -0.943232 -0.000003 -0.532326 0.000000 0.000000
    27 -0.827567 -2.508974 -0.277658 -1.396263 0.000000 0.000000
    28 -0.000001 -1.292973 0.000000 -0.445059 0.000000 0.000000
    29 0.000000 -0.752468 -0.000004 -0.445059 0.000000 0.000000
    30 0.444210 -2.561962 -0.277657 -1.727307 -0.046226 -0.024599
    31 0.021024 -1.208186 0.000008 -0.427606 0.000000 0.000000
    32 0.010596 -0.741867 -0.000002 -0.453786 0.000000 0.000000
    33 1.047444 -2.222818 -0.277656 -1.508123 -0.078971 -0.038609
    34 0.000001 -0.996222 -0.000002 -0.863938 0.000000 0.000000
    35 -0.000002 -0.614689 0.000001 -0.523599 0.000000 0.000000
    36 -0.308255 -0.007813 0.307167 -0.145110 -0.159878 -2.467082
    37 1.978374 0.019543 0.000002 -0.087921 -0.056961 -0.023672
    38 0.982430 0.003183 0.000001 0.000000 0.000000 0.418879
    39 -1.118738 -2.197477 -0.285026 -0.933746 0.000013 -0.087266
    40 0.003906 -0.964973 0.000003 -0.610853 0.000000 0.000000
    41 -0.007812 -0.626411 0.000000 -1.213004 0.000000 0.000000
  time 8
    0 8.602675 3.521135 -8.096399 -0.812294 -1.321377 0.606860
    1 0.000000 -8.563284 -0.000001 0.350865 -0.115093 -0.197602
    2 -0.834451 -3.073735 0.513625 -1.247037 1.437608 -1.233844
    3 0.000000 2.160511 0.950626 0.000000 0.000000 0.000000
    4 0.000000 -3.344304 1.710279 -0.010738 0.000000 0.000000
    5 0.000000 -4.793802 0.448359 0.000000 0.000000 0.000000
    6 0.000000 -6.345619 1.761433 0.000000 0.000000 0.000000
    7 0.000001 -5.765821 2.989244 0.000000 0.000000 0.000000
    8 -0.003480 -0.404829 0.000000 0.000000 0.000000 0.000000
    9 -0.519309 -2.501154 -0.278955 -1.003564 0.000000 -0.122173
    10 -0.010599 -1.208185 -0.000001 -1.090831 0.000000 0.000000
    11 0.000000 -0.763066 0.000000 -1.343903 0.000000 0.000000
    12 0.105981 -2.607137 -0.278956 -0.890118 0.000000 -0.148353
    13 0.000000 -1.250580 -0.000001 -1.213004 0.000000 0.000000
    14 0.000000 -0.932633 0.000000 -1.483530 0.000000 0.000000
    15 0.763064 -2.490561 -0.278956 -0.235619 0.000000 0.130900
    16 -0.012322 -1.280918 -0.000001 -0.695689 0.000000 0.000000
    17 -0.001696 -0.749371 0.000000 -0.956563 0.000000 0.000000
    18 0.354567 0.016267 0.318133 0.342077 -0.443527 -1.083976
    19 1.887165 0.012877 0.000000 -0.305433 0.000000 -0.401426
    20 1.001876 -0.000270 0.000000 0.000000 0.000000 -0.488692
    21 0.180181 -10.017645 -9.549413 -0.490590 0.282018 0.694462
    22 0.089931 -8.543161 0.000001 0.464302 -0.018643 0.084109
    23 -0.000001 -0.359712 -0.000001 0.000000 0.000000 0.000000
    24 -0.170480 -2.636145 -0.277658 -1.692969 0.000000 0.000000
    25 0.010598 -1.261177 -0.000002 -0.253073 0.000000 0.000000
    26 0.000000 -0.943232 -0.000003 -0.532326 0.000000 0.000000
    27 -0.827567 -2.508974 -0.277658 -1.396263 0.000000 0.000000
    28 -0.000001 -1.292973 0.000000 -0.445059 0.000000 0.000000
    29 0.000000 -0.752468 -0.000004 -0.445059 0.000000 0.000000
    30 0.444210 -2.561962 -0.277657 -1.727307 -0.046226 -0.024599
    31 0.021024 -1.208186 0.000008 -0.427606 0.000000 0.000000
    32 0.010596 -0.741867 -0.000002 -0.453786 0.000000 0.000000
    33 1.047444 -2.222818 -0.277656 -1.508123 -0.078971 -0.038609
    34 0.000001 -0.996222 -0.000002 -0.863938 0.000000 0.000000
    35 -0.000002 -0.614689 0.000001 -0.523599 0.000000 0.000000
    36 -0.308255 -0.007813 0.307167 -0.145110 -0.159878 -2.467082
    37 1.978374 0.019543 0.000002 -0.087921 -0.056961 -0.023672
    38 0.982430 0.003183 0.000001 0.000000 0.000000 0.418879
    39 -1.118738 -2.197477 -0.285026 -0.933746 0.000013 -0.087266
    40 0.003906 -0.964973 0.000003 -0.610853 0.000000 0.000000
    41 -0.007812 -0.626411 0.000000 -1.213004 0.000000 0.000000
  time 9
    0 8.602675 3.427383 -8.065148 -0.798687 -1.324785 0.592839
    1 0.000000 -8.563284 -0.000001 0.349978 -0.117430 -0.190699
    2 -0.834451 -3.073735 0.513625 -1.247037 1.437608 -1.233844
    3 0.000000 2.160511 0.950626 0.000000 0.000000 0.000000
    4 0.000000 -3.344304 1.710279 -0.016491 0.000000 0.000000
    5 0.000000 -4.793802 0.448359 0.000000 0.000000 0.000000
    6 0.000000 -6.345619 1.761433 0.000000 0.000000 0.000000
    7 0.000001 -5.765821 2.989244 0.000000 0.000000 0.000000
    8 -0.003480 -0.404829 0.000000 0.000000 0.000000 0.000000
    9 -0.519309 -2.501154 -0.278955 -1.003564 0.000000 -0.122173
    10 -0.010599 -1.208185 -0.000001 -1.090831 0.000000 0.000000
    11 0.000000 -0.763066 0.000000 -1.343903 0.000000 0.000000
    12 0.105981 -2.607137 -0.278956 -0.890118 0.000000 -0.148353
    13 0.000000 -1.250580 -0.000001 -1.213004 0.000000 0.000000
    14 0.000000 -0.932633 0.000000 -1.483530 0.000000 0.000000
    15 0.763064 -2.490561 -0.278956 -0.235619 0.000000 0.130900
    16 -0.012322 -1.280918 -0.000001 -0.558153 0.000000 0.000000
    17 -0.001696 -0.749371 0.000000 -0.812469 0.000000 0.000000
    18 0.354567 0.016267 0.318133 0.342077 -0.443527 -1.083976
    19 1.887165 0.012877 0.000000 -0.305433 0.000000 -0.401426
    20 1.001876 -0.000270 0.000000 0.000000 0.000000 -0.488692
    21 0.242683 -10.021551 -9.580664 -0.490204 0.276634 0.683877
    22 0.089931 -8.543161 0.000001 0.464863 -0.013022 0.104641
    23 -0.000001 -0.359712 -0.000001 0.000000 0.000000 0.000000
    24 -0.170480 -2.636145 -0.277658 -1.692969 0.000000 0.000000
    25 0.010598 -1.261177 -0.000002 -0.253073 0.000000 0.000000
    26 0.000000 -0.943232 -0.000003 -0.532326 0.000000 0.000000
    27 -0.827567 -2.508974 -0.277658 -1.396263 0.000000 0.000000
    28 -0.000001 -1.292973 0.000000 -0.445059 0.000000 0.000000
    29 0.000000 -0.752468 -0.000004 -0.445059 0.000000 0.000000
    30 0.444210 -2.561962 -0.277657 -1.727307 -0.046226 -0.024599
    31 0.021024 -1.208186 0.000008 -0.427606 0.000000 0.000000
    32 0.010596 -0.741867 -0.000002 -0.453786 0.000000 0.000000
    33 1.047444 -2.222818 -0.277656 -1.508123 -0.078971 -0.038609
    34 0.000001 -0.996222 -0.000002 -0.863938 0.000000 0.000000
    35 -0.000002 -0.614689 0.000001 -0.523599 0.000000 0.000000
    36 -0.308255 -0.007813 0.307167 -0.145110 -0.159878 -2.467082
    37 1.978374 0.019543 0.000002 -0.087921 -0.056961 -0.023672
    38 0.982430 0.003183 0.000001 0.000000 0.000000 0.418879
    39 -1.118738 -2.197477 -0.285026 -0.933746 0.000013 -0.087266
    40 0.003906 -0.964973 0.000003 -0.610853 0.000000 0.000000
    41 -0.007812 -0.626411 0.000000 -1.213004 0.000000 0.000000
  time 10
    0 8.602675 3.349255 -8.033897 -0.789921 -1.326946 0.583921
    1 0.000000 -8.563284 -0.000001 0.349343 -0.119228 -0.185569
    2 -0.834451 -3.073735 0.513625 -1.247037 1.437608 -1.233844
    3 0.000000 2.160511 0.950626 0.000000 0.000000 0.000000
    4 0.000000 -3.344304 1.710279 -0.018169 0.000000 0.000000
    5 0.000000 -4.793802 0.448359 0.000000 0.000000 0.000000
    6 0.000000 -6.345619 1.761433 0.000000 0.000000 0.000000
    7 0.000001 -5.765821 2.989244 0.000000 0.000000 0.000000
    8 -0.003480 -0.404829 0.000000 0.000000 0.000000 0.000000
    9 -0.519309 -2.501154 -0.278955 -1.003564 0.000000 -0.122173
    10 -0.010599 -1.208185 -0.000001 -1.090831 0.000000 0.000000
    11 0.000000 -0.763066 0.000000 -1.343903 0.000000 0.000000
    12 0.105981 -2.607137 -0.278956 -0.890118 0.000000 -0.148353
    13 0.000000 -1.250580 -0.000001 -1.213004 0.000000 0.000000
    14 0.000000 -0.932633 0.000000 -1.483530 0.000000 0.000000
    15 0.763064 -2.490561 -0.278956 -0.235619 0.000000 0.130900
    16 -0.012322 -1.280918 -0.000001 -0.433419 0.000000 0.000000
    17 -0.001696 -0.749371 0.000000 -0.681749 0.000000 0.000000
    18 0.354567 0.016267 0.318133 0.342077 -0.443527 -1.083976
    19 1.887165 0.012877 0.000000 -0.305433 0.000000 -0.401426
    20 1.001876 -0.000270 0.000000 0.000000 0.000000 -0.488692
    21 0.293466 -10.060615 -9.674417 -0.494321 0.272295 0.675782
    22 0.089931 -8.543161 0.000001 0.468279 -0.006886 0.124577
    23 -0.000001 -0.359712 -0.000001 0.000000 0.000000 0.000000
    24 -0.170480 -2.636145 -0.277658 -1.692969 0.000000 0.000000
    25 0.010598 -1.261177 -0.000002 -0.253073 0.000000 0.000000
    26 0.000000 -0.943232 -0.000003 -0.532326 0.000000 0.000000
    27 -0.827567 -2.508974 -0.277658 -1.396263 0.000000 0.000000
    28 -0.000001 -1.292973 0.000000 -0.445059 0.000000 0.000000
    29 0.000000 -0.752468 -0.000004 -0.445059 0.000000 0.000000
    30 0.444210 -2.561962 -0.277657 -1.727307 -0.046226 -0.024599
    31 0.021024 -1.208186 0.000008 -0.427606 0.000000 0.000000
    32 0.010596 -0.741867 -0.000002 -0.453786 0.000000 0.000000
    33 1.047444 -2.222818 -0.277656 -1.508123 -0.078971 -0.038609
    34 0.000001 -0.996222 -0.000002 -0.863938 0.000000 0.000000
    35 -0.000002 -0.614689 0.000001 -0.523599 0.000000 0.000000
    36 -0.308255 -0.007813 0.307167 -0.145110 -0.159878 -2.467082
    37 1.978374 0.019543 0.000002 -0.087921 -0.056961 -0.023672
    38 0.982430 0.003183 0.000001 0.000000 0.000000 0.418879
    39 -1.118738 -2.197477 -0.285026 -0.933746 0.000013 -0.087266
    40 0.003906 -0.964973 0.000003 -0.610853 0.000000 0.000000
    41 -0.007812 -0.626411 0.000000 -1.213004 0.000000 0.000000
  time 11
    0 8.602675 3.278941 -8.006553 -0.785211 -1.328194 0.578873
    1 0.000000 -8.563284 -0.000001 0.348863 -0.120534 -0.181854
    2 -0.834451 -3.073735 0.513625 -1.247037 1.437608 -1.233844
    3 0.000000 2.160511 0.950626 0.000000 0.000000 0.000000
    4 0.000000 -3.344304 1.710279 -0.016802 0.000000 0.000000
    5 0.000000 -4.793802 0.448359 0.000000 0.000000 0.000000
    6 0.000000 -6.345619 1.761433 0.000000 0.000000 0.000000
    7 0.000001 -5.765821 2.989244 0.000000 0.000000 0.000000
    8 -0.003480 -0.404829 0.000000 0.000000 0.000000 0.000000
    9 -0.519309 -2.501154 -0.278955 -1.003564 0.000000 -0.122173
    10 -0.010599 -1.208185 -0.000001 -1.090831 0.000000 0.000000
    11 0.000000 -0.763066 0.000000 -1.343903 0.000000 0.000000
    12 0.105981 -2.607137 -0.278956 -0.890118 0.000000 -0.148353
    13 0.000000 -1.250580 -0.000001 -1.213004 0.000000 0.000000
    14 0.000000 -0.932633 0.000000 -1.483530 0.000000 0.000000
    15 0.763064 -2.490561 -0.278956 -0.235619 0.000000 0.130900
    16 -0.012322 -1.280918 -0.000001 -0.349066 0.000000 0.000000
    17 -0.001696 -0.749371 0.000000 -0.593412 0.000000 0.000000
    18 0.354567 0.016267 0.318133 0.342077 -0.443527 -1.083976
    19 1.887165 0.012877 0.000000 -0.305433 0.000000 -0.401426
    20 1.001876 -0.000270 0.000000 0.000000 0.000000 -0.488692
    21 0.316904 -10.095772 -9.740825 -0.501911 0.268840 0.669733
    22 0.089931 -8.543161 0.000001 0.473867 -0.000426 0.144097
    23 -0.000001 -0.359712 -0.000001 0.000000 0.000000 0.000000
    24 -0.170480 -2.636145 -0.277658 -1.692969 0.000000 0.000000
    25 0.010598 -1.261177 -0.000002 -0.253073 0.000000 0.000000
    26 0.000000 -0.943232 -0.000003 -0.532326 0.000000 0.000000
    27 -0.827567 -2.508974 -0.277658 -1.396263 0.000000 0.000000
    28 -0.000001 -1.292973 0.000000 -0.445059 0.000000 0.000000
    29 0.000000 -0.752468 -0.000004 -0.445059 0.000000 0.000000
    30 0.444210 -2.561962 -0.277657 -1.727307 -0.046226 -0.024599
    31 0.021024 -1.208186 0.000008 -0.427606 0.000000 0.000000
    32 0.010596 -0.741867 -0.000002 -0.453786 0.000000 0.000000
    33 1.047444 -2.222818 -0.277656 -1.508123 -0.078971 -0.038609
    34 0.000001 -0.996222 -0.000002 -0.863938 0.000000 0.000000
    35 -0.000002 -0.614689 0.000001 -0.523599 0.000000 0.000000
    36 -0.308255 -0.007813 0.307167 -0.145110 -0.159878 -2.467082
    37 1.978374 0.019543 0.000002 -0.087921 -0.056961 -0.023672
    38 0.982430 0.003183 0.000001 0.000000 0.000000 0.418879
    39 -1.118738 -2.197477 -0.285026 -0.933746 0.000013 -0.087266
    40 0.003906 -0.964973 0.000003 -0.610853 0.000000 0.000000
    41 -0.007812 -0.626411 0.000000 -1.213004 0.000000 0.000000
  time 12
    0 8.602675 3.232064 -8.002646 -0.783052 -1.328840 0.576630
    1 0.000000 -8.563284 -0.000001 0.348576 -0.121577 -0.179134
    2 -0.834451 -3.073735 0.513625 -1.247037 1.437608 -1.233844
    3 0.000000 2.160511 0.950626 0.000000 0.000000 0.000000
    4 0.000000 -3.344304 1.710279 -0.013459 0.000000 0.000000
    5 0.000000 -4.793802 0.448359 0.000000 0.000000 0.000000
    6 0.000000 -6.345619 1.761433 0.000000 0.000000 0.000000
    7 0.000001 -5.765821 2.989244 0.000000 0.000000 0.000000
    8 -0.003480 -0.404829 0.000000 0.000000 0.000000 0.000000
    9 -0.519309 -2.501154 -0.278955 -1.003564 0.000000 -0.122173
    10 -0.010599 -1.208185 -0.000001 -1.090831 0.000000 0.000000
    11 0.000000 -0.763066 0.000000 -1.343903 0.000000 0.000000
    12 0.105981 -2.607137 -0.278956 -0.890118 0.000000 -0.148353
    13 0.000000 -1.250580 -0.000001 -1.213004 0.000000 0.000000
    14 0.000000 -0.932633 0.000000 -1.483530 0.000000 0.000000
    15 0.763064 -2.490561 -0.278956 -0.235619 0.000000 0.130900
    16 -0.012322 -1.280918 -0.000001 -0.313889 0.000000 0.000000
    17 -0.001696 -0.749371 0.000000 -0.556557 0.000000 0.000000
    18 0.354567 0.016267 0.318133 0.342077 -0.443527 -1.083976
    19 1.887165 0.012877 0.000000 -0.305433 0.000000 -0.401426
    20 1.001876 -0.000270 0.000000 0.000000 0.000000 -0.488692
    21 0.328623 -10.134836 -9.807233 -0.512010 0.266028 0.665018
    22 0.089931 -8.543161 0.000001 0.481016 0.006213 0.163329
    23 -0.000001 -0.359712 -0.000001 0.000000 0.000000 0.000000
    24 -0.170480 -2.636145 -0.277658 -1.692969 0.000000 0.000000
    25 0.010598 -1.261177 -0.000002 -0.253073 0.000000 0.000000
    26 0.000000 -0.943232 -0.000003 -0.532326 0.000000 0.000000
    27 -0.827567 -2.508974 -0.277658 -1.396263 0.000000 0.000000
    28 -0.000001 -1.292973 0.000000 -0.445059 0.000000 0.000000
    29 0.000000 -0.752468 -0.000004 -0.445059 0.000000 0.000000
    30 0.444210 -2.561962 -0.277657 -1.727307 -0.046226 -0.024599
    31 0.021024 -1.208186 0.000008 -0.427606 0.000000 0.000000
    32 0.010596 -0.741867 -0.000002 -0.453786 0.000000 0.000000
    33 1.047444 -2.222818 -0.277656 -1.508123 -0.078971 -0.038609
    34 0.000001 -0.996222 -0.000002 -0.863938 0.000000 0.000000
    35 -0.000002 -0.614689 0.000001 -0.523599 0.000000 0.000000
    36 -0.308255 -0.007813 0.307167 -0.145110 -0.159878 -2.467082
    37 1.978374 0.019543 0.000002 -0.087921 -0.056961 -0.023672
    38 0.982430 0.003183 0.000001 0.000000 0.000000 0.418879
    39 -1.118738 -2.197477 -0.285026 -0.933746 0.000013 -0.087266
    40 0.003906 -0.964973 0.000003 -0.610853 0.000000 0.000000
    41 -0.007812 -0.626411 0.000000 -1.213004 0.000000 0.000000
  time 13
    0 8.602675 3.193000 -8.006553 -0.782202 -1.329219 0.575676
    1 0.000000 -8.563284 -0.000001 0.348336 -0.122440 -0.176953
    2 -0.834451 -3.073735 0.513625 -1.247037 1.437608 -1.233844
    3 0.000000 2.160511 0.950626 0.000000 0.000000 0.000000
    4 0.000000 -3.344304 1.710279 -0.009060 0.000000 0.000000
    5 0.000000 -4.793802 0.448359 0.000000 0.000000 0.000000
    6 0.000000 -6.345619 1.761433 0.000000 0.000000 0.000000
    7 0.000001 -5.765821 2.989244 0.000000 0.000000 0.000000
    8 -0.003480 -0.404829 0.000000 0.000000 0.000000 0.000000
    9 -0.519309 -2.501154 -0.278955 -1.003564 0.000000 -0.122173
    10 -0.010599 -1.208185 -0.000001 -1.090831 0.000000 0.000000
    11 0.000000 -0.763066 0.000000 -1.343903 0.000000 0.000000
    12 0.105981 -2.607137 -0.278956 -0.890118 0.000000 -0.148353
    13 0.000000 -1.250580 -0.000001 -1.213004 0.000000 0.000000
    14 0.000000 -0.932633 0.000000 -1.483530 0.000000 0.000000
    15 0.763064 -2.490561 -0.278956 -0.235619 0.000000 0.130900
    16 -0.012322 -1.280918 -0.000001 -0.309501 0.000000 0.000000
    17 -0.001696 -0.749371 0.000000 -0.551960 0.000000 0.000000
    18 0.354567 0.016267 0.318133 0.342077 -0.443527 -1.083976
    19 1.887165 0.012877 0.000000 -0.305433 0.000000 -0.401426
    20 1.001876 -0.000270 0.000000 0.000000 0.000000 -0.488692
    21 0.316904 -10.177806 -9.873641 -0.523267 0.263457 0.661193
    22 0.089931 -8.543161 0.000001 0.489141 0.012793 0.182452
    23 -0.000001 -0.359712 -0.000001 0.000000 0.000000 0.000000
    24 -0.170480 -2.636145 -0.277658 -1.692969 0.000000 0.000000
    25 0.010598 -1.261177 -0.000002 -0.253073 0.000000 0.000000
    26 0.000000 -0.943232 -0.000003 -0.532326 0.000000 0.000000
    27 -0.827567 -2.508974 -0.277658 -1.396263 0.000000 0.000000
    28 -0.000001 -1.292973 0.000000 -0.445059 0.000000 0.000000
    29 0.000000 -0.752468 -0.000004 -0.445059 0.000000 0.000000
    30 0.444210 -2.561962 -0.277657 -1.727307 -0.046226 -0.024599
    31 0.021024 -1.208186 0.000008 -0.427606 0.000000 0.000000
    32 0.010596 -0.741867 -0.000002 -0.453786 0.000000 0.000000
    33 1.047444 -2.222818 -0.277656 -1.508123 -0.078971 -0.038609
    34 0.000001 -0.996222 -0.000002 -0.863938 0.000000 0.000000
    35 -0.000002 -0.614689 0.000001 -0.523599 0.000000 0.000000
    36 -0.308255 -0.007813 0.307167 -0.145110 -0.159878 -2.467082
    37 1.978374 0.019543 0.000002 -0.087921 -0.056961 -0.023672
    38 0.982430 0.003183 0.000001 0.000000 0.000000 0.418879
    39 -1.118738 -2.197477 -0.285026 -0.933746 0.000013 -0.087266
    40 0.003906 -0.964973 0.000003 -0.610853 0.000000 0.000000
    41 -0.007812 -0.626411 0.000000 -1.213004 0.000000 0.000000
  time 14
    0 8.602675 3.169562 -8.029991 -0.781351 -1.329553 0.574779
    1 0.000000 -8.563284 -0.000001 0.348096 -0.123243 -0.174879
    2 -0.834451 -3.073735 0.513625 -1.247037 1.437608 -1.233844
    3 0.000000 2.160511 0.950626 0.000000 0.000000 0.000000
    4 0.000000 -3.344304 1.710279 -0.004710 0.000000 0.000000
    5 0.000000 -4.793802 0.448359 0.000000 0.000000 0.000000
    6 0.000000 -6.345619 1.761433 0.000000 0.000000 0.000000
    7 0.000001 -5.765821 2.989244 0.000000 0.000000 0.000000
    8 -0.003480 -0.404829 0.000000 0.000000 0.000000 0.000000
    9 -0.519309 -2.501154 -0.278955 -1.003564 0.000000 -0.122173
    10 -0.010599 -1.208185 -0.000001 -1.090831 0.000000 0.000000
    11 0.000000 -0.763066 0.000000 -1.343903 0.000000 0.000000
    12 0.105981 -2.607137 -0.278956 -0.890118 0.000000 -0.148353
    13 0.000000 -1.250580 -0.000001 -1.213004 0.000000 0.000000
    14 0.000000 -0.932633 0.000000 -1.483530 0.000000 0.000000
    15 0.763064 -2.490561 -0.278956 -0.235619 0.000000 0.130900
    16 -0.012322 -1.280918 -0.000001 -0.322683 0.000000 0.000000
    17 -0.001696 -0.749371 0.000000 -0.565771 0.000000 0.000000
    18 0.354567 0.016267 0.318133 0.342077 -0.443527 -1.083976
    19 1.887165 0.012877 0.000000 -0.305433 0.000000 -0.401426
    20 1.001876 -0.000270 0.000000 0.000000 0.000000 -0.488692
    21 0.293466 -10.236402 -9.947862 -0.534845 0.260886 0.657546
    22 0.089931 -8.543161 0.000001 0.497608 0.019301 0.201575
    23 -0.000001 -0.359712 -0.000001 0.000000 0.000000 0.000000
    24 -0.170480 -2.636145 -0.277658 -1.692969 0.000000 0.000000
    25 0.010598 -1.261177 -0.000002 -0.253073 0.000000 0.000000
    26 0.000000 -0.943232 -0.000003 -0.532326 0.000000 0.000000
    27 -0.827567 -2.508974 -0.277658 -1.396263 0.000000 0.000000
    28 -0.000001 -1.292973 0.000000 -0.445059 0.000000 0.000000
    29 0.000000 -0.752468 -0.000004 -0.445059 0.000000 0.000000
    30 0.444210 -2.561962 -0.277657 -1.727307 -0.046226 -0.024599
    31 0.021024 -1.208186 0.000008 -0.427606 0.000000 0.000000
    32 0.010596 -0.741867 -0.000002 -0.453786 0.000000 0.000000
    33 1.047444 -2.222818 -0.277656 -1.508123 -0.078971 -0.038609
    34 0.000001 -0.996222 -0.000002 -0.863938 0.000000 0.000000
    35 -0.000002 -0.614689 0.000001 -0.523599 0.000000 0.000000
    36 -0.308255 -0.007813 0.307167 -0.145110 -0.159878 -2.467082
    37 1.978374 0.019543 0.000002 -0.087921 -0.056961 -0.023672
    38 0.982430 0.003183 0.000001 0.000000 0.000000 0.418879
    39 -1.118738 -2.197477 -0.285026 -0.933746 0.000013 -0.087266
    40 0.003906 -0.964973 0.000003 -0.610853 0.000000 0.000000
    41 -0.007812 -0.626411 0.000000 -1.213004 0.000000 0.000000
  time 15
    0 8.602675 3.157843 -8.061242 -0.779127 -1.330199 0.572367
    1 0.000000 -8.563284 -0.000001 0.347869 -0.124117 -0.172554
    2 -0.834451 -3.073735 0.513625 -1.247037 1.437608 -1.233844
    3 0.000000 2.160511 0.950626 0.000000 0.000000 0.000000
    4 0.000000 -3.344304 1.710279 -0.001318 0.000000 0.000000
    5 0.000000 -4.793802 0.448359 0.000000 0.000000 0.000000
    6 0.000000 -6.345619 1.761433 0.000000 0.000000 0.000000
    7 0.000001 -5.765821 2.989244 0.000000 0.000000 0.000000
    8 -0.003480 -0.404829 0.000000 0.000000 0.000000 0.000000
    9 -0.519309 -2.501154 -0.278955 -1.003564 0.000000 -0.122173
    10 -0.010599 -1.208185 -0.000001 -1.090831 0.000000 0.000000
    11 0.000000 -0.763066 0.000000 -1.343903 0.000000 0.000000
    12 0.105981 -2.607137 -0.278956 -0.890118 0.000000 -0.148353
    13 0.000000 -1.250580 -0.000001 -1.213004 0.000000 0.000000
    14 0.000000 -0.932633 0.000000 -1.483530 0.000000 0.000000
    15 0.763064 -2.490561 -0.278956 -0.235619 0.000000 0.130900
    16 -0.012322 -1.280918 -0.000001 -0.340272 0.000000 0.000000
    17 -0.001696 -0.749371 0.000000 -0.584198 0.000000 0.000000
    18 0.354567 0.016267 0.318133 0.342077 -0.443527 -1.083976
    19 1.887165 0.012877 0.000000 -0.305433 0.000000 -0.401426
    20 1.001876 -0.000270 0.000000 0.000000 0.000000 -0.488692
    21 0.242683 -10.298904 -10.018177 -0.545909 0.258154 0.653543
    22 0.089931 -8.543161 0.000001 0.505782 0.025569 0.220843
    23 -0.000001 -0.359712 -0.000001 0.000000 0.000000 0.000000
    24 -0.170480 -2.636145 -0.277658 -1.692969 0.000000 0.000000
    25 0.010598 -1.261177 -0.000002 -0.253073 0.000000 0.000000
    26 0.000000 -0.943232 -0.000003 -0.532326 0.000000 0.000000
    27 -0.827567 -2.508974 -0.277658 -1.396263 0.000000 0.000000
    28 -0.000001 -1.292973 0.000000 -0.445059 0.000000 0.000000
    29 0.000000 -0.752468 -0.000004 -0.445059 0.000000 0.000000
    30 0.444210 -2.561962 -0.277657 -1.727307 -0.046226 -0.024599
    31 0.021024 -1.208186 0.000008 -0.427606 0.000000 0.000000
    32 0.010596 -0.741867 -0.000002 -0.453786 0.000000 0.000000
    33 1.047444 -2.222818 -0.277656 -1.508123 -0.078971 -0.038609
    34 0.000001 -0.996222 -0.000002 -0.863938 0.000000 0.000000
    35 -0.000002 -0.614689 0.000001 -0.523599 0.000000 0.000000
    36 -0.308255 -0.007813 0.307167 -0.145110 -0.159878 -2.467082
    37 1.978374 0.019543 0.000002 -0.087921 -0.056961 -0.023672
    38 0.982430 0.003183 0.000001 0.000000 0.000000 0.418879
    39 -1.118738 -2.197477 -0.285026 -0.933746 0.000013 -0.087266
    40 0.003906 -0.964973 0.000003 -0.610853 0.000000 0.000000
    41 -0.007812 -0.626411 0.000000 -1.213004 0.000000 0.000000
  time 16
    0 8.602675 3.161749 -8.096399 -0.774286 -1.331380 0.567319
    1 0.000000 -8.563284 -0.000001 0.347509 -0.125220 -0.169570
    2 -0.834451 -3.073735 0.513625 -1.247037 1.437608 -1.233844
    3 0.000000 2.160511 0.950626 0.000000 0.000000 0.000000
    4 0.000000 -3.344304 1.710279 0.000000 0.000000 0.000000
    5 0.000000 -4.793802 0.448359 0.000000 0.000000 0.000000
    6 0.000000 -6.345619 1.761433 0.000000 0.000000 0.000000
    7 0.000001 -5.765821 2.989244 0.000000 0.000000 0.000000
    8 -0.003480 -0.404829 0.000000 0.000000 0.000000 0.000000
    9 -0.519309 -2.501154 -0.278955 -1.003564 0.000000 -0.122173
    10 -0.010599 -1.208185 -0.000001 -1.090831 0.000000 0.000000
    11 0.000000 -0.763066 0.000000 -1.343903 0.000000 0.000000
    12 0.105981 -2.607137 -0.278956 -0.890118 0.000000 -0.148353
    13 0.000000 -1.250580 -0.000001 -1.213004 0.000000 0.000000
    14 0.000000 -0.932633 0.000000 -1.483530 0.000000 0.000000
    15 0.763064 -2.490561 -0.278956 -0.235619 0.000000 0.130900
    16 -0.012322 -1.280918 -0.000001 -0.349066 0.000000 0.000000
    17 -0.001696 -0.749371 0.000000 -0.593412 0.000000 0.000000
    18 0.354567 0.016267 0.318133 0.342077 -0.443527 -1.083976
    19 1.887165 0.012877 0.000000 -0.305433 0.000000 -0.401426
    20 1.001876 -0.000270 0.000000 0.000000 0.000000 -0.488692
    21 0.172369 -10.373125 -10.080679 -0.554979 0.255020 0.648650
    22 0.089931 -8.543161 0.000001 0.512980 0.031489 0.240363
    23 -0.000001 -0.359712 -0.000001 0.000000 0.000000 0.000000
    24 -0.170480 -2.636145 -0.277658 -1.692969 0.000000 0.000000
    25 0.010598 -1.261177 -0.000002 -0.253073 0.000000 0.000000
    26 0.000000 -0.943232 -0.000003 -0.532326 0.000000 0.000000
    27 -0.827567 -2.508974 -0.277658 -1.396263 0.000000 0.000000
    28 -0.000001 -1.292973 0.000000 -0.445059 0.000000 0.000000
    29 0.000000 -0.752468 -0.000004 -0.445059 0.000000 0.000000
    30 0.444210 -2.561962 -0.277657 -1.727307 -0.046226 -0.024599
    31 0.021024 -1.208186 0.000008 -0.427606 0.000000 0.000000
    32 0.010596 -0.741867 -0.000002 -0.453786 0.000000 0.000000
    33 1.047444 -2.222818 -0.277656 -1.508123 -0.078971 -0.038609
    34 0.000001 -0.996222 -0.000002 -0.863938 0.000000 0.000000
    35 -0.000002 -0.614689 0.000001 -0.523599 0.000000 0.000000
    36 -0.308255 -0.007813 0.307167 -0.145110 -0.159878 -2.467082
    37 1.978374 0.019543 0.000002 -0.087921 -0.056961 -0.023672
    38 0.982430 0.003183 0.000001 0.000000 0.000000 0.418879
    39 -1.118738 -2.197477 -0.285026 -0.933746 0.000013 -0.087266
    40 0.003906 -0.964973 0.000003 -0.610853 0.000000 0.000000
    41 -0.007812 -0.626411 0.000000 -1.213004 0.000000 0.000000
end
