// Created by Crowbar 0.58

$modelname "weapons/tfa_cso/w_m60g.mdl"

$bodygroup "studio"
{
	studio "w_m60g"
}

$collisionmodel "w_m60g.smd"
{
	$mass 9
}

$CDMaterials "models\weapons\tfa_cso\m60g"

$attachment "0" "[CSO]M60E4-pws" -54.20 -1.60 0.00 rotate -0 0 -0

$sequence "idle" {
	"w_m60g_anims\idle"
	fps 30
}
