version 1
nodes
  0 "Bip01" -1
  1 "Bip01 Pelvis" 0
  2 "Bip01 Spine" 1
  3 "Bip01 Spine1" 2
  4 "Bip01 Spine2" 3
  5 "Bip01 Spine3" 4
  6 "Bip01 Neck" 5
  7 "Bip01 L Clavicle" 6
  8 "Bip01 L UpperArm" 7
  9 "Bip01 L Forearm" 8
  10 "Bip01 L Hand" 9
  11 "CSO_Mac10_Shop" 10
end
skeleton
  time 0
    0 0.232777 -2.249536 38.192150 0.000000 0.000000 -1.570795
    1 -2.276920 0.000003 -1.238186 -1.570795 -1.570796 0.000000
    2 1.797145 0.711796 -0.000002 -0.000004 -0.000001 0.000739
    3 4.118605 -0.003279 0.000000 0.000000 0.000000 0.000035
    4 4.118601 -0.003280 0.000000 0.000000 0.000000 0.000049
    5 4.118600 -0.003280 0.000000 0.000000 0.000000 -0.000009
    6 4.118531 -0.003538 0.000000 0.000000 0.000000 -0.019437
    7 0.000007 0.003539 1.498853 -0.000040 -1.501696 -3.122911
    8 5.449906 0.000000 0.000001 0.293727 0.900068 -0.358301
    9 10.242682 0.000000 0.000001 0.000000 0.000000 -1.616559
    10 10.987489 0.000000 0.000001 -2.408088 0.507136 -0.659418
    11 2.632030 0.059896 -0.092457 0.235913 3.081111 1.561936
  time 1
    0 0.232777 -2.249536 38.192150 0.000000 0.000000 -1.570795
    1 -2.276920 0.000003 -1.238186 -1.570795 -1.570796 0.000000
    2 1.797145 0.711796 -0.000002 -0.000004 -0.000001 0.000739
    3 4.118605 -0.003279 0.000000 0.000000 0.000000 0.000035
    4 4.118601 -0.003280 0.000000 0.000000 0.000000 0.000049
    5 4.118600 -0.003280 0.000000 0.000000 0.000000 -0.000009
    6 4.118531 -0.003538 0.000000 0.000000 0.000000 -0.019437
    7 0.000007 0.003539 1.498853 -0.000040 -1.501696 -3.122911
    8 5.449906 0.000000 0.000001 0.293727 0.900068 -0.358301
    9 10.242682 0.000000 0.000001 0.000000 0.000000 -1.616559
    10 10.987489 0.000000 0.000001 -2.408088 0.507136 -0.659418
    11 2.632030 0.059896 -0.092457 0.235913 3.081111 1.561936
end
