// Created by Crowbar 0.49.0.0

$modelname "weapons/tfa_cso/c_m60_expert.mdl"

$Include "csonline_gmod.qci"

$bodygroup "weapon"
{
	studio "v_m60_M60E4_Ref"
}

$CDMaterials "models\weapons\tfa_cso\m60_v6"

$attachment 0 "M60E4_Handle" -13 0.8 0
//$attachment 1 "M60E4_Handle" 6 0 -0.8

$definebone "root" "" 1.031646 43.220158 -39.163345 0.000000 0.000000 0.000000 0.000000 0.000000 0.000000 -0.000000 0.000000 0.000000
$definebone "Bone01" "root" 0.496437 0.571350 22.470005 -0.012834 -89.771431 179.847612 0.000000 0.000000 0.000002 0.000000 0.000000 -0.000000
$definebone "Bone_Lefthand" "Bone01" -0.071915 -8.498731 -0.104136 16.477755 0.853593 -1.435030 0.000000 0.000001 -0.000000 0.000005 0.000000 -0.000000
$definebone "M60E4_Root" "Bone_Lefthand" 37.207970 9.812013 -4.608264 -55.049840 -178.038978 86.929622 0.000000 0.000000 0.000000 0.000000 -0.000002 0.000000
$definebone "M60E4_Handle" "M60E4_Root" -4.705893 5.891053 -0.000003 0.000000 -71.588272 -0.000000 0.000000 0.000000 -0.000000 0.000000 0.000003 -0.000000
$definebone "M60E4_Magazine" "M60E4_Root" -2.028295 0.743734 3.177480 0.000000 18.434971 -89.999983 -0.000000 0.000000 0.000000 0.000005 0.000000 -0.000000
$definebone "M60E4_Bullet01" "M60E4_Magazine" -0.735578 2.652202 -1.031096 -89.999983 89.999983 0.000000 0.000000 0.000000 -0.000000 -0.000000 0.000005 0.000000
$definebone "M60E4_Bullet02" "M60E4_Bullet01" 0.000000 0.000000 0.480487 -0.000000 0.000005 0.000000 0.000000 0.000000 0.000000 -0.000000 0.000005 0.000000
$definebone "M60E4_Bullet03" "M60E4_Bullet02" 0.000000 -0.189657 0.385765 -0.000000 0.000005 0.000000 0.000000 0.000000 0.000000 -0.000000 0.000005 0.000000
$definebone "M60E4_Bullet04" "M60E4_Bullet03" 0.000002 -0.260962 0.314802 -0.000000 0.000005 0.000000 0.000000 0.000000 0.000000 -0.000000 0.000005 0.000000
$definebone "M60E4_Bullet05" "M60E4_Bullet04" -0.000001 -0.200942 0.362319 -0.000000 0.000005 0.000000 0.000000 0.000000 0.000000 -0.000000 0.000005 0.000000
$definebone "M60E4_Bullet06" "M60E4_Bullet05" 0.000000 -0.105455 0.448656 -0.000000 0.000005 0.000000 0.000000 0.000000 0.000000 -0.000000 0.000005 0.000000
$definebone "M60E4_Bullet07" "M60E4_Bullet06" 0.000001 -0.089686 0.430046 -0.000000 0.000005 0.000000 0.000000 0.000000 0.000000 -0.000000 0.000005 0.000000
$definebone "M60E4_Bullet08" "M60E4_Bullet07" 0.000001 -0.437961 0.022631 -0.000000 0.000005 0.000000 0.000000 0.000000 0.000000 -0.000000 0.000005 0.000000
$definebone "M60E4_Trigger" "M60E4_Root" -0.267967 1.115499 -0.000001 0.000000 8.761552 0.000000 0.000000 0.000000 0.000000 0.000000 -0.000004 0.000000
$definebone "M60E4_Cover" "M60E4_Root" -4.059097 1.933379 -0.000001 0.000000 -71.628372 -0.000000 0.000000 0.000000 0.000000 0.000000 0.000005 -0.000000
$definebone "M60E4_Sight" "M60E4_Root" -4.346756 2.840777 -0.000002 -0.000000 -161.597073 -0.000000 0.000000 0.000000 0.000000 -0.000000 -0.000003 -0.000000
$definebone "M60E4_Tripod01" "M60E4_Root" -5.098959 12.305957 1.028684 -0.000057 -71.533733 23.402346 0.000000 0.000000 0.000000 0.000001 0.000003 -0.000003

$sequence "idle1" {
	"v_m60_anims\idle1"
	fps 16
	activity "ACT_VM_IDLE" 1
	snap
	loop
}
$sequence "shoot1" {
	"v_m60_anims\shoot1"
	{ event 5001 0 "22" }
	fps 30
	activity "ACT_VM_PRIMARYATTACK" 1
	snap
}
$sequence "shoot2" {
	"v_m60_anims\shoot2"
	{ event 5001 0 "22" }
	fps 30
	activity "ACT_VM_PRIMARYATTACK" 2
	snap
}
$sequence "reload" {
	"v_m60_anims\reload"
	{ event 5004 13 "M60.ClipOut1" }
	{ event 5004 38 "M60.ClipOut2" }
	{ event 5004 59 "M60.ClipIn1" }
	{ event 5004 75 "M60.ClipIn2" }
	{ event 5004 83 "M60.ClipIn3" }
	{ event 5004 96 "M60.ClipIn4" }
	fps 30
	activity "ACT_VM_RELOAD" 1
	snap
}
$sequence "draw" {
	"v_m60_anims\draw"
	fps 30
	activity "ACT_VM_DRAW" 1
	snap
}
