version 1
nodes
  0 "Bone01" -1
  1 "Bone_Lefthand" 0
  2 "Bone02" 1
  3 "Bone03" 2
  4 "Bone52" 3
  5 "Bone48" 3
  6 "Bone25" 3
  7 "Bone50" 3
  8 "Bone54" 3
  9 "Bone 04" 1
  10 "Bone13" 9
  11 "Bone14" 10
  12 "Bone15" 11
  13 "Bone17" 9
  14 "Bone18" 13
  15 "Bone19" 14
  16 "Bone21" 9
  17 "Bone22" 16
  18 "Bone23" 17
  19 "Bone05" 9
  20 "Bone06" 19
  21 "Bone07" 20
  22 "Bone09" 9
  23 "Bone10" 22
  24 "Bone11" 23
  25 "Bone04" -1
  26 "Bone_Righthand" 25
  27 "Bone26" 26
  28 "Bone35" 27
  29 "Bone36" 28
  30 "Bone37" 29
  31 "Bone31" 27
  32 "Bone32" 31
  33 "Bone33" 32
  34 "Bone39" 27
  35 "Bone40" 34
  36 "Bone41" 35
  37 "Bone43" 27
  38 "Bone44" 37
  39 "Bone45" 38
  40 "Bone27" 27
  41 "Bone28" 40
  42 "Bone29" 41
end
skeleton
  time 0
    0 6.606241 2.166441 -6.193456 5.508827 -1.331365 -5.715892
    1 -0.001604 -8.561233 -0.002570 0.347136 -0.117010 -0.166581
    2 -0.365922 -3.554516 0.712018 -1.186454 1.434443 -1.173803
    3 0.000000 2.617617 0.665016 0.000000 0.000000 0.000000
    4 -0.000001 -1.655465 2.278034 0.000000 0.000000 0.000000
    5 -0.000001 -1.796958 1.330032 0.000000 0.000000 0.000000
    6 -0.000002 -2.886455 1.471525 0.183244 0.000000 0.000000
    7 0.000000 -0.778212 1.774024 -0.000021 0.000000 0.000000
    8 -0.000001 -1.598867 0.580120 0.000000 0.000000 0.000000
    9 -0.003480 -0.404829 0.000000 0.000000 0.000000 0.000000
    10 -0.519309 -2.501155 -0.278957 -1.003564 0.000000 -0.122173
    11 -0.010598 -1.208185 -0.000001 -1.090831 0.000000 0.000000
    12 0.000000 -0.763066 0.000000 -1.343903 0.000000 0.000000
    13 0.105981 -2.607133 -0.278957 -0.890118 0.000000 -0.148353
    14 0.000000 -1.250578 -0.000001 -1.213004 0.000000 0.000000
    15 0.000000 -0.932634 0.000000 -1.483530 0.000000 0.000000
    16 0.763063 -2.490556 -0.278957 -0.347773 0.030405 0.214564
    17 -0.012322 -1.280917 0.000000 -1.228681 0.000000 0.000000
    18 -0.001697 -0.749371 -0.000001 -1.075078 0.000000 0.000000
    19 0.354567 0.016267 0.318133 0.342077 -0.443527 -1.083976
    20 1.887164 0.012877 0.000000 -0.305433 0.000000 -0.401426
    21 1.001874 -0.000270 -0.000001 0.000000 0.000000 -0.488692
    22 -1.123358 -2.195093 -0.278957 -0.933751 0.000000 -0.087266
    23 0.010772 -0.963791 0.000000 -0.610865 0.000000 0.000000
    24 -0.010412 -0.631916 0.000000 -1.213004 0.000000 0.000000
    25 -1.144079 -0.861116 -10.260372 -0.375299 0.000024 0.602091
    26 0.089930 -8.543163 -0.000001 0.079776 -0.284690 0.455199
    27 0.000000 -0.359712 0.000000 0.000000 0.000000 0.000000
    28 -0.170479 -2.636146 -0.277655 -0.820355 0.000000 0.000000
    29 0.010599 -1.261176 0.000002 -0.584675 0.000000 0.000000
    30 -0.000001 -0.943232 -0.000001 -0.532326 0.000000 0.000000
    31 -0.827563 -2.508973 -0.277656 -0.942512 0.000000 0.000000
    32 0.000000 -1.292971 0.000000 -0.287979 0.000000 0.000000
    33 0.000000 -0.752466 0.000000 -0.445059 0.000000 0.000000
    34 0.444213 -2.561960 -0.277655 -1.081559 -0.046226 -0.024599
    35 0.021022 -1.208186 0.000000 -0.427606 0.000000 0.000000
    36 0.010597 -0.741867 -0.000001 -0.453786 0.000000 0.000000
    37 1.047444 -2.222821 -0.277655 -1.019673 -0.066950 -0.041090
    38 0.000000 -0.996223 -0.000002 -0.584707 0.000000 0.000000
    39 -0.000001 -0.614690 0.000000 -0.523599 0.000000 0.000000
    40 -0.308254 -0.007814 0.307166 -0.318048 -0.539817 -2.424633
    41 1.978377 0.019543 0.000001 -0.000002 -0.000010 0.549776
    42 0.982426 0.003186 0.000000 0.000000 0.000000 0.593405
  time 1
    0 6.606241 2.166441 -6.193456 5.413650 -1.304917 -5.617505
    1 -0.001604 -8.561233 -0.002570 0.348958 -0.139013 0.132787
    2 -0.365922 -3.554516 0.712018 -1.186454 1.434443 -1.173803
    3 0.000000 2.617617 0.665016 0.000000 0.000000 0.000000
    4 -0.000001 -0.842940 2.278034 0.000000 0.000000 0.000000
    5 -0.000001 -1.796958 1.330032 0.000000 0.000000 0.000000
    6 -0.000002 -2.886455 1.471525 0.187427 0.000000 0.000000
    7 0.000000 -0.778212 1.774024 -0.270751 0.000000 0.000000
    8 -0.000001 -1.598867 0.580120 0.000000 0.000000 0.000000
    9 -0.003480 -0.404829 0.000000 0.000000 0.000000 0.000000
    10 -0.519309 -2.501155 -0.278957 -1.003564 0.000000 -0.122173
    11 -0.010598 -1.208185 -0.000001 -1.090831 0.000000 0.000000
    12 0.000000 -0.763066 0.000000 -1.343903 0.000000 0.000000
    13 0.105981 -2.607133 -0.278957 -0.890118 0.000000 -0.148353
    14 0.000000 -1.250578 -0.000001 -1.213004 0.000000 0.000000
    15 0.000000 -0.932634 0.000000 -1.483530 0.000000 0.000000
    16 0.763063 -2.490556 -0.278957 -0.347773 0.030405 0.214564
    17 -0.012322 -1.280917 0.000000 -1.239090 0.000000 0.000000
    18 -0.001697 -0.749371 -0.000001 -1.078625 0.000000 0.000000
    19 0.354567 0.016267 0.318133 0.342077 -0.443527 -1.083976
    20 1.887164 0.012877 0.000000 -0.305433 0.000000 -0.401426
    21 1.001874 -0.000270 -0.000001 0.000000 0.000000 -0.488692
    22 -1.123358 -2.195093 -0.278957 -0.933751 0.000000 -0.087266
    23 0.010772 -0.963791 0.000000 -0.610865 0.000000 0.000000
    24 -0.010412 -0.631916 0.000000 -1.213004 0.000000 0.000000
    25 -0.796412 -1.583794 -9.838484 -0.430640 0.074234 0.565729
    26 0.089930 -8.543163 -0.000001 0.004021 -0.095156 0.449253
    27 0.000000 -0.359712 0.000000 0.000000 0.000000 0.000000
    28 -0.170479 -2.636146 -0.277655 -0.820355 0.000000 0.000000
    29 0.010599 -1.261176 0.000002 -0.584675 0.000000 0.000000
    30 -0.000001 -0.943232 -0.000001 -0.532326 0.000000 0.000000
    31 -0.827563 -2.508973 -0.277656 -0.942512 0.000000 0.000000
    32 0.000000 -1.292971 0.000000 -0.287979 0.000000 0.000000
    33 0.000000 -0.752466 0.000000 -0.445059 0.000000 0.000000
    34 0.444213 -2.561960 -0.277655 -1.081559 -0.046226 -0.024599
    35 0.021022 -1.208186 0.000000 -0.427606 0.000000 0.000000
    36 0.010597 -0.741867 -0.000001 -0.453786 0.000000 0.000000
    37 1.047444 -2.222821 -0.277655 -1.019673 -0.066950 -0.041090
    38 0.000000 -0.996223 -0.000002 -0.584707 0.000000 0.000000
    39 -0.000001 -0.614690 0.000000 -0.523599 0.000000 0.000000
    40 -0.308254 -0.007814 0.307166 -0.318048 -0.539817 -2.424633
    41 1.978377 0.019543 0.000001 -0.000002 -0.000010 0.549776
    42 0.982426 0.003186 0.000000 0.000000 0.000000 0.593405
  time 2
    0 6.606241 2.166441 -6.193456 5.323826 -1.270975 -5.523968
    1 -0.001604 -8.561233 -0.002570 0.350145 -0.145710 0.278103
    2 -0.365922 -3.554516 0.712018 -1.186454 1.434443 -1.173803
    3 0.000000 2.617617 0.665016 0.000000 0.000000 0.000000
    4 -0.000001 -0.030415 2.278034 0.000000 0.000000 0.000000
    5 -0.000001 -1.796958 1.330032 0.000000 0.000000 0.000000
    6 -0.000002 -2.886455 1.471525 0.195804 0.000000 0.000000
    7 0.000000 -0.778212 1.774024 -0.541481 0.000000 0.000000
    8 -0.000001 -1.598867 0.580120 0.000000 0.000000 0.000000
    9 -0.003480 -0.404829 0.000000 0.000000 0.000000 0.000000
    10 -0.519309 -2.501155 -0.278957 -1.003564 0.000000 -0.122173
    11 -0.010598 -1.208185 -0.000001 -1.090831 0.000000 0.000000
    12 0.000000 -0.763066 0.000000 -1.343903 0.000000 0.000000
    13 0.105981 -2.607133 -0.278957 -0.890118 0.000000 -0.148353
    14 0.000000 -1.250578 -0.000001 -1.213004 0.000000 0.000000
    15 0.000000 -0.932634 0.000000 -1.483530 0.000000 0.000000
    16 0.763063 -2.490556 -0.278957 -0.347773 0.030405 0.214564
    17 -0.012322 -1.280917 0.000000 -1.259908 0.000000 0.000000
    18 -0.001697 -0.749371 -0.000001 -1.085690 0.000000 0.000000
    19 0.354567 0.016267 0.318133 0.342077 -0.443527 -1.083976
    20 1.887164 0.012877 0.000000 -0.305433 0.000000 -0.401426
    21 1.001874 -0.000270 -0.000001 0.000000 0.000000 -0.488692
    22 -1.123358 -2.195093 -0.278957 -0.933751 0.000000 -0.087266
    23 0.010772 -0.963791 0.000000 -0.610865 0.000000 0.000000
    24 -0.010412 -0.631916 0.000000 -1.213004 0.000000 0.000000
    25 -0.526872 -1.923648 -9.483005 -0.479158 0.130354 0.534718
    26 0.089930 -8.543163 -0.000001 -0.059174 0.049780 0.434931
    27 0.000000 -0.359712 0.000000 0.000000 0.000000 0.000000
    28 -0.170479 -2.636146 -0.277655 -0.820355 0.000000 0.000000
    29 0.010599 -1.261176 0.000002 -0.584675 0.000000 0.000000
    30 -0.000001 -0.943232 -0.000001 -0.532326 0.000000 0.000000
    31 -0.827563 -2.508973 -0.277656 -0.942512 0.000000 0.000000
    32 0.000000 -1.292971 0.000000 -0.287979 0.000000 0.000000
    33 0.000000 -0.752466 0.000000 -0.445059 0.000000 0.000000
    34 0.444213 -2.561960 -0.277655 -1.081559 -0.046226 -0.024599
    35 0.021022 -1.208186 0.000000 -0.427606 0.000000 0.000000
    36 0.010597 -0.741867 -0.000001 -0.453786 0.000000 0.000000
    37 1.047444 -2.222821 -0.277655 -1.019673 -0.066950 -0.041090
    38 0.000000 -0.996223 -0.000002 -0.584707 0.000000 0.000000
    39 -0.000001 -0.614690 0.000000 -0.523599 0.000000 0.000000
    40 -0.308254 -0.007814 0.307166 -0.318048 -0.539817 -2.424633
    41 1.978377 0.019543 0.000001 -0.000002 -0.000010 0.549776
    42 0.982426 0.003186 0.000000 0.000000 0.000000 0.593405
  time 3
    0 6.625772 2.635205 -6.123141 5.262129 -1.240339 -5.459061
    1 -0.001604 -8.561233 -0.002570 0.355983 -0.136252 0.266983
    2 -0.365922 -3.554516 0.712018 -1.186454 1.434443 -1.173803
    3 0.000000 2.617617 0.665016 0.000000 0.000000 0.000000
    4 -0.000001 -0.030415 2.278034 0.000000 0.000000 0.000000
    5 -0.000001 -1.796958 1.330032 0.000000 0.000000 0.000000
    6 -0.000002 -2.886455 1.471525 0.202096 0.000000 0.000000
    7 0.000000 -0.778212 1.774024 -0.680679 0.000000 0.000000
    8 -0.000001 -1.598867 0.580120 0.000000 0.000000 0.000000
    9 -0.003480 -0.404829 0.000000 0.000000 0.000000 0.000000
    10 -0.519309 -2.501155 -0.278957 -1.003564 0.000000 -0.122173
    11 -0.010598 -1.208185 -0.000001 -1.090831 0.000000 0.000000
    12 0.000000 -0.763066 0.000000 -1.343903 0.000000 0.000000
    13 0.105981 -2.607133 -0.278957 -0.890118 0.000000 -0.148353
    14 0.000000 -1.250578 -0.000001 -1.213004 0.000000 0.000000
    15 0.000000 -0.932634 0.000000 -1.483530 0.000000 0.000000
    16 0.763063 -2.490556 -0.278957 -0.347773 0.030405 0.214564
    17 -0.012322 -1.280917 0.000000 -1.275538 0.000000 0.000000
    18 -0.001697 -0.749371 -0.000001 -1.091011 0.000000 0.000000
    19 0.354567 0.016267 0.318133 0.342077 -0.443527 -1.083976
    20 1.887164 0.012877 0.000000 -0.305433 0.000000 -0.401426
    21 1.001874 -0.000270 -0.000001 0.000000 0.000000 -0.488692
    22 -1.123358 -2.195093 -0.278957 -0.933751 0.000000 -0.087266
    23 0.010772 -0.963791 0.000000 -0.610865 0.000000 0.000000
    24 -0.010412 -0.631916 0.000000 -1.213004 0.000000 0.000000
    25 -0.331554 -1.802551 -9.201746 -0.505204 0.137959 0.529917
    26 0.089930 -8.543163 -0.000001 -0.098152 0.068774 0.436541
    27 0.000000 -0.359712 0.000000 0.000000 0.000000 0.000000
    28 -0.170479 -2.636146 -0.277655 -0.820355 0.000000 0.000000
    29 0.010599 -1.261176 0.000002 -0.584675 0.000000 0.000000
    30 -0.000001 -0.943232 -0.000001 -0.532326 0.000000 0.000000
    31 -0.827563 -2.508973 -0.277656 -0.942512 0.000000 0.000000
    32 0.000000 -1.292971 0.000000 -0.287979 0.000000 0.000000
    33 0.000000 -0.752466 0.000000 -0.445059 0.000000 0.000000
    34 0.444213 -2.561960 -0.277655 -1.081559 -0.046226 -0.024599
    35 0.021022 -1.208186 0.000000 -0.427606 0.000000 0.000000
    36 0.010597 -0.741867 -0.000001 -0.453786 0.000000 0.000000
    37 1.047444 -2.222821 -0.277655 -1.019673 -0.066950 -0.041090
    38 0.000000 -0.996223 -0.000002 -0.584707 0.000000 0.000000
    39 -0.000001 -0.614690 0.000000 -0.523599 0.000000 0.000000
    40 -0.308254 -0.007814 0.307166 -0.318048 -0.539817 -2.424633
    41 1.978377 0.019543 0.000001 -0.000002 -0.000010 0.549776
    42 0.982426 0.003186 0.000000 0.000000 0.000000 0.593405
  time 4
    0 6.637491 2.971153 -6.072358 5.215765 -1.211643 -5.409821
    1 -0.001604 -8.561233 -0.002570 0.366002 -0.115814 0.209702
    2 -0.365922 -3.554516 0.712018 -1.186454 1.434443 -1.173803
    3 0.000000 2.617617 0.665016 0.000000 0.000000 0.000000
    4 -0.000001 -0.030415 2.278034 0.000000 0.000000 0.000000
    5 -0.000001 -1.796958 1.330032 0.000000 0.000000 0.000000
    6 -0.000002 -2.886455 1.471525 0.200011 0.000000 0.000000
    7 0.000000 -0.778212 1.774024 -0.707372 0.000000 0.000000
    8 -0.000001 -1.598867 0.580120 0.000000 0.000000 0.000000
    9 -0.003480 -0.404829 0.000000 0.000000 0.000000 0.000000
    10 -0.519309 -2.501155 -0.278957 -1.003564 0.000000 -0.122173
    11 -0.010598 -1.208185 -0.000001 -1.090831 0.000000 0.000000
    12 0.000000 -0.763066 0.000000 -1.343903 0.000000 0.000000
    13 0.105981 -2.607133 -0.278957 -0.890118 0.000000 -0.148353
    14 0.000000 -1.250578 -0.000001 -1.213004 0.000000 0.000000
    15 0.000000 -0.932634 0.000000 -1.483530 0.000000 0.000000
    16 0.763063 -2.490556 -0.278957 -0.347773 0.030405 0.214564
    17 -0.012322 -1.280917 0.000000 -1.270317 0.000000 0.000000
    18 -0.001697 -0.749371 -0.000001 -1.089238 0.000000 0.000000
    19 0.354567 0.016267 0.318133 0.342077 -0.443527 -1.083976
    20 1.887164 0.012877 0.000000 -0.305433 0.000000 -0.401426
    21 1.001874 -0.000270 -0.000001 0.000000 0.000000 -0.488692
    22 -1.123358 -2.195093 -0.278957 -0.933751 0.000000 -0.087266
    23 0.010772 -0.963791 0.000000 -0.610865 0.000000 0.000000
    24 -0.010412 -0.631916 0.000000 -1.213004 0.000000 0.000000
    25 -0.218269 -1.466603 -8.986896 -0.508670 0.128065 0.535899
    26 0.089930 -8.543163 -0.000001 -0.093352 0.033614 0.436640
    27 0.000000 -0.359712 0.000000 0.000000 0.000000 0.000000
    28 -0.170479 -2.636146 -0.277655 -0.820355 0.000000 0.000000
    29 0.010599 -1.261176 0.000002 -0.584675 0.000000 0.000000
    30 -0.000001 -0.943232 -0.000001 -0.532326 0.000000 0.000000
    31 -0.827563 -2.508973 -0.277656 -0.942512 0.000000 0.000000
    32 0.000000 -1.292971 0.000000 -0.287979 0.000000 0.000000
    33 0.000000 -0.752466 0.000000 -0.445059 0.000000 0.000000
    34 0.444213 -2.561960 -0.277655 -1.081559 -0.046226 -0.024599
    35 0.021022 -1.208186 0.000000 -0.427606 0.000000 0.000000
    36 0.010597 -0.741867 -0.000001 -0.453786 0.000000 0.000000
    37 1.047444 -2.222821 -0.277655 -1.019673 -0.066950 -0.041090
    38 0.000000 -0.996223 -0.000002 -0.584707 0.000000 0.000000
    39 -0.000001 -0.614690 0.000000 -0.523599 0.000000 0.000000
    40 -0.308254 -0.007814 0.307166 -0.318048 -0.539817 -2.424633
    41 1.978377 0.019543 0.000001 -0.000002 -0.000010 0.549776
    42 0.982426 0.003186 0.000000 0.000000 0.000000 0.593405
  time 5
    0 6.645304 3.174284 -6.041107 5.184554 -1.188809 -5.376341
    1 -0.001604 -8.561233 -0.002570 0.375070 -0.090637 0.122049
    2 -0.365922 -3.554516 0.712018 -1.186454 1.434443 -1.173803
    3 0.000000 2.617617 0.665016 0.000000 0.000000 0.000000
    4 -0.000001 -0.030415 2.278034 0.000000 0.000000 0.000000
    5 -0.000001 -1.796958 1.330032 0.000000 0.000000 0.000000
    6 -0.000002 -2.886455 1.471525 0.183244 0.000000 0.000000
    7 0.000000 -0.778212 1.774024 -0.728602 0.000000 0.000000
    8 -0.000001 -1.598867 0.580120 0.000000 0.000000 0.000000
    9 -0.003480 -0.404829 0.000000 0.000000 0.000000 0.000000
    10 -0.519309 -2.501155 -0.278957 -1.003564 0.000000 -0.122173
    11 -0.010598 -1.208185 -0.000001 -1.090831 0.000000 0.000000
    12 0.000000 -0.763066 0.000000 -1.343903 0.000000 0.000000
    13 0.105981 -2.607133 -0.278957 -0.890118 0.000000 -0.148353
    14 0.000000 -1.250578 -0.000001 -1.213004 0.000000 0.000000
    15 0.000000 -0.932634 0.000000 -1.483530 0.000000 0.000000
    16 0.763063 -2.490556 -0.278957 -0.347773 0.030405 0.214564
    17 -0.012322 -1.280917 0.000000 -1.228681 0.000000 0.000000
    18 -0.001697 -0.749371 -0.000001 -1.075078 0.000000 0.000000
    19 0.354567 0.016267 0.318133 0.342077 -0.443527 -1.083976
    20 1.887164 0.012877 0.000000 -0.305433 0.000000 -0.401426
    21 1.001874 -0.000270 -0.000001 0.000000 0.000000 -0.488692
    22 -1.123358 -2.195093 -0.278957 -0.933751 0.000000 -0.087266
    23 0.010772 -0.963791 0.000000 -0.610865 0.000000 0.000000
    24 -0.010412 -0.631916 0.000000 -1.213004 0.000000 0.000000
    25 -0.253426 -1.107217 -8.818922 -0.492046 0.123487 0.540385
    26 0.089930 -8.543163 -0.000001 -0.029471 -0.003928 0.414795
    27 0.000000 -0.359712 0.000000 0.000000 0.000000 0.000000
    28 -0.170479 -2.636146 -0.277655 -0.820355 0.000000 0.000000
    29 0.010599 -1.261176 0.000002 -0.584675 0.000000 0.000000
    30 -0.000001 -0.943232 -0.000001 -0.532326 0.000000 0.000000
    31 -0.827563 -2.508973 -0.277656 -0.942512 0.000000 0.000000
    32 0.000000 -1.292971 0.000000 -0.287979 0.000000 0.000000
    33 0.000000 -0.752466 0.000000 -0.445059 0.000000 0.000000
    34 0.444213 -2.561960 -0.277655 -1.081559 -0.046226 -0.024599
    35 0.021022 -1.208186 0.000000 -0.427606 0.000000 0.000000
    36 0.010597 -0.741867 -0.000001 -0.453786 0.000000 0.000000
    37 1.047444 -2.222821 -0.277655 -1.019673 -0.066950 -0.041090
    38 0.000000 -0.996223 -0.000002 -0.584707 0.000000 0.000000
    39 -0.000001 -0.614690 0.000000 -0.523599 0.000000 0.000000
    40 -0.308254 -0.007814 0.307166 -0.318048 -0.539817 -2.424633
    41 1.978377 0.019543 0.000001 -0.000002 -0.000010 0.549776
    42 0.982426 0.003186 0.000000 0.000000 0.000000 0.593405
  time 6
    0 6.649211 3.240692 -6.033295 5.180290 -1.185415 -5.371678
    1 -0.001604 -8.561233 -0.002570 0.381059 -0.065155 0.024197
    2 -0.365922 -3.554516 0.712018 -1.186454 1.434443 -1.173803
    3 0.000000 2.617617 0.665016 0.000000 0.000000 0.000000
    4 -0.000001 -0.030415 2.278034 0.000000 0.000000 0.000000
    5 -0.000001 -1.796958 1.330032 0.000000 0.000000 0.000000
    6 -0.000002 -2.886455 1.471525 0.087607 0.000000 0.000000
    7 0.000000 -0.778212 1.774024 -0.744804 0.000000 0.000000
    8 -0.000001 -1.598867 0.580120 0.000000 0.000000 0.000000
    9 -0.003480 -0.404829 0.000000 0.000000 0.000000 0.000000
    10 -0.519309 -2.501155 -0.278957 -1.003564 0.000000 -0.122173
    11 -0.010598 -1.208185 -0.000001 -1.090831 0.000000 0.000000
    12 0.000000 -0.763066 0.000000 -1.343903 0.000000 0.000000
    13 0.105981 -2.607133 -0.278957 -0.890118 0.000000 -0.148353
    14 0.000000 -1.250578 -0.000001 -1.213004 0.000000 0.000000
    15 0.000000 -0.932634 0.000000 -1.483530 0.000000 0.000000
    16 0.763063 -2.490556 -0.278957 -0.347773 0.030405 0.214564
    17 -0.012322 -1.280917 0.000000 -0.990953 0.000000 0.000000
    18 -0.001697 -0.749371 -0.000001 -1.033632 0.000000 0.000000
    19 0.354567 0.016267 0.318133 0.342077 -0.443527 -1.083976
    20 1.887164 0.012877 0.000000 -0.305433 0.000000 -0.401426
    21 1.001874 -0.000270 -0.000001 0.000000 0.000000 -0.488692
    22 -1.123358 -2.195093 -0.278957 -0.933751 0.000000 -0.087266
    23 0.010772 -0.963791 0.000000 -0.610865 0.000000 0.000000
    24 -0.010412 -0.631916 0.000000 -1.213004 0.000000 0.000000
    25 -0.413588 -0.657985 -8.701731 -0.467028 0.118170 0.546288
    26 0.089930 -8.543163 -0.000001 0.059240 -0.048316 0.382784
    27 0.000000 -0.359712 0.000000 0.000000 0.000000 0.000000
    28 -0.170479 -2.636146 -0.277655 -0.820355 0.000000 0.000000
    29 0.010599 -1.261176 0.000002 -0.584675 0.000000 0.000000
    30 -0.000001 -0.943232 -0.000001 -0.532326 0.000000 0.000000
    31 -0.827563 -2.508973 -0.277656 -0.942512 0.000000 0.000000
    32 0.000000 -1.292971 0.000000 -0.287979 0.000000 0.000000
    33 0.000000 -0.752466 0.000000 -0.445059 0.000000 0.000000
    34 0.444213 -2.561960 -0.277655 -1.081559 -0.046226 -0.024599
    35 0.021022 -1.208186 0.000000 -0.427606 0.000000 0.000000
    36 0.010597 -0.741867 -0.000001 -0.453786 0.000000 0.000000
    37 1.047444 -2.222821 -0.277655 -1.019673 -0.066950 -0.041090
    38 0.000000 -0.996223 -0.000002 -0.584707 0.000000 0.000000
    39 -0.000001 -0.614690 0.000000 -0.523599 0.000000 0.000000
    40 -0.308254 -0.007814 0.307166 -0.318048 -0.539817 -2.424633
    41 1.978377 0.019543 0.000001 -0.000002 -0.000010 0.549776
    42 0.982426 0.003186 0.000000 0.000000 0.000000 0.593405
  time 7
    0 6.649211 3.217254 -6.056733 5.183012 -1.187619 -5.374663
    1 -0.001604 -8.561233 -0.002570 0.383654 -0.044305 -0.063964
    2 -0.365922 -3.554516 0.712018 -1.186454 1.434443 -1.173803
    3 0.000000 2.617617 0.665016 0.000000 0.000000 0.000000
    4 -0.000001 -0.030415 2.278034 0.000000 0.000000 0.000000
    5 -0.000001 -1.796958 1.330032 0.000000 0.000000 0.000000
    6 -0.000002 -2.886455 1.471525 0.000000 0.000000 0.000000
    7 0.000000 -0.778212 1.774024 -0.756437 0.000000 0.000000
    8 -0.000001 -1.598867 0.580120 0.000000 0.000000 0.000000
    9 -0.003480 -0.404829 0.000000 0.000000 0.000000 0.000000
    10 -0.519309 -2.501155 -0.278957 -1.003564 0.000000 -0.122173
    11 -0.010598 -1.208185 -0.000001 -1.090831 0.000000 0.000000
    12 0.000000 -0.763066 0.000000 -1.343903 0.000000 0.000000
    13 0.105981 -2.607133 -0.278957 -0.890118 0.000000 -0.148353
    14 0.000000 -1.250578 -0.000001 -1.213004 0.000000 0.000000
    15 0.000000 -0.932634 0.000000 -1.483530 0.000000 0.000000
    16 0.763063 -2.490556 -0.278957 -0.347773 0.030405 0.214564
    17 -0.012322 -1.280917 0.000000 -0.773156 0.000000 0.000000
    18 -0.001697 -0.749371 -0.000001 -0.970103 0.000000 0.000000
    19 0.354567 0.016267 0.318133 0.342077 -0.443527 -1.083976
    20 1.887164 0.012877 0.000000 -0.305433 0.000000 -0.401426
    21 1.001874 -0.000270 -0.000001 0.000000 0.000000 -0.488692
    22 -1.123358 -2.195093 -0.278957 -0.933751 0.000000 -0.087266
    23 0.010772 -0.963791 0.000000 -0.610865 0.000000 0.000000
    24 -0.010412 -0.631916 0.000000 -1.213004 0.000000 0.000000
    25 -0.581561 -0.243909 -8.654854 -0.439954 0.111524 0.550617
    26 0.089930 -8.543163 -0.000001 0.147934 -0.086979 0.347472
    27 0.000000 -0.359712 0.000000 0.000000 0.000000 0.000000
    28 -0.170479 -2.636146 -0.277655 -0.820355 0.000000 0.000000
    29 0.010599 -1.261176 0.000002 -0.584675 0.000000 0.000000
    30 -0.000001 -0.943232 -0.000001 -0.532326 0.000000 0.000000
    31 -0.827563 -2.508973 -0.277656 -0.942512 0.000000 0.000000
    32 0.000000 -1.292971 0.000000 -0.287979 0.000000 0.000000
    33 0.000000 -0.752466 0.000000 -0.445059 0.000000 0.000000
    34 0.444213 -2.561960 -0.277655 -1.081559 -0.046226 -0.024599
    35 0.021022 -1.208186 0.000000 -0.427606 0.000000 0.000000
    36 0.010597 -0.741867 -0.000001 -0.453786 0.000000 0.000000
    37 1.047444 -2.222821 -0.277655 -1.019673 -0.066950 -0.041090
    38 0.000000 -0.996223 -0.000002 -0.584707 0.000000 0.000000
    39 -0.000001 -0.614690 0.000000 -0.523599 0.000000 0.000000
    40 -0.308254 -0.007814 0.307166 -0.318048 -0.539817 -2.424633
    41 1.978377 0.019543 0.000001 -0.000002 -0.000010 0.549776
    42 0.982426 0.003186 0.000000 0.000000 0.000000 0.593405
  time 8
    0 6.649211 3.162565 -6.115328 5.193173 -1.195465 -5.385667
    1 -0.001604 -8.561233 -0.002570 0.384151 -0.033064 -0.122675
    2 -0.365922 -3.554516 0.712018 -1.186454 1.434443 -1.173803
    3 0.000000 2.617617 0.665016 0.000000 0.000000 0.000000
    4 -0.000001 -0.030415 2.278034 0.000000 0.000000 0.000000
    5 -0.000001 -1.796958 1.330032 0.000000 0.000000 0.000000
    6 -0.000002 -2.886455 1.471525 -0.008941 0.000000 0.000000
    7 0.000000 -0.778212 1.774024 -0.763894 0.000000 0.000000
    8 -0.000001 -1.598867 0.580120 0.000000 0.000000 0.000000
    9 -0.003480 -0.404829 0.000000 0.000000 0.000000 0.000000
    10 -0.519309 -2.501155 -0.278957 -1.003564 0.000000 -0.122173
    11 -0.010598 -1.208185 -0.000001 -1.090831 0.000000 0.000000
    12 0.000000 -0.763066 0.000000 -1.343903 0.000000 0.000000
    13 0.105981 -2.607133 -0.278957 -0.890118 0.000000 -0.148353
    14 0.000000 -1.250578 -0.000001 -1.213004 0.000000 0.000000
    15 0.000000 -0.932634 0.000000 -1.483530 0.000000 0.000000
    16 0.763063 -2.490556 -0.278957 -0.347773 0.030405 0.214564
    17 -0.012322 -1.280917 0.000000 -0.750946 0.000000 0.000000
    18 -0.001697 -0.749371 -0.000001 -0.909294 0.000000 0.000000
    19 0.354567 0.016267 0.318133 0.342077 -0.443527 -1.083976
    20 1.887164 0.012877 0.000000 -0.305433 0.000000 -0.401426
    21 1.001874 -0.000270 -0.000001 0.000000 0.000000 -0.488692
    22 -1.123358 -2.195093 -0.278957 -0.933751 0.000000 -0.087266
    23 0.010772 -0.963791 0.000000 -0.610865 0.000000 0.000000
    24 -0.010412 -0.631916 0.000000 -1.213004 0.000000 0.000000
    25 -0.655782 0.021724 -8.686105 -0.416886 0.103254 0.550696
    26 0.089930 -8.543163 -0.000001 0.210299 -0.110388 0.319583
    27 0.000000 -0.359712 0.000000 0.000000 0.000000 0.000000
    28 -0.170479 -2.636146 -0.277655 -0.820355 0.000000 0.000000
    29 0.010599 -1.261176 0.000002 -0.584675 0.000000 0.000000
    30 -0.000001 -0.943232 -0.000001 -0.532326 0.000000 0.000000
    31 -0.827563 -2.508973 -0.277656 -0.942512 0.000000 0.000000
    32 0.000000 -1.292971 0.000000 -0.287979 0.000000 0.000000
    33 0.000000 -0.752466 0.000000 -0.445059 0.000000 0.000000
    34 0.444213 -2.561960 -0.277655 -1.081559 -0.046226 -0.024599
    35 0.021022 -1.208186 0.000000 -0.427606 0.000000 0.000000
    36 0.010597 -0.741867 -0.000001 -0.453786 0.000000 0.000000
    37 1.047444 -2.222821 -0.277655 -1.019673 -0.066950 -0.041090
    38 0.000000 -0.996223 -0.000002 -0.584707 0.000000 0.000000
    39 -0.000001 -0.614690 0.000000 -0.523599 0.000000 0.000000
    40 -0.308254 -0.007814 0.307166 -0.318048 -0.539817 -2.424633
    41 1.978377 0.019543 0.000001 -0.000002 -0.000010 0.549776
    42 0.982426 0.003186 0.000000 0.000000 0.000000 0.593405
  time 9
    0 6.645304 3.084437 -6.201269 5.213134 -1.209835 -5.407023
    1 -0.001604 -8.561233 -0.002570 0.384013 -0.031303 -0.153905
    2 -0.365922 -3.554516 0.712018 -1.186454 1.434443 -1.173803
    3 0.000000 2.617617 0.665016 0.000000 0.000000 0.000000
    4 -0.000001 -0.030415 2.278034 0.000000 0.000000 0.000000
    5 -0.000001 -1.796958 1.330032 0.000000 0.000000 0.000000
    6 -0.000002 -2.886455 1.471525 -0.015580 0.000000 0.000000
    7 0.000000 -0.778212 1.774024 -0.767675 0.000000 0.000000
    8 -0.000001 -1.598867 0.580120 0.000000 0.000000 0.000000
    9 -0.003480 -0.404829 0.000000 0.000000 0.000000 0.000000
    10 -0.519309 -2.501155 -0.278957 -1.003564 0.000000 -0.122173
    11 -0.010598 -1.208185 -0.000001 -1.090831 0.000000 0.000000
    12 0.000000 -0.763066 0.000000 -1.343903 0.000000 0.000000
    13 0.105981 -2.607133 -0.278957 -0.890118 0.000000 -0.148353
    14 0.000000 -1.250578 -0.000001 -1.213004 0.000000 0.000000
    15 0.000000 -0.932634 0.000000 -1.483530 0.000000 0.000000
    16 0.763063 -2.490556 -0.278957 -0.347773 0.030405 0.214564
    17 -0.012322 -1.280917 0.000000 -0.734431 0.000000 0.000000
    18 -0.001697 -0.749371 -0.000001 -0.876155 0.000000 0.000000
    19 0.354567 0.016267 0.318133 0.342077 -0.443527 -1.083976
    20 1.887164 0.012877 0.000000 -0.305433 0.000000 -0.401426
    21 1.001874 -0.000270 -0.000001 0.000000 0.000000 -0.488692
    22 -1.123358 -2.195093 -0.278957 -0.933751 0.000000 -0.087266
    23 0.010772 -0.963791 0.000000 -0.610865 0.000000 0.000000
    24 -0.010412 -0.631916 0.000000 -1.213004 0.000000 0.000000
    25 -0.593281 0.084226 -8.826735 -0.396688 0.093286 0.545344
    26 0.089930 -8.543163 -0.000001 0.247833 -0.119499 0.299250
    27 0.000000 -0.359712 0.000000 0.000000 0.000000 0.000000
    28 -0.170479 -2.636146 -0.277655 -0.820355 0.000000 0.000000
    29 0.010599 -1.261176 0.000002 -0.584675 0.000000 0.000000
    30 -0.000001 -0.943232 -0.000001 -0.532326 0.000000 0.000000
    31 -0.827563 -2.508973 -0.277656 -0.942512 0.000000 0.000000
    32 0.000000 -1.292971 0.000000 -0.287979 0.000000 0.000000
    33 0.000000 -0.752466 0.000000 -0.445059 0.000000 0.000000
    34 0.444213 -2.561960 -0.277655 -1.081559 -0.046226 -0.024599
    35 0.021022 -1.208186 0.000000 -0.427606 0.000000 0.000000
    36 0.010597 -0.741867 -0.000001 -0.453786 0.000000 0.000000
    37 1.047444 -2.222821 -0.277655 -1.019673 -0.066950 -0.041090
    38 0.000000 -0.996223 -0.000002 -0.584707 0.000000 0.000000
    39 -0.000001 -0.614690 0.000000 -0.523599 0.000000 0.000000
    40 -0.308254 -0.007814 0.307166 -0.318048 -0.539817 -2.424633
    41 1.978377 0.019543 0.000001 -0.000002 -0.000010 0.549776
    42 0.982426 0.003186 0.000000 0.000000 0.000000 0.593405
  time 10
    0 6.645304 2.986778 -6.302834 5.239537 -1.227027 -5.435093
    1 -0.001604 -8.561233 -0.002570 0.383627 -0.034477 -0.177192
    2 -0.365922 -3.554516 0.712018 -1.186454 1.434443 -1.173803
    3 0.000000 2.617617 0.665016 0.000000 0.000000 0.000000
    4 -0.000001 -0.030415 2.278034 0.000000 0.000000 0.000000
    5 -0.000001 -1.796958 1.330032 0.000000 0.000000 0.000000
    6 -0.000002 -2.886455 1.471525 -0.020146 0.000000 0.000000
    7 0.000000 -0.778212 1.774024 -0.768194 0.000000 0.000000
    8 -0.000001 -1.598867 0.580120 0.000000 0.000000 0.000000
    9 -0.003480 -0.404829 0.000000 0.000000 0.000000 0.000000
    10 -0.519309 -2.501155 -0.278957 -1.003564 0.000000 -0.122173
    11 -0.010598 -1.208185 -0.000001 -1.090831 0.000000 0.000000
    12 0.000000 -0.763066 0.000000 -1.343903 0.000000 0.000000
    13 0.105981 -2.607133 -0.278957 -0.890118 0.000000 -0.148353
    14 0.000000 -1.250578 -0.000001 -1.213004 0.000000 0.000000
    15 0.000000 -0.932634 0.000000 -1.483530 0.000000 0.000000
    16 0.763063 -2.490556 -0.278957 -0.347773 0.030405 0.214564
    17 -0.012322 -1.280917 0.000000 -0.723073 0.000000 0.000000
    18 -0.001697 -0.749371 -0.000001 -0.866636 0.000000 0.000000
    19 0.354567 0.016267 0.318133 0.342077 -0.443527 -1.083976
    20 1.887164 0.012877 0.000000 -0.305433 0.000000 -0.401426
    21 1.001874 -0.000270 -0.000001 0.000000 0.000000 -0.488692
    22 -1.123358 -2.195093 -0.278957 -0.933751 0.000000 -0.087266
    23 0.010772 -0.963791 0.000000 -0.610865 0.000000 0.000000
    24 -0.010412 -0.631916 0.000000 -1.213004 0.000000 0.000000
    25 -0.511247 0.107664 -8.998615 -0.375191 0.082209 0.536528
    26 0.089930 -8.543163 -0.000001 0.279828 -0.121905 0.279426
    27 0.000000 -0.359712 0.000000 0.000000 0.000000 0.000000
    28 -0.170479 -2.636146 -0.277655 -0.820355 0.000000 0.000000
    29 0.010599 -1.261176 0.000002 -0.584675 0.000000 0.000000
    30 -0.000001 -0.943232 -0.000001 -0.532326 0.000000 0.000000
    31 -0.827563 -2.508973 -0.277656 -0.942512 0.000000 0.000000
    32 0.000000 -1.292971 0.000000 -0.287979 0.000000 0.000000
    33 0.000000 -0.752466 0.000000 -0.445059 0.000000 0.000000
    34 0.444213 -2.561960 -0.277655 -1.081559 -0.046226 -0.024599
    35 0.021022 -1.208186 0.000000 -0.427606 0.000000 0.000000
    36 0.010597 -0.741867 -0.000001 -0.453786 0.000000 0.000000
    37 1.047444 -2.222821 -0.277655 -1.019673 -0.066950 -0.041090
    38 0.000000 -0.996223 -0.000002 -0.584707 0.000000 0.000000
    39 -0.000001 -0.614690 0.000000 -0.523599 0.000000 0.000000
    40 -0.308254 -0.007814 0.307166 -0.318048 -0.539817 -2.424633
    41 1.978377 0.019543 0.000001 -0.000002 -0.000010 0.549776
    42 0.982426 0.003186 0.000000 0.000000 0.000000 0.593405
  time 11
    0 6.645304 2.885213 -6.412212 5.272200 -1.245849 -5.469785
    1 -0.001604 -8.561233 -0.002570 0.383088 -0.041304 -0.193967
    2 -0.365922 -3.554516 0.712018 -1.186454 1.434443 -1.173803
    3 0.000000 2.617617 0.665016 0.000000 0.000000 0.000000
    4 -0.000001 -0.030415 2.278034 0.000000 0.000000 0.000000
    5 -0.000001 -1.796958 1.330032 0.000000 0.000000 0.000000
    6 -0.000002 -2.886455 1.471525 -0.022903 0.000000 0.000000
    7 0.000000 -0.778212 1.774024 -0.765889 0.000000 0.000000
    8 -0.000001 -1.598867 0.580120 0.000000 0.000000 0.000000
    9 -0.003480 -0.404829 0.000000 0.000000 0.000000 0.000000
    10 -0.519309 -2.501155 -0.278957 -1.003564 0.000000 -0.122173
    11 -0.010598 -1.208185 -0.000001 -1.090831 0.000000 0.000000
    12 0.000000 -0.763066 0.000000 -1.343903 0.000000 0.000000
    13 0.105981 -2.607133 -0.278957 -0.890118 0.000000 -0.148353
    14 0.000000 -1.250578 -0.000001 -1.213004 0.000000 0.000000
    15 0.000000 -0.932634 0.000000 -1.483530 0.000000 0.000000
    16 0.763063 -2.490556 -0.278957 -0.347773 0.030405 0.214564
    17 -0.012322 -1.280917 0.000000 -0.716239 0.000000 0.000000
    18 -0.001697 -0.749371 -0.000001 -0.859925 0.000000 0.000000
    19 0.354567 0.016267 0.318133 0.342077 -0.443527 -1.083976
    20 1.887164 0.012877 0.000000 -0.305433 0.000000 -0.401426
    21 1.001874 -0.000270 -0.000001 0.000000 0.000000 -0.488692
    22 -1.123358 -2.195093 -0.278957 -0.933751 0.000000 -0.087266
    23 0.010772 -0.963791 0.000000 -0.610865 0.000000 0.000000
    24 -0.010412 -0.631916 0.000000 -1.213004 0.000000 0.000000
    25 -0.464370 0.209229 -9.088461 -0.353693 0.070764 0.525824
    26 0.089930 -8.543163 -0.000001 0.305633 -0.120247 0.261704
    27 0.000000 -0.359712 0.000000 0.000000 0.000000 0.000000
    28 -0.170479 -2.636146 -0.277655 -0.820355 0.000000 0.000000
    29 0.010599 -1.261176 0.000002 -0.584675 0.000000 0.000000
    30 -0.000001 -0.943232 -0.000001 -0.532326 0.000000 0.000000
    31 -0.827563 -2.508973 -0.277656 -0.942512 0.000000 0.000000
    32 0.000000 -1.292971 0.000000 -0.287979 0.000000 0.000000
    33 0.000000 -0.752466 0.000000 -0.445059 0.000000 0.000000
    34 0.444213 -2.561960 -0.277655 -1.081559 -0.046226 -0.024599
    35 0.021022 -1.208186 0.000000 -0.427606 0.000000 0.000000
    36 0.010597 -0.741867 -0.000001 -0.453786 0.000000 0.000000
    37 1.047444 -2.222821 -0.277655 -1.019673 -0.066950 -0.041090
    38 0.000000 -0.996223 -0.000002 -0.584707 0.000000 0.000000
    39 -0.000001 -0.614690 0.000000 -0.523599 0.000000 0.000000
    40 -0.308254 -0.007814 0.307166 -0.318048 -0.539817 -2.424633
    41 1.978377 0.019543 0.000001 -0.000002 -0.000010 0.549776
    42 0.982426 0.003186 0.000000 0.000000 0.000000 0.593405
  time 12
    0 6.645304 2.791460 -6.513778 5.311214 -1.265289 -5.510819
    1 -0.001604 -8.561233 -0.002570 0.382398 -0.050545 -0.205404
    2 -0.365922 -3.554516 0.712018 -1.186454 1.434443 -1.173803
    3 0.000000 2.617617 0.665016 0.000000 0.000000 0.000000
    4 -0.000001 -0.030415 2.278034 0.000000 0.000000 0.000000
    5 -0.000001 -1.796958 1.330032 0.000000 0.000000 0.000000
    6 -0.000002 -2.886455 1.471525 -0.024041 0.000000 0.000000
    7 0.000000 -0.778212 1.774024 -0.761235 0.000000 0.000000
    8 -0.000001 -1.598867 0.580120 0.000000 0.000000 0.000000
    9 -0.003480 -0.404829 0.000000 0.000000 0.000000 0.000000
    10 -0.519309 -2.501155 -0.278957 -1.003564 0.000000 -0.122173
    11 -0.010598 -1.208185 -0.000001 -1.090831 0.000000 0.000000
    12 0.000000 -0.763066 0.000000 -1.343903 0.000000 0.000000
    13 0.105981 -2.607133 -0.278957 -0.890118 0.000000 -0.148353
    14 0.000000 -1.250578 -0.000001 -1.213004 0.000000 0.000000
    15 0.000000 -0.932634 0.000000 -1.483530 0.000000 0.000000
    16 0.763063 -2.490556 -0.278957 -0.347773 0.030405 0.214564
    17 -0.012322 -1.280917 0.000000 -0.713360 0.000000 0.000000
    18 -0.001697 -0.749371 -0.000001 -0.855698 0.000000 0.000000
    19 0.354567 0.016267 0.318133 0.342077 -0.443527 -1.083976
    20 1.887164 0.012877 0.000000 -0.305433 0.000000 -0.401426
    21 1.001874 -0.000270 -0.000001 0.000000 0.000000 -0.488692
    22 -1.123358 -2.195093 -0.278957 -0.933751 0.000000 -0.087266
    23 0.010772 -0.963791 0.000000 -0.610865 0.000000 0.000000
    24 -0.010412 -0.631916 0.000000 -1.213004 0.000000 0.000000
    25 -0.421400 0.314701 -9.182214 -0.333658 0.059466 0.515041
    26 0.089930 -8.543163 -0.000001 0.324743 -0.117233 0.247448
    27 0.000000 -0.359712 0.000000 0.000000 0.000000 0.000000
    28 -0.170479 -2.636146 -0.277655 -0.820355 0.000000 0.000000
    29 0.010599 -1.261176 0.000002 -0.584675 0.000000 0.000000
    30 -0.000001 -0.943232 -0.000001 -0.532326 0.000000 0.000000
    31 -0.827563 -2.508973 -0.277656 -0.942512 0.000000 0.000000
    32 0.000000 -1.292971 0.000000 -0.287979 0.000000 0.000000
    33 0.000000 -0.752466 0.000000 -0.445059 0.000000 0.000000
    34 0.444213 -2.561960 -0.277655 -1.081559 -0.046226 -0.024599
    35 0.021022 -1.208186 0.000000 -0.427606 0.000000 0.000000
    36 0.010597 -0.741867 -0.000001 -0.453786 0.000000 0.000000
    37 1.047444 -2.222821 -0.277655 -1.019673 -0.066950 -0.041090
    38 0.000000 -0.996223 -0.000002 -0.584707 0.000000 0.000000
    39 -0.000001 -0.614690 0.000000 -0.523599 0.000000 0.000000
    40 -0.308254 -0.007814 0.307166 -0.318048 -0.539817 -2.424633
    41 1.978377 0.019543 0.000001 -0.000002 -0.000010 0.549776
    42 0.982426 0.003186 0.000000 0.000000 0.000000 0.593405
  time 13
    0 6.641398 2.709426 -6.599718 5.355854 -1.284331 -5.557447
    1 -0.001604 -8.561233 -0.002570 0.381501 -0.060959 -0.212679
    2 -0.365922 -3.554516 0.712018 -1.186454 1.434443 -1.173803
    3 0.000000 2.617617 0.665016 0.000000 0.000000 0.000000
    4 -0.000001 -0.030415 2.278034 0.000000 0.000000 0.000000
    5 -0.000001 -1.796958 1.330032 0.000000 0.000000 0.000000
    6 -0.000002 -2.886455 1.471525 -0.023849 0.000000 0.000000
    7 0.000000 -0.778212 1.774024 -0.754650 0.000000 0.000000
    8 -0.000001 -1.598867 0.580120 0.000000 0.000000 0.000000
    9 -0.003480 -0.404829 0.000000 0.000000 0.000000 0.000000
    10 -0.519309 -2.501155 -0.278957 -1.003564 0.000000 -0.122173
    11 -0.010598 -1.208185 -0.000001 -1.090831 0.000000 0.000000
    12 0.000000 -0.763066 0.000000 -1.343903 0.000000 0.000000
    13 0.105981 -2.607133 -0.278957 -0.890118 0.000000 -0.148353
    14 0.000000 -1.250578 -0.000001 -1.213004 0.000000 0.000000
    15 0.000000 -0.932634 0.000000 -1.483530 0.000000 0.000000
    16 0.763063 -2.490556 -0.278957 -0.347773 0.030405 0.214564
    17 -0.012322 -1.280917 0.000000 -0.713866 0.000000 0.000000
    18 -0.001697 -0.749371 -0.000001 -0.853599 0.000000 0.000000
    19 0.354567 0.016267 0.318133 0.342077 -0.443527 -1.083976
    20 1.887164 0.012877 0.000000 -0.305433 0.000000 -0.401426
    21 1.001874 -0.000270 -0.000001 0.000000 0.000000 -0.488692
    22 -1.123358 -2.195093 -0.278957 -0.933751 0.000000 -0.087266
    23 0.010772 -0.963791 0.000000 -0.610865 0.000000 0.000000
    24 -0.010412 -0.631916 0.000000 -1.213004 0.000000 0.000000
    25 -0.358898 0.420173 -9.350188 -0.316601 0.048907 0.505911
    26 0.089930 -8.543163 -0.000001 0.336761 -0.115551 0.237922
    27 0.000000 -0.359712 0.000000 0.000000 0.000000 0.000000
    28 -0.170479 -2.636146 -0.277655 -0.820355 0.000000 0.000000
    29 0.010599 -1.261176 0.000002 -0.584675 0.000000 0.000000
    30 -0.000001 -0.943232 -0.000001 -0.532326 0.000000 0.000000
    31 -0.827563 -2.508973 -0.277656 -0.942512 0.000000 0.000000
    32 0.000000 -1.292971 0.000000 -0.287979 0.000000 0.000000
    33 0.000000 -0.752466 0.000000 -0.445059 0.000000 0.000000
    34 0.444213 -2.561960 -0.277655 -1.081559 -0.046226 -0.024599
    35 0.021022 -1.208186 0.000000 -0.427606 0.000000 0.000000
    36 0.010597 -0.741867 -0.000001 -0.453786 0.000000 0.000000
    37 1.047444 -2.222821 -0.277655 -1.019673 -0.066950 -0.041090
    38 0.000000 -0.996223 -0.000002 -0.584707 0.000000 0.000000
    39 -0.000001 -0.614690 0.000000 -0.523599 0.000000 0.000000
    40 -0.308254 -0.007814 0.307166 -0.318048 -0.539817 -2.424633
    41 1.978377 0.019543 0.000001 -0.000002 -0.000010 0.549776
    42 0.982426 0.003186 0.000000 0.000000 0.000000 0.593405
  time 14
    0 6.641398 2.654737 -6.658314 5.405030 -1.302096 -5.608552
    1 -0.001604 -8.561233 -0.002570 0.380314 -0.071287 -0.217095
    2 -0.365922 -3.554516 0.712018 -1.186454 1.434443 -1.173803
    3 0.000000 2.617617 0.665016 0.000000 0.000000 0.000000
    4 -0.000001 -0.030415 2.278034 0.000000 0.000000 0.000000
    5 -0.000001 -1.796958 1.330032 0.000000 0.000000 0.000000
    6 -0.000002 -2.886455 1.471525 -0.022531 0.000000 0.000000
    7 0.000000 -0.778212 1.774024 -0.746591 0.000000 0.000000
    8 -0.000001 -1.598867 0.580120 0.000000 0.000000 0.000000
    9 -0.003480 -0.404829 0.000000 0.000000 0.000000 0.000000
    10 -0.519309 -2.501155 -0.278957 -1.003564 0.000000 -0.122173
    11 -0.010598 -1.208185 -0.000001 -1.090831 0.000000 0.000000
    12 0.000000 -0.763066 0.000000 -1.343903 0.000000 0.000000
    13 0.105981 -2.607133 -0.278957 -0.890118 0.000000 -0.148353
    14 0.000000 -1.250578 -0.000001 -1.213004 0.000000 0.000000
    15 0.000000 -0.932634 0.000000 -1.483530 0.000000 0.000000
    16 0.763063 -2.490556 -0.278957 -0.347773 0.030405 0.214564
    17 -0.012322 -1.280917 0.000000 -0.717125 0.000000 0.000000
    18 -0.001697 -0.749371 -0.000001 -0.853304 0.000000 0.000000
    19 0.354567 0.016267 0.318133 0.342077 -0.443527 -1.083976
    20 1.887164 0.012877 0.000000 -0.305433 0.000000 -0.401426
    21 1.001874 -0.000270 -0.000001 0.000000 0.000000 -0.488692
    22 -1.123358 -2.195093 -0.278957 -0.933751 0.000000 -0.087266
    23 0.010772 -0.963791 0.000000 -0.610865 0.000000 0.000000
    24 -0.010412 -0.631916 0.000000 -1.213004 0.000000 0.000000
    25 -0.296396 0.506113 -9.561132 -0.303984 0.039455 0.500323
    26 0.089930 -8.543163 -0.000001 0.341399 -0.117910 0.234210
    27 0.000000 -0.359712 0.000000 0.000000 0.000000 0.000000
    28 -0.170479 -2.636146 -0.277655 -0.820355 0.000000 0.000000
    29 0.010599 -1.261176 0.000002 -0.584675 0.000000 0.000000
    30 -0.000001 -0.943232 -0.000001 -0.532326 0.000000 0.000000
    31 -0.827563 -2.508973 -0.277656 -0.942512 0.000000 0.000000
    32 0.000000 -1.292971 0.000000 -0.287979 0.000000 0.000000
    33 0.000000 -0.752466 0.000000 -0.445059 0.000000 0.000000
    34 0.444213 -2.561960 -0.277655 -1.081559 -0.046226 -0.024599
    35 0.021022 -1.208186 0.000000 -0.427606 0.000000 0.000000
    36 0.010597 -0.741867 -0.000001 -0.453786 0.000000 0.000000
    37 1.047444 -2.222821 -0.277655 -1.019673 -0.066950 -0.041090
    38 0.000000 -0.996223 -0.000002 -0.584707 0.000000 0.000000
    39 -0.000001 -0.614690 0.000000 -0.523599 0.000000 0.000000
    40 -0.308254 -0.007814 0.307166 -0.318048 -0.539817 -2.424633
    41 1.978377 0.019543 0.000001 -0.000002 -0.000010 0.549776
    42 0.982426 0.003186 0.000000 0.000000 0.000000 0.593405
  time 15
    0 6.641398 2.635205 -6.681752 5.456112 -1.317700 -5.661429
    1 -0.001604 -8.561233 -0.002570 0.378755 -0.080244 -0.219923
    2 -0.365922 -3.554516 0.712018 -1.186454 1.434443 -1.173803
    3 0.000000 2.617617 0.665016 0.000000 0.000000 0.000000
    4 -0.000001 -0.030415 2.278034 0.000000 0.000000 0.000000
    5 -0.000001 -1.796958 1.330032 0.000000 0.000000 0.000000
    6 -0.000002 -2.886455 1.471525 -0.020362 0.000000 0.000000
    7 0.000000 -0.778212 1.774024 -0.737492 0.000000 0.000000
    8 -0.000001 -1.598867 0.580120 0.000000 0.000000 0.000000
    9 -0.003480 -0.404829 0.000000 0.000000 0.000000 0.000000
    10 -0.519309 -2.501155 -0.278957 -1.003564 0.000000 -0.122173
    11 -0.010598 -1.208185 -0.000001 -1.090831 0.000000 0.000000
    12 0.000000 -0.763066 0.000000 -1.343903 0.000000 0.000000
    13 0.105981 -2.607133 -0.278957 -0.890118 0.000000 -0.148353
    14 0.000000 -1.250578 -0.000001 -1.213004 0.000000 0.000000
    15 0.000000 -0.932634 0.000000 -1.483530 0.000000 0.000000
    16 0.763063 -2.490556 -0.278957 -0.347773 0.030405 0.214564
    17 -0.012322 -1.280917 0.000000 -0.722567 0.000000 0.000000
    18 -0.001697 -0.749371 -0.000001 -0.854516 0.000000 0.000000
    19 0.354567 0.016267 0.318133 0.342077 -0.443527 -1.083976
    20 1.887164 0.012877 0.000000 -0.305433 0.000000 -0.401426
    21 1.001874 -0.000270 -0.000001 0.000000 0.000000 -0.488692
    22 -1.123358 -2.195093 -0.278957 -0.933751 0.000000 -0.087266
    23 0.010772 -0.963791 0.000000 -0.610865 0.000000 0.000000
    24 -0.010412 -0.631916 0.000000 -1.213004 0.000000 0.000000
    25 -0.288584 0.474862 -9.760357 -0.297432 0.031554 0.500087
    26 0.089930 -8.543163 -0.000001 0.338223 -0.126835 0.237577
    27 0.000000 -0.359712 0.000000 0.000000 0.000000 0.000000
    28 -0.170479 -2.636146 -0.277655 -0.820355 0.000000 0.000000
    29 0.010599 -1.261176 0.000002 -0.584675 0.000000 0.000000
    30 -0.000001 -0.943232 -0.000001 -0.532326 0.000000 0.000000
    31 -0.827563 -2.508973 -0.277656 -0.942512 0.000000 0.000000
    32 0.000000 -1.292971 0.000000 -0.287979 0.000000 0.000000
    33 0.000000 -0.752466 0.000000 -0.445059 0.000000 0.000000
    34 0.444213 -2.561960 -0.277655 -1.081559 -0.046226 -0.024599
    35 0.021022 -1.208186 0.000000 -0.427606 0.000000 0.000000
    36 0.010597 -0.741867 -0.000001 -0.453786 0.000000 0.000000
    37 1.047444 -2.222821 -0.277655 -1.019673 -0.066950 -0.041090
    38 0.000000 -0.996223 -0.000002 -0.584707 0.000000 0.000000
    39 -0.000001 -0.614690 0.000000 -0.523599 0.000000 0.000000
    40 -0.308254 -0.007814 0.307166 -0.318048 -0.539817 -2.424633
    41 1.978377 0.019543 0.000001 -0.000002 -0.000010 0.549776
    42 0.982426 0.003186 0.000000 0.000000 0.000000 0.593405
  time 16
    0 6.633585 2.525827 -6.568467 5.505379 -1.330528 -5.712255
    1 -0.001604 -8.561233 -0.002570 0.376809 -0.086636 -0.222337
    2 -0.365922 -3.554516 0.712018 -1.186454 1.434443 -1.173803
    3 0.000000 2.617617 0.665016 0.000000 0.000000 0.000000
    4 -0.000001 -0.030415 2.278034 0.000000 0.000000 0.000000
    5 -0.000001 -1.796958 1.330032 0.000000 0.000000 0.000000
    6 -0.000002 -2.886455 1.471525 -0.017521 0.000000 0.000000
    7 0.000000 -0.778212 1.774024 -0.727791 0.000000 0.000000
    8 -0.000001 -1.598867 0.580120 0.000000 0.000000 0.000000
    9 -0.003480 -0.404829 0.000000 0.000000 0.000000 0.000000
    10 -0.519309 -2.501155 -0.278957 -1.003564 0.000000 -0.122173
    11 -0.010598 -1.208185 -0.000001 -1.090831 0.000000 0.000000
    12 0.000000 -0.763066 0.000000 -1.343903 0.000000 0.000000
    13 0.105981 -2.607133 -0.278957 -0.890118 0.000000 -0.148353
    14 0.000000 -1.250578 -0.000001 -1.213004 0.000000 0.000000
    15 0.000000 -0.932634 0.000000 -1.483530 0.000000 0.000000
    16 0.763063 -2.490556 -0.278957 -0.347773 0.030405 0.214564
    17 -0.012322 -1.280917 0.000000 -0.729590 0.000000 0.000000
    18 -0.001697 -0.749371 -0.000001 -0.856821 0.000000 0.000000
    19 0.354567 0.016267 0.318133 0.342077 -0.443527 -1.083976
    20 1.887164 0.012877 0.000000 -0.305433 0.000000 -0.401426
    21 1.001874 -0.000270 -0.000001 0.000000 0.000000 -0.488692
    22 -1.123358 -2.195093 -0.278957 -0.933751 0.000000 -0.087266
    23 0.010772 -0.963791 0.000000 -0.610865 0.000000 0.000000
    24 -0.010412 -0.631916 0.000000 -1.213004 0.000000 0.000000
    25 -0.358898 0.267825 -9.951769 -0.297432 0.025204 0.505439
    26 0.089930 -8.543163 -0.000001 0.325663 -0.142090 0.248959
    27 0.000000 -0.359712 0.000000 0.000000 0.000000 0.000000
    28 -0.170479 -2.636146 -0.277655 -0.820355 0.000000 0.000000
    29 0.010599 -1.261176 0.000002 -0.584675 0.000000 0.000000
    30 -0.000001 -0.943232 -0.000001 -0.532326 0.000000 0.000000
    31 -0.827563 -2.508973 -0.277656 -0.942512 0.000000 0.000000
    32 0.000000 -1.292971 0.000000 -0.287979 0.000000 0.000000
    33 0.000000 -0.752466 0.000000 -0.445059 0.000000 0.000000
    34 0.444213 -2.561960 -0.277655 -1.081559 -0.046226 -0.024599
    35 0.021022 -1.208186 0.000000 -0.427606 0.000000 0.000000
    36 0.010597 -0.741867 -0.000001 -0.453786 0.000000 0.000000
    37 1.047444 -2.222821 -0.277655 -1.019673 -0.066950 -0.041090
    38 0.000000 -0.996223 -0.000002 -0.584707 0.000000 0.000000
    39 -0.000001 -0.614690 0.000000 -0.523599 0.000000 0.000000
    40 -0.308254 -0.007814 0.307166 -0.318048 -0.539817 -2.424633
    41 1.978377 0.019543 0.000001 -0.000002 -0.000010 0.549776
    42 0.982426 0.003186 0.000000 0.000000 0.000000 0.593405
  time 17
    0 6.625772 2.428167 -6.470808 5.547569 -1.340093 -5.755713
    1 -0.001604 -8.561233 -0.002570 0.375277 -0.089289 -0.222782
    2 -0.365922 -3.554516 0.712018 -1.186454 1.434443 -1.173803
    3 0.000000 2.617617 0.665016 0.000000 0.000000 0.000000
    4 -0.000001 -0.030415 2.278034 0.000000 0.000000 0.000000
    5 -0.000001 -1.796958 1.330032 0.000000 0.000000 0.000000
    6 -0.000002 -2.886455 1.471525 -0.014310 0.000000 0.000000
    7 0.000000 -0.778212 1.774024 -0.717966 0.000000 0.000000
    8 -0.000001 -1.598867 0.580120 0.000000 0.000000 0.000000
    9 -0.003480 -0.404829 0.000000 0.000000 0.000000 0.000000
    10 -0.519309 -2.501155 -0.278957 -1.003564 0.000000 -0.122173
    11 -0.010598 -1.208185 -0.000001 -1.090831 0.000000 0.000000
    12 0.000000 -0.763066 0.000000 -1.343903 0.000000 0.000000
    13 0.105981 -2.607133 -0.278957 -0.890118 0.000000 -0.148353
    14 0.000000 -1.250578 -0.000001 -1.213004 0.000000 0.000000
    15 0.000000 -0.932634 0.000000 -1.483530 0.000000 0.000000
    16 0.763063 -2.490556 -0.278957 -0.347773 0.030405 0.214564
    17 -0.012322 -1.280917 0.000000 -0.737595 0.000000 0.000000
    18 -0.001697 -0.749371 -0.000001 -0.859925 0.000000 0.000000
    19 0.354567 0.016267 0.318133 0.342077 -0.443527 -1.083976
    20 1.887164 0.012877 0.000000 -0.305433 0.000000 -0.401426
    21 1.001874 -0.000270 -0.000001 0.000000 0.000000 -0.488692
    22 -1.123358 -2.195093 -0.278957 -0.933751 0.000000 -0.087266
    23 0.010772 -0.963791 0.000000 -0.610865 0.000000 0.000000
    24 -0.010412 -0.631916 0.000000 -1.213004 0.000000 0.000000
    25 -0.472183 0.010005 -10.104117 -0.302522 0.019961 0.514569
    26 0.089930 -8.543163 -0.000001 0.303612 -0.161060 0.267617
    27 0.000000 -0.359712 0.000000 0.000000 0.000000 0.000000
    28 -0.170479 -2.636146 -0.277655 -0.820355 0.000000 0.000000
    29 0.010599 -1.261176 0.000002 -0.584675 0.000000 0.000000
    30 -0.000001 -0.943232 -0.000001 -0.532326 0.000000 0.000000
    31 -0.827563 -2.508973 -0.277656 -0.942512 0.000000 0.000000
    32 0.000000 -1.292971 0.000000 -0.287979 0.000000 0.000000
    33 0.000000 -0.752466 0.000000 -0.445059 0.000000 0.000000
    34 0.444213 -2.561960 -0.277655 -1.081559 -0.046226 -0.024599
    35 0.021022 -1.208186 0.000000 -0.427606 0.000000 0.000000
    36 0.010597 -0.741867 -0.000001 -0.453786 0.000000 0.000000
    37 1.047444 -2.222821 -0.277655 -1.019673 -0.066950 -0.041090
    38 0.000000 -0.996223 -0.000002 -0.584707 0.000000 0.000000
    39 -0.000001 -0.614690 0.000000 -0.523599 0.000000 0.000000
    40 -0.308254 -0.007814 0.307166 -0.318048 -0.539817 -2.424633
    41 1.978377 0.019543 0.000001 -0.000002 -0.000010 0.549776
    42 0.982426 0.003186 0.000000 0.000000 0.000000 0.593405
  time 18
    0 6.617960 2.350040 -6.384868 5.568800 -1.344457 -5.777535
    1 -0.001604 -8.561233 -0.002570 0.371868 -0.092833 -0.218779
    2 -0.365922 -3.554516 0.712018 -1.186454 1.434443 -1.173803
    3 0.000000 2.617617 0.665016 0.000000 0.000000 0.000000
    4 -0.000001 -0.030415 2.278034 0.000000 0.000000 0.000000
    5 -0.000001 -1.796958 1.330032 0.000000 0.000000 0.000000
    6 -0.000002 -2.886455 1.471525 -0.010930 0.000000 0.000000
    7 0.000000 -0.778212 1.774024 -0.708411 0.000000 0.000000
    8 -0.000001 -1.598867 0.580120 0.000000 0.000000 0.000000
    9 -0.003480 -0.404829 0.000000 0.000000 0.000000 0.000000
    10 -0.519309 -2.501155 -0.278957 -1.003564 0.000000 -0.122173
    11 -0.010598 -1.208185 -0.000001 -1.090831 0.000000 0.000000
    12 0.000000 -0.763066 0.000000 -1.343903 0.000000 0.000000
    13 0.105981 -2.607133 -0.278957 -0.890118 0.000000 -0.148353
    14 0.000000 -1.250578 -0.000001 -1.213004 0.000000 0.000000
    15 0.000000 -0.932634 0.000000 -1.483530 0.000000 0.000000
    16 0.763063 -2.490556 -0.278957 -0.347773 0.030405 0.214564
    17 -0.012322 -1.280917 0.000000 -0.746010 0.000000 0.000000
    18 -0.001697 -0.749371 -0.000001 -0.863473 0.000000 0.000000
    19 0.354567 0.016267 0.318133 0.342077 -0.443527 -1.083976
    20 1.887164 0.012877 0.000000 -0.305433 0.000000 -0.401426
    21 1.001874 -0.000270 -0.000001 0.000000 0.000000 -0.488692
    22 -1.123358 -2.195093 -0.278957 -0.933751 0.000000 -0.087266
    23 0.010772 -0.963791 0.000000 -0.610865 0.000000 0.000000
    24 -0.010412 -0.631916 0.000000 -1.213004 0.000000 0.000000
    25 -0.601093 -0.189220 -10.174432 -0.311565 0.015531 0.526847
    26 0.089930 -8.543163 -0.000001 0.273855 -0.182365 0.292319
    27 0.000000 -0.359712 0.000000 0.000000 0.000000 0.000000
    28 -0.170479 -2.636146 -0.277655 -0.820355 0.000000 0.000000
    29 0.010599 -1.261176 0.000002 -0.584675 0.000000 0.000000
    30 -0.000001 -0.943232 -0.000001 -0.532326 0.000000 0.000000
    31 -0.827563 -2.508973 -0.277656 -0.942512 0.000000 0.000000
    32 0.000000 -1.292971 0.000000 -0.287979 0.000000 0.000000
    33 0.000000 -0.752466 0.000000 -0.445059 0.000000 0.000000
    34 0.444213 -2.561960 -0.277655 -1.081559 -0.046226 -0.024599
    35 0.021022 -1.208186 0.000000 -0.427606 0.000000 0.000000
    36 0.010597 -0.741867 -0.000001 -0.453786 0.000000 0.000000
    37 1.047444 -2.222821 -0.277655 -1.019673 -0.066950 -0.041090
    38 0.000000 -0.996223 -0.000002 -0.584707 0.000000 0.000000
    39 -0.000001 -0.614690 0.000000 -0.523599 0.000000 0.000000
    40 -0.308254 -0.007814 0.307166 -0.318048 -0.539817 -2.424633
    41 1.978377 0.019543 0.000001 -0.000002 -0.000010 0.549776
    42 0.982426 0.003186 0.000000 0.000000 0.000000 0.593405
  time 19
    0 6.614053 2.283632 -6.318460 5.569798 -1.344633 -5.778467
    1 -0.001604 -8.561233 -0.002570 0.367658 -0.095377 -0.210106
    2 -0.365922 -3.554516 0.712018 -1.186454 1.434443 -1.173803
    3 0.000000 2.617617 0.665016 0.000000 0.000000 0.000000
    4 -0.000001 -0.030415 2.278034 0.000000 0.000000 0.000000
    5 -0.000001 -1.796958 1.330032 0.000000 0.000000 0.000000
    6 -0.000002 -2.886455 1.471525 -0.007622 0.000000 0.000000
    7 0.000000 -0.778212 1.774024 -0.699603 0.000000 0.000000
    8 -0.000001 -1.598867 0.580120 0.000000 0.000000 0.000000
    9 -0.003480 -0.404829 0.000000 0.000000 0.000000 0.000000
    10 -0.519309 -2.501155 -0.278957 -1.003564 0.000000 -0.122173
    11 -0.010598 -1.208185 -0.000001 -1.090831 0.000000 0.000000
    12 0.000000 -0.763066 0.000000 -1.343903 0.000000 0.000000
    13 0.105981 -2.607133 -0.278957 -0.890118 0.000000 -0.148353
    14 0.000000 -1.250578 -0.000001 -1.213004 0.000000 0.000000
    15 0.000000 -0.932634 0.000000 -1.483530 0.000000 0.000000
    16 0.763063 -2.490556 -0.278957 -0.347773 0.030405 0.214564
    17 -0.012322 -1.280917 0.000000 -0.754205 0.000000 0.000000
    18 -0.001697 -0.749371 -0.000001 -0.867139 0.000000 0.000000
    19 0.354567 0.016267 0.318133 0.342077 -0.443527 -1.083976
    20 1.887164 0.012877 0.000000 -0.305433 0.000000 -0.401426
    21 1.001874 -0.000270 -0.000001 0.000000 0.000000 -0.488692
    22 -1.123358 -2.195093 -0.278957 -0.933751 0.000000 -0.087266
    23 0.010772 -0.963791 0.000000 -0.610865 0.000000 0.000000
    24 -0.010412 -0.631916 0.000000 -1.213004 0.000000 0.000000
    25 -0.733910 -0.361101 -10.213496 -0.323424 0.011839 0.541172
    26 0.089930 -8.543163 -0.000001 0.238287 -0.204723 0.321784
    27 0.000000 -0.359712 0.000000 0.000000 0.000000 0.000000
    28 -0.170479 -2.636146 -0.277655 -0.820355 0.000000 0.000000
    29 0.010599 -1.261176 0.000002 -0.584675 0.000000 0.000000
    30 -0.000001 -0.943232 -0.000001 -0.532326 0.000000 0.000000
    31 -0.827563 -2.508973 -0.277656 -0.942512 0.000000 0.000000
    32 0.000000 -1.292971 0.000000 -0.287979 0.000000 0.000000
    33 0.000000 -0.752466 0.000000 -0.445059 0.000000 0.000000
    34 0.444213 -2.561960 -0.277655 -1.081559 -0.046226 -0.024599
    35 0.021022 -1.208186 0.000000 -0.427606 0.000000 0.000000
    36 0.010597 -0.741867 -0.000001 -0.453786 0.000000 0.000000
    37 1.047444 -2.222821 -0.277655 -1.019673 -0.066950 -0.041090
    38 0.000000 -0.996223 -0.000002 -0.584707 0.000000 0.000000
    39 -0.000001 -0.614690 0.000000 -0.523599 0.000000 0.000000
    40 -0.308254 -0.007814 0.307166 -0.318048 -0.539817 -2.424633
    41 1.978377 0.019543 0.000001 -0.000002 -0.000010 0.549776
    42 0.982426 0.003186 0.000000 0.000000 0.000000 0.593405
  time 20
    0 6.610147 2.232849 -6.263770 5.557005 -1.342077 -5.765411
    1 -0.001604 -8.561233 -0.002570 0.362952 -0.097247 -0.198414
    2 -0.365922 -3.554516 0.712018 -1.186454 1.434443 -1.173803
    3 0.000000 2.617617 0.665016 0.000000 0.000000 0.000000
    4 -0.000001 -0.030415 2.278034 0.000000 0.000000 0.000000
    5 -0.000001 -1.796958 1.330032 0.000000 0.000000 0.000000
    6 -0.000002 -2.886455 1.471525 -0.004638 0.000000 0.000000
    7 0.000000 -0.778212 1.774024 -0.691979 0.000000 0.000000
    8 -0.000001 -1.598867 0.580120 0.000000 0.000000 0.000000
    9 -0.003480 -0.404829 0.000000 0.000000 0.000000 0.000000
    10 -0.519309 -2.501155 -0.278957 -1.003564 0.000000 -0.122173
    11 -0.010598 -1.208185 -0.000001 -1.090831 0.000000 0.000000
    12 0.000000 -0.763066 0.000000 -1.343903 0.000000 0.000000
    13 0.105981 -2.607133 -0.278957 -0.890118 0.000000 -0.148353
    14 0.000000 -1.250578 -0.000001 -1.213004 0.000000 0.000000
    15 0.000000 -0.932634 0.000000 -1.483530 0.000000 0.000000
    16 0.763063 -2.490556 -0.278957 -0.347773 0.030405 0.214564
    17 -0.012322 -1.280917 0.000000 -0.761608 0.000000 0.000000
    18 -0.001697 -0.749371 -0.000001 -0.870568 0.000000 0.000000
    19 0.354567 0.016267 0.318133 0.342077 -0.443527 -1.083976
    20 1.887164 0.012877 0.000000 -0.305433 0.000000 -0.401426
    21 1.001874 -0.000270 -0.000001 0.000000 0.000000 -0.488692
    22 -1.123358 -2.195093 -0.278957 -0.933751 0.000000 -0.087266
    23 0.010772 -0.963791 0.000000 -0.610865 0.000000 0.000000
    24 -0.010412 -0.631916 0.000000 -1.213004 0.000000 0.000000
    25 -0.823756 -0.478292 -10.268185 -0.336907 0.008737 0.556835
    26 0.089930 -8.543163 -0.000001 0.198858 -0.226963 0.354534
    27 0.000000 -0.359712 0.000000 0.000000 0.000000 0.000000
    28 -0.170479 -2.636146 -0.277655 -0.820355 0.000000 0.000000
    29 0.010599 -1.261176 0.000002 -0.584675 0.000000 0.000000
    30 -0.000001 -0.943232 -0.000001 -0.532326 0.000000 0.000000
    31 -0.827563 -2.508973 -0.277656 -0.942512 0.000000 0.000000
    32 0.000000 -1.292971 0.000000 -0.287979 0.000000 0.000000
    33 0.000000 -0.752466 0.000000 -0.445059 0.000000 0.000000
    34 0.444213 -2.561960 -0.277655 -1.081559 -0.046226 -0.024599
    35 0.021022 -1.208186 0.000000 -0.427606 0.000000 0.000000
    36 0.010597 -0.741867 -0.000001 -0.453786 0.000000 0.000000
    37 1.047444 -2.222821 -0.277655 -1.019673 -0.066950 -0.041090
    38 0.000000 -0.996223 -0.000002 -0.584707 0.000000 0.000000
    39 -0.000001 -0.614690 0.000000 -0.523599 0.000000 0.000000
    40 -0.308254 -0.007814 0.307166 -0.318048 -0.539817 -2.424633
    41 1.978377 0.019543 0.000001 -0.000002 -0.000010 0.549776
    42 0.982426 0.003186 0.000000 0.000000 0.000000 0.593405
  time 21
    0 6.606241 2.193785 -6.224707 5.537951 -1.338021 -5.745827
    1 -0.001604 -8.561233 -0.002570 0.357998 -0.098725 -0.185389
    2 -0.365922 -3.554516 0.712018 -1.186454 1.434443 -1.173803
    3 0.000000 2.617617 0.665016 0.000000 0.000000 0.000000
    4 -0.000001 -0.030415 2.278034 0.000000 0.000000 0.000000
    5 -0.000001 -1.796958 1.330032 0.000000 0.000000 0.000000
    6 -0.000002 -2.886455 1.471525 -0.002205 0.000000 0.000000
    7 0.000000 -0.778212 1.774024 -0.685997 0.000000 0.000000
    8 -0.000001 -1.598867 0.580120 0.000000 0.000000 0.000000
    9 -0.003480 -0.404829 0.000000 0.000000 0.000000 0.000000
    10 -0.519309 -2.501155 -0.278957 -1.003564 0.000000 -0.122173
    11 -0.010598 -1.208185 -0.000001 -1.090831 0.000000 0.000000
    12 0.000000 -0.763066 0.000000 -1.343903 0.000000 0.000000
    13 0.105981 -2.607133 -0.278957 -0.890118 0.000000 -0.148353
    14 0.000000 -1.250578 -0.000001 -1.213004 0.000000 0.000000
    15 0.000000 -0.932634 0.000000 -1.483530 0.000000 0.000000
    16 0.763063 -2.490556 -0.278957 -0.347773 0.030405 0.214564
    17 -0.012322 -1.280917 0.000000 -0.767651 0.000000 0.000000
    18 -0.001697 -0.749371 -0.000001 -0.873435 0.000000 0.000000
    19 0.354567 0.016267 0.318133 0.342077 -0.443527 -1.083976
    20 1.887164 0.012877 0.000000 -0.305433 0.000000 -0.401426
    21 1.001874 -0.000270 -0.000001 0.000000 0.000000 -0.488692
    22 -1.123358 -2.195093 -0.278957 -0.933751 0.000000 -0.087266
    23 0.010772 -0.963791 0.000000 -0.610865 0.000000 0.000000
    24 -0.010412 -0.631916 0.000000 -1.213004 0.000000 0.000000
    25 -0.909696 -0.587670 -10.307249 -0.350823 0.005931 0.572734
    26 0.089930 -8.543163 -0.000001 0.157732 -0.248105 0.388943
    27 0.000000 -0.359712 0.000000 0.000000 0.000000 0.000000
    28 -0.170479 -2.636146 -0.277655 -0.820355 0.000000 0.000000
    29 0.010599 -1.261176 0.000002 -0.584675 0.000000 0.000000
    30 -0.000001 -0.943232 -0.000001 -0.532326 0.000000 0.000000
    31 -0.827563 -2.508973 -0.277656 -0.942512 0.000000 0.000000
    32 0.000000 -1.292971 0.000000 -0.287979 0.000000 0.000000
    33 0.000000 -0.752466 0.000000 -0.445059 0.000000 0.000000
    34 0.444213 -2.561960 -0.277655 -1.081559 -0.046226 -0.024599
    35 0.021022 -1.208186 0.000000 -0.427606 0.000000 0.000000
    36 0.010597 -0.741867 -0.000001 -0.453786 0.000000 0.000000
    37 1.047444 -2.222821 -0.277655 -1.019673 -0.066950 -0.041090
    38 0.000000 -0.996223 -0.000002 -0.584707 0.000000 0.000000
    39 -0.000001 -0.614690 0.000000 -0.523599 0.000000 0.000000
    40 -0.308254 -0.007814 0.307166 -0.318048 -0.539817 -2.424633
    41 1.978377 0.019543 0.000001 -0.000002 -0.000010 0.549776
    42 0.982426 0.003186 0.000000 0.000000 0.000000 0.593405
  time 22
    0 6.606241 2.174253 -6.201269 5.519533 -1.333878 -5.726896
    1 -0.001604 -8.561233 -0.002570 0.353071 -0.100247 -0.172681
    2 -0.365922 -3.554516 0.712018 -1.186454 1.434443 -1.173803
    3 0.000000 2.617617 0.665016 0.000000 0.000000 0.000000
    4 -0.000001 -0.030415 2.278034 0.000000 0.000000 0.000000
    5 -0.000001 -1.796958 1.330032 0.000000 0.000000 0.000000
    6 -0.000002 -2.886455 1.471525 -0.000575 0.000000 0.000000
    7 0.000000 -0.778212 1.774024 -0.682071 0.000000 0.000000
    8 -0.000001 -1.598867 0.580120 0.000000 0.000000 0.000000
    9 -0.003480 -0.404829 0.000000 0.000000 0.000000 0.000000
    10 -0.519309 -2.501155 -0.278957 -1.003564 0.000000 -0.122173
    11 -0.010598 -1.208185 -0.000001 -1.090831 0.000000 0.000000
    12 0.000000 -0.763066 0.000000 -1.343903 0.000000 0.000000
    13 0.105981 -2.607133 -0.278957 -0.890118 0.000000 -0.148353
    14 0.000000 -1.250578 -0.000001 -1.213004 0.000000 0.000000
    15 0.000000 -0.932634 0.000000 -1.483530 0.000000 0.000000
    16 0.763063 -2.490556 -0.278957 -0.347773 0.030405 0.214564
    17 -0.012322 -1.280917 0.000000 -0.771701 0.000000 0.000000
    18 -0.001697 -0.749371 -0.000001 -0.875416 0.000000 0.000000
    19 0.354567 0.016267 0.318133 0.342077 -0.443527 -1.083976
    20 1.887164 0.012877 0.000000 -0.305433 0.000000 -0.401426
    21 1.001874 -0.000270 -0.000001 0.000000 0.000000 -0.488692
    22 -1.123358 -2.195093 -0.278957 -0.933751 0.000000 -0.087266
    23 0.010772 -0.963791 0.000000 -0.610865 0.000000 0.000000
    24 -0.010412 -0.631916 0.000000 -1.213004 0.000000 0.000000
    25 -1.019075 -0.720487 -10.299436 -0.364036 0.003125 0.588081
    26 0.089930 -8.543163 -0.000001 0.117202 -0.267472 0.423155
    27 0.000000 -0.359712 0.000000 0.000000 0.000000 0.000000
    28 -0.170479 -2.636146 -0.277655 -0.820355 0.000000 0.000000
    29 0.010599 -1.261176 0.000002 -0.584675 0.000000 0.000000
    30 -0.000001 -0.943232 -0.000001 -0.532326 0.000000 0.000000
    31 -0.827563 -2.508973 -0.277656 -0.942512 0.000000 0.000000
    32 0.000000 -1.292971 0.000000 -0.287979 0.000000 0.000000
    33 0.000000 -0.752466 0.000000 -0.445059 0.000000 0.000000
    34 0.444213 -2.561960 -0.277655 -1.081559 -0.046226 -0.024599
    35 0.021022 -1.208186 0.000000 -0.427606 0.000000 0.000000
    36 0.010597 -0.741867 -0.000001 -0.453786 0.000000 0.000000
    37 1.047444 -2.222821 -0.277655 -1.019673 -0.066950 -0.041090
    38 0.000000 -0.996223 -0.000002 -0.584707 0.000000 0.000000
    39 -0.000001 -0.614690 0.000000 -0.523599 0.000000 0.000000
    40 -0.308254 -0.007814 0.307166 -0.318048 -0.539817 -2.424633
    41 1.978377 0.019543 0.000001 -0.000002 -0.000010 0.549776
    42 0.982426 0.003186 0.000000 0.000000 0.000000 0.593405
  time 23
    0 6.606241 2.166441 -6.193456 5.508010 -1.331189 -5.714959
    1 -0.001604 -8.561233 -0.002570 0.348461 -0.102139 -0.161974
    2 -0.365922 -3.554516 0.712018 -1.186454 1.434443 -1.173803
    3 0.000000 2.617617 0.665016 0.000000 0.000000 0.000000
    4 -0.000001 -0.030415 2.278034 0.000000 0.000000 0.000000
    5 -0.000001 -1.796958 1.330032 0.000000 0.000000 0.000000
    6 -0.000002 -2.886455 1.471525 0.000000 0.000000 0.000000
    7 0.000000 -0.778212 1.774024 -0.680679 0.000000 0.000000
    8 -0.000001 -1.598867 0.580120 0.000000 0.000000 0.000000
    9 -0.003480 -0.404829 0.000000 0.000000 0.000000 0.000000
    10 -0.519309 -2.501155 -0.278957 -1.003564 0.000000 -0.122173
    11 -0.010598 -1.208185 -0.000001 -1.090831 0.000000 0.000000
    12 0.000000 -0.763066 0.000000 -1.343903 0.000000 0.000000
    13 0.105981 -2.607133 -0.278957 -0.890118 0.000000 -0.148353
    14 0.000000 -1.250578 -0.000001 -1.213004 0.000000 0.000000
    15 0.000000 -0.932634 0.000000 -1.483530 0.000000 0.000000
    16 0.763063 -2.490556 -0.278957 -0.347773 0.030405 0.214564
    17 -0.012322 -1.280917 0.000000 -0.773156 0.000000 0.000000
    18 -0.001697 -0.749371 -0.000001 -0.876155 0.000000 0.000000
    19 0.354567 0.016267 0.318133 0.342077 -0.443527 -1.083976
    20 1.887164 0.012877 0.000000 -0.305433 0.000000 -0.401426
    21 1.001874 -0.000270 -0.000001 0.000000 0.000000 -0.488692
    22 -1.123358 -2.195093 -0.278957 -0.933751 0.000000 -0.087266
    23 0.010772 -0.963791 0.000000 -0.610865 0.000000 0.000000
    24 -0.010412 -0.631916 0.000000 -1.213004 0.000000 0.000000
    25 -1.144079 -0.861116 -10.260372 -0.375299 0.000024 0.602091
    26 0.089930 -8.543163 -0.000001 0.079776 -0.284690 0.455199
    27 0.000000 -0.359712 0.000000 0.000000 0.000000 0.000000
    28 -0.170479 -2.636146 -0.277655 -0.820355 0.000000 0.000000
    29 0.010599 -1.261176 0.000002 -0.584675 0.000000 0.000000
    30 -0.000001 -0.943232 -0.000001 -0.532326 0.000000 0.000000
    31 -0.827563 -2.508973 -0.277656 -0.942512 0.000000 0.000000
    32 0.000000 -1.292971 0.000000 -0.287979 0.000000 0.000000
    33 0.000000 -0.752466 0.000000 -0.445059 0.000000 0.000000
    34 0.444213 -2.561960 -0.277655 -1.081559 -0.046226 -0.024599
    35 0.021022 -1.208186 0.000000 -0.427606 0.000000 0.000000
    36 0.010597 -0.741867 -0.000001 -0.453786 0.000000 0.000000
    37 1.047444 -2.222821 -0.277655 -1.019673 -0.066950 -0.041090
    38 0.000000 -0.996223 -0.000002 -0.584707 0.000000 0.000000
    39 -0.000001 -0.614690 0.000000 -0.523599 0.000000 0.000000
    40 -0.308254 -0.007814 0.307166 -0.318048 -0.539817 -2.424633
    41 1.978377 0.019543 0.000001 -0.000002 -0.000010 0.549776
    42 0.982426 0.003186 0.000000 0.000000 0.000000 0.593405
end
