version 1
nodes
  0 "Bip01 L Forearm" -1
  1 "Bip01 L Hand" 0
  2 "Bone_SVD" 1
  3 "Bone_Magazine" 2
  4 "Bone_Trigger" 2
  5 "Bone_Magazin_lock" 2
  6 "Bone_Bullet_Cover" 2
  7 "Bip01 L Finger0" 1
  8 "Bip01 L Finger01" 7
  9 "Bip01 L Finger02" 8
  10 "Bip01 L Finger1" 1
  11 "Bip01 L Finger11" 10
  12 "Bip01 L Finger12" 11
  13 "Bip01 L Finger2" 1
  14 "Bip01 L Finger21" 13
  15 "Bip01 L Finger22" 14
  16 "Bip01 L Finger3" 1
  17 "Bip01 L Finger31" 16
  18 "Bip01 L Finger32" 17
  19 "Bip01 L Finger4" 1
  20 "Bip01 L Finger41" 19
  21 "Bip01 L Finger42" 20
  22 "Bone_Se_Hand-L" 1
  23 "Bip01 R Forearm" -1
  24 "Bip01 R Hand" 23
  25 "Bip01 R Finger0" 24
  26 "Bip01 R Finger01" 25
  27 "Bip01 R Finger02" 26
  28 "Bip01 R Finger1" 24
  29 "Bip01 R Finger11" 28
  30 "Bip01 R Finger12" 29
  31 "Bip01 R Finger2" 24
  32 "Bip01 R Finger21" 31
  33 "Bip01 R Finger22" 32
  34 "Bip01 R Finger3" 24
  35 "Bip01 R Finger31" 34
  36 "Bip01 R Finger32" 35
  37 "Bip01 R Finger4" 24
  38 "Bip01 R Finger41" 37
  39 "Bip01 R Finger42" 38
  40 "Bone_Se_Hand-R" 24
  41 "Bip01 R ForeTwist2" 23
  42 "Bip01 L ForeTwist2" 0
end
skeleton
  time 0
    0 9.397854 3.011077 -6.952394 -0.876971 -0.061929 -1.769418
    1 8.499673 0.000000 0.000001 -2.065658 -0.016681 0.065445
    2 2.583087 1.081417 -0.651698 0.040001 -2.948736 1.420438
    3 0.135562 -7.366853 -1.959884 0.000000 0.000000 0.000000
    4 0.129978 -2.529269 0.982506 0.000000 0.000000 0.000000
    5 0.129979 -5.367178 0.150502 0.000000 0.000000 0.000000
    6 0.154151 -9.476041 2.728579 0.000000 0.000000 0.000000
    7 1.066141 0.161471 -0.665474 2.484768 0.749569 0.986721
    8 1.535968 0.000000 0.000001 0.000000 0.000000 1.180468
    9 1.100830 0.000000 0.000000 0.000000 0.000000 0.433641
    10 2.725986 -0.106123 -1.020465 -0.070759 -0.016944 0.009840
    11 1.397575 0.000000 0.000001 0.000000 0.000000 0.109620
    12 0.957878 0.000000 0.000000 0.000000 0.000000 0.467900
    13 2.818702 -0.176451 -0.444443 -0.196584 -0.091181 0.608085
    14 1.684282 0.000001 0.000000 0.000000 0.000000 1.801003
    15 1.151940 0.000001 0.000001 0.000000 0.000000 0.674933
    16 2.804605 -0.069564 0.290473 -0.290281 -0.058740 0.816215
    17 1.480629 0.000000 0.000001 0.000000 0.000000 1.638044
    18 1.076366 0.000000 0.000000 0.000000 0.000000 0.282362
    19 2.637186 0.041571 0.929335 -0.425480 -0.043732 0.918245
    20 1.124349 -0.000002 0.000000 0.000000 0.000000 1.285653
    21 0.891246 0.000001 0.000000 0.000000 0.000000 0.517941
    22 0.050303 -0.068010 -0.113034 1.724535 0.010837 0.011384
    23 1.374889 -11.493322 -9.618893 -0.940233 -0.512008 -1.018892
    24 8.499673 0.000000 0.000000 2.453079 0.093291 0.380622
    25 1.066140 0.161471 0.665475 -2.108182 -0.870612 0.775003
    26 1.535969 -0.000001 0.000000 0.000000 0.000000 0.464706
    27 1.100830 -0.000001 0.000000 0.000000 0.000000 0.106605
    28 2.725984 -0.106124 1.020465 -0.028777 -0.040080 0.332488
    29 1.397575 0.000000 0.000000 0.000000 0.000000 0.980836
    30 0.957878 -0.000001 0.000000 0.000000 0.000000 0.540970
    31 2.818702 -0.176451 0.444443 0.131172 0.123909 0.728258
    32 1.684281 -0.000001 -0.000001 0.000000 0.000000 1.188515
    33 1.151941 0.000000 0.000000 0.000000 0.000000 0.796489
    34 2.804605 -0.069564 -0.290472 0.214421 0.097086 1.019147
    35 1.480629 0.000000 -0.000001 0.000000 0.000000 0.970924
    36 1.076367 0.000001 0.000000 0.000000 0.000000 0.605248
    37 2.637185 0.041571 -0.929336 0.344038 0.232357 0.972581
    38 1.124349 -0.000001 -0.000001 0.000000 0.000000 1.636904
    39 0.891245 0.000000 0.000001 0.000000 0.000000 1.427902
    40 0.069162 -0.160878 0.118059 -1.341379 2.899243 0.231186
    41 2.428478 0.000000 0.000000 0.335553 0.000000 0.000000
    42 2.428478 0.000000 0.000000 -0.185783 0.000000 0.000000
  time 1
    0 9.741615 4.811913 -8.026646 -0.848424 -0.228242 -1.817107
    1 8.499673 0.000000 0.000001 -2.082440 0.015162 0.174756
    2 2.583087 1.081417 -0.651698 0.040001 -2.948736 1.420438
    3 0.135562 -7.366853 -1.959884 0.000000 0.000000 0.000000
    4 0.129978 -2.529269 0.982506 0.847502 0.054638 0.061781
    5 0.129979 -5.367178 0.150502 0.000000 0.000000 0.000000
    6 0.154151 -5.604829 2.728579 0.000000 0.000000 0.000000
    7 1.066141 0.161471 -0.665474 2.484768 0.749569 0.986721
    8 1.535968 0.000000 0.000001 0.000000 0.000000 1.180468
    9 1.100830 0.000000 0.000000 0.000000 0.000000 0.433641
    10 2.725986 -0.106123 -1.020465 -0.200025 -0.073152 0.013324
    11 1.397575 0.000000 0.000001 0.000000 0.000000 0.602960
    12 0.957878 0.000000 0.000000 0.000000 0.000000 1.036572
    13 2.818702 -0.176451 -0.444443 -0.196584 -0.091181 0.608085
    14 1.684282 0.000001 0.000000 0.000000 0.000000 1.801003
    15 1.151940 0.000001 0.000001 0.000000 0.000000 0.674933
    16 2.804605 -0.069564 0.290473 -0.290281 -0.058740 0.816215
    17 1.480629 0.000000 0.000001 0.000000 0.000000 1.638044
    18 1.076366 0.000000 0.000000 0.000000 0.000000 0.282362
    19 2.637186 0.041571 0.929335 -0.425480 -0.043732 0.918245
    20 1.124349 -0.000002 0.000000 0.000000 0.000000 1.285653
    21 0.891246 0.000001 0.000000 0.000000 0.000000 0.517941
    22 0.050303 -0.068010 -0.113034 1.724535 0.010837 0.011384
    23 1.195196 -10.559700 -9.779054 -1.008698 -0.694166 -0.892618
    24 8.499673 0.000000 0.000000 2.470795 0.232468 0.447801
    25 1.066140 0.161471 0.665475 -2.121728 -0.855842 0.792270
    26 1.535969 -0.000001 0.000000 0.000000 0.000000 0.464706
    27 1.100830 -0.000001 0.000000 0.000000 0.000000 0.106605
    28 2.725984 -0.106124 1.020465 -0.028777 -0.040080 0.332488
    29 1.397575 0.000000 0.000000 0.000000 0.000000 0.980836
    30 0.957878 -0.000001 0.000000 0.000000 0.000000 0.540970
    31 2.818702 -0.176451 0.444443 0.131172 0.123909 0.728258
    32 1.684281 -0.000001 -0.000001 0.000000 0.000000 1.188515
    33 1.151941 0.000000 0.000000 0.000000 0.000000 0.796489
    34 2.804605 -0.069564 -0.290472 0.214421 0.097086 1.019147
    35 1.480629 0.000000 -0.000001 0.000000 0.000000 0.970924
    36 1.076367 0.000001 0.000000 0.000000 0.000000 0.605248
    37 2.637185 0.041571 -0.929336 0.344038 0.232357 0.972581
    38 1.124349 -0.000001 -0.000001 0.000000 0.000000 1.636904
    39 0.891245 0.000000 0.000001 0.000000 0.000000 1.427902
    40 0.069162 -0.160878 0.118059 -1.341379 2.899243 0.231186
    41 2.428478 0.000000 0.000000 0.327583 0.000000 0.000000
    42 2.428478 0.000000 0.000000 -0.194547 0.000000 0.000000
  time 2
    0 9.753334 5.796318 -8.288372 -0.848304 -0.238861 -1.819944
    1 8.499673 0.000000 0.000001 -2.082972 0.017847 0.180629
    2 2.583087 1.081417 -0.651698 0.040001 -2.948736 1.420438
    3 0.135562 -7.366853 -1.959884 0.000000 0.000000 0.000000
    4 0.129978 -2.529269 0.982506 0.847502 0.054638 0.061781
    5 0.129979 -5.367178 0.150502 0.000000 0.000000 0.000000
    6 0.154151 -5.604829 2.728579 0.000000 0.000000 0.000000
    7 1.066141 0.161471 -0.665474 2.484768 0.749569 0.986721
    8 1.535968 0.000000 0.000001 0.000000 0.000000 1.180468
    9 1.100830 0.000000 0.000000 0.000000 0.000000 0.433641
    10 2.725986 -0.106123 -1.020465 -0.180550 -0.064739 0.012327
    11 1.397575 0.000000 0.000001 0.000000 0.000000 0.384467
    12 0.957878 0.000000 0.000000 0.000000 0.000000 1.202981
    13 2.818702 -0.176451 -0.444443 -0.196584 -0.091181 0.608085
    14 1.684282 0.000001 0.000000 0.000000 0.000000 1.801003
    15 1.151940 0.000001 0.000001 0.000000 0.000000 0.674933
    16 2.804605 -0.069564 0.290473 -0.290281 -0.058740 0.816215
    17 1.480629 0.000000 0.000001 0.000000 0.000000 1.638044
    18 1.076366 0.000000 0.000000 0.000000 0.000000 0.282362
    19 2.637186 0.041571 0.929335 -0.425480 -0.043732 0.918245
    20 1.124349 -0.000002 0.000000 0.000000 0.000000 1.285653
    21 0.891246 0.000001 0.000000 0.000000 0.000000 0.517941
    22 0.050303 -0.068010 -0.113034 1.724535 0.010837 0.011384
    23 0.773308 -9.356538 -9.392323 -1.049280 -0.615212 -0.865252
    24 8.499673 0.000000 0.000000 2.477498 0.196135 0.362268
    25 1.066140 0.161471 0.665475 -2.134962 -0.840561 0.809255
    26 1.535969 -0.000001 0.000000 0.000000 0.000000 0.464706
    27 1.100830 -0.000001 0.000000 0.000000 0.000000 0.106605
    28 2.725984 -0.106124 1.020465 -0.028777 -0.040080 0.332488
    29 1.397575 0.000000 0.000000 0.000000 0.000000 0.980836
    30 0.957878 -0.000001 0.000000 0.000000 0.000000 0.540970
    31 2.818702 -0.176451 0.444443 0.131172 0.123909 0.728258
    32 1.684281 -0.000001 -0.000001 0.000000 0.000000 1.188515
    33 1.151941 0.000000 0.000000 0.000000 0.000000 0.796489
    34 2.804605 -0.069564 -0.290472 0.214421 0.097086 1.019147
    35 1.480629 0.000000 -0.000001 0.000000 0.000000 0.970924
    36 1.076367 0.000001 0.000000 0.000000 0.000000 0.605248
    37 2.637185 0.041571 -0.929336 0.344038 0.232357 0.972581
    38 1.124349 -0.000001 -0.000001 0.000000 0.000000 1.636904
    39 0.891245 0.000000 0.000001 0.000000 0.000000 1.427902
    40 0.069162 -0.160878 0.118059 -1.341379 2.899243 0.231186
    41 2.428478 0.000000 0.000000 0.332257 0.000000 0.000000
    42 2.428478 0.000000 0.000000 -0.194979 0.000000 0.000000
  time 3
    0 9.749428 5.702565 -8.261028 -0.848292 -0.237608 -1.819511
    1 8.499673 0.000000 0.000001 -2.082278 0.018686 0.179335
    2 2.583087 1.081417 -0.651698 0.040001 -2.948736 1.420438
    3 0.135562 -7.366853 -1.959884 0.000000 0.000000 0.000000
    4 0.129978 -2.529269 0.982506 0.847502 0.054638 0.061781
    5 0.129979 -5.367178 0.150502 0.000000 0.000000 0.000000
    6 0.154151 -7.628328 2.728579 0.000000 0.000000 0.000000
    7 1.066141 0.161471 -0.665474 2.484768 0.749569 0.986721
    8 1.535968 0.000000 0.000001 0.000000 0.000000 1.180468
    9 1.100830 0.000000 0.000000 0.000000 0.000000 0.433641
    10 2.725986 -0.106123 -1.020465 -0.140294 -0.047265 0.010809
    11 1.397575 0.000000 0.000001 0.000000 0.000000 0.104652
    12 0.957878 0.000000 0.000000 0.000000 0.000000 1.246412
    13 2.818702 -0.176451 -0.444443 -0.196584 -0.091181 0.608085
    14 1.684282 0.000001 0.000000 0.000000 0.000000 1.801003
    15 1.151940 0.000001 0.000001 0.000000 0.000000 0.674933
    16 2.804605 -0.069564 0.290473 -0.290281 -0.058740 0.816215
    17 1.480629 0.000000 0.000001 0.000000 0.000000 1.638044
    18 1.076366 0.000000 0.000000 0.000000 0.000000 0.282362
    19 2.637186 0.041571 0.929335 -0.425480 -0.043732 0.918245
    20 1.124349 -0.000002 0.000000 0.000000 0.000000 1.285653
    21 0.891246 0.000001 0.000000 0.000000 0.000000 0.517941
    22 0.050303 -0.068010 -0.113034 1.724535 0.010837 0.011384
    23 0.827998 -9.294036 -9.290758 -1.085067 -0.598314 -0.888395
    24 8.499673 0.000000 0.000000 2.514564 0.150804 0.354382
    25 1.066140 0.161471 0.665475 -2.147412 -0.825322 0.825539
    26 1.535969 -0.000001 0.000000 0.000000 0.000000 0.464706
    27 1.100830 -0.000001 0.000000 0.000000 0.000000 0.106605
    28 2.725984 -0.106124 1.020465 -0.028777 -0.040080 0.332488
    29 1.397575 0.000000 0.000000 0.000000 0.000000 0.980836
    30 0.957878 -0.000001 0.000000 0.000000 0.000000 0.540970
    31 2.818702 -0.176451 0.444443 0.131172 0.123909 0.728258
    32 1.684281 -0.000001 -0.000001 0.000000 0.000000 1.188515
    33 1.151941 0.000000 0.000000 0.000000 0.000000 0.796489
    34 2.804605 -0.069564 -0.290472 0.214421 0.097086 1.019147
    35 1.480629 0.000000 -0.000001 0.000000 0.000000 0.970924
    36 1.076367 0.000001 0.000000 0.000000 0.000000 0.605248
    37 2.637185 0.041571 -0.929336 0.344038 0.232357 0.972581
    38 1.124349 -0.000001 -0.000001 0.000000 0.000000 1.636904
    39 0.891245 0.000000 0.000001 0.000000 0.000000 1.427902
    40 0.069162 -0.160878 0.118059 -1.341379 2.899243 0.231186
    41 2.428478 0.000000 0.000000 0.350126 0.000000 0.000000
    42 2.428478 0.000000 0.000000 -0.194682 0.000000 0.000000
  time 4
    0 9.749428 5.155674 -8.120398 -0.848304 -0.234692 -1.818646
    1 8.499673 0.000000 0.000001 -2.081354 0.019309 0.179083
    2 2.583087 1.081417 -0.651698 0.040001 -2.948736 1.420438
    3 0.135562 -7.366853 -1.959884 0.000000 0.000000 0.000000
    4 0.129978 -2.529269 0.982506 0.423751 0.027313 0.030884
    5 0.129979 -5.367178 0.150502 0.000000 0.000000 0.000000
    6 0.154151 -8.874460 2.728579 0.000000 0.000000 0.000000
    7 1.066141 0.161471 -0.665474 2.484768 0.749569 0.986721
    8 1.535968 0.000000 0.000001 0.000000 0.000000 1.180468
    9 1.100830 0.000000 0.000000 0.000000 0.000000 0.433641
    10 2.725986 -0.106123 -1.020465 -0.099019 -0.029276 0.009980
    11 1.397575 0.000000 0.000001 0.000000 0.000000 0.076196
    12 0.957878 0.000000 0.000000 0.000000 0.000000 0.839301
    13 2.818702 -0.176451 -0.444443 -0.196584 -0.091181 0.608085
    14 1.684282 0.000001 0.000000 0.000000 0.000000 1.801003
    15 1.151940 0.000001 0.000001 0.000000 0.000000 0.674933
    16 2.804605 -0.069564 0.290473 -0.290281 -0.058740 0.816215
    17 1.480629 0.000000 0.000001 0.000000 0.000000 1.638044
    18 1.076366 0.000000 0.000000 0.000000 0.000000 0.282362
    19 2.637186 0.041571 0.929335 -0.425480 -0.043732 0.918245
    20 1.124349 -0.000002 0.000000 0.000000 0.000000 1.285653
    21 0.891246 0.000001 0.000000 0.000000 0.000000 0.517941
    22 0.050303 -0.068010 -0.113034 1.724535 0.010837 0.011384
    23 0.960814 -9.493261 -8.900121 -1.103271 -0.550865 -0.935188
    24 8.499673 0.000000 0.000000 2.539209 0.078235 0.325807
    25 1.066140 0.161471 0.665475 -2.158923 -0.810552 0.840630
    26 1.535969 -0.000001 0.000000 0.000000 0.000000 0.464706
    27 1.100830 -0.000001 0.000000 0.000000 0.000000 0.106605
    28 2.725984 -0.106124 1.020465 -0.028777 -0.040080 0.332488
    29 1.397575 0.000000 0.000000 0.000000 0.000000 0.980836
    30 0.957878 -0.000001 0.000000 0.000000 0.000000 0.540970
    31 2.818702 -0.176451 0.444443 0.131172 0.123909 0.728258
    32 1.684281 -0.000001 -0.000001 0.000000 0.000000 1.188515
    33 1.151941 0.000000 0.000000 0.000000 0.000000 0.796489
    34 2.804605 -0.069564 -0.290472 0.214421 0.097086 1.019147
    35 1.480629 0.000000 -0.000001 0.000000 0.000000 0.970924
    36 1.076367 0.000001 0.000000 0.000000 0.000000 0.605248
    37 2.637185 0.041571 -0.929336 0.344038 0.232357 0.972581
    38 1.124349 -0.000001 -0.000001 0.000000 0.000000 1.636904
    39 0.891245 0.000000 0.000001 0.000000 0.000000 1.427902
    40 0.069162 -0.160878 0.118059 -1.341379 2.899243 0.231186
    41 2.428478 0.000000 0.000000 0.365479 0.000000 0.000000
    42 2.428478 0.000000 0.000000 -0.194330 0.000000 0.000000
  time 5
    0 9.741615 4.811913 -8.026646 -0.848424 -0.228242 -1.817107
    1 8.499673 0.000000 0.000001 -2.080152 0.019800 0.178052
    2 2.583087 1.081417 -0.651698 0.040001 -2.948736 1.420438
    3 0.135562 -7.366853 -1.959884 0.000000 0.000000 0.000000
    4 0.129978 -2.529269 0.982506 0.000000 0.000000 0.000000
    5 0.129979 -5.367178 0.150502 0.000000 0.000000 0.000000
    6 0.154151 -9.476041 2.728579 0.000000 0.000000 0.000000
    7 1.066141 0.161471 -0.665474 2.484768 0.749569 0.986721
    8 1.535968 0.000000 0.000001 0.000000 0.000000 1.180468
    9 1.100830 0.000000 0.000000 0.000000 0.000000 0.433641
    10 2.725986 -0.106123 -1.020465 -0.070759 -0.016944 0.009840
    11 1.397575 0.000000 0.000001 0.000000 0.000000 0.109620
    12 0.957878 0.000000 0.000000 0.000000 0.000000 0.467900
    13 2.818702 -0.176451 -0.444443 -0.196584 -0.091181 0.608085
    14 1.684282 0.000001 0.000000 0.000000 0.000000 1.801003
    15 1.151940 0.000001 0.000001 0.000000 0.000000 0.674933
    16 2.804605 -0.069564 0.290473 -0.290281 -0.058740 0.816215
    17 1.480629 0.000000 0.000001 0.000000 0.000000 1.638044
    18 1.076366 0.000000 0.000000 0.000000 0.000000 0.282362
    19 2.637186 0.041571 0.929335 -0.425480 -0.043732 0.918245
    20 1.124349 -0.000002 0.000000 0.000000 0.000000 1.285653
    21 0.891246 0.000001 0.000000 0.000000 0.000000 0.517941
    22 0.050303 -0.068010 -0.113034 1.724535 0.010837 0.011384
    23 0.839717 -9.567482 -8.380574 -1.119700 -0.473915 -0.946084
    24 8.499673 0.000000 0.000000 2.553094 0.027966 0.256046
    25 1.066140 0.161471 0.665475 -2.169102 -0.796764 0.854176
    26 1.535969 -0.000001 0.000000 0.000000 0.000000 0.464706
    27 1.100830 -0.000001 0.000000 0.000000 0.000000 0.106605
    28 2.725984 -0.106124 1.020465 -0.028777 -0.040080 0.332488
    29 1.397575 0.000000 0.000000 0.000000 0.000000 0.980836
    30 0.957878 -0.000001 0.000000 0.000000 0.000000 0.540970
    31 2.818702 -0.176451 0.444443 0.131172 0.123909 0.728258
    32 1.684281 -0.000001 -0.000001 0.000000 0.000000 1.188515
    33 1.151941 0.000000 0.000000 0.000000 0.000000 0.796489
    34 2.804605 -0.069564 -0.290472 0.214421 0.097086 1.019147
    35 1.480629 0.000000 -0.000001 0.000000 0.000000 0.970924
    36 1.076367 0.000001 0.000000 0.000000 0.000000 0.605248
    37 2.637185 0.041571 -0.929336 0.344038 0.232357 0.972581
    38 1.124349 -0.000001 -0.000001 0.000000 0.000000 1.636904
    39 0.891245 0.000000 0.000001 0.000000 0.000000 1.427902
    40 0.069162 -0.160878 0.118059 -1.341379 2.899243 0.231186
    41 2.428478 0.000000 0.000000 0.372130 0.000000 0.000000
    42 2.428478 0.000000 0.000000 -0.193843 0.000000 0.000000
  time 6
    0 9.737708 4.765037 -8.003207 -0.848687 -0.221546 -1.815906
    1 8.499673 0.000000 0.000001 -2.078996 0.021094 0.178028
    2 2.583087 1.081417 -0.651698 0.040001 -2.948736 1.420438
    3 0.135562 -7.366853 -1.959884 0.000000 0.000000 0.000000
    4 0.129978 -2.529269 0.982506 0.000000 0.000000 0.000000
    5 0.129979 -5.367178 0.150502 0.000000 0.000000 0.000000
    6 0.154151 -9.089310 2.728579 0.000000 0.046932 0.000000
    7 1.066141 0.161471 -0.665474 2.484768 0.749569 0.986721
    8 1.535968 0.000000 0.000001 0.000000 0.000000 1.180468
    9 1.100830 0.000000 0.000000 0.000000 0.000000 0.433641
    10 2.725986 -0.106123 -1.020465 -0.065773 -0.014775 0.009840
    11 1.397575 0.000000 0.000001 0.000000 0.000000 0.109966
    12 0.957878 0.000000 0.000000 0.000000 0.000000 0.411995
    13 2.818702 -0.176451 -0.444443 -0.196584 -0.091181 0.608085
    14 1.684282 0.000001 0.000000 0.000000 0.000000 1.801003
    15 1.151940 0.000001 0.000001 0.000000 0.000000 0.674933
    16 2.804605 -0.069564 0.290473 -0.290281 -0.058740 0.816215
    17 1.480629 0.000000 0.000001 0.000000 0.000000 1.638044
    18 1.076366 0.000000 0.000000 0.000000 0.000000 0.282362
    19 2.637186 0.041571 0.929335 -0.425480 -0.043732 0.918245
    20 1.124349 -0.000002 0.000000 0.000000 0.000000 1.285653
    21 0.891246 0.000001 0.000000 0.000000 0.000000 0.517941
    22 0.050303 -0.068010 -0.113034 1.724535 0.010837 0.011384
    23 1.062380 -9.544044 -8.587611 -1.116947 -0.481362 -0.978180
    24 8.499673 0.000000 0.000000 2.565177 0.001037 0.270580
    25 1.066140 0.161471 0.665475 -2.179047 -0.782592 0.867653
    26 1.535969 -0.000001 0.000000 0.000000 0.000000 0.464706
    27 1.100830 -0.000001 0.000000 0.000000 0.000000 0.106605
    28 2.725984 -0.106124 1.020465 -0.028777 -0.040080 0.332488
    29 1.397575 0.000000 0.000000 0.000000 0.000000 0.980836
    30 0.957878 -0.000001 0.000000 0.000000 0.000000 0.540970
    31 2.818702 -0.176451 0.444443 0.131172 0.123909 0.728258
    32 1.684281 -0.000001 -0.000001 0.000000 0.000000 1.188515
    33 1.151941 0.000000 0.000000 0.000000 0.000000 0.796489
    34 2.804605 -0.069564 -0.290472 0.214421 0.097086 1.019147
    35 1.480629 0.000000 -0.000001 0.000000 0.000000 0.970924
    36 1.076367 0.000001 0.000000 0.000000 0.000000 0.605248
    37 2.637185 0.041571 -0.929336 0.344038 0.232357 0.972581
    38 1.124349 -0.000001 -0.000001 0.000000 0.000000 1.636904
    39 0.891245 0.000000 0.000001 0.000000 0.000000 1.427902
    40 0.069162 -0.160878 0.118059 -1.341379 2.899243 0.231186
    41 2.428478 0.000000 0.000000 0.379117 0.000000 0.000000
    42 2.428478 0.000000 0.000000 -0.193424 0.000000 0.000000
  time 7
    0 9.733802 4.679097 -7.979769 -0.848999 -0.215343 -1.814896
    1 8.499673 0.000000 0.000001 -2.077794 0.022952 0.179083
    2 2.583087 1.081417 -0.651698 0.040001 -2.948736 1.420438
    3 0.135562 -7.366853 -1.959884 0.000000 0.000000 0.000000
    4 0.129978 -2.529269 0.982506 0.000000 0.000000 0.000000
    5 0.129979 -5.367178 0.150502 0.000000 0.000000 0.000000
    6 0.154151 -9.476041 2.728579 0.000000 0.000000 0.000000
    7 1.066141 0.161471 -0.665474 2.484768 0.749569 0.986721
    8 1.535968 0.000000 0.000001 0.000000 0.000000 1.180468
    9 1.100830 0.000000 0.000000 0.000000 0.000000 0.433641
    10 2.725986 -0.106123 -1.020465 -0.063125 -0.013612 0.009854
    11 1.397575 0.000000 0.000001 0.000000 0.000000 0.110162
    12 0.957878 0.000000 0.000000 0.000000 0.000000 0.382272
    13 2.818702 -0.176451 -0.444443 -0.196584 -0.091181 0.608085
    14 1.684282 0.000001 0.000000 0.000000 0.000000 1.801003
    15 1.151940 0.000001 0.000001 0.000000 0.000000 0.674933
    16 2.804605 -0.069564 0.290473 -0.290281 -0.058740 0.816215
    17 1.480629 0.000000 0.000001 0.000000 0.000000 1.638044
    18 1.076366 0.000000 0.000000 0.000000 0.000000 0.282362
    19 2.637186 0.041571 0.929335 -0.425480 -0.043732 0.918245
    20 1.124349 -0.000002 0.000000 0.000000 0.000000 1.285653
    21 0.891246 0.000001 0.000000 0.000000 0.000000 0.517941
    22 0.050303 -0.068010 -0.113034 1.724535 0.010837 0.011384
    23 1.124882 -9.547950 -8.583705 -1.125383 -0.461504 -0.994144
    24 8.499673 0.000000 0.000000 2.581710 -0.025438 0.254644
    25 1.066140 0.161471 0.665475 -2.188522 -0.768506 0.880568
    26 1.535969 -0.000001 0.000000 0.000000 0.000000 0.464706
    27 1.100830 -0.000001 0.000000 0.000000 0.000000 0.106605
    28 2.725984 -0.106124 1.020465 -0.028777 -0.040080 0.332488
    29 1.397575 0.000000 0.000000 0.000000 0.000000 0.980836
    30 0.957878 -0.000001 0.000000 0.000000 0.000000 0.540970
    31 2.818702 -0.176451 0.444443 0.131172 0.123909 0.728258
    32 1.684281 -0.000001 -0.000001 0.000000 0.000000 1.188515
    33 1.151941 0.000000 0.000000 0.000000 0.000000 0.796489
    34 2.804605 -0.069564 -0.290472 0.214421 0.097086 1.019147
    35 1.480629 0.000000 -0.000001 0.000000 0.000000 0.970924
    36 1.076367 0.000001 0.000000 0.000000 0.000000 0.605248
    37 2.637185 0.041571 -0.929336 0.344038 0.232357 0.972581
    38 1.124349 -0.000001 -0.000001 0.000000 0.000000 1.636904
    39 0.891245 0.000000 0.000001 0.000000 0.000000 1.427902
    40 0.069162 -0.160878 0.118059 -1.341379 2.899243 0.231186
    41 2.428478 0.000000 0.000000 0.386296 0.000000 0.000000
    42 2.428478 0.000000 0.000000 -0.193032 0.000000 0.000000
  time 8
    0 9.729896 4.557999 -7.952425 -0.849370 -0.209304 -1.814031
    1 8.499673 0.000000 0.000001 -2.076569 0.025097 0.180665
    2 2.583087 1.081417 -0.651698 0.040001 -2.948736 1.420438
    3 0.135562 -7.366853 -1.959884 0.000000 0.000000 0.000000
    4 0.129978 -2.529269 0.982506 0.000000 0.000000 0.000000
    5 0.129979 -5.367178 0.150502 0.000000 0.000000 0.000000
    6 0.154151 -9.476041 2.728579 0.000000 0.000000 0.000000
    7 1.066141 0.161471 -0.665474 2.484768 0.749569 0.986721
    8 1.535968 0.000000 0.000001 0.000000 0.000000 1.180468
    9 1.100830 0.000000 0.000000 0.000000 0.000000 0.433641
    10 2.725986 -0.106123 -1.020465 -0.062346 -0.013277 0.009854
    11 1.397575 0.000000 0.000001 0.000000 0.000000 0.110222
    12 0.957878 0.000000 0.000000 0.000000 0.000000 0.373553
    13 2.818702 -0.176451 -0.444443 -0.196584 -0.091181 0.608085
    14 1.684282 0.000001 0.000000 0.000000 0.000000 1.801003
    15 1.151940 0.000001 0.000001 0.000000 0.000000 0.674933
    16 2.804605 -0.069564 0.290473 -0.290281 -0.058740 0.816215
    17 1.480629 0.000000 0.000001 0.000000 0.000000 1.638044
    18 1.076366 0.000000 0.000000 0.000000 0.000000 0.282362
    19 2.637186 0.041571 0.929335 -0.425480 -0.043732 0.918245
    20 1.124349 -0.000002 0.000000 0.000000 0.000000 1.285653
    21 0.891246 0.000001 0.000000 0.000000 0.000000 0.517941
    22 0.050303 -0.068010 -0.113034 1.724535 0.010837 0.011384
    23 1.175664 -9.590920 -8.575892 -1.137016 -0.441741 -1.007067
    24 8.499673 0.000000 0.000000 2.601172 -0.048323 0.239093
    25 1.066140 0.161471 0.665475 -2.195491 -0.757706 0.890183
    26 1.535969 -0.000001 0.000000 0.000000 0.000000 0.464706
    27 1.100830 -0.000001 0.000000 0.000000 0.000000 0.106605
    28 2.725984 -0.106124 1.020465 -0.028777 -0.040080 0.332488
    29 1.397575 0.000000 0.000000 0.000000 0.000000 0.980836
    30 0.957878 -0.000001 0.000000 0.000000 0.000000 0.540970
    31 2.818702 -0.176451 0.444443 0.131172 0.123909 0.728258
    32 1.684281 -0.000001 -0.000001 0.000000 0.000000 1.188515
    33 1.151941 0.000000 0.000000 0.000000 0.000000 0.796489
    34 2.804605 -0.069564 -0.290472 0.214421 0.097086 1.019147
    35 1.480629 0.000000 -0.000001 0.000000 0.000000 0.970924
    36 1.076367 0.000001 0.000000 0.000000 0.000000 0.605248
    37 2.637185 0.041571 -0.929336 0.344038 0.232357 0.972581
    38 1.124349 -0.000001 -0.000001 0.000000 0.000000 1.636904
    39 0.891245 0.000000 0.000001 0.000000 0.000000 1.427902
    40 0.069162 -0.160878 0.118059 -1.341379 2.899243 0.231186
    41 2.428478 0.000000 0.000000 0.394158 0.000000 0.000000
    42 2.428478 0.000000 0.000000 -0.192640 0.000000 0.000000
  time 9
    0 9.725989 4.413464 -7.917267 -0.849802 -0.203163 -1.813165
    1 8.499673 0.000000 0.000001 -2.075344 0.027266 0.182247
    2 2.583087 1.081417 -0.651698 0.040001 -2.948736 1.420438
    3 0.135562 -7.366853 -1.959884 0.000000 0.000000 0.000000
    4 0.129978 -2.529269 0.982506 0.000000 0.000000 0.000000
    5 0.129979 -5.367178 0.150502 0.000000 0.000000 0.000000
    6 0.154151 -9.476041 2.728579 0.000000 0.000000 0.000000
    7 1.066141 0.161471 -0.665474 2.484768 0.749569 0.986721
    8 1.535968 0.000000 0.000001 0.000000 0.000000 1.180468
    9 1.100830 0.000000 0.000000 0.000000 0.000000 0.433641
    10 2.725986 -0.106123 -1.020465 -0.062969 -0.013540 0.009854
    11 1.397575 0.000000 0.000001 0.000000 0.000000 0.110177
    12 0.957878 0.000000 0.000000 0.000000 0.000000 0.380538
    13 2.818702 -0.176451 -0.444443 -0.196584 -0.091181 0.608085
    14 1.684282 0.000001 0.000000 0.000000 0.000000 1.801003
    15 1.151940 0.000001 0.000001 0.000000 0.000000 0.674933
    16 2.804605 -0.069564 0.290473 -0.290281 -0.058740 0.816215
    17 1.480629 0.000000 0.000001 0.000000 0.000000 1.638044
    18 1.076366 0.000000 0.000000 0.000000 0.000000 0.282362
    19 2.637186 0.041571 0.929335 -0.425480 -0.043732 0.918245
    20 1.124349 -0.000002 0.000000 0.000000 0.000000 1.285653
    21 0.891246 0.000001 0.000000 0.000000 0.000000 0.517941
    22 0.050303 -0.068010 -0.113034 1.724535 0.010837 0.011384
    23 1.245979 -9.680767 -8.630581 -1.140923 -0.431240 -1.020666
    24 8.499673 0.000000 0.000000 2.614128 -0.063817 0.235851
    25 1.066140 0.161471 0.665475 -2.198153 -0.753480 0.893903
    26 1.535969 -0.000001 0.000000 0.000000 0.000000 0.464706
    27 1.100830 -0.000001 0.000000 0.000000 0.000000 0.106605
    28 2.725984 -0.106124 1.020465 -0.028777 -0.040080 0.332488
    29 1.397575 0.000000 0.000000 0.000000 0.000000 0.980836
    30 0.957878 -0.000001 0.000000 0.000000 0.000000 0.540970
    31 2.818702 -0.176451 0.444443 0.131172 0.123909 0.728258
    32 1.684281 -0.000001 -0.000001 0.000000 0.000000 1.188515
    33 1.151941 0.000000 0.000000 0.000000 0.000000 0.796489
    34 2.804605 -0.069564 -0.290472 0.214421 0.097086 1.019147
    35 1.480629 0.000000 -0.000001 0.000000 0.000000 0.970924
    36 1.076367 0.000001 0.000000 0.000000 0.000000 0.605248
    37 2.637185 0.041571 -0.929336 0.344038 0.232357 0.972581
    38 1.124349 -0.000001 -0.000001 0.000000 0.000000 1.636904
    39 0.891245 0.000000 0.000001 0.000000 0.000000 1.427902
    40 0.069162 -0.160878 0.118059 -1.341379 2.899243 0.231186
    41 2.428478 0.000000 0.000000 0.399730 0.000000 0.000000
    42 2.428478 0.000000 0.000000 -0.192248 0.000000 0.000000
  time 10
    0 9.722083 4.253302 -7.882110 -0.850293 -0.196610 -1.812156
    1 8.499673 0.000000 0.000001 -2.074119 0.029172 0.183289
    2 2.583087 1.081417 -0.651698 0.040001 -2.948736 1.420438
    3 0.135562 -7.366853 -1.959884 0.000000 0.000000 0.000000
    4 0.129978 -2.529269 0.982506 0.000000 0.000000 0.000000
    5 0.129979 -5.367178 0.150502 0.000000 0.000000 0.000000
    6 0.154151 -9.476041 2.728579 0.000000 0.000000 0.000000
    7 1.066141 0.161471 -0.665474 2.484768 0.749569 0.986721
    8 1.535968 0.000000 0.000001 0.000000 0.000000 1.180468
    9 1.100830 0.000000 0.000000 0.000000 0.000000 0.433641
    10 2.725986 -0.106123 -1.020465 -0.064527 -0.014223 0.009854
    11 1.397575 0.000000 0.000001 0.000000 0.000000 0.110057
    12 0.957878 0.000000 0.000000 0.000000 0.000000 0.398001
    13 2.818702 -0.176451 -0.444443 -0.196584 -0.091181 0.608085
    14 1.684282 0.000001 0.000000 0.000000 0.000000 1.801003
    15 1.151940 0.000001 0.000001 0.000000 0.000000 0.674933
    16 2.804605 -0.069564 0.290473 -0.290281 -0.058740 0.816215
    17 1.480629 0.000000 0.000001 0.000000 0.000000 1.638044
    18 1.076366 0.000000 0.000000 0.000000 0.000000 0.282362
    19 2.637186 0.041571 0.929335 -0.425480 -0.043732 0.918245
    20 1.124349 -0.000002 0.000000 0.000000 0.000000 1.285653
    21 0.891246 0.000001 0.000000 0.000000 0.000000 0.517941
    22 0.050303 -0.068010 -0.113034 1.724535 0.010837 0.011384
    23 1.355357 -9.805771 -8.771211 -1.132842 -0.433435 -1.035954
    24 8.499673 0.000000 0.000000 2.616607 -0.070736 0.249287
    25 1.066140 0.161471 0.665475 -2.196274 -0.756425 0.891306
    26 1.535969 -0.000001 0.000000 0.000000 0.000000 0.464706
    27 1.100830 -0.000001 0.000000 0.000000 0.000000 0.106605
    28 2.725984 -0.106124 1.020465 -0.028777 -0.040080 0.332488
    29 1.397575 0.000000 0.000000 0.000000 0.000000 0.980836
    30 0.957878 -0.000001 0.000000 0.000000 0.000000 0.540970
    31 2.818702 -0.176451 0.444443 0.131172 0.123909 0.728258
    32 1.684281 -0.000001 -0.000001 0.000000 0.000000 1.188515
    33 1.151941 0.000000 0.000000 0.000000 0.000000 0.796489
    34 2.804605 -0.069564 -0.290472 0.214421 0.097086 1.019147
    35 1.480629 0.000000 -0.000001 0.000000 0.000000 0.970924
    36 1.076367 0.000001 0.000000 0.000000 0.000000 0.605248
    37 2.637185 0.041571 -0.929336 0.344038 0.232357 0.972581
    38 1.124349 -0.000001 -0.000001 0.000000 0.000000 1.636904
    39 0.891245 0.000000 0.000001 0.000000 0.000000 1.427902
    40 0.069162 -0.160878 0.118059 -1.341379 2.899243 0.231186
    41 2.428478 0.000000 0.000000 0.401864 0.000000 0.000000
    42 2.428478 0.000000 0.000000 -0.191842 0.000000 0.000000
  time 11
    0 9.714270 4.089235 -7.843046 -0.850905 -0.189339 -1.810858
    1 8.499673 0.000000 0.000001 -2.072940 0.030538 0.183242
    2 2.583087 1.081417 -0.651698 0.040001 -2.948736 1.420438
    3 0.135562 -7.366853 -1.959884 0.000000 0.000000 0.000000
    4 0.129978 -2.529269 0.982506 0.000000 0.000000 0.000000
    5 0.129979 -5.367178 0.150502 0.000000 0.000000 0.000000
    6 0.154151 -9.476041 2.728579 0.000000 0.000000 0.000000
    7 1.066141 0.161471 -0.665474 2.484768 0.749569 0.986721
    8 1.535968 0.000000 0.000001 0.000000 0.000000 1.180468
    9 1.100830 0.000000 0.000000 0.000000 0.000000 0.433641
    10 2.725986 -0.106123 -1.020465 -0.066552 -0.015110 0.009840
    11 1.397575 0.000000 0.000001 0.000000 0.000000 0.109906
    12 0.957878 0.000000 0.000000 0.000000 0.000000 0.420738
    13 2.818702 -0.176451 -0.444443 -0.196584 -0.091181 0.608085
    14 1.684282 0.000001 0.000000 0.000000 0.000000 1.801003
    15 1.151940 0.000001 0.000001 0.000000 0.000000 0.674933
    16 2.804605 -0.069564 0.290473 -0.290281 -0.058740 0.816215
    17 1.480629 0.000000 0.000001 0.000000 0.000000 1.638044
    18 1.076366 0.000000 0.000000 0.000000 0.000000 0.282362
    19 2.637186 0.041571 0.929335 -0.425480 -0.043732 0.918245
    20 1.124349 -0.000002 0.000000 0.000000 0.000000 1.285653
    21 0.891246 0.000001 0.000000 0.000000 0.000000 0.517941
    22 0.050303 -0.068010 -0.113034 1.724535 0.010837 0.011384
    23 1.468642 -9.958119 -8.966529 -1.118279 -0.443364 -1.050819
    24 8.499673 0.000000 0.000000 2.612917 -0.070850 0.272229
    25 1.066140 0.161471 0.665475 -2.191497 -0.763895 0.884709
    26 1.535969 -0.000001 0.000000 0.000000 0.000000 0.464706
    27 1.100830 -0.000001 0.000000 0.000000 0.000000 0.106605
    28 2.725984 -0.106124 1.020465 -0.028777 -0.040080 0.332488
    29 1.397575 0.000000 0.000000 0.000000 0.000000 0.980836
    30 0.957878 -0.000001 0.000000 0.000000 0.000000 0.540970
    31 2.818702 -0.176451 0.444443 0.131172 0.123909 0.728258
    32 1.684281 -0.000001 -0.000001 0.000000 0.000000 1.188515
    33 1.151941 0.000000 0.000000 0.000000 0.000000 0.796489
    34 2.804605 -0.069564 -0.290472 0.214421 0.097086 1.019147
    35 1.480629 0.000000 -0.000001 0.000000 0.000000 0.970924
    36 1.076367 0.000001 0.000000 0.000000 0.000000 0.605248
    37 2.637185 0.041571 -0.929336 0.344038 0.232357 0.972581
    38 1.124349 -0.000001 -0.000001 0.000000 0.000000 1.636904
    39 0.891245 0.000000 0.000001 0.000000 0.000000 1.427902
    40 0.069162 -0.160878 0.118059 -1.341379 2.899243 0.231186
    41 2.428478 0.000000 0.000000 0.401936 0.000000 0.000000
    42 2.428478 0.000000 0.000000 -0.191409 0.000000 0.000000
  time 12
    0 9.706457 3.925167 -7.803982 -0.851672 -0.181082 -1.809175
    1 8.499673 0.000000 0.000001 -2.071830 0.031114 0.181588
    2 2.583087 1.081417 -0.651698 0.040001 -2.948736 1.420438
    3 0.135562 -7.366853 -1.959884 0.000000 0.000000 0.000000
    4 0.129978 -2.529269 0.982506 0.000000 0.000000 0.000000
    5 0.129979 -5.367178 0.150502 0.000000 0.000000 0.000000
    6 0.154151 -9.476041 2.728579 0.000000 0.000000 0.000000
    7 1.066141 0.161471 -0.665474 2.484768 0.749569 0.986721
    8 1.535968 0.000000 0.000001 0.000000 0.000000 1.180468
    9 1.100830 0.000000 0.000000 0.000000 0.000000 0.433641
    10 2.725986 -0.106123 -1.020465 -0.068578 -0.015997 0.009840
    11 1.397575 0.000000 0.000001 0.000000 0.000000 0.109771
    12 0.957878 0.000000 0.000000 0.000000 0.000000 0.443452
    13 2.818702 -0.176451 -0.444443 -0.196584 -0.091181 0.608085
    14 1.684282 0.000001 0.000000 0.000000 0.000000 1.801003
    15 1.151940 0.000001 0.000001 0.000000 0.000000 0.674933
    16 2.804605 -0.069564 0.290473 -0.290281 -0.058740 0.816215
    17 1.480629 0.000000 0.000001 0.000000 0.000000 1.638044
    18 1.076366 0.000000 0.000000 0.000000 0.000000 0.282362
    19 2.637186 0.041571 0.929335 -0.425480 -0.043732 0.918245
    20 1.124349 -0.000002 0.000000 0.000000 0.000000 1.285653
    21 0.891246 0.000001 0.000000 0.000000 0.000000 0.517941
    22 0.050303 -0.068010 -0.113034 1.724535 0.010837 0.011384
    23 1.574114 -10.129999 -9.173567 -1.100519 -0.456253 -1.062898
    24 8.499673 0.000000 0.000000 2.605594 -0.065117 0.298386
    25 1.066140 0.161471 0.665475 -2.184685 -0.774354 0.875233
    26 1.535969 -0.000001 0.000000 0.000000 0.000000 0.464706
    27 1.100830 -0.000001 0.000000 0.000000 0.000000 0.106605
    28 2.725984 -0.106124 1.020465 -0.028777 -0.040080 0.332488
    29 1.397575 0.000000 0.000000 0.000000 0.000000 0.980836
    30 0.957878 -0.000001 0.000000 0.000000 0.000000 0.540970
    31 2.818702 -0.176451 0.444443 0.131172 0.123909 0.728258
    32 1.684281 -0.000001 -0.000001 0.000000 0.000000 1.188515
    33 1.151941 0.000000 0.000000 0.000000 0.000000 0.796489
    34 2.804605 -0.069564 -0.290472 0.214421 0.097086 1.019147
    35 1.480629 0.000000 -0.000001 0.000000 0.000000 0.970924
    36 1.076367 0.000001 0.000000 0.000000 0.000000 0.605248
    37 2.637185 0.041571 -0.929336 0.344038 0.232357 0.972581
    38 1.124349 -0.000001 -0.000001 0.000000 0.000000 1.636904
    39 0.891245 0.000000 0.000001 0.000000 0.000000 1.427902
    40 0.069162 -0.160878 0.118059 -1.341379 2.899243 0.231186
    41 2.428478 0.000000 0.000000 0.400545 0.000000 0.000000
    42 2.428478 0.000000 0.000000 -0.190936 0.000000 0.000000
  time 13
    0 9.694738 3.768913 -7.761012 -0.852690 -0.171510 -1.806964
    1 8.499673 0.000000 0.000001 -2.070813 0.030610 0.177777
    2 2.583087 1.081417 -0.651698 0.040001 -2.948736 1.420438
    3 0.135562 -7.366853 -1.959884 0.000000 0.000000 0.000000
    4 0.129978 -2.529269 0.982506 0.000000 0.000000 0.000000
    5 0.129979 -5.367178 0.150502 0.000000 0.000000 0.000000
    6 0.154151 -9.476041 2.728579 0.000000 0.000000 0.000000
    7 1.066141 0.161471 -0.665474 2.484768 0.749569 0.986721
    8 1.535968 0.000000 0.000001 0.000000 0.000000 1.180468
    9 1.100830 0.000000 0.000000 0.000000 0.000000 0.433641
    10 2.725986 -0.106123 -1.020465 -0.070136 -0.016680 0.009840
    11 1.397575 0.000000 0.000001 0.000000 0.000000 0.109650
    12 0.957878 0.000000 0.000000 0.000000 0.000000 0.460915
    13 2.818702 -0.176451 -0.444443 -0.196584 -0.091181 0.608085
    14 1.684282 0.000001 0.000000 0.000000 0.000000 1.801003
    15 1.151940 0.000001 0.000001 0.000000 0.000000 0.674933
    16 2.804605 -0.069564 0.290473 -0.290281 -0.058740 0.816215
    17 1.480629 0.000000 0.000001 0.000000 0.000000 1.638044
    18 1.076366 0.000000 0.000000 0.000000 0.000000 0.282362
    19 2.637186 0.041571 0.929335 -0.425480 -0.043732 0.918245
    20 1.124349 -0.000002 0.000000 0.000000 0.000000 1.285653
    21 0.891246 0.000001 0.000000 0.000000 0.000000 0.517941
    22 0.050303 -0.068010 -0.113034 1.724535 0.010837 0.011384
    23 1.644429 -10.309692 -9.372791 -1.082758 -0.468473 -1.070162
    24 8.499673 0.000000 0.000000 2.596666 -0.054511 0.322153
    25 1.066140 0.161471 0.665475 -2.176463 -0.786306 0.864143
    26 1.535969 -0.000001 0.000000 0.000000 0.000000 0.464706
    27 1.100830 -0.000001 0.000000 0.000000 0.000000 0.106605
    28 2.725984 -0.106124 1.020465 -0.028777 -0.040080 0.332488
    29 1.397575 0.000000 0.000000 0.000000 0.000000 0.980836
    30 0.957878 -0.000001 0.000000 0.000000 0.000000 0.540970
    31 2.818702 -0.176451 0.444443 0.131172 0.123909 0.728258
    32 1.684281 -0.000001 -0.000001 0.000000 0.000000 1.188515
    33 1.151941 0.000000 0.000000 0.000000 0.000000 0.796489
    34 2.804605 -0.069564 -0.290472 0.214421 0.097086 1.019147
    35 1.480629 0.000000 -0.000001 0.000000 0.000000 0.970924
    36 1.076367 0.000001 0.000000 0.000000 0.000000 0.605248
    37 2.637185 0.041571 -0.929336 0.344038 0.232357 0.972581
    38 1.124349 -0.000001 -0.000001 0.000000 0.000000 1.636904
    39 0.891245 0.000000 0.000001 0.000000 0.000000 1.427902
    40 0.069162 -0.160878 0.118059 -1.341379 2.899243 0.231186
    41 2.428478 0.000000 0.000000 0.398029 0.000000 0.000000
    42 2.428478 0.000000 0.000000 -0.190435 0.000000 0.000000
  time 14
    0 9.675207 3.628283 -7.714136 -0.854080 -0.160357 -1.804079
    1 8.499673 0.000000 0.000001 -2.069911 0.028753 0.171269
    2 2.583087 1.081417 -0.651698 0.040001 -2.948736 1.420438
    3 0.135562 -7.366853 -1.959884 0.000000 0.000000 0.000000
    4 0.129978 -2.529269 0.982506 0.000000 0.000000 0.000000
    5 0.129979 -5.367178 0.150502 0.000000 0.000000 0.000000
    6 0.154151 -9.476041 2.728579 0.000000 0.000000 0.000000
    7 1.066141 0.161471 -0.665474 2.484768 0.749569 0.986721
    8 1.535968 0.000000 0.000001 0.000000 0.000000 1.180468
    9 1.100830 0.000000 0.000000 0.000000 0.000000 0.433641
    10 2.725986 -0.106123 -1.020465 -0.070759 -0.016944 0.009840
    11 1.397575 0.000000 0.000001 0.000000 0.000000 0.109620
    12 0.957878 0.000000 0.000000 0.000000 0.000000 0.467900
    13 2.818702 -0.176451 -0.444443 -0.196584 -0.091181 0.608085
    14 1.684282 0.000001 0.000000 0.000000 0.000000 1.801003
    15 1.151940 0.000001 0.000001 0.000000 0.000000 0.674933
    16 2.804605 -0.069564 0.290473 -0.290281 -0.058740 0.816215
    17 1.480629 0.000000 0.000001 0.000000 0.000000 1.638044
    18 1.076366 0.000000 0.000000 0.000000 0.000000 0.282362
    19 2.637186 0.041571 0.929335 -0.425480 -0.043732 0.918245
    20 1.124349 -0.000002 0.000000 0.000000 0.000000 1.285653
    21 0.891246 0.000001 0.000000 0.000000 0.000000 0.517941
    22 0.050303 -0.068010 -0.113034 1.724535 0.010837 0.011384
    23 1.656148 -10.489385 -9.529046 -1.067485 -0.476493 -1.070331
    24 8.499673 0.000000 0.000000 2.587428 -0.040137 0.338474
    25 1.066140 0.161471 0.665475 -2.168006 -0.798258 0.852773
    26 1.535969 -0.000001 0.000000 0.000000 0.000000 0.464706
    27 1.100830 -0.000001 0.000000 0.000000 0.000000 0.106605
    28 2.725984 -0.106124 1.020465 -0.028777 -0.040080 0.332488
    29 1.397575 0.000000 0.000000 0.000000 0.000000 0.980836
    30 0.957878 -0.000001 0.000000 0.000000 0.000000 0.540970
    31 2.818702 -0.176451 0.444443 0.131172 0.123909 0.728258
    32 1.684281 -0.000001 -0.000001 0.000000 0.000000 1.188515
    33 1.151941 0.000000 0.000000 0.000000 0.000000 0.796489
    34 2.804605 -0.069564 -0.290472 0.214421 0.097086 1.019147
    35 1.480629 0.000000 -0.000001 0.000000 0.000000 0.970924
    36 1.076367 0.000001 0.000000 0.000000 0.000000 0.605248
    37 2.637185 0.041571 -0.929336 0.344038 0.232357 0.972581
    38 1.124349 -0.000001 -0.000001 0.000000 0.000000 1.636904
    39 0.891245 0.000000 0.000001 0.000000 0.000000 1.427902
    40 0.069162 -0.160878 0.118059 -1.341379 2.899243 0.231186
    41 2.428478 0.000000 0.000000 0.394517 0.000000 0.000000
    42 2.428478 0.000000 0.000000 -0.189867 0.000000 0.000000
  time 15
    0 9.640049 3.495467 -7.608664 -0.856837 -0.142200 -1.798599
    1 8.499673 0.000000 0.000001 -2.069102 0.022341 0.155126
    2 2.583087 1.081417 -0.651698 0.040001 -2.948736 1.420438
    3 0.135562 -7.366853 -1.959884 0.000000 0.000000 0.000000
    4 0.129978 -2.529269 0.982506 0.000000 0.000000 0.000000
    5 0.129979 -5.367178 0.150502 0.000000 0.000000 0.000000
    6 0.154151 -9.476041 2.728579 0.000000 0.000000 0.000000
    7 1.066141 0.161471 -0.665474 2.484768 0.749569 0.986721
    8 1.535968 0.000000 0.000001 0.000000 0.000000 1.180468
    9 1.100830 0.000000 0.000000 0.000000 0.000000 0.433641
    10 2.725986 -0.106123 -1.020465 -0.070759 -0.016944 0.009840
    11 1.397575 0.000000 0.000001 0.000000 0.000000 0.109620
    12 0.957878 0.000000 0.000000 0.000000 0.000000 0.467900
    13 2.818702 -0.176451 -0.444443 -0.196584 -0.091181 0.608085
    14 1.684282 0.000001 0.000000 0.000000 0.000000 1.801003
    15 1.151940 0.000001 0.000001 0.000000 0.000000 0.674933
    16 2.804605 -0.069564 0.290473 -0.290281 -0.058740 0.816215
    17 1.480629 0.000000 0.000001 0.000000 0.000000 1.638044
    18 1.076366 0.000000 0.000000 0.000000 0.000000 0.282362
    19 2.637186 0.041571 0.929335 -0.425480 -0.043732 0.918245
    20 1.124349 -0.000002 0.000000 0.000000 0.000000 1.285653
    21 0.891246 0.000001 0.000000 0.000000 0.000000 0.517941
    22 0.050303 -0.068010 -0.113034 1.724535 0.010837 0.011384
    23 1.613178 -10.692517 -9.626705 -1.050257 -0.482698 -1.062982
    24 8.499673 0.000000 0.000000 2.572247 -0.019526 0.348832
    25 1.066140 0.161471 0.665475 -2.158531 -0.811022 0.840139
    26 1.535969 -0.000001 0.000000 0.000000 0.000000 0.464706
    27 1.100830 -0.000001 0.000000 0.000000 0.000000 0.106605
    28 2.725984 -0.106124 1.020465 -0.028777 -0.040080 0.332488
    29 1.397575 0.000000 0.000000 0.000000 0.000000 0.980836
    30 0.957878 -0.000001 0.000000 0.000000 0.000000 0.540970
    31 2.818702 -0.176451 0.444443 0.131172 0.123909 0.728258
    32 1.684281 -0.000001 -0.000001 0.000000 0.000000 1.188515
    33 1.151941 0.000000 0.000000 0.000000 0.000000 0.796489
    34 2.804605 -0.069564 -0.290472 0.214421 0.097086 1.019147
    35 1.480629 0.000000 -0.000001 0.000000 0.000000 0.970924
    36 1.076367 0.000001 0.000000 0.000000 0.000000 0.605248
    37 2.637185 0.041571 -0.929336 0.344038 0.232357 0.972581
    38 1.124349 -0.000001 -0.000001 0.000000 0.000000 1.636904
    39 0.891245 0.000000 0.000001 0.000000 0.000000 1.427902
    40 0.069162 -0.160878 0.118059 -1.341379 2.899243 0.231186
    41 2.428478 0.000000 0.000000 0.387794 0.000000 0.000000
    42 2.428478 0.000000 0.000000 -0.189042 0.000000 0.000000
  time 16
    0 9.573641 3.347025 -7.421158 -0.861870 -0.116504 -1.790042
    1 8.499673 0.000000 0.000001 -2.068247 0.010848 0.128244
    2 2.583087 1.081417 -0.651698 0.040001 -2.948736 1.420438
    3 0.135562 -7.366853 -1.959884 0.000000 0.000000 0.000000
    4 0.129978 -2.529269 0.982506 0.000000 0.000000 0.000000
    5 0.129979 -5.367178 0.150502 0.000000 0.000000 0.000000
    6 0.154151 -9.476041 2.728579 0.000000 0.000000 0.000000
    7 1.066141 0.161471 -0.665474 2.484768 0.749569 0.986721
    8 1.535968 0.000000 0.000001 0.000000 0.000000 1.180468
    9 1.100830 0.000000 0.000000 0.000000 0.000000 0.433641
    10 2.725986 -0.106123 -1.020465 -0.070759 -0.016944 0.009840
    11 1.397575 0.000000 0.000001 0.000000 0.000000 0.109620
    12 0.957878 0.000000 0.000000 0.000000 0.000000 0.467900
    13 2.818702 -0.176451 -0.444443 -0.196584 -0.091181 0.608085
    14 1.684282 0.000001 0.000000 0.000000 0.000000 1.801003
    15 1.151940 0.000001 0.000001 0.000000 0.000000 0.674933
    16 2.804605 -0.069564 0.290473 -0.290281 -0.058740 0.816215
    17 1.480629 0.000000 0.000001 0.000000 0.000000 1.638044
    18 1.076366 0.000000 0.000000 0.000000 0.000000 0.282362
    19 2.637186 0.041571 0.929335 -0.425480 -0.043732 0.918245
    20 1.124349 -0.000002 0.000000 0.000000 0.000000 1.285653
    21 0.891246 0.000001 0.000000 0.000000 0.000000 0.517941
    22 0.050303 -0.068010 -0.113034 1.724535 0.010837 0.011384
    23 1.546769 -10.946431 -9.685301 -1.027347 -0.493105 -1.051242
    24 8.499673 0.000000 0.000000 2.548137 0.009012 0.360317
    25 1.066140 0.161471 0.665475 -2.147099 -0.825706 0.825118
    26 1.535969 -0.000001 0.000000 0.000000 0.000000 0.464706
    27 1.100830 -0.000001 0.000000 0.000000 0.000000 0.106605
    28 2.725984 -0.106124 1.020465 -0.028777 -0.040080 0.332488
    29 1.397575 0.000000 0.000000 0.000000 0.000000 0.980836
    30 0.957878 -0.000001 0.000000 0.000000 0.000000 0.540970
    31 2.818702 -0.176451 0.444443 0.131172 0.123909 0.728258
    32 1.684281 -0.000001 -0.000001 0.000000 0.000000 1.188515
    33 1.151941 0.000000 0.000000 0.000000 0.000000 0.796489
    34 2.804605 -0.069564 -0.290472 0.214421 0.097086 1.019147
    35 1.480629 0.000000 -0.000001 0.000000 0.000000 0.970924
    36 1.076367 0.000001 0.000000 0.000000 0.000000 0.605248
    37 2.637185 0.041571 -0.929336 0.344038 0.232357 0.972581
    38 1.124349 -0.000001 -0.000001 0.000000 0.000000 1.636904
    39 0.891245 0.000000 0.000001 0.000000 0.000000 1.427902
    40 0.069162 -0.160878 0.118059 -1.341379 2.899243 0.231186
    41 2.428478 0.000000 0.000000 0.377044 0.000000 0.000000
    42 2.428478 0.000000 0.000000 -0.187947 0.000000 0.000000
  time 17
    0 9.495514 3.194676 -7.202402 -0.868402 -0.090233 -1.780571
    1 8.499673 0.000000 0.000001 -2.067184 -0.001976 0.098846
    2 2.583087 1.081417 -0.651698 0.040001 -2.948736 1.420438
    3 0.135562 -7.366853 -1.959884 0.000000 0.000000 0.000000
    4 0.129978 -2.529269 0.982506 0.000000 0.000000 0.000000
    5 0.129979 -5.367178 0.150502 0.000000 0.000000 0.000000
    6 0.154151 -9.476041 2.728579 0.000000 0.000000 0.000000
    7 1.066141 0.161471 -0.665474 2.484768 0.749569 0.986721
    8 1.535968 0.000000 0.000001 0.000000 0.000000 1.180468
    9 1.100830 0.000000 0.000000 0.000000 0.000000 0.433641
    10 2.725986 -0.106123 -1.020465 -0.070759 -0.016944 0.009840
    11 1.397575 0.000000 0.000001 0.000000 0.000000 0.109620
    12 0.957878 0.000000 0.000000 0.000000 0.000000 0.467900
    13 2.818702 -0.176451 -0.444443 -0.196584 -0.091181 0.608085
    14 1.684282 0.000001 0.000000 0.000000 0.000000 1.801003
    15 1.151940 0.000001 0.000001 0.000000 0.000000 0.674933
    16 2.804605 -0.069564 0.290473 -0.290281 -0.058740 0.816215
    17 1.480629 0.000000 0.000001 0.000000 0.000000 1.638044
    18 1.076366 0.000000 0.000000 0.000000 0.000000 0.282362
    19 2.637186 0.041571 0.929335 -0.425480 -0.043732 0.918245
    20 1.124349 -0.000002 0.000000 0.000000 0.000000 1.285653
    21 0.891246 0.000001 0.000000 0.000000 0.000000 0.517941
    22 0.050303 -0.068010 -0.113034 1.724535 0.010837 0.011384
    23 1.476455 -11.227689 -9.728271 -1.001683 -0.508094 -1.036630
    24 8.499673 0.000000 0.000000 2.519549 0.043347 0.373918
    25 1.066140 0.161471 0.665475 -2.134492 -0.841073 0.808694
    26 1.535969 -0.000001 0.000000 0.000000 0.000000 0.464706
    27 1.100830 -0.000001 0.000000 0.000000 0.000000 0.106605
    28 2.725984 -0.106124 1.020465 -0.028777 -0.040080 0.332488
    29 1.397575 0.000000 0.000000 0.000000 0.000000 0.980836
    30 0.957878 -0.000001 0.000000 0.000000 0.000000 0.540970
    31 2.818702 -0.176451 0.444443 0.131172 0.123909 0.728258
    32 1.684281 -0.000001 -0.000001 0.000000 0.000000 1.188515
    33 1.151941 0.000000 0.000000 0.000000 0.000000 0.796489
    34 2.804605 -0.069564 -0.290472 0.214421 0.097086 1.019147
    35 1.480629 0.000000 -0.000001 0.000000 0.000000 0.970924
    36 1.076367 0.000001 0.000000 0.000000 0.000000 0.605248
    37 2.637185 0.041571 -0.929336 0.344038 0.232357 0.972581
    38 1.124349 -0.000001 -0.000001 0.000000 0.000000 1.636904
    39 0.891245 0.000000 0.000001 0.000000 0.000000 1.427902
    40 0.069162 -0.160878 0.118059 -1.341379 2.899243 0.231186
    41 2.428478 0.000000 0.000000 0.364100 0.000000 0.000000
    42 2.428478 0.000000 0.000000 -0.186892 0.000000 0.000000
  time 18
    0 9.425199 3.065766 -7.026615 -0.874370 -0.070001 -1.772735
    1 8.499673 0.000000 0.000001 -2.066120 -0.012391 0.075165
    2 2.583087 1.081417 -0.651698 0.040001 -2.948736 1.420438
    3 0.135562 -7.366853 -1.959884 0.000000 0.000000 0.000000
    4 0.129978 -2.529269 0.982506 0.000000 0.000000 0.000000
    5 0.129979 -5.367178 0.150502 0.000000 0.000000 0.000000
    6 0.154151 -9.476041 2.728579 0.000000 0.000000 0.000000
    7 1.066141 0.161471 -0.665474 2.484768 0.749569 0.986721
    8 1.535968 0.000000 0.000001 0.000000 0.000000 1.180468
    9 1.100830 0.000000 0.000000 0.000000 0.000000 0.433641
    10 2.725986 -0.106123 -1.020465 -0.070759 -0.016944 0.009840
    11 1.397575 0.000000 0.000001 0.000000 0.000000 0.109620
    12 0.957878 0.000000 0.000000 0.000000 0.000000 0.467900
    13 2.818702 -0.176451 -0.444443 -0.196584 -0.091181 0.608085
    14 1.684282 0.000001 0.000000 0.000000 0.000000 1.801003
    15 1.151940 0.000001 0.000001 0.000000 0.000000 0.674933
    16 2.804605 -0.069564 0.290473 -0.290281 -0.058740 0.816215
    17 1.480629 0.000000 0.000001 0.000000 0.000000 1.638044
    18 1.076366 0.000000 0.000000 0.000000 0.000000 0.282362
    19 2.637186 0.041571 0.929335 -0.425480 -0.043732 0.918245
    20 1.124349 -0.000002 0.000000 0.000000 0.000000 1.285653
    21 0.891246 0.000001 0.000000 0.000000 0.000000 0.517941
    22 0.050303 -0.068010 -0.113034 1.724535 0.010837 0.011384
    23 1.398327 -11.493322 -9.767335 -0.975753 -0.525088 -1.018554
    24 8.499673 0.000000 0.000000 2.490652 0.081922 0.386392
    25 1.066140 0.161471 0.665475 -2.121572 -0.855971 0.792059
    26 1.535969 -0.000001 0.000000 0.000000 0.000000 0.464706
    27 1.100830 -0.000001 0.000000 0.000000 0.000000 0.106605
    28 2.725984 -0.106124 1.020465 -0.028777 -0.040080 0.332488
    29 1.397575 0.000000 0.000000 0.000000 0.000000 0.980836
    30 0.957878 -0.000001 0.000000 0.000000 0.000000 0.540970
    31 2.818702 -0.176451 0.444443 0.131172 0.123909 0.728258
    32 1.684281 -0.000001 -0.000001 0.000000 0.000000 1.188515
    33 1.151941 0.000000 0.000000 0.000000 0.000000 0.796489
    34 2.804605 -0.069564 -0.290472 0.214421 0.097086 1.019147
    35 1.480629 0.000000 -0.000001 0.000000 0.000000 0.970924
    36 1.076367 0.000001 0.000000 0.000000 0.000000 0.605248
    37 2.637185 0.041571 -0.929336 0.344038 0.232357 0.972581
    38 1.124349 -0.000001 -0.000001 0.000000 0.000000 1.636904
    39 0.891245 0.000000 0.000001 0.000000 0.000000 1.427902
    40 0.069162 -0.160878 0.118059 -1.341379 2.899243 0.231186
    41 2.428478 0.000000 0.000000 0.350426 0.000000 0.000000
    42 2.428478 0.000000 0.000000 -0.186094 0.000000 0.000000
  time 19
    0 9.397854 3.011077 -6.952394 -0.876971 -0.061929 -1.769418
    1 8.499673 0.000000 0.000001 -2.065658 -0.016681 0.065445
    2 2.583087 1.081417 -0.651698 0.040001 -2.948736 1.420438
    3 0.135562 -7.366853 -1.959884 0.000000 0.000000 0.000000
    4 0.129978 -2.529269 0.982506 0.000000 0.000000 0.000000
    5 0.129979 -5.367178 0.150502 0.000000 0.000000 0.000000
    6 0.154151 -9.476041 2.728579 0.000000 0.000000 0.000000
    7 1.066141 0.161471 -0.665474 2.484768 0.749569 0.986721
    8 1.535968 0.000000 0.000001 0.000000 0.000000 1.180468
    9 1.100830 0.000000 0.000000 0.000000 0.000000 0.433641
    10 2.725986 -0.106123 -1.020465 -0.070759 -0.016944 0.009840
    11 1.397575 0.000000 0.000001 0.000000 0.000000 0.109620
    12 0.957878 0.000000 0.000000 0.000000 0.000000 0.467900
    13 2.818702 -0.176451 -0.444443 -0.196584 -0.091181 0.608085
    14 1.684282 0.000001 0.000000 0.000000 0.000000 1.801003
    15 1.151940 0.000001 0.000001 0.000000 0.000000 0.674933
    16 2.804605 -0.069564 0.290473 -0.290281 -0.058740 0.816215
    17 1.480629 0.000000 0.000001 0.000000 0.000000 1.638044
    18 1.076366 0.000000 0.000000 0.000000 0.000000 0.282362
    19 2.637186 0.041571 0.929335 -0.425480 -0.043732 0.918245
    20 1.124349 -0.000002 0.000000 0.000000 0.000000 1.285653
    21 0.891246 0.000001 0.000000 0.000000 0.000000 0.517941
    22 0.050303 -0.068010 -0.113034 1.724535 0.010837 0.011384
    23 1.374889 -11.493322 -9.618893 -0.940233 -0.512008 -1.018892
    24 8.499673 0.000000 0.000000 2.453079 0.093291 0.380622
    25 1.066140 0.161471 0.665475 -2.108182 -0.870612 0.775003
    26 1.535969 -0.000001 0.000000 0.000000 0.000000 0.464706
    27 1.100830 -0.000001 0.000000 0.000000 0.000000 0.106605
    28 2.725984 -0.106124 1.020465 -0.028777 -0.040080 0.332488
    29 1.397575 0.000000 0.000000 0.000000 0.000000 0.980836
    30 0.957878 -0.000001 0.000000 0.000000 0.000000 0.540970
    31 2.818702 -0.176451 0.444443 0.131172 0.123909 0.728258
    32 1.684281 -0.000001 -0.000001 0.000000 0.000000 1.188515
    33 1.151941 0.000000 0.000000 0.000000 0.000000 0.796489
    34 2.804605 -0.069564 -0.290472 0.214421 0.097086 1.019147
    35 1.480629 0.000000 -0.000001 0.000000 0.000000 0.970924
    36 1.076367 0.000001 0.000000 0.000000 0.000000 0.605248
    37 2.637185 0.041571 -0.929336 0.344038 0.232357 0.972581
    38 1.124349 -0.000001 -0.000001 0.000000 0.000000 1.636904
    39 0.891245 0.000000 0.000001 0.000000 0.000000 1.427902
    40 0.069162 -0.160878 0.118059 -1.341379 2.899243 0.231186
    41 2.428478 0.000000 0.000000 0.335553 0.000000 0.000000
    42 2.428478 0.000000 0.000000 -0.185783 0.000000 0.000000
end
