version 1
nodes
  0 "root" -1
  1 "Bone04" 0
  2 "Bone_Righthand" 1
  3 "Bone39" 2
  4 "Bone40" 3
  5 "Bone41" 4
  6 "Bone35" 2
  7 "Bone36" 6
  8 "Bone37" 7
  9 "Bone31" 2
  10 "Bone32" 9
  11 "Bone33" 10
  12 "Bone43" 2
  13 "Bone44" 12
  14 "Bone45" 13
  15 "Bone27" 2
  16 "Bone28" 15
  17 "Bone29" 16
  18 "Bone_Se_Hand-R" 2
  19 "Bone_R_Upper" 1
  20 "Bone01" 0
  21 "Bone_Lefthand" 20
  22 "Bone13" 21
  23 "Bone14" 22
  24 "Bone15" 23
  25 "Bone17" 21
  26 "Bone18" 25
  27 "Bone19" 26
  28 "Bone21" 21
  29 "Bone22" 28
  30 "Bone23" 29
  31 "Bone09" 21
  32 "Bone10" 31
  33 "Bone11" 32
  34 "Bone05" 21
  35 "Bone06" 34
  36 "Bone07" 35
  37 "Bone_L_Upper" 20
  38 "chainsaw_root" -1
  39 "saw001" 38
  40 "saw002" 38
  41 "saw003" 38
  42 "saw004" 38
  43 "teeth004" 38
  44 "teeth015" 38
  45 "teeth001" 38
  46 "teeth002" 38
  47 "teeth003" 38
  48 "teeth016" 38
  49 "teeth005" 38
  50 "teeth006" 38
  51 "teeth007" 38
  52 "teeth008" 38
  53 "teeth009" 38
  54 "teeth010" 38
  55 "teeth011" 38
  56 "teeth012" 38
  57 "teeth013" 38
  58 "teeth014" 38
end
skeleton
  time 0
    0 2.402417 1.984436 1.195349 0.000000 0.000000 -0.000066
    1 -0.706798 -6.166020 -7.214892 0.461493 -3.309045 0.366020
    2 0.146659 -8.400551 -0.109526 0.148871 0.239746 0.326543
    3 0.447952 -2.798988 -0.200443 -0.953664 0.040661 0.006198
    4 -0.033095 -1.498205 0.034224 -1.588343 0.023071 -0.032091
    5 -0.027702 -1.133388 -0.022576 -1.345284 0.024781 -0.025486
    6 -0.249534 -2.846973 -0.174215 -0.938937 0.159786 0.001224
    7 0.043017 -1.655117 0.053581 -1.845378 -0.008200 0.003156
    8 0.027641 -1.143356 0.059665 -1.017395 -0.019109 0.002651
    9 -0.963866 -2.785151 -0.085346 -1.311815 0.216831 -0.167405
    10 0.028663 -1.405643 -0.021507 -1.095864 -0.030801 -0.036393
    11 0.021422 -0.938366 0.006881 -1.304740 -0.040112 -0.037745
    12 1.164473 -2.543945 -0.170328 -0.570858 -0.160391 0.094461
    13 0.023466 -1.146865 -0.008955 -1.223259 0.020205 0.060465
    14 0.014968 -0.896790 -0.020059 -0.762990 0.002039 0.038621
    15 -0.586772 -1.264479 0.200165 -0.445001 -0.821905 -2.726972
    16 1.570070 0.038315 -0.003232 -0.140701 -0.591314 0.823464
    17 1.113592 0.044559 -0.005883 -0.067207 -0.258171 1.366501
    18 0.063732 -0.088262 0.010491 0.012637 0.022344 1.399484
    19 -3.416982 8.218060 -0.294124 1.581764 -0.011820 -1.308986
    20 12.266909 -0.199033 -7.696982 4.714351 -1.955299 0.831875
    21 -0.048481 -8.670617 -0.162737 0.390111 -0.065894 0.858652
    22 -0.488515 -2.755602 -0.228256 -0.667590 -0.067442 -0.114705
    23 0.039936 -1.529655 0.013207 -1.413023 -0.012729 0.031191
    24 0.032903 -1.294774 -0.102672 -2.046379 -0.004466 0.045624
    25 0.250031 -2.820658 -0.238394 -0.623289 -0.088938 -0.136107
    26 -0.049187 -1.608001 0.063729 -1.109531 0.007173 -0.030668
    27 -0.033792 -1.193996 0.042160 -1.652630 -0.001324 -0.042455
    28 0.957769 -2.746773 -0.090297 -0.505939 -0.090425 -0.188449
    29 -0.033296 -1.395737 -0.025013 -0.828551 -0.110179 0.092049
    30 -0.021896 -0.964392 -0.011118 -1.165134 -0.000724 -0.055752
    31 -1.180678 -2.507215 -0.193858 -0.404064 0.138943 -0.096783
    32 -0.024978 -1.129404 0.016886 -1.230912 -0.001217 -0.052001
    33 -0.020518 -0.907372 0.039943 -1.273645 -0.000279 -0.052017
    34 0.604733 -1.198765 0.179235 0.767390 -0.961737 -1.160431
    35 1.518348 -0.137151 0.049418 0.009659 -0.140828 -0.462384
    36 1.058105 -0.135432 0.032545 0.030563 -0.175294 -0.710101
    37 8.081620 0.777959 -0.376373 1.569248 -3.116571 0.173328
    38 8.583428 -4.239273 -8.767674 -1.563892 -2.764161 1.233512
    39 19.969769 -3.188614 1.358406 0.000000 0.000000 0.001876
    40 19.980885 -9.112012 1.358410 0.000000 0.000000 0.001876
    41 19.969769 -3.188615 -1.358761 0.000000 0.000000 0.001876
    42 19.980885 -9.112012 -1.358759 0.000000 0.000000 0.001876
    43 37.513889 -5.706630 1.410832 0.000000 0.000000 0.250193
    44 37.508564 -6.442426 -1.387376 0.000000 0.000000 -0.219907
    45 35.189121 -4.252908 1.410833 0.000000 0.000000 1.489751
    46 36.333588 -4.422521 1.406492 0.000000 0.000000 1.297920
    47 37.098946 -4.867690 1.410831 0.000000 0.000000 0.717059
    48 37.097366 -7.233098 -1.387378 0.000000 0.000000 -0.735074
    49 37.508568 -6.442424 1.410833 0.000000 0.000000 -0.219907
    50 37.097366 -7.233096 1.410832 0.000000 0.000000 -0.735074
    51 36.336815 -7.703540 1.410831 0.000000 0.000000 -1.329474
    52 35.217106 -7.894967 1.410834 0.000000 0.000000 -1.474549
    53 36.336815 -7.703540 -1.387373 0.000000 0.000000 -1.329474
    54 35.217110 -7.894971 -1.387375 0.000000 0.000000 -1.474549
    55 35.189121 -4.252910 -1.387377 0.000000 0.000000 1.489751
    56 36.333584 -4.422519 -1.391716 0.000000 0.000000 1.297920
    57 37.098938 -4.867692 -1.387377 0.000000 0.000000 0.717059
    58 37.513882 -5.706630 -1.387377 0.000000 0.000000 0.250193
  time 1
    0 2.261788 2.031312 1.066439 0.000000 0.000000 -0.000066
    1 -0.300535 -5.970702 -6.968791 0.472754 -3.324808 0.338814
    2 0.150565 -8.404457 -0.121245 0.122220 0.278524 0.290829
    3 0.447952 -2.798988 -0.200443 -0.953807 0.041320 0.007085
    4 -0.033095 -1.498205 0.034224 -1.586064 0.023071 -0.032020
    5 -0.027702 -1.133388 -0.022576 -1.342717 0.024769 -0.025414
    6 -0.249534 -2.846973 -0.174215 -0.939099 0.159786 0.001224
    7 0.043017 -1.655117 0.053581 -1.842786 -0.008416 0.003935
    8 0.031547 -1.143356 0.059665 -1.013844 -0.018342 0.003094
    9 -0.963866 -2.785151 -0.085346 -1.311985 0.216831 -0.167405
    10 0.028663 -1.405643 -0.021507 -1.095864 -0.030801 -0.036393
    11 0.021422 -0.938366 0.006881 -1.299865 -0.039884 -0.037721
    12 1.164473 -2.543945 -0.170328 -0.573115 -0.160143 0.096306
    13 0.023466 -1.146865 -0.008955 -1.223259 0.020205 0.060465
    14 0.014968 -0.896790 -0.020059 -0.762990 0.002039 0.038621
    15 -0.586772 -1.264479 0.200165 -0.420650 -0.764409 -2.764592
    16 1.566164 0.038315 -0.003232 -0.145366 -0.609781 0.792875
    17 1.113592 0.044559 -0.005883 -0.083374 -0.269472 1.462948
    18 0.044200 -0.092168 0.010491 0.038989 0.017226 1.416974
    19 -2.545862 8.557914 -0.270686 1.581476 -0.008756 -1.422636
    20 12.360661 -0.105280 -7.489945 4.726785 -1.953744 0.810400
    21 -0.044574 -8.670617 -0.158830 0.400114 -0.045184 0.868325
    22 -0.488515 -2.755602 -0.228256 -0.667590 -0.067442 -0.114705
    23 0.039936 -1.529655 0.013207 -1.413023 -0.012729 0.031191
    24 0.032903 -1.294774 -0.102672 -2.046379 -0.004466 0.045624
    25 0.250031 -2.820658 -0.238394 -0.623289 -0.088938 -0.136107
    26 -0.049187 -1.608001 0.063729 -1.109531 0.007173 -0.030668
    27 -0.033792 -1.193996 0.042160 -1.652630 -0.001324 -0.042455
    28 0.957769 -2.746773 -0.090297 -0.505939 -0.090425 -0.188449
    29 -0.033296 -1.395737 -0.025013 -0.828551 -0.110179 0.092049
    30 -0.021896 -0.964392 -0.011118 -1.165134 -0.000724 -0.055752
    31 -1.180678 -2.507215 -0.193858 -0.404064 0.138943 -0.096783
    32 -0.024978 -1.129404 0.016886 -1.230912 -0.001217 -0.052001
    33 -0.020518 -0.907372 0.039943 -1.273645 -0.000279 -0.052017
    34 0.604733 -1.198765 0.179235 0.767390 -0.961737 -1.160431
    35 1.518348 -0.137151 0.049418 0.009659 -0.140828 -0.462384
    36 1.058105 -0.135432 0.032545 0.030563 -0.175294 -0.710101
    37 8.073807 0.453731 -0.380279 1.569823 -3.115900 0.133479
    38 8.501394 -4.055674 -8.658296 1.554367 -0.381172 -1.910160
    39 20.559630 -3.188614 1.358406 0.000000 0.000000 0.001876
    40 19.441806 -9.112012 1.358410 0.000000 0.000000 0.001876
    41 20.559630 -3.188615 -1.358761 0.000000 0.000000 0.001876
    42 19.441806 -9.112012 -1.358759 0.000000 0.000000 0.001876
    43 37.412324 -6.093361 1.410832 0.000000 0.000000 -0.024560
    44 37.211680 -6.770561 -1.387376 0.000000 0.000000 -0.513464
    45 35.665698 -4.385725 1.410833 0.000000 0.000000 1.290363
    46 36.630472 -4.715499 1.406492 0.000000 0.000000 1.006915
    47 37.204418 -5.277859 1.410831 0.000000 0.000000 0.483754
    48 36.636415 -7.404978 -1.387378 0.000000 0.000000 -0.922822
    49 37.211684 -6.770559 1.410833 0.000000 0.000000 -0.513464
    50 36.636415 -7.404976 1.410832 0.000000 0.000000 -0.922822
    51 35.797736 -7.781667 1.410831 0.000000 0.000000 -1.385790
    52 34.689746 -7.926218 1.410834 0.000000 0.000000 -1.493652
    53 35.797736 -7.781667 -1.387373 0.000000 0.000000 -1.385790
    54 34.689750 -7.926222 -1.387375 0.000000 0.000000 -1.493652
    55 35.665698 -4.385727 -1.387377 0.000000 0.000000 1.290363
    56 36.630468 -4.715497 -1.391716 0.000000 0.000000 1.006915
    57 37.204410 -5.277861 -1.387377 0.000000 0.000000 0.483754
    58 37.412316 -6.093361 -1.387377 0.000000 0.000000 -0.024560
  time 2
    0 2.441481 2.066469 1.328166 0.000000 0.000000 -0.000066
    1 -0.206782 -5.970702 -6.933633 0.471421 -3.328102 0.333641
    2 0.150565 -8.404457 -0.125152 0.113509 0.299226 0.285325
    3 0.447952 -2.798988 -0.200443 -0.956620 0.041356 0.007013
    4 -0.033095 -1.498205 0.034224 -1.586064 0.023071 -0.032020
    5 -0.027702 -1.133388 -0.022576 -1.342717 0.024769 -0.025414
    6 -0.249534 -2.846973 -0.174215 -0.941901 0.159738 0.001248
    7 0.043017 -1.655117 0.053581 -1.843054 -0.008632 0.004774
    8 0.031547 -1.143356 0.059665 -1.013551 -0.017587 0.003514
    9 -0.963866 -2.785151 -0.085346 -1.314794 0.216699 -0.167417
    10 0.028663 -1.405643 -0.021507 -1.095864 -0.030801 -0.036393
    11 0.021422 -0.938366 0.006881 -1.299865 -0.039884 -0.037721
    12 1.164473 -2.543945 -0.170328 -0.575937 -0.160094 0.096450
    13 0.023466 -1.146865 -0.008955 -1.223259 0.020205 0.060465
    14 0.014968 -0.896790 -0.020059 -0.762990 0.002039 0.038621
    15 -0.586772 -1.264479 0.200165 -0.413993 -0.731673 -2.779271
    16 1.566164 0.038315 -0.003232 -0.147724 -0.620246 0.775501
    17 1.113592 0.044559 -0.005883 -0.092974 -0.275177 1.517464
    18 0.024668 -0.092168 0.010491 0.065340 0.012097 1.434464
    19 -2.354450 8.616509 -0.262873 1.581380 -0.008086 -1.446798
    20 12.345036 -0.116999 -7.509477 4.725159 -1.954090 0.813072
    21 -0.040668 -8.670617 -0.154924 0.398992 -0.031636 0.874291
    22 -0.488515 -2.755602 -0.228256 -0.667590 -0.067442 -0.114705
    23 0.039936 -1.529655 0.013207 -1.413023 -0.012729 0.031191
    24 0.032903 -1.294774 -0.102672 -2.046379 -0.004466 0.045624
    25 0.250031 -2.820658 -0.238394 -0.623289 -0.088938 -0.136107
    26 -0.049187 -1.608001 0.063729 -1.109531 0.007173 -0.030668
    27 -0.033792 -1.193996 0.042160 -1.652630 -0.001324 -0.042455
    28 0.957769 -2.746773 -0.090297 -0.505939 -0.090425 -0.188449
    29 -0.033296 -1.395737 -0.025013 -0.828551 -0.110179 0.092049
    30 -0.021896 -0.964392 -0.011118 -1.165134 -0.000724 -0.055752
    31 -1.180678 -2.507215 -0.193858 -0.404064 0.138943 -0.096783
    32 -0.024978 -1.129404 0.016886 -1.230912 -0.001217 -0.052001
    33 -0.020518 -0.907372 0.039943 -1.273645 -0.000279 -0.052017
    34 0.604733 -1.198765 0.179235 0.767390 -0.961737 -1.160431
    35 1.518348 -0.137151 0.049418 0.009659 -0.140828 -0.462384
    36 1.058105 -0.135432 0.032545 0.030563 -0.175294 -0.710101
    37 8.077714 0.492794 -0.380279 1.569727 -3.115996 0.138257
    38 8.684993 -4.032235 -8.408288 1.540108 -0.381556 -1.911032
    39 21.657320 -3.188614 1.358406 0.000000 0.000000 0.001876
    40 18.437869 -9.112012 1.358410 0.000000 0.000000 0.001876
    41 21.657320 -3.188615 -1.358761 0.000000 0.000000 0.001876
    42 18.437869 -9.112012 -1.358759 0.000000 0.000000 0.001876
    43 37.220912 -6.819945 1.410832 0.000000 0.000000 -0.534833
    44 36.653069 -7.379955 -1.387376 0.000000 0.000000 -1.058661
    45 36.552444 -4.635732 1.410833 0.000000 0.000000 0.920058
    46 37.189083 -5.266297 1.406492 0.000000 0.000000 0.466457
    47 37.403642 -6.043507 1.410831 0.000000 0.000000 0.050459
    48 35.777014 -7.733113 -1.387378 0.000000 0.000000 -1.271509
    49 36.653073 -7.379952 1.410833 0.000000 0.000000 -1.058661
    50 35.777014 -7.733111 1.410832 0.000000 0.000000 -1.271509
    51 34.785986 -7.926203 1.410831 0.000000 0.000000 -1.490403
    52 33.705341 -7.988720 1.410834 0.000000 0.000000 -1.529151
    53 34.785986 -7.926203 -1.387373 0.000000 0.000000 -1.490403
    54 33.705345 -7.988724 -1.387375 0.000000 0.000000 -1.529151
    55 36.552444 -4.635734 -1.387377 0.000000 0.000000 0.920058
    56 37.189079 -5.266295 -1.391716 0.000000 0.000000 0.466457
    57 37.403635 -6.043509 -1.387377 0.000000 0.000000 0.050459
    58 37.220904 -6.819945 -1.387377 0.000000 0.000000 -0.534833
  time 3
    0 2.304758 1.984436 0.980499 0.000000 0.000000 -0.000066
    1 -0.105217 -5.970702 -6.898476 0.470087 -3.331932 0.327319
    2 0.154472 -8.404457 -0.129058 0.106037 0.316999 0.278190
    3 0.447952 -2.798988 -0.200443 -0.958623 0.041380 0.006965
    4 -0.033095 -1.498205 0.034224 -1.586064 0.023071 -0.032020
    5 -0.027702 -1.133388 -0.022576 -1.342717 0.024769 -0.025414
    6 -0.249534 -2.846973 -0.174215 -0.943922 0.159714 0.001272
    7 0.043017 -1.655117 0.053581 -1.843367 -0.008800 0.005589
    8 0.031547 -1.143356 0.059665 -1.013242 -0.016844 0.003909
    9 -0.963866 -2.785151 -0.085346 -1.316809 0.216615 -0.167429
    10 0.028663 -1.405643 -0.021507 -1.095864 -0.030801 -0.036393
    11 0.021422 -0.938366 0.006881 -1.299865 -0.039884 -0.037721
    12 1.164473 -2.543945 -0.170328 -0.577966 -0.160069 0.096570
    13 0.023466 -1.146865 -0.008955 -1.223259 0.020205 0.060465
    14 0.014968 -0.896790 -0.020059 -0.762990 0.002039 0.038621
    15 -0.586772 -1.264479 0.200165 -0.409691 -0.708260 -2.789291
    16 1.566164 0.038315 -0.003232 -0.149279 -0.627723 0.763056
    17 1.113592 0.044559 -0.005883 -0.100021 -0.278928 1.556467
    18 0.005137 -0.096075 0.010491 0.091438 0.007028 1.451775
    19 -2.143506 8.675105 -0.258967 1.581284 -0.007416 -1.473635
    20 12.329410 -0.120905 -7.517289 4.723820 -1.954780 0.815172
    21 -0.040668 -8.666710 -0.154924 0.398852 -0.019184 0.879630
    22 -0.488515 -2.755602 -0.228256 -0.667590 -0.067442 -0.114705
    23 0.039936 -1.529655 0.013207 -1.413023 -0.012729 0.031191
    24 0.032903 -1.294774 -0.102672 -2.046379 -0.004466 0.045624
    25 0.250031 -2.820658 -0.238394 -0.623289 -0.088938 -0.136107
    26 -0.049187 -1.608001 0.063729 -1.109531 0.007173 -0.030668
    27 -0.033792 -1.193996 0.042160 -1.652630 -0.001324 -0.042455
    28 0.957769 -2.746773 -0.090297 -0.505939 -0.090425 -0.188449
    29 -0.033296 -1.395737 -0.025013 -0.828551 -0.110179 0.092049
    30 -0.021896 -0.964392 -0.011118 -1.165134 -0.000724 -0.055752
    31 -1.180678 -2.507215 -0.193858 -0.404064 0.138943 -0.096783
    32 -0.024978 -1.129404 0.016886 -1.230912 -0.001217 -0.052001
    33 -0.020518 -0.907372 0.039943 -1.273645 -0.000279 -0.052017
    34 0.604733 -1.198765 0.179235 0.767390 -0.961737 -1.160431
    35 1.518348 -0.137151 0.049418 0.009659 -0.140828 -0.462384
    36 1.058105 -0.135432 0.032545 0.030563 -0.175294 -0.710101
    37 8.077714 0.520139 -0.380279 1.569631 -3.115996 0.141841
    38 8.548270 -4.122082 -8.755955 1.526806 -0.381268 -1.911350
    39 22.247182 -3.184708 1.358406 0.000000 0.000000 0.001876
    40 17.898790 -9.115918 1.358410 0.000000 0.000000 0.001876
    41 22.247182 -3.184709 -1.358761 0.000000 0.000000 0.001876
    42 17.898790 -9.115918 -1.358759 0.000000 0.000000 0.001876
    43 37.119346 -7.210582 1.410832 0.000000 0.000000 -0.809618
    44 36.352279 -7.708090 -1.387376 0.000000 0.000000 -1.352253
    45 37.029021 -4.772455 1.410833 0.000000 0.000000 0.720646
    46 37.489873 -5.563181 1.406492 0.000000 0.000000 0.175418
    47 37.513021 -6.453676 1.410831 0.000000 0.000000 -0.182846
    48 35.312156 -7.908900 -1.387378 0.000000 0.000000 -1.459279
    49 36.352283 -7.708087 1.410833 0.000000 0.000000 -1.352253
    50 35.312156 -7.908898 1.410832 0.000000 0.000000 -1.459279
    51 34.243001 -8.004330 1.410831 0.000000 0.000000 -1.546731
    52 33.177981 -8.023877 1.410834 0.000000 0.000000 -1.548266
    53 34.243001 -8.004330 -1.387373 0.000000 0.000000 -1.546731
    54 33.177985 -8.023881 -1.387375 0.000000 0.000000 -1.548266
    55 37.029021 -4.772457 -1.387377 0.000000 0.000000 0.720646
    56 37.489869 -5.563179 -1.391716 0.000000 0.000000 0.175418
    57 37.513013 -6.453678 -1.387377 0.000000 0.000000 -0.182846
    58 37.119338 -7.210582 -1.387377 0.000000 0.000000 -0.809618
  time 4
    0 2.878994 2.031312 1.066439 0.000000 0.000000 -0.000066
    1 0.000255 -5.962889 -6.859412 0.468606 -3.336117 0.319847
    2 0.154472 -8.404457 -0.132965 0.099701 0.331945 0.269629
    3 0.447952 -2.798988 -0.200443 -0.959934 0.041392 0.006929
    4 -0.033095 -1.498205 0.034224 -1.586064 0.023071 -0.032020
    5 -0.027702 -1.133388 -0.022576 -1.342717 0.024769 -0.025414
    6 -0.249534 -2.846973 -0.174215 -0.945216 0.159690 0.001296
    7 0.043017 -1.655117 0.053581 -1.843679 -0.008943 0.006404
    8 0.031547 -1.143356 0.059665 -1.012949 -0.016100 0.004257
    9 -0.963866 -2.785151 -0.085346 -1.318114 0.216555 -0.167429
    10 0.028663 -1.405643 -0.021507 -1.095864 -0.030801 -0.036393
    11 0.021422 -0.938366 0.006881 -1.299865 -0.039884 -0.037721
    12 1.164473 -2.543945 -0.170328 -0.579262 -0.160045 0.096630
    13 0.023466 -1.146865 -0.008955 -1.223259 0.020205 0.060465
    14 0.014968 -0.896790 -0.020059 -0.762990 0.002039 0.038621
    15 -0.586772 -1.264479 0.200165 -0.407175 -0.693134 -2.795619
    16 1.566164 0.038315 -0.003232 -0.150223 -0.632557 0.754985
    17 1.113592 0.044559 -0.005883 -0.104659 -0.281205 1.581673
    18 -0.014395 -0.096075 0.014397 0.116976 0.002054 1.468744
    19 -1.909124 8.737607 -0.251154 1.581188 -0.006650 -1.502859
    20 12.313785 -0.124812 -7.513383 4.722577 -1.955644 0.816795
    21 -0.036762 -8.666710 -0.151017 0.399506 -0.007635 0.884404
    22 -0.488515 -2.755602 -0.228256 -0.667590 -0.067442 -0.114705
    23 0.039936 -1.529655 0.013207 -1.413023 -0.012729 0.031191
    24 0.032903 -1.294774 -0.102672 -2.046379 -0.004466 0.045624
    25 0.250031 -2.820658 -0.238394 -0.623289 -0.088938 -0.136107
    26 -0.049187 -1.608001 0.063729 -1.109531 0.007173 -0.030668
    27 -0.033792 -1.193996 0.042160 -1.652630 -0.001324 -0.042455
    28 0.957769 -2.746773 -0.090297 -0.505939 -0.090425 -0.188449
    29 -0.033296 -1.395737 -0.025013 -0.828551 -0.110179 0.092049
    30 -0.021896 -0.964392 -0.011118 -1.165134 -0.000724 -0.055752
    31 -1.180678 -2.507215 -0.193858 -0.404064 0.138943 -0.096783
    32 -0.024978 -1.129404 0.016886 -1.230912 -0.001217 -0.052001
    33 -0.020518 -0.907372 0.039943 -1.273645 -0.000279 -0.052017
    34 0.604733 -1.198765 0.179235 0.767390 -0.961737 -1.160431
    35 1.518348 -0.137151 0.049418 0.009659 -0.140828 -0.462384
    36 1.058105 -0.135432 0.032545 0.030563 -0.175294 -0.710101
    37 8.077714 0.543577 -0.380279 1.569631 -3.116092 0.144401
    38 9.118600 -4.079112 -8.658296 1.514461 -0.380501 -1.911191
    39 19.969769 -3.188614 1.358406 0.000000 0.000000 0.001876
    40 19.980885 -9.112012 1.358410 0.000000 0.000000 0.001876
    41 19.969769 -3.188615 -1.358761 0.000000 0.000000 0.001876
    42 19.980885 -9.112012 -1.358759 0.000000 0.000000 0.001876
    43 37.513889 -5.706630 1.410832 0.000000 0.000000 0.250193
    44 37.508564 -6.442426 -1.387376 0.000000 0.000000 -0.219907
    45 35.189121 -4.252908 1.410833 0.000000 0.000000 1.489751
    46 36.333588 -4.422521 1.406492 0.000000 0.000000 1.297920
    47 37.098946 -4.867690 1.410831 0.000000 0.000000 0.717059
    48 37.097366 -7.233098 -1.387378 0.000000 0.000000 -0.735074
    49 37.508568 -6.442424 1.410833 0.000000 0.000000 -0.219907
    50 37.097366 -7.233096 1.410832 0.000000 0.000000 -0.735074
    51 36.336815 -7.703540 1.410831 0.000000 0.000000 -1.329474
    52 35.217106 -7.894967 1.410834 0.000000 0.000000 -1.474549
    53 36.336815 -7.703540 -1.387373 0.000000 0.000000 -1.329474
    54 35.217110 -7.894971 -1.387375 0.000000 0.000000 -1.474549
    55 35.189121 -4.252910 -1.387377 0.000000 0.000000 1.489751
    56 36.333584 -4.422519 -1.391716 0.000000 0.000000 1.297920
    57 37.098938 -4.867692 -1.387377 0.000000 0.000000 0.717059
    58 37.513882 -5.706630 -1.387377 0.000000 0.000000 0.250193
  time 5
    0 2.921964 2.066469 1.183630 0.000000 0.000000 -0.000066
    1 0.113540 -5.955076 -6.820349 0.466976 -3.340570 0.311417
    2 0.158378 -8.408364 -0.136871 0.094467 0.344265 0.259885
    3 0.447952 -2.798988 -0.200443 -0.960602 0.041404 0.006905
    4 -0.033095 -1.498205 0.034224 -1.586064 0.023071 -0.032020
    5 -0.027702 -1.133388 -0.022576 -1.342717 0.024769 -0.025414
    6 -0.249534 -2.846973 -0.174215 -0.945889 0.159690 0.001296
    7 0.043017 -1.655117 0.053581 -1.843948 -0.009051 0.007183
    8 0.031547 -1.143356 0.059665 -1.012672 -0.015381 0.004556
    9 -0.963866 -2.785151 -0.085346 -1.318767 0.216520 -0.167441
    10 0.028663 -1.405643 -0.021507 -1.095864 -0.030801 -0.036393
    11 0.021422 -0.938366 0.006881 -1.299865 -0.039884 -0.037721
    12 1.164473 -2.543945 -0.170328 -0.579948 -0.160032 0.096678
    13 0.023466 -1.146865 -0.008955 -1.223259 0.020205 0.060465
    14 0.014968 -0.896790 -0.020059 -0.762990 0.002039 0.038621
    15 -0.586772 -1.264479 0.200165 -0.405876 -0.685242 -2.798871
    16 1.566164 0.038315 -0.003232 -0.150694 -0.635074 0.750765
    17 1.113592 0.044559 -0.005883 -0.107091 -0.282344 1.594831
    18 -0.033927 -0.099981 0.014397 0.141719 -0.002752 1.485159
    19 -1.655210 8.792296 -0.243341 1.580997 -0.005789 -1.534375
    20 12.298159 -0.128718 -7.497757 4.721620 -1.956680 0.818036
    21 -0.036762 -8.666710 -0.151017 0.400674 0.002881 0.888675
    22 -0.488515 -2.755602 -0.228256 -0.667590 -0.067442 -0.114705
    23 0.039936 -1.529655 0.013207 -1.413023 -0.012729 0.031191
    24 0.032903 -1.294774 -0.102672 -2.046420 -0.004466 0.045624
    25 0.250031 -2.820658 -0.238394 -0.623289 -0.088938 -0.136107
    26 -0.049187 -1.608001 0.063729 -1.109531 0.007173 -0.030668
    27 -0.033792 -1.193996 0.042160 -1.652630 -0.001324 -0.042455
    28 0.957769 -2.746773 -0.090297 -0.505939 -0.090425 -0.188449
    29 -0.033296 -1.395737 -0.025013 -0.828551 -0.110179 0.092049
    30 -0.021896 -0.964392 -0.011118 -1.165134 -0.000724 -0.055752
    31 -1.180678 -2.507215 -0.193858 -0.404064 0.138943 -0.096783
    32 -0.024978 -1.129404 0.016886 -1.230912 -0.001217 -0.052001
    33 -0.020518 -0.907372 0.039943 -1.273645 -0.000279 -0.052017
    34 0.604733 -1.198765 0.179235 0.767390 -0.961737 -1.160431
    35 1.518348 -0.137151 0.049418 0.009659 -0.140828 -0.462384
    36 1.058105 -0.135432 0.032545 0.030563 -0.175294 -0.710101
    37 8.077714 0.555296 -0.380279 1.569631 -3.116092 0.145937
    38 9.157664 -4.043954 -8.529385 1.502978 -0.379543 -1.910636
    39 20.559630 -3.188614 1.358406 0.000000 0.000000 0.001876
    40 19.441806 -9.112012 1.358410 0.000000 0.000000 0.001876
    41 20.559630 -3.188615 -1.358761 0.000000 0.000000 0.001876
    42 19.441806 -9.112012 -1.358759 0.000000 0.000000 0.001876
    43 37.412324 -6.093361 1.410832 0.000000 0.000000 -0.024560
    44 37.211680 -6.770561 -1.387376 0.000000 0.000000 -0.513464
    45 35.665698 -4.385725 1.410833 0.000000 0.000000 1.290363
    46 36.630472 -4.715499 1.406492 0.000000 0.000000 1.006915
    47 37.204418 -5.277859 1.410831 0.000000 0.000000 0.483754
    48 36.636415 -7.404978 -1.387378 0.000000 0.000000 -0.922822
    49 37.211684 -6.770559 1.410833 0.000000 0.000000 -0.513464
    50 36.636415 -7.404976 1.410832 0.000000 0.000000 -0.922822
    51 35.797736 -7.781667 1.410831 0.000000 0.000000 -1.385790
    52 34.689746 -7.926218 1.410834 0.000000 0.000000 -1.493652
    53 35.797736 -7.781667 -1.387373 0.000000 0.000000 -1.385790
    54 34.689750 -7.926222 -1.387375 0.000000 0.000000 -1.493652
    55 35.665698 -4.385727 -1.387377 0.000000 0.000000 1.290363
    56 36.630468 -4.715497 -1.391716 0.000000 0.000000 1.006915
    57 37.204410 -5.277861 -1.387377 0.000000 0.000000 0.483754
    58 37.412316 -6.093361 -1.387377 0.000000 0.000000 -0.024560
  time 6
    0 2.793054 1.984436 0.968780 0.000000 0.000000 -0.000066
    1 0.230731 -5.939451 -6.777379 0.465346 -3.345111 0.302029
    2 0.158378 -8.408364 -0.140777 0.090267 0.354364 0.249162
    3 0.447952 -2.798988 -0.200443 -0.960745 0.041404 0.006905
    4 -0.033095 -1.498205 0.034224 -1.586064 0.023071 -0.032020
    5 -0.027702 -1.133388 -0.022576 -1.342717 0.024769 -0.025414
    6 -0.249534 -2.846973 -0.174215 -0.946024 0.159678 0.001296
    7 0.043017 -1.655117 0.053581 -1.844260 -0.009111 0.007926
    8 0.031547 -1.143356 0.059665 -1.012395 -0.014686 0.004820
    9 -0.963866 -2.785151 -0.085346 -1.318937 0.216520 -0.167441
    10 0.028663 -1.405643 -0.021507 -1.095864 -0.030801 -0.036393
    11 0.021422 -0.938366 0.006881 -1.299865 -0.039884 -0.037721
    12 1.164473 -2.543945 -0.170328 -0.580086 -0.160032 0.096678
    13 0.023466 -1.146865 -0.008955 -1.223259 0.020205 0.060465
    14 0.014968 -0.896790 -0.020059 -0.762990 0.002039 0.038621
    15 -0.586772 -1.264479 0.200165 -0.405633 -0.683483 -2.799575
    16 1.566164 0.038315 -0.003232 -0.150796 -0.635635 0.749810
    17 1.113592 0.044559 -0.005883 -0.107643 -0.282595 1.597792
    18 -0.053459 -0.103887 0.014397 0.165378 -0.007354 1.500858
    19 -1.389577 8.839172 -0.239435 1.580805 -0.005023 -1.567610
    20 12.282534 -0.128718 -7.482132 4.720855 -1.957630 0.818799
    21 -0.032855 -8.666710 -0.147111 0.402264 0.012558 0.892569
    22 -0.488515 -2.755602 -0.228256 -0.667590 -0.067442 -0.114705
    23 0.039936 -1.529655 0.013207 -1.413023 -0.012729 0.031191
    24 0.032903 -1.294774 -0.102672 -2.046379 -0.004466 0.045624
    25 0.250031 -2.820658 -0.238394 -0.623289 -0.088938 -0.136107
    26 -0.049187 -1.608001 0.063729 -1.109531 0.007173 -0.030668
    27 -0.033792 -1.193996 0.042160 -1.652630 -0.001324 -0.042455
    28 0.957769 -2.746773 -0.090297 -0.505939 -0.090425 -0.188449
    29 -0.033296 -1.395737 -0.025013 -0.828551 -0.110179 0.092049
    30 -0.021896 -0.964392 -0.011118 -1.165134 -0.000724 -0.055752
    31 -1.180678 -2.507215 -0.193858 -0.404064 0.138943 -0.096783
    32 -0.024978 -1.129404 0.016886 -1.230912 -0.001217 -0.052001
    33 -0.020518 -0.907372 0.039943 -1.273645 -0.000279 -0.052017
    34 0.604733 -1.198765 0.179235 0.767390 -0.961737 -1.160431
    35 1.518348 -0.137151 0.049418 0.009659 -0.140828 -0.462384
    36 1.058105 -0.135432 0.032545 0.030563 -0.175294 -0.710101
    37 8.077714 0.559203 -0.380279 1.569631 -3.116092 0.146534
    38 9.028754 -4.122082 -8.724704 1.492356 -0.378393 -1.910001
    39 21.657320 -3.188614 1.358406 0.000000 0.000000 0.001876
    40 18.437869 -9.112012 1.358410 0.000000 0.000000 0.001876
    41 21.657320 -3.188615 -1.358761 0.000000 0.000000 0.001876
    42 18.437869 -9.112012 -1.358759 0.000000 0.000000 0.001876
    43 37.220912 -6.819945 1.410832 0.000000 0.000000 -0.534833
    44 36.653069 -7.379955 -1.387376 0.000000 0.000000 -1.058661
    45 36.552444 -4.635732 1.410833 0.000000 0.000000 0.920058
    46 37.189083 -5.266297 1.406492 0.000000 0.000000 0.466457
    47 37.403642 -6.043507 1.410831 0.000000 0.000000 0.050459
    48 35.777014 -7.733113 -1.387378 0.000000 0.000000 -1.271509
    49 36.653073 -7.379952 1.410833 0.000000 0.000000 -1.058661
    50 35.777014 -7.733111 1.410832 0.000000 0.000000 -1.271509
    51 34.785986 -7.926203 1.410831 0.000000 0.000000 -1.490403
    52 33.705341 -7.988720 1.410834 0.000000 0.000000 -1.529151
    53 34.785986 -7.926203 -1.387373 0.000000 0.000000 -1.490403
    54 33.705345 -7.988724 -1.387375 0.000000 0.000000 -1.529151
    55 36.552444 -4.635734 -1.387377 0.000000 0.000000 0.920058
    56 37.189079 -5.266295 -1.391716 0.000000 0.000000 0.466457
    57 37.403635 -6.043509 -1.387377 0.000000 0.000000 0.050459
    58 37.220904 -6.819945 -1.387377 0.000000 0.000000 -0.534833
  time 7
    0 2.609455 2.031312 1.148473 0.000000 0.000000 -0.000066
    1 0.351828 -5.923825 -6.730502 0.463642 -3.349742 0.291970
    2 0.158378 -8.412270 -0.140777 0.087099 0.362577 0.237706
    3 0.447952 -2.798988 -0.200443 -0.960459 0.041392 0.006917
    4 -0.033095 -1.498205 0.034224 -1.586064 0.023071 -0.032020
    5 -0.027702 -1.133388 -0.022576 -1.342717 0.024769 -0.025414
    6 -0.249534 -2.846973 -0.174215 -0.945755 0.159690 0.001296
    7 0.043017 -1.655117 0.053581 -1.844484 -0.009159 0.008621
    8 0.031547 -1.143356 0.059665 -1.012134 -0.014027 0.005048
    9 -0.963866 -2.785151 -0.085346 -1.318653 0.216532 -0.167441
    10 0.028663 -1.405643 -0.021507 -1.095864 -0.030801 -0.036393
    11 0.021422 -0.938366 0.006881 -1.299865 -0.039884 -0.037721
    12 1.164473 -2.543945 -0.170328 -0.579811 -0.160032 0.096666
    13 0.023466 -1.146865 -0.008955 -1.223259 0.020205 0.060465
    14 0.014968 -0.896790 -0.020059 -0.762990 0.002039 0.038621
    15 -0.586772 -1.264479 0.200165 -0.406120 -0.686771 -2.798256
    16 1.566164 0.038315 -0.003232 -0.150605 -0.634585 0.751566
    17 1.113592 0.044559 -0.005883 -0.106624 -0.282128 1.592273
    18 -0.069084 -0.103887 0.014397 0.187699 -0.011692 1.515677
    19 -1.104412 8.882142 -0.235529 4.722117 -3.137421 1.539026
    20 12.270815 -0.124812 -7.458694 4.720281 -1.958580 0.819181
    21 -0.032855 -8.666710 -0.147111 0.404040 0.021333 0.896149
    22 -0.488515 -2.755602 -0.228256 -0.667590 -0.067442 -0.114705
    23 0.039936 -1.529655 0.013207 -1.413023 -0.012729 0.031191
    24 0.032903 -1.294774 -0.102672 -2.046379 -0.004466 0.045624
    25 0.250031 -2.820658 -0.238394 -0.623289 -0.088938 -0.136107
    26 -0.049187 -1.608001 0.063729 -1.109531 0.007173 -0.030668
    27 -0.033792 -1.193996 0.042160 -1.652630 -0.001324 -0.042455
    28 0.957769 -2.746773 -0.090297 -0.505939 -0.090425 -0.188449
    29 -0.033296 -1.395737 -0.025013 -0.828551 -0.110179 0.092049
    30 -0.021896 -0.964392 -0.011118 -1.165134 -0.000724 -0.055752
    31 -1.180678 -2.507215 -0.193858 -0.404064 0.138943 -0.096783
    32 -0.024978 -1.129404 0.016886 -1.230912 -0.001217 -0.052001
    33 -0.020518 -0.907372 0.039943 -1.273645 -0.000279 -0.052017
    34 0.604733 -1.198765 0.179235 0.767390 -0.961737 -1.160431
    35 1.518348 -0.137151 0.049418 0.009659 -0.140828 -0.462384
    36 1.058105 -0.135432 0.032545 0.030563 -0.175294 -0.710101
    37 8.077714 0.559203 -0.380279 1.569631 -3.116092 0.146364
    38 8.837342 -4.071299 -8.521573 1.482690 -0.377338 -1.909288
    39 22.247182 -3.184708 1.358406 0.000000 0.000000 0.001876
    40 17.898790 -9.115918 1.358410 0.000000 0.000000 0.001876
    41 22.247182 -3.184709 -1.358761 0.000000 0.000000 0.001876
    42 17.898790 -9.115918 -1.358759 0.000000 0.000000 0.001876
    43 37.119346 -7.210582 1.410832 0.000000 0.000000 -0.809618
    44 36.352279 -7.708090 -1.387376 0.000000 0.000000 -1.352253
    45 37.029021 -4.772455 1.410833 0.000000 0.000000 0.720646
    46 37.489873 -5.563181 1.406492 0.000000 0.000000 0.175418
    47 37.513021 -6.453676 1.410831 0.000000 0.000000 -0.182846
    48 35.312156 -7.908900 -1.387378 0.000000 0.000000 -1.459279
    49 36.352283 -7.708087 1.410833 0.000000 0.000000 -1.352253
    50 35.312156 -7.908898 1.410832 0.000000 0.000000 -1.459279
    51 34.243001 -8.004330 1.410831 0.000000 0.000000 -1.546731
    52 33.177981 -8.023877 1.410834 0.000000 0.000000 -1.548266
    53 34.243001 -8.004330 -1.387373 0.000000 0.000000 -1.546731
    54 33.177985 -8.023881 -1.387375 0.000000 0.000000 -1.548266
    55 37.029021 -4.772457 -1.387377 0.000000 0.000000 0.720646
    56 37.489869 -5.563179 -1.391716 0.000000 0.000000 0.175418
    57 37.513013 -6.453678 -1.387377 0.000000 0.000000 -0.182846
    58 37.119338 -7.210582 -1.387377 0.000000 0.000000 -0.809618
  time 8
    0 2.921964 2.066469 1.066439 0.000000 0.000000 -0.000066
    1 0.472926 -5.904293 -6.687532 0.462086 -3.354640 0.281528
    2 0.162284 -8.412270 -0.144684 0.084861 0.369343 0.225964
    3 0.447952 -2.798988 -0.200443 -0.959839 0.041392 0.006929
    4 -0.033095 -1.498205 0.034224 -1.586064 0.023071 -0.032020
    5 -0.027702 -1.133388 -0.022576 -1.342717 0.024769 -0.025414
    6 -0.249534 -2.846973 -0.174215 -0.945135 0.159690 0.001296
    7 0.043017 -1.655117 0.053581 -1.844752 -0.009171 0.009269
    8 0.031547 -1.143356 0.059665 -1.011890 -0.013416 0.005228
    9 -0.963866 -2.785151 -0.085346 -1.318029 0.216555 -0.167429
    10 0.028663 -1.405643 -0.021507 -1.095864 -0.030801 -0.036393
    11 0.021422 -0.938366 0.006881 -1.299865 -0.039884 -0.037721
    12 1.164473 -2.543945 -0.170328 -0.579186 -0.160045 0.096630
    13 0.023466 -1.146865 -0.008955 -1.223259 0.020205 0.060465
    14 0.014968 -0.896790 -0.020059 -0.762990 0.002039 0.038621
    15 -0.586772 -1.264479 0.200165 -0.407256 -0.694022 -2.795268
    16 1.566164 0.038315 -0.003232 -0.150172 -0.632267 0.755447
    17 1.113592 0.044559 -0.005883 -0.104383 -0.281073 1.580192
    18 -0.084710 -0.107794 0.014397 0.208394 -0.015719 1.529406
    19 -0.811434 8.917300 -0.227716 4.721733 -3.138378 1.503212
    20 12.263002 -0.120905 -7.435256 4.719994 -1.959444 0.819181
    21 -0.028949 -8.662804 -0.143205 0.405722 0.029268 0.899478
    22 -0.488515 -2.755602 -0.228256 -0.667590 -0.067442 -0.114705
    23 0.039936 -1.529655 0.013207 -1.413023 -0.012729 0.031191
    24 0.032903 -1.294774 -0.102672 -2.046379 -0.004466 0.045624
    25 0.250031 -2.820658 -0.238394 -0.623289 -0.088938 -0.136107
    26 -0.049187 -1.608001 0.063729 -1.109531 0.007173 -0.030668
    27 -0.033792 -1.193996 0.042160 -1.652630 -0.001324 -0.042455
    28 0.957769 -2.746773 -0.090297 -0.505939 -0.090425 -0.188449
    29 -0.033296 -1.395737 -0.025013 -0.828551 -0.110179 0.092049
    30 -0.021896 -0.964392 -0.011118 -1.165134 -0.000724 -0.055752
    31 -1.180678 -2.507215 -0.193858 -0.404064 0.138943 -0.096783
    32 -0.024978 -1.129404 0.016886 -1.230912 -0.001217 -0.052001
    33 -0.020518 -0.907372 0.039943 -1.273645 -0.000279 -0.052017
    34 0.604733 -1.198765 0.179235 0.767390 -0.961737 -1.160431
    35 1.518348 -0.137151 0.049418 0.009659 -0.140828 -0.462384
    36 1.058105 -0.135432 0.032545 0.030563 -0.175294 -0.710101
    37 8.077714 0.551390 -0.380279 1.569631 -3.116092 0.145596
    38 9.149851 -4.032235 -8.580168 1.473791 -0.376475 -1.908653
    39 19.969769 -3.188614 1.358406 0.000000 0.000000 0.001876
    40 19.980885 -9.112012 1.358410 0.000000 0.000000 0.001876
    41 19.969769 -3.188615 -1.358761 0.000000 0.000000 0.001876
    42 19.980885 -9.112012 -1.358759 0.000000 0.000000 0.001876
    43 37.513889 -5.706630 1.410832 0.000000 0.000000 0.250193
    44 37.508564 -6.442426 -1.387376 0.000000 0.000000 -0.219907
    45 35.189121 -4.252908 1.410833 0.000000 0.000000 1.489751
    46 36.333588 -4.422521 1.406492 0.000000 0.000000 1.297920
    47 37.098946 -4.867690 1.410831 0.000000 0.000000 0.717059
    48 37.097366 -7.233098 -1.387378 0.000000 0.000000 -0.735074
    49 37.508568 -6.442424 1.410833 0.000000 0.000000 -0.219907
    50 37.097366 -7.233096 1.410832 0.000000 0.000000 -0.735074
    51 36.336815 -7.703540 1.410831 0.000000 0.000000 -1.329474
    52 35.217106 -7.894967 1.410834 0.000000 0.000000 -1.474549
    53 36.336815 -7.703540 -1.387373 0.000000 0.000000 -1.329474
    54 35.217110 -7.894971 -1.387375 0.000000 0.000000 -1.474549
    55 35.189121 -4.252910 -1.387377 0.000000 0.000000 1.489751
    56 36.333584 -4.422519 -1.391716 0.000000 0.000000 1.297920
    57 37.098938 -4.867692 -1.387377 0.000000 0.000000 0.717059
    58 37.513882 -5.706630 -1.387377 0.000000 0.000000 0.250193
  time 9
    0 2.718833 1.984436 1.062532 0.000000 0.000000 -0.000066
    1 0.594023 -5.880855 -6.644562 0.460604 -3.359360 0.271182
    2 0.162284 -8.416177 -0.144684 0.083587 0.375032 0.214548
    3 0.447952 -2.798988 -0.200443 -0.958980 0.041380 0.006953
    4 -0.033095 -1.498205 0.034224 -1.586064 0.023071 -0.032020
    5 -0.027702 -1.133388 -0.022576 -1.342717 0.024769 -0.025414
    6 -0.249534 -2.846973 -0.174215 -0.944273 0.159702 0.001284
    7 0.043017 -1.655117 0.053581 -1.844976 -0.009171 0.009856
    8 0.031547 -1.143356 0.059665 -1.011678 -0.012853 0.005383
    9 -0.963866 -2.785151 -0.085346 -1.317149 0.216591 -0.167429
    10 0.028663 -1.405643 -0.021507 -1.095864 -0.030801 -0.036393
    11 0.021422 -0.938366 0.006881 -1.299865 -0.039884 -0.037721
    12 1.164473 -2.543945 -0.170328 -0.578316 -0.160057 0.096582
    13 0.023466 -1.146865 -0.008955 -1.223259 0.020205 0.060465
    14 0.014968 -0.896790 -0.020059 -0.762990 0.002039 0.038621
    15 -0.586772 -1.264479 0.200165 -0.408961 -0.704166 -2.791049
    16 1.566164 0.038315 -0.003232 -0.149534 -0.629027 0.760869
    17 1.113592 0.044559 -0.005883 -0.101267 -0.279551 1.563299
    18 -0.096429 -0.107794 0.014397 0.227209 -0.019375 1.541896
    19 -0.522363 8.936832 -0.219903 4.721445 -3.139240 1.468067
    20 12.259096 -0.116999 -7.415724 4.719899 -1.959962 0.818895
    21 -0.028949 -8.662804 -0.143205 0.407265 0.036558 0.902618
    22 -0.488515 -2.755602 -0.228256 -0.667590 -0.067442 -0.114705
    23 0.039936 -1.529655 0.013207 -1.413023 -0.012729 0.031191
    24 0.032903 -1.294774 -0.102672 -2.046379 -0.004466 0.045624
    25 0.250031 -2.820658 -0.238394 -0.623289 -0.088938 -0.136107
    26 -0.049187 -1.608001 0.063729 -1.109531 0.007173 -0.030668
    27 -0.033792 -1.193996 0.042160 -1.652630 -0.001324 -0.042455
    28 0.957769 -2.746773 -0.090297 -0.505939 -0.090425 -0.188449
    29 -0.033296 -1.395737 -0.025013 -0.828551 -0.110179 0.092049
    30 -0.021896 -0.964392 -0.011118 -1.165134 -0.000724 -0.055752
    31 -1.180678 -2.507215 -0.193858 -0.404064 0.138943 -0.096783
    32 -0.024978 -1.129404 0.016886 -1.230912 -0.001217 -0.052001
    33 -0.020518 -0.907372 0.039943 -1.273645 -0.000279 -0.052017
    34 0.604733 -1.198765 0.179235 0.767390 -0.961737 -1.160431
    35 1.518348 -0.137151 0.049418 0.009659 -0.140828 -0.462384
    36 1.058105 -0.135432 0.032545 0.030563 -0.175294 -0.710101
    37 8.077714 0.539671 -0.380279 1.569631 -3.116092 0.144316
    38 8.946720 -4.102550 -8.564543 1.465752 -0.375996 -1.908336
    39 20.559630 -3.188614 1.358406 0.000000 0.000000 0.001876
    40 19.441806 -9.112012 1.358410 0.000000 0.000000 0.001876
    41 20.559630 -3.188615 -1.358761 0.000000 0.000000 0.001876
    42 19.441806 -9.112012 -1.358759 0.000000 0.000000 0.001876
    43 37.412324 -6.093361 1.410832 0.000000 0.000000 -0.024560
    44 37.211680 -6.770561 -1.387376 0.000000 0.000000 -0.513464
    45 35.665698 -4.385725 1.410833 0.000000 0.000000 1.290363
    46 36.630472 -4.715499 1.406492 0.000000 0.000000 1.006915
    47 37.204418 -5.277859 1.410831 0.000000 0.000000 0.483754
    48 36.636415 -7.404978 -1.387378 0.000000 0.000000 -0.922822
    49 37.211684 -6.770559 1.410833 0.000000 0.000000 -0.513464
    50 36.636415 -7.404976 1.410832 0.000000 0.000000 -0.922822
    51 35.797736 -7.781667 1.410831 0.000000 0.000000 -1.385790
    52 34.689746 -7.926218 1.410834 0.000000 0.000000 -1.493652
    53 35.797736 -7.781667 -1.387373 0.000000 0.000000 -1.385790
    54 34.689750 -7.926222 -1.387375 0.000000 0.000000 -1.493652
    55 35.665698 -4.385727 -1.387377 0.000000 0.000000 1.290363
    56 36.630468 -4.715497 -1.391716 0.000000 0.000000 1.006915
    57 37.204410 -5.277861 -1.387377 0.000000 0.000000 0.483754
    58 37.412316 -6.093361 -1.387377 0.000000 0.000000 -0.024560
  time 10
    0 2.433668 2.031312 1.066439 0.000000 0.000000 -0.000066
    1 0.699495 -5.857417 -6.605498 0.459790 -3.363545 0.262561
    2 0.162284 -8.416177 -0.148590 0.083139 0.380081 0.205171
    3 0.447952 -2.798988 -0.200443 -0.957955 0.041368 0.006977
    4 -0.033095 -1.498205 0.034224 -1.586064 0.023071 -0.032020
    5 -0.027702 -1.133388 -0.022576 -1.342717 0.024769 -0.025414
    6 -0.249534 -2.846973 -0.174215 -0.943249 0.159726 0.001272
    7 0.043017 -1.655117 0.053581 -1.845154 -0.009147 0.010359
    8 0.031547 -1.143356 0.059665 -1.011483 -0.012361 0.005503
    9 -0.963866 -2.785151 -0.085346 -1.316128 0.216639 -0.167417
    10 0.028663 -1.405643 -0.021507 -1.095864 -0.030801 -0.036393
    11 0.021422 -0.938366 0.006881 -1.299865 -0.039884 -0.037721
    12 1.164473 -2.543945 -0.170328 -0.577279 -0.160082 0.096534
    13 0.023466 -1.146865 -0.008955 -1.223259 0.020205 0.060465
    14 0.014968 -0.896790 -0.020059 -0.762990 0.002039 0.038621
    15 -0.586772 -1.264479 0.200165 -0.411071 -0.716087 -2.786039
    16 1.566164 0.038315 -0.003232 -0.148769 -0.625225 0.767215
    17 1.113592 0.044559 -0.005883 -0.097648 -0.277706 1.543444
    18 -0.112054 -0.111700 0.014397 0.243856 -0.022622 1.552954
    19 -0.272355 8.952457 -0.212090 4.721158 -3.140005 1.437410
    20 12.255189 -0.113093 -7.400098 4.720186 -1.960221 0.818226
    21 -0.028949 -8.662804 -0.143205 0.408340 0.043139 0.905571
    22 -0.488515 -2.755602 -0.228256 -0.667590 -0.067442 -0.114705
    23 0.039936 -1.529655 0.013207 -1.413023 -0.012729 0.031191
    24 0.032903 -1.294774 -0.102672 -2.046379 -0.004466 0.045624
    25 0.250031 -2.820658 -0.238394 -0.623289 -0.088938 -0.136107
    26 -0.049187 -1.608001 0.063729 -1.109531 0.007173 -0.030668
    27 -0.033792 -1.193996 0.042160 -1.652630 -0.001324 -0.042455
    28 0.957769 -2.746773 -0.090297 -0.505939 -0.090425 -0.188449
    29 -0.033296 -1.395737 -0.025013 -0.828551 -0.110179 0.092049
    30 -0.021896 -0.964392 -0.011118 -1.165134 -0.000724 -0.055752
    31 -1.180678 -2.507215 -0.193858 -0.404064 0.138943 -0.096783
    32 -0.024978 -1.129404 0.016886 -1.230912 -0.001217 -0.052001
    33 -0.020518 -0.907372 0.039943 -1.273645 -0.000279 -0.052017
    34 0.604733 -1.198765 0.179235 0.767390 -0.961737 -1.160431
    35 1.518348 -0.137151 0.049418 0.009659 -0.140828 -0.462384
    36 1.058105 -0.135432 0.032545 0.030563 -0.175294 -0.710101
    37 8.077714 0.527952 -0.380279 1.569631 -3.116092 0.142695
    38 8.669368 -4.051767 -8.541104 1.458479 -0.375996 -1.908416
    39 21.657320 -3.188614 1.358406 0.000000 0.000000 0.001876
    40 18.437869 -9.112012 1.358410 0.000000 0.000000 0.001876
    41 21.657320 -3.188615 -1.358761 0.000000 0.000000 0.001876
    42 18.437869 -9.112012 -1.358759 0.000000 0.000000 0.001876
    43 37.220912 -6.819945 1.410832 0.000000 0.000000 -0.534833
    44 36.653069 -7.379955 -1.387376 0.000000 0.000000 -1.058661
    45 36.552444 -4.635732 1.410833 0.000000 0.000000 0.920058
    46 37.189083 -5.266297 1.406492 0.000000 0.000000 0.466457
    47 37.403642 -6.043507 1.410831 0.000000 0.000000 0.050459
    48 35.777014 -7.733113 -1.387378 0.000000 0.000000 -1.271509
    49 36.653073 -7.379952 1.410833 0.000000 0.000000 -1.058661
    50 35.777014 -7.733111 1.410832 0.000000 0.000000 -1.271509
    51 34.785986 -7.926203 1.410831 0.000000 0.000000 -1.490403
    52 33.705341 -7.988720 1.410834 0.000000 0.000000 -1.529151
    53 34.785986 -7.926203 -1.387373 0.000000 0.000000 -1.490403
    54 33.705345 -7.988724 -1.387375 0.000000 0.000000 -1.529151
    55 36.552444 -4.635734 -1.387377 0.000000 0.000000 0.920058
    56 37.189079 -5.266295 -1.391716 0.000000 0.000000 0.466457
    57 37.403635 -6.043509 -1.387377 0.000000 0.000000 0.050459
    58 37.220904 -6.819945 -1.387377 0.000000 0.000000 -0.534833
  time 11
    0 2.711020 1.992248 1.183630 0.000000 0.000000 -0.000066
    1 0.754184 -5.841791 -6.578154 0.460456 -3.365059 0.259591
    2 0.162284 -8.416177 -0.148590 0.083415 0.384793 0.202318
    3 0.447952 -2.798988 -0.200443 -0.956882 0.041356 0.007013
    4 -0.033095 -1.498205 0.034224 -1.586064 0.023071 -0.032020
    5 -0.027702 -1.133388 -0.022576 -1.342717 0.024769 -0.025414
    6 -0.249534 -2.846973 -0.174215 -0.942171 0.159738 0.001260
    7 0.043017 -1.655117 0.053581 -1.845333 -0.009123 0.010803
    8 0.031547 -1.143356 0.059665 -1.011320 -0.011930 0.005587
    9 -0.963866 -2.785151 -0.085346 -1.315050 0.216687 -0.167417
    10 0.028663 -1.405643 -0.021507 -1.095864 -0.030801 -0.036393
    11 0.021422 -0.938366 0.006881 -1.299865 -0.039884 -0.037721
    12 1.164473 -2.543945 -0.170328 -0.576196 -0.160094 0.096474
    13 0.023466 -1.146865 -0.008955 -1.223259 0.020205 0.060465
    14 0.014968 -0.896790 -0.020059 -0.762990 0.002039 0.038621
    15 -0.586772 -1.264479 0.200165 -0.413425 -0.728697 -2.780589
    16 1.566164 0.038315 -0.003232 -0.147928 -0.621187 0.773930
    17 1.113592 0.044559 -0.005883 -0.093860 -0.275668 1.522445
    18 -0.119867 -0.111700 0.014397 0.258099 -0.025391 1.562399
    19 -0.151258 8.952457 -0.208184 4.720966 -3.140293 1.422894
    20 12.263002 -0.109186 -7.392286 4.720759 -1.960135 0.817177
    21 -0.025043 -8.662804 -0.139298 0.408807 0.049139 0.908460
    22 -0.488515 -2.755602 -0.228256 -0.667590 -0.067442 -0.114705
    23 0.039936 -1.529655 0.013207 -1.413023 -0.012729 0.031191
    24 0.032903 -1.294774 -0.102672 -2.046379 -0.004466 0.045624
    25 0.250031 -2.820658 -0.238394 -0.623289 -0.088938 -0.136107
    26 -0.049187 -1.608001 0.063729 -1.109531 0.007173 -0.030668
    27 -0.033792 -1.193996 0.042160 -1.652630 -0.001324 -0.042455
    28 0.957769 -2.746773 -0.090297 -0.505939 -0.090425 -0.188449
    29 -0.033296 -1.395737 -0.025013 -0.828551 -0.110179 0.092049
    30 -0.021896 -0.964392 -0.011118 -1.165134 -0.000724 -0.055752
    31 -1.180678 -2.507215 -0.193858 -0.404064 0.138943 -0.096783
    32 -0.024978 -1.129404 0.016886 -1.230912 -0.001217 -0.052001
    33 -0.020518 -0.907372 0.039943 -1.273645 -0.000279 -0.052017
    34 0.604733 -1.198765 0.179235 0.767390 -0.961737 -1.160431
    35 1.518348 -0.137151 0.049418 0.009659 -0.140828 -0.462384
    36 1.058105 -0.135432 0.032545 0.030563 -0.175294 -0.710101
    37 8.077714 0.512326 -0.380279 1.569727 -3.115996 0.140817
    38 8.950626 -4.083018 -8.408288 1.452068 -0.376667 -1.909050
    39 22.247182 -3.184708 1.358406 0.000000 0.000000 0.001876
    40 17.898790 -9.115918 1.358410 0.000000 0.000000 0.001876
    41 22.247182 -3.184709 -1.358761 0.000000 0.000000 0.001876
    42 17.898790 -9.115918 -1.358759 0.000000 0.000000 0.001876
    43 37.119346 -7.210582 1.410832 0.000000 0.000000 -0.809618
    44 36.352279 -7.708090 -1.387376 0.000000 0.000000 -1.352253
    45 37.029021 -4.772455 1.410833 0.000000 0.000000 0.720646
    46 37.489873 -5.563181 1.406492 0.000000 0.000000 0.175418
    47 37.513021 -6.453676 1.410831 0.000000 0.000000 -0.182846
    48 35.312156 -7.908900 -1.387378 0.000000 0.000000 -1.459279
    49 36.352283 -7.708087 1.410833 0.000000 0.000000 -1.352253
    50 35.312156 -7.908898 1.410832 0.000000 0.000000 -1.459279
    51 34.243001 -8.004330 1.410831 0.000000 0.000000 -1.546731
    52 33.177981 -8.023877 1.410834 0.000000 0.000000 -1.548266
    53 34.243001 -8.004330 -1.387373 0.000000 0.000000 -1.546731
    54 33.177985 -8.023881 -1.387375 0.000000 0.000000 -1.548266
    55 37.029021 -4.772457 -1.387377 0.000000 0.000000 0.720646
    56 37.489869 -5.563179 -1.391716 0.000000 0.000000 0.175418
    57 37.513013 -6.453678 -1.387377 0.000000 0.000000 -0.182846
    58 37.119338 -7.210582 -1.387377 0.000000 0.000000 -0.809618
  time 12
    0 2.961028 1.984436 1.062532 0.000000 0.000000 -0.000066
    1 0.719027 -5.841791 -6.578154 0.464012 -3.361675 0.267159
    2 0.162284 -8.416177 -0.148590 0.084172 0.389506 0.211165
    3 0.447952 -2.798988 -0.200443 -0.955833 0.041344 0.007037
    4 -0.033095 -1.498205 0.034224 -1.586064 0.023071 -0.032020
    5 -0.027702 -1.133388 -0.022576 -1.342717 0.024769 -0.025414
    6 -0.249534 -2.846973 -0.174215 -0.941120 0.159750 0.001248
    7 0.043017 -1.655117 0.053581 -1.845467 -0.009099 0.011150
    8 0.031547 -1.143356 0.059665 -1.011190 -0.011582 0.005647
    9 -0.963866 -2.785151 -0.085346 -1.314028 0.216735 -0.167417
    10 0.028663 -1.405643 -0.021507 -1.095864 -0.030801 -0.036393
    11 0.021422 -0.938366 0.006881 -1.299865 -0.039884 -0.037721
    12 1.164473 -2.543945 -0.170328 -0.575144 -0.160106 0.096414
    13 0.023466 -1.146865 -0.008955 -1.223259 0.020205 0.060465
    14 0.014968 -0.896790 -0.020059 -0.762990 0.002039 0.038621
    15 -0.586772 -1.264479 0.200165 -0.415779 -0.740914 -2.775227
    16 1.566164 0.038315 -0.003232 -0.147087 -0.617295 0.780399
    17 1.113592 0.044559 -0.005883 -0.090229 -0.273619 1.502085
    18 -0.127680 -0.111700 0.014397 0.269632 -0.027632 1.570053
    19 -0.276261 8.948551 -0.212090 4.721158 -3.140005 1.437888
    20 12.274721 -0.105280 -7.396192 4.721620 -1.959444 0.815936
    21 -0.025043 -8.662804 -0.139298 0.408480 0.054559 0.911349
    22 -0.488515 -2.755602 -0.228256 -0.667590 -0.067442 -0.114705
    23 0.039936 -1.529655 0.013207 -1.413023 -0.012729 0.031191
    24 0.032903 -1.294774 -0.102672 -2.046379 -0.004466 0.045624
    25 0.250031 -2.820658 -0.238394 -0.623289 -0.088938 -0.136107
    26 -0.049187 -1.608001 0.063729 -1.109531 0.007173 -0.030668
    27 -0.033792 -1.193996 0.042160 -1.652630 -0.001324 -0.042455
    28 0.957769 -2.746773 -0.090297 -0.505939 -0.090425 -0.188449
    29 -0.033296 -1.395737 -0.025013 -0.828551 -0.110179 0.092049
    30 -0.021896 -0.964392 -0.011118 -1.165134 -0.000724 -0.055752
    31 -1.180678 -2.507215 -0.193858 -0.404064 0.138943 -0.096783
    32 -0.024978 -1.129404 0.016886 -1.230912 -0.001217 -0.052001
    33 -0.020518 -0.907372 0.039943 -1.273645 -0.000279 -0.052017
    34 0.604733 -1.198765 0.179235 0.767390 -0.961737 -1.160431
    35 1.518348 -0.137151 0.049418 0.009659 -0.140828 -0.462384
    36 1.058105 -0.135432 0.032545 0.030563 -0.175294 -0.710101
    37 8.077714 0.496701 -0.380279 1.569727 -3.115996 0.138855
    38 9.216260 -4.083018 -8.521573 1.446421 -0.378201 -1.910398
    39 19.969769 -3.188614 1.358406 0.000000 0.000000 0.001876
    40 19.980885 -9.112012 1.358410 0.000000 0.000000 0.001876
    41 19.969769 -3.188615 -1.358761 0.000000 0.000000 0.001876
    42 19.980885 -9.112012 -1.358759 0.000000 0.000000 0.001876
    43 37.513889 -5.706630 1.410832 0.000000 0.000000 0.250193
    44 37.508564 -6.442426 -1.387376 0.000000 0.000000 -0.219907
    45 35.189121 -4.252908 1.410833 0.000000 0.000000 1.489751
    46 36.333588 -4.422521 1.406492 0.000000 0.000000 1.297920
    47 37.098946 -4.867690 1.410831 0.000000 0.000000 0.717059
    48 37.097366 -7.233098 -1.387378 0.000000 0.000000 -0.735074
    49 37.508568 -6.442424 1.410833 0.000000 0.000000 -0.219907
    50 37.097366 -7.233096 1.410832 0.000000 0.000000 -0.735074
    51 36.336815 -7.703540 1.410831 0.000000 0.000000 -1.329474
    52 35.217106 -7.894967 1.410834 0.000000 0.000000 -1.474549
    53 36.336815 -7.703540 -1.387373 0.000000 0.000000 -1.329474
    54 35.217110 -7.894971 -1.387375 0.000000 0.000000 -1.474549
    55 35.189121 -4.252910 -1.387377 0.000000 0.000000 1.489751
    56 36.333584 -4.422519 -1.391716 0.000000 0.000000 1.297920
    57 37.098938 -4.867692 -1.387377 0.000000 0.000000 0.717059
    58 37.513882 -5.706630 -1.387377 0.000000 0.000000 0.250193
  time 13
    0 2.746178 2.031312 1.066439 0.000000 0.000000 -0.000066
    1 0.625274 -5.857417 -6.597686 0.469346 -3.354818 0.282007
    2 0.162284 -8.412270 -0.148590 0.085515 0.394522 0.228410
    3 0.447952 -2.798988 -0.200443 -0.954903 0.041332 0.007061
    4 -0.033095 -1.498205 0.034224 -1.586064 0.023071 -0.032020
    5 -0.027702 -1.133388 -0.022576 -1.342717 0.024769 -0.025414
    6 -0.249534 -2.846973 -0.174215 -0.940204 0.159774 0.001236
    7 0.043017 -1.655117 0.053581 -1.845557 -0.009075 0.011402
    8 0.031547 -1.143356 0.059665 -1.011076 -0.011331 0.005695
    9 -0.963866 -2.785151 -0.085346 -1.313092 0.216783 -0.167405
    10 0.028663 -1.405643 -0.021507 -1.095864 -0.030801 -0.036393
    11 0.021422 -0.938366 0.006881 -1.299865 -0.039884 -0.037721
    12 1.164473 -2.543945 -0.170328 -0.574213 -0.160131 0.096366
    13 0.023466 -1.146865 -0.008955 -1.223259 0.020205 0.060465
    14 0.014968 -0.896790 -0.020059 -0.762990 0.002039 0.038621
    15 -0.586772 -1.264479 0.200165 -0.417971 -0.751666 -2.770393
    16 1.566164 0.038315 -0.003232 -0.146309 -0.613855 0.786098
    17 1.113592 0.044559 -0.005883 -0.087077 -0.271761 1.484183
    18 -0.135493 -0.111700 0.014397 0.278201 -0.029298 1.575753
    19 -0.565333 8.936832 -0.219903 4.721541 -3.139144 1.473129
    20 12.294253 -0.101373 -7.411817 4.722959 -1.958235 0.814313
    21 -0.025043 -8.662804 -0.139298 0.407171 0.059591 0.914175
    22 -0.488515 -2.755602 -0.228256 -0.667590 -0.067442 -0.114705
    23 0.039936 -1.529655 0.013207 -1.413023 -0.012729 0.031191
    24 0.032903 -1.294774 -0.102672 -2.046379 -0.004466 0.045624
    25 0.250031 -2.820658 -0.238394 -0.623289 -0.088938 -0.136107
    26 -0.049187 -1.608001 0.063729 -1.109531 0.007173 -0.030668
    27 -0.033792 -1.193996 0.042160 -1.652630 -0.001324 -0.042455
    28 0.957769 -2.746773 -0.090297 -0.505939 -0.090425 -0.188449
    29 -0.033296 -1.395737 -0.025013 -0.828551 -0.110179 0.092049
    30 -0.021896 -0.964392 -0.011118 -1.165134 -0.000724 -0.055752
    31 -1.180678 -2.507215 -0.193858 -0.404064 0.138943 -0.096783
    32 -0.024978 -1.129404 0.016886 -1.230912 -0.001217 -0.052001
    33 -0.020518 -0.907372 0.039943 -1.273645 -0.000279 -0.052017
    34 0.604733 -1.198765 0.179235 0.767390 -0.961737 -1.160431
    35 1.518348 -0.137151 0.049418 0.009659 -0.140828 -0.462384
    36 1.058105 -0.135432 0.032545 0.030563 -0.175294 -0.710101
    37 8.077714 0.481075 -0.380279 1.569727 -3.115996 0.136892
    38 9.020941 -4.032235 -8.521573 1.441541 -0.380789 -1.912618
    39 20.559630 -3.188614 1.358406 0.000000 0.000000 0.001876
    40 19.441806 -9.112012 1.358410 0.000000 0.000000 0.001876
    41 20.559630 -3.188615 -1.358761 0.000000 0.000000 0.001876
    42 19.441806 -9.112012 -1.358759 0.000000 0.000000 0.001876
    43 37.412324 -6.093361 1.410832 0.000000 0.000000 -0.024560
    44 37.211680 -6.770561 -1.387376 0.000000 0.000000 -0.513464
    45 35.665698 -4.385725 1.410833 0.000000 0.000000 1.290363
    46 36.630472 -4.715499 1.406492 0.000000 0.000000 1.006915
    47 37.204418 -5.277859 1.410831 0.000000 0.000000 0.483754
    48 36.636415 -7.404978 -1.387378 0.000000 0.000000 -0.922822
    49 37.211684 -6.770559 1.410833 0.000000 0.000000 -0.513464
    50 36.636415 -7.404976 1.410832 0.000000 0.000000 -0.922822
    51 35.797736 -7.781667 1.410831 0.000000 0.000000 -1.385790
    52 34.689746 -7.926218 1.410834 0.000000 0.000000 -1.493652
    53 35.797736 -7.781667 -1.387373 0.000000 0.000000 -1.385790
    54 34.689750 -7.926222 -1.387375 0.000000 0.000000 -1.493652
    55 35.665698 -4.385727 -1.387377 0.000000 0.000000 1.290363
    56 36.630468 -4.715497 -1.391716 0.000000 0.000000 1.006915
    57 37.204410 -5.277861 -1.387377 0.000000 0.000000 0.483754
    58 37.412316 -6.093361 -1.387377 0.000000 0.000000 -0.024560
  time 14
    0 2.660237 1.992248 0.867214 0.000000 0.000000 -0.000066
    1 0.500270 -5.873042 -6.621124 0.475570 -3.346358 0.299825
    2 0.158378 -8.408364 -0.152496 0.087478 0.400076 0.249774
    3 0.447952 -2.798988 -0.200443 -0.954212 0.041320 0.007073
    4 -0.033095 -1.498205 0.034224 -1.586064 0.023071 -0.032020
    5 -0.027702 -1.133388 -0.022576 -1.342717 0.024769 -0.025414
    6 -0.249534 -2.846973 -0.174215 -0.939503 0.159774 0.001224
    7 0.043017 -1.655117 0.053581 -1.845646 -0.009051 0.011570
    8 0.031547 -1.143356 0.059665 -1.011027 -0.011175 0.005719
    9 -0.963866 -2.785151 -0.085346 -1.312382 0.216807 -0.167405
    10 0.028663 -1.405643 -0.021507 -1.095864 -0.030801 -0.036393
    11 0.021422 -0.938366 0.006881 -1.299865 -0.039884 -0.037721
    12 1.164473 -2.543945 -0.170328 -0.573512 -0.160131 0.096318
    13 0.023466 -1.146865 -0.008955 -1.223259 0.020205 0.060465
    14 0.014968 -0.896790 -0.020059 -0.762990 0.002039 0.038621
    15 -0.586772 -1.264479 0.200165 -0.419676 -0.759854 -2.766701
    16 1.566164 0.038315 -0.003232 -0.145710 -0.611248 0.790442
    17 1.113592 0.044559 -0.005883 -0.084692 -0.270299 1.470553
    18 -0.139399 -0.111700 0.014397 0.283553 -0.030340 1.579287
    19 -0.924719 8.901674 -0.227716 4.721925 -3.137995 1.517156
    20 12.321598 -0.101373 -7.443068 4.724681 -1.956421 0.812500
    21 -0.025043 -8.662804 -0.139298 0.404694 0.064171 0.917065
    22 -0.488515 -2.755602 -0.228256 -0.667590 -0.067442 -0.114705
    23 0.039936 -1.529655 0.013207 -1.413023 -0.012729 0.031191
    24 0.032903 -1.294774 -0.102672 -2.046379 -0.004466 0.045624
    25 0.250031 -2.820658 -0.238394 -0.623289 -0.088938 -0.136107
    26 -0.049187 -1.608001 0.063729 -1.109531 0.007173 -0.030668
    27 -0.033792 -1.193996 0.042160 -1.652630 -0.001324 -0.042455
    28 0.957769 -2.746773 -0.090297 -0.505939 -0.090425 -0.188449
    29 -0.033296 -1.395737 -0.025013 -0.828551 -0.110179 0.092049
    30 -0.021896 -0.964392 -0.011118 -1.165134 -0.000724 -0.055752
    31 -1.180678 -2.507215 -0.193858 -0.404064 0.138943 -0.096783
    32 -0.024978 -1.129404 0.016886 -1.230912 -0.001217 -0.052001
    33 -0.020518 -0.907372 0.039943 -1.273645 -0.000279 -0.052017
    34 0.604733 -1.198765 0.179235 0.767390 -0.961737 -1.160431
    35 1.518348 -0.137151 0.049418 0.009659 -0.140828 -0.462384
    36 1.058105 -0.135432 0.032545 0.030563 -0.175294 -0.710101
    37 8.077714 0.465450 -0.380279 1.569727 -3.115900 0.135100
    38 8.966252 -4.071299 -8.732517 1.437330 -0.384432 -1.915790
    39 21.657320 -3.188614 1.358406 0.000000 0.000000 0.001876
    40 18.437869 -9.112012 1.358410 0.000000 0.000000 0.001876
    41 21.657320 -3.188615 -1.358761 0.000000 0.000000 0.001876
    42 18.437869 -9.112012 -1.358759 0.000000 0.000000 0.001876
    43 37.220912 -6.819945 1.410832 0.000000 0.000000 -0.534833
    44 36.653069 -7.379955 -1.387376 0.000000 0.000000 -1.058661
    45 36.552444 -4.635732 1.410833 0.000000 0.000000 0.920058
    46 37.189083 -5.266297 1.406492 0.000000 0.000000 0.466457
    47 37.403642 -6.043507 1.410831 0.000000 0.000000 0.050459
    48 35.777014 -7.733113 -1.387378 0.000000 0.000000 -1.271509
    49 36.653073 -7.379952 1.410833 0.000000 0.000000 -1.058661
    50 35.777014 -7.733111 1.410832 0.000000 0.000000 -1.271509
    51 34.785986 -7.926203 1.410831 0.000000 0.000000 -1.490403
    52 33.705341 -7.988720 1.410834 0.000000 0.000000 -1.529151
    53 34.785986 -7.926203 -1.387373 0.000000 0.000000 -1.490403
    54 33.705345 -7.988724 -1.387375 0.000000 0.000000 -1.529151
    55 36.552444 -4.635734 -1.387377 0.000000 0.000000 0.920058
    56 37.189079 -5.266295 -1.391716 0.000000 0.000000 0.466457
    57 37.403635 -6.043509 -1.387377 0.000000 0.000000 0.050459
    58 37.220904 -6.819945 -1.387377 0.000000 0.000000 -0.534833
  time 15
    0 2.402417 1.984436 1.195349 0.000000 0.000000 -0.000066
    1 -0.706798 -6.166020 -7.214892 0.461493 -3.309045 0.366020
    2 0.146659 -8.400551 -0.109526 0.148871 0.239746 0.326543
    3 0.447952 -2.798988 -0.200443 -0.953664 0.040661 0.006198
    4 -0.033095 -1.498205 0.034224 -1.588343 0.023071 -0.032091
    5 -0.027702 -1.133388 -0.022576 -1.345284 0.024781 -0.025486
    6 -0.249534 -2.846973 -0.174215 -0.938937 0.159786 0.001224
    7 0.043017 -1.655117 0.053581 -1.845378 -0.008200 0.003156
    8 0.027641 -1.143356 0.059665 -1.017395 -0.019109 0.002651
    9 -0.963866 -2.785151 -0.085346 -1.311815 0.216831 -0.167405
    10 0.028663 -1.405643 -0.021507 -1.095864 -0.030801 -0.036393
    11 0.021422 -0.938366 0.006881 -1.304740 -0.040112 -0.037745
    12 1.164473 -2.543945 -0.170328 -0.570858 -0.160391 0.094461
    13 0.023466 -1.146865 -0.008955 -1.223259 0.020205 0.060465
    14 0.014968 -0.896790 -0.020059 -0.762990 0.002039 0.038621
    15 -0.586772 -1.264479 0.200165 -0.445001 -0.821905 -2.726972
    16 1.570070 0.038315 -0.003232 -0.140701 -0.591314 0.823464
    17 1.113592 0.044559 -0.005883 -0.067207 -0.258171 1.366501
    18 0.063732 -0.088262 0.010491 0.012637 0.022344 1.399484
    19 -3.416982 8.218060 -0.294124 1.581764 -0.011820 -1.308986
    20 12.266909 -0.199033 -7.696982 4.714351 -1.955299 0.831875
    21 -0.048481 -8.670617 -0.162737 0.390111 -0.065894 0.858652
    22 -0.488515 -2.755602 -0.228256 -0.667590 -0.067442 -0.114705
    23 0.039936 -1.529655 0.013207 -1.413023 -0.012729 0.031191
    24 0.032903 -1.294774 -0.102672 -2.046379 -0.004466 0.045624
    25 0.250031 -2.820658 -0.238394 -0.623289 -0.088938 -0.136107
    26 -0.049187 -1.608001 0.063729 -1.109531 0.007173 -0.030668
    27 -0.033792 -1.193996 0.042160 -1.652630 -0.001324 -0.042455
    28 0.957769 -2.746773 -0.090297 -0.505939 -0.090425 -0.188449
    29 -0.033296 -1.395737 -0.025013 -0.828551 -0.110179 0.092049
    30 -0.021896 -0.964392 -0.011118 -1.165134 -0.000724 -0.055752
    31 -1.180678 -2.507215 -0.193858 -0.404064 0.138943 -0.096783
    32 -0.024978 -1.129404 0.016886 -1.230912 -0.001217 -0.052001
    33 -0.020518 -0.907372 0.039943 -1.273645 -0.000279 -0.052017
    34 0.604733 -1.198765 0.179235 0.767390 -0.961737 -1.160431
    35 1.518348 -0.137151 0.049418 0.009659 -0.140828 -0.462384
    36 1.058105 -0.135432 0.032545 0.030563 -0.175294 -0.710101
    37 8.081620 0.777959 -0.376373 1.569248 -3.116571 0.173328
    38 8.583428 -4.239273 -8.767674 -1.563892 -2.764161 1.233512
    39 19.969769 -3.188614 1.358406 0.000000 0.000000 0.001876
    40 19.980885 -9.112012 1.358410 0.000000 0.000000 0.001876
    41 19.969769 -3.188615 -1.358761 0.000000 0.000000 0.001876
    42 19.980885 -9.112012 -1.358759 0.000000 0.000000 0.001876
    43 37.513889 -5.706630 1.410832 0.000000 0.000000 0.250193
    44 37.508564 -6.442426 -1.387376 0.000000 0.000000 -0.219907
    45 35.189121 -4.252908 1.410833 0.000000 0.000000 1.489751
    46 36.333588 -4.422521 1.406492 0.000000 0.000000 1.297920
    47 37.098946 -4.867690 1.410831 0.000000 0.000000 0.717059
    48 37.097366 -7.233098 -1.387378 0.000000 0.000000 -0.735074
    49 37.508568 -6.442424 1.410833 0.000000 0.000000 -0.219907
    50 37.097366 -7.233096 1.410832 0.000000 0.000000 -0.735074
    51 36.336815 -7.703540 1.410831 0.000000 0.000000 -1.329474
    52 35.217106 -7.894967 1.410834 0.000000 0.000000 -1.474549
    53 36.336815 -7.703540 -1.387373 0.000000 0.000000 -1.329474
    54 35.217110 -7.894971 -1.387375 0.000000 0.000000 -1.474549
    55 35.189121 -4.252910 -1.387377 0.000000 0.000000 1.489751
    56 36.333584 -4.422519 -1.391716 0.000000 0.000000 1.297920
    57 37.098938 -4.867692 -1.387377 0.000000 0.000000 0.717059
    58 37.513882 -5.706630 -1.387377 0.000000 0.000000 0.250193
end
