version 1
nodes
  0 "Bone02" -1
  1 "Bone03" 0
  2 "Bone50" 1
  3 "Bone52" 1
  4 "Bone48" 1
  5 "Bone25" 1
  6 "Bone54" 1
  7 "root" -1
  8 "Bone01" 7
  9 "Bone_L_Upper" 8
  10 "Bone_Lefthand" 8
  11 "Bone13" 10
  12 "Bone14" 11
  13 "Bone15" 12
  14 "Bone17" 10
  15 "Bone18" 14
  16 "Bone19" 15
  17 "Bone21" 10
  18 "Bone22" 17
  19 "Bone23" 18
  20 "Bone09" 10
  21 "Bone10" 20
  22 "Bone11" 21
  23 "Bone05" 10
  24 "Bone06" 23
  25 "Bone07" 24
  26 "Bone_Se_Hand-L" 10
  27 "Bone04" 7
  28 "Bone_Righthand" 27
  29 "Bone39" 28
  30 "Bone40" 29
  31 "Bone41" 30
  32 "Bone35" 28
  33 "Bone36" 32
  34 "Bone37" 33
  35 "Bone31" 28
  36 "Bone32" 35
  37 "Bone33" 36
  38 "Bone43" 28
  39 "Bone44" 38
  40 "Bone45" 39
  41 "Bone27" 28
  42 "Bone28" 41
  43 "Bone29" 42
  44 "Bone_Se_Hand-R" 28
  45 "Bone_R_Upper" 27
end
skeleton
  time 0
    0 2.992485 -8.290123 -12.423668 0.721601 -0.099605 -0.064342
    1 0.000000 2.286976 0.873885 0.000000 0.000000 0.000000
    2 0.000000 -0.743733 1.487464 0.000000 0.000000 0.000000
    3 0.000000 -1.227157 2.045263 0.000000 0.000000 0.000000
    4 0.000001 -1.580431 1.264344 0.000000 0.000000 0.000000
    5 0.000000 -2.844775 1.022632 0.000000 0.000000 0.000000
    6 0.024938 -1.409605 0.862229 0.000000 0.000000 0.000000
    7 1.548076 5.823131 -6.425358 0.000000 0.000000 0.216777
    8 4.845123 -4.655063 -3.928789 0.047763 -1.945306 -0.712070
    9 5.800287 6.379699 -0.259185 1.565234 -3.132029 0.934130
    10 -0.005513 -8.432328 -0.084602 0.133461 0.449756 -0.606461
    11 -0.488518 -2.755602 -0.228260 -0.317159 0.118912 -0.274953
    12 0.039887 -1.554011 0.029854 -2.186484 -0.000036 0.046957
    13 0.028786 -1.118701 -0.097330 -0.661479 -0.012416 0.012296
    14 0.250027 -2.820665 -0.238396 -0.279241 0.001645 -0.191604
    15 -0.049759 -1.598510 0.006726 -1.867416 -0.007071 -0.047137
    16 -0.034142 -1.175657 0.045718 -1.221971 0.005992 -0.032239
    17 0.957766 -2.746780 -0.090302 0.020387 -0.095283 -0.001682
    18 -0.033420 -1.397129 -0.015163 -0.231150 0.005513 -0.011051
    19 -0.022360 -0.961342 -0.004654 -0.890998 0.005405 -0.043372
    20 -1.180681 -2.507217 -0.193859 -0.363374 0.387812 -0.251394
    21 -0.024967 -1.127840 0.017597 -1.854825 -0.023885 -0.068491
    22 -0.020057 -0.902687 0.025715 -0.804503 0.007526 -0.032298
    23 0.610855 -1.189464 0.177566 0.581784 -0.757762 -0.601920
    24 1.481238 -0.212417 0.067511 0.047263 -0.212451 -0.757364
    25 1.038269 -0.155634 0.036197 0.051434 -0.205466 -0.844507
    26 0.120153 -0.050270 -0.054489 0.287569 3.110905 1.561085
    27 -4.782625 -4.535926 -8.595296 1.361642 -4.109407 1.253757
    28 0.069599 -8.305883 -0.130462 -0.350007 0.182454 0.583527
    29 0.447953 -2.798986 -0.200443 -0.678697 0.009067 0.255279
    30 -0.032909 -1.499736 0.020565 -1.178410 0.022351 -0.020516
    31 -0.027022 -1.100358 -0.028023 -0.639531 0.016203 -0.007754
    32 -0.249534 -2.846964 -0.174213 -0.258956 -0.005614 -0.009379
    33 0.043235 -1.656596 0.076480 -1.170445 -0.019025 0.003656
    34 0.031729 -1.141298 0.054932 -1.115535 -0.012397 0.006167
    35 -0.963866 -2.785145 -0.085350 -0.126634 0.161209 -0.196410
    36 0.028479 -1.410880 -0.024980 -1.200577 -0.035379 -0.037608
    37 0.021413 -0.949968 0.020046 -0.506666 -0.009240 -0.020889
    38 1.164475 -2.543940 -0.170330 -0.918692 -0.005888 0.531366
    39 0.024032 -1.140761 -0.005631 -1.070107 0.013746 0.054771
    40 0.014898 -0.899614 -0.015942 -0.870242 0.004698 0.044031
    41 -0.586770 -1.264477 0.200161 -0.194841 -0.420364 -2.653225
    42 1.534554 0.046962 0.016848 -0.003755 0.001387 0.277836
    43 1.117947 0.048424 -0.005766 -0.009399 -0.031730 0.417495
    44 -0.139399 -0.111698 0.014397 0.285382 -0.030687 1.580508
    45 -8.206178 -0.047813 -0.477722 1.564109 -0.037309 -0.071705
  time 1
    0 3.012017 -8.661228 -11.243945 0.631444 -0.079154 -0.052413
    1 0.000000 2.286976 0.873885 0.000000 0.000000 0.000000
    2 0.000000 -0.743733 1.487464 0.000000 0.000000 0.000000
    3 0.000000 -1.227157 2.045263 0.000000 0.000000 0.000000
    4 0.000001 -1.580431 1.264344 0.000000 0.000000 0.000000
    5 0.000000 -2.844775 1.022632 0.000000 0.000000 0.000000
    6 0.024938 -1.409605 0.862229 0.000000 0.000000 0.000000
    7 1.548076 5.823131 -6.425358 0.000000 0.000000 0.216777
    8 4.809966 -4.850381 -3.659250 0.238985 -1.964517 -0.883717
    9 5.929198 6.239070 -0.263091 1.565138 -3.131454 0.910431
    10 -0.009419 -8.432328 -0.084602 0.140995 0.447510 -0.586278
    11 -0.488518 -2.755602 -0.228260 -0.317159 0.118912 -0.274953
    12 0.039887 -1.554011 0.029854 -2.186484 -0.000036 0.046957
    13 0.028786 -1.118701 -0.097330 -0.661479 -0.012416 0.012296
    14 0.250027 -2.820665 -0.238396 -0.279241 0.001645 -0.191604
    15 -0.049759 -1.598510 0.006726 -1.867416 -0.007071 -0.047137
    16 -0.034142 -1.175657 0.045718 -1.221971 0.005992 -0.032239
    17 0.957766 -2.746780 -0.090302 0.020387 -0.095283 -0.001682
    18 -0.033420 -1.397129 -0.015163 -0.231150 0.005513 -0.011051
    19 -0.022360 -0.961342 -0.004654 -0.890998 0.005405 -0.043372
    20 -1.180681 -2.507217 -0.193859 -0.363374 0.387812 -0.251394
    21 -0.024967 -1.127840 0.017597 -1.854825 -0.023885 -0.068491
    22 -0.020057 -0.902687 0.025715 -0.804503 0.007526 -0.032298
    23 0.610855 -1.189464 0.177566 0.581784 -0.757762 -0.601920
    24 1.481238 -0.212417 0.067511 0.047263 -0.212451 -0.757364
    25 1.038269 -0.155634 0.036197 0.051434 -0.205466 -0.844507
    26 0.120153 -0.050270 -0.054489 0.287569 3.110905 1.561085
    27 -4.849034 -5.223447 -8.110906 1.387944 -4.015683 1.278767
    28 0.069599 -8.301976 -0.138275 -0.352581 0.215125 0.591559
    29 0.447953 -2.798986 -0.200443 -0.678697 0.009067 0.255279
    30 -0.032909 -1.499736 0.020565 -1.178410 0.022351 -0.020516
    31 -0.027022 -1.100358 -0.028023 -0.639531 0.016203 -0.007754
    32 -0.249534 -2.846964 -0.174213 -0.258956 -0.005614 -0.009379
    33 0.043235 -1.656596 0.076480 -1.170445 -0.019025 0.003656
    34 0.031729 -1.141298 0.054932 -1.115535 -0.012397 0.006167
    35 -0.963866 -2.785145 -0.085350 -0.126634 0.161209 -0.196410
    36 0.028479 -1.410880 -0.024980 -1.200577 -0.035379 -0.037608
    37 0.021413 -0.949968 0.020046 -0.506666 -0.009240 -0.020889
    38 1.164475 -2.543940 -0.170330 -0.918692 -0.005888 0.531366
    39 0.024032 -1.140761 -0.005631 -1.070107 0.013746 0.054771
    40 0.014898 -0.899614 -0.015942 -0.870242 0.004710 0.044031
    41 -0.586770 -1.264477 0.200161 -0.210757 -0.482421 -2.609928
    42 1.538460 0.043056 0.016848 -0.005194 -0.000039 0.348953
    43 1.114041 0.048424 -0.005766 -0.011497 -0.032640 0.488489
    44 -0.139399 -0.111698 0.014397 0.285382 -0.030687 1.580508
    45 -8.233523 0.385794 -0.473815 1.565416 -0.036806 -0.124515
  time 2
    0 3.082331 -8.938580 -10.017345 0.542519 -0.058309 -0.037924
    1 0.000000 2.286976 0.873885 0.000000 0.000000 0.000000
    2 0.000000 -0.743733 1.487464 0.000000 0.000000 0.000000
    3 0.000000 -1.227157 2.045263 0.000000 0.000000 0.000000
    4 0.000001 -1.580431 1.264344 0.000000 0.000000 0.000000
    5 0.000000 -2.844775 1.022632 0.000000 0.000000 0.000000
    6 0.024938 -1.409605 0.862229 0.000000 0.000000 0.000000
    7 1.548076 5.823131 -6.425358 0.000000 0.000000 0.216777
    8 4.798247 -5.026168 -3.385804 0.417188 -1.997249 -1.042346
    9 6.089359 6.063284 -0.266998 1.565042 -3.130879 0.881185
    10 -0.013325 -8.436234 -0.084602 0.151188 0.446777 -0.571465
    11 -0.488518 -2.755602 -0.228260 -0.317159 0.118912 -0.274953
    12 0.039887 -1.554011 0.029854 -2.186484 -0.000036 0.046957
    13 0.028786 -1.118701 -0.097330 -0.661479 -0.012416 0.012296
    14 0.250027 -2.820665 -0.238396 -0.279241 0.001645 -0.191604
    15 -0.049759 -1.598510 0.006726 -1.867416 -0.007071 -0.047137
    16 -0.034142 -1.175657 0.045718 -1.221971 0.005992 -0.032239
    17 0.957766 -2.746780 -0.090302 0.020387 -0.095283 -0.001682
    18 -0.033420 -1.397129 -0.015163 -0.231150 0.005513 -0.011051
    19 -0.022360 -0.961342 -0.004654 -0.890998 0.005405 -0.043372
    20 -1.180681 -2.507217 -0.193859 -0.363374 0.387812 -0.251394
    21 -0.024967 -1.127840 0.017597 -1.854825 -0.023885 -0.068491
    22 -0.020057 -0.902687 0.025715 -0.804503 0.007526 -0.032298
    23 0.610855 -1.189464 0.177566 0.581784 -0.757762 -0.601920
    24 1.481238 -0.212417 0.067511 0.047263 -0.212451 -0.757364
    25 1.038269 -0.155634 0.036197 0.051434 -0.205466 -0.844507
    26 0.120153 -0.050270 -0.054489 0.287569 3.110905 1.561085
    27 -4.888097 -5.864092 -7.509325 1.407012 -3.928098 1.299959
    28 0.069599 -8.301976 -0.146088 -0.358759 0.246458 0.592615
    29 0.447953 -2.798986 -0.200443 -0.678697 0.009067 0.255279
    30 -0.032909 -1.499736 0.020565 -1.178410 0.022351 -0.020516
    31 -0.027022 -1.100358 -0.028023 -0.639531 0.016203 -0.007754
    32 -0.249534 -2.846964 -0.174213 -0.258956 -0.005614 -0.009379
    33 0.043235 -1.656596 0.076480 -1.170445 -0.019025 0.003656
    34 0.031729 -1.141298 0.054932 -1.115535 -0.012397 0.006167
    35 -0.963866 -2.785145 -0.085350 -0.126634 0.161209 -0.196410
    36 0.028479 -1.410880 -0.024980 -1.200577 -0.035379 -0.037608
    37 0.021413 -0.949968 0.020046 -0.506666 -0.009240 -0.020889
    38 1.164475 -2.543940 -0.170330 -0.918692 -0.005888 0.531366
    39 0.024032 -1.140761 -0.005631 -1.070107 0.013746 0.054771
    40 0.014898 -0.899614 -0.015942 -0.870242 0.004710 0.044031
    41 -0.586770 -1.264477 0.200161 -0.231598 -0.547233 -2.561231
    42 1.542367 0.043056 0.016848 -0.006823 -0.001418 0.424081
    43 1.114041 0.048424 -0.005766 -0.013774 -0.033431 0.563519
    44 -0.139399 -0.111698 0.014397 0.285382 -0.030687 1.580508
    45 -8.237429 0.924873 -0.469909 1.567010 -0.036063 -0.190094
  time 3
    0 3.179990 -9.126086 -8.779026 0.453793 -0.036961 -0.025125
    1 0.000000 2.286976 0.873885 0.000000 0.000000 0.000000
    2 0.000000 -0.743733 1.487464 0.000000 0.000000 0.000000
    3 0.000000 -1.227157 2.045263 0.000000 0.000000 0.000000
    4 0.000001 -1.580431 1.264344 0.000000 0.000000 0.000000
    5 0.000000 -2.844775 1.022632 0.000000 0.000000 0.000000
    6 0.024938 -1.409605 0.862229 0.000000 0.000000 0.000000
    7 1.548076 5.823131 -6.425358 0.000000 0.000000 0.216777
    8 4.790434 -5.186329 -3.104545 0.567184 -2.040695 -1.172933
    9 6.241707 5.879684 -0.270904 1.565042 -3.130208 0.851855
    10 -0.013325 -8.436234 -0.084602 0.161381 0.445952 -0.556653
    11 -0.488518 -2.755602 -0.228260 -0.317159 0.118912 -0.274953
    12 0.039887 -1.554011 0.029854 -2.186484 -0.000036 0.046957
    13 0.028786 -1.118701 -0.097330 -0.661479 -0.012416 0.012296
    14 0.250027 -2.820665 -0.238396 -0.279241 0.001645 -0.191604
    15 -0.049759 -1.598510 0.006726 -1.867416 -0.007071 -0.047137
    16 -0.034142 -1.175657 0.045718 -1.221971 0.005992 -0.032239
    17 0.957766 -2.746780 -0.090302 0.020387 -0.095283 -0.001682
    18 -0.033420 -1.397129 -0.015163 -0.231150 0.005513 -0.011051
    19 -0.022360 -0.961342 -0.004654 -0.890998 0.005405 -0.043372
    20 -1.180681 -2.507217 -0.193859 -0.363374 0.387812 -0.251394
    21 -0.024967 -1.127840 0.017597 -1.854825 -0.023885 -0.068491
    22 -0.020057 -0.902687 0.025715 -0.804503 0.007526 -0.032298
    23 0.610855 -1.189464 0.177566 0.581784 -0.757762 -0.601920
    24 1.481238 -0.212417 0.067511 0.047263 -0.212451 -0.757364
    25 1.038269 -0.155634 0.036197 0.051434 -0.205466 -0.844507
    26 0.120153 -0.050270 -0.054489 0.287569 3.110905 1.561085
    27 -4.892004 -6.418796 -6.810085 1.419756 -3.849011 1.317905
    28 0.069599 -8.301976 -0.153901 -0.364438 0.276360 0.584650
    29 0.447953 -2.798986 -0.200443 -0.678697 0.009067 0.255279
    30 -0.032909 -1.499736 0.020565 -1.178410 0.022351 -0.020516
    31 -0.027022 -1.100358 -0.028023 -0.639531 0.016203 -0.007754
    32 -0.249534 -2.846964 -0.174213 -0.258956 -0.005614 -0.009379
    33 0.043235 -1.656596 0.076480 -1.170445 -0.019025 0.003656
    34 0.031729 -1.141298 0.054932 -1.115535 -0.012397 0.006167
    35 -0.963866 -2.785145 -0.085350 -0.126634 0.161209 -0.196410
    36 0.028479 -1.410880 -0.024980 -1.200577 -0.035379 -0.037608
    37 0.021413 -0.949968 0.020046 -0.506666 -0.009240 -0.020889
    38 1.164475 -2.543940 -0.170330 -0.918692 -0.005888 0.531366
    39 0.024032 -1.140761 -0.005631 -1.070107 0.013746 0.054771
    40 0.014898 -0.899614 -0.015942 -0.870242 0.004710 0.044031
    41 -0.586770 -1.264477 0.200161 -0.256394 -0.609337 -2.510284
    42 1.546273 0.039149 0.016848 -0.008501 -0.002640 0.497203
    43 1.114041 0.048424 -0.005766 -0.016039 -0.034031 0.636531
    44 -0.139399 -0.111698 0.014397 0.285382 -0.030687 1.580508
    45 -8.198365 1.538173 -0.466002 1.568771 -0.035104 -0.264893
  time 4
    0 3.289369 -9.235464 -7.560238 0.363988 -0.016224 -0.018316
    1 0.000000 2.286976 0.873885 0.000000 0.000000 0.000000
    2 0.000000 -0.743733 1.487464 0.000000 0.000000 0.000000
    3 0.000000 -1.227157 2.045263 0.000000 0.000000 0.000000
    4 0.000001 -1.580431 1.264344 0.000000 0.000000 0.000000
    5 0.000000 -2.844775 1.022632 0.000000 0.000000 0.000000
    6 0.024938 -1.409605 0.862229 0.000000 0.000000 0.000000
    7 1.548076 5.823131 -6.425358 0.000000 0.000000 0.216777
    8 4.790434 -5.334771 -2.811567 0.685011 -2.089460 -1.271199
    9 6.362805 5.727336 -0.274810 1.565042 -3.129729 0.828240
    10 -0.017232 -8.440141 -0.084602 0.168804 0.443247 -0.536581
    11 -0.488518 -2.755602 -0.228260 -0.317159 0.118912 -0.274953
    12 0.039887 -1.554011 0.029854 -2.186484 -0.000036 0.046957
    13 0.028786 -1.118701 -0.097330 -0.661479 -0.012416 0.012296
    14 0.250027 -2.820665 -0.238396 -0.279241 0.001645 -0.191604
    15 -0.049759 -1.598510 0.006726 -1.867416 -0.007071 -0.047137
    16 -0.034142 -1.175657 0.045718 -1.221971 0.005992 -0.032239
    17 0.957766 -2.746780 -0.090302 0.020387 -0.095283 -0.001682
    18 -0.033420 -1.397129 -0.015163 -0.231150 0.005513 -0.011051
    19 -0.022360 -0.961342 -0.004654 -0.890998 0.005405 -0.043372
    20 -1.180681 -2.507217 -0.193859 -0.363374 0.387812 -0.251394
    21 -0.024967 -1.127840 0.017597 -1.854825 -0.023885 -0.068491
    22 -0.020057 -0.902687 0.025715 -0.804503 0.007526 -0.032298
    23 0.610855 -1.189464 0.177566 0.581784 -0.757762 -0.601920
    24 1.481238 -0.212417 0.067511 0.047263 -0.212451 -0.757364
    25 1.038269 -0.155634 0.036197 0.051434 -0.205466 -0.844507
    26 0.120153 -0.050270 -0.054489 0.287569 3.110905 1.561085
    27 -4.868565 -6.856309 -6.067875 1.427374 -3.779761 1.332701
    28 0.077412 -8.301976 -0.161713 -0.365933 0.305235 0.566816
    29 0.447953 -2.798986 -0.200443 -0.678697 0.009067 0.255279
    30 -0.032909 -1.499736 0.020565 -1.178410 0.022351 -0.020516
    31 -0.027022 -1.100358 -0.028023 -0.639531 0.016203 -0.007754
    32 -0.249534 -2.846964 -0.174213 -0.258956 -0.005614 -0.009379
    33 0.043235 -1.656596 0.076480 -1.170445 -0.019025 0.003656
    34 0.031729 -1.141298 0.054932 -1.115535 -0.012397 0.006167
    35 -0.963866 -2.785145 -0.085350 -0.126634 0.161209 -0.196410
    36 0.028479 -1.410880 -0.024980 -1.200577 -0.035379 -0.037608
    37 0.021413 -0.949968 0.020046 -0.506666 -0.009240 -0.020889
    38 1.164475 -2.543940 -0.170330 -0.918692 -0.005888 0.531366
    39 0.024032 -1.140761 -0.005631 -1.070107 0.013746 0.054771
    40 0.014898 -0.899614 -0.015942 -0.870242 0.004710 0.044031
    41 -0.586770 -1.264477 0.200161 -0.282772 -0.663628 -2.461326
    42 1.550180 0.039149 0.016848 -0.010071 -0.003623 0.562275
    43 1.114041 0.044518 -0.005766 -0.018088 -0.034438 0.701496
    44 -0.139399 -0.111698 0.014397 0.285382 -0.030687 1.580508
    45 -8.108519 2.190537 -0.458190 1.570557 -0.033942 -0.344786
  time 5
    0 3.387028 -9.290153 -6.388328 0.271474 0.001679 -0.021337
    1 0.000000 2.286976 0.873885 0.000000 0.000000 0.000000
    2 0.000000 -0.743733 1.487464 0.000000 0.000000 0.000000
    3 0.000000 -1.227157 2.045263 0.000000 0.000000 0.000000
    4 0.000001 -1.580431 1.264344 0.000000 0.000000 0.000000
    5 0.000000 -2.844775 1.022632 0.000000 0.000000 0.000000
    6 0.024938 -1.409605 0.862229 0.000000 0.000000 0.000000
    7 1.548076 5.823131 -6.425358 0.000000 0.000000 0.216777
    8 4.778715 -5.475401 -2.502964 0.773122 -2.137487 -1.339519
    9 6.425306 5.649208 -0.278717 1.565042 -3.129441 0.815970
    10 -0.021138 -8.444047 -0.084602 0.170540 0.437151 -0.505956
    11 -0.488518 -2.755602 -0.228260 -0.317159 0.118912 -0.274953
    12 0.039887 -1.554011 0.029854 -2.186484 -0.000036 0.046957
    13 0.028786 -1.118701 -0.097330 -0.661479 -0.012416 0.012296
    14 0.250027 -2.820665 -0.238396 -0.279241 0.001645 -0.191604
    15 -0.049759 -1.598510 0.006726 -1.867416 -0.007071 -0.047137
    16 -0.034142 -1.175657 0.045718 -1.221971 0.005992 -0.032239
    17 0.957766 -2.746780 -0.090302 0.020387 -0.095283 -0.001682
    18 -0.033420 -1.397129 -0.015163 -0.231150 0.005513 -0.011051
    19 -0.022360 -0.961342 -0.004654 -0.890998 0.005405 -0.043372
    20 -1.180681 -2.507217 -0.193859 -0.363374 0.387812 -0.251394
    21 -0.024967 -1.127840 0.017597 -1.854825 -0.023885 -0.068491
    22 -0.020057 -0.902687 0.025715 -0.804503 0.007526 -0.032298
    23 0.610855 -1.189464 0.177566 0.581784 -0.757762 -0.601920
    24 1.481238 -0.212417 0.067511 0.047263 -0.212451 -0.757364
    25 1.038269 -0.155634 0.036197 0.051434 -0.205466 -0.844507
    26 0.120153 -0.050270 -0.054489 0.287569 3.110905 1.561085
    27 -4.821689 -7.168819 -5.321758 1.431303 -3.720505 1.344538
    28 0.081319 -8.305883 -0.165620 -0.359639 0.334080 0.539180
    29 0.447953 -2.798986 -0.200443 -0.678697 0.009067 0.255279
    30 -0.032909 -1.499736 0.020565 -1.178410 0.022351 -0.020516
    31 -0.027022 -1.100358 -0.028023 -0.639531 0.016203 -0.007754
    32 -0.249534 -2.846964 -0.174213 -0.258956 -0.005614 -0.009379
    33 0.043235 -1.656596 0.076480 -1.170445 -0.019025 0.003656
    34 0.031729 -1.141298 0.054932 -1.115535 -0.012397 0.006167
    35 -0.963866 -2.785145 -0.085350 -0.126634 0.161209 -0.196410
    36 0.028479 -1.410880 -0.024980 -1.200577 -0.035379 -0.037608
    37 0.021413 -0.949968 0.020046 -0.506666 -0.009240 -0.020889
    38 1.164475 -2.543940 -0.170330 -0.918692 -0.005888 0.531366
    39 0.024032 -1.140761 -0.005631 -1.070107 0.013746 0.054771
    40 0.014898 -0.899614 -0.015942 -0.870242 0.004710 0.044031
    41 -0.586770 -1.264477 0.200161 -0.306681 -0.705370 -2.420126
    42 1.550180 0.039149 0.016848 -0.011342 -0.004318 0.613252
    43 1.114041 0.044518 -0.005766 -0.019706 -0.034654 0.752411
    44 -0.139399 -0.111698 0.014397 0.285382 -0.030687 1.580508
    45 -7.963983 2.831181 -0.450377 1.572247 -0.032635 -0.424614
  time 6
    0 3.453436 -9.317498 -5.286731 0.174688 0.013555 -0.037668
    1 0.000000 2.286976 0.873885 0.000000 0.000000 0.000000
    2 0.000000 -0.743733 1.487464 0.000000 0.000000 0.000000
    3 0.000000 -1.227157 2.045263 0.000000 0.000000 0.000000
    4 0.000001 -1.580431 1.264344 0.000000 0.000000 0.000000
    5 0.000000 -2.844775 1.022632 0.000000 0.000000 0.000000
    6 0.024938 -1.409605 0.862229 0.000000 0.000000 0.000000
    7 1.548076 5.823131 -6.425358 0.000000 0.000000 0.216777
    8 4.759183 -5.612123 -2.178736 0.835950 -2.178864 -1.382170
    9 6.401868 5.680459 -0.278717 1.565042 -3.129537 0.820845
    10 -0.025045 -8.444047 -0.088509 0.163486 0.426151 -0.459555
    11 -0.488518 -2.755602 -0.228260 -0.317159 0.118912 -0.274953
    12 0.039887 -1.554011 0.029854 -2.186484 -0.000036 0.046957
    13 0.028786 -1.118701 -0.097330 -0.661479 -0.012416 0.012296
    14 0.250027 -2.820665 -0.238396 -0.279241 0.001645 -0.191604
    15 -0.049759 -1.598510 0.006726 -1.867416 -0.007071 -0.047137
    16 -0.034142 -1.175657 0.045718 -1.221971 0.005992 -0.032239
    17 0.957766 -2.746780 -0.090302 0.020387 -0.095283 -0.001682
    18 -0.033420 -1.397129 -0.015163 -0.231150 0.005513 -0.011051
    19 -0.022360 -0.961342 -0.004654 -0.890998 0.005405 -0.043372
    20 -1.180681 -2.507217 -0.193859 -0.363374 0.387812 -0.251394
    21 -0.024967 -1.127840 0.017597 -1.854825 -0.023885 -0.068491
    22 -0.020057 -0.902687 0.025715 -0.804503 0.007526 -0.032298
    23 0.610855 -1.189464 0.177566 0.581784 -0.757762 -0.601920
    24 1.481238 -0.212417 0.067511 0.047263 -0.212451 -0.757364
    25 1.038269 -0.155634 0.036197 0.051434 -0.205466 -0.844507
    26 0.120153 -0.050270 -0.054489 0.287569 3.110905 1.561085
    27 -4.759187 -7.371950 -4.579548 1.431255 -3.671243 1.352461
    28 0.093038 -8.313696 -0.173433 -0.344378 0.372663 0.497521
    29 0.447953 -2.798986 -0.200443 -0.667185 0.008851 0.255530
    30 -0.032909 -1.499736 0.020565 -1.147211 0.022100 -0.019653
    31 -0.027022 -1.100358 -0.028023 -0.622828 0.015856 -0.007430
    32 -0.249534 -2.846964 -0.174213 -0.241331 -0.005290 -0.009367
    33 0.043235 -1.656596 0.076480 -1.135708 -0.018522 0.003189
    34 0.031729 -1.141298 0.054932 -1.103695 -0.012253 0.006107
    35 -0.963866 -2.785145 -0.085350 -0.125987 0.161221 -0.196374
    36 0.028479 -1.410880 -0.024980 -1.224622 -0.036445 -0.037823
    37 0.021413 -0.949968 0.020046 -0.499754 -0.009048 -0.020637
    38 1.164475 -2.543940 -0.170330 -0.906872 -0.004449 0.536843
    39 0.024032 -1.140761 -0.005631 -1.049922 0.012967 0.053956
    40 0.014898 -0.899614 -0.015942 -0.846532 0.004063 0.042857
    41 -0.586770 -1.264477 0.200161 -0.324946 -0.730310 -2.407060
    42 1.554086 0.039149 0.016848 -0.012013 -0.004653 0.639513
    43 1.114041 0.044518 -0.005766 -0.020677 -0.034750 0.782503
    44 -0.139399 -0.111698 0.014397 0.285382 -0.030687 1.580508
    45 -7.760852 3.487451 -0.438658 1.573889 -0.031125 -0.507989
  time 7
    0 3.242492 -9.649539 -4.454675 0.061320 -0.001801 -0.117689
    1 0.000000 2.286976 0.873885 0.000000 0.000000 0.000000
    2 0.000000 -0.743733 1.487464 0.000000 0.000000 0.000000
    3 0.000000 -1.227157 2.045263 0.000000 0.000000 0.000000
    4 0.000001 -1.580431 1.264344 0.000000 0.000000 0.000000
    5 0.000000 -2.844775 1.022632 0.000000 0.000000 0.000000
    6 0.024938 -1.409605 0.862229 0.000000 0.000000 0.000000
    7 1.548076 5.823131 -6.425358 0.000000 0.000000 0.216777
    8 4.575584 -5.819161 -1.620125 0.820951 -2.163347 -1.339128
    9 5.671377 6.508610 -0.255279 1.565234 -3.132508 0.956233
    10 -0.036764 -8.447954 -0.092415 0.103215 0.396220 -0.323722
    11 -0.488518 -2.755602 -0.228260 -0.317159 0.118912 -0.274953
    12 0.039887 -1.554011 0.029854 -2.186484 -0.000036 0.046957
    13 0.028786 -1.118701 -0.097330 -0.661479 -0.012416 0.012296
    14 0.250027 -2.820665 -0.238396 -0.279241 0.001645 -0.191604
    15 -0.049759 -1.598510 0.006726 -1.867416 -0.007071 -0.047137
    16 -0.034142 -1.175657 0.045718 -1.221971 0.005992 -0.032239
    17 0.957766 -2.746780 -0.090302 0.020387 -0.095283 -0.001682
    18 -0.033420 -1.397129 -0.015163 -0.231150 0.005513 -0.011051
    19 -0.022360 -0.961342 -0.004654 -0.890998 0.005405 -0.043372
    20 -1.180681 -2.507217 -0.193859 -0.363374 0.387812 -0.251394
    21 -0.024967 -1.127840 0.017597 -1.854825 -0.023885 -0.068491
    22 -0.020057 -0.902687 0.025715 -0.804503 0.007526 -0.032298
    23 0.610855 -1.189464 0.177566 0.581784 -0.757762 -0.601920
    24 1.481238 -0.212417 0.067511 0.047263 -0.212451 -0.757364
    25 1.038269 -0.155634 0.036197 0.051434 -0.205466 -0.844507
    26 0.120153 -0.050270 -0.054489 0.287569 3.110905 1.561085
    27 -4.743562 -7.438358 -4.165473 1.432357 -3.645589 1.353129
    28 0.108663 -8.329321 -0.181245 -0.266164 0.431564 0.446061
    29 0.447953 -2.798986 -0.200443 -0.655640 0.008636 0.255770
    30 -0.032909 -1.499736 0.020565 -1.116011 0.021824 -0.018814
    31 -0.027022 -1.100358 -0.028023 -0.606159 0.015508 -0.007107
    32 -0.249534 -2.846964 -0.174213 -0.223730 -0.004967 -0.009355
    33 0.043235 -1.656596 0.080387 -1.101036 -0.018006 0.002733
    34 0.031729 -1.141298 0.054932 -1.091812 -0.012110 0.006059
    35 -0.963866 -2.785145 -0.085350 -0.125340 0.161233 -0.196350
    36 0.028479 -1.410880 -0.024980 -1.248667 -0.037524 -0.038015
    37 0.021413 -0.949968 0.020046 -0.492864 -0.008857 -0.020398
    38 1.164475 -2.543940 -0.170330 -0.895012 -0.003083 0.542344
    39 0.024032 -1.140761 -0.005631 -1.029688 0.012188 0.053117
    40 0.014898 -0.899614 -0.019848 -0.822776 0.003452 0.041670
    41 -0.586770 -1.264477 0.200161 -0.328733 -0.732743 -2.417785
    42 1.554086 0.039149 0.016848 -0.011965 -0.004629 0.637815
    43 1.114041 0.044518 -0.005766 -0.020737 -0.034750 0.784654
    44 -0.139399 -0.111698 0.014397 0.285382 -0.030687 1.580508
    45 -7.624129 3.846837 -0.434751 1.574752 -0.030239 -0.554416
  time 8
    0 2.890919 -9.743292 -3.978098 -0.063808 -0.045536 -0.227403
    1 0.000000 2.286976 0.873885 0.000000 0.000000 0.000000
    2 0.000000 -0.743733 1.487464 0.000000 0.000000 0.000000
    3 0.000000 -1.227157 2.045263 0.000000 0.000000 0.000000
    4 0.000001 -1.580431 1.264344 0.000000 0.000000 0.000000
    5 0.000000 -2.844775 1.022632 0.000000 0.000000 0.000000
    6 0.024938 -1.409605 0.862229 0.000000 0.000000 0.000000
    7 1.548076 5.823131 -6.425358 0.000000 0.000000 0.216777
    8 4.462299 -5.909008 -1.315428 0.784631 -2.136822 -1.287451
    9 5.065890 7.051595 -0.235747 1.565713 -3.134616 1.056072
    10 -0.052389 -8.451860 -0.100228 0.025143 0.360881 -0.156560
    11 -0.488518 -2.755602 -0.228260 -0.317159 0.118912 -0.274953
    12 0.039887 -1.554011 0.029854 -2.186484 -0.000036 0.046957
    13 0.028786 -1.118701 -0.097330 -0.661479 -0.012416 0.012296
    14 0.250027 -2.820665 -0.238396 -0.279241 0.001645 -0.191604
    15 -0.049759 -1.598510 0.006726 -1.867416 -0.007071 -0.047137
    16 -0.034142 -1.175657 0.045718 -1.221971 0.005992 -0.032239
    17 0.957766 -2.746780 -0.090302 0.020387 -0.095283 -0.001682
    18 -0.033420 -1.397129 -0.015163 -0.231150 0.005513 -0.011051
    19 -0.022360 -0.961342 -0.004654 -0.890998 0.005405 -0.043372
    20 -1.180681 -2.507217 -0.193859 -0.363374 0.387812 -0.251394
    21 -0.024967 -1.127840 0.017597 -1.854825 -0.023885 -0.068491
    22 -0.020057 -0.902687 0.025715 -0.804503 0.007526 -0.032298
    23 0.610855 -1.189464 0.177566 0.581784 -0.757762 -0.601920
    24 1.481238 -0.212417 0.067511 0.047263 -0.212451 -0.757364
    25 1.038269 -0.155634 0.036197 0.051434 -0.205466 -0.844507
    26 0.120153 -0.050270 -0.054489 0.287569 3.110905 1.561085
    27 -4.739655 -7.340699 -4.497514 1.435758 -3.598688 1.364012
    28 0.120382 -8.341040 -0.185152 -0.135491 0.480229 0.438607
    29 0.447953 -2.798986 -0.200443 -0.678697 0.009067 0.255279
    30 -0.032909 -1.499736 0.020565 -1.178410 0.022351 -0.020516
    31 -0.027022 -1.100358 -0.028023 -0.639531 0.016203 -0.007754
    32 -0.249534 -2.846964 -0.174213 -0.258956 -0.005614 -0.009379
    33 0.043235 -1.656596 0.076480 -1.170445 -0.019025 0.003656
    34 0.031729 -1.141298 0.054932 -1.115535 -0.012397 0.006167
    35 -0.963866 -2.785145 -0.085350 -0.126634 0.161209 -0.196410
    36 0.028479 -1.410880 -0.024980 -1.200577 -0.035379 -0.037608
    37 0.021413 -0.949968 0.020046 -0.506666 -0.009240 -0.020889
    38 1.164475 -2.543940 -0.170330 -0.918692 -0.005888 0.531366
    39 0.024032 -1.140761 -0.005631 -1.070107 0.013746 0.054771
    40 0.014898 -0.899614 -0.015942 -0.870242 0.004710 0.044031
    41 -0.586770 -1.264477 0.200161 -0.306681 -0.705370 -2.420126
    42 1.550180 0.039149 0.016848 -0.011342 -0.004318 0.613252
    43 1.114041 0.044518 -0.005766 -0.019706 -0.034654 0.752411
    44 -0.139399 -0.111698 0.014397 0.285382 -0.030687 1.580508
    45 -7.921013 2.995249 -0.446471 1.572654 -0.032276 -0.444926
  time 9
    0 2.535439 -9.016707 -3.696839 -0.231747 -0.115427 -0.324932
    1 0.000000 2.286976 0.873885 0.000000 0.000000 0.000000
    2 0.000000 -0.743733 1.487464 0.000000 0.000000 0.000000
    3 0.000000 -1.227157 2.045263 0.000000 0.000000 0.000000
    4 0.000001 -1.580431 1.264344 0.000000 0.000000 0.000000
    5 0.000000 -2.844775 1.022632 0.000000 0.000000 0.000000
    6 0.024938 -1.409605 0.862229 0.000000 0.000000 0.000000
    7 1.548076 5.823131 -6.425358 0.000000 0.000000 0.216777
    8 4.681056 -5.748846 -1.866226 0.829064 -2.165342 -1.351153
    9 5.979980 6.188287 -0.263091 1.565138 -3.131262 0.901523
    10 -0.068015 -8.459673 -0.104134 -0.023421 0.314863 -0.016320
    11 -0.488518 -2.755602 -0.228260 -0.317159 0.118912 -0.274953
    12 0.039887 -1.554011 0.029854 -2.186484 -0.000036 0.046957
    13 0.028786 -1.118701 -0.097330 -0.661479 -0.012416 0.012296
    14 0.250027 -2.820665 -0.238396 -0.279241 0.001645 -0.191604
    15 -0.049759 -1.598510 0.006726 -1.867416 -0.007071 -0.047137
    16 -0.034142 -1.175657 0.045718 -1.221971 0.005992 -0.032239
    17 0.957766 -2.746780 -0.090302 0.020387 -0.095283 -0.001682
    18 -0.033420 -1.397129 -0.015163 -0.231150 0.005513 -0.011051
    19 -0.022360 -0.961342 -0.004654 -0.890998 0.005405 -0.043372
    20 -1.180681 -2.507217 -0.193859 -0.363374 0.387812 -0.251394
    21 -0.024967 -1.127840 0.017597 -1.854825 -0.023885 -0.068491
    22 -0.020057 -0.902687 0.025715 -0.804503 0.007526 -0.032298
    23 0.610855 -1.189464 0.177566 0.581784 -0.757762 -0.601920
    24 1.481238 -0.212417 0.067511 0.047263 -0.212451 -0.757364
    25 1.038269 -0.155634 0.036197 0.051434 -0.205466 -0.844507
    26 0.120153 -0.050270 -0.054489 0.287569 3.110905 1.561085
    27 -4.657622 -6.910999 -5.591298 1.438920 -3.512125 1.400668
    28 0.128195 -8.352759 -0.177339 0.017833 0.495538 0.457734
    29 0.447953 -2.798986 -0.200443 -0.789566 0.010996 0.252774
    30 -0.032909 -1.499736 0.032285 -1.490947 0.023334 -0.029324
    31 -0.027022 -1.108171 -0.028023 -0.802020 0.019259 -0.011230
    32 -0.249534 -2.846964 -0.174213 -0.418056 -0.008574 -0.009235
    33 0.043235 -1.656596 0.064761 -1.515214 -0.023016 0.009133
    34 0.031729 -1.141298 0.054932 -1.253143 -0.014015 0.006922
    35 -0.963866 -2.785145 -0.085350 -0.136162 0.161090 -0.196829
    36 0.028479 -1.406973 -0.021074 -1.020513 -0.027601 -0.035211
    37 0.021413 -0.949968 0.020046 -0.584525 -0.011541 -0.023562
    38 1.164475 -2.543940 -0.170330 -1.035486 -0.017740 0.488485
    39 0.024032 -1.148574 -0.009538 -1.275814 0.022615 0.062177
    40 0.014898 -0.903521 -0.012035 -1.107926 0.012560 0.054806
    41 -0.586770 -1.264477 0.200161 -0.239016 -0.622329 -2.391470
    42 1.546273 0.039149 0.016848 -0.009844 -0.003491 0.553042
    43 1.114041 0.044518 -0.005766 -0.016758 -0.034186 0.659320
    44 -0.139399 -0.111698 0.014397 0.285382 -0.030687 1.580508
    45 -8.241335 0.592832 -0.473815 1.566039 -0.036530 -0.149921
  time 10
    0 2.273713 -7.817452 -3.556210 -0.402659 -0.198987 -0.401010
    1 0.000000 2.286976 0.873885 0.000000 0.000000 0.000000
    2 0.000000 -0.743733 1.487464 0.000000 0.000000 0.000000
    3 0.000000 -1.227157 2.045263 0.000000 0.000000 0.000000
    4 0.000001 -1.580431 1.264344 0.000000 0.000000 0.000000
    5 0.000000 -2.844775 1.022632 0.000000 0.000000 0.000000
    6 0.024938 -1.409605 0.862229 0.000000 0.000000 0.000000
    7 1.548076 5.823131 -6.425358 0.000000 0.000000 0.216777
    8 5.048255 -5.393367 -2.643594 0.887458 -2.209896 -1.439663
    9 7.073764 4.653084 -0.302155 1.565234 -3.126375 0.669825
    10 -0.079734 -8.475298 -0.111947 -0.065522 0.268386 0.108885
    11 -0.488518 -2.755602 -0.228260 -0.317159 0.118912 -0.274953
    12 0.039887 -1.554011 0.029854 -2.186484 -0.000036 0.046957
    13 0.028786 -1.118701 -0.097330 -0.661479 -0.012416 0.012296
    14 0.250027 -2.820665 -0.238396 -0.279241 0.001645 -0.191604
    15 -0.049759 -1.598510 0.006726 -1.867416 -0.007071 -0.047137
    16 -0.034142 -1.175657 0.045718 -1.221971 0.005992 -0.032239
    17 0.957766 -2.746780 -0.090302 0.020387 -0.095283 -0.001682
    18 -0.033420 -1.397129 -0.015163 -0.231150 0.005513 -0.011051
    19 -0.022360 -0.961342 -0.004654 -0.890998 0.005405 -0.043372
    20 -1.180681 -2.507217 -0.193859 -0.363374 0.387812 -0.251394
    21 -0.024967 -1.127840 0.017597 -1.854825 -0.023885 -0.068491
    22 -0.020057 -0.902687 0.025715 -0.804503 0.007526 -0.032298
    23 0.610855 -1.189464 0.177566 0.581784 -0.757762 -0.601920
    24 1.481238 -0.212417 0.067511 0.047263 -0.212451 -0.757364
    25 1.038269 -0.155634 0.036197 0.051434 -0.205466 -0.844507
    26 0.120153 -0.050270 -0.054489 0.287569 3.110905 1.561085
    27 -4.434958 -6.094567 -6.856961 1.433507 -3.473015 1.467775
    28 0.147727 -8.380104 -0.177339 0.181485 0.512651 0.420500
    29 0.447953 -2.798986 -0.200443 -0.935038 0.013070 0.249202
    30 -0.032909 -1.495829 0.040097 -1.897082 0.020494 -0.040458
    31 -0.027022 -1.119890 -0.028023 -1.014617 0.022339 -0.016431
    32 -0.249534 -2.846964 -0.174213 -0.629984 -0.012409 -0.008312
    33 0.043235 -1.656596 0.053042 -1.964194 -0.025053 0.017702
    34 0.031729 -1.137392 0.051025 -1.426314 -0.015861 0.008168
    35 -0.963866 -2.785145 -0.085350 -0.147631 0.160946 -0.197321
    36 0.028479 -1.403067 -0.013261 -0.768354 -0.017689 -0.029614
    37 0.021413 -0.946062 0.016140 -0.683098 -0.014741 -0.026666
    38 1.164475 -2.543940 -0.170330 -1.186615 -0.042536 0.432146
    39 0.024032 -1.156387 -0.009538 -1.542077 0.036002 0.068817
    40 0.014898 -0.907427 -0.008129 -1.416697 0.026162 0.065520
    41 -0.586770 -1.264477 0.200161 -0.147250 -0.512610 -2.345037
    42 1.542367 0.043056 0.016848 -0.007866 -0.002197 0.469966
    43 1.114041 0.048424 -0.005766 -0.012803 -0.033120 0.531834
    44 -0.139399 -0.111698 0.014397 0.285382 -0.030687 1.580508
    45 -7.823354 -1.872087 -0.481628 1.558225 -0.038712 0.154949
  time 11
    0 2.250275 -7.172901 -3.560116 -0.456568 -0.238525 -0.412069
    1 0.000000 2.286976 0.873885 0.000000 0.000000 0.000000
    2 0.000000 -0.743733 1.487464 0.000000 0.000000 0.000000
    3 0.000000 -1.227157 2.045263 0.000000 0.000000 0.000000
    4 0.000001 -1.580431 1.264344 0.000000 0.000000 0.000000
    5 0.000000 -2.844775 1.022632 0.000000 0.000000 0.000000
    6 0.024938 -1.409605 0.862229 0.000000 0.000000 0.000000
    7 1.548076 5.823131 -6.425358 0.000000 0.000000 0.216777
    8 5.309981 -5.170704 -3.010792 0.903118 -2.244993 -1.472714
    9 7.519090 3.699930 -0.325593 1.565809 -3.123596 0.540909
    10 -0.083640 -8.475298 -0.115853 -0.071911 0.248860 0.130104
    11 -0.488518 -2.755602 -0.228260 -0.317159 0.118912 -0.274953
    12 0.039887 -1.554011 0.029854 -2.186484 -0.000036 0.046957
    13 0.028786 -1.118701 -0.097330 -0.661479 -0.012416 0.012296
    14 0.250027 -2.820665 -0.238396 -0.279241 0.001645 -0.191604
    15 -0.049759 -1.598510 0.006726 -1.867416 -0.007071 -0.047137
    16 -0.034142 -1.175657 0.045718 -1.221971 0.005992 -0.032239
    17 0.957766 -2.746780 -0.090302 0.020387 -0.095283 -0.001682
    18 -0.033420 -1.397129 -0.015163 -0.231150 0.005513 -0.011051
    19 -0.022360 -0.961342 -0.004654 -0.890998 0.005405 -0.043372
    20 -1.180681 -2.507217 -0.193859 -0.363374 0.387812 -0.251394
    21 -0.024967 -1.127840 0.017597 -1.854825 -0.023885 -0.068491
    22 -0.020057 -0.902687 0.025715 -0.804503 0.007526 -0.032298
    23 0.610855 -1.189464 0.177566 0.581784 -0.757762 -0.601920
    24 1.481238 -0.212417 0.067511 0.047263 -0.212451 -0.757364
    25 1.038269 -0.155634 0.036197 0.051434 -0.205466 -0.844507
    26 0.120153 -0.050270 -0.054489 0.287569 3.110905 1.561085
    27 -4.220108 -5.453923 -7.571827 1.433171 -3.531956 1.525814
    28 0.167259 -8.419168 -0.173433 0.260646 0.499645 0.300766
    29 0.447953 -2.798986 -0.200443 -0.990088 0.013729 0.247764
    30 -0.032909 -1.495829 0.044004 -2.021401 0.018756 -0.043550
    31 -0.027022 -1.119890 -0.024116 -1.090295 0.023166 -0.018420
    32 -0.249534 -2.846964 -0.174213 -0.734337 -0.014207 -0.007569
    33 0.043235 -1.660503 0.049136 -2.107750 -0.024873 0.020542
    34 0.031729 -1.137392 0.051025 -1.435769 -0.015957 0.008240
    35 -0.963866 -2.785145 -0.085350 -0.143988 0.160994 -0.197165
    36 0.028479 -1.403067 -0.009354 -0.551298 -0.010522 -0.022927
    37 0.021413 -0.946062 0.016140 -0.693030 -0.015077 -0.026965
    38 1.164475 -2.543940 -0.170330 -1.234378 -0.068028 0.392273
    39 0.024032 -1.156387 -0.009538 -1.615749 0.039969 0.070003
    40 0.014898 -0.907427 -0.004223 -1.510346 0.030860 0.067893
    41 -0.586770 -1.264477 0.200161 -0.081503 -0.446754 -2.313520
    42 1.538460 0.043056 0.016848 -0.006452 -0.001130 0.407646
    43 1.117947 0.048424 -0.005766 -0.010142 -0.032065 0.442780
    44 -0.139399 -0.111698 0.014397 0.285382 -0.030687 1.580508
    45 -7.475687 -2.747114 -0.477722 1.555181 -0.038891 0.269082
  time 12
    0 2.465125 -7.727606 -3.786686 -0.328797 -0.219796 -0.344029
    1 0.000000 2.286976 0.873885 0.000000 0.000000 0.000000
    2 0.000000 -0.743733 1.487464 0.000000 0.000000 0.000000
    3 0.000000 -1.227157 2.045263 0.000000 0.000000 0.000000
    4 0.000001 -1.580431 1.264344 0.000000 0.000000 0.000000
    5 0.000000 -2.844775 1.022632 0.000000 0.000000 0.000000
    6 0.024938 -1.409605 0.862229 0.000000 0.000000 0.000000
    7 1.548076 5.823131 -6.425358 0.000000 0.000000 0.216777
    8 5.345139 -5.338678 -2.780316 0.849912 -2.267529 -1.418012
    9 7.382367 4.028065 -0.317781 1.565617 -3.124554 0.584525
    10 -0.071921 -8.463579 -0.108040 -0.026339 0.267240 -0.007729
    11 -0.488518 -2.755602 -0.228260 -0.317159 0.118912 -0.274953
    12 0.039887 -1.554011 0.029854 -2.186484 -0.000036 0.046957
    13 0.028786 -1.118701 -0.097330 -0.661479 -0.012416 0.012296
    14 0.250027 -2.820665 -0.238396 -0.279241 0.001645 -0.191604
    15 -0.049759 -1.598510 0.006726 -1.867416 -0.007071 -0.047137
    16 -0.034142 -1.175657 0.045718 -1.221971 0.005992 -0.032239
    17 0.957766 -2.746780 -0.090302 0.020387 -0.095283 -0.001682
    18 -0.033420 -1.397129 -0.015163 -0.231150 0.005513 -0.011051
    19 -0.022360 -0.961342 -0.004654 -0.890998 0.005405 -0.043372
    20 -1.180681 -2.507217 -0.193859 -0.363374 0.387812 -0.251394
    21 -0.024967 -1.127840 0.017597 -1.854825 -0.023885 -0.068491
    22 -0.020057 -0.902687 0.025715 -0.804503 0.007526 -0.032298
    23 0.610855 -1.189464 0.177566 0.581784 -0.757762 -0.601920
    24 1.481238 -0.212417 0.067511 0.047263 -0.212451 -0.757364
    25 1.038269 -0.155634 0.036197 0.051434 -0.205466 -0.844507
    26 0.120153 -0.050270 -0.054489 0.287569 3.110905 1.561085
    27 -4.130262 -5.059380 -7.903868 1.461007 -3.560443 1.541182
    28 0.167259 -8.426980 -0.142182 0.231553 0.377050 0.244540
    29 0.447953 -2.798986 -0.200443 -0.854254 0.011979 0.251228
    30 -0.032909 -1.499736 0.032285 -1.553226 0.023190 -0.031098
    31 -0.027022 -1.112077 -0.028023 -0.875964 0.020458 -0.012955
    32 -0.249534 -2.846964 -0.174213 -0.616552 -0.012181 -0.008396
    33 0.043235 -1.656596 0.064761 -1.607542 -0.023747 0.010811
    34 0.031729 -1.141298 0.054932 -1.094453 -0.012146 0.006071
    35 -0.963866 -2.785145 -0.085350 -0.108238 0.161425 -0.195595
    36 0.028479 -1.403067 -0.005448 -0.398323 -0.006412 -0.017366
    37 0.021413 -0.949968 0.020046 -0.513216 -0.009432 -0.021117
    38 1.164475 -2.543940 -0.170330 -1.066846 -0.081426 0.374440
    39 0.024032 -1.148574 -0.009538 -1.279666 0.022795 0.062309
    40 0.014898 -0.903521 -0.012035 -1.147606 0.014118 0.056411
    41 -0.586770 -1.264477 0.200161 -0.073377 -0.462898 -2.317896
    42 1.538460 0.043056 0.016848 -0.005961 -0.000711 0.384678
    43 1.117947 0.048424 -0.005766 -0.009711 -0.031873 0.428305
    44 -0.139399 -0.111698 0.014397 0.285382 -0.030687 1.580508
    45 -7.237398 -3.219785 -0.473815 1.553455 -0.038855 0.333629
  time 13
    0 3.015923 -8.684666 -4.149978 -0.111640 -0.187219 -0.207180
    1 0.000000 2.286976 0.873885 0.000000 0.000000 0.000000
    2 0.000000 -0.743733 1.487464 0.000000 0.000000 0.000000
    3 0.000000 -1.227157 2.045263 0.000000 0.000000 0.000000
    4 0.000001 -1.580431 1.264344 0.000000 0.000000 0.000000
    5 0.000000 -2.844775 1.022632 0.000000 0.000000 0.000000
    6 0.024938 -1.409605 0.862229 0.000000 0.000000 0.000000
    7 1.548076 5.823131 -6.425358 0.000000 0.000000 0.216777
    8 5.282637 -5.662906 -2.245144 0.771329 -2.291616 -1.323267
    9 6.917509 4.918717 -0.298249 1.565138 -3.127142 0.707559
    10 -0.056296 -8.444047 -0.104134 0.041799 0.317613 -0.235882
    11 -0.488518 -2.755602 -0.228260 -0.317159 0.118912 -0.274953
    12 0.039887 -1.554011 0.029854 -2.186484 -0.000036 0.046957
    13 0.028786 -1.118701 -0.097330 -0.661479 -0.012416 0.012296
    14 0.250027 -2.820665 -0.238396 -0.279241 0.001645 -0.191604
    15 -0.049759 -1.598510 0.006726 -1.867416 -0.007071 -0.047137
    16 -0.034142 -1.175657 0.045718 -1.221971 0.005992 -0.032239
    17 0.957766 -2.746780 -0.090302 0.020387 -0.095283 -0.001682
    18 -0.033420 -1.397129 -0.015163 -0.231150 0.005513 -0.011051
    19 -0.022360 -0.961342 -0.004654 -0.890998 0.005405 -0.043372
    20 -1.180681 -2.507217 -0.193859 -0.363374 0.387812 -0.251394
    21 -0.024967 -1.127840 0.017597 -1.854825 -0.023885 -0.068491
    22 -0.020057 -0.902687 0.025715 -0.804503 0.007526 -0.032298
    23 0.610855 -1.189464 0.177566 0.581784 -0.757762 -0.601920
    24 1.481238 -0.212417 0.067511 0.047263 -0.212451 -0.757364
    25 1.038269 -0.155634 0.036197 0.051434 -0.205466 -0.844507
    26 0.120153 -0.050270 -0.054489 0.287569 3.110905 1.561085
    27 -4.044322 -4.930469 -8.028872 1.493921 -3.610807 1.541564
    28 0.151633 -8.430887 -0.099211 0.151777 0.194682 0.204583
    29 0.447953 -2.798986 -0.200443 -0.627964 0.008096 0.256345
    30 -0.032909 -1.495829 0.012753 -0.803295 0.017689 -0.010964
    31 -0.027022 -1.096452 -0.028023 -0.524781 0.013722 -0.005621
    32 -0.249534 -2.846964 -0.174213 -0.391216 -0.008083 -0.009283
    33 0.043235 -1.664409 0.088199 -0.802106 -0.012973 -0.000335
    34 0.031729 -1.153017 0.058838 -0.589421 -0.005722 0.005448
    35 -0.963866 -2.785145 -0.085350 -0.057363 0.161952 -0.193342
    36 0.028479 -1.403067 -0.001542 -0.280527 -0.003847 -0.012692
    37 0.021413 -0.953875 0.020046 -0.244762 -0.003152 -0.010762
    38 1.164475 -2.543940 -0.170330 -0.797194 -0.085537 0.367645
    39 0.024032 -1.132948 -0.001725 -0.750846 0.003464 0.040137
    40 0.014898 -0.891802 -0.019848 -0.569478 -0.001234 0.028260
    41 -0.586770 -1.264477 0.200161 -0.090731 -0.519273 -2.345129
    42 1.538460 0.043056 0.016848 -0.005913 -0.000663 0.382492
    43 1.114041 0.048424 -0.005766 -0.010418 -0.032197 0.452235
    44 -0.139399 -0.111698 0.014397 0.285382 -0.030687 1.580508
    45 -7.299900 -3.106500 -0.477722 1.553875 -0.038867 0.317766
  time 14
    0 3.805009 -9.403438 -4.442956 0.095256 -0.159593 -0.042378
    1 0.000000 2.286976 0.873885 0.000000 0.000000 0.000000
    2 0.000000 -0.743733 1.487464 0.000000 0.000000 0.000000
    3 0.000000 -1.227157 2.045263 0.000000 0.000000 0.000000
    4 0.000001 -1.580431 1.264344 0.000000 0.000000 0.000000
    5 0.000000 -2.844775 1.022632 0.000000 0.000000 0.000000
    6 0.024938 -1.409605 0.862229 0.000000 0.000000 0.000000
    7 1.548076 5.823131 -6.425358 0.000000 0.000000 0.216777
    8 5.173258 -5.928539 -1.647469 0.711708 -2.310088 -1.234235
    9 6.276864 5.836714 -0.274810 1.565042 -3.130112 0.845300
    10 -0.028951 -8.432328 -0.092415 0.101221 0.387833 -0.458925
    11 -0.488518 -2.755602 -0.228260 -0.317159 0.118912 -0.274953
    12 0.039887 -1.554011 0.029854 -2.186484 -0.000036 0.046957
    13 0.028786 -1.118701 -0.097330 -0.661479 -0.012416 0.012296
    14 0.250027 -2.820665 -0.238396 -0.279241 0.001645 -0.191604
    15 -0.049759 -1.598510 0.006726 -1.867416 -0.007071 -0.047137
    16 -0.034142 -1.175657 0.045718 -1.221971 0.005992 -0.032239
    17 0.957766 -2.746780 -0.090302 0.020387 -0.095283 -0.001682
    18 -0.033420 -1.397129 -0.015163 -0.231150 0.005513 -0.011051
    19 -0.022360 -0.961342 -0.004654 -0.890998 0.005405 -0.043372
    20 -1.180681 -2.507217 -0.193859 -0.363374 0.387812 -0.251394
    21 -0.024967 -1.127840 0.017597 -1.854825 -0.023885 -0.068491
    22 -0.020057 -0.902687 0.025715 -0.804503 0.007526 -0.032298
    23 0.610855 -1.189464 0.177566 0.581784 -0.757762 -0.601920
    24 1.481238 -0.212417 0.067511 0.047263 -0.212451 -0.757364
    25 1.038269 -0.155634 0.036197 0.051434 -0.205466 -0.844507
    26 0.120153 -0.050270 -0.054489 0.287569 3.110905 1.561085
    27 -3.884160 -4.985159 -8.032778 1.532632 -3.665026 1.561038
    28 0.132101 -8.430887 -0.064054 0.111043 0.030890 0.198321
    29 0.447953 -2.798986 -0.200443 -0.487679 0.005148 0.259042
    30 -0.032909 -1.484110 0.004940 -0.328460 0.007371 -0.002419
    31 -0.027022 -1.088639 -0.024116 -0.308950 0.008473 -0.002445
    32 -0.249534 -2.846964 -0.174213 -0.241757 -0.005302 -0.009367
    33 0.043235 -1.676128 0.096012 -0.296899 -0.003193 -0.001785
    34 0.031729 -1.156924 0.058838 -0.282433 -0.001959 0.006658
    35 -0.963866 -2.785145 -0.085350 -0.025293 0.162216 -0.191916
    36 0.028479 -1.403067 0.002365 -0.218374 -0.002732 -0.010115
    37 0.021413 -0.957781 0.020046 -0.081536 -0.000779 -0.003775
    38 1.164475 -2.543940 -0.170330 -0.627129 -0.083895 0.371923
    39 0.024032 -1.129042 0.009994 -0.427098 -0.001714 0.022772
    40 0.014898 -0.883989 -0.019848 -0.213638 -0.001882 0.008365
    41 -0.586770 -1.264477 0.200161 -0.089676 -0.560260 -2.389374
    42 1.538460 0.043056 0.016848 -0.006044 -0.000782 0.388947
    43 1.114041 0.048424 -0.005766 -0.011209 -0.032521 0.478874
    44 -0.139399 -0.111698 0.014397 0.285382 -0.030687 1.580508
    45 -7.506938 -2.680706 -0.477722 1.555409 -0.038891 0.260184
  time 15
    0 4.398778 -9.700322 -4.560147 0.212346 -0.126083 0.071995
    1 0.000000 2.286976 0.873885 0.000000 0.000000 0.000000
    2 0.000000 -0.743733 1.487464 0.000000 0.000000 0.000000
    3 0.000000 -1.227157 2.045263 0.000000 0.000000 0.000000
    4 0.000001 -1.580431 1.264344 0.000000 0.000000 0.000000
    5 0.000000 -2.844775 1.022632 0.000000 0.000000 0.000000
    6 0.024938 -1.409605 0.862229 0.000000 0.000000 0.000000
    7 1.548076 5.823131 -6.425358 0.000000 0.000000 0.216777
    8 5.091225 -6.049637 -1.284177 0.694633 -2.308314 -1.190254
    9 5.804194 6.375793 -0.259185 1.565138 -3.132029 0.933206
    10 -0.009419 -8.432328 -0.084602 0.138927 0.445997 -0.580983
    11 -0.488518 -2.755602 -0.228260 -0.317159 0.118912 -0.274953
    12 0.039887 -1.554011 0.029854 -2.186484 -0.000036 0.046957
    13 0.028786 -1.118701 -0.097330 -0.661479 -0.012416 0.012296
    14 0.250027 -2.820665 -0.238396 -0.279241 0.001645 -0.191604
    15 -0.049759 -1.598510 0.006726 -1.867416 -0.007071 -0.047137
    16 -0.034142 -1.175657 0.045718 -1.221971 0.005992 -0.032239
    17 0.957766 -2.746780 -0.090302 0.020387 -0.095283 -0.001682
    18 -0.033420 -1.397129 -0.015163 -0.231150 0.005513 -0.011051
    19 -0.022360 -0.961342 -0.004654 -0.890998 0.005405 -0.043372
    20 -1.180681 -2.507217 -0.193859 -0.363374 0.387812 -0.251394
    21 -0.024967 -1.127840 0.017597 -1.854825 -0.023885 -0.068491
    22 -0.020057 -0.902687 0.025715 -0.804503 0.007526 -0.032298
    23 0.610855 -1.189464 0.177566 0.581784 -0.757762 -0.601920
    24 1.481238 -0.212417 0.067511 0.047263 -0.212451 -0.757364
    25 1.038269 -0.155634 0.036197 0.051434 -0.205466 -0.844507
    26 0.120153 -0.050270 -0.054489 0.287569 3.110905 1.561085
    27 -3.634153 -5.117975 -7.966370 -1.564872 -5.710106 -1.534868
    28 0.116476 -8.430887 -0.036710 0.122700 -0.092109 0.209042
    29 0.447953 -2.798986 -0.200443 -0.463518 0.004597 0.259461
    30 -0.032909 -1.484110 0.004940 -0.216141 0.004410 -0.001172
    31 -0.027022 -1.084733 -0.024116 -0.274179 0.007574 -0.002037
    32 -0.249534 -2.846964 -0.174213 -0.203925 -0.004595 -0.009331
    33 0.043235 -1.680035 0.096012 -0.188858 -0.001084 -0.001449
    34 0.031729 -1.160830 0.058838 -0.223403 -0.001288 0.007018
    35 -0.963866 -2.785145 -0.085350 -0.014375 0.162288 -0.191436
    36 0.028479 -1.403067 0.002365 -0.191439 -0.002289 -0.008976
    37 0.021413 -0.957781 0.020046 -0.051039 -0.000455 -0.002433
    38 1.164475 -2.543940 -0.170330 -0.588734 -0.079785 0.383153
    39 0.024032 -1.129042 0.009994 -0.371222 -0.002037 0.019644
    40 0.014898 -0.883989 -0.019848 -0.150203 -0.001258 0.004866
    41 -0.586770 -1.264477 0.200161 -0.059727 -0.571214 -2.448307
    42 1.538460 0.043056 0.016848 -0.006152 -0.000878 0.394014
    43 1.114041 0.048424 -0.005766 -0.011616 -0.032676 0.492366
    44 -0.139399 -0.111698 0.014397 0.285382 -0.030687 1.580508
    45 -7.737414 -2.122095 -0.481628 1.557374 -0.038796 0.186932
  time 16
    0 4.625347 -9.817513 -4.528896 0.227981 -0.058094 0.106706
    1 0.000000 2.286976 0.873885 0.000000 0.000000 0.000000
    2 0.000000 -0.743733 1.487464 0.000000 0.000000 0.000000
    3 0.000000 -1.227157 2.045263 0.000000 0.000000 0.000000
    4 0.000001 -1.580431 1.264344 0.000000 0.000000 0.000000
    5 0.000000 -2.844775 1.022632 0.000000 0.000000 0.000000
    6 0.024938 -1.409605 0.862229 0.000000 0.000000 0.000000
    7 1.548076 5.823131 -6.425358 0.000000 0.000000 0.216777
    8 5.028723 -6.057450 -1.237301 0.724444 -2.276691 -1.202671
    9 5.647939 6.532048 -0.251372 1.565234 -3.132604 0.960267
    10 -0.005513 -8.440141 -0.080696 0.167807 0.481565 -0.572317
    11 -0.488518 -2.755602 -0.228260 -0.317159 0.118912 -0.274953
    12 0.039887 -1.554011 0.029854 -2.186484 -0.000036 0.046957
    13 0.028786 -1.118701 -0.097330 -0.661479 -0.012416 0.012296
    14 0.250027 -2.820665 -0.238396 -0.279241 0.001645 -0.191604
    15 -0.049759 -1.598510 0.006726 -1.867416 -0.007071 -0.047137
    16 -0.034142 -1.175657 0.045718 -1.221971 0.005992 -0.032239
    17 0.957766 -2.746780 -0.090302 0.020387 -0.095283 -0.001682
    18 -0.033420 -1.397129 -0.015163 -0.231150 0.005513 -0.011051
    19 -0.022360 -0.961342 -0.004654 -0.890998 0.005405 -0.043372
    20 -1.180681 -2.507217 -0.193859 -0.363374 0.387812 -0.251394
    21 -0.024967 -1.127840 0.017597 -1.854825 -0.023885 -0.068491
    22 -0.020057 -0.902687 0.025715 -0.804503 0.007526 -0.032298
    23 0.610855 -1.189464 0.177566 0.581784 -0.757762 -0.601920
    24 1.481238 -0.212417 0.067511 0.047263 -0.212451 -0.757364
    25 1.038269 -0.155634 0.036197 0.051434 -0.205466 -0.844507
    26 0.120153 -0.050270 -0.054489 0.287569 3.110905 1.561085
    27 -3.360707 -5.285949 -7.849179 -1.517106 -5.661158 -1.477307
    28 0.096944 -8.434793 -0.013271 0.143972 -0.208357 0.225242
    29 0.447953 -2.798986 -0.200443 -0.463785 0.004609 0.259449
    30 -0.032909 -1.480204 0.004940 -0.173302 0.003260 -0.000789
    31 -0.027022 -1.084733 -0.024116 -0.277912 0.007670 -0.002085
    32 -0.249534 -2.846964 -0.174213 -0.187437 -0.004284 -0.009295
    33 0.043235 -1.680035 0.096012 -0.159575 -0.000521 -0.001318
    34 0.031729 -1.160830 0.058838 -0.214417 -0.001180 0.007078
    35 -0.963866 -2.785145 -0.085350 -0.005182 0.162360 -0.191017
    36 0.028479 -1.403067 0.002365 -0.168705 -0.001942 -0.008006
    37 0.021413 -0.957781 0.020046 -0.047552 -0.000431 -0.002277
    38 1.164475 -2.543940 -0.170330 -0.575989 -0.074499 0.397762
    39 0.024032 -1.129042 0.009994 -0.371173 -0.002037 0.019644
    40 0.014898 -0.883989 -0.019848 -0.147505 -0.001222 0.004710
    41 -0.586770 -1.264477 0.200161 -0.021220 -0.575793 -2.518332
    42 1.538460 0.043056 0.016848 -0.006236 -0.000938 0.397435
    43 1.114041 0.048424 -0.005766 -0.011916 -0.032796 0.502592
    44 -0.139399 -0.111698 0.014397 0.285382 -0.030687 1.580508
    45 -7.952264 -1.446293 -0.481628 1.559651 -0.038496 0.100720
  time 17
    0 4.707381 -9.907360 -4.411705 0.193077 0.040679 0.103020
    1 0.000000 2.286976 0.873885 0.000000 0.000000 0.000000
    2 0.000000 -0.743733 1.487464 0.000000 0.000000 0.000000
    3 0.000000 -1.227157 2.045263 0.000000 0.000000 0.000000
    4 0.000001 -1.580431 1.264344 0.000000 0.000000 0.000000
    5 0.000000 -2.844775 1.022632 0.000000 0.000000 0.000000
    6 0.024938 -1.409605 0.862229 0.000000 0.000000 0.000000
    7 1.548076 5.823131 -6.425358 0.000000 0.000000 0.216777
    8 4.954502 -6.018386 -1.334960 0.787461 -2.225782 -1.251296
    9 5.628407 6.551580 -0.251372 1.565234 -3.132604 0.963964
    10 -0.009419 -8.455766 -0.080696 0.199568 0.507416 -0.492217
    11 -0.488518 -2.755602 -0.228260 -0.317159 0.118912 -0.274953
    12 0.039887 -1.554011 0.029854 -2.186484 -0.000036 0.046957
    13 0.028786 -1.118701 -0.097330 -0.661479 -0.012416 0.012296
    14 0.250027 -2.820665 -0.238396 -0.279241 0.001645 -0.191604
    15 -0.049759 -1.598510 0.006726 -1.867416 -0.007071 -0.047137
    16 -0.034142 -1.175657 0.045718 -1.221971 0.005992 -0.032239
    17 0.957766 -2.746780 -0.090302 0.020387 -0.095283 -0.001682
    18 -0.033420 -1.397129 -0.015163 -0.231150 0.005513 -0.011051
    19 -0.022360 -0.961342 -0.004654 -0.890998 0.005405 -0.043372
    20 -1.180681 -2.507217 -0.193859 -0.363374 0.387812 -0.251394
    21 -0.024967 -1.127840 0.017597 -1.854825 -0.023885 -0.068491
    22 -0.020057 -0.902687 0.025715 -0.804503 0.007526 -0.032298
    23 0.610855 -1.189464 0.177566 0.581784 -0.757762 -0.601920
    24 1.481238 -0.212417 0.067511 0.047263 -0.212451 -0.757364
    25 1.038269 -0.155634 0.036197 0.051434 -0.205466 -0.844507
    26 0.120153 -0.050270 -0.054489 0.287569 3.110905 1.561085
    27 -3.067729 -5.481267 -7.685112 -1.466609 -5.614100 -1.409245
    28 0.077412 -8.442606 0.002354 0.170575 -0.320466 0.242906
    29 0.447953 -2.798986 -0.200443 -0.482024 0.005016 0.259138
    30 -0.032909 -1.480204 0.004940 -0.185722 0.003595 -0.000897
    31 -0.027022 -1.088639 -0.024116 -0.309884 0.008497 -0.002457
    32 -0.249534 -2.846964 -0.174213 -0.186750 -0.004272 -0.009295
    33 0.043235 -1.680035 0.096012 -0.191390 -0.001132 -0.001461
    34 0.031729 -1.156924 0.058838 -0.245209 -0.001527 0.006874
    35 -0.963866 -2.785145 -0.085350 0.000990 0.162396 -0.190741
    36 0.028479 -1.403067 0.002365 -0.154640 -0.001750 -0.007406
    37 0.021413 -0.957781 0.020046 -0.065310 -0.000599 -0.003068
    38 1.164475 -2.543940 -0.170330 -0.583226 -0.068100 0.414696
    39 0.024032 -1.129042 0.009994 -0.413397 -0.001810 0.022005
    40 0.014898 -0.883989 -0.019848 -0.190635 -0.001678 0.007095
    41 -0.586770 -1.264477 0.200161 0.021517 -0.574282 -2.593237
    42 1.538460 0.043056 0.016848 -0.006320 -0.001010 0.401627
    43 1.114041 0.048424 -0.005766 -0.012216 -0.032904 0.512339
    44 -0.139399 -0.111698 0.014397 0.285382 -0.030687 1.580508
    45 -8.120238 -0.680645 -0.481628 1.562132 -0.037945 0.005545
  time 18
    0 4.746444 -9.954236 -4.255450 0.126967 0.145515 0.078190
    1 0.000000 2.286976 0.873885 0.000000 0.000000 0.000000
    2 0.000000 -0.743733 1.487464 0.000000 0.000000 0.000000
    3 0.000000 -1.227157 2.045263 0.000000 0.000000 0.000000
    4 0.000001 -1.580431 1.264344 0.000000 0.000000 0.000000
    5 0.000000 -2.844775 1.022632 0.000000 0.000000 0.000000
    6 0.024938 -1.409605 0.862229 0.000000 0.000000 0.000000
    7 1.548076 5.823131 -6.425358 0.000000 0.000000 0.216777
    8 4.872468 -5.948071 -1.506840 0.871987 -2.171475 -1.323815
    9 5.694815 6.485171 -0.255279 1.565234 -3.132412 0.952199
    10 -0.013325 -8.471392 -0.076789 0.231476 0.520938 -0.377233
    11 -0.488518 -2.755602 -0.228260 -0.317159 0.118912 -0.274953
    12 0.039887 -1.554011 0.029854 -2.186484 -0.000036 0.046957
    13 0.028786 -1.118701 -0.097330 -0.661479 -0.012416 0.012296
    14 0.250027 -2.820665 -0.238396 -0.279241 0.001645 -0.191604
    15 -0.049759 -1.598510 0.006726 -1.867416 -0.007071 -0.047137
    16 -0.034142 -1.175657 0.045718 -1.221971 0.005992 -0.032239
    17 0.957766 -2.746780 -0.090302 0.020387 -0.095283 -0.001682
    18 -0.033420 -1.397129 -0.015163 -0.231150 0.005513 -0.011051
    19 -0.022360 -0.961342 -0.004654 -0.890998 0.005405 -0.043372
    20 -1.180681 -2.507217 -0.193859 -0.363374 0.387812 -0.251394
    21 -0.024967 -1.127840 0.017597 -1.854825 -0.023885 -0.068491
    22 -0.020057 -0.902687 0.025715 -0.804503 0.007526 -0.032298
    23 0.610855 -1.189464 0.177566 0.581784 -0.757762 -0.601920
    24 1.481238 -0.212417 0.067511 0.047263 -0.212451 -0.757364
    25 1.038269 -0.155634 0.036197 0.051434 -0.205466 -0.844507
    26 0.120153 -0.050270 -0.054489 0.287569 3.110905 1.561085
    27 -2.763032 -5.676586 -7.485887 -1.414579 -5.570189 -1.332688
    28 0.053974 -8.450418 0.017980 0.198805 -0.430957 0.258767
    29 0.447953 -2.798986 -0.200443 -0.511707 0.005675 0.258610
    30 -0.032909 -1.484110 0.004940 -0.239121 0.005034 -0.001400
    31 -0.027022 -1.088639 -0.028023 -0.359891 0.009779 -0.003092
    32 -0.249534 -2.846964 -0.174213 -0.196297 -0.004451 -0.009319
    33 0.043235 -1.676128 0.096012 -0.266447 -0.002594 -0.001713
    34 0.031729 -1.156924 0.058838 -0.305559 -0.002222 0.006526
    35 -0.963866 -2.785145 -0.085350 0.002847 0.162408 -0.190657
    36 0.028479 -1.403067 0.002365 -0.153870 -0.001738 -0.007371
    37 0.021413 -0.957781 0.020046 -0.098593 -0.000971 -0.004518
    38 1.164475 -2.543940 -0.170330 -0.604936 -0.060669 0.432961
    39 0.024032 -1.129042 0.006088 -0.484241 -0.001210 0.025948
    40 0.014898 -0.887895 -0.019848 -0.264688 -0.002229 0.011218
    41 -0.586770 -1.264477 0.200161 0.064122 -0.567799 -2.666841
    42 1.538460 0.043056 0.016848 -0.006488 -0.001154 0.409035
    43 1.114041 0.048424 -0.005766 -0.012575 -0.033036 0.524503
    44 -0.139399 -0.111698 0.014397 0.285382 -0.030687 1.580508
    45 -8.221803 0.139693 -0.477722 1.564685 -0.037106 -0.094660
  time 19
    0 4.808946 -9.946423 -4.130446 0.053326 0.231048 0.048393
    1 0.000000 2.286976 0.873885 0.000000 0.000000 0.000000
    2 0.000000 -0.743733 1.487464 0.000000 0.000000 0.000000
    3 0.000000 -1.227157 2.045263 0.000000 0.000000 0.000000
    4 0.000001 -1.580431 1.264344 0.000000 0.000000 0.000000
    5 0.000000 -2.844775 1.022632 0.000000 0.000000 0.000000
    6 0.024938 -1.409605 0.862229 0.000000 0.000000 0.000000
    7 1.548076 5.823131 -6.425358 0.000000 0.000000 0.216777
    8 4.806060 -5.862131 -1.702159 0.957457 -2.127069 -1.399308
    9 5.804194 6.371887 -0.259185 1.565138 -3.131933 0.932786
    10 -0.017232 -8.483111 -0.076789 0.257771 0.522725 -0.265323
    11 -0.488518 -2.755602 -0.228260 -0.317159 0.118912 -0.274953
    12 0.039887 -1.554011 0.029854 -2.186484 -0.000036 0.046957
    13 0.028786 -1.118701 -0.097330 -0.661479 -0.012416 0.012296
    14 0.250027 -2.820665 -0.238396 -0.279241 0.001645 -0.191604
    15 -0.049759 -1.598510 0.006726 -1.867416 -0.007071 -0.047137
    16 -0.034142 -1.175657 0.045718 -1.221971 0.005992 -0.032239
    17 0.957766 -2.746780 -0.090302 0.020387 -0.095283 -0.001682
    18 -0.033420 -1.397129 -0.015163 -0.231150 0.005513 -0.011051
    19 -0.022360 -0.961342 -0.004654 -0.890998 0.005405 -0.043372
    20 -1.180681 -2.507217 -0.193859 -0.363374 0.387812 -0.251394
    21 -0.024967 -1.127840 0.017597 -1.854825 -0.023885 -0.068491
    22 -0.020057 -0.902687 0.025715 -0.804503 0.007526 -0.032298
    23 0.610855 -1.189464 0.177566 0.581784 -0.757762 -0.601920
    24 1.481238 -0.212417 0.067511 0.047263 -0.212451 -0.757364
    25 1.038269 -0.155634 0.036197 0.051434 -0.205466 -0.844507
    26 0.120153 -0.050270 -0.054489 0.287569 3.110905 1.561085
    27 -2.458336 -5.856279 -7.263224 -1.362166 -5.530056 -1.250212
    28 0.030536 -8.454325 0.033605 0.225408 -0.542039 0.269998
    29 0.447953 -2.798986 -0.200443 -0.546377 0.006418 0.257963
    30 -0.032909 -1.484110 0.004940 -0.319220 0.007131 -0.002299
    31 -0.027022 -1.092546 -0.028023 -0.417699 0.011206 -0.003907
    32 -0.249534 -2.846964 -0.174213 -0.210511 -0.004715 -0.009331
    33 0.043235 -1.672222 0.096012 -0.367021 -0.004583 -0.001881
    34 0.031729 -1.156924 0.058838 -0.385160 -0.003169 0.006119
    35 -0.963866 -2.785145 -0.085350 -0.000892 0.162384 -0.190825
    36 0.028479 -1.403067 0.002365 -0.170901 -0.001977 -0.008102
    37 0.021413 -0.957781 0.020046 -0.141616 -0.001522 -0.006388
    38 1.164475 -2.543940 -0.170330 -0.635532 -0.052448 0.451585
    39 0.024032 -1.132948 0.006088 -0.570103 -0.000120 0.030646
    40 0.014898 -0.887895 -0.019848 -0.354797 -0.002481 0.016275
    41 -0.586770 -1.264477 0.200161 0.102712 -0.558307 -2.733332
    42 1.542367 0.043056 0.016848 -0.006775 -0.001382 0.422101
    43 1.114041 0.048424 -0.005766 -0.013114 -0.033216 0.541873
    44 -0.139399 -0.111698 0.014397 0.285382 -0.030687 1.580508
    45 -8.237429 0.971750 -0.469909 1.567154 -0.035991 -0.196026
  time 20
    0 4.887074 -9.919079 -4.122633 0.003424 0.273492 0.030218
    1 0.000000 2.286976 0.873885 0.000000 0.000000 0.000000
    2 0.000000 -0.743733 1.487464 0.000000 0.000000 0.000000
    3 0.000000 -1.227157 2.045263 0.000000 0.000000 0.000000
    4 0.000001 -1.580431 1.264344 0.000000 0.000000 0.000000
    5 0.000000 -2.844775 1.022632 0.000000 0.000000 0.000000
    6 0.024938 -1.409605 0.862229 0.000000 0.000000 0.000000
    7 1.548076 5.823131 -6.425358 0.000000 0.000000 0.216777
    8 4.790434 -5.795723 -1.866226 1.008870 -2.101208 -1.444437
    9 5.913572 6.262508 -0.263091 1.565138 -3.131550 0.913877
    10 -0.021138 -8.490924 -0.076789 0.272728 0.516079 -0.194518
    11 -0.488518 -2.755602 -0.228260 -0.317159 0.118912 -0.274953
    12 0.039887 -1.554011 0.029854 -2.186484 -0.000036 0.046957
    13 0.028786 -1.118701 -0.097330 -0.661479 -0.012416 0.012296
    14 0.250027 -2.820665 -0.238396 -0.279241 0.001645 -0.191604
    15 -0.049759 -1.598510 0.006726 -1.867416 -0.007071 -0.047137
    16 -0.034142 -1.175657 0.045718 -1.221971 0.005992 -0.032239
    17 0.957766 -2.746780 -0.090302 0.020387 -0.095283 -0.001682
    18 -0.033420 -1.397129 -0.015163 -0.231150 0.005513 -0.011051
    19 -0.022360 -0.961342 -0.004654 -0.890998 0.005405 -0.043372
    20 -1.180681 -2.507217 -0.193859 -0.363374 0.387812 -0.251394
    21 -0.024967 -1.127840 0.017597 -1.854825 -0.023885 -0.068491
    22 -0.020057 -0.902687 0.025715 -0.804503 0.007526 -0.032298
    23 0.610855 -1.189464 0.177566 0.581784 -0.757762 -0.601920
    24 1.481238 -0.212417 0.067511 0.047263 -0.212451 -0.757364
    25 1.038269 -0.155634 0.036197 0.051434 -0.205466 -0.844507
    26 0.120153 -0.050270 -0.054489 0.287569 3.110905 1.561085
    27 -2.165358 -6.004721 -7.024935 -1.310424 -5.494093 -1.164872
    28 0.003191 -8.466044 0.045324 0.247395 -0.655673 0.274185
    29 0.447953 -2.798986 -0.200443 -0.579574 0.007125 0.257328
    30 -0.032909 -1.488017 0.004940 -0.411679 0.009456 -0.003545
    31 -0.027022 -1.092546 -0.028023 -0.473140 0.012536 -0.004758
    32 -0.249534 -2.846964 -0.174213 -0.223801 -0.004967 -0.009355
    33 0.043235 -1.672222 0.092106 -0.475387 -0.006717 -0.001845
    34 0.031729 -1.153017 0.058838 -0.473747 -0.004260 0.005771
    35 -0.963866 -2.785145 -0.085350 -0.011510 0.162312 -0.191304
    36 0.028479 -1.403067 0.002365 -0.210320 -0.002589 -0.009779
    37 0.021413 -0.953875 0.020046 -0.188659 -0.002205 -0.008401
    38 1.164475 -2.543940 -0.170330 -0.669505 -0.043867 0.469694
    39 0.024032 -1.132948 0.002182 -0.657281 0.001390 0.035308
    40 0.014898 -0.891802 -0.019848 -0.446058 -0.002265 0.021404
    41 -0.586770 -1.264477 0.200161 0.134028 -0.548504 -2.787430
    42 1.542367 0.043056 0.016848 -0.007255 -0.001753 0.443268
    43 1.114041 0.048424 -0.005766 -0.013893 -0.033467 0.567291
    44 -0.139399 -0.111698 0.014397 0.285382 -0.030687 1.580508
    45 -8.171021 1.780368 -0.462096 1.569443 -0.034685 -0.294619
  time 21
    0 4.902699 -9.868296 -4.310139 -0.012696 0.243570 0.022948
    1 0.000000 2.286976 0.873885 0.000000 0.000000 0.000000
    2 0.000000 -0.743733 1.487464 0.000000 0.000000 0.000000
    3 0.000000 -1.227157 2.045263 0.000000 0.000000 0.000000
    4 0.000001 -1.580431 1.264344 0.000000 0.000000 0.000000
    5 0.000000 -2.844775 1.022632 0.000000 0.000000 0.000000
    6 0.024938 -1.409605 0.862229 0.000000 0.000000 0.000000
    7 1.548076 5.823131 -6.425358 0.000000 0.000000 0.216777
    8 4.868562 -5.744940 -2.034200 0.988210 -2.099804 -1.425786
    9 6.058108 6.102347 -0.266998 1.565042 -3.130975 0.887404
    10 -0.025045 -8.490924 -0.080696 0.266191 0.492933 -0.180927
    11 -0.488518 -2.755602 -0.228260 -0.317159 0.118912 -0.274953
    12 0.039887 -1.554011 0.029854 -2.186484 -0.000036 0.046957
    13 0.028786 -1.118701 -0.097330 -0.661479 -0.012416 0.012296
    14 0.250027 -2.820665 -0.238396 -0.279241 0.001645 -0.191604
    15 -0.049759 -1.598510 0.006726 -1.867416 -0.007071 -0.047137
    16 -0.034142 -1.175657 0.045718 -1.221971 0.005992 -0.032239
    17 0.957766 -2.746780 -0.090302 0.020387 -0.095283 -0.001682
    18 -0.033420 -1.397129 -0.015163 -0.231150 0.005513 -0.011051
    19 -0.022360 -0.961342 -0.004654 -0.890998 0.005405 -0.043372
    20 -1.180681 -2.507217 -0.193859 -0.363374 0.387812 -0.251394
    21 -0.024967 -1.127840 0.017597 -1.854825 -0.023885 -0.068491
    22 -0.020057 -0.902687 0.025715 -0.804503 0.007526 -0.032298
    23 0.610855 -1.189464 0.177566 0.581784 -0.757762 -0.601920
    24 1.481238 -0.212417 0.067511 0.047263 -0.212451 -0.757364
    25 1.038269 -0.155634 0.036197 0.051434 -0.205466 -0.844507
    26 0.120153 -0.050270 -0.054489 0.287569 3.110905 1.561085
    27 -1.888006 -6.118006 -6.790553 -1.259879 -5.462458 -1.079627
    28 -0.024153 -8.473857 0.053137 0.262041 -0.773818 0.269147
    29 0.447953 -2.798986 -0.200443 -0.604806 0.007641 0.256825
    30 -0.032909 -1.488017 0.008846 -0.502338 0.011601 -0.004960
    31 -0.027022 -1.096452 -0.028023 -0.515913 0.013531 -0.005477
    32 -0.249534 -2.846964 -0.174213 -0.230623 -0.005087 -0.009355
    33 0.043235 -1.668316 0.092106 -0.573623 -0.008646 -0.001605
    34 0.031729 -1.153017 0.058838 -0.561099 -0.005362 0.005508
    35 -0.963866 -2.785145 -0.085350 -0.030278 0.162180 -0.192131
    36 0.028479 -1.403067 -0.001542 -0.276674 -0.003775 -0.012536
    37 0.021413 -0.953875 0.020046 -0.233958 -0.002960 -0.010307
    38 1.164475 -2.543940 -0.170330 -0.701347 -0.035669 0.486568
    39 0.024032 -1.132948 0.002182 -0.732269 0.003020 0.039191
    40 0.014898 -0.891802 -0.019848 -0.523560 -0.001714 0.025731
    41 -0.586770 -1.264477 0.200161 0.155421 -0.541505 -2.824347
    42 1.542367 0.039149 0.016848 -0.007986 -0.002281 0.474981
    43 1.114041 0.048424 -0.005766 -0.015008 -0.033779 0.603598
    44 -0.139399 -0.111698 0.014397 0.285382 -0.030687 1.580508
    45 -8.042110 2.526484 -0.454283 1.571444 -0.033271 -0.386506
  time 22
    0 4.836291 -9.770637 -4.642181 -0.012960 0.157211 0.014757
    1 0.000000 2.286976 0.873885 0.000000 0.000000 0.000000
    2 0.000000 -0.743733 1.487464 0.000000 0.000000 0.000000
    3 0.000000 -1.227157 2.045263 0.000000 0.000000 0.000000
    4 0.000001 -1.580431 1.264344 0.000000 0.000000 0.000000
    5 0.000000 -2.844775 1.022632 0.000000 0.000000 0.000000
    6 0.024938 -1.409605 0.862229 0.000000 0.000000 0.000000
    7 1.548076 5.823131 -6.425358 0.000000 0.000000 0.216777
    8 5.032629 -5.698064 -2.229518 0.916231 -2.117316 -1.364457
    9 6.257333 5.860152 -0.270904 1.565042 -3.130208 0.848998
    10 -0.032857 -8.483111 -0.084602 0.241927 0.452643 -0.199739
    11 -0.488518 -2.755602 -0.228260 -0.317159 0.118912 -0.274953
    12 0.039887 -1.554011 0.029854 -2.186484 -0.000036 0.046957
    13 0.028786 -1.118701 -0.097330 -0.661479 -0.012416 0.012296
    14 0.250027 -2.820665 -0.238396 -0.279241 0.001645 -0.191604
    15 -0.049759 -1.598510 0.006726 -1.867416 -0.007071 -0.047137
    16 -0.034142 -1.175657 0.045718 -1.221971 0.005992 -0.032239
    17 0.957766 -2.746780 -0.090302 0.020387 -0.095283 -0.001682
    18 -0.033420 -1.397129 -0.015163 -0.231150 0.005513 -0.011051
    19 -0.022360 -0.961342 -0.004654 -0.890998 0.005405 -0.043372
    20 -1.180681 -2.507217 -0.193859 -0.363374 0.387812 -0.251394
    21 -0.024967 -1.127840 0.017597 -1.854825 -0.023885 -0.068491
    22 -0.020057 -0.902687 0.025715 -0.804503 0.007526 -0.032298
    23 0.610855 -1.189464 0.177566 0.581784 -0.757762 -0.601920
    24 1.481238 -0.212417 0.067511 0.047263 -0.212451 -0.757364
    25 1.038269 -0.155634 0.036197 0.051434 -0.205466 -0.844507
    26 0.120153 -0.050270 -0.054489 0.287569 3.110905 1.561085
    27 -1.618466 -6.207852 -6.544452 -1.209622 -5.433735 -0.991137
    28 -0.059311 -8.485576 0.057043 0.255166 -0.922115 0.236508
    29 0.447953 -2.798986 -0.200443 -0.630641 0.008144 0.256297
    30 -0.032909 -1.491923 0.012753 -0.698716 0.015784 -0.008675
    31 -0.027022 -1.096452 -0.028023 -0.559586 0.014501 -0.006244
    32 -0.249534 -2.846964 -0.174213 -0.238014 -0.005230 -0.009367
    33 0.043235 -1.664409 0.088199 -0.752436 -0.012062 -0.000694
    34 0.031729 -1.149111 0.058838 -0.728179 -0.007508 0.005292
    35 -0.963866 -2.785145 -0.085350 -0.094084 0.161581 -0.194972
    36 0.028479 -1.403067 -0.005448 -0.489954 -0.008773 -0.020781
    37 0.021413 -0.953875 0.020046 -0.316836 -0.004566 -0.013698
    38 1.164475 -2.543940 -0.170330 -0.765232 -0.025842 0.504641
    39 0.024032 -1.136855 -0.001725 -0.840120 0.005860 0.044548
    40 0.014898 -0.895708 -0.019848 -0.634063 -0.000360 0.031783
    41 -0.586770 -1.264477 0.200161 0.144083 -0.543566 -2.799394
    42 1.546273 0.039149 0.016848 -0.010023 -0.003599 0.560295
    43 1.114041 0.044518 -0.005766 -0.017836 -0.034390 0.693475
    44 -0.139399 -0.111698 0.014397 0.285382 -0.030687 1.580508
    45 -7.842886 3.256976 -0.442564 1.573314 -0.031677 -0.478263
  time 23
    0 4.750351 -9.661258 -4.989847 -0.005362 0.060627 0.006156
    1 0.000000 2.286976 0.873885 0.000000 0.000000 0.000000
    2 0.000000 -0.743733 1.487464 0.000000 0.000000 0.000000
    3 0.000000 -1.227157 2.045263 0.000000 0.000000 0.000000
    4 0.000001 -1.580431 1.264344 0.000000 0.000000 0.000000
    5 0.000000 -2.844775 1.022632 0.000000 0.000000 0.000000
    6 0.024938 -1.409605 0.862229 0.000000 0.000000 0.000000
    7 1.548076 5.823131 -6.425358 0.000000 0.000000 0.216777
    8 5.216228 -5.651187 -2.397492 0.839063 -2.141994 -1.301485
    9 6.444838 5.621864 -0.278717 1.565042 -3.129346 0.811516
    10 -0.040670 -8.475298 -0.088509 0.215743 0.410750 -0.227513
    11 -0.488518 -2.755602 -0.228260 -0.317159 0.118912 -0.274953
    12 0.039887 -1.554011 0.029854 -2.186484 -0.000036 0.046957
    13 0.028786 -1.118701 -0.097330 -0.661479 -0.012416 0.012296
    14 0.250027 -2.820665 -0.238396 -0.279241 0.001645 -0.191604
    15 -0.049759 -1.598510 0.006726 -1.867416 -0.007071 -0.047137
    16 -0.034142 -1.175657 0.045718 -1.221971 0.005992 -0.032239
    17 0.957766 -2.746780 -0.090302 0.020387 -0.095283 -0.001682
    18 -0.033420 -1.397129 -0.015163 -0.231150 0.005513 -0.011051
    19 -0.022360 -0.961342 -0.004654 -0.890998 0.005405 -0.043372
    20 -1.180681 -2.507217 -0.193859 -0.363374 0.387812 -0.251394
    21 -0.024967 -1.127840 0.017597 -1.854825 -0.023885 -0.068491
    22 -0.020057 -0.902687 0.025715 -0.804503 0.007526 -0.032298
    23 0.610855 -1.189464 0.177566 0.581784 -0.757762 -0.601920
    24 1.481238 -0.212417 0.067511 0.047263 -0.212451 -0.757364
    25 1.038269 -0.155634 0.036197 0.051434 -0.205466 -0.844507
    26 0.120153 -0.050270 -0.054489 0.287569 3.110905 1.561085
    27 -1.376271 -6.278167 -6.302257 -1.166791 -5.410363 -0.910380
    28 -0.098374 -8.489482 0.057043 0.237149 -1.079683 0.180453
    29 0.447953 -2.798986 -0.200443 -0.660157 0.008719 0.255674
    30 -0.032909 -1.495829 0.016659 -0.988633 0.020446 -0.015458
    31 -0.027022 -1.100358 -0.028023 -0.608726 0.015568 -0.007155
    32 -0.249534 -2.846964 -0.174213 -0.250594 -0.005458 -0.009379
    33 0.043235 -1.660503 0.080387 -1.005656 -0.016496 0.001595
    34 0.031729 -1.145205 0.058838 -0.962935 -0.010516 0.005592
    35 -0.963866 -2.785145 -0.085350 -0.193005 0.160311 -0.199286
    36 0.028479 -1.403067 -0.017167 -0.816751 -0.019487 -0.030872
    37 0.021413 -0.949968 0.020046 -0.431955 -0.007239 -0.018169
    38 1.164475 -2.543940 -0.170330 -0.858104 -0.014013 0.521611
    39 0.024032 -1.140761 -0.005631 -0.980150 0.010379 0.050995
    40 0.014898 -0.899614 -0.019848 -0.777832 0.002373 0.039381
    41 -0.586770 -1.264477 0.200161 0.104366 -0.550661 -2.721031
    42 1.554086 0.035243 0.016848 -0.013199 -0.005193 0.685294
    43 1.114041 0.044518 -0.005766 -0.021935 -0.034822 0.822050
    44 -0.139399 -0.111698 0.014397 0.285382 -0.030687 1.580508
    45 -7.600691 3.901526 -0.434751 1.574884 -0.030083 -0.562025
  time 24
    0 4.703474 -9.587037 -5.216417 0.000011 -0.000007 -0.000090
    1 0.000000 2.286976 0.873885 0.000000 0.000000 0.000000
    2 0.000000 -0.743733 1.487464 0.000000 0.000000 0.000000
    3 0.000000 -1.227157 2.045263 0.000000 0.000000 0.000000
    4 0.000001 -1.580431 1.264344 0.000000 0.000000 0.000000
    5 0.000000 -2.844775 1.022632 0.000000 0.000000 0.000000
    6 0.024938 -1.409605 0.862229 0.000000 0.000000 0.000000
    7 1.548076 5.823131 -6.425358 0.000000 0.000000 0.216777
    8 5.337326 -5.619936 -2.499058 0.793404 -2.158397 -1.265669
    9 6.562029 5.465609 -0.282623 1.565042 -3.128866 0.787733
    10 -0.044576 -8.467485 -0.092415 0.200195 0.383982 -0.243807
    11 -0.488518 -2.755602 -0.228260 -0.317159 0.118912 -0.274953
    12 0.039887 -1.554011 0.029854 -2.186484 -0.000036 0.046957
    13 0.028786 -1.118701 -0.097330 -0.661479 -0.012416 0.012296
    14 0.250027 -2.820665 -0.238396 -0.279241 0.001645 -0.191604
    15 -0.049759 -1.598510 0.006726 -1.867416 -0.007071 -0.047137
    16 -0.034142 -1.175657 0.045718 -1.221971 0.005992 -0.032239
    17 0.957766 -2.746780 -0.090302 0.020387 -0.095283 -0.001682
    18 -0.033420 -1.397129 -0.015163 -0.231150 0.005513 -0.011051
    19 -0.022360 -0.961342 -0.004654 -0.890998 0.005405 -0.043372
    20 -1.180681 -2.507217 -0.193859 -0.363374 0.387812 -0.251394
    21 -0.024967 -1.127840 0.017597 -1.854825 -0.023885 -0.068491
    22 -0.020057 -0.902687 0.025715 -0.804503 0.007526 -0.032298
    23 0.610855 -1.189464 0.177566 0.581784 -0.757762 -0.601920
    24 1.481238 -0.212417 0.067511 0.047263 -0.212451 -0.757364
    25 1.038269 -0.155634 0.036197 0.051434 -0.205466 -0.844507
    26 0.120153 -0.050270 -0.054489 0.287569 3.110905 1.561085
    27 -1.235642 -6.313324 -6.153815 -1.142213 -5.397221 -0.861887
    28 -0.121813 -8.493389 0.053137 0.231818 -1.177822 0.137126
    29 0.447953 -2.798986 -0.200443 -0.678697 0.009067 0.255279
    30 -0.032909 -1.499736 0.020565 -1.178410 0.022351 -0.020516
    31 -0.027022 -1.100358 -0.028023 -0.639531 0.016203 -0.007754
    32 -0.249534 -2.846964 -0.174213 -0.258956 -0.005614 -0.009379
    33 0.043235 -1.656596 0.076480 -1.170445 -0.019025 0.003656
    34 0.031729 -1.141298 0.054932 -1.115535 -0.012397 0.006167
    35 -0.963866 -2.785145 -0.085350 -0.258141 0.159244 -0.202043
    36 0.028479 -1.406973 -0.021074 -1.031688 -0.028068 -0.035402
    37 0.021413 -0.949968 0.020046 -0.506666 -0.009240 -0.020889
    38 1.164475 -2.543940 -0.170330 -0.918692 -0.005888 0.531366
    39 0.024032 -1.140761 -0.005631 -1.070107 0.013746 0.054771
    40 0.014898 -0.899614 -0.015942 -0.870242 0.004710 0.044031
    41 -0.586770 -1.264477 0.200161 0.075951 -0.554112 -2.665786
    42 1.557992 0.035243 0.016848 -0.015368 -0.006020 0.767033
    43 1.114041 0.044518 -0.005766 -0.024632 -0.034810 0.905845
    44 -0.139399 -0.111698 0.014397 0.285382 -0.030687 1.580508
    45 -7.432717 4.280444 -0.426939 1.575758 -0.029064 -0.612321
  time 25
    0 4.687849 -9.559693 -5.294544 0.000385 -0.018951 -0.002650
    1 0.000000 2.286976 0.873885 0.000000 0.000000 0.000000
    2 0.000000 -0.743733 1.487464 0.000000 0.000000 0.000000
    3 0.000000 -1.227157 2.045263 0.000000 0.000000 0.000000
    4 0.000001 -1.580431 1.264344 0.000000 0.000000 0.000000
    5 0.000000 -2.844775 1.022632 0.000000 0.000000 0.000000
    6 0.024938 -1.409605 0.862229 0.000000 0.000000 0.000000
    7 1.548076 5.823131 -6.425358 0.000000 0.000000 0.216777
    8 5.376390 -5.608217 -2.538122 0.779725 -2.162830 -1.255130
    9 6.601093 5.407014 -0.286530 1.565042 -3.128675 0.778993
    10 -0.048483 -8.467485 -0.092415 0.195542 0.374724 -0.246733
    11 -0.488518 -2.755602 -0.228260 -0.317159 0.118912 -0.274953
    12 0.039887 -1.554011 0.029854 -2.186484 -0.000036 0.046957
    13 0.028786 -1.118701 -0.097330 -0.661479 -0.012416 0.012296
    14 0.250027 -2.820665 -0.238396 -0.279241 0.001645 -0.191604
    15 -0.049759 -1.598510 0.006726 -1.867416 -0.007071 -0.047137
    16 -0.034142 -1.175657 0.045718 -1.221971 0.005992 -0.032239
    17 0.957766 -2.746780 -0.090302 0.020387 -0.095283 -0.001682
    18 -0.033420 -1.397129 -0.015163 -0.231150 0.005513 -0.011051
    19 -0.022360 -0.961342 -0.004654 -0.890998 0.005405 -0.043372
    20 -1.180681 -2.507217 -0.193859 -0.363374 0.387812 -0.251394
    21 -0.024967 -1.127840 0.017597 -1.854825 -0.023885 -0.068491
    22 -0.020057 -0.902687 0.025715 -0.804503 0.007526 -0.032298
    23 0.610855 -1.189464 0.177566 0.581784 -0.757762 -0.601920
    24 1.481238 -0.212417 0.067511 0.047263 -0.212451 -0.757364
    25 1.038269 -0.155634 0.036197 0.051434 -0.205466 -0.844507
    26 0.120153 -0.050270 -0.054489 0.287569 3.110905 1.561085
    27 -1.188766 -6.250822 -6.220223 -1.128798 -5.384394 -0.839931
    28 -0.125719 -8.497295 0.053137 0.324347 -1.200163 -0.022395
    29 0.447953 -2.798986 -0.200443 -0.684419 0.009175 0.255159
    30 -0.032909 -1.499736 0.024472 -1.230610 0.022711 -0.021954
    31 -0.027022 -1.100358 -0.028023 -0.649065 0.016395 -0.007946
    32 -0.249534 -2.846964 -0.174213 -0.261136 -0.005662 -0.009379
    33 0.043235 -1.656596 0.076480 -1.216479 -0.019660 0.004303
    34 0.031729 -1.141298 0.054932 -1.158295 -0.012913 0.006371
    35 -0.963866 -2.785145 -0.085350 -0.275723 0.158920 -0.202774
    36 0.028479 -1.406973 -0.021074 -1.089950 -0.030549 -0.036301
    37 0.021413 -0.949968 0.020046 -0.527699 -0.009839 -0.021620
    38 1.164475 -2.543940 -0.170330 -0.935417 -0.003203 0.534542
    39 0.024032 -1.140761 -0.005631 -1.096193 0.014789 0.055813
    40 0.014898 -0.899614 -0.015942 -0.896961 0.005453 0.045338
    41 -0.586770 -1.264477 0.200161 0.069719 -0.554640 -2.653470
    42 1.561899 0.035243 0.016848 -0.015980 -0.006211 0.789564
    43 1.114041 0.044518 -0.005766 -0.025387 -0.034774 0.929164
    44 -0.139399 -0.111698 0.014397 0.285382 -0.030687 1.580508
    45 -7.424904 4.296070 -0.426939 1.575794 -0.029016 -0.614385
  time 26
    0 4.687849 -9.551880 -5.314076 0.000495 -0.024261 -0.003367
    1 0.000000 2.286976 0.873885 0.000000 0.000000 0.000000
    2 0.000000 -0.743733 1.487464 0.000000 0.000000 0.000000
    3 0.000000 -1.227157 2.045263 0.000000 0.000000 0.000000
    4 0.000001 -1.580431 1.264344 0.000000 0.000000 0.000000
    5 0.000000 -2.844775 1.022632 0.000000 0.000000 0.000000
    6 0.024938 -1.409605 0.862229 0.000000 0.000000 0.000000
    7 1.548076 5.823131 -6.425358 0.000000 0.000000 0.216777
    8 5.388109 -5.604311 -2.549841 0.775952 -2.164160 -1.252235
    9 6.612812 5.391388 -0.286530 1.565042 -3.128579 0.776556
    10 -0.048483 -8.467485 -0.092415 0.194250 0.372111 -0.247547
    11 -0.488518 -2.755602 -0.228260 -0.317159 0.118912 -0.274953
    12 0.039887 -1.554011 0.029854 -2.186484 -0.000036 0.046957
    13 0.028786 -1.118701 -0.097330 -0.661479 -0.012416 0.012296
    14 0.250027 -2.820665 -0.238396 -0.279241 0.001645 -0.191604
    15 -0.049759 -1.598510 0.006726 -1.867416 -0.007071 -0.047137
    16 -0.034142 -1.175657 0.045718 -1.221971 0.005992 -0.032239
    17 0.957766 -2.746780 -0.090302 0.020387 -0.095283 -0.001682
    18 -0.033420 -1.397129 -0.015163 -0.231150 0.005513 -0.011051
    19 -0.022360 -0.961342 -0.004654 -0.890998 0.005405 -0.043372
    20 -1.180681 -2.507217 -0.193859 -0.363374 0.387812 -0.251394
    21 -0.024967 -1.127840 0.017597 -1.854825 -0.023885 -0.068491
    22 -0.020057 -0.902687 0.025715 -0.804503 0.007526 -0.032298
    23 0.610855 -1.189464 0.177566 0.581784 -0.757762 -0.601920
    24 1.481238 -0.212417 0.067511 0.047263 -0.212451 -0.757364
    25 1.038269 -0.155634 0.036197 0.051434 -0.205466 -0.844507
    26 0.120153 -0.050270 -0.054489 0.287569 3.110905 1.561085
    27 -1.173140 -6.235197 -6.239755 -1.125493 -5.380538 -0.834108
    28 -0.125719 -8.497295 0.053137 0.353374 -1.205732 -0.070248
    29 0.447953 -2.798986 -0.200443 -0.685992 0.009199 0.255123
    30 -0.032909 -1.499736 0.024472 -1.245250 0.022795 -0.022361
    31 -0.027022 -1.100358 -0.028023 -0.651732 0.016455 -0.007994
    32 -0.249534 -2.846964 -0.174213 -0.261752 -0.005674 -0.009379
    33 0.043235 -1.656596 0.076480 -1.229399 -0.019840 0.004483
    34 0.031729 -1.141298 0.054932 -1.170306 -0.013056 0.006430
    35 -0.963866 -2.785145 -0.085350 -0.280636 0.158836 -0.202977
    36 0.028479 -1.406973 -0.024980 -1.106249 -0.031256 -0.036529
    37 0.021413 -0.949968 0.020046 -0.533590 -0.010019 -0.021836
    38 1.164475 -2.543940 -0.170330 -0.940081 -0.002436 0.535417
    39 0.024032 -1.144668 -0.005631 -1.103506 0.015077 0.056101
    40 0.014898 -0.899614 -0.015942 -0.904482 0.005669 0.045697
    41 -0.586770 -1.264477 0.200161 0.067969 -0.554772 -2.650012
    42 1.561899 0.035243 0.016848 -0.016147 -0.006271 0.795891
    43 1.114041 0.044518 -0.005766 -0.025590 -0.034750 0.935671
    44 -0.139399 -0.111698 0.014397 0.285382 -0.030687 1.580508
    45 -7.420998 4.303882 -0.426939 1.575818 -0.028992 -0.615545
  time 27
    0 4.687849 -9.559693 -5.298451 0.000407 -0.020493 -0.002855
    1 0.000000 2.286976 0.873885 0.000000 0.000000 0.000000
    2 0.000000 -0.743733 1.487464 0.000000 0.000000 0.000000
    3 0.000000 -1.227157 2.045263 0.000000 0.000000 0.000000
    4 0.000001 -1.580431 1.264344 0.000000 0.000000 0.000000
    5 0.000000 -2.844775 1.022632 0.000000 0.000000 0.000000
    6 0.024938 -1.409605 0.862229 0.000000 0.000000 0.000000
    7 1.548076 5.823131 -6.425358 0.000000 0.000000 0.216777
    8 5.380296 -5.604311 -2.542028 0.778688 -2.163200 -1.254322
    9 6.604999 5.403107 -0.286530 1.565042 -3.128675 0.778321
    10 -0.048483 -8.467485 -0.092415 0.195173 0.373990 -0.246992
    11 -0.488518 -2.755602 -0.228260 -0.317159 0.118912 -0.274953
    12 0.039887 -1.554011 0.029854 -2.186484 -0.000036 0.046957
    13 0.028786 -1.118701 -0.097330 -0.661479 -0.012416 0.012296
    14 0.250027 -2.820665 -0.238396 -0.279241 0.001645 -0.191604
    15 -0.049759 -1.598510 0.006726 -1.867416 -0.007071 -0.047137
    16 -0.034142 -1.175657 0.045718 -1.221971 0.005992 -0.032239
    17 0.957766 -2.746780 -0.090302 0.020387 -0.095283 -0.001682
    18 -0.033420 -1.397129 -0.015163 -0.231150 0.005513 -0.011051
    19 -0.022360 -0.961342 -0.004654 -0.890998 0.005405 -0.043372
    20 -1.180681 -2.507217 -0.193859 -0.363374 0.387812 -0.251394
    21 -0.024967 -1.127840 0.017597 -1.854825 -0.023885 -0.068491
    22 -0.020057 -0.902687 0.025715 -0.804503 0.007526 -0.032298
    23 0.610855 -1.189464 0.177566 0.581784 -0.757762 -0.601920
    24 1.481238 -0.212417 0.067511 0.047263 -0.212451 -0.757364
    25 1.038269 -0.155634 0.036197 0.051434 -0.205466 -0.844507
    26 0.120153 -0.050270 -0.054489 0.287569 3.110905 1.561085
    27 -1.188766 -6.246916 -6.228036 -1.129134 -5.382978 -0.839454
    28 -0.125719 -8.497295 0.053137 0.333597 -1.202590 -0.036928
    29 0.447953 -2.798986 -0.200443 -0.684854 0.009187 0.255147
    30 -0.032909 -1.499736 0.024472 -1.234810 0.022735 -0.022074
    31 -0.027022 -1.100358 -0.028023 -0.649832 0.016419 -0.007958
    32 -0.249534 -2.846964 -0.174213 -0.261301 -0.005662 -0.009379
    33 0.043235 -1.656596 0.076480 -1.220180 -0.019708 0.004351
    34 0.031729 -1.141298 0.054932 -1.161745 -0.012949 0.006395
    35 -0.963866 -2.785145 -0.085350 -0.277125 0.158896 -0.202834
    36 0.028479 -1.406973 -0.024980 -1.094612 -0.030752 -0.036373
    37 0.021413 -0.949968 0.020046 -0.529380 -0.009887 -0.021680
    38 1.164475 -2.543940 -0.170330 -0.936744 -0.002975 0.534794
    39 0.024032 -1.140761 -0.005631 -1.098289 0.014873 0.055897
    40 0.014898 -0.899614 -0.015942 -0.899129 0.005525 0.045434
    41 -0.586770 -1.264477 0.200161 0.069215 -0.554676 -2.652475
    42 1.561899 0.035243 0.016848 -0.016028 -0.006235 0.791364
    43 1.114041 0.044518 -0.005766 -0.025447 -0.034762 0.931024
    44 -0.139399 -0.111698 0.014397 0.285382 -0.030687 1.580508
    45 -7.424904 4.299976 -0.426939 1.575806 -0.029016 -0.614707
  time 28
    0 4.695662 -9.571412 -5.263293 0.000231 -0.012134 -0.001728
    1 0.000000 2.286976 0.873885 0.000000 0.000000 0.000000
    2 0.000000 -0.743733 1.487464 0.000000 0.000000 0.000000
    3 0.000000 -1.227157 2.045263 0.000000 0.000000 0.000000
    4 0.000001 -1.580431 1.264344 0.000000 0.000000 0.000000
    5 0.000000 -2.844775 1.022632 0.000000 0.000000 0.000000
    6 0.024938 -1.409605 0.862229 0.000000 0.000000 0.000000
    7 1.548076 5.823131 -6.425358 0.000000 0.000000 0.216777
    8 5.364671 -5.612123 -2.526402 0.784631 -2.161279 -1.258913
    9 6.585468 5.426545 -0.282623 1.565042 -3.128771 0.782187
    10 -0.048483 -8.467485 -0.092415 0.197204 0.378070 -0.245696
    11 -0.488518 -2.755602 -0.228260 -0.317159 0.118912 -0.274953
    12 0.039887 -1.554011 0.029854 -2.186484 -0.000036 0.046957
    13 0.028786 -1.118701 -0.097330 -0.661479 -0.012416 0.012296
    14 0.250027 -2.820665 -0.238396 -0.279241 0.001645 -0.191604
    15 -0.049759 -1.598510 0.006726 -1.867416 -0.007071 -0.047137
    16 -0.034142 -1.175657 0.045718 -1.221971 0.005992 -0.032239
    17 0.957766 -2.746780 -0.090302 0.020387 -0.095283 -0.001682
    18 -0.033420 -1.397129 -0.015163 -0.231150 0.005513 -0.011051
    19 -0.022360 -0.961342 -0.004654 -0.890998 0.005405 -0.043372
    20 -1.180681 -2.507217 -0.193859 -0.363374 0.387812 -0.251394
    21 -0.024967 -1.127840 0.017597 -1.854825 -0.023885 -0.068491
    22 -0.020057 -0.902687 0.025715 -0.804503 0.007526 -0.032298
    23 0.610855 -1.189464 0.177566 0.581784 -0.757762 -0.601920
    24 1.481238 -0.212417 0.067511 0.047263 -0.212451 -0.757364
    25 1.038269 -0.155634 0.036197 0.051434 -0.205466 -0.844507
    26 0.120153 -0.050270 -0.054489 0.287569 3.110905 1.561085
    27 -1.212204 -6.274260 -6.200691 -1.136128 -5.388408 -0.850241
    28 -0.121813 -8.493389 0.053137 0.291052 -1.194313 0.035192
    29 0.447953 -2.798986 -0.200443 -0.682345 0.009139 0.255195
    30 -0.032909 -1.499736 0.024472 -1.211830 0.022591 -0.021438
    31 -0.027022 -1.100358 -0.028023 -0.645631 0.016335 -0.007874
    32 -0.249534 -2.846964 -0.174213 -0.260354 -0.005650 -0.009379
    33 0.043235 -1.656596 0.076480 -1.199922 -0.019432 0.004064
    34 0.031729 -1.141298 0.054932 -1.142920 -0.012733 0.006299
    35 -0.963866 -2.785145 -0.085350 -0.269395 0.159040 -0.202510
    36 0.028479 -1.406973 -0.021074 -1.068988 -0.029650 -0.036002
    37 0.021413 -0.949968 0.020046 -0.520128 -0.009624 -0.021357
    38 1.164475 -2.543940 -0.170330 -0.929387 -0.004174 0.533404
    39 0.024032 -1.140761 -0.005631 -1.086831 0.014405 0.055442
    40 0.014898 -0.899614 -0.015942 -0.887362 0.005177 0.044870
    41 -0.586770 -1.264477 0.200161 0.071960 -0.554460 -2.657907
    42 1.561899 0.035243 0.016848 -0.015752 -0.006152 0.781462
    43 1.114041 0.044518 -0.005766 -0.025111 -0.034786 0.920772
    44 -0.139399 -0.111698 0.014397 0.285382 -0.030687 1.580508
    45 -7.428810 4.288257 -0.426939 1.575782 -0.029040 -0.613288
  time 29
    0 4.699568 -9.583131 -5.232042 0.000077 -0.003774 -0.000602
    1 0.000000 2.286976 0.873885 0.000000 0.000000 0.000000
    2 0.000000 -0.743733 1.487464 0.000000 0.000000 0.000000
    3 0.000000 -1.227157 2.045263 0.000000 0.000000 0.000000
    4 0.000001 -1.580431 1.264344 0.000000 0.000000 0.000000
    5 0.000000 -2.844775 1.022632 0.000000 0.000000 0.000000
    6 0.024938 -1.409605 0.862229 0.000000 0.000000 0.000000
    7 1.548076 5.823131 -6.425358 0.000000 0.000000 0.216777
    8 5.345139 -5.619936 -2.506871 0.790668 -2.159284 -1.263530
    9 6.569842 5.453890 -0.282623 1.565042 -3.128866 0.786052
    10 -0.044576 -8.467485 -0.092415 0.199235 0.382149 -0.244400
    11 -0.488518 -2.755602 -0.228260 -0.317159 0.118912 -0.274953
    12 0.039887 -1.554011 0.029854 -2.186484 -0.000036 0.046957
    13 0.028786 -1.118701 -0.097330 -0.661479 -0.012416 0.012296
    14 0.250027 -2.820665 -0.238396 -0.279241 0.001645 -0.191604
    15 -0.049759 -1.598510 0.006726 -1.867416 -0.007071 -0.047137
    16 -0.034142 -1.175657 0.045718 -1.221971 0.005992 -0.032239
    17 0.957766 -2.746780 -0.090302 0.020387 -0.095283 -0.001682
    18 -0.033420 -1.397129 -0.015163 -0.231150 0.005513 -0.011051
    19 -0.022360 -0.961342 -0.004654 -0.890998 0.005405 -0.043372
    20 -1.180681 -2.507217 -0.193859 -0.363374 0.387812 -0.251394
    21 -0.024967 -1.127840 0.017597 -1.854825 -0.023885 -0.068491
    22 -0.020057 -0.902687 0.025715 -0.804503 0.007526 -0.032298
    23 0.610855 -1.189464 0.177566 0.581784 -0.757762 -0.601920
    24 1.481238 -0.212417 0.067511 0.047263 -0.212451 -0.757364
    25 1.038269 -0.155634 0.036197 0.051434 -0.205466 -0.844507
    26 0.120153 -0.050270 -0.054489 0.287569 3.110905 1.561085
    27 -1.235642 -6.301605 -6.169440 -1.143075 -5.393759 -0.860741
    28 -0.121813 -8.493389 0.053137 0.251131 -1.185009 0.104623
    29 0.447953 -2.798986 -0.200443 -0.679835 0.009091 0.255255
    30 -0.032909 -1.499736 0.024472 -1.188850 0.022423 -0.020803
    31 -0.027022 -1.100358 -0.028023 -0.641431 0.016239 -0.007790
    32 -0.249534 -2.846964 -0.174213 -0.259383 -0.005626 -0.009379
    33 0.043235 -1.656596 0.076480 -1.179664 -0.019157 0.003776
    34 0.031729 -1.141298 0.054932 -1.124096 -0.012505 0.006203
    35 -0.963866 -2.785145 -0.085350 -0.261653 0.159184 -0.202198
    36 0.028479 -1.406973 -0.021074 -1.043363 -0.028559 -0.035594
    37 0.021413 -0.949968 0.020046 -0.510856 -0.009360 -0.021033
    38 1.164475 -2.543940 -0.170330 -0.922029 -0.005360 0.532001
    39 0.024032 -1.140761 -0.005631 -1.075324 0.013950 0.054986
    40 0.014898 -0.899614 -0.015942 -0.875595 0.004854 0.044295
    41 -0.586770 -1.264477 0.200161 0.074704 -0.554220 -2.663323
    42 1.561899 0.035243 0.016848 -0.015488 -0.006056 0.771534
    43 1.114041 0.044518 -0.005766 -0.024787 -0.034810 0.910493
    44 -0.139399 -0.111698 0.014397 0.285382 -0.030687 1.580508
    45 -7.432717 4.280444 -0.426939 1.575758 -0.029064 -0.612515
  time 30
    0 4.703474 -9.587037 -5.216417 0.000011 -0.000007 -0.000090
    1 0.000000 2.286976 0.873885 0.000000 0.000000 0.000000
    2 0.000000 -0.743733 1.487464 0.000000 0.000000 0.000000
    3 0.000000 -1.227157 2.045263 0.000000 0.000000 0.000000
    4 0.000001 -1.580431 1.264344 0.000000 0.000000 0.000000
    5 0.000000 -2.844775 1.022632 0.000000 0.000000 0.000000
    6 0.024938 -1.409605 0.862229 0.000000 0.000000 0.000000
    7 1.548076 5.823131 -6.425358 0.000000 0.000000 0.216777
    8 5.337326 -5.619936 -2.499058 0.793404 -2.158397 -1.265669
    9 6.562029 5.465609 -0.282623 1.565042 -3.128866 0.787733
    10 -0.044576 -8.467485 -0.092415 0.200195 0.383982 -0.243807
    11 -0.488518 -2.755602 -0.228260 -0.317159 0.118912 -0.274953
    12 0.039887 -1.554011 0.029854 -2.186484 -0.000036 0.046957
    13 0.028786 -1.118701 -0.097330 -0.661479 -0.012416 0.012296
    14 0.250027 -2.820665 -0.238396 -0.279241 0.001645 -0.191604
    15 -0.049759 -1.598510 0.006726 -1.867416 -0.007071 -0.047137
    16 -0.034142 -1.175657 0.045718 -1.221971 0.005992 -0.032239
    17 0.957766 -2.746780 -0.090302 0.020387 -0.095283 -0.001682
    18 -0.033420 -1.397129 -0.015163 -0.231150 0.005513 -0.011051
    19 -0.022360 -0.961342 -0.004654 -0.890998 0.005405 -0.043372
    20 -1.180681 -2.507217 -0.193859 -0.363374 0.387812 -0.251394
    21 -0.024967 -1.127840 0.017597 -1.854825 -0.023885 -0.068491
    22 -0.020057 -0.902687 0.025715 -0.804503 0.007526 -0.032298
    23 0.610855 -1.189464 0.177566 0.581784 -0.757762 -0.601920
    24 1.481238 -0.212417 0.067511 0.047263 -0.212451 -0.757364
    25 1.038269 -0.155634 0.036197 0.051434 -0.205466 -0.844507
    26 0.120153 -0.050270 -0.054489 0.287569 3.110905 1.561085
    27 -1.247361 -6.317230 -6.157721 -1.146573 -5.396041 -0.865896
    28 -0.121813 -8.493389 0.053137 0.234077 -1.180747 0.135050
    29 0.447953 -2.798986 -0.200443 -0.678697 0.009067 0.255279
    30 -0.032909 -1.499736 0.020565 -1.178410 0.022351 -0.020516
    31 -0.027022 -1.100358 -0.028023 -0.639531 0.016203 -0.007754
    32 -0.249534 -2.846964 -0.174213 -0.258956 -0.005614 -0.009379
    33 0.043235 -1.656596 0.076480 -1.170445 -0.019025 0.003656
    34 0.031729 -1.141298 0.054932 -1.115535 -0.012397 0.006167
    35 -0.963866 -2.785145 -0.085350 -0.258141 0.159244 -0.202043
    36 0.028479 -1.406973 -0.021074 -1.031688 -0.028068 -0.035402
    37 0.021413 -0.949968 0.020046 -0.506666 -0.009240 -0.020889
    38 1.164475 -2.543940 -0.170330 -0.918692 -0.005888 0.531366
    39 0.024032 -1.140761 -0.005631 -1.070107 0.013746 0.054771
    40 0.014898 -0.899614 -0.015942 -0.870242 0.004710 0.044031
    41 -0.586770 -1.264477 0.200161 0.075951 -0.554112 -2.665786
    42 1.557992 0.035243 0.016848 -0.015368 -0.006020 0.767033
    43 1.114041 0.044518 -0.005766 -0.024632 -0.034810 0.905845
    44 -0.139399 -0.111698 0.014397 0.285382 -0.030687 1.580508
    45 -7.432717 4.280444 -0.426939 1.575758 -0.029064 -0.612321
end
