version 1
nodes
  0 "root" -1
  1 "Bone01" 0
  2 "Bone_Lefthand" 1
  3 "Bone02" 2
  4 "Dummy01" 3
  5 "Bone08" 4
  6 "Bone16" 3
  7 "Bone_L_Upper" 1
  8 "Bone13" 2
  9 "Bone14" 8
  10 "Bone15" 9
  11 "Bone17" 2
  12 "Bone18" 11
  13 "Bone19" 12
  14 "Bone21" 2
  15 "Bone22" 14
  16 "Bone23" 15
  17 "Bone09" 2
  18 "Bone10" 17
  19 "Bone11" 18
  20 "Bone05" 2
  21 "Bone06" 20
  22 "Bone07" 21
  23 "Bone_Se_Hand-L" 2
  24 "Bone04" 0
  25 "Bone_Righthand" 24
  26 "Bone39" 25
  27 "Bone40" 26
  28 "Bone41" 27
  29 "Bone35" 25
  30 "Bone36" 29
  31 "Bone37" 30
  32 "Bone31" 25
  33 "Bone32" 32
  34 "Bone33" 33
  35 "Bone43" 25
  36 "Bone44" 35
  37 "Bone45" 36
  38 "Bone27" 25
  39 "Bone28" 38
  40 "Bone29" 39
  41 "Bone_Se_Hand-R" 25
  42 "Bone_R_Upper" 24
end
skeleton
  time 0
    0 -0.368931 1.166145 1.199636 0.000000 0.000000 0.000000
    1 5.644175 -2.328725 -12.772295 -1.970092 -1.023683 1.523384
    2 -0.071918 -8.498730 -0.104136 0.144348 0.095736 -0.217592
    3 5.233845 1.354622 1.688628 -0.065772 2.858007 1.272336
    4 19.997025 0.102143 0.000001 0.000000 0.000000 0.000000
    5 -24.084936 63.973696 -0.011719 0.000000 0.000000 0.000000
    6 6.506417 1.675302 0.000001 0.000000 0.000000 1.570796
    7 1.257180 8.762585 -0.153713 -1.570562 0.002683 -1.566807
    8 -0.488518 -2.755602 -0.228260 -0.636863 -0.077551 -0.298478
    9 0.039887 -1.479790 0.029854 -2.230118 0.000000 0.000001
    10 0.028786 -1.075731 -0.023109 -0.271941 0.000000 0.000000
    11 0.250027 -2.820665 -0.238396 -0.437192 -0.061406 -0.314674
    12 -0.049759 -1.680544 0.100479 -2.308695 0.000000 -0.000002
    13 -0.034142 -1.148312 0.084782 -0.535851 0.000000 0.000000
    14 0.957766 -2.746780 -0.090302 0.398790 -0.132819 0.006168
    15 -0.033420 -1.397129 -0.011257 -0.767419 0.000000 -0.000001
    16 -0.022360 -0.957436 0.018784 -0.380385 0.000000 0.000000
    17 -1.180681 -2.507217 -0.193859 -0.535961 0.112898 -0.284556
    18 -0.024967 -1.123934 0.017597 -1.884509 0.000000 0.000001
    19 -0.020057 -0.890968 0.010090 -0.772262 0.000000 0.000000
    20 0.583510 -1.197277 0.185379 0.385373 -0.553917 -0.837084
    21 1.535927 0.010246 0.005009 -0.002964 -0.012979 -0.682290
    22 1.100771 0.004527 -0.010679 -0.016147 -0.001453 -1.484153
    23 0.120153 -0.050270 -0.054489 0.287569 3.110905 1.561085
    24 -4.669341 2.003336 -12.513384 0.499407 -3.157637 0.708178
    25 0.096944 -8.450418 -0.009365 -0.763037 -1.346425 1.363381
    26 0.447953 -2.798986 -0.200443 -1.456960 0.099071 0.252834
    27 -0.032909 -1.480204 0.004940 -1.601340 0.000000 0.000002
    28 -0.027022 -1.076920 -0.020210 -0.353735 0.000000 0.000000
    29 -0.249534 -2.846964 -0.174213 -1.241183 0.075210 0.132159
    30 0.043235 -1.683941 0.096012 -1.813709 0.002823 -0.000167
    31 0.031729 -1.160830 0.058838 -0.456154 0.000642 0.008372
    32 -0.963866 -2.785145 -0.085350 -1.148608 0.139589 0.121877
    33 0.028479 -1.403067 0.006271 -1.391232 0.000000 0.000000
    34 0.021413 -0.957781 0.020046 -0.471322 0.000000 0.000000
    35 1.164475 -2.543940 -0.170330 -1.423710 -0.066254 0.446863
    36 0.024032 -1.129042 0.017807 -1.462507 0.000000 0.000001
    37 0.014898 -0.883989 -0.019848 -0.549408 0.000000 0.000000
    38 -0.586770 -1.264477 0.200161 0.313906 -0.927915 -2.922977
    39 1.522835 0.058681 0.016848 0.001410 0.008985 1.029593
    40 1.117947 0.048424 -0.005766 -0.023469 -0.009175 1.254246
    41 -0.139399 -0.111698 0.014397 0.407653 0.171241 1.393752
    42 -6.260806 6.983652 -0.294122 1.580804 -0.005023 -0.912799
  time 1
    0 -0.368931 1.166145 1.199636 0.000000 0.000000 0.000000
    1 5.394167 -1.199784 -12.772295 -1.940820 -1.020109 1.499691
    2 -0.071918 -8.498730 -0.104136 0.146805 0.102579 -0.214584
    3 5.233845 1.354622 1.688628 -0.065772 2.858007 1.272336
    4 19.997025 0.102143 0.000001 0.000000 0.000000 0.000000
    5 -23.088103 64.060894 1.550829 0.023161 0.001561 0.002420
    6 6.506417 1.675302 0.000001 0.000000 0.000000 1.570796
    7 1.257180 8.762585 -0.153713 -1.570562 0.002683 -1.566807
    8 -0.488518 -2.755602 -0.228260 -0.636863 -0.077551 -0.298478
    9 0.039887 -1.479790 0.029854 -2.230118 0.000000 0.000001
    10 0.028786 -1.075731 -0.023109 -0.271941 0.000000 0.000000
    11 0.250027 -2.820665 -0.238396 -0.437192 -0.061406 -0.314674
    12 -0.049759 -1.680544 0.100479 -2.308624 0.000000 -0.000002
    13 -0.034142 -1.148312 0.084782 -0.535851 0.000000 0.000000
    14 0.957766 -2.746780 -0.090302 0.398790 -0.132819 0.006168
    15 -0.033420 -1.397129 -0.011257 -0.767419 0.000000 -0.000001
    16 -0.022360 -0.957436 0.018784 -0.380385 0.000000 0.000000
    17 -1.180681 -2.507217 -0.193859 -0.535961 0.112898 -0.284556
    18 -0.024967 -1.123934 0.017597 -1.884509 0.000000 0.000001
    19 -0.020057 -0.890968 0.010090 -0.772262 0.000000 0.000000
    20 0.583510 -1.197277 0.185379 0.385373 -0.553917 -0.837084
    21 1.535927 0.010246 0.005009 -0.002964 -0.012979 -0.682290
    22 1.100771 0.004527 -0.010679 -0.016147 -0.001453 -1.484153
    23 0.120153 -0.050270 -0.054489 0.287569 3.110905 1.561085
    24 -4.946693 3.128370 -12.314159 0.486165 -3.138454 0.709129
    25 0.096944 -8.450418 -0.009365 -0.763037 -1.346425 1.363381
    26 0.447953 -2.798986 -0.200443 -1.456960 0.099071 0.252834
    27 -0.032909 -1.480204 0.004940 -1.601340 0.000000 0.000002
    28 -0.027022 -1.076920 -0.020210 -0.353735 0.000000 0.000000
    29 -0.249534 -2.846964 -0.174213 -1.241183 0.075210 0.132159
    30 0.043235 -1.683941 0.096012 -1.813709 0.002823 -0.000167
    31 0.031729 -1.160830 0.058838 -0.456154 0.000642 0.008372
    32 -0.963866 -2.785145 -0.085350 -1.148608 0.139589 0.121877
    33 0.028479 -1.403067 0.006271 -1.391232 0.000000 0.000000
    34 0.021413 -0.957781 0.020046 -0.471322 0.000000 0.000000
    35 1.164475 -2.543940 -0.170330 -1.423710 -0.066254 0.446863
    36 0.024032 -1.129042 0.017807 -1.462507 0.000000 0.000001
    37 0.014898 -0.883989 -0.019848 -0.549408 0.000000 0.000000
    38 -0.586770 -1.264477 0.200161 0.313906 -0.927915 -2.922977
    39 1.522835 0.058681 0.016848 0.001410 0.008985 1.029593
    40 1.117947 0.048424 -0.005766 -0.023469 -0.009175 1.254246
    41 -0.139399 -0.111698 0.014397 0.407653 0.171241 1.393752
    42 -6.260806 6.983652 -0.294122 1.580804 -0.005023 -0.912799
  time 2
    0 -0.368931 1.166145 1.199636 0.000000 0.000000 0.000000
    1 5.202755 -1.223222 -12.881674 -1.922144 -1.016383 1.485211
    2 -0.071918 -8.498730 -0.104136 0.147357 0.103251 -0.214021
    3 5.233845 1.354622 1.688628 -0.065772 2.858007 1.272336
    4 19.997025 0.102143 0.000001 0.000000 0.000000 0.000000
    5 -23.295777 63.973696 2.359447 0.034176 0.003395 0.005668
    6 6.506417 1.675302 0.000001 0.000000 0.000000 1.570796
    7 1.257180 8.762585 -0.153713 -1.570562 0.002683 -1.566807
    8 -0.488518 -2.755602 -0.228260 -0.636863 -0.077551 -0.298478
    9 0.039887 -1.479790 0.029854 -2.230118 0.000000 0.000001
    10 0.028786 -1.075731 -0.023109 -0.271941 0.000000 0.000000
    11 0.250027 -2.820665 -0.238396 -0.437192 -0.061406 -0.314674
    12 -0.049759 -1.680544 0.100479 -2.308624 0.000000 -0.000002
    13 -0.034142 -1.148312 0.084782 -0.535851 0.000000 0.000000
    14 0.957766 -2.746780 -0.090302 0.398790 -0.132819 0.006168
    15 -0.033420 -1.397129 -0.011257 -0.767419 0.000000 -0.000001
    16 -0.022360 -0.957436 0.018784 -0.380385 0.000000 0.000000
    17 -1.180681 -2.507217 -0.193859 -0.535961 0.112898 -0.284556
    18 -0.024967 -1.123934 0.017597 -1.884509 0.000000 0.000001
    19 -0.020057 -0.890968 0.010090 -0.772262 0.000000 0.000000
    20 0.583510 -1.197277 0.185379 0.385373 -0.553917 -0.837084
    21 1.535927 0.010246 0.005009 -0.002964 -0.012979 -0.682290
    22 1.100771 0.004527 -0.010679 -0.016147 -0.001453 -1.484153
    23 0.120153 -0.050270 -0.054489 0.287569 3.110905 1.561085
    24 -5.145918 3.085400 -12.325878 0.481350 -3.128077 0.710840
    25 0.096944 -8.450418 -0.009365 -0.763037 -1.346425 1.363381
    26 0.447953 -2.798986 -0.200443 -1.456960 0.099071 0.252834
    27 -0.032909 -1.480204 0.004940 -1.601340 0.000000 0.000002
    28 -0.027022 -1.076920 -0.020210 -0.353735 0.000000 0.000000
    29 -0.249534 -2.846964 -0.174213 -1.241183 0.075210 0.132159
    30 0.043235 -1.683941 0.096012 -1.813709 0.002823 -0.000167
    31 0.031729 -1.160830 0.058838 -0.456154 0.000642 0.008372
    32 -0.963866 -2.785145 -0.085350 -1.148608 0.139589 0.121877
    33 0.028479 -1.403067 0.006271 -1.391232 0.000000 0.000000
    34 0.021413 -0.957781 0.020046 -0.471322 0.000000 0.000000
    35 1.164475 -2.543940 -0.170330 -1.423710 -0.066254 0.446863
    36 0.024032 -1.129042 0.017807 -1.462507 0.000000 0.000001
    37 0.014898 -0.883989 -0.019848 -0.549408 0.000000 0.000000
    38 -0.586770 -1.264477 0.200161 0.313906 -0.927915 -2.922977
    39 1.522835 0.058681 0.016848 0.001410 0.008985 1.029593
    40 1.117947 0.048424 -0.005766 -0.023469 -0.009175 1.254246
    41 -0.139399 -0.111698 0.014397 0.407653 0.171241 1.393752
    42 -6.260806 6.983652 -0.294122 1.580804 -0.005023 -0.912799
  time 3
    0 -0.368931 1.166145 1.199636 0.000000 0.000000 0.000000
    1 5.296508 -1.590421 -12.928550 -1.925017 -1.011894 1.489862
    2 -0.071918 -8.498730 -0.104136 0.140789 0.078371 -0.222902
    3 5.233845 1.354622 1.688628 -0.065772 2.858007 1.272336
    4 19.997025 0.102143 0.000001 0.000000 0.000000 0.000000
    5 -24.079744 63.905876 0.617206 0.006182 0.007649 0.012673
    6 6.506417 1.675302 0.000001 0.000000 0.000000 1.570796
    7 1.257180 8.762585 -0.153713 -1.570562 0.002683 -1.566807
    8 -0.488518 -2.755602 -0.228260 -0.636863 -0.077551 -0.298478
    9 0.039887 -1.479790 0.029854 -2.230118 0.000000 0.000001
    10 0.028786 -1.075731 -0.023109 -0.271941 0.000000 0.000000
    11 0.250027 -2.820665 -0.238396 -0.437192 -0.061406 -0.314674
    12 -0.049759 -1.680544 0.100479 -2.308624 0.000000 -0.000002
    13 -0.034142 -1.148312 0.084782 -0.535851 0.000000 0.000000
    14 0.957766 -2.746780 -0.090302 0.398790 -0.132819 0.006168
    15 -0.033420 -1.397129 -0.011257 -0.767419 0.000000 -0.000001
    16 -0.022360 -0.957436 0.018784 -0.380385 0.000000 0.000000
    17 -1.180681 -2.507217 -0.193859 -0.535961 0.112898 -0.284556
    18 -0.024967 -1.123934 0.017597 -1.884509 0.000000 0.000001
    19 -0.020057 -0.890968 0.010090 -0.772262 0.000000 0.000000
    20 0.583510 -1.197277 0.185379 0.385373 -0.553917 -0.837084
    21 1.535927 0.010246 0.005009 -0.002964 -0.012979 -0.682290
    22 1.100771 0.004527 -0.010679 -0.016147 -0.001453 -1.484153
    23 0.120153 -0.050270 -0.054489 0.287569 3.110905 1.561085
    24 -4.989663 2.667419 -12.611043 0.504891 -3.144558 0.715784
    25 0.096944 -8.450418 -0.009365 -0.763037 -1.346425 1.363381
    26 0.447953 -2.798986 -0.200443 -1.456960 0.099071 0.252834
    27 -0.032909 -1.480204 0.004940 -1.601340 0.000000 0.000002
    28 -0.027022 -1.076920 -0.020210 -0.353735 0.000000 0.000000
    29 -0.249534 -2.846964 -0.174213 -1.241183 0.075210 0.132159
    30 0.043235 -1.683941 0.096012 -1.813709 0.002823 -0.000167
    31 0.031729 -1.160830 0.058838 -0.456154 0.000642 0.008372
    32 -0.963866 -2.785145 -0.085350 -1.148608 0.139589 0.121877
    33 0.028479 -1.403067 0.006271 -1.391232 0.000000 0.000000
    34 0.021413 -0.957781 0.020046 -0.471322 0.000000 0.000000
    35 1.164475 -2.543940 -0.170330 -1.423710 -0.066254 0.446863
    36 0.024032 -1.129042 0.017807 -1.462507 0.000000 0.000001
    37 0.014898 -0.883989 -0.019848 -0.549408 0.000000 0.000000
    38 -0.586770 -1.264477 0.200161 0.313906 -0.927915 -2.922977
    39 1.522835 0.058681 0.016848 0.001410 0.008985 1.029593
    40 1.117947 0.048424 -0.005766 -0.023469 -0.009175 1.254246
    41 -0.139399 -0.111698 0.014397 0.407653 0.171241 1.393752
    42 -6.260806 6.983652 -0.294122 1.580804 -0.005023 -0.912799
  time 4
    0 -0.368931 1.166145 1.199636 0.000000 0.000000 0.000000
    1 5.444950 -2.020121 -12.959801 -1.936690 -1.007465 1.502148
    2 -0.071918 -8.498730 -0.104136 0.135384 0.061305 -0.229781
    3 5.233845 1.354622 1.688628 -0.065772 2.858007 1.272336
    4 19.997025 0.102143 0.000001 0.000000 0.000000 0.000000
    5 -24.848136 63.789613 -0.976592 -0.018677 0.010693 0.018341
    6 6.506417 1.675302 0.000001 0.000000 0.000000 1.570796
    7 1.257180 8.762585 -0.153713 -1.570562 0.002683 -1.566807
    8 -0.488518 -2.755602 -0.228260 -0.636863 -0.077551 -0.298478
    9 0.039887 -1.479790 0.029854 -2.230118 0.000000 0.000001
    10 0.028786 -1.075731 -0.023109 -0.271941 0.000000 0.000000
    11 0.250027 -2.820665 -0.238396 -0.437192 -0.061406 -0.314674
    12 -0.049759 -1.680544 0.100479 -2.308624 0.000000 -0.000002
    13 -0.034142 -1.148312 0.084782 -0.535851 0.000000 0.000000
    14 0.957766 -2.746780 -0.090302 0.398790 -0.132819 0.006168
    15 -0.033420 -1.397129 -0.011257 -0.767419 0.000000 -0.000001
    16 -0.022360 -0.957436 0.018784 -0.380385 0.000000 0.000000
    17 -1.180681 -2.507217 -0.193859 -0.535961 0.112898 -0.284556
    18 -0.024967 -1.123934 0.017597 -1.884509 0.000000 0.000001
    19 -0.020057 -0.890968 0.010090 -0.772262 0.000000 0.000000
    20 0.583510 -1.197277 0.185379 0.385373 -0.553917 -0.837084
    21 1.535927 0.010246 0.005009 -0.002964 -0.012979 -0.682290
    22 1.100771 0.004527 -0.010679 -0.016147 -0.001453 -1.484153
    23 0.120153 -0.050270 -0.054489 0.287569 3.110905 1.561085
    24 -4.790438 2.202561 -12.864957 0.525489 -3.159556 0.719491
    25 0.096944 -8.450418 -0.009365 -0.763037 -1.346425 1.363381
    26 0.447953 -2.798986 -0.200443 -1.456960 0.099071 0.252834
    27 -0.032909 -1.480204 0.004940 -1.601340 0.000000 0.000002
    28 -0.027022 -1.076920 -0.020210 -0.353735 0.000000 0.000000
    29 -0.249534 -2.846964 -0.174213 -1.241183 0.075210 0.132159
    30 0.043235 -1.683941 0.096012 -1.813709 0.002823 -0.000167
    31 0.031729 -1.160830 0.058838 -0.456154 0.000642 0.008372
    32 -0.963866 -2.785145 -0.085350 -1.148608 0.139589 0.121877
    33 0.028479 -1.403067 0.006271 -1.391232 0.000000 0.000000
    34 0.021413 -0.957781 0.020046 -0.471322 0.000000 0.000000
    35 1.164475 -2.543940 -0.170330 -1.423710 -0.066254 0.446863
    36 0.024032 -1.129042 0.017807 -1.462507 0.000000 0.000001
    37 0.014898 -0.883989 -0.019848 -0.549408 0.000000 0.000000
    38 -0.586770 -1.264477 0.200161 0.313906 -0.927915 -2.922977
    39 1.522835 0.058681 0.016848 0.001410 0.008985 1.029593
    40 1.117947 0.048424 -0.005766 -0.023469 -0.009175 1.254246
    41 -0.139399 -0.111698 0.014397 0.407653 0.171241 1.393752
    42 -6.260806 6.983652 -0.294122 1.580804 -0.005023 -0.912799
  time 5
    0 -0.368931 1.166145 1.199636 0.000000 0.000000 0.000000
    1 5.569954 -2.395133 -12.944176 -1.951865 -1.006152 1.515837
    2 -0.071918 -8.498730 -0.104136 0.136043 0.075554 -0.227228
    3 5.233845 1.354622 1.688628 -0.065772 2.858007 1.272336
    4 19.997025 0.102143 0.000001 0.000000 0.000000 0.000000
    5 -25.112920 63.789613 -0.761742 -0.013148 0.007610 0.016685
    6 6.506417 1.675302 0.000001 0.000000 0.000000 1.570796
    7 1.257180 8.762585 -0.153713 -1.570562 0.002683 -1.566807
    8 -0.488518 -2.755602 -0.228260 -0.636863 -0.077551 -0.298478
    9 0.039887 -1.479790 0.029854 -2.230118 0.000000 0.000001
    10 0.028786 -1.075731 -0.023109 -0.271941 0.000000 0.000000
    11 0.250027 -2.820665 -0.238396 -0.437192 -0.061406 -0.314674
    12 -0.049759 -1.680544 0.100479 -2.308624 0.000000 -0.000002
    13 -0.034142 -1.148312 0.084782 -0.535851 0.000000 0.000000
    14 0.957766 -2.746780 -0.090302 0.398790 -0.132819 0.006168
    15 -0.033420 -1.397129 -0.011257 -0.767419 0.000000 -0.000001
    16 -0.022360 -0.957436 0.018784 -0.380385 0.000000 0.000000
    17 -1.180681 -2.507217 -0.193859 -0.535961 0.112898 -0.284556
    18 -0.024967 -1.123934 0.017597 -1.884509 0.000000 0.000001
    19 -0.020057 -0.890968 0.010090 -0.772262 0.000000 0.000000
    20 0.583510 -1.197277 0.185379 0.385373 -0.553917 -0.837084
    21 1.535927 0.010246 0.005009 -0.002964 -0.012979 -0.682290
    22 1.100771 0.004527 -0.010679 -0.016147 -0.001453 -1.484153
    23 0.120153 -0.050270 -0.054489 0.287569 3.110905 1.561085
    24 -4.681060 1.858800 -12.810268 0.520607 -3.156591 0.716259
    25 0.096944 -8.450418 -0.009365 -0.763037 -1.346425 1.363381
    26 0.447953 -2.798986 -0.200443 -1.456960 0.099071 0.252834
    27 -0.032909 -1.480204 0.004940 -1.601340 0.000000 0.000002
    28 -0.027022 -1.076920 -0.020210 -0.353735 0.000000 0.000000
    29 -0.249534 -2.846964 -0.174213 -1.241183 0.075210 0.132159
    30 0.043235 -1.683941 0.096012 -1.813709 0.002823 -0.000167
    31 0.031729 -1.160830 0.058838 -0.456154 0.000642 0.008372
    32 -0.963866 -2.785145 -0.085350 -1.148608 0.139589 0.121877
    33 0.028479 -1.403067 0.006271 -1.391232 0.000000 0.000000
    34 0.021413 -0.957781 0.020046 -0.471322 0.000000 0.000000
    35 1.164475 -2.543940 -0.170330 -1.423710 -0.066254 0.446863
    36 0.024032 -1.129042 0.017807 -1.462507 0.000000 0.000001
    37 0.014898 -0.883989 -0.019848 -0.549408 0.000000 0.000000
    38 -0.586770 -1.264477 0.200161 0.313906 -0.927915 -2.922977
    39 1.522835 0.058681 0.016848 0.001410 0.008985 1.029593
    40 1.117947 0.048424 -0.005766 -0.023469 -0.009175 1.254246
    41 -0.139399 -0.111698 0.014397 0.407653 0.171241 1.393752
    42 -6.260806 6.983652 -0.294122 1.580804 -0.005023 -0.912799
  time 6
    0 -0.368931 1.166145 1.199636 0.000000 0.000000 0.000000
    1 5.573860 -2.703736 -12.885580 -1.967308 -1.007496 1.528473
    2 -0.071918 -8.498730 -0.104136 0.138224 0.099236 -0.222003
    3 5.233845 1.354622 1.688628 -0.065772 2.858007 1.272336
    4 19.997025 0.102143 0.000001 0.000000 0.000000 0.000000
    5 -25.061002 63.876811 0.101566 0.001611 0.001522 0.010763
    6 6.506417 1.675302 0.000001 0.000000 0.000000 1.570796
    7 1.257180 8.762585 -0.153713 -1.570562 0.002683 -1.566807
    8 -0.488518 -2.755602 -0.228260 -0.636863 -0.077551 -0.298478
    9 0.039887 -1.479790 0.029854 -2.230118 0.000000 0.000001
    10 0.028786 -1.075731 -0.023109 -0.271941 0.000000 0.000000
    11 0.250027 -2.820665 -0.238396 -0.437192 -0.061406 -0.314674
    12 -0.049759 -1.680544 0.100479 -2.308695 0.000000 -0.000002
    13 -0.034142 -1.148312 0.084782 -0.535851 0.000000 0.000000
    14 0.957766 -2.746780 -0.090302 0.398790 -0.132819 0.006168
    15 -0.033420 -1.397129 -0.011257 -0.767419 0.000000 -0.000001
    16 -0.022360 -0.957436 0.018784 -0.380385 0.000000 0.000000
    17 -1.180681 -2.507217 -0.193859 -0.535961 0.112898 -0.284556
    18 -0.024967 -1.123934 0.017597 -1.884509 0.000000 0.000001
    19 -0.020057 -0.890968 0.010090 -0.772262 0.000000 0.000000
    20 0.583510 -1.197277 0.185379 0.385373 -0.553917 -0.837084
    21 1.535927 0.010246 0.005009 -0.002964 -0.012979 -0.682290
    22 1.100771 0.004527 -0.010679 -0.016147 -0.001453 -1.484153
    23 0.120153 -0.050270 -0.054489 0.287569 3.110905 1.561085
    24 -4.704498 1.616605 -12.618856 0.506496 -3.149354 0.709699
    25 0.096944 -8.450418 -0.009365 -0.763037 -1.346425 1.363381
    26 0.447953 -2.798986 -0.200443 -1.456960 0.099071 0.252834
    27 -0.032909 -1.480204 0.004940 -1.601340 0.000000 0.000002
    28 -0.027022 -1.076920 -0.020210 -0.353735 0.000000 0.000000
    29 -0.249534 -2.846964 -0.174213 -1.241183 0.075210 0.132159
    30 0.043235 -1.683941 0.096012 -1.813709 0.002823 -0.000167
    31 0.031729 -1.160830 0.058838 -0.456154 0.000642 0.008372
    32 -0.963866 -2.785145 -0.085350 -1.148608 0.139589 0.121877
    33 0.028479 -1.403067 0.006271 -1.391232 0.000000 0.000000
    34 0.021413 -0.957781 0.020046 -0.471322 0.000000 0.000000
    35 1.164475 -2.543940 -0.170330 -1.423710 -0.066254 0.446863
    36 0.024032 -1.129042 0.017807 -1.462507 0.000000 0.000001
    37 0.014898 -0.883989 -0.019848 -0.549408 0.000000 0.000000
    38 -0.586770 -1.264477 0.200161 0.313906 -0.927915 -2.922977
    39 1.522835 0.058681 0.016848 0.001410 0.008985 1.029593
    40 1.117947 0.048424 -0.005766 -0.023469 -0.009175 1.254246
    41 -0.139399 -0.111698 0.014397 0.407653 0.171241 1.393752
    42 -6.260806 6.983652 -0.294122 1.580804 -0.005023 -0.912799
  time 7
    0 -0.368931 1.166145 1.199636 0.000000 0.000000 0.000000
    1 5.519171 -2.992807 -12.799640 -1.984458 -1.009939 1.541812
    2 -0.071918 -8.498730 -0.104136 0.141196 0.124919 -0.215986
    3 5.233845 1.354622 1.688628 -0.065772 2.858007 1.272336
    4 19.997025 0.102143 0.000001 0.000000 0.000000 0.000000
    5 -24.905246 63.983385 1.117222 0.017806 -0.005112 0.003248
    6 6.506417 1.675302 0.000001 0.000000 0.000000 1.570796
    7 1.257180 8.762585 -0.153713 -1.570562 0.002683 -1.566807
    8 -0.488518 -2.755602 -0.228260 -0.636863 -0.077551 -0.298478
    9 0.039887 -1.479790 0.029854 -2.230118 0.000000 0.000001
    10 0.028786 -1.075731 -0.023109 -0.271941 0.000000 0.000000
    11 0.250027 -2.820665 -0.238396 -0.437192 -0.061406 -0.314674
    12 -0.049759 -1.680544 0.100479 -2.308695 0.000000 -0.000002
    13 -0.034142 -1.148312 0.084782 -0.535851 0.000000 0.000000
    14 0.957766 -2.746780 -0.090302 0.398790 -0.132819 0.006168
    15 -0.033420 -1.397129 -0.011257 -0.767419 0.000000 -0.000001
    16 -0.022360 -0.957436 0.018784 -0.380385 0.000000 0.000000
    17 -1.180681 -2.507217 -0.193859 -0.535961 0.112898 -0.284556
    18 -0.024967 -1.123934 0.017597 -1.884509 0.000000 0.000001
    19 -0.020057 -0.890968 0.010090 -0.772262 0.000000 0.000000
    20 0.583510 -1.197277 0.185379 0.385373 -0.553917 -0.837084
    21 1.535927 0.010246 0.005009 -0.002964 -0.012979 -0.682290
    22 1.100771 0.004527 -0.010679 -0.016147 -0.001453 -1.484153
    23 0.120153 -0.050270 -0.054489 0.287569 3.110905 1.561085
    24 -4.786532 1.401755 -12.392286 0.490445 -3.142029 0.702570
    25 0.096944 -8.450418 -0.009365 -0.763037 -1.346425 1.363381
    26 0.447953 -2.798986 -0.200443 -1.456960 0.099071 0.252834
    27 -0.032909 -1.480204 0.004940 -1.601340 0.000000 0.000002
    28 -0.027022 -1.076920 -0.020210 -0.353735 0.000000 0.000000
    29 -0.249534 -2.846964 -0.174213 -1.241183 0.075210 0.132159
    30 0.043235 -1.683941 0.096012 -1.813709 0.002823 -0.000167
    31 0.031729 -1.160830 0.058838 -0.456154 0.000642 0.008372
    32 -0.963866 -2.785145 -0.085350 -1.148608 0.139589 0.121877
    33 0.028479 -1.403067 0.006271 -1.391232 0.000000 0.000000
    34 0.021413 -0.957781 0.020046 -0.471322 0.000000 0.000000
    35 1.164475 -2.543940 -0.170330 -1.423710 -0.066254 0.446863
    36 0.024032 -1.129042 0.017807 -1.462507 0.000000 0.000001
    37 0.014898 -0.883989 -0.019848 -0.549408 0.000000 0.000000
    38 -0.586770 -1.264477 0.200161 0.313906 -0.927915 -2.922977
    39 1.522835 0.058681 0.016848 0.001410 0.008985 1.029593
    40 1.117947 0.048424 -0.005766 -0.023469 -0.009175 1.254246
    41 -0.139399 -0.111698 0.014397 0.407653 0.171241 1.393752
    42 -6.260806 6.983652 -0.294122 1.580804 -0.005023 -0.912799
  time 8
    0 -0.368931 1.166145 1.199636 0.000000 0.000000 0.000000
    1 5.542609 -3.238909 -12.682449 -2.005020 -1.015070 1.557081
    2 -0.071918 -8.498730 -0.104136 0.144037 0.145233 -0.211109
    3 5.233845 1.354622 1.688628 -0.065772 2.858007 1.272336
    4 19.997025 0.102143 0.000001 0.000000 0.000000 0.000000
    5 -24.619695 64.089959 1.660207 0.027123 -0.011200 -0.005986
    6 6.506417 1.675302 0.000001 0.000000 0.000000 1.570796
    7 1.257180 8.762585 -0.153713 -1.570562 0.002683 -1.566807
    8 -0.488518 -2.755602 -0.228260 -0.636863 -0.077551 -0.298478
    9 0.039887 -1.479790 0.029854 -2.230118 0.000000 0.000001
    10 0.028786 -1.075731 -0.023109 -0.271941 0.000000 0.000000
    11 0.250027 -2.820665 -0.238396 -0.437192 -0.061406 -0.314674
    12 -0.049759 -1.680544 0.100479 -2.308624 0.000000 -0.000002
    13 -0.034142 -1.148312 0.084782 -0.535851 0.000000 0.000000
    14 0.957766 -2.746780 -0.090302 0.398790 -0.132819 0.006168
    15 -0.033420 -1.397129 -0.011257 -0.767419 0.000000 -0.000001
    16 -0.022360 -0.957436 0.018784 -0.380385 0.000000 0.000000
    17 -1.180681 -2.507217 -0.193859 -0.535961 0.112898 -0.284556
    18 -0.024967 -1.123934 0.017597 -1.884509 0.000000 0.000001
    19 -0.020057 -0.890968 0.010090 -0.772262 0.000000 0.000000
    20 0.583510 -1.197277 0.185379 0.385373 -0.553917 -0.837084
    21 1.535927 0.010246 0.005009 -0.002964 -0.012979 -0.682290
    22 1.100771 0.004527 -0.010679 -0.016147 -0.001453 -1.484153
    23 0.120153 -0.050270 -0.054489 0.287569 3.110905 1.561085
    24 -4.786532 1.218156 -12.185249 0.477605 -3.140983 0.696010
    25 0.096944 -8.450418 -0.009365 -0.763037 -1.346425 1.363381
    26 0.447953 -2.798986 -0.200443 -1.456960 0.099071 0.252834
    27 -0.032909 -1.480204 0.004940 -1.601340 0.000000 0.000002
    28 -0.027022 -1.076920 -0.020210 -0.353735 0.000000 0.000000
    29 -0.249534 -2.846964 -0.174213 -1.241183 0.075210 0.132159
    30 0.043235 -1.683941 0.096012 -1.813709 0.002823 -0.000167
    31 0.031729 -1.160830 0.058838 -0.456154 0.000642 0.008372
    32 -0.963866 -2.785145 -0.085350 -1.148608 0.139589 0.121877
    33 0.028479 -1.403067 0.006271 -1.391232 0.000000 0.000000
    34 0.021413 -0.957781 0.020046 -0.471322 0.000000 0.000000
    35 1.164475 -2.543940 -0.170330 -1.423710 -0.066254 0.446863
    36 0.024032 -1.129042 0.017807 -1.462507 0.000000 0.000001
    37 0.014898 -0.883989 -0.019848 -0.549408 0.000000 0.000000
    38 -0.586770 -1.264477 0.200161 0.313906 -0.927915 -2.922977
    39 1.522835 0.058681 0.016848 0.001410 0.008985 1.029593
    40 1.117947 0.048424 -0.005766 -0.023469 -0.009175 1.254246
    41 -0.139399 -0.111698 0.014397 0.407653 0.171241 1.393752
    42 -6.260806 6.983652 -0.294122 1.580804 -0.005023 -0.912799
  time 9
    0 -0.368931 1.166145 1.199636 0.000000 0.000000 0.000000
    1 5.776991 -3.422508 -12.530101 1.110062 -2.117241 -1.565761
    2 -0.071918 -8.498730 -0.104136 0.145703 0.152807 -0.209383
    3 5.233845 1.354622 1.688628 -0.065772 2.858007 1.272336
    4 19.997025 0.102143 0.000001 0.000000 0.000000 0.000000
    5 -24.157622 64.215911 1.105502 0.021159 -0.015844 -0.017067
    6 6.506417 1.675302 0.000001 0.000000 0.000000 1.570796
    7 1.257180 8.762585 -0.153713 -1.570562 0.002683 -1.566807
    8 -0.488518 -2.755602 -0.228260 -0.636863 -0.077551 -0.298478
    9 0.039887 -1.479790 0.029854 -2.230118 0.000000 0.000001
    10 0.028786 -1.075731 -0.023109 -0.271941 0.000000 0.000000
    11 0.250027 -2.820665 -0.238396 -0.437192 -0.061406 -0.314674
    12 -0.049759 -1.680544 0.100479 -2.308695 0.000000 -0.000002
    13 -0.034142 -1.148312 0.084782 -0.535851 0.000000 0.000000
    14 0.957766 -2.746780 -0.090302 0.398790 -0.132819 0.006168
    15 -0.033420 -1.397129 -0.011257 -0.767419 0.000000 -0.000001
    16 -0.022360 -0.957436 0.018784 -0.380385 0.000000 0.000000
    17 -1.180681 -2.507217 -0.193859 -0.535961 0.112898 -0.284556
    18 -0.024967 -1.123934 0.017597 -1.884509 0.000000 0.000001
    19 -0.020057 -0.890968 0.010090 -0.772262 0.000000 0.000000
    20 0.583510 -1.197277 0.185379 0.385373 -0.553917 -0.837084
    21 1.535927 0.010246 0.005009 -0.002964 -0.012979 -0.682290
    22 1.100771 0.004527 -0.010679 -0.016147 -0.001453 -1.484153
    23 0.120153 -0.050270 -0.054489 0.287569 3.110905 1.561085
    24 -4.552150 1.081433 -12.064151 0.473124 -3.152754 0.691257
    25 0.096944 -8.450418 -0.009365 -0.763037 -1.346425 1.363381
    26 0.447953 -2.798986 -0.200443 -1.456960 0.099071 0.252834
    27 -0.032909 -1.480204 0.004940 -1.601340 0.000000 0.000002
    28 -0.027022 -1.076920 -0.020210 -0.353735 0.000000 0.000000
    29 -0.249534 -2.846964 -0.174213 -1.241183 0.075210 0.132159
    30 0.043235 -1.683941 0.096012 -1.813709 0.002823 -0.000167
    31 0.031729 -1.160830 0.058838 -0.456154 0.000642 0.008372
    32 -0.963866 -2.785145 -0.085350 -1.148608 0.139589 0.121877
    33 0.028479 -1.403067 0.006271 -1.391232 0.000000 0.000000
    34 0.021413 -0.957781 0.020046 -0.471322 0.000000 0.000000
    35 1.164475 -2.543940 -0.170330 -1.423710 -0.066254 0.446863
    36 0.024032 -1.129042 0.017807 -1.462507 0.000000 0.000001
    37 0.014898 -0.883989 -0.019848 -0.549408 0.000000 0.000000
    38 -0.586770 -1.264477 0.200161 0.313906 -0.927915 -2.922977
    39 1.522835 0.058681 0.016848 0.001410 0.008985 1.029593
    40 1.117947 0.048424 -0.005766 -0.023469 -0.009175 1.254246
    41 -0.139399 -0.111698 0.014397 0.407653 0.171241 1.393752
    42 -6.260806 6.983652 -0.294122 1.580804 -0.005023 -0.912799
  time 10
    0 -0.368931 1.166145 1.199636 0.000000 0.000000 0.000000
    1 6.257475 -3.570950 -12.334782 1.075673 -2.104781 -1.540927
    2 -0.071918 -8.498730 -0.104136 0.146110 0.146419 -0.211037
    3 5.233845 1.354622 1.688628 -0.065772 2.858007 1.272336
    4 19.997025 0.102143 0.000001 0.000000 0.000000 0.000000
    5 -23.617671 64.332174 -0.683615 -0.002003 -0.018459 -0.028594
    6 6.506417 1.675302 0.000001 0.000000 0.000000 1.570796
    7 1.257180 8.762585 -0.153713 -1.570562 0.002683 -1.566807
    8 -0.488518 -2.755602 -0.228260 -0.636863 -0.077551 -0.298478
    9 0.039887 -1.479790 0.029854 -2.230118 0.000000 0.000001
    10 0.028786 -1.075731 -0.023109 -0.271941 0.000000 0.000000
    11 0.250027 -2.820665 -0.238396 -0.437192 -0.061406 -0.314674
    12 -0.049759 -1.680544 0.100479 -2.308695 0.000000 -0.000002
    13 -0.034142 -1.148312 0.084782 -0.535851 0.000000 0.000000
    14 0.957766 -2.746780 -0.090302 0.398790 -0.132819 0.006168
    15 -0.033420 -1.397129 -0.011257 -0.767419 0.000000 -0.000001
    16 -0.022360 -0.957436 0.018784 -0.380385 0.000000 0.000000
    17 -1.180681 -2.507217 -0.193859 -0.535961 0.112898 -0.284556
    18 -0.024967 -1.123934 0.017597 -1.884509 0.000000 0.000001
    19 -0.020057 -0.890968 0.010090 -0.772262 0.000000 0.000000
    20 0.583510 -1.197277 0.185379 0.385373 -0.553917 -0.837084
    21 1.535927 0.010246 0.005009 -0.002964 -0.012979 -0.682290
    22 1.100771 0.004527 -0.010679 -0.016147 -0.001453 -1.484153
    23 0.120153 -0.050270 -0.054489 0.287569 3.110905 1.561085
    24 -4.067760 0.956429 -12.044620 0.479210 -3.178129 0.689260
    25 0.096944 -8.450418 -0.009365 -0.763037 -1.346425 1.363381
    26 0.447953 -2.798986 -0.200443 -1.456960 0.099071 0.252834
    27 -0.032909 -1.480204 0.004940 -1.601340 0.000000 0.000002
    28 -0.027022 -1.076920 -0.020210 -0.353735 0.000000 0.000000
    29 -0.249534 -2.846964 -0.174213 -1.241183 0.075210 0.132159
    30 0.043235 -1.683941 0.096012 -1.813709 0.002823 -0.000167
    31 0.031729 -1.160830 0.058838 -0.456154 0.000642 0.008372
    32 -0.963866 -2.785145 -0.085350 -1.148608 0.139589 0.121877
    33 0.028479 -1.403067 0.006271 -1.391232 0.000000 0.000000
    34 0.021413 -0.957781 0.020046 -0.471322 0.000000 0.000000
    35 1.164475 -2.543940 -0.170330 -1.423710 -0.066254 0.446863
    36 0.024032 -1.129042 0.017807 -1.462507 0.000000 0.000001
    37 0.014898 -0.883989 -0.019848 -0.549408 0.000000 0.000000
    38 -0.586770 -1.264477 0.200161 0.313906 -0.927915 -2.922977
    39 1.522835 0.058681 0.016848 0.001410 0.008985 1.029593
    40 1.117947 0.048424 -0.005766 -0.023469 -0.009175 1.254246
    41 -0.139399 -0.111698 0.014397 0.407653 0.171241 1.393752
    42 -6.260806 6.983652 -0.294122 1.580804 -0.005023 -0.912799
  time 11
    0 -0.368931 1.166145 1.199636 0.000000 0.000000 0.000000
    1 6.874681 -3.711579 -12.112119 1.034190 -2.091220 -1.510038
    2 -0.071918 -8.498730 -0.104136 0.146038 0.131846 -0.214476
    3 5.233845 1.354622 1.688628 -0.065772 2.858007 1.272336
    4 19.997025 0.102143 0.000001 0.000000 0.000000 0.000000
    5 -23.082911 64.341862 -3.230567 -0.035918 -0.019981 -0.039612
    6 6.506417 1.675302 0.000001 0.000000 0.000000 1.570796
    7 1.257180 8.762585 -0.153713 -1.570562 0.002683 -1.566807
    8 -0.488518 -2.755602 -0.228260 -0.636863 -0.077551 -0.298478
    9 0.039887 -1.479790 0.029854 -2.230118 0.000000 0.000001
    10 0.028786 -1.075731 -0.023109 -0.271941 0.000000 0.000000
    11 0.250027 -2.820665 -0.238396 -0.437192 -0.061406 -0.314674
    12 -0.049759 -1.680544 0.100479 -2.308624 0.000000 -0.000002
    13 -0.034142 -1.148312 0.084782 -0.535851 0.000000 0.000000
    14 0.957766 -2.746780 -0.090302 0.398790 -0.132819 0.006168
    15 -0.033420 -1.397129 -0.011257 -0.767419 0.000000 -0.000001
    16 -0.022360 -0.957436 0.018784 -0.380385 0.000000 0.000000
    17 -1.180681 -2.507217 -0.193859 -0.535961 0.112898 -0.284556
    18 -0.024967 -1.123934 0.017597 -1.884509 0.000000 0.000001
    19 -0.020057 -0.890968 0.010090 -0.772262 0.000000 0.000000
    20 0.583510 -1.197277 0.185379 0.385373 -0.553917 -0.837084
    21 1.535927 0.010246 0.005009 -0.002964 -0.012979 -0.682290
    22 1.100771 0.004527 -0.010679 -0.016147 -0.001453 -1.484153
    23 0.120153 -0.050270 -0.054489 0.287569 3.110905 1.561085
    24 -3.431022 0.823612 -12.095402 0.492385 -3.211526 0.689355
    25 0.096944 -8.450418 -0.009365 -0.763037 -1.346425 1.363381
    26 0.447953 -2.798986 -0.200443 -1.456960 0.099071 0.252834
    27 -0.032909 -1.480204 0.004940 -1.601340 0.000000 0.000002
    28 -0.027022 -1.076920 -0.020210 -0.353735 0.000000 0.000000
    29 -0.249534 -2.846964 -0.174213 -1.241183 0.075210 0.132159
    30 0.043235 -1.683941 0.096012 -1.813709 0.002823 -0.000167
    31 0.031729 -1.160830 0.058838 -0.456154 0.000642 0.008372
    32 -0.963866 -2.785145 -0.085350 -1.148608 0.139589 0.121877
    33 0.028479 -1.403067 0.006271 -1.391232 0.000000 0.000000
    34 0.021413 -0.957781 0.020046 -0.471322 0.000000 0.000000
    35 1.164475 -2.543940 -0.170330 -1.423710 -0.066254 0.446863
    36 0.024032 -1.129042 0.017807 -1.462507 0.000000 0.000001
    37 0.014898 -0.883989 -0.019848 -0.549408 0.000000 0.000000
    38 -0.586770 -1.264477 0.200161 0.313906 -0.927915 -2.922977
    39 1.522835 0.058681 0.016848 0.001410 0.008985 1.029593
    40 1.117947 0.048424 -0.005766 -0.023469 -0.009175 1.254246
    41 -0.139399 -0.111698 0.014397 0.407653 0.171241 1.393752
    42 -6.260806 6.983652 -0.294122 1.580804 -0.005023 -0.912799
  time 12
    0 -0.368931 1.166145 1.199636 0.000000 0.000000 0.000000
    1 7.566108 -3.824864 -11.873831 0.988307 -2.076744 -1.475552
    2 -0.071918 -8.498730 -0.104136 0.145691 0.112251 -0.219078
    3 5.233845 1.354622 1.688628 -0.065772 2.858007 1.272336
    4 19.997025 0.102143 0.000001 0.000000 0.000000 0.000000
    5 -22.491042 64.196534 -6.207221 -0.075841 -0.021893 -0.050884
    6 6.506417 1.675302 0.000001 0.000000 0.000000 1.570796
    7 1.257180 8.762585 -0.153713 -1.570562 0.002683 -1.566807
    8 -0.488518 -2.755602 -0.228260 -0.636863 -0.077551 -0.298478
    9 0.039887 -1.479790 0.029854 -2.230118 0.000000 0.000001
    10 0.028786 -1.075731 -0.023109 -0.271941 0.000000 0.000000
    11 0.250027 -2.820665 -0.238396 -0.437192 -0.061406 -0.314674
    12 -0.049759 -1.680544 0.100479 -2.308695 0.000000 -0.000002
    13 -0.034142 -1.148312 0.084782 -0.535851 0.000000 0.000000
    14 0.957766 -2.746780 -0.090302 0.398790 -0.132819 0.006168
    15 -0.033420 -1.397129 -0.011257 -0.767419 0.000000 -0.000001
    16 -0.022360 -0.957436 0.018784 -0.380385 0.000000 0.000000
    17 -1.180681 -2.507217 -0.193859 -0.535961 0.112898 -0.284556
    18 -0.024967 -1.123934 0.017597 -1.884509 0.000000 0.000001
    19 -0.020057 -0.890968 0.010090 -0.772262 0.000000 0.000000
    20 0.583510 -1.197277 0.185379 0.385373 -0.553917 -0.837084
    21 1.535927 0.010246 0.005009 -0.002964 -0.012979 -0.682290
    22 1.100771 0.004527 -0.010679 -0.016147 -0.001453 -1.484153
    23 0.120153 -0.050270 -0.054489 0.287569 3.110905 1.561085
    24 -2.700531 0.718140 -12.173530 0.509304 -3.249807 0.690591
    25 0.096944 -8.450418 -0.009365 -0.763037 -1.346425 1.363381
    26 0.447953 -2.798986 -0.200443 -1.456960 0.099071 0.252834
    27 -0.032909 -1.480204 0.004940 -1.601340 0.000000 0.000002
    28 -0.027022 -1.076920 -0.020210 -0.353735 0.000000 0.000000
    29 -0.249534 -2.846964 -0.174213 -1.241183 0.075210 0.132159
    30 0.043235 -1.683941 0.096012 -1.813709 0.002823 -0.000167
    31 0.031729 -1.160830 0.058838 -0.456154 0.000642 0.008372
    32 -0.963866 -2.785145 -0.085350 -1.148608 0.139589 0.121877
    33 0.028479 -1.403067 0.006271 -1.391232 0.000000 0.000000
    34 0.021413 -0.957781 0.020046 -0.471322 0.000000 0.000000
    35 1.164475 -2.543940 -0.170330 -1.423710 -0.066254 0.446863
    36 0.024032 -1.129042 0.017807 -1.462507 0.000000 0.000001
    37 0.014898 -0.883989 -0.019848 -0.549408 0.000000 0.000000
    38 -0.586770 -1.264477 0.200161 0.313906 -0.927915 -2.922977
    39 1.522835 0.058681 0.016848 0.001410 0.008985 1.029593
    40 1.117947 0.048424 -0.005766 -0.023469 -0.009175 1.254246
    41 -0.139399 -0.111698 0.014397 0.407653 0.171241 1.393752
    42 -6.260806 6.983652 -0.294122 1.580804 -0.005023 -0.912799
  time 13
    0 -0.368931 1.166145 1.199636 0.000000 0.000000 0.000000
    1 8.273161 -3.902991 -11.631636 0.940898 -2.061320 -1.440363
    2 -0.071918 -8.498730 -0.104136 0.145259 0.090751 -0.224220
    3 5.233845 1.354622 1.688628 -0.065772 2.858007 1.272336
    4 19.997025 0.102143 0.000001 0.000000 0.000000 0.000000
    5 -21.795336 63.886499 -9.277627 -0.117114 -0.025445 -0.063111
    6 6.506417 1.675302 0.000001 0.000000 0.000000 1.570796
    7 1.257180 8.762585 -0.153713 -1.570562 0.002683 -1.566807
    8 -0.488518 -2.755602 -0.228260 -0.636863 -0.077551 -0.298478
    9 0.039887 -1.479790 0.029854 -2.230118 0.000000 0.000001
    10 0.028786 -1.075731 -0.023109 -0.271941 0.000000 0.000000
    11 0.250027 -2.820665 -0.238396 -0.437192 -0.061406 -0.314674
    12 -0.049759 -1.680544 0.100479 -2.308695 0.000000 -0.000002
    13 -0.034142 -1.148312 0.084782 -0.535851 0.000000 0.000000
    14 0.957766 -2.746780 -0.090302 0.398790 -0.132819 0.006168
    15 -0.033420 -1.397129 -0.011257 -0.767419 0.000000 -0.000001
    16 -0.022360 -0.957436 0.018784 -0.380385 0.000000 0.000000
    17 -1.180681 -2.507217 -0.193859 -0.535961 0.112898 -0.284556
    18 -0.024967 -1.123934 0.017597 -1.884509 0.000000 0.000001
    19 -0.020057 -0.890968 0.010090 -0.772262 0.000000 0.000000
    20 0.583510 -1.197277 0.185379 0.385373 -0.553917 -0.837084
    21 1.535927 0.010246 0.005009 -0.002964 -0.012979 -0.682290
    22 1.100771 0.004527 -0.010679 -0.016147 -0.001453 -1.484153
    23 0.120153 -0.050270 -0.054489 0.287569 3.110905 1.561085
    24 -1.934882 0.663451 -12.255563 0.526291 -3.289831 0.691352
    25 0.096944 -8.450418 -0.009365 -0.763037 -1.346425 1.363381
    26 0.447953 -2.798986 -0.200443 -1.456960 0.099071 0.252834
    27 -0.032909 -1.480204 0.004940 -1.601340 0.000000 0.000002
    28 -0.027022 -1.076920 -0.020210 -0.353735 0.000000 0.000000
    29 -0.249534 -2.846964 -0.174213 -1.241183 0.075210 0.132159
    30 0.043235 -1.683941 0.096012 -1.813709 0.002823 -0.000167
    31 0.031729 -1.160830 0.058838 -0.456154 0.000642 0.008372
    32 -0.963866 -2.785145 -0.085350 -1.148608 0.139589 0.121877
    33 0.028479 -1.403067 0.006271 -1.391232 0.000000 0.000000
    34 0.021413 -0.957781 0.020046 -0.471322 0.000000 0.000000
    35 1.164475 -2.543940 -0.170330 -1.423710 -0.066254 0.446863
    36 0.024032 -1.129042 0.017807 -1.462507 0.000000 0.000001
    37 0.014898 -0.883989 -0.019848 -0.549408 0.000000 0.000000
    38 -0.586770 -1.264477 0.200161 0.313906 -0.927915 -2.922977
    39 1.522835 0.058681 0.016848 0.001410 0.008985 1.029593
    40 1.117947 0.048424 -0.005766 -0.023469 -0.009175 1.254246
    41 -0.139399 -0.111698 0.014397 0.407653 0.171241 1.393752
    42 -6.260806 6.983652 -0.294122 1.580804 -0.005023 -0.912799
  time 14
    0 -0.368931 1.166145 1.199636 0.000000 0.000000 0.000000
    1 8.929431 -3.926430 -11.397254 0.895015 -2.044584 -1.407456
    2 -0.071918 -8.498730 -0.104136 0.144876 0.070509 -0.229253
    3 5.233845 1.354622 1.688628 -0.065772 2.858007 1.272336
    4 19.997025 0.102143 0.000001 0.000000 0.000000 0.000000
    5 -20.912723 63.450513 -12.105838 -0.154990 -0.031767 -0.076931
    6 6.506417 1.675302 0.000001 0.000000 0.000000 1.570796
    7 1.257180 8.762585 -0.153713 -1.570562 0.002683 -1.566807
    8 -0.488518 -2.755602 -0.228260 -0.636863 -0.077551 -0.298478
    9 0.039887 -1.479790 0.029854 -2.230118 0.000000 0.000001
    10 0.028786 -1.075731 -0.023109 -0.271941 0.000000 0.000000
    11 0.250027 -2.820665 -0.238396 -0.437192 -0.061406 -0.314674
    12 -0.049759 -1.680544 0.100479 -2.308624 0.000000 -0.000002
    13 -0.034142 -1.148312 0.084782 -0.535851 0.000000 0.000000
    14 0.957766 -2.746780 -0.090302 0.398790 -0.132819 0.006168
    15 -0.033420 -1.397129 -0.011257 -0.767419 0.000000 -0.000001
    16 -0.022360 -0.957436 0.018784 -0.380385 0.000000 0.000000
    17 -1.180681 -2.507217 -0.193859 -0.535961 0.112898 -0.284556
    18 -0.024967 -1.123934 0.017597 -1.884509 0.000000 0.000001
    19 -0.020057 -0.890968 0.010090 -0.772262 0.000000 0.000000
    20 0.583510 -1.197277 0.185379 0.385373 -0.553917 -0.837084
    21 1.535927 0.010246 0.005009 -0.002964 -0.012979 -0.682290
    22 1.100771 0.004527 -0.010679 -0.016147 -0.001453 -1.484153
    23 0.120153 -0.050270 -0.054489 0.287569 3.110905 1.561085
    24 -1.200485 0.686890 -12.294627 0.539734 -3.328634 0.690021
    25 0.096944 -8.450418 -0.009365 -0.763037 -1.346425 1.363381
    26 0.447953 -2.798986 -0.200443 -1.456960 0.099071 0.252834
    27 -0.032909 -1.480204 0.004940 -1.601340 0.000000 0.000002
    28 -0.027022 -1.076920 -0.020210 -0.353735 0.000000 0.000000
    29 -0.249534 -2.846964 -0.174213 -1.241183 0.075210 0.132159
    30 0.043235 -1.683941 0.096012 -1.813709 0.002823 -0.000167
    31 0.031729 -1.160830 0.058838 -0.456154 0.000642 0.008372
    32 -0.963866 -2.785145 -0.085350 -1.148608 0.139589 0.121877
    33 0.028479 -1.403067 0.006271 -1.391232 0.000000 0.000000
    34 0.021413 -0.957781 0.020046 -0.471322 0.000000 0.000000
    35 1.164475 -2.543940 -0.170330 -1.423710 -0.066254 0.446863
    36 0.024032 -1.129042 0.017807 -1.462507 0.000000 0.000001
    37 0.014898 -0.883989 -0.019848 -0.549408 0.000000 0.000000
    38 -0.586770 -1.264477 0.200161 0.313906 -0.927915 -2.922977
    39 1.522835 0.058681 0.016848 0.001410 0.008985 1.029593
    40 1.117947 0.048424 -0.005766 -0.023469 -0.009175 1.254246
    41 -0.139399 -0.111698 0.014397 0.407653 0.171241 1.393752
    42 -6.260806 6.983652 -0.294122 1.580804 -0.005023 -0.912799
  time 15
    0 -0.368931 1.166145 1.199636 0.000000 0.000000 0.000000
    1 9.480229 -3.887366 -11.186310 0.854251 -2.026106 -1.380428
    2 -0.071918 -8.498730 -0.104136 0.144600 0.054665 -0.233616
    3 5.233845 1.354622 1.688628 -0.065772 2.858007 1.272336
    4 19.997025 0.102143 0.000001 0.000000 0.000000 0.000000
    5 -19.765327 63.004838 -14.355907 -0.184682 -0.041718 -0.093043
    6 6.506417 1.675302 0.000001 0.000000 0.000000 1.570796
    7 1.257180 8.762585 -0.153713 -1.570562 0.002683 -1.566807
    8 -0.488518 -2.755602 -0.228260 -0.636863 -0.077551 -0.298478
    9 0.039887 -1.479790 0.029854 -2.230118 0.000000 0.000001
    10 0.028786 -1.075731 -0.023109 -0.271941 0.000000 0.000000
    11 0.250027 -2.820665 -0.238396 -0.437192 -0.061406 -0.314674
    12 -0.049759 -1.680544 0.100479 -2.308624 0.000000 -0.000002
    13 -0.034142 -1.148312 0.084782 -0.535851 0.000000 0.000000
    14 0.957766 -2.746780 -0.090302 0.398790 -0.132819 0.006168
    15 -0.033420 -1.397129 -0.011257 -0.767419 0.000000 -0.000001
    16 -0.022360 -0.957436 0.018784 -0.380385 0.000000 0.000000
    17 -1.180681 -2.507217 -0.193859 -0.535961 0.112898 -0.284556
    18 -0.024967 -1.123934 0.017597 -1.884509 0.000000 0.000001
    19 -0.020057 -0.890968 0.010090 -0.772262 0.000000 0.000000
    20 0.583510 -1.197277 0.185379 0.385373 -0.553917 -0.837084
    21 1.535927 0.010246 0.005009 -0.002964 -0.012979 -0.682290
    22 1.100771 0.004527 -0.010679 -0.016147 -0.001453 -1.484153
    23 0.120153 -0.050270 -0.054489 0.287569 3.110905 1.561085
    24 -0.563747 0.807987 -12.267283 0.545552 -3.363339 0.684887
    25 0.096944 -8.450418 -0.009365 -0.763037 -1.346425 1.363381
    26 0.447953 -2.798986 -0.200443 -1.456960 0.099071 0.252834
    27 -0.032909 -1.480204 0.004940 -1.601340 0.000000 0.000002
    28 -0.027022 -1.076920 -0.020210 -0.353735 0.000000 0.000000
    29 -0.249534 -2.846964 -0.174213 -1.241183 0.075210 0.132159
    30 0.043235 -1.683941 0.096012 -1.813709 0.002823 -0.000167
    31 0.031729 -1.160830 0.058838 -0.456154 0.000642 0.008372
    32 -0.963866 -2.785145 -0.085350 -1.148608 0.139589 0.121877
    33 0.028479 -1.403067 0.006271 -1.391232 0.000000 0.000000
    34 0.021413 -0.957781 0.020046 -0.471322 0.000000 0.000000
    35 1.164475 -2.543940 -0.170330 -1.423710 -0.066254 0.446863
    36 0.024032 -1.129042 0.017807 -1.462507 0.000000 0.000001
    37 0.014898 -0.883989 -0.019848 -0.549408 0.000000 0.000000
    38 -0.586770 -1.264477 0.200161 0.313906 -0.927915 -2.922977
    39 1.522835 0.058681 0.016848 0.001410 0.008985 1.029593
    40 1.117947 0.048424 -0.005766 -0.023469 -0.009175 1.254246
    41 -0.139399 -0.111698 0.014397 0.407653 0.171241 1.393752
    42 -6.260806 6.983652 -0.294122 1.580804 -0.005023 -0.912799
  time 16
    0 -0.368931 1.166145 1.199636 0.000000 0.000000 0.000000
    1 9.941181 -3.770175 -10.979272 0.816090 -2.004453 -1.357700
    2 -0.071918 -8.498730 -0.104136 0.144492 0.046372 -0.236672
    3 5.233845 1.354622 1.688628 -0.065772 2.858007 1.272336
    4 19.997025 0.102143 0.000001 0.000000 0.000000 0.000000
    5 -18.192200 62.626984 -15.922361 -0.203751 -0.056548 -0.113677
    6 6.506417 1.675302 0.000001 0.000000 0.000000 1.570796
    7 1.257180 8.762585 -0.153713 -1.570562 0.002683 -1.566807
    8 -0.488518 -2.755602 -0.228260 -0.636863 -0.077551 -0.298478
    9 0.039887 -1.479790 0.029854 -2.230118 0.000000 0.000001
    10 0.028786 -1.075731 -0.023109 -0.271941 0.000000 0.000000
    11 0.250027 -2.820665 -0.238396 -0.437192 -0.061406 -0.314674
    12 -0.049759 -1.680544 0.100479 -2.308624 0.000000 -0.000002
    13 -0.034142 -1.148312 0.084782 -0.535851 0.000000 0.000000
    14 0.957766 -2.746780 -0.090302 0.398790 -0.132819 0.006168
    15 -0.033420 -1.397129 -0.011257 -0.767419 0.000000 -0.000001
    16 -0.022360 -0.957436 0.018784 -0.380385 0.000000 0.000000
    17 -1.180681 -2.507217 -0.193859 -0.535961 0.112898 -0.284556
    18 -0.024967 -1.123934 0.017597 -1.884509 0.000000 0.000001
    19 -0.020057 -0.890968 0.010090 -0.772262 0.000000 0.000000
    20 0.583510 -1.197277 0.185379 0.385373 -0.553917 -0.837084
    21 1.535927 0.010246 0.005009 -0.002964 -0.012979 -0.682290
    22 1.100771 0.004527 -0.010679 -0.016147 -0.001453 -1.484153
    23 0.120153 -0.050270 -0.054489 0.287569 3.110905 1.561085
    24 -0.016855 1.054088 -12.130560 0.540202 -3.393597 0.673479
    25 0.096944 -8.450418 -0.009365 -0.763037 -1.346425 1.363381
    26 0.447953 -2.798986 -0.200443 -1.456960 0.099071 0.252834
    27 -0.032909 -1.480204 0.004940 -1.601340 0.000000 0.000002
    28 -0.027022 -1.076920 -0.020210 -0.353735 0.000000 0.000000
    29 -0.249534 -2.846964 -0.174213 -1.241183 0.075210 0.132159
    30 0.043235 -1.683941 0.096012 -1.813709 0.002823 -0.000167
    31 0.031729 -1.160830 0.058838 -0.456154 0.000642 0.008372
    32 -0.963866 -2.785145 -0.085350 -1.148608 0.139589 0.121877
    33 0.028479 -1.403067 0.006271 -1.391232 0.000000 0.000000
    34 0.021413 -0.957781 0.020046 -0.471322 0.000000 0.000000
    35 1.164475 -2.543940 -0.170330 -1.423710 -0.066254 0.446863
    36 0.024032 -1.129042 0.017807 -1.462507 0.000000 0.000001
    37 0.014898 -0.883989 -0.019848 -0.549408 0.000000 0.000000
    38 -0.586770 -1.264477 0.200161 0.313906 -0.927915 -2.922977
    39 1.522835 0.058681 0.016848 0.001410 0.008985 1.029593
    40 1.117947 0.048424 -0.005766 -0.023469 -0.009175 1.254246
    41 -0.139399 -0.111698 0.014397 0.407653 0.171241 1.393752
    42 -6.260806 6.983652 -0.294122 1.580804 -0.005023 -0.912799
  time 17
    0 -0.368931 1.166145 1.199636 0.000000 0.000000 0.000000
    1 10.390413 -3.594388 -10.776141 0.775505 -1.979684 -1.334446
    2 -0.071918 -8.498730 -0.104136 0.144432 0.046516 -0.238494
    3 5.233845 1.354622 1.688628 -0.065772 2.858007 1.272336
    4 19.997025 0.102143 0.000001 0.000000 0.000000 0.000000
    5 -16.146616 62.316949 -16.914579 -0.213112 -0.075982 -0.139660
    6 6.506417 1.675302 0.000001 0.000000 0.000000 1.570796
    7 1.257180 8.762585 -0.153713 -1.570562 0.002683 -1.566807
    8 -0.488518 -2.755602 -0.228260 -0.636863 -0.077551 -0.298478
    9 0.039887 -1.479790 0.029854 -2.230118 0.000000 0.000001
    10 0.028786 -1.075731 -0.023109 -0.271941 0.000000 0.000000
    11 0.250027 -2.820665 -0.238396 -0.437192 -0.061406 -0.314674
    12 -0.049759 -1.680544 0.100479 -2.308695 0.000000 -0.000002
    13 -0.034142 -1.148312 0.084782 -0.535851 0.000000 0.000000
    14 0.957766 -2.746780 -0.090302 0.398790 -0.132819 0.006168
    15 -0.033420 -1.397129 -0.011257 -0.767419 0.000000 -0.000001
    16 -0.022360 -0.957436 0.018784 -0.380385 0.000000 0.000000
    17 -1.180681 -2.507217 -0.193859 -0.535961 0.112898 -0.284556
    18 -0.024967 -1.123934 0.017597 -1.884509 0.000000 0.000001
    19 -0.020057 -0.890968 0.010090 -0.772262 0.000000 0.000000
    20 0.583510 -1.197277 0.185379 0.385373 -0.553917 -0.837084
    21 1.535927 0.010246 0.005009 -0.002964 -0.012979 -0.682290
    22 1.100771 0.004527 -0.010679 -0.016147 -0.001453 -1.484153
    23 0.120153 -0.050270 -0.054489 0.287569 3.110905 1.561085
    24 0.510505 1.401755 -11.876646 0.523482 -3.420716 0.655702
    25 0.096944 -8.450418 -0.009365 -0.763037 -1.346425 1.363381
    26 0.447953 -2.798986 -0.200443 -1.456960 0.099071 0.252834
    27 -0.032909 -1.480204 0.004940 -1.601340 0.000000 0.000002
    28 -0.027022 -1.076920 -0.020210 -0.353735 0.000000 0.000000
    29 -0.249534 -2.846964 -0.174213 -1.241183 0.075210 0.132159
    30 0.043235 -1.683941 0.096012 -1.813709 0.002823 -0.000167
    31 0.031729 -1.160830 0.058838 -0.456154 0.000642 0.008372
    32 -0.963866 -2.785145 -0.085350 -1.148608 0.139589 0.121877
    33 0.028479 -1.403067 0.006271 -1.391232 0.000000 0.000000
    34 0.021413 -0.957781 0.020046 -0.471322 0.000000 0.000000
    35 1.164475 -2.543940 -0.170330 -1.423710 -0.066254 0.446863
    36 0.024032 -1.129042 0.017807 -1.462507 0.000000 0.000001
    37 0.014898 -0.883989 -0.019848 -0.549408 0.000000 0.000000
    38 -0.586770 -1.264477 0.200161 0.313906 -0.927915 -2.922977
    39 1.522835 0.058681 0.016848 0.001410 0.008985 1.029593
    40 1.117947 0.048424 -0.005766 -0.023469 -0.009175 1.254246
    41 -0.139399 -0.111698 0.014397 0.407653 0.171241 1.393752
    42 -6.260806 6.983652 -0.294122 1.580804 -0.005023 -0.912799
  time 18
    0 -0.368931 1.166145 1.199636 0.000000 0.000000 0.000000
    1 10.816207 -3.375632 -10.569103 0.732675 -1.953113 -1.309963
    2 -0.071918 -8.498730 -0.104136 0.144336 0.052616 -0.239608
    3 5.233845 1.354622 1.688628 -0.065772 2.858007 1.272336
    4 19.997025 0.102143 0.000001 0.000000 0.000000 0.000000
    5 -13.784330 62.035980 -17.441939 -0.214984 -0.098032 -0.169656
    6 6.506417 1.675302 0.000001 0.000000 0.000000 1.570796
    7 1.257180 8.762585 -0.153713 -1.570562 0.002683 -1.566807
    8 -0.488518 -2.755602 -0.228260 -0.636863 -0.077551 -0.298478
    9 0.039887 -1.479790 0.029854 -2.230118 0.000000 0.000001
    10 0.028786 -1.075731 -0.023109 -0.271941 0.000000 0.000000
    11 0.250027 -2.820665 -0.238396 -0.437192 -0.061406 -0.314674
    12 -0.049759 -1.680544 0.100479 -2.308624 0.000000 -0.000002
    13 -0.034142 -1.148312 0.084782 -0.535851 0.000000 0.000000
    14 0.957766 -2.746780 -0.090302 0.398790 -0.132819 0.006168
    15 -0.033420 -1.397129 -0.011257 -0.767419 0.000000 -0.000001
    16 -0.022360 -0.957436 0.018784 -0.380385 0.000000 0.000000
    17 -1.180681 -2.507217 -0.193859 -0.535961 0.112898 -0.284556
    18 -0.024967 -1.123934 0.017597 -1.884509 0.000000 0.000001
    19 -0.020057 -0.890968 0.010090 -0.772262 0.000000 0.000000
    20 0.583510 -1.197277 0.185379 0.385373 -0.553917 -0.837084
    21 1.535927 0.010246 0.005009 -0.002964 -0.012979 -0.682290
    22 1.100771 0.004527 -0.010679 -0.016147 -0.001453 -1.484153
    23 0.120153 -0.050270 -0.054489 0.287569 3.110905 1.561085
    24 1.006614 1.815830 -11.536792 0.498270 -3.444957 0.633361
    25 0.096944 -8.450418 -0.009365 -0.763037 -1.346425 1.363381
    26 0.447953 -2.798986 -0.200443 -1.456960 0.099071 0.252834
    27 -0.032909 -1.480204 0.004940 -1.601340 0.000000 0.000002
    28 -0.027022 -1.076920 -0.020210 -0.353735 0.000000 0.000000
    29 -0.249534 -2.846964 -0.174213 -1.241183 0.075210 0.132159
    30 0.043235 -1.683941 0.096012 -1.813709 0.002823 -0.000167
    31 0.031729 -1.160830 0.058838 -0.456154 0.000642 0.008372
    32 -0.963866 -2.785145 -0.085350 -1.148608 0.139589 0.121877
    33 0.028479 -1.403067 0.006271 -1.391232 0.000000 0.000000
    34 0.021413 -0.957781 0.020046 -0.471322 0.000000 0.000000
    35 1.164475 -2.543940 -0.170330 -1.423710 -0.066254 0.446863
    36 0.024032 -1.129042 0.017807 -1.462507 0.000000 0.000001
    37 0.014898 -0.883989 -0.019848 -0.549408 0.000000 0.000000
    38 -0.586770 -1.264477 0.200161 0.313906 -0.927915 -2.922977
    39 1.522835 0.058681 0.016848 0.001410 0.008985 1.029593
    40 1.117947 0.048424 -0.005766 -0.023469 -0.009175 1.254246
    41 -0.139399 -0.111698 0.014397 0.407653 0.171241 1.393752
    42 -6.260806 6.983652 -0.294122 1.580804 -0.005023 -0.912799
  time 19
    0 -0.368931 1.166145 1.199636 0.000000 0.000000 0.000000
    1 11.210751 -3.133437 -10.365972 0.687960 -1.926084 -1.283725
    2 -0.071918 -8.498730 -0.104136 0.144205 0.062695 -0.240195
    3 5.233845 1.354622 1.688628 -0.065772 2.858007 1.272336
    4 19.997025 0.102143 0.000001 0.000000 0.000000 0.000000
    5 -11.261096 61.745323 -17.598193 -0.211022 -0.120784 -0.201944
    6 6.506417 1.675302 0.000001 0.000000 0.000000 1.570796
    7 1.257180 8.762585 -0.153713 -1.570562 0.002683 -1.566807
    8 -0.488518 -2.755602 -0.228260 -0.636863 -0.077551 -0.298478
    9 0.039887 -1.479790 0.029854 -2.230118 0.000000 0.000001
    10 0.028786 -1.075731 -0.023109 -0.271941 0.000000 0.000000
    11 0.250027 -2.820665 -0.238396 -0.437192 -0.061406 -0.314674
    12 -0.049759 -1.680544 0.100479 -2.308695 0.000000 -0.000002
    13 -0.034142 -1.148312 0.084782 -0.535851 0.000000 0.000000
    14 0.957766 -2.746780 -0.090302 0.398790 -0.132819 0.006168
    15 -0.033420 -1.397129 -0.011257 -0.767419 0.000000 -0.000001
    16 -0.022360 -0.957436 0.018784 -0.380385 0.000000 0.000000
    17 -1.180681 -2.507217 -0.193859 -0.535961 0.112898 -0.284556
    18 -0.024967 -1.123934 0.017597 -1.884509 0.000000 0.000001
    19 -0.020057 -0.890968 0.010090 -0.772262 0.000000 0.000000
    20 0.583510 -1.197277 0.185379 0.385373 -0.553917 -0.837084
    21 1.535927 0.010246 0.005009 -0.002964 -0.012979 -0.682290
    22 1.100771 0.004527 -0.010679 -0.016147 -0.001453 -1.484153
    23 0.120153 -0.050270 -0.054489 0.287569 3.110905 1.561085
    24 1.467565 2.249437 -11.142248 0.467239 -3.465885 0.608359
    25 0.096944 -8.450418 -0.009365 -0.763037 -1.346425 1.363381
    26 0.447953 -2.798986 -0.200443 -1.456960 0.099071 0.252834
    27 -0.032909 -1.480204 0.004940 -1.601340 0.000000 0.000002
    28 -0.027022 -1.076920 -0.020210 -0.353735 0.000000 0.000000
    29 -0.249534 -2.846964 -0.174213 -1.241183 0.075210 0.132159
    30 0.043235 -1.683941 0.096012 -1.813709 0.002823 -0.000167
    31 0.031729 -1.160830 0.058838 -0.456154 0.000642 0.008372
    32 -0.963866 -2.785145 -0.085350 -1.148608 0.139589 0.121877
    33 0.028479 -1.403067 0.006271 -1.391232 0.000000 0.000000
    34 0.021413 -0.957781 0.020046 -0.471322 0.000000 0.000000
    35 1.164475 -2.543940 -0.170330 -1.423710 -0.066254 0.446863
    36 0.024032 -1.129042 0.017807 -1.462507 0.000000 0.000001
    37 0.014898 -0.883989 -0.019848 -0.549408 0.000000 0.000000
    38 -0.586770 -1.264477 0.200161 0.313906 -0.927915 -2.922977
    39 1.522835 0.058681 0.016848 0.001410 0.008985 1.029593
    40 1.117947 0.048424 -0.005766 -0.023469 -0.009175 1.254246
    41 -0.139399 -0.111698 0.014397 0.407653 0.171241 1.393752
    42 -6.260806 6.983652 -0.294122 1.580804 -0.005023 -0.912799
  time 20
    0 -0.368931 1.166145 1.199636 0.000000 0.000000 0.000000
    1 11.574043 -2.887335 -10.178466 0.642436 -1.899910 -1.255732
    2 -0.071918 -8.498730 -0.104136 0.144061 0.074847 -0.240423
    3 5.233845 1.354622 1.688628 -0.065772 2.858007 1.272336
    4 19.997025 0.102143 0.000001 0.000000 0.000000 0.000000
    5 -8.748247 61.435288 -17.473189 -0.203098 -0.142560 -0.234741
    6 6.506417 1.675302 0.000001 0.000000 0.000000 1.570796
    7 1.257180 8.762585 -0.153713 -1.570562 0.002683 -1.566807
    8 -0.488518 -2.755602 -0.228260 -0.636863 -0.077551 -0.298478
    9 0.039887 -1.479790 0.029854 -2.230118 0.000000 0.000001
    10 0.028786 -1.075731 -0.023109 -0.271941 0.000000 0.000000
    11 0.250027 -2.820665 -0.238396 -0.437192 -0.061406 -0.314674
    12 -0.049759 -1.680544 0.100479 -2.308624 0.000000 -0.000002
    13 -0.034142 -1.148312 0.084782 -0.535851 0.000000 0.000000
    14 0.957766 -2.746780 -0.090302 0.398790 -0.132819 0.006168
    15 -0.033420 -1.397129 -0.011257 -0.767419 0.000000 -0.000001
    16 -0.022360 -0.957436 0.018784 -0.380385 0.000000 0.000000
    17 -1.180681 -2.507217 -0.193859 -0.535961 0.112898 -0.284556
    18 -0.024967 -1.123934 0.017597 -1.884509 0.000000 0.000001
    19 -0.020057 -0.890968 0.010090 -0.772262 0.000000 0.000000
    20 0.583510 -1.197277 0.185379 0.385373 -0.553917 -0.837084
    21 1.535927 0.010246 0.005009 -0.002964 -0.012979 -0.682290
    22 1.100771 0.004527 -0.010679 -0.016147 -0.001453 -1.484153
    23 0.120153 -0.050270 -0.054489 0.287569 3.110905 1.561085
    24 1.893360 2.675231 -10.724267 0.433533 -3.483586 0.582691
    25 0.096944 -8.450418 -0.009365 -0.763037 -1.346425 1.363381
    26 0.447953 -2.798986 -0.200443 -1.456960 0.099071 0.252834
    27 -0.032909 -1.480204 0.004940 -1.601340 0.000000 0.000002
    28 -0.027022 -1.076920 -0.020210 -0.353735 0.000000 0.000000
    29 -0.249534 -2.846964 -0.174213 -1.241183 0.075210 0.132159
    30 0.043235 -1.683941 0.096012 -1.813709 0.002823 -0.000167
    31 0.031729 -1.160830 0.058838 -0.456154 0.000642 0.008372
    32 -0.963866 -2.785145 -0.085350 -1.148608 0.139589 0.121877
    33 0.028479 -1.403067 0.006271 -1.391232 0.000000 0.000000
    34 0.021413 -0.957781 0.020046 -0.471322 0.000000 0.000000
    35 1.164475 -2.543940 -0.170330 -1.423710 -0.066254 0.446863
    36 0.024032 -1.129042 0.017807 -1.462507 0.000000 0.000001
    37 0.014898 -0.883989 -0.019848 -0.549408 0.000000 0.000000
    38 -0.586770 -1.264477 0.200161 0.313906 -0.927915 -2.922977
    39 1.522835 0.058681 0.016848 0.001410 0.008985 1.029593
    40 1.117947 0.048424 -0.005766 -0.023469 -0.009175 1.254246
    41 -0.139399 -0.111698 0.014397 0.407653 0.171241 1.393752
    42 -6.260806 6.983652 -0.294122 1.580804 -0.005023 -0.912799
  time 21
    0 -0.368931 1.166145 1.199636 0.000000 0.000000 0.000000
    1 11.902178 -2.660766 -10.010492 0.597721 -1.875813 -1.226686
    2 -0.071918 -8.498730 -0.104136 0.143917 0.087107 -0.240459
    3 5.233845 1.354622 1.688628 -0.065772 2.858007 1.272336
    4 19.997025 0.102143 0.000001 0.000000 0.000000 0.000000
    5 -6.411920 61.096188 -17.188025 -0.193303 -0.161916 -0.266010
    6 6.506417 1.675302 0.000001 0.000000 0.000000 1.570796
    7 1.257180 8.762585 -0.153713 -1.570562 0.002683 -1.566807
    8 -0.488518 -2.755602 -0.228260 -0.636863 -0.077551 -0.298478
    9 0.039887 -1.479790 0.029854 -2.230118 0.000000 0.000001
    10 0.028786 -1.075731 -0.023109 -0.271941 0.000000 0.000000
    11 0.250027 -2.820665 -0.238396 -0.437192 -0.061406 -0.314674
    12 -0.049759 -1.680544 0.100479 -2.308695 0.000000 -0.000002
    13 -0.034142 -1.148312 0.084782 -0.535851 0.000000 0.000000
    14 0.957766 -2.746780 -0.090302 0.398790 -0.132819 0.006168
    15 -0.033420 -1.397129 -0.011257 -0.767419 0.000000 -0.000001
    16 -0.022360 -0.957436 0.018784 -0.380385 0.000000 0.000000
    17 -1.180681 -2.507217 -0.193859 -0.535961 0.112898 -0.284556
    18 -0.024967 -1.123934 0.017597 -1.884509 0.000000 0.000001
    19 -0.020057 -0.890968 0.010090 -0.772262 0.000000 0.000000
    20 0.583510 -1.197277 0.185379 0.385373 -0.553917 -0.837084
    21 1.535927 0.010246 0.005009 -0.002964 -0.012979 -0.682290
    22 1.100771 0.004527 -0.010679 -0.016147 -0.001453 -1.484153
    23 0.120153 -0.050270 -0.054489 0.287569 3.110905 1.561085
    24 2.272277 3.058056 -10.321911 0.400228 -3.497974 0.558259
    25 0.096944 -8.450418 -0.009365 -0.763037 -1.346425 1.363381
    26 0.447953 -2.798986 -0.200443 -1.456960 0.099071 0.252834
    27 -0.032909 -1.480204 0.004940 -1.601340 0.000000 0.000002
    28 -0.027022 -1.076920 -0.020210 -0.353735 0.000000 0.000000
    29 -0.249534 -2.846964 -0.174213 -1.241183 0.075210 0.132159
    30 0.043235 -1.683941 0.096012 -1.813709 0.002823 -0.000167
    31 0.031729 -1.160830 0.058838 -0.456154 0.000642 0.008372
    32 -0.963866 -2.785145 -0.085350 -1.148608 0.139589 0.121877
    33 0.028479 -1.403067 0.006271 -1.391232 0.000000 0.000000
    34 0.021413 -0.957781 0.020046 -0.471322 0.000000 0.000000
    35 1.164475 -2.543940 -0.170330 -1.423710 -0.066254 0.446863
    36 0.024032 -1.129042 0.017807 -1.462507 0.000000 0.000001
    37 0.014898 -0.883989 -0.019848 -0.549408 0.000000 0.000000
    38 -0.586770 -1.264477 0.200161 0.313906 -0.927915 -2.922977
    39 1.522835 0.058681 0.016848 0.001410 0.008985 1.029593
    40 1.117947 0.048424 -0.005766 -0.023469 -0.009175 1.254246
    41 -0.139399 -0.111698 0.014397 0.407653 0.171241 1.393752
    42 -6.260806 6.983652 -0.294122 1.580804 -0.005023 -0.912799
  time 22
    0 -0.368931 1.166145 1.199636 0.000000 0.000000 0.000000
    1 12.183437 -2.465448 -9.865957 0.556687 -1.855045 -1.198605
    2 -0.071918 -8.498730 -0.104136 0.143797 0.097546 -0.240483
    3 5.233845 1.354622 1.688628 -0.065772 2.858007 1.272336
    4 19.997025 0.102143 0.000001 0.000000 0.000000 0.000000
    5 -4.407870 60.757088 -16.871609 -0.183681 -0.177683 -0.293459
    6 6.506417 1.675302 0.000001 0.000000 0.000000 1.570796
    7 1.257180 8.762585 -0.153713 -1.570562 0.002683 -1.566807
    8 -0.488518 -2.755602 -0.228260 -0.636863 -0.077551 -0.298478
    9 0.039887 -1.479790 0.029854 -2.230118 0.000000 0.000001
    10 0.028786 -1.075731 -0.023109 -0.271941 0.000000 0.000000
    11 0.250027 -2.820665 -0.238396 -0.437192 -0.061406 -0.314674
    12 -0.049759 -1.680544 0.100479 -2.308624 0.000000 -0.000002
    13 -0.034142 -1.148312 0.084782 -0.535851 0.000000 0.000000
    14 0.957766 -2.746780 -0.090302 0.398790 -0.132819 0.006168
    15 -0.033420 -1.397129 -0.011257 -0.767419 0.000000 -0.000001
    16 -0.022360 -0.957436 0.018784 -0.380385 0.000000 0.000000
    17 -1.180681 -2.507217 -0.193859 -0.535961 0.112898 -0.284556
    18 -0.024967 -1.123934 0.017597 -1.884509 0.000000 0.000001
    19 -0.020057 -0.890968 0.010090 -0.772262 0.000000 0.000000
    20 0.583510 -1.197277 0.185379 0.385373 -0.553917 -0.837084
    21 1.535927 0.010246 0.005009 -0.002964 -0.012979 -0.682290
    22 1.100771 0.004527 -0.010679 -0.016147 -0.001453 -1.484153
    23 0.120153 -0.050270 -0.054489 0.287569 3.110905 1.561085
    24 2.596506 3.366659 -9.962525 0.370668 -3.509310 0.537250
    25 0.096944 -8.450418 -0.009365 -0.763037 -1.346425 1.363381
    26 0.447953 -2.798986 -0.200443 -1.456960 0.099071 0.252834
    27 -0.032909 -1.480204 0.004940 -1.601340 0.000000 0.000002
    28 -0.027022 -1.076920 -0.020210 -0.353735 0.000000 0.000000
    29 -0.249534 -2.846964 -0.174213 -1.241183 0.075210 0.132159
    30 0.043235 -1.683941 0.096012 -1.813709 0.002823 -0.000167
    31 0.031729 -1.160830 0.058838 -0.456154 0.000642 0.008372
    32 -0.963866 -2.785145 -0.085350 -1.148608 0.139589 0.121877
    33 0.028479 -1.403067 0.006271 -1.391232 0.000000 0.000000
    34 0.021413 -0.957781 0.020046 -0.471322 0.000000 0.000000
    35 1.164475 -2.543940 -0.170330 -1.423710 -0.066254 0.446863
    36 0.024032 -1.129042 0.017807 -1.462507 0.000000 0.000001
    37 0.014898 -0.883989 -0.019848 -0.549408 0.000000 0.000000
    38 -0.586770 -1.264477 0.200161 0.313906 -0.927915 -2.922977
    39 1.522835 0.058681 0.016848 0.001410 0.008985 1.029593
    40 1.117947 0.048424 -0.005766 -0.023469 -0.009175 1.254246
    41 -0.139399 -0.111698 0.014397 0.407653 0.171241 1.393752
    42 -6.260806 6.983652 -0.294122 1.580804 -0.005023 -0.912799
  time 23
    0 -0.368931 1.166145 1.199636 0.000000 0.000000 0.000000
    1 12.417819 -2.328725 -9.752672 0.523285 -1.838675 -1.174561
    2 -0.071918 -8.498730 -0.104136 0.143713 0.104209 -0.240639
    3 5.233845 1.354622 1.688628 -0.065772 2.858007 1.272336
    4 19.997025 0.102143 0.000001 0.000000 0.000000 0.000000
    5 -2.897046 60.447053 -16.660665 -0.176628 -0.189039 -0.314602
    6 6.506417 1.675302 0.000001 0.000000 0.000000 1.570796
    7 1.257180 8.762585 -0.153713 -1.570562 0.002683 -1.566807
    8 -0.488518 -2.755602 -0.228260 -0.636863 -0.077551 -0.298478
    9 0.039887 -1.479790 0.029854 -2.230118 0.000000 0.000001
    10 0.028786 -1.075731 -0.023109 -0.271941 0.000000 0.000000
    11 0.250027 -2.820665 -0.238396 -0.437192 -0.061406 -0.314674
    12 -0.049759 -1.680544 0.100479 -2.308695 0.000000 -0.000002
    13 -0.034142 -1.148312 0.084782 -0.535851 0.000000 0.000000
    14 0.957766 -2.746780 -0.090302 0.398790 -0.132819 0.006168
    15 -0.033420 -1.397129 -0.011257 -0.767419 0.000000 -0.000001
    16 -0.022360 -0.957436 0.018784 -0.380385 0.000000 0.000000
    17 -1.180681 -2.507217 -0.193859 -0.535961 0.112898 -0.284556
    18 -0.024967 -1.123934 0.017597 -1.884509 0.000000 0.000001
    19 -0.020057 -0.890968 0.010090 -0.772262 0.000000 0.000000
    20 0.583510 -1.197277 0.185379 0.385373 -0.553917 -0.837084
    21 1.535927 0.010246 0.005009 -0.002964 -0.012979 -0.682290
    22 1.100771 0.004527 -0.010679 -0.016147 -0.001453 -1.484153
    23 0.120153 -0.050270 -0.054489 0.287569 3.110905 1.561085
    24 2.866046 3.585415 -9.689079 0.348131 -3.518030 0.521564
    25 0.096944 -8.450418 -0.009365 -0.763037 -1.346425 1.363381
    26 0.447953 -2.798986 -0.200443 -1.456960 0.099071 0.252834
    27 -0.032909 -1.480204 0.004940 -1.601340 0.000000 0.000002
    28 -0.027022 -1.076920 -0.020210 -0.353735 0.000000 0.000000
    29 -0.249534 -2.846964 -0.174213 -1.241183 0.075210 0.132159
    30 0.043235 -1.683941 0.096012 -1.813709 0.002823 -0.000167
    31 0.031729 -1.160830 0.058838 -0.456154 0.000642 0.008372
    32 -0.963866 -2.785145 -0.085350 -1.148608 0.139589 0.121877
    33 0.028479 -1.403067 0.006271 -1.391232 0.000000 0.000000
    34 0.021413 -0.957781 0.020046 -0.471322 0.000000 0.000000
    35 1.164475 -2.543940 -0.170330 -1.423710 -0.066254 0.446863
    36 0.024032 -1.129042 0.017807 -1.462507 0.000000 0.000001
    37 0.014898 -0.883989 -0.019848 -0.549408 0.000000 0.000000
    38 -0.586770 -1.264477 0.200161 0.313906 -0.927915 -2.922977
    39 1.522835 0.058681 0.016848 0.001410 0.008985 1.029593
    40 1.117947 0.048424 -0.005766 -0.023469 -0.009175 1.254246
    41 -0.139399 -0.111698 0.014397 0.407653 0.171241 1.393752
    42 -6.260806 6.983652 -0.294122 1.580804 -0.005023 -0.912799
  time 24
    0 -0.368931 1.166145 1.199636 0.000000 0.000000 0.000000
    1 12.589699 -2.246691 -9.674545 0.505686 -1.827252 -1.161662
    2 -0.071918 -8.498730 -0.104136 0.143665 0.107241 -0.240842
    3 5.233845 1.354622 1.688628 -0.065772 2.858007 1.272336
    4 19.997025 0.102143 0.000001 0.000000 0.000000 0.000000
    5 -1.962515 60.253282 -16.508316 -0.171317 -0.195166 -0.328167
    6 6.506417 1.675302 0.000001 0.000000 0.000000 1.570796
    7 1.257180 8.762585 -0.153713 -1.570562 0.002683 -1.566807
    8 -0.488518 -2.755602 -0.228260 -0.636863 -0.077551 -0.298478
    9 0.039887 -1.479790 0.029854 -2.230118 0.000000 0.000001
    10 0.028786 -1.075731 -0.023109 -0.271941 0.000000 0.000000
    11 0.250027 -2.820665 -0.238396 -0.437192 -0.061406 -0.314674
    12 -0.049759 -1.680544 0.100479 -2.308624 0.000000 -0.000002
    13 -0.034142 -1.148312 0.084782 -0.535851 0.000000 0.000000
    14 0.957766 -2.746780 -0.090302 0.398790 -0.132819 0.006168
    15 -0.033420 -1.397129 -0.011257 -0.767419 0.000000 -0.000001
    16 -0.022360 -0.957436 0.018784 -0.380385 0.000000 0.000000
    17 -1.180681 -2.507217 -0.193859 -0.535961 0.112898 -0.284556
    18 -0.024967 -1.123934 0.017597 -1.884509 0.000000 0.000001
    19 -0.020057 -0.890968 0.010090 -0.772262 0.000000 0.000000
    20 0.583510 -1.197277 0.185379 0.385373 -0.553917 -0.837084
    21 1.535927 0.010246 0.005009 -0.002964 -0.012979 -0.682290
    22 1.100771 0.004527 -0.010679 -0.016147 -0.001453 -1.484153
    23 0.120153 -0.050270 -0.054489 0.287569 3.110905 1.561085
    24 3.057458 3.706513 -9.505480 0.333484 -3.522738 0.512342
    25 0.096944 -8.450418 -0.009365 -0.763037 -1.346425 1.363381
    26 0.447953 -2.798986 -0.200443 -1.456960 0.099071 0.252834
    27 -0.032909 -1.480204 0.004940 -1.601340 0.000000 0.000002
    28 -0.027022 -1.076920 -0.020210 -0.353735 0.000000 0.000000
    29 -0.249534 -2.846964 -0.174213 -1.241183 0.075210 0.132159
    30 0.043235 -1.683941 0.096012 -1.813709 0.002823 -0.000167
    31 0.031729 -1.160830 0.058838 -0.456154 0.000642 0.008372
    32 -0.963866 -2.785145 -0.085350 -1.148608 0.139589 0.121877
    33 0.028479 -1.403067 0.006271 -1.391232 0.000000 0.000000
    34 0.021413 -0.957781 0.020046 -0.471322 0.000000 0.000000
    35 1.164475 -2.543940 -0.170330 -1.423710 -0.066254 0.446863
    36 0.024032 -1.129042 0.017807 -1.462507 0.000000 0.000001
    37 0.014898 -0.883989 -0.019848 -0.549408 0.000000 0.000000
    38 -0.586770 -1.264477 0.200161 0.313906 -0.927915 -2.922977
    39 1.522835 0.058681 0.016848 0.001410 0.008985 1.029593
    40 1.117947 0.048424 -0.005766 -0.023469 -0.009175 1.254246
    41 -0.139399 -0.111698 0.014397 0.407653 0.171241 1.393752
    42 -6.260806 6.983652 -0.294122 1.580804 -0.005023 -0.912799
  time 25
    0 -0.368931 1.166145 1.199636 0.000000 0.000000 0.000000
    1 12.695171 -2.203721 -9.631575 0.506764 -1.819770 -1.163241
    2 -0.071918 -8.498730 -0.104136 0.143653 0.108416 -0.240926
    3 5.233845 1.354622 1.688628 -0.065772 2.858007 1.272336
    4 19.997025 0.102143 0.000001 0.000000 0.000000 0.000000
    5 -1.490057 60.214527 -16.293466 -0.165744 -0.196727 -0.335681
    6 6.506417 1.675302 0.000001 0.000000 0.000000 1.570796
    7 1.257180 8.762585 -0.153713 -1.570562 0.002683 -1.566807
    8 -0.488518 -2.755602 -0.228260 -0.636863 -0.077551 -0.298478
    9 0.039887 -1.479790 0.029854 -2.230118 0.000000 0.000001
    10 0.028786 -1.075731 -0.023109 -0.271941 0.000000 0.000000
    11 0.250027 -2.820665 -0.238396 -0.437192 -0.061406 -0.314674
    12 -0.049759 -1.680544 0.100479 -2.308695 0.000000 -0.000002
    13 -0.034142 -1.148312 0.084782 -0.535851 0.000000 0.000000
    14 0.957766 -2.746780 -0.090302 0.398790 -0.132819 0.006168
    15 -0.033420 -1.397129 -0.011257 -0.767419 0.000000 -0.000001
    16 -0.022360 -0.957436 0.018784 -0.380385 0.000000 0.000000
    17 -1.180681 -2.507217 -0.193859 -0.535942 0.112898 -0.284556
    18 -0.024967 -1.123934 0.017597 -1.884509 0.000000 0.000001
    19 -0.020057 -0.890968 0.010090 -0.772262 0.000000 0.000000
    20 0.583510 -1.197277 0.185379 0.385373 -0.553917 -0.837084
    21 1.535927 0.010246 0.005009 -0.002964 -0.012979 -0.682290
    22 1.100771 0.004527 -0.010679 -0.016147 -0.001453 -1.484153
    23 0.120153 -0.050270 -0.054489 0.287569 3.110905 1.561085
    24 3.162930 3.753389 -9.376569 0.324255 -3.522826 0.508540
    25 0.096944 -8.450418 -0.009365 -0.763037 -1.346425 1.363381
    26 0.447953 -2.798986 -0.200443 -1.456960 0.099071 0.252834
    27 -0.032909 -1.480204 0.004940 -1.601340 0.000000 0.000002
    28 -0.027022 -1.076920 -0.020210 -0.353735 0.000000 0.000000
    29 -0.249534 -2.846964 -0.174213 -1.241183 0.075210 0.132159
    30 0.043235 -1.683941 0.096012 -1.813709 0.002823 -0.000167
    31 0.031729 -1.160830 0.058838 -0.456154 0.000642 0.008372
    32 -0.963866 -2.785145 -0.085350 -1.148608 0.139589 0.121877
    33 0.028479 -1.403067 0.006271 -1.391232 0.000000 0.000000
    34 0.021413 -0.957781 0.020046 -0.471322 0.000000 0.000000
    35 1.164475 -2.543940 -0.170330 -1.423710 -0.066254 0.446863
    36 0.024032 -1.129042 0.017807 -1.462507 0.000000 0.000001
    37 0.014898 -0.883989 -0.019848 -0.549408 0.000000 0.000000
    38 -0.586770 -1.264477 0.200161 0.313906 -0.927915 -2.922977
    39 1.522835 0.058681 0.016848 0.001410 0.008985 1.029593
    40 1.117947 0.048424 -0.005766 -0.023469 -0.009175 1.254246
    41 -0.139399 -0.111698 0.014397 0.407653 0.171241 1.393752
    42 -6.260806 6.983652 -0.294122 1.580804 -0.005023 -0.912799
  time 26
    0 -0.368931 1.166145 1.199636 0.000000 0.000000 0.000000
    1 12.745954 -2.188095 -9.619856 0.522656 -1.815158 -1.176667
    2 -0.071918 -8.498730 -0.104136 0.143653 0.108248 -0.240914
    3 5.233845 1.354622 1.688628 -0.065772 2.858007 1.272336
    4 19.997025 0.102143 0.000001 0.000000 0.000000 0.000000
    5 -1.365453 60.292036 -16.027833 -0.159954 -0.195049 -0.338675
    6 6.506417 1.675302 0.000001 0.000000 0.000000 1.570796
    7 1.257180 8.762585 -0.153713 -1.570562 0.002683 -1.566807
    8 -0.488518 -2.755602 -0.228260 -0.636863 -0.077551 -0.298478
    9 0.039887 -1.479790 0.029854 -2.230118 0.000000 0.000001
    10 0.028786 -1.075731 -0.023109 -0.271941 0.000000 0.000000
    11 0.250027 -2.820665 -0.238396 -0.437192 -0.061406 -0.314674
    12 -0.049759 -1.680544 0.100479 -2.308624 0.000000 -0.000002
    13 -0.034142 -1.148312 0.084782 -0.535851 0.000000 0.000000
    14 0.957766 -2.746780 -0.090302 0.398790 -0.132819 0.006168
    15 -0.033420 -1.397129 -0.011257 -0.767419 0.000000 -0.000001
    16 -0.022360 -0.957436 0.018784 -0.380385 0.000000 0.000000
    17 -1.180681 -2.507217 -0.193859 -0.535961 0.112898 -0.284556
    18 -0.024967 -1.123934 0.017597 -1.884509 0.000000 0.000001
    19 -0.020057 -0.890968 0.010090 -0.772262 0.000000 0.000000
    20 0.583510 -1.197277 0.185379 0.385373 -0.553917 -0.837084
    21 1.535927 0.010246 0.005009 -0.002964 -0.012979 -0.682290
    22 1.100771 0.004527 -0.010679 -0.016147 -0.001453 -1.484153
    23 0.120153 -0.050270 -0.054489 0.287569 3.110905 1.561085
    24 3.201993 3.745577 -9.302348 0.319039 -3.519512 0.508635
    25 0.096944 -8.450418 -0.009365 -0.763037 -1.346425 1.363381
    26 0.447953 -2.798986 -0.200443 -1.456960 0.099071 0.252834
    27 -0.032909 -1.480204 0.004940 -1.601340 0.000000 0.000002
    28 -0.027022 -1.076920 -0.020210 -0.353735 0.000000 0.000000
    29 -0.249534 -2.846964 -0.174213 -1.241183 0.075210 0.132159
    30 0.043235 -1.683941 0.096012 -1.813709 0.002823 -0.000167
    31 0.031729 -1.160830 0.058838 -0.456154 0.000642 0.008372
    32 -0.963866 -2.785145 -0.085350 -1.148608 0.139589 0.121877
    33 0.028479 -1.403067 0.006271 -1.391232 0.000000 0.000000
    34 0.021413 -0.957781 0.020046 -0.471322 0.000000 0.000000
    35 1.164475 -2.543940 -0.170330 -1.423710 -0.066254 0.446863
    36 0.024032 -1.129042 0.017807 -1.462507 0.000000 0.000001
    37 0.014898 -0.883989 -0.019848 -0.549408 0.000000 0.000000
    38 -0.586770 -1.264477 0.200161 0.313906 -0.927915 -2.922977
    39 1.522835 0.058681 0.016848 0.001410 0.008985 1.029593
    40 1.117947 0.048424 -0.005766 -0.023469 -0.009175 1.254246
    41 -0.139399 -0.111698 0.014397 0.407653 0.171241 1.393752
    42 -6.260806 6.983652 -0.294122 1.580804 -0.005023 -0.912799
  time 27
    0 -0.368931 1.166145 1.199636 0.000000 0.000000 0.000000
    1 12.749860 -2.203721 -9.631575 0.548157 -1.812440 -1.197728
    2 -0.071918 -8.498730 -0.104136 0.143665 0.107241 -0.240842
    3 5.233845 1.354622 1.688628 -0.065772 2.858007 1.272336
    4 19.997025 0.102143 0.000001 0.000000 0.000000 0.000000
    5 -1.464098 60.447053 -15.723136 -0.154076 -0.191302 -0.338866
    6 6.506417 1.675302 0.000001 0.000000 0.000000 1.570796
    7 1.257180 8.762585 -0.153713 -1.570562 0.002683 -1.566807
    8 -0.488518 -2.755602 -0.228260 -0.636863 -0.077551 -0.298478
    9 0.039887 -1.479790 0.029854 -2.230118 0.000000 0.000001
    10 0.028786 -1.075731 -0.023109 -0.271941 0.000000 0.000000
    11 0.250027 -2.820665 -0.238396 -0.437192 -0.061406 -0.314674
    12 -0.049759 -1.680544 0.100479 -2.308624 0.000000 -0.000002
    13 -0.034142 -1.148312 0.084782 -0.535851 0.000000 0.000000
    14 0.957766 -2.746780 -0.090302 0.398790 -0.132819 0.006168
    15 -0.033420 -1.397129 -0.011257 -0.767419 0.000000 -0.000001
    16 -0.022360 -0.957436 0.018784 -0.380385 0.000000 0.000000
    17 -1.180681 -2.507217 -0.193859 -0.535961 0.112898 -0.284556
    18 -0.024967 -1.123934 0.017597 -1.884509 0.000000 0.000001
    19 -0.020057 -0.890968 0.010090 -0.772262 0.000000 0.000000
    20 0.583510 -1.197277 0.185379 0.385373 -0.553917 -0.837084
    21 1.535927 0.010246 0.005009 -0.002964 -0.012979 -0.682290
    22 1.100771 0.004527 -0.010679 -0.016147 -0.001453 -1.484153
    23 0.120153 -0.050270 -0.054489 0.287569 3.110905 1.561085
    24 3.190274 3.698700 -9.259378 0.316297 -3.514106 0.511202
    25 0.096944 -8.450418 -0.009365 -0.763037 -1.346425 1.363381
    26 0.447953 -2.798986 -0.200443 -1.456960 0.099071 0.252834
    27 -0.032909 -1.480204 0.004940 -1.601340 0.000000 0.000002
    28 -0.027022 -1.076920 -0.020210 -0.353735 0.000000 0.000000
    29 -0.249534 -2.846964 -0.174213 -1.241183 0.075210 0.132159
    30 0.043235 -1.683941 0.096012 -1.813709 0.002823 -0.000167
    31 0.031729 -1.160830 0.058838 -0.456154 0.000642 0.008372
    32 -0.963866 -2.785145 -0.085350 -1.148608 0.139589 0.121877
    33 0.028479 -1.403067 0.006271 -1.391232 0.000000 0.000000
    34 0.021413 -0.957781 0.020046 -0.471322 0.000000 0.000000
    35 1.164475 -2.543940 -0.170330 -1.423710 -0.066254 0.446863
    36 0.024032 -1.129042 0.017807 -1.462507 0.000000 0.000001
    37 0.014898 -0.883989 -0.019848 -0.549408 0.000000 0.000000
    38 -0.586770 -1.264477 0.200161 0.313906 -0.927915 -2.922977
    39 1.522835 0.058681 0.016848 0.001410 0.008985 1.029593
    40 1.117947 0.048424 -0.005766 -0.023469 -0.009175 1.254246
    41 -0.139399 -0.111698 0.014397 0.407653 0.171241 1.393752
    42 -6.260806 6.983652 -0.294122 1.580804 -0.005023 -0.912799
  time 28
    0 -0.368931 1.166145 1.199636 0.000000 0.000000 0.000000
    1 12.722516 -2.234972 -9.662826 0.577788 -1.810608 -1.222123
    2 -0.071918 -8.498730 -0.104136 0.143689 0.105887 -0.240747
    3 5.233845 1.354622 1.688628 -0.065772 2.858007 1.272336
    4 19.997025 0.102143 0.000001 0.000000 0.000000 0.000000
    5 -1.666580 60.621448 -15.387188 -0.148112 -0.186736 -0.337910
    6 6.506417 1.675302 0.000001 0.000000 0.000000 1.570796
    7 1.257180 8.762585 -0.153713 -1.570562 0.002683 -1.566807
    8 -0.488518 -2.755602 -0.228260 -0.636863 -0.077551 -0.298478
    9 0.039887 -1.479790 0.029854 -2.230118 0.000000 0.000001
    10 0.028786 -1.075731 -0.023109 -0.271941 0.000000 0.000000
    11 0.250027 -2.820665 -0.238396 -0.437192 -0.061406 -0.314674
    12 -0.049759 -1.680544 0.100479 -2.308624 0.000000 -0.000002
    13 -0.034142 -1.148312 0.084782 -0.535851 0.000000 0.000000
    14 0.957766 -2.746780 -0.090302 0.398790 -0.132819 0.006168
    15 -0.033420 -1.397129 -0.011257 -0.767419 0.000000 -0.000001
    16 -0.022360 -0.957436 0.018784 -0.380385 0.000000 0.000000
    17 -1.180681 -2.507217 -0.193859 -0.535961 0.112898 -0.284556
    18 -0.024967 -1.123934 0.017597 -1.884509 0.000000 0.000001
    19 -0.020057 -0.890968 0.010090 -0.772262 0.000000 0.000000
    20 0.583510 -1.197277 0.185379 0.385373 -0.553917 -0.837084
    21 1.535927 0.010246 0.005009 -0.002964 -0.012979 -0.682290
    22 1.100771 0.004527 -0.010679 -0.016147 -0.001453 -1.484153
    23 0.120153 -0.050270 -0.054489 0.287569 3.110905 1.561085
    24 3.143398 3.624479 -9.239846 0.314558 -3.507915 0.514814
    25 0.096944 -8.450418 -0.009365 -0.763037 -1.346425 1.363381
    26 0.447953 -2.798986 -0.200443 -1.456960 0.099071 0.252834
    27 -0.032909 -1.480204 0.004940 -1.601340 0.000000 0.000002
    28 -0.027022 -1.076920 -0.020210 -0.353735 0.000000 0.000000
    29 -0.249534 -2.846964 -0.174213 -1.241183 0.075210 0.132159
    30 0.043235 -1.683941 0.096012 -1.813709 0.002823 -0.000167
    31 0.031729 -1.160830 0.058838 -0.456154 0.000642 0.008372
    32 -0.963866 -2.785145 -0.085350 -1.148608 0.139589 0.121877
    33 0.028479 -1.403067 0.006271 -1.391232 0.000000 0.000000
    34 0.021413 -0.957781 0.020046 -0.471322 0.000000 0.000000
    35 1.164475 -2.543940 -0.170330 -1.423710 -0.066254 0.446863
    36 0.024032 -1.129042 0.017807 -1.462507 0.000000 0.000001
    37 0.014898 -0.883989 -0.019848 -0.549408 0.000000 0.000000
    38 -0.586770 -1.264477 0.200161 0.313906 -0.927915 -2.922977
    39 1.522835 0.058681 0.016848 0.001410 0.008985 1.029593
    40 1.117947 0.048424 -0.005766 -0.023469 -0.009175 1.254246
    41 -0.139399 -0.111698 0.014397 0.407653 0.171241 1.393752
    42 -6.260806 6.983652 -0.294122 1.580804 -0.005023 -0.912799
  time 29
    0 -0.368931 1.166145 1.199636 0.000000 0.000000 0.000000
    1 12.671733 -2.277942 -9.701889 0.605982 -1.808561 -1.245465
    2 -0.071918 -8.498730 -0.104136 0.143701 0.104713 -0.240675
    3 5.233845 1.354622 1.688628 -0.065772 2.858007 1.272336
    4 19.997025 0.102143 0.000001 0.000000 0.000000 0.000000
    5 -1.848294 60.776465 -15.027802 -0.142234 -0.182600 -0.337465
    6 6.506417 1.675302 0.000001 0.000000 0.000000 1.570796
    7 1.257180 8.762585 -0.153713 -1.570562 0.002683 -1.566807
    8 -0.488518 -2.755602 -0.228260 -0.636863 -0.077551 -0.298478
    9 0.039887 -1.479790 0.029854 -2.230118 0.000000 0.000001
    10 0.028786 -1.075731 -0.023109 -0.271941 0.000000 0.000000
    11 0.250027 -2.820665 -0.238396 -0.437192 -0.061406 -0.314674
    12 -0.049759 -1.680544 0.100479 -2.308624 0.000000 -0.000002
    13 -0.034142 -1.148312 0.084782 -0.535851 0.000000 0.000000
    14 0.957766 -2.746780 -0.090302 0.398790 -0.132819 0.006168
    15 -0.033420 -1.397129 -0.011257 -0.767419 0.000000 -0.000001
    16 -0.022360 -0.957436 0.018784 -0.380385 0.000000 0.000000
    17 -1.180681 -2.507217 -0.193859 -0.535961 0.112898 -0.284556
    18 -0.024967 -1.123934 0.017597 -1.884509 0.000000 0.000001
    19 -0.020057 -0.890968 0.010090 -0.772262 0.000000 0.000000
    20 0.583510 -1.197277 0.185379 0.385373 -0.553917 -0.837084
    21 1.535927 0.010246 0.005009 -0.002964 -0.012979 -0.682290
    22 1.100771 0.004527 -0.010679 -0.016147 -0.001453 -1.484153
    23 0.120153 -0.050270 -0.054489 0.287569 3.110905 1.561085
    24 3.073083 3.542445 -9.228127 0.312284 -3.502159 0.517856
    25 0.096944 -8.450418 -0.009365 -0.763037 -1.346425 1.363381
    26 0.447953 -2.798986 -0.200443 -1.456960 0.099071 0.252834
    27 -0.032909 -1.480204 0.004940 -1.601340 0.000000 0.000002
    28 -0.027022 -1.076920 -0.020210 -0.353735 0.000000 0.000000
    29 -0.249534 -2.846964 -0.174213 -1.241183 0.075210 0.132159
    30 0.043235 -1.683941 0.096012 -1.813709 0.002823 -0.000167
    31 0.031729 -1.160830 0.058838 -0.456154 0.000642 0.008372
    32 -0.963866 -2.785145 -0.085350 -1.148608 0.139589 0.121877
    33 0.028479 -1.403067 0.006271 -1.391232 0.000000 0.000000
    34 0.021413 -0.957781 0.020046 -0.471322 0.000000 0.000000
    35 1.164475 -2.543940 -0.170330 -1.423710 -0.066254 0.446863
    36 0.024032 -1.129042 0.017807 -1.462507 0.000000 0.000001
    37 0.014898 -0.883989 -0.019848 -0.549408 0.000000 0.000000
    38 -0.586770 -1.264477 0.200161 0.313906 -0.927915 -2.922977
    39 1.522835 0.058681 0.016848 0.001410 0.008985 1.029593
    40 1.117947 0.048424 -0.005766 -0.023469 -0.009175 1.254246
    41 -0.139399 -0.111698 0.014397 0.407653 0.171241 1.393752
    42 -6.260806 6.983652 -0.294122 1.580804 -0.005023 -0.912799
  time 30
    0 -0.368931 1.166145 1.199636 0.000000 0.000000 0.000000
    1 12.609231 -2.328725 -9.752672 0.627801 -1.805080 -1.263981
    2 -0.071918 -8.498730 -0.104136 0.143713 0.104209 -0.240639
    3 5.233845 1.354622 1.688628 -0.065772 2.858007 1.272336
    4 19.997025 0.102143 0.000001 0.000000 0.000000 0.000000
    5 -1.884637 60.863662 -14.656697 -0.136444 -0.180063 -0.339248
    6 6.506417 1.675302 0.000001 0.000000 0.000000 1.570796
    7 1.257180 8.762585 -0.153713 -1.570562 0.002683 -1.566807
    8 -0.488518 -2.755602 -0.228260 -0.636863 -0.077551 -0.298478
    9 0.039887 -1.479790 0.029854 -2.230118 0.000000 0.000001
    10 0.028786 -1.075731 -0.023109 -0.271941 0.000000 0.000000
    11 0.250027 -2.820665 -0.238396 -0.437192 -0.061406 -0.314674
    12 -0.049759 -1.680544 0.100479 -2.308624 0.000000 -0.000002
    13 -0.034142 -1.148312 0.084782 -0.535851 0.000000 0.000000
    14 0.957766 -2.746780 -0.090302 0.398790 -0.132819 0.006168
    15 -0.033420 -1.397129 -0.011257 -0.767419 0.000000 -0.000001
    16 -0.022360 -0.957436 0.018784 -0.380385 0.000000 0.000000
    17 -1.180681 -2.507217 -0.193859 -0.535961 0.112898 -0.284556
    18 -0.024967 -1.123934 0.017597 -1.884509 0.000000 0.000001
    19 -0.020057 -0.890968 0.010090 -0.772262 0.000000 0.000000
    20 0.583510 -1.197277 0.185379 0.385373 -0.553917 -0.837084
    21 1.535927 0.010246 0.005009 -0.002964 -0.012979 -0.682290
    22 1.100771 0.004527 -0.010679 -0.016147 -0.001453 -1.484153
    23 0.120153 -0.050270 -0.054489 0.287569 3.110905 1.561085
    24 2.998862 3.464318 -9.212502 0.308071 -3.498061 0.518997
    25 0.096944 -8.450418 -0.009365 -0.763037 -1.346425 1.363381
    26 0.447953 -2.798986 -0.200443 -1.456960 0.099071 0.252834
    27 -0.032909 -1.480204 0.004940 -1.601340 0.000000 0.000002
    28 -0.027022 -1.076920 -0.020210 -0.353735 0.000000 0.000000
    29 -0.249534 -2.846964 -0.174213 -1.241183 0.075210 0.132159
    30 0.043235 -1.683941 0.096012 -1.813709 0.002823 -0.000167
    31 0.031729 -1.160830 0.058838 -0.456154 0.000642 0.008372
    32 -0.963866 -2.785145 -0.085350 -1.148608 0.139589 0.121877
    33 0.028479 -1.403067 0.006271 -1.391232 0.000000 0.000000
    34 0.021413 -0.957781 0.020046 -0.471322 0.000000 0.000000
    35 1.164475 -2.543940 -0.170330 -1.423710 -0.066254 0.446863
    36 0.024032 -1.129042 0.017807 -1.462507 0.000000 0.000001
    37 0.014898 -0.883989 -0.019848 -0.549408 0.000000 0.000000
    38 -0.586770 -1.264477 0.200161 0.313906 -0.927915 -2.922977
    39 1.522835 0.058681 0.016848 0.001410 0.008985 1.029593
    40 1.117947 0.048424 -0.005766 -0.023469 -0.009175 1.254246
    41 -0.139399 -0.111698 0.014397 0.407653 0.171241 1.393752
    42 -6.260806 6.983652 -0.294122 1.580804 -0.005023 -0.912799
end
