// Created by Crowbar 0.34.0.0

$ModelName "weapons/tfa_cso/w_pgm.mdl"

$BodyGroup "studio"
{
	studio "v_pgm"
}

$collisionmodel "v_pgm.smd"
{
	$mass 9
}

$CDMaterials "models\weapons\tfa_cso\pgm"

$attachment "0" "root" -0.20 -28.50 -0.30 rotate -0 0 0

$Sequence "idle" {
	"anims\idle.smd"
	fps 30
}