// Created by Crowbar 0.34.0.0

$ModelName "weapons/tfa_cso/w_paladin_v8.mdl"

$BodyGroup "studio"
{
	studio "v_buffak_d3a3_v_ak47buff"
}

$collisionmodel "v_buffak_d3a3_v_ak47buff.smd"
{
	$mass 9
}

$CDMaterials "models\weapons\tfa_cso\paladin_v8"

$attachment "0" "root" -1.60 -23.80 -0.50 rotate -0 0 0

$Sequence "idle" {
	"anims\idle.smd"
	fps 30
}