version 1
nodes
  0 "root" -1
  1 "Bone01" 0
  2 "Bone_Lefthand" 1
  3 "root_gilboa" 2
  4 "trigger" 3
  5 "magazine" 3
  6 "reload" 3
  7 "Bone_L_Upper" 1
  8 "Bone13" 2
  9 "Bone14" 8
  10 "Bone15" 9
  11 "Bone17" 2
  12 "Bone18" 11
  13 "Bone19" 12
  14 "Bone21" 2
  15 "Bone22" 14
  16 "Bone23" 15
  17 "Bone09" 2
  18 "Bone10" 17
  19 "Bone11" 18
  20 "Bone05" 2
  21 "Bone06" 20
  22 "Bone07" 21
  23 "Bone_Se_Hand-L" 2
  24 "Bone04" 0
  25 "Bone_Righthand" 24
  26 "Bone39" 25
  27 "Bone40" 26
  28 "Bone41" 27
  29 "Bone35" 25
  30 "Bone36" 29
  31 "Bone37" 30
  32 "Bone31" 25
  33 "Bone32" 32
  34 "Bone33" 33
  35 "Bone43" 25
  36 "Bone44" 35
  37 "Bone45" 36
  38 "Bone27" 25
  39 "Bone28" 38
  40 "Bone29" 39
  41 "Bone_Se_Hand-R" 25
  42 "Bone_R_Upper" 24
end
skeleton
  time 0
    0 0.000000 0.000000 0.000000 0.000000 0.000000 -0.000029
    1 8.213061 3.988003 -6.016337 -0.149965 -1.612726 -0.045697
    2 -0.071918 -8.498688 -0.104136 0.151251 0.282508 0.057557
    3 -2.047026 -2.271449 0.012398 0.054749 -0.245819 -0.015179
    4 3.423495 -1.665627 0.000000 -0.000005 0.000000 -3.141592
    5 4.039898 -4.447696 0.000000 0.000002 0.000000 3.141592
    6 4.734380 -3.434518 0.622250 -3.141592 0.000000 -1.570796
    7 1.257180 8.762585 -0.153713 -1.570562 0.002683 -1.566807
    8 -0.488518 -2.755602 -0.228260 -0.871614 -0.202562 -0.209541
    9 0.039887 -1.479790 0.029854 -2.058952 0.000000 0.000001
    10 0.028786 -1.075731 -0.023109 -0.606336 0.000000 0.000000
    11 0.250027 -2.820665 -0.238396 -0.797118 -0.167517 -0.114938
    12 -0.049759 -1.680544 0.100479 -1.934764 0.000000 -0.000002
    13 -0.034142 -1.148312 0.084782 -0.925898 0.000000 0.000000
    14 0.957766 -2.746780 -0.090302 0.005849 -0.162684 0.097910
    15 -0.033420 -1.397129 -0.011257 -0.520997 0.000000 -0.000001
    16 -0.022360 -0.957436 0.018784 -0.975515 0.000000 0.000000
    17 -1.180681 -2.507217 -0.193859 -0.671429 -0.081516 -0.261329
    18 -0.024967 -1.123934 0.017597 -2.056303 0.000000 0.000001
    19 -0.020057 -0.890968 0.010090 -0.677834 0.000000 0.000000
    20 0.583510 -1.197277 0.185379 0.180209 -0.812077 -1.291294
    21 1.535927 0.010246 0.005009 -0.002964 -0.012979 -0.506650
    22 1.100771 0.004527 -0.010679 -0.015488 -0.004784 -1.694062
    23 0.120153 -0.050270 -0.054489 0.287569 3.110905 1.561085
    24 0.178464 -8.153224 -10.036746 -1.766634 -5.321370 -1.065164
    25 0.096944 -8.450418 -0.009365 0.404834 -1.145406 -0.075759
    26 0.447953 -2.798986 -0.200443 -0.040272 -0.341746 -0.192844
    27 -0.032909 -1.480204 0.004940 -0.118334 0.000000 0.000002
    28 -0.027022 -1.076920 -0.020210 -0.581967 0.000000 0.000000
    29 -0.249534 -2.846964 -0.174213 0.217672 -0.180193 -0.283478
    30 0.043235 -1.683941 0.096012 -0.000111 0.002823 -0.000167
    31 0.031729 -1.160830 0.058838 -1.181244 0.000642 0.008372
    32 -0.963866 -2.785145 -0.085350 0.311679 0.369681 -0.496995
    33 0.028479 -1.403067 0.006271 -0.175176 -0.305236 0.172051
    34 0.021413 -0.957781 0.020046 -0.738192 0.000000 0.000000
    35 1.164475 -2.543940 -0.170330 -0.927423 -0.422062 -0.157700
    36 0.024032 -1.129042 0.017807 -0.709851 0.000000 0.000001
    37 0.014898 -0.883989 -0.019848 -0.845482 0.000000 0.000000
    38 -0.586770 -1.264477 0.200161 0.013123 -0.080121 -2.491297
    39 1.522835 0.058681 0.016848 0.001410 0.008985 0.411553
    40 1.117947 0.048424 -0.005766 -0.016890 -0.018702 0.790664
    41 -0.139399 -0.111698 0.014397 0.653645 -0.030687 1.580508
    42 -1.393470 8.839177 -0.239433 1.580804 -0.005023 -1.566847
  time 1
    0 0.000000 0.871120 0.000000 0.000000 0.000000 -0.000029
    1 8.213061 3.988003 -6.016337 -0.149965 -1.612726 -0.045697
    2 -0.071918 -8.498688 -0.104136 0.151251 0.282508 0.057557
    3 -2.047026 -2.271449 0.012398 0.054749 -0.245819 -0.015179
    4 3.423495 -1.665627 0.000000 -0.000005 0.000000 -3.141592
    5 4.039898 -4.447696 0.000000 0.000002 0.000000 3.141592
    6 4.734380 -3.434518 0.622250 -0.523678 0.000000 -1.570796
    7 1.257180 8.762585 -0.153713 -1.570562 0.002683 -1.566807
    8 -0.488518 -2.755602 -0.228260 -0.871614 -0.202562 -0.209541
    9 0.039887 -1.479790 0.029854 -2.058952 0.000000 0.000001
    10 0.028786 -1.075731 -0.023109 -0.606336 0.000000 0.000000
    11 0.250027 -2.820665 -0.238396 -0.797118 -0.167517 -0.114938
    12 -0.049759 -1.680544 0.100479 -1.934764 0.000000 -0.000002
    13 -0.034142 -1.148312 0.084782 -0.925898 0.000000 0.000000
    14 0.957766 -2.746780 -0.090302 0.005849 -0.162684 0.097910
    15 -0.033420 -1.397129 -0.011257 -0.520997 0.000000 -0.000001
    16 -0.022360 -0.957436 0.018784 -0.975515 0.000000 0.000000
    17 -1.180681 -2.507217 -0.193859 -0.671429 -0.081516 -0.261329
    18 -0.024967 -1.123934 0.017597 -2.056303 0.000000 0.000001
    19 -0.020057 -0.890968 0.010090 -0.677834 0.000000 0.000000
    20 0.583510 -1.197277 0.185379 0.180209 -0.812077 -1.291294
    21 1.535927 0.010246 0.005009 -0.002964 -0.012979 -0.506650
    22 1.100771 0.004527 -0.010679 -0.015488 -0.004784 -1.694062
    23 0.120153 -0.050270 -0.054489 0.287569 3.110905 1.561085
    24 0.178464 -8.153224 -10.036746 -1.766634 -5.321370 -1.065164
    25 0.096944 -8.450418 -0.009365 0.404834 -1.145406 -0.075759
    26 0.447953 -2.798986 -0.200443 -0.040272 -0.341746 -0.192844
    27 -0.032909 -1.480204 0.004940 -0.118334 0.000000 0.000002
    28 -0.027022 -1.076920 -0.020210 -0.581967 0.000000 0.000000
    29 -0.249534 -2.846964 -0.174213 0.217672 -0.180193 -0.283478
    30 0.043235 -1.683941 0.096012 -0.000111 0.002823 -0.000167
    31 0.031729 -1.160830 0.058838 -1.181244 0.000642 0.008372
    32 -0.963866 -2.785145 -0.085350 0.311679 0.369681 -0.496995
    33 0.028479 -1.403067 0.006271 -0.175176 -0.305236 0.172051
    34 0.021413 -0.957781 0.020046 -0.738192 0.000000 0.000000
    35 1.164475 -2.543940 -0.170330 -0.927423 -0.422062 -0.157700
    36 0.024032 -1.129042 0.017807 -0.709851 0.000000 0.000001
    37 0.014898 -0.883989 -0.019848 -0.845482 0.000000 0.000000
    38 -0.586770 -1.264477 0.200161 0.013123 -0.080121 -2.491297
    39 1.522835 0.058681 0.016848 0.001410 0.008985 0.411553
    40 1.117947 0.048424 -0.005766 -0.016890 -0.018702 0.790664
    41 -0.139399 -0.111698 0.014397 0.653645 -0.030687 1.580508
    42 -1.393470 8.839177 -0.239433 1.580804 -0.005023 -1.566847
  time 2
    0 0.000000 0.839869 0.000000 -0.007128 0.000000 -0.000029
    1 8.213061 3.988003 -6.016337 -0.149965 -1.612726 -0.045697
    2 -0.071918 -8.498688 -0.104136 0.151251 0.282508 0.057557
    3 -2.047026 -2.271449 0.012398 0.054749 -0.245819 -0.015179
    4 3.423495 -1.665627 0.000000 -0.000005 0.000000 -3.141592
    5 4.039898 -4.447696 0.000000 0.000002 0.000000 3.141592
    6 4.734380 -3.434518 0.622250 -0.795888 0.000000 -1.570796
    7 1.257180 8.762585 -0.153713 -1.570562 0.002683 -1.566807
    8 -0.488518 -2.755602 -0.228260 -0.871614 -0.202562 -0.209541
    9 0.039887 -1.479790 0.029854 -2.058952 0.000000 0.000001
    10 0.028786 -1.075731 -0.023109 -0.606336 0.000000 0.000000
    11 0.250027 -2.820665 -0.238396 -0.797118 -0.167517 -0.114938
    12 -0.049759 -1.680544 0.100479 -1.934764 0.000000 -0.000002
    13 -0.034142 -1.148312 0.084782 -0.925898 0.000000 0.000000
    14 0.957766 -2.746780 -0.090302 0.005849 -0.162684 0.097910
    15 -0.033420 -1.397129 -0.011257 -0.520997 0.000000 -0.000001
    16 -0.022360 -0.957436 0.018784 -0.975515 0.000000 0.000000
    17 -1.180681 -2.507217 -0.193859 -0.671429 -0.081516 -0.261329
    18 -0.024967 -1.123934 0.017597 -2.056303 0.000000 0.000001
    19 -0.020057 -0.890968 0.010090 -0.677834 0.000000 0.000000
    20 0.583510 -1.197277 0.185379 0.180209 -0.812077 -1.291294
    21 1.535927 0.010246 0.005009 -0.002964 -0.012979 -0.506650
    22 1.100771 0.004527 -0.010679 -0.015488 -0.004784 -1.694062
    23 0.120153 -0.050270 -0.054489 0.287569 3.110905 1.561085
    24 0.178464 -8.153224 -10.036746 -1.766634 -5.321370 -1.065164
    25 0.096944 -8.450418 -0.009365 0.404834 -1.145406 -0.075759
    26 0.447953 -2.798986 -0.200443 -0.040272 -0.341746 -0.192844
    27 -0.032909 -1.480204 0.004940 -0.118334 0.000000 0.000002
    28 -0.027022 -1.076920 -0.020210 -0.581967 0.000000 0.000000
    29 -0.249534 -2.846964 -0.174213 0.217672 -0.180193 -0.283478
    30 0.043235 -1.683941 0.096012 -0.000111 0.002823 -0.000167
    31 0.031729 -1.160830 0.058838 -1.181279 0.000642 0.008372
    32 -0.963866 -2.785145 -0.085350 0.311679 0.369681 -0.496995
    33 0.028479 -1.403067 0.006271 -0.175176 -0.305236 0.172051
    34 0.021413 -0.957781 0.020046 -0.738192 0.000000 0.000000
    35 1.164475 -2.543940 -0.170330 -0.927423 -0.422062 -0.157700
    36 0.024032 -1.129042 0.017807 -0.709851 0.000000 0.000001
    37 0.014898 -0.883989 -0.019848 -0.845482 0.000000 0.000000
    38 -0.586770 -1.264477 0.200161 0.013123 -0.080121 -2.491297
    39 1.522835 0.058681 0.016848 0.001410 0.008985 0.411553
    40 1.117947 0.048424 -0.005766 -0.016890 -0.018702 0.790664
    41 -0.139399 -0.111698 0.014397 0.653645 -0.030687 1.580508
    42 -1.393470 8.839177 -0.239433 1.580804 -0.005023 -1.566847
  time 3
    0 0.000000 0.761742 0.000000 -0.022808 0.000000 -0.000029
    1 8.213061 3.988003 -6.016337 -0.149965 -1.612726 -0.045697
    2 -0.071918 -8.498688 -0.104136 0.151251 0.282508 0.057557
    3 -2.047026 -2.271449 0.012398 0.054749 -0.245819 -0.015179
    4 3.423495 -1.665627 0.000000 -0.000005 0.000000 -3.141592
    5 4.039898 -4.447696 0.000000 0.000002 0.000000 3.141592
    6 4.734380 -3.434518 0.622250 -1.445133 0.000000 -1.570796
    7 1.257180 8.762585 -0.153713 -1.570562 0.002683 -1.566807
    8 -0.488518 -2.755602 -0.228260 -0.871614 -0.202562 -0.209541
    9 0.039887 -1.479790 0.029854 -2.058952 0.000000 0.000001
    10 0.028786 -1.075731 -0.023109 -0.606336 0.000000 0.000000
    11 0.250027 -2.820665 -0.238396 -0.797118 -0.167517 -0.114938
    12 -0.049759 -1.680544 0.100479 -1.934764 0.000000 -0.000002
    13 -0.034142 -1.148312 0.084782 -0.925898 0.000000 0.000000
    14 0.957766 -2.746780 -0.090302 0.005849 -0.162684 0.097910
    15 -0.033420 -1.397129 -0.011257 -0.520997 0.000000 -0.000001
    16 -0.022360 -0.957436 0.018784 -0.975515 0.000000 0.000000
    17 -1.180681 -2.507217 -0.193859 -0.671429 -0.081516 -0.261329
    18 -0.024967 -1.123934 0.017597 -2.056303 0.000000 0.000001
    19 -0.020057 -0.890968 0.010090 -0.677834 0.000000 0.000000
    20 0.583510 -1.197277 0.185379 0.180209 -0.812077 -1.291294
    21 1.535927 0.010246 0.005009 -0.002964 -0.012979 -0.506650
    22 1.100771 0.004527 -0.010679 -0.015488 -0.004784 -1.694062
    23 0.120153 -0.050270 -0.054489 0.287569 3.110905 1.561085
    24 0.178464 -8.153224 -10.036746 -1.766634 -5.321370 -1.065164
    25 0.096944 -8.450418 -0.009365 0.404834 -1.145406 -0.075759
    26 0.447953 -2.798986 -0.200443 -0.040272 -0.341746 -0.192844
    27 -0.032909 -1.480204 0.004940 -0.118334 0.000000 0.000002
    28 -0.027022 -1.076920 -0.020210 -0.581967 0.000000 0.000000
    29 -0.249534 -2.846964 -0.174213 0.217672 -0.180193 -0.283478
    30 0.043235 -1.683941 0.096012 -0.000111 0.002823 -0.000167
    31 0.031729 -1.160830 0.058838 -1.181279 0.000642 0.008372
    32 -0.963866 -2.785145 -0.085350 0.311679 0.369681 -0.496995
    33 0.028479 -1.403067 0.006271 -0.175176 -0.305236 0.172051
    34 0.021413 -0.957781 0.020046 -0.738192 0.000000 0.000000
    35 1.164475 -2.543940 -0.170330 -0.927423 -0.422062 -0.157700
    36 0.024032 -1.129042 0.017807 -0.709851 0.000000 0.000001
    37 0.014898 -0.883989 -0.019848 -0.845482 0.000000 0.000000
    38 -0.586770 -1.264477 0.200161 0.013123 -0.080121 -2.491297
    39 1.522835 0.058681 0.016848 0.001410 0.008985 0.411553
    40 1.117947 0.048424 -0.005766 -0.016890 -0.018702 0.790664
    41 -0.139399 -0.111698 0.014397 0.653645 -0.030687 1.580508
    42 -1.393470 8.839177 -0.239433 1.580804 -0.005023 -1.566847
  time 4
    0 0.000000 0.644551 0.000000 -0.038488 0.000000 -0.000029
    1 8.213061 3.988003 -6.016337 -0.149965 -1.612726 -0.045697
    2 -0.071918 -8.498688 -0.104136 0.151251 0.282508 0.057557
    3 -2.047026 -2.271449 0.012398 0.054749 -0.245819 -0.015179
    4 3.423495 -1.665627 0.000000 -0.000005 0.000000 -3.141592
    5 4.039898 -4.447696 0.000000 0.000002 0.000000 3.141592
    6 4.734380 -3.434518 0.622250 -2.220137 0.000000 -1.570796
    7 1.257180 8.762585 -0.153713 -1.570562 0.002683 -1.566807
    8 -0.488518 -2.755602 -0.228260 -0.871614 -0.202562 -0.209541
    9 0.039887 -1.479790 0.029854 -2.058952 0.000000 0.000001
    10 0.028786 -1.075731 -0.023109 -0.606336 0.000000 0.000000
    11 0.250027 -2.820665 -0.238396 -0.797118 -0.167517 -0.114938
    12 -0.049759 -1.680544 0.100479 -1.934764 0.000000 -0.000002
    13 -0.034142 -1.148312 0.084782 -0.925898 0.000000 0.000000
    14 0.957766 -2.746780 -0.090302 0.005849 -0.162684 0.097910
    15 -0.033420 -1.397129 -0.011257 -0.520997 0.000000 -0.000001
    16 -0.022360 -0.957436 0.018784 -0.975515 0.000000 0.000000
    17 -1.180681 -2.507217 -0.193859 -0.671429 -0.081516 -0.261329
    18 -0.024967 -1.123934 0.017597 -2.056303 0.000000 0.000001
    19 -0.020057 -0.890968 0.010090 -0.677834 0.000000 0.000000
    20 0.583510 -1.197277 0.185379 0.180209 -0.812077 -1.291294
    21 1.535927 0.010246 0.005009 -0.002964 -0.012979 -0.506650
    22 1.100771 0.004527 -0.010679 -0.015488 -0.004784 -1.694062
    23 0.120153 -0.050270 -0.054489 0.287569 3.110905 1.561085
    24 0.178464 -8.153224 -10.036746 -1.766634 -5.321370 -1.065164
    25 0.096944 -8.450418 -0.009365 0.404834 -1.145406 -0.075759
    26 0.447953 -2.798986 -0.200443 -0.040272 -0.341746 -0.192844
    27 -0.032909 -1.480204 0.004940 -0.118334 0.000000 0.000002
    28 -0.027022 -1.076920 -0.020210 -0.581967 0.000000 0.000000
    29 -0.249534 -2.846964 -0.174213 0.217672 -0.180193 -0.283478
    30 0.043235 -1.683941 0.096012 -0.000111 0.002823 -0.000167
    31 0.031729 -1.160830 0.058838 -1.181279 0.000642 0.008372
    32 -0.963866 -2.785145 -0.085350 0.311679 0.369681 -0.496995
    33 0.028479 -1.403067 0.006271 -0.175176 -0.305236 0.172051
    34 0.021413 -0.957781 0.020046 -0.738192 0.000000 0.000000
    35 1.164475 -2.543940 -0.170330 -0.927423 -0.422062 -0.157700
    36 0.024032 -1.129042 0.017807 -0.709851 0.000000 0.000001
    37 0.014898 -0.883989 -0.019848 -0.845482 0.000000 0.000000
    38 -0.586770 -1.264477 0.200161 0.013123 -0.080121 -2.491297
    39 1.522835 0.058681 0.016848 0.001410 0.008985 0.411553
    40 1.117947 0.048424 -0.005766 -0.016890 -0.018702 0.790664
    41 -0.139399 -0.111698 0.014397 0.653645 -0.030687 1.580508
    42 -1.393470 8.839177 -0.239433 1.580804 -0.005023 -1.566847
  time 5
    0 0.000000 0.507828 0.000000 -0.045616 0.000000 -0.000029
    1 8.213061 3.988003 -6.016337 -0.149965 -1.612726 -0.045697
    2 -0.071918 -8.498688 -0.104136 0.151251 0.282508 0.057557
    3 -2.047026 -2.271449 0.012398 0.054749 -0.245819 -0.015179
    4 3.423495 -1.665627 0.000000 -0.000005 0.000000 -3.141592
    5 4.039898 -4.447696 0.000000 0.000002 0.000000 3.141592
    6 4.734380 -3.434518 0.622250 -2.869382 0.000000 -1.570796
    7 1.257180 8.762585 -0.153713 -1.570562 0.002683 -1.566807
    8 -0.488518 -2.755602 -0.228260 -0.871614 -0.202562 -0.209541
    9 0.039887 -1.479790 0.029854 -2.058952 0.000000 0.000001
    10 0.028786 -1.075731 -0.023109 -0.606336 0.000000 0.000000
    11 0.250027 -2.820665 -0.238396 -0.797118 -0.167517 -0.114938
    12 -0.049759 -1.680544 0.100479 -1.934764 0.000000 -0.000002
    13 -0.034142 -1.148312 0.084782 -0.925898 0.000000 0.000000
    14 0.957766 -2.746780 -0.090302 0.005849 -0.162684 0.097910
    15 -0.033420 -1.397129 -0.011257 -0.520997 0.000000 -0.000001
    16 -0.022360 -0.957436 0.018784 -0.975515 0.000000 0.000000
    17 -1.180681 -2.507217 -0.193859 -0.671429 -0.081516 -0.261329
    18 -0.024967 -1.123934 0.017597 -2.056303 0.000000 0.000001
    19 -0.020057 -0.890968 0.010090 -0.677834 0.000000 0.000000
    20 0.583510 -1.197277 0.185379 0.180209 -0.812077 -1.291294
    21 1.535927 0.010246 0.005009 -0.002964 -0.012979 -0.506650
    22 1.100771 0.004527 -0.010679 -0.015488 -0.004784 -1.694062
    23 0.120153 -0.050270 -0.054489 0.287569 3.110905 1.561085
    24 0.178464 -8.153224 -10.036746 -1.766634 -5.321370 -1.065164
    25 0.096944 -8.450418 -0.009365 0.404834 -1.145406 -0.075759
    26 0.447953 -2.798986 -0.200443 -0.040272 -0.341746 -0.192844
    27 -0.032909 -1.480204 0.004940 -0.118334 0.000000 0.000002
    28 -0.027022 -1.076920 -0.020210 -0.581967 0.000000 0.000000
    29 -0.249534 -2.846964 -0.174213 0.217672 -0.180193 -0.283478
    30 0.043235 -1.683941 0.096012 -0.000111 0.002823 -0.000167
    31 0.031729 -1.160830 0.058838 -1.181244 0.000642 0.008372
    32 -0.963866 -2.785145 -0.085350 0.311679 0.369681 -0.496995
    33 0.028479 -1.403067 0.006271 -0.175176 -0.305236 0.172051
    34 0.021413 -0.957781 0.020046 -0.738192 0.000000 0.000000
    35 1.164475 -2.543940 -0.170330 -0.927423 -0.422062 -0.157700
    36 0.024032 -1.129042 0.017807 -0.709851 0.000000 0.000001
    37 0.014898 -0.883989 -0.019848 -0.845482 0.000000 0.000000
    38 -0.586770 -1.264477 0.200161 0.013123 -0.080121 -2.491297
    39 1.522835 0.058681 0.016848 0.001410 0.008985 0.411553
    40 1.117947 0.048424 -0.005766 -0.016890 -0.018702 0.790664
    41 -0.139399 -0.111698 0.014397 0.653645 -0.030687 1.580508
    42 -1.393470 8.839177 -0.239433 1.580804 -0.005023 -1.566847
  time 6
    0 0.000000 0.363292 0.000000 -0.042072 0.000000 -0.000029
    1 8.213061 3.988003 -6.016337 -0.149965 -1.612726 -0.045697
    2 -0.071918 -8.498688 -0.104136 0.151251 0.282508 0.057557
    3 -2.047026 -2.271449 0.012398 0.054749 -0.245819 -0.015179
    4 3.423495 -1.665627 0.000000 -0.000005 0.000000 -3.141592
    5 4.039898 -4.447696 0.000000 0.000002 0.000000 3.141592
    6 4.734380 -3.434518 0.622250 -3.141592 0.000000 -1.570796
    7 1.257180 8.762585 -0.153713 -1.570562 0.002683 -1.566807
    8 -0.488518 -2.755602 -0.228260 -0.871614 -0.202562 -0.209541
    9 0.039887 -1.479790 0.029854 -2.058952 0.000000 0.000001
    10 0.028786 -1.075731 -0.023109 -0.606336 0.000000 0.000000
    11 0.250027 -2.820665 -0.238396 -0.797118 -0.167517 -0.114938
    12 -0.049759 -1.680544 0.100479 -1.934764 0.000000 -0.000002
    13 -0.034142 -1.148312 0.084782 -0.925898 0.000000 0.000000
    14 0.957766 -2.746780 -0.090302 0.005849 -0.162684 0.097910
    15 -0.033420 -1.397129 -0.011257 -0.520997 0.000000 -0.000001
    16 -0.022360 -0.957436 0.018784 -0.975515 0.000000 0.000000
    17 -1.180681 -2.507217 -0.193859 -0.671429 -0.081516 -0.261329
    18 -0.024967 -1.123934 0.017597 -2.056303 0.000000 0.000001
    19 -0.020057 -0.890968 0.010090 -0.677834 0.000000 0.000000
    20 0.583510 -1.197277 0.185379 0.180209 -0.812077 -1.291294
    21 1.535927 0.010246 0.005009 -0.002964 -0.012979 -0.506650
    22 1.100771 0.004527 -0.010679 -0.015488 -0.004784 -1.694062
    23 0.120153 -0.050270 -0.054489 0.287569 3.110905 1.561085
    24 0.178464 -8.153224 -10.036746 -1.766634 -5.321370 -1.065164
    25 0.096944 -8.450418 -0.009365 0.404834 -1.145406 -0.075759
    26 0.447953 -2.798986 -0.200443 -0.040272 -0.341746 -0.192844
    27 -0.032909 -1.480204 0.004940 -0.118334 0.000000 0.000002
    28 -0.027022 -1.076920 -0.020210 -0.581967 0.000000 0.000000
    29 -0.249534 -2.846964 -0.174213 0.217672 -0.180193 -0.283478
    30 0.043235 -1.683941 0.096012 -0.000111 0.002823 -0.000167
    31 0.031729 -1.160830 0.058838 -1.181279 0.000642 0.008372
    32 -0.963866 -2.785145 -0.085350 0.311679 0.369681 -0.496995
    33 0.028479 -1.403067 0.006271 -0.175176 -0.305236 0.172051
    34 0.021413 -0.957781 0.020046 -0.738192 0.000000 0.000000
    35 1.164475 -2.543940 -0.170330 -0.927423 -0.422062 -0.157700
    36 0.024032 -1.129042 0.017807 -0.709851 0.000000 0.000001
    37 0.014898 -0.883989 -0.019848 -0.845482 0.000000 0.000000
    38 -0.586770 -1.264477 0.200161 0.013123 -0.080121 -2.491297
    39 1.522835 0.058681 0.016848 0.001410 0.008985 0.411553
    40 1.117947 0.048424 -0.005766 -0.016890 -0.018702 0.790664
    41 -0.139399 -0.111698 0.014397 0.653645 -0.030687 1.580508
    42 -1.393470 8.839177 -0.239433 1.580804 -0.005023 -1.566847
  time 7
    0 0.000000 0.222663 0.000000 -0.032940 0.000000 -0.000029
    1 8.213061 3.988003 -6.016337 -0.149965 -1.612726 -0.045697
    2 -0.071918 -8.498688 -0.104136 0.151251 0.282508 0.057557
    3 -2.047026 -2.271449 0.012398 0.054749 -0.245819 -0.015179
    4 3.423495 -1.665627 0.000000 -0.000005 0.000000 -3.141592
    5 4.039898 -4.447696 0.000000 0.000002 0.000000 3.141592
    6 4.734380 -3.434518 0.622250 -3.141592 0.000000 -1.570796
    7 1.257180 8.762585 -0.153713 -1.570562 0.002683 -1.566807
    8 -0.488518 -2.755602 -0.228260 -0.871614 -0.202562 -0.209541
    9 0.039887 -1.479790 0.029854 -2.058952 0.000000 0.000001
    10 0.028786 -1.075731 -0.023109 -0.606336 0.000000 0.000000
    11 0.250027 -2.820665 -0.238396 -0.797118 -0.167517 -0.114938
    12 -0.049759 -1.680544 0.100479 -1.934764 0.000000 -0.000002
    13 -0.034142 -1.148312 0.084782 -0.925898 0.000000 0.000000
    14 0.957766 -2.746780 -0.090302 0.005849 -0.162684 0.097910
    15 -0.033420 -1.397129 -0.011257 -0.520997 0.000000 -0.000001
    16 -0.022360 -0.957436 0.018784 -0.975515 0.000000 0.000000
    17 -1.180681 -2.507217 -0.193859 -0.671429 -0.081516 -0.261329
    18 -0.024967 -1.123934 0.017597 -2.056303 0.000000 0.000001
    19 -0.020057 -0.890968 0.010090 -0.677834 0.000000 0.000000
    20 0.583510 -1.197277 0.185379 0.180209 -0.812077 -1.291294
    21 1.535927 0.010246 0.005009 -0.002964 -0.012979 -0.506650
    22 1.100771 0.004527 -0.010679 -0.015488 -0.004784 -1.694062
    23 0.120153 -0.050270 -0.054489 0.287569 3.110905 1.561085
    24 0.178464 -8.153224 -10.036746 -1.766634 -5.321370 -1.065164
    25 0.096944 -8.450418 -0.009365 0.404834 -1.145406 -0.075759
    26 0.447953 -2.798986 -0.200443 -0.040272 -0.341746 -0.192844
    27 -0.032909 -1.480204 0.004940 -0.118334 0.000000 0.000002
    28 -0.027022 -1.076920 -0.020210 -0.581967 0.000000 0.000000
    29 -0.249534 -2.846964 -0.174213 0.217672 -0.180193 -0.283478
    30 0.043235 -1.683941 0.096012 -0.000111 0.002823 -0.000167
    31 0.031729 -1.160830 0.058838 -1.181279 0.000642 0.008372
    32 -0.963866 -2.785145 -0.085350 0.311679 0.369681 -0.496995
    33 0.028479 -1.403067 0.006271 -0.175176 -0.305236 0.172051
    34 0.021413 -0.957781 0.020046 -0.738192 0.000000 0.000000
    35 1.164475 -2.543940 -0.170330 -0.927423 -0.422062 -0.157700
    36 0.024032 -1.129042 0.017807 -0.709851 0.000000 0.000001
    37 0.014898 -0.883989 -0.019848 -0.845482 0.000000 0.000000
    38 -0.586770 -1.264477 0.200161 0.013123 -0.080121 -2.491297
    39 1.522835 0.058681 0.016848 0.001410 0.008985 0.411553
    40 1.117947 0.048424 -0.005766 -0.016890 -0.018702 0.790664
    41 -0.139399 -0.111698 0.014397 0.653645 -0.030687 1.580508
    42 -1.393470 8.839177 -0.239433 1.580804 -0.005023 -1.566847
  time 8
    0 0.000000 0.109378 0.000000 -0.020449 0.000000 -0.000029
    1 8.213061 3.988003 -6.016337 -0.149965 -1.612726 -0.045697
    2 -0.071918 -8.498688 -0.104136 0.151251 0.282508 0.057557
    3 -2.047026 -2.271449 0.012398 0.054749 -0.245819 -0.015179
    4 3.423495 -1.665627 0.000000 -0.000005 0.000000 -3.141592
    5 4.039898 -4.447696 0.000000 0.000002 0.000000 3.141592
    6 4.734380 -3.434518 0.622250 -3.141592 0.000000 -1.570796
    7 1.257180 8.762585 -0.153713 -1.570562 0.002683 -1.566807
    8 -0.488518 -2.755602 -0.228260 -0.871614 -0.202562 -0.209541
    9 0.039887 -1.479790 0.029854 -2.058952 0.000000 0.000001
    10 0.028786 -1.075731 -0.023109 -0.606336 0.000000 0.000000
    11 0.250027 -2.820665 -0.238396 -0.797118 -0.167517 -0.114938
    12 -0.049759 -1.680544 0.100479 -1.934764 0.000000 -0.000002
    13 -0.034142 -1.148312 0.084782 -0.925898 0.000000 0.000000
    14 0.957766 -2.746780 -0.090302 0.005849 -0.162684 0.097910
    15 -0.033420 -1.397129 -0.011257 -0.520997 0.000000 -0.000001
    16 -0.022360 -0.957436 0.018784 -0.975515 0.000000 0.000000
    17 -1.180681 -2.507217 -0.193859 -0.671429 -0.081516 -0.261329
    18 -0.024967 -1.123934 0.017597 -2.056303 0.000000 0.000001
    19 -0.020057 -0.890968 0.010090 -0.677834 0.000000 0.000000
    20 0.583510 -1.197277 0.185379 0.180209 -0.812077 -1.291294
    21 1.535927 0.010246 0.005009 -0.002964 -0.012979 -0.506650
    22 1.100771 0.004527 -0.010679 -0.015488 -0.004784 -1.694062
    23 0.120153 -0.050270 -0.054489 0.287569 3.110905 1.561085
    24 0.178464 -8.153224 -10.036746 -1.766634 -5.321370 -1.065164
    25 0.096944 -8.450418 -0.009365 0.404834 -1.145406 -0.075759
    26 0.447953 -2.798986 -0.200443 -0.040272 -0.341746 -0.192844
    27 -0.032909 -1.480204 0.004940 -0.118334 0.000000 0.000002
    28 -0.027022 -1.076920 -0.020210 -0.581967 0.000000 0.000000
    29 -0.249534 -2.846964 -0.174213 0.217672 -0.180193 -0.283478
    30 0.043235 -1.683941 0.096012 -0.000111 0.002823 -0.000167
    31 0.031729 -1.160830 0.058838 -1.181279 0.000642 0.008372
    32 -0.963866 -2.785145 -0.085350 0.311679 0.369681 -0.496995
    33 0.028479 -1.403067 0.006271 -0.175176 -0.305236 0.172051
    34 0.021413 -0.957781 0.020046 -0.738192 0.000000 0.000000
    35 1.164475 -2.543940 -0.170330 -0.927423 -0.422062 -0.157700
    36 0.024032 -1.129042 0.017807 -0.709851 0.000000 0.000001
    37 0.014898 -0.883989 -0.019848 -0.845482 0.000000 0.000000
    38 -0.586770 -1.264477 0.200161 0.013123 -0.080121 -2.491297
    39 1.522835 0.058681 0.016848 0.001410 0.008985 0.411553
    40 1.117947 0.048424 -0.005766 -0.016890 -0.018702 0.790664
    41 -0.139399 -0.111698 0.014397 0.653645 -0.030687 1.580508
    42 -1.393470 8.839177 -0.239433 1.580804 -0.005023 -1.566847
  time 9
    0 0.000000 0.027345 0.000000 -0.006838 0.000000 -0.000029
    1 8.213061 3.988003 -6.016337 -0.149965 -1.612726 -0.045697
    2 -0.071918 -8.498688 -0.104136 0.151251 0.282508 0.057557
    3 -2.047026 -2.271449 0.012398 0.054749 -0.245819 -0.015179
    4 3.423495 -1.665627 0.000000 -0.000005 0.000000 -3.141592
    5 4.039898 -4.447696 0.000000 0.000002 0.000000 3.141592
    6 4.734380 -3.434518 0.622250 -3.141592 0.000000 -1.570796
    7 1.257180 8.762585 -0.153713 -1.570562 0.002683 -1.566807
    8 -0.488518 -2.755602 -0.228260 -0.871614 -0.202562 -0.209541
    9 0.039887 -1.479790 0.029854 -2.058952 0.000000 0.000001
    10 0.028786 -1.075731 -0.023109 -0.606336 0.000000 0.000000
    11 0.250027 -2.820665 -0.238396 -0.797118 -0.167517 -0.114938
    12 -0.049759 -1.680544 0.100479 -1.934764 0.000000 -0.000002
    13 -0.034142 -1.148312 0.084782 -0.925898 0.000000 0.000000
    14 0.957766 -2.746780 -0.090302 0.005849 -0.162684 0.097910
    15 -0.033420 -1.397129 -0.011257 -0.520997 0.000000 -0.000001
    16 -0.022360 -0.957436 0.018784 -0.975515 0.000000 0.000000
    17 -1.180681 -2.507217 -0.193859 -0.671429 -0.081516 -0.261329
    18 -0.024967 -1.123934 0.017597 -2.056303 0.000000 0.000001
    19 -0.020057 -0.890968 0.010090 -0.677834 0.000000 0.000000
    20 0.583510 -1.197277 0.185379 0.180209 -0.812077 -1.291294
    21 1.535927 0.010246 0.005009 -0.002964 -0.012979 -0.506650
    22 1.100771 0.004527 -0.010679 -0.015488 -0.004784 -1.694062
    23 0.120153 -0.050270 -0.054489 0.287569 3.110905 1.561085
    24 0.178464 -8.153224 -10.036746 -1.766634 -5.321370 -1.065164
    25 0.096944 -8.450418 -0.009365 0.404834 -1.145406 -0.075759
    26 0.447953 -2.798986 -0.200443 -0.040272 -0.341746 -0.192844
    27 -0.032909 -1.480204 0.004940 -0.118334 0.000000 0.000002
    28 -0.027022 -1.076920 -0.020210 -0.581967 0.000000 0.000000
    29 -0.249534 -2.846964 -0.174213 0.217672 -0.180193 -0.283478
    30 0.043235 -1.683941 0.096012 -0.000111 0.002823 -0.000167
    31 0.031729 -1.160830 0.058838 -1.181279 0.000642 0.008372
    32 -0.963866 -2.785145 -0.085350 0.311679 0.369681 -0.496995
    33 0.028479 -1.403067 0.006271 -0.175176 -0.305236 0.172051
    34 0.021413 -0.957781 0.020046 -0.738192 0.000000 0.000000
    35 1.164475 -2.543940 -0.170330 -0.927423 -0.422062 -0.157700
    36 0.024032 -1.129042 0.017807 -0.709851 0.000000 0.000001
    37 0.014898 -0.883989 -0.019848 -0.845482 0.000000 0.000000
    38 -0.586770 -1.264477 0.200161 0.013123 -0.080121 -2.491297
    39 1.522835 0.058681 0.016848 0.001410 0.008985 0.411553
    40 1.117947 0.048424 -0.005766 -0.016890 -0.018702 0.790664
    41 -0.139399 -0.111698 0.014397 0.653645 -0.030687 1.580508
    42 -1.393470 8.839177 -0.239433 1.580804 -0.005023 -1.566847
  time 10
    0 0.000000 0.000000 0.000000 0.005653 0.000000 -0.000029
    1 8.213061 3.988003 -6.016337 -0.149965 -1.612726 -0.045697
    2 -0.071918 -8.498688 -0.104136 0.151251 0.282508 0.057557
    3 -2.047026 -2.271449 0.012398 0.054749 -0.245819 -0.015179
    4 3.423495 -1.665627 0.000000 -0.000005 0.000000 -3.141592
    5 4.039898 -4.447696 0.000000 0.000002 0.000000 3.141592
    6 4.734380 -3.434518 0.622250 -3.141592 0.000000 -1.570796
    7 1.257180 8.762585 -0.153713 -1.570562 0.002683 -1.566807
    8 -0.488518 -2.755602 -0.228260 -0.871614 -0.202562 -0.209541
    9 0.039887 -1.479790 0.029854 -2.058952 0.000000 0.000001
    10 0.028786 -1.075731 -0.023109 -0.606336 0.000000 0.000000
    11 0.250027 -2.820665 -0.238396 -0.797118 -0.167517 -0.114938
    12 -0.049759 -1.680544 0.100479 -1.934764 0.000000 -0.000002
    13 -0.034142 -1.148312 0.084782 -0.925898 0.000000 0.000000
    14 0.957766 -2.746780 -0.090302 0.005849 -0.162684 0.097910
    15 -0.033420 -1.397129 -0.011257 -0.520997 0.000000 -0.000001
    16 -0.022360 -0.957436 0.018784 -0.975515 0.000000 0.000000
    17 -1.180681 -2.507217 -0.193859 -0.671429 -0.081516 -0.261329
    18 -0.024967 -1.123934 0.017597 -2.056303 0.000000 0.000001
    19 -0.020057 -0.890968 0.010090 -0.677834 0.000000 0.000000
    20 0.583510 -1.197277 0.185379 0.180209 -0.812077 -1.291294
    21 1.535927 0.010246 0.005009 -0.002964 -0.012979 -0.506650
    22 1.100771 0.004527 -0.010679 -0.015488 -0.004784 -1.694062
    23 0.120153 -0.050270 -0.054489 0.287569 3.110905 1.561085
    24 0.178464 -8.153224 -10.036746 -1.766634 -5.321370 -1.065164
    25 0.096944 -8.450418 -0.009365 0.404834 -1.145406 -0.075759
    26 0.447953 -2.798986 -0.200443 -0.040272 -0.341746 -0.192844
    27 -0.032909 -1.480204 0.004940 -0.118334 0.000000 0.000002
    28 -0.027022 -1.076920 -0.020210 -0.581967 0.000000 0.000000
    29 -0.249534 -2.846964 -0.174213 0.217672 -0.180193 -0.283478
    30 0.043235 -1.683941 0.096012 -0.000111 0.002823 -0.000167
    31 0.031729 -1.160830 0.058838 -1.181244 0.000642 0.008372
    32 -0.963866 -2.785145 -0.085350 0.311679 0.369681 -0.496995
    33 0.028479 -1.403067 0.006271 -0.175176 -0.305236 0.172051
    34 0.021413 -0.957781 0.020046 -0.738192 0.000000 0.000000
    35 1.164475 -2.543940 -0.170330 -0.927423 -0.422062 -0.157700
    36 0.024032 -1.129042 0.017807 -0.709851 0.000000 0.000001
    37 0.014898 -0.883989 -0.019848 -0.845482 0.000000 0.000000
    38 -0.586770 -1.264477 0.200161 0.013123 -0.080121 -2.491297
    39 1.522835 0.058681 0.016848 0.001410 0.008985 0.411553
    40 1.117947 0.048424 -0.005766 -0.016890 -0.018702 0.790664
    41 -0.139399 -0.111698 0.014397 0.653645 -0.030687 1.580508
    42 -1.393470 8.839177 -0.239433 1.580804 -0.005023 -1.566847
  time 11
    0 0.000000 0.000000 -0.003906 0.014784 0.000000 -0.000029
    1 8.213061 3.988003 -6.016337 -0.149965 -1.612726 -0.045697
    2 -0.071918 -8.498688 -0.104136 0.151251 0.282508 0.057557
    3 -2.047026 -2.271449 0.012398 0.054749 -0.245819 -0.015179
    4 3.423495 -1.665627 0.000000 -0.000005 0.000000 -3.141592
    5 4.039898 -4.447696 0.000000 0.000002 0.000000 3.141592
    6 4.734380 -3.434518 0.622250 -3.141592 0.000000 -1.570796
    7 1.257180 8.762585 -0.153713 -1.570562 0.002683 -1.566807
    8 -0.488518 -2.755602 -0.228260 -0.871614 -0.202562 -0.209541
    9 0.039887 -1.479790 0.029854 -2.058952 0.000000 0.000001
    10 0.028786 -1.075731 -0.023109 -0.606336 0.000000 0.000000
    11 0.250027 -2.820665 -0.238396 -0.797118 -0.167517 -0.114938
    12 -0.049759 -1.680544 0.100479 -1.934764 0.000000 -0.000002
    13 -0.034142 -1.148312 0.084782 -0.925898 0.000000 0.000000
    14 0.957766 -2.746780 -0.090302 0.005849 -0.162684 0.097910
    15 -0.033420 -1.397129 -0.011257 -0.520997 0.000000 -0.000001
    16 -0.022360 -0.957436 0.018784 -0.975515 0.000000 0.000000
    17 -1.180681 -2.507217 -0.193859 -0.671429 -0.081516 -0.261329
    18 -0.024967 -1.123934 0.017597 -2.056303 0.000000 0.000001
    19 -0.020057 -0.890968 0.010090 -0.677834 0.000000 0.000000
    20 0.583510 -1.197277 0.185379 0.180209 -0.812077 -1.291294
    21 1.535927 0.010246 0.005009 -0.002964 -0.012979 -0.506650
    22 1.100771 0.004527 -0.010679 -0.015488 -0.004784 -1.694062
    23 0.120153 -0.050270 -0.054489 0.287569 3.110905 1.561085
    24 0.178464 -8.153224 -10.036746 -1.766634 -5.321370 -1.065164
    25 0.096944 -8.450418 -0.009365 0.404834 -1.145406 -0.075759
    26 0.447953 -2.798986 -0.200443 -0.040272 -0.341746 -0.192844
    27 -0.032909 -1.480204 0.004940 -0.118334 0.000000 0.000002
    28 -0.027022 -1.076920 -0.020210 -0.581967 0.000000 0.000000
    29 -0.249534 -2.846964 -0.174213 0.217672 -0.180193 -0.283478
    30 0.043235 -1.683941 0.096012 -0.000111 0.002823 -0.000167
    31 0.031729 -1.160830 0.058838 -1.181279 0.000642 0.008372
    32 -0.963866 -2.785145 -0.085350 0.311679 0.369681 -0.496995
    33 0.028479 -1.403067 0.006271 -0.175176 -0.305236 0.172051
    34 0.021413 -0.957781 0.020046 -0.738192 0.000000 0.000000
    35 1.164475 -2.543940 -0.170330 -0.927423 -0.422062 -0.157700
    36 0.024032 -1.129042 0.017807 -0.709851 0.000000 0.000001
    37 0.014898 -0.883989 -0.019848 -0.845482 0.000000 0.000000
    38 -0.586770 -1.264477 0.200161 0.013123 -0.080121 -2.491297
    39 1.522835 0.058681 0.016848 0.001410 0.008985 0.411553
    40 1.117947 0.048424 -0.005766 -0.016890 -0.018702 0.790664
    41 -0.139399 -0.111698 0.014397 0.653645 -0.030687 1.580508
    42 -1.393470 8.839177 -0.239433 1.580804 -0.005023 -1.566847
  time 12
    0 0.000000 0.000000 -0.019532 0.018328 0.000000 -0.000029
    1 8.213061 3.988003 -6.016337 -0.149965 -1.612726 -0.045697
    2 -0.071918 -8.498688 -0.104136 0.151251 0.282508 0.057557
    3 -2.047026 -2.271449 0.012398 0.054749 -0.245819 -0.015179
    4 3.423495 -1.665627 0.000000 -0.000005 0.000000 -3.141592
    5 4.039898 -4.447696 0.000000 0.000002 0.000000 3.141592
    6 4.734380 -3.434518 0.622250 -3.141592 0.000000 -1.570796
    7 1.257180 8.762585 -0.153713 -1.570562 0.002683 -1.566807
    8 -0.488518 -2.755602 -0.228260 -0.871614 -0.202562 -0.209541
    9 0.039887 -1.479790 0.029854 -2.058952 0.000000 0.000001
    10 0.028786 -1.075731 -0.023109 -0.606336 0.000000 0.000000
    11 0.250027 -2.820665 -0.238396 -0.797118 -0.167517 -0.114938
    12 -0.049759 -1.680544 0.100479 -1.934764 0.000000 -0.000002
    13 -0.034142 -1.148312 0.084782 -0.925898 0.000000 0.000000
    14 0.957766 -2.746780 -0.090302 0.005849 -0.162684 0.097910
    15 -0.033420 -1.397129 -0.011257 -0.520997 0.000000 -0.000001
    16 -0.022360 -0.957436 0.018784 -0.975515 0.000000 0.000000
    17 -1.180681 -2.507217 -0.193859 -0.671429 -0.081516 -0.261329
    18 -0.024967 -1.123934 0.017597 -2.056303 0.000000 0.000001
    19 -0.020057 -0.890968 0.010090 -0.677834 0.000000 0.000000
    20 0.583510 -1.197277 0.185379 0.180209 -0.812077 -1.291294
    21 1.535927 0.010246 0.005009 -0.002964 -0.012979 -0.506650
    22 1.100771 0.004527 -0.010679 -0.015488 -0.004784 -1.694062
    23 0.120153 -0.050270 -0.054489 0.287569 3.110905 1.561085
    24 0.178464 -8.153224 -10.036746 -1.766634 -5.321370 -1.065164
    25 0.096944 -8.450418 -0.009365 0.404834 -1.145406 -0.075759
    26 0.447953 -2.798986 -0.200443 -0.040272 -0.341746 -0.192844
    27 -0.032909 -1.480204 0.004940 -0.118334 0.000000 0.000002
    28 -0.027022 -1.076920 -0.020210 -0.581967 0.000000 0.000000
    29 -0.249534 -2.846964 -0.174213 0.217672 -0.180193 -0.283478
    30 0.043235 -1.683941 0.096012 -0.000111 0.002823 -0.000167
    31 0.031729 -1.160830 0.058838 -1.181279 0.000642 0.008372
    32 -0.963866 -2.785145 -0.085350 0.311679 0.369681 -0.496995
    33 0.028479 -1.403067 0.006271 -0.175176 -0.305236 0.172051
    34 0.021413 -0.957781 0.020046 -0.738192 0.000000 0.000000
    35 1.164475 -2.543940 -0.170330 -0.927423 -0.422062 -0.157700
    36 0.024032 -1.129042 0.017807 -0.709851 0.000000 0.000001
    37 0.014898 -0.883989 -0.019848 -0.845482 0.000000 0.000000
    38 -0.586770 -1.264477 0.200161 0.013123 -0.080121 -2.491297
    39 1.522835 0.058681 0.016848 0.001410 0.008985 0.411553
    40 1.117947 0.048424 -0.005766 -0.016890 -0.018702 0.790664
    41 -0.139399 -0.111698 0.014397 0.653645 -0.030687 1.580508
    42 -1.393470 8.839177 -0.239433 1.580804 -0.005023 -1.566847
  time 13
    0 0.000000 0.000000 -0.042970 0.017353 0.000000 -0.000029
    1 8.213061 3.988003 -6.016337 -0.149965 -1.612726 -0.045697
    2 -0.071918 -8.498688 -0.104136 0.151251 0.282508 0.057557
    3 -2.047026 -2.271449 0.012398 0.054749 -0.245819 -0.015179
    4 3.423495 -1.665627 0.000000 -0.000005 0.000000 -3.141592
    5 4.039898 -4.447696 0.000000 0.000002 0.000000 3.141592
    6 4.734380 -3.434518 0.622250 -3.141592 0.000000 -1.570796
    7 1.257180 8.762585 -0.153713 -1.570562 0.002683 -1.566807
    8 -0.488518 -2.755602 -0.228260 -0.871614 -0.202562 -0.209541
    9 0.039887 -1.479790 0.029854 -2.058952 0.000000 0.000001
    10 0.028786 -1.075731 -0.023109 -0.606336 0.000000 0.000000
    11 0.250027 -2.820665 -0.238396 -0.797118 -0.167517 -0.114938
    12 -0.049759 -1.680544 0.100479 -1.934764 0.000000 -0.000002
    13 -0.034142 -1.148312 0.084782 -0.925898 0.000000 0.000000
    14 0.957766 -2.746780 -0.090302 0.005849 -0.162684 0.097910
    15 -0.033420 -1.397129 -0.011257 -0.520997 0.000000 -0.000001
    16 -0.022360 -0.957436 0.018784 -0.975515 0.000000 0.000000
    17 -1.180681 -2.507217 -0.193859 -0.671429 -0.081516 -0.261329
    18 -0.024967 -1.123934 0.017597 -2.056303 0.000000 0.000001
    19 -0.020057 -0.890968 0.010090 -0.677834 0.000000 0.000000
    20 0.583510 -1.197277 0.185379 0.180209 -0.812077 -1.291294
    21 1.535927 0.010246 0.005009 -0.002964 -0.012979 -0.506650
    22 1.100771 0.004527 -0.010679 -0.015488 -0.004784 -1.694062
    23 0.120153 -0.050270 -0.054489 0.287569 3.110905 1.561085
    24 0.178464 -8.153224 -10.036746 -1.766634 -5.321370 -1.065164
    25 0.096944 -8.450418 -0.009365 0.404834 -1.145406 -0.075759
    26 0.447953 -2.798986 -0.200443 -0.040272 -0.341746 -0.192844
    27 -0.032909 -1.480204 0.004940 -0.118334 0.000000 0.000002
    28 -0.027022 -1.076920 -0.020210 -0.581967 0.000000 0.000000
    29 -0.249534 -2.846964 -0.174213 0.217672 -0.180193 -0.283478
    30 0.043235 -1.683941 0.096012 -0.000111 0.002823 -0.000167
    31 0.031729 -1.160830 0.058838 -1.181279 0.000642 0.008372
    32 -0.963866 -2.785145 -0.085350 0.311679 0.369681 -0.496995
    33 0.028479 -1.403067 0.006271 -0.175176 -0.305236 0.172051
    34 0.021413 -0.957781 0.020046 -0.738192 0.000000 0.000000
    35 1.164475 -2.543940 -0.170330 -0.927423 -0.422062 -0.157700
    36 0.024032 -1.129042 0.017807 -0.709851 0.000000 0.000001
    37 0.014898 -0.883989 -0.019848 -0.845482 0.000000 0.000000
    38 -0.586770 -1.264477 0.200161 0.013123 -0.080121 -2.491297
    39 1.522835 0.058681 0.016848 0.001410 0.008985 0.411553
    40 1.117947 0.048424 -0.005766 -0.016890 -0.018702 0.790664
    41 -0.139399 -0.111698 0.014397 0.653645 -0.030687 1.580508
    42 -1.393470 8.839177 -0.239433 1.580804 -0.005023 -1.566847
  time 14
    0 0.000000 0.000000 -0.066408 0.014784 0.000000 -0.000029
    1 8.213061 3.988003 -6.016337 -0.149965 -1.612726 -0.045697
    2 -0.071918 -8.498688 -0.104136 0.151251 0.282508 0.057557
    3 -2.047026 -2.271449 0.012398 0.054749 -0.245819 -0.015179
    4 3.423495 -1.665627 0.000000 -0.000005 0.000000 -3.141592
    5 4.039898 -4.447696 0.000000 0.000002 0.000000 3.141592
    6 4.734380 -3.434518 0.622250 -3.141592 0.000000 -1.570796
    7 1.257180 8.762585 -0.153713 -1.570562 0.002683 -1.566807
    8 -0.488518 -2.755602 -0.228260 -0.871614 -0.202562 -0.209541
    9 0.039887 -1.479790 0.029854 -2.058952 0.000000 0.000001
    10 0.028786 -1.075731 -0.023109 -0.606336 0.000000 0.000000
    11 0.250027 -2.820665 -0.238396 -0.797118 -0.167517 -0.114938
    12 -0.049759 -1.680544 0.100479 -1.934764 0.000000 -0.000002
    13 -0.034142 -1.148312 0.084782 -0.925898 0.000000 0.000000
    14 0.957766 -2.746780 -0.090302 0.005849 -0.162684 0.097910
    15 -0.033420 -1.397129 -0.011257 -0.520997 0.000000 -0.000001
    16 -0.022360 -0.957436 0.018784 -0.975515 0.000000 0.000000
    17 -1.180681 -2.507217 -0.193859 -0.671429 -0.081516 -0.261329
    18 -0.024967 -1.123934 0.017597 -2.056303 0.000000 0.000001
    19 -0.020057 -0.890968 0.010090 -0.677834 0.000000 0.000000
    20 0.583510 -1.197277 0.185379 0.180209 -0.812077 -1.291294
    21 1.535927 0.010246 0.005009 -0.002964 -0.012979 -0.506650
    22 1.100771 0.004527 -0.010679 -0.015488 -0.004784 -1.694062
    23 0.120153 -0.050270 -0.054489 0.287569 3.110905 1.561085
    24 0.178464 -8.153224 -10.036746 -1.766634 -5.321370 -1.065164
    25 0.096944 -8.450418 -0.009365 0.404834 -1.145406 -0.075759
    26 0.447953 -2.798986 -0.200443 -0.040272 -0.341746 -0.192844
    27 -0.032909 -1.480204 0.004940 -0.118334 0.000000 0.000002
    28 -0.027022 -1.076920 -0.020210 -0.581967 0.000000 0.000000
    29 -0.249534 -2.846964 -0.174213 0.217672 -0.180193 -0.283478
    30 0.043235 -1.683941 0.096012 -0.000111 0.002823 -0.000167
    31 0.031729 -1.160830 0.058838 -1.181279 0.000642 0.008372
    32 -0.963866 -2.785145 -0.085350 0.311679 0.369681 -0.496995
    33 0.028479 -1.403067 0.006271 -0.175176 -0.305236 0.172051
    34 0.021413 -0.957781 0.020046 -0.738192 0.000000 0.000000
    35 1.164475 -2.543940 -0.170330 -0.927423 -0.422062 -0.157700
    36 0.024032 -1.129042 0.017807 -0.709851 0.000000 0.000001
    37 0.014898 -0.883989 -0.019848 -0.845482 0.000000 0.000000
    38 -0.586770 -1.264477 0.200161 0.013123 -0.080121 -2.491297
    39 1.522835 0.058681 0.016848 0.001410 0.008985 0.411553
    40 1.117947 0.048424 -0.005766 -0.016890 -0.018702 0.790664
    41 -0.139399 -0.111698 0.014397 0.653645 -0.030687 1.580508
    42 -1.393470 8.839177 -0.239433 1.580804 -0.005023 -1.566847
  time 15
    0 0.000000 0.000000 -0.089846 0.011134 0.000000 -0.000029
    1 8.213061 3.988003 -6.016337 -0.149965 -1.612726 -0.045697
    2 -0.071918 -8.498688 -0.104136 0.151251 0.282508 0.057557
    3 -2.047026 -2.271449 0.012398 0.054749 -0.245819 -0.015179
    4 3.423495 -1.665627 0.000000 -0.000005 0.000000 -3.141592
    5 4.039898 -4.447696 0.000000 0.000002 0.000000 3.141592
    6 4.734380 -3.434518 0.622250 -3.141592 0.000000 -1.570796
    7 1.257180 8.762585 -0.153713 -1.570562 0.002683 -1.566807
    8 -0.488518 -2.755602 -0.228260 -0.871614 -0.202562 -0.209541
    9 0.039887 -1.479790 0.029854 -2.058952 0.000000 0.000001
    10 0.028786 -1.075731 -0.023109 -0.606336 0.000000 0.000000
    11 0.250027 -2.820665 -0.238396 -0.797118 -0.167517 -0.114938
    12 -0.049759 -1.680544 0.100479 -1.934764 0.000000 -0.000002
    13 -0.034142 -1.148312 0.084782 -0.925898 0.000000 0.000000
    14 0.957766 -2.746780 -0.090302 0.005849 -0.162684 0.097910
    15 -0.033420 -1.397129 -0.011257 -0.520997 0.000000 -0.000001
    16 -0.022360 -0.957436 0.018784 -0.975515 0.000000 0.000000
    17 -1.180681 -2.507217 -0.193859 -0.671429 -0.081516 -0.261329
    18 -0.024967 -1.123934 0.017597 -2.056303 0.000000 0.000001
    19 -0.020057 -0.890968 0.010090 -0.677834 0.000000 0.000000
    20 0.583510 -1.197277 0.185379 0.180209 -0.812077 -1.291294
    21 1.535927 0.010246 0.005009 -0.002964 -0.012979 -0.506650
    22 1.100771 0.004527 -0.010679 -0.015488 -0.004784 -1.694062
    23 0.120153 -0.050270 -0.054489 0.287569 3.110905 1.561085
    24 0.178464 -8.153224 -10.036746 -1.766634 -5.321370 -1.065164
    25 0.096944 -8.450418 -0.009365 0.404834 -1.145406 -0.075759
    26 0.447953 -2.798986 -0.200443 -0.040272 -0.341746 -0.192844
    27 -0.032909 -1.480204 0.004940 -0.118334 0.000000 0.000002
    28 -0.027022 -1.076920 -0.020210 -0.581967 0.000000 0.000000
    29 -0.249534 -2.846964 -0.174213 0.217672 -0.180193 -0.283478
    30 0.043235 -1.683941 0.096012 -0.000111 0.002823 -0.000167
    31 0.031729 -1.160830 0.058838 -1.181279 0.000642 0.008372
    32 -0.963866 -2.785145 -0.085350 0.311679 0.369681 -0.496995
    33 0.028479 -1.403067 0.006271 -0.175176 -0.305236 0.172051
    34 0.021413 -0.957781 0.020046 -0.738192 0.000000 0.000000
    35 1.164475 -2.543940 -0.170330 -0.927423 -0.422062 -0.157700
    36 0.024032 -1.129042 0.017807 -0.709851 0.000000 0.000001
    37 0.014898 -0.883989 -0.019848 -0.845482 0.000000 0.000000
    38 -0.586770 -1.264477 0.200161 0.013123 -0.080121 -2.491297
    39 1.522835 0.058681 0.016848 0.001410 0.008985 0.411553
    40 1.117947 0.048424 -0.005766 -0.016890 -0.018702 0.790664
    41 -0.139399 -0.111698 0.014397 0.653645 -0.030687 1.580508
    42 -1.393470 8.839177 -0.239433 1.580804 -0.005023 -1.566847
  time 16
    0 0.000000 0.000000 -0.105472 0.006970 0.000000 -0.000029
    1 8.213061 3.988003 -6.016337 -0.149965 -1.612726 -0.045697
    2 -0.071918 -8.498688 -0.104136 0.151251 0.282508 0.057557
    3 -2.047026 -2.271449 0.012398 0.054749 -0.245819 -0.015179
    4 3.423495 -1.665627 0.000000 -0.000005 0.000000 -3.141592
    5 4.039898 -4.447696 0.000000 0.000002 0.000000 3.141592
    6 4.734380 -3.434518 0.622250 -3.141592 0.000000 -1.570796
    7 1.257180 8.762585 -0.153713 -1.570562 0.002683 -1.566807
    8 -0.488518 -2.755602 -0.228260 -0.871614 -0.202562 -0.209541
    9 0.039887 -1.479790 0.029854 -2.058952 0.000000 0.000001
    10 0.028786 -1.075731 -0.023109 -0.606336 0.000000 0.000000
    11 0.250027 -2.820665 -0.238396 -0.797118 -0.167517 -0.114938
    12 -0.049759 -1.680544 0.100479 -1.934764 0.000000 -0.000002
    13 -0.034142 -1.148312 0.084782 -0.925898 0.000000 0.000000
    14 0.957766 -2.746780 -0.090302 0.005849 -0.162684 0.097910
    15 -0.033420 -1.397129 -0.011257 -0.520997 0.000000 -0.000001
    16 -0.022360 -0.957436 0.018784 -0.975515 0.000000 0.000000
    17 -1.180681 -2.507217 -0.193859 -0.671429 -0.081516 -0.261329
    18 -0.024967 -1.123934 0.017597 -2.056303 0.000000 0.000001
    19 -0.020057 -0.890968 0.010090 -0.677834 0.000000 0.000000
    20 0.583510 -1.197277 0.185379 0.180209 -0.812077 -1.291294
    21 1.535927 0.010246 0.005009 -0.002964 -0.012979 -0.506650
    22 1.100771 0.004527 -0.010679 -0.015488 -0.004784 -1.694062
    23 0.120153 -0.050270 -0.054489 0.287569 3.110905 1.561085
    24 0.178464 -8.153224 -10.036746 -1.766634 -5.321370 -1.065164
    25 0.096944 -8.450418 -0.009365 0.404834 -1.145406 -0.075759
    26 0.447953 -2.798986 -0.200443 -0.040272 -0.341746 -0.192844
    27 -0.032909 -1.480204 0.004940 -0.118334 0.000000 0.000002
    28 -0.027022 -1.076920 -0.020210 -0.581967 0.000000 0.000000
    29 -0.249534 -2.846964 -0.174213 0.217672 -0.180193 -0.283478
    30 0.043235 -1.683941 0.096012 -0.000111 0.002823 -0.000167
    31 0.031729 -1.160830 0.058838 -1.181279 0.000642 0.008372
    32 -0.963866 -2.785145 -0.085350 0.311679 0.369681 -0.496995
    33 0.028479 -1.403067 0.006271 -0.175176 -0.305236 0.172051
    34 0.021413 -0.957781 0.020046 -0.738192 0.000000 0.000000
    35 1.164475 -2.543940 -0.170330 -0.927423 -0.422062 -0.157700
    36 0.024032 -1.129042 0.017807 -0.709851 0.000000 0.000001
    37 0.014898 -0.883989 -0.019848 -0.845482 0.000000 0.000000
    38 -0.586770 -1.264477 0.200161 0.013123 -0.080121 -2.491297
    39 1.522835 0.058681 0.016848 0.001410 0.008985 0.411553
    40 1.117947 0.048424 -0.005766 -0.016890 -0.018702 0.790664
    41 -0.139399 -0.111698 0.014397 0.653645 -0.030687 1.580508
    42 -1.393470 8.839177 -0.239433 1.580804 -0.005023 -1.566847
  time 17
    0 0.000000 0.000000 -0.109378 0.002793 0.000000 -0.000029
    1 8.213061 3.988003 -6.016337 -0.149965 -1.612726 -0.045697
    2 -0.071918 -8.498688 -0.104136 0.151251 0.282508 0.057557
    3 -2.047026 -2.271449 0.012398 0.054749 -0.245819 -0.015179
    4 3.423495 -1.665627 0.000000 -0.000005 0.000000 -3.141592
    5 4.039898 -4.447696 0.000000 0.000002 0.000000 3.141592
    6 4.734380 -3.434518 0.622250 -3.141592 0.000000 -1.570796
    7 1.257180 8.762585 -0.153713 -1.570562 0.002683 -1.566807
    8 -0.488518 -2.755602 -0.228260 -0.871614 -0.202562 -0.209541
    9 0.039887 -1.479790 0.029854 -2.058952 0.000000 0.000001
    10 0.028786 -1.075731 -0.023109 -0.606336 0.000000 0.000000
    11 0.250027 -2.820665 -0.238396 -0.797118 -0.167517 -0.114938
    12 -0.049759 -1.680544 0.100479 -1.934764 0.000000 -0.000002
    13 -0.034142 -1.148312 0.084782 -0.925898 0.000000 0.000000
    14 0.957766 -2.746780 -0.090302 0.005849 -0.162684 0.097910
    15 -0.033420 -1.397129 -0.011257 -0.520997 0.000000 -0.000001
    16 -0.022360 -0.957436 0.018784 -0.975515 0.000000 0.000000
    17 -1.180681 -2.507217 -0.193859 -0.671429 -0.081516 -0.261329
    18 -0.024967 -1.123934 0.017597 -2.056303 0.000000 0.000001
    19 -0.020057 -0.890968 0.010090 -0.677834 0.000000 0.000000
    20 0.583510 -1.197277 0.185379 0.180209 -0.812077 -1.291294
    21 1.535927 0.010246 0.005009 -0.002964 -0.012979 -0.506650
    22 1.100771 0.004527 -0.010679 -0.015488 -0.004784 -1.694062
    23 0.120153 -0.050270 -0.054489 0.287569 3.110905 1.561085
    24 0.178464 -8.153224 -10.036746 -1.766634 -5.321370 -1.065164
    25 0.096944 -8.450418 -0.009365 0.404834 -1.145406 -0.075759
    26 0.447953 -2.798986 -0.200443 -0.040272 -0.341746 -0.192844
    27 -0.032909 -1.480204 0.004940 -0.118334 0.000000 0.000002
    28 -0.027022 -1.076920 -0.020210 -0.581967 0.000000 0.000000
    29 -0.249534 -2.846964 -0.174213 0.217672 -0.180193 -0.283478
    30 0.043235 -1.683941 0.096012 -0.000111 0.002823 -0.000167
    31 0.031729 -1.160830 0.058838 -1.181279 0.000642 0.008372
    32 -0.963866 -2.785145 -0.085350 0.311679 0.369681 -0.496995
    33 0.028479 -1.403067 0.006271 -0.175176 -0.305236 0.172051
    34 0.021413 -0.957781 0.020046 -0.738192 0.000000 0.000000
    35 1.164475 -2.543940 -0.170330 -0.927423 -0.422062 -0.157700
    36 0.024032 -1.129042 0.017807 -0.709851 0.000000 0.000001
    37 0.014898 -0.883989 -0.019848 -0.845482 0.000000 0.000000
    38 -0.586770 -1.264477 0.200161 0.013123 -0.080121 -2.491297
    39 1.522835 0.058681 0.016848 0.001410 0.008985 0.411553
    40 1.117947 0.048424 -0.005766 -0.016890 -0.018702 0.790664
    41 -0.139399 -0.111698 0.014397 0.653645 -0.030687 1.580508
    42 -1.393470 8.839177 -0.239433 1.580804 -0.005023 -1.566847
  time 18
    0 0.000000 0.000000 -0.105472 -0.000830 0.000000 -0.000029
    1 8.213061 3.988003 -6.016337 -0.149965 -1.612726 -0.045697
    2 -0.071918 -8.498688 -0.104136 0.151251 0.282508 0.057557
    3 -2.047026 -2.271449 0.012398 0.054749 -0.245819 -0.015179
    4 3.423495 -1.665627 0.000000 -0.000005 0.000000 -3.141592
    5 4.039898 -4.447696 0.000000 0.000002 0.000000 3.141592
    6 4.734380 -3.434518 0.622250 -3.141592 0.000000 -1.570796
    7 1.257180 8.762585 -0.153713 -1.570562 0.002683 -1.566807
    8 -0.488518 -2.755602 -0.228260 -0.871614 -0.202562 -0.209541
    9 0.039887 -1.479790 0.029854 -2.058952 0.000000 0.000001
    10 0.028786 -1.075731 -0.023109 -0.606336 0.000000 0.000000
    11 0.250027 -2.820665 -0.238396 -0.797118 -0.167517 -0.114938
    12 -0.049759 -1.680544 0.100479 -1.934764 0.000000 -0.000002
    13 -0.034142 -1.148312 0.084782 -0.925898 0.000000 0.000000
    14 0.957766 -2.746780 -0.090302 0.005849 -0.162684 0.097910
    15 -0.033420 -1.397129 -0.011257 -0.520997 0.000000 -0.000001
    16 -0.022360 -0.957436 0.018784 -0.975515 0.000000 0.000000
    17 -1.180681 -2.507217 -0.193859 -0.671429 -0.081516 -0.261329
    18 -0.024967 -1.123934 0.017597 -2.056303 0.000000 0.000001
    19 -0.020057 -0.890968 0.010090 -0.677834 0.000000 0.000000
    20 0.583510 -1.197277 0.185379 0.180209 -0.812077 -1.291294
    21 1.535927 0.010246 0.005009 -0.002964 -0.012979 -0.506650
    22 1.100771 0.004527 -0.010679 -0.015488 -0.004784 -1.694062
    23 0.120153 -0.050270 -0.054489 0.287569 3.110905 1.561085
    24 0.178464 -8.153224 -10.036746 -1.766634 -5.321370 -1.065164
    25 0.096944 -8.450418 -0.009365 0.404834 -1.145406 -0.075759
    26 0.447953 -2.798986 -0.200443 -0.040272 -0.341746 -0.192844
    27 -0.032909 -1.480204 0.004940 -0.118334 0.000000 0.000002
    28 -0.027022 -1.076920 -0.020210 -0.581967 0.000000 0.000000
    29 -0.249534 -2.846964 -0.174213 0.217672 -0.180193 -0.283478
    30 0.043235 -1.683941 0.096012 -0.000111 0.002823 -0.000167
    31 0.031729 -1.160830 0.058838 -1.181279 0.000642 0.008372
    32 -0.963866 -2.785145 -0.085350 0.311679 0.369681 -0.496995
    33 0.028479 -1.403067 0.006271 -0.175176 -0.305236 0.172051
    34 0.021413 -0.957781 0.020046 -0.738192 0.000000 0.000000
    35 1.164475 -2.543940 -0.170330 -0.927423 -0.422062 -0.157700
    36 0.024032 -1.129042 0.017807 -0.709851 0.000000 0.000001
    37 0.014898 -0.883989 -0.019848 -0.845482 0.000000 0.000000
    38 -0.586770 -1.264477 0.200161 0.013123 -0.080121 -2.491297
    39 1.522835 0.058681 0.016848 0.001410 0.008985 0.411553
    40 1.117947 0.048424 -0.005766 -0.016890 -0.018702 0.790664
    41 -0.139399 -0.111698 0.014397 0.653645 -0.030687 1.580508
    42 -1.393470 8.839177 -0.239433 1.580804 -0.005023 -1.566847
  time 19
    0 0.000000 0.000000 -0.093753 -0.003413 0.000000 -0.000029
    1 8.213061 3.988003 -6.016337 -0.149965 -1.612726 -0.045697
    2 -0.071918 -8.498688 -0.104136 0.151251 0.282508 0.057557
    3 -2.047026 -2.271449 0.012398 0.054749 -0.245819 -0.015179
    4 3.423495 -1.665627 0.000000 -0.000005 0.000000 -3.141592
    5 4.039898 -4.447696 0.000000 0.000002 0.000000 3.141592
    6 4.734380 -3.434518 0.622250 -3.141592 0.000000 -1.570796
    7 1.257180 8.762585 -0.153713 -1.570562 0.002683 -1.566807
    8 -0.488518 -2.755602 -0.228260 -0.871614 -0.202562 -0.209541
    9 0.039887 -1.479790 0.029854 -2.058952 0.000000 0.000001
    10 0.028786 -1.075731 -0.023109 -0.606336 0.000000 0.000000
    11 0.250027 -2.820665 -0.238396 -0.797118 -0.167517 -0.114938
    12 -0.049759 -1.680544 0.100479 -1.934764 0.000000 -0.000002
    13 -0.034142 -1.148312 0.084782 -0.925898 0.000000 0.000000
    14 0.957766 -2.746780 -0.090302 0.005849 -0.162684 0.097910
    15 -0.033420 -1.397129 -0.011257 -0.520997 0.000000 -0.000001
    16 -0.022360 -0.957436 0.018784 -0.975515 0.000000 0.000000
    17 -1.180681 -2.507217 -0.193859 -0.671429 -0.081516 -0.261329
    18 -0.024967 -1.123934 0.017597 -2.056303 0.000000 0.000001
    19 -0.020057 -0.890968 0.010090 -0.677834 0.000000 0.000000
    20 0.583510 -1.197277 0.185379 0.180209 -0.812077 -1.291294
    21 1.535927 0.010246 0.005009 -0.002964 -0.012979 -0.506650
    22 1.100771 0.004527 -0.010679 -0.015488 -0.004784 -1.694062
    23 0.120153 -0.050270 -0.054489 0.287569 3.110905 1.561085
    24 0.178464 -8.153224 -10.036746 -1.766634 -5.321370 -1.065164
    25 0.096944 -8.450418 -0.009365 0.404834 -1.145406 -0.075759
    26 0.447953 -2.798986 -0.200443 -0.040272 -0.341746 -0.192844
    27 -0.032909 -1.480204 0.004940 -0.118334 0.000000 0.000002
    28 -0.027022 -1.076920 -0.020210 -0.581967 0.000000 0.000000
    29 -0.249534 -2.846964 -0.174213 0.217672 -0.180193 -0.283478
    30 0.043235 -1.683941 0.096012 -0.000111 0.002823 -0.000167
    31 0.031729 -1.160830 0.058838 -1.181279 0.000642 0.008372
    32 -0.963866 -2.785145 -0.085350 0.311679 0.369681 -0.496995
    33 0.028479 -1.403067 0.006271 -0.175176 -0.305236 0.172051
    34 0.021413 -0.957781 0.020046 -0.738192 0.000000 0.000000
    35 1.164475 -2.543940 -0.170330 -0.927423 -0.422062 -0.157700
    36 0.024032 -1.129042 0.017807 -0.709851 0.000000 0.000001
    37 0.014898 -0.883989 -0.019848 -0.845482 0.000000 0.000000
    38 -0.586770 -1.264477 0.200161 0.013123 -0.080121 -2.491297
    39 1.522835 0.058681 0.016848 0.001410 0.008985 0.411553
    40 1.117947 0.048424 -0.005766 -0.016890 -0.018702 0.790664
    41 -0.139399 -0.111698 0.014397 0.653645 -0.030687 1.580508
    42 -1.393470 8.839177 -0.239433 1.580804 -0.005023 -1.566847
  time 20
    0 0.000000 0.000000 -0.074221 -0.004388 0.000000 -0.000029
    1 8.213061 3.988003 -6.016337 -0.149965 -1.612726 -0.045697
    2 -0.071918 -8.498688 -0.104136 0.151251 0.282508 0.057557
    3 -2.047026 -2.271449 0.012398 0.054749 -0.245819 -0.015179
    4 3.423495 -1.665627 0.000000 -0.000005 0.000000 -3.141592
    5 4.039898 -4.447696 0.000000 0.000002 0.000000 3.141592
    6 4.734380 -3.434518 0.622250 -3.141592 0.000000 -1.570796
    7 1.257180 8.762585 -0.153713 -1.570562 0.002683 -1.566807
    8 -0.488518 -2.755602 -0.228260 -0.871614 -0.202562 -0.209541
    9 0.039887 -1.479790 0.029854 -2.058952 0.000000 0.000001
    10 0.028786 -1.075731 -0.023109 -0.606336 0.000000 0.000000
    11 0.250027 -2.820665 -0.238396 -0.797118 -0.167517 -0.114938
    12 -0.049759 -1.680544 0.100479 -1.934764 0.000000 -0.000002
    13 -0.034142 -1.148312 0.084782 -0.925898 0.000000 0.000000
    14 0.957766 -2.746780 -0.090302 0.005849 -0.162684 0.097910
    15 -0.033420 -1.397129 -0.011257 -0.520997 0.000000 -0.000001
    16 -0.022360 -0.957436 0.018784 -0.975515 0.000000 0.000000
    17 -1.180681 -2.507217 -0.193859 -0.671429 -0.081516 -0.261329
    18 -0.024967 -1.123934 0.017597 -2.056303 0.000000 0.000001
    19 -0.020057 -0.890968 0.010090 -0.677834 0.000000 0.000000
    20 0.583510 -1.197277 0.185379 0.180209 -0.812077 -1.291294
    21 1.535927 0.010246 0.005009 -0.002964 -0.012979 -0.506650
    22 1.100771 0.004527 -0.010679 -0.015488 -0.004784 -1.694062
    23 0.120153 -0.050270 -0.054489 0.287569 3.110905 1.561085
    24 0.178464 -8.153224 -10.036746 -1.766634 -5.321370 -1.065164
    25 0.096944 -8.450418 -0.009365 0.404834 -1.145406 -0.075759
    26 0.447953 -2.798986 -0.200443 -0.040272 -0.341746 -0.192844
    27 -0.032909 -1.480204 0.004940 -0.118334 0.000000 0.000002
    28 -0.027022 -1.076920 -0.020210 -0.581967 0.000000 0.000000
    29 -0.249534 -2.846964 -0.174213 0.217672 -0.180193 -0.283478
    30 0.043235 -1.683941 0.096012 -0.000111 0.002823 -0.000167
    31 0.031729 -1.160830 0.058838 -1.181279 0.000642 0.008372
    32 -0.963866 -2.785145 -0.085350 0.311679 0.369681 -0.496995
    33 0.028479 -1.403067 0.006271 -0.175176 -0.305236 0.172051
    34 0.021413 -0.957781 0.020046 -0.738192 0.000000 0.000000
    35 1.164475 -2.543940 -0.170330 -0.927423 -0.422062 -0.157700
    36 0.024032 -1.129042 0.017807 -0.709851 0.000000 0.000001
    37 0.014898 -0.883989 -0.019848 -0.845482 0.000000 0.000000
    38 -0.586770 -1.264477 0.200161 0.013123 -0.080121 -2.491297
    39 1.522835 0.058681 0.016848 0.001410 0.008985 0.411553
    40 1.117947 0.048424 -0.005766 -0.016890 -0.018702 0.790664
    41 -0.139399 -0.111698 0.014397 0.653645 -0.030687 1.580508
    42 -1.393470 8.839177 -0.239433 1.580804 -0.005023 -1.566847
  time 21
    0 0.000000 0.000000 -0.054689 -0.003927 0.000000 -0.000029
    1 8.213061 3.988003 -6.016337 -0.149965 -1.612726 -0.045697
    2 -0.071918 -8.498688 -0.104136 0.151251 0.282508 0.057557
    3 -2.047026 -2.271449 0.012398 0.054749 -0.245819 -0.015179
    4 3.423495 -1.665627 0.000000 -0.000005 0.000000 -3.141592
    5 4.039898 -4.447696 0.000000 0.000002 0.000000 3.141592
    6 4.734380 -3.434518 0.622250 -3.141592 0.000000 -1.570796
    7 1.257180 8.762585 -0.153713 -1.570562 0.002683 -1.566807
    8 -0.488518 -2.755602 -0.228260 -0.871614 -0.202562 -0.209541
    9 0.039887 -1.479790 0.029854 -2.058952 0.000000 0.000001
    10 0.028786 -1.075731 -0.023109 -0.606336 0.000000 0.000000
    11 0.250027 -2.820665 -0.238396 -0.797118 -0.167517 -0.114938
    12 -0.049759 -1.680544 0.100479 -1.934764 0.000000 -0.000002
    13 -0.034142 -1.148312 0.084782 -0.925898 0.000000 0.000000
    14 0.957766 -2.746780 -0.090302 0.005849 -0.162684 0.097910
    15 -0.033420 -1.397129 -0.011257 -0.520997 0.000000 -0.000001
    16 -0.022360 -0.957436 0.018784 -0.975515 0.000000 0.000000
    17 -1.180681 -2.507217 -0.193859 -0.671429 -0.081516 -0.261329
    18 -0.024967 -1.123934 0.017597 -2.056303 0.000000 0.000001
    19 -0.020057 -0.890968 0.010090 -0.677834 0.000000 0.000000
    20 0.583510 -1.197277 0.185379 0.180209 -0.812077 -1.291294
    21 1.535927 0.010246 0.005009 -0.002964 -0.012979 -0.506650
    22 1.100771 0.004527 -0.010679 -0.015488 -0.004784 -1.694062
    23 0.120153 -0.050270 -0.054489 0.287569 3.110905 1.561085
    24 0.178464 -8.153224 -10.036746 -1.766634 -5.321370 -1.065164
    25 0.096944 -8.450418 -0.009365 0.404834 -1.145406 -0.075759
    26 0.447953 -2.798986 -0.200443 -0.040272 -0.341746 -0.192844
    27 -0.032909 -1.480204 0.004940 -0.118334 0.000000 0.000002
    28 -0.027022 -1.076920 -0.020210 -0.581967 0.000000 0.000000
    29 -0.249534 -2.846964 -0.174213 0.217672 -0.180193 -0.283478
    30 0.043235 -1.683941 0.096012 -0.000111 0.002823 -0.000167
    31 0.031729 -1.160830 0.058838 -1.181279 0.000642 0.008372
    32 -0.963866 -2.785145 -0.085350 0.311679 0.369681 -0.496995
    33 0.028479 -1.403067 0.006271 -0.175176 -0.305236 0.172051
    34 0.021413 -0.957781 0.020046 -0.738192 0.000000 0.000000
    35 1.164475 -2.543940 -0.170330 -0.927423 -0.422062 -0.157700
    36 0.024032 -1.129042 0.017807 -0.709851 0.000000 0.000001
    37 0.014898 -0.883989 -0.019848 -0.845482 0.000000 0.000000
    38 -0.586770 -1.264477 0.200161 0.013123 -0.080121 -2.491297
    39 1.522835 0.058681 0.016848 0.001410 0.008985 0.411553
    40 1.117947 0.048424 -0.005766 -0.016890 -0.018702 0.790664
    41 -0.139399 -0.111698 0.014397 0.653645 -0.030687 1.580508
    42 -1.393470 8.839177 -0.239433 1.580804 -0.005023 -1.566847
  time 22
    0 0.000000 0.000000 -0.035157 -0.002833 0.000000 -0.000029
    1 8.213061 3.988003 -6.016337 -0.149965 -1.612726 -0.045697
    2 -0.071918 -8.498688 -0.104136 0.151251 0.282508 0.057557
    3 -2.047026 -2.271449 0.012398 0.054749 -0.245819 -0.015179
    4 3.423495 -1.665627 0.000000 -0.000005 0.000000 -3.141592
    5 4.039898 -4.447696 0.000000 0.000002 0.000000 3.141592
    6 4.734380 -3.434518 0.622250 -3.141592 0.000000 -1.570796
    7 1.257180 8.762585 -0.153713 -1.570562 0.002683 -1.566807
    8 -0.488518 -2.755602 -0.228260 -0.871614 -0.202562 -0.209541
    9 0.039887 -1.479790 0.029854 -2.058952 0.000000 0.000001
    10 0.028786 -1.075731 -0.023109 -0.606336 0.000000 0.000000
    11 0.250027 -2.820665 -0.238396 -0.797118 -0.167517 -0.114938
    12 -0.049759 -1.680544 0.100479 -1.934764 0.000000 -0.000002
    13 -0.034142 -1.148312 0.084782 -0.925898 0.000000 0.000000
    14 0.957766 -2.746780 -0.090302 0.005849 -0.162684 0.097910
    15 -0.033420 -1.397129 -0.011257 -0.520997 0.000000 -0.000001
    16 -0.022360 -0.957436 0.018784 -0.975515 0.000000 0.000000
    17 -1.180681 -2.507217 -0.193859 -0.671429 -0.081516 -0.261329
    18 -0.024967 -1.123934 0.017597 -2.056303 0.000000 0.000001
    19 -0.020057 -0.890968 0.010090 -0.677834 0.000000 0.000000
    20 0.583510 -1.197277 0.185379 0.180209 -0.812077 -1.291294
    21 1.535927 0.010246 0.005009 -0.002964 -0.012979 -0.506650
    22 1.100771 0.004527 -0.010679 -0.015488 -0.004784 -1.694062
    23 0.120153 -0.050270 -0.054489 0.287569 3.110905 1.561085
    24 0.178464 -8.153224 -10.036746 -1.766634 -5.321370 -1.065164
    25 0.096944 -8.450418 -0.009365 0.404834 -1.145406 -0.075759
    26 0.447953 -2.798986 -0.200443 -0.040272 -0.341746 -0.192844
    27 -0.032909 -1.480204 0.004940 -0.118334 0.000000 0.000002
    28 -0.027022 -1.076920 -0.020210 -0.581967 0.000000 0.000000
    29 -0.249534 -2.846964 -0.174213 0.217672 -0.180193 -0.283478
    30 0.043235 -1.683941 0.096012 -0.000111 0.002823 -0.000167
    31 0.031729 -1.160830 0.058838 -1.181279 0.000642 0.008372
    32 -0.963866 -2.785145 -0.085350 0.311679 0.369681 -0.496995
    33 0.028479 -1.403067 0.006271 -0.175176 -0.305236 0.172051
    34 0.021413 -0.957781 0.020046 -0.738192 0.000000 0.000000
    35 1.164475 -2.543940 -0.170330 -0.927423 -0.422062 -0.157700
    36 0.024032 -1.129042 0.017807 -0.709851 0.000000 0.000001
    37 0.014898 -0.883989 -0.019848 -0.845482 0.000000 0.000000
    38 -0.586770 -1.264477 0.200161 0.013123 -0.080121 -2.491297
    39 1.522835 0.058681 0.016848 0.001410 0.008985 0.411553
    40 1.117947 0.048424 -0.005766 -0.016890 -0.018702 0.790664
    41 -0.139399 -0.111698 0.014397 0.653645 -0.030687 1.580508
    42 -1.393470 8.839177 -0.239433 1.580804 -0.005023 -1.566847
  time 23
    0 0.000000 0.000000 -0.015625 -0.001542 0.000000 -0.000029
    1 8.213061 3.988003 -6.016337 -0.149965 -1.612726 -0.045697
    2 -0.071918 -8.498688 -0.104136 0.151251 0.282508 0.057557
    3 -2.047026 -2.271449 0.012398 0.054749 -0.245819 -0.015179
    4 3.423495 -1.665627 0.000000 -0.000005 0.000000 -3.141592
    5 4.039898 -4.447696 0.000000 0.000002 0.000000 3.141592
    6 4.734380 -3.434518 0.622250 -3.141592 0.000000 -1.570796
    7 1.257180 8.762585 -0.153713 -1.570562 0.002683 -1.566807
    8 -0.488518 -2.755602 -0.228260 -0.871614 -0.202562 -0.209541
    9 0.039887 -1.479790 0.029854 -2.058952 0.000000 0.000001
    10 0.028786 -1.075731 -0.023109 -0.606336 0.000000 0.000000
    11 0.250027 -2.820665 -0.238396 -0.797118 -0.167517 -0.114938
    12 -0.049759 -1.680544 0.100479 -1.934764 0.000000 -0.000002
    13 -0.034142 -1.148312 0.084782 -0.925898 0.000000 0.000000
    14 0.957766 -2.746780 -0.090302 0.005849 -0.162684 0.097910
    15 -0.033420 -1.397129 -0.011257 -0.520997 0.000000 -0.000001
    16 -0.022360 -0.957436 0.018784 -0.975515 0.000000 0.000000
    17 -1.180681 -2.507217 -0.193859 -0.671429 -0.081516 -0.261329
    18 -0.024967 -1.123934 0.017597 -2.056303 0.000000 0.000001
    19 -0.020057 -0.890968 0.010090 -0.677834 0.000000 0.000000
    20 0.583510 -1.197277 0.185379 0.180209 -0.812077 -1.291294
    21 1.535927 0.010246 0.005009 -0.002964 -0.012979 -0.506650
    22 1.100771 0.004527 -0.010679 -0.015488 -0.004784 -1.694062
    23 0.120153 -0.050270 -0.054489 0.287569 3.110905 1.561085
    24 0.178464 -8.153224 -10.036746 -1.766634 -5.321370 -1.065164
    25 0.096944 -8.450418 -0.009365 0.404834 -1.145406 -0.075759
    26 0.447953 -2.798986 -0.200443 -0.040272 -0.341746 -0.192844
    27 -0.032909 -1.480204 0.004940 -0.118334 0.000000 0.000002
    28 -0.027022 -1.076920 -0.020210 -0.581967 0.000000 0.000000
    29 -0.249534 -2.846964 -0.174213 0.217672 -0.180193 -0.283478
    30 0.043235 -1.683941 0.096012 -0.000111 0.002823 -0.000167
    31 0.031729 -1.160830 0.058838 -1.181279 0.000642 0.008372
    32 -0.963866 -2.785145 -0.085350 0.311679 0.369681 -0.496995
    33 0.028479 -1.403067 0.006271 -0.175176 -0.305236 0.172051
    34 0.021413 -0.957781 0.020046 -0.738192 0.000000 0.000000
    35 1.164475 -2.543940 -0.170330 -0.927423 -0.422062 -0.157700
    36 0.024032 -1.129042 0.017807 -0.709851 0.000000 0.000001
    37 0.014898 -0.883989 -0.019848 -0.845482 0.000000 0.000000
    38 -0.586770 -1.264477 0.200161 0.013123 -0.080121 -2.491297
    39 1.522835 0.058681 0.016848 0.001410 0.008985 0.411553
    40 1.117947 0.048424 -0.005766 -0.016890 -0.018702 0.790664
    41 -0.139399 -0.111698 0.014397 0.653645 -0.030687 1.580508
    42 -1.393470 8.839177 -0.239433 1.580804 -0.005023 -1.566847
  time 24
    0 0.000000 0.000000 -0.003906 -0.000448 0.000000 -0.000029
    1 8.213061 3.988003 -6.016337 -0.149965 -1.612726 -0.045697
    2 -0.071918 -8.498688 -0.104136 0.151251 0.282508 0.057557
    3 -2.047026 -2.271449 0.012398 0.054749 -0.245819 -0.015179
    4 3.423495 -1.665627 0.000000 -0.000005 0.000000 -3.141592
    5 4.039898 -4.447696 0.000000 0.000002 0.000000 3.141592
    6 4.734380 -3.434518 0.622250 -3.141592 0.000000 -1.570796
    7 1.257180 8.762585 -0.153713 -1.570562 0.002683 -1.566807
    8 -0.488518 -2.755602 -0.228260 -0.871614 -0.202562 -0.209541
    9 0.039887 -1.479790 0.029854 -2.058952 0.000000 0.000001
    10 0.028786 -1.075731 -0.023109 -0.606336 0.000000 0.000000
    11 0.250027 -2.820665 -0.238396 -0.797118 -0.167517 -0.114938
    12 -0.049759 -1.680544 0.100479 -1.934764 0.000000 -0.000002
    13 -0.034142 -1.148312 0.084782 -0.925898 0.000000 0.000000
    14 0.957766 -2.746780 -0.090302 0.005849 -0.162684 0.097910
    15 -0.033420 -1.397129 -0.011257 -0.520997 0.000000 -0.000001
    16 -0.022360 -0.957436 0.018784 -0.975515 0.000000 0.000000
    17 -1.180681 -2.507217 -0.193859 -0.671429 -0.081516 -0.261329
    18 -0.024967 -1.123934 0.017597 -2.056303 0.000000 0.000001
    19 -0.020057 -0.890968 0.010090 -0.677834 0.000000 0.000000
    20 0.583510 -1.197277 0.185379 0.180209 -0.812077 -1.291294
    21 1.535927 0.010246 0.005009 -0.002964 -0.012979 -0.506650
    22 1.100771 0.004527 -0.010679 -0.015488 -0.004784 -1.694062
    23 0.120153 -0.050270 -0.054489 0.287569 3.110905 1.561085
    24 0.178464 -8.153224 -10.036746 -1.766634 -5.321370 -1.065164
    25 0.096944 -8.450418 -0.009365 0.404834 -1.145406 -0.075759
    26 0.447953 -2.798986 -0.200443 -0.040272 -0.341746 -0.192844
    27 -0.032909 -1.480204 0.004940 -0.118334 0.000000 0.000002
    28 -0.027022 -1.076920 -0.020210 -0.581967 0.000000 0.000000
    29 -0.249534 -2.846964 -0.174213 0.217672 -0.180193 -0.283478
    30 0.043235 -1.683941 0.096012 -0.000111 0.002823 -0.000167
    31 0.031729 -1.160830 0.058838 -1.181279 0.000642 0.008372
    32 -0.963866 -2.785145 -0.085350 0.311679 0.369681 -0.496995
    33 0.028479 -1.403067 0.006271 -0.175176 -0.305236 0.172051
    34 0.021413 -0.957781 0.020046 -0.738192 0.000000 0.000000
    35 1.164475 -2.543940 -0.170330 -0.927423 -0.422062 -0.157700
    36 0.024032 -1.129042 0.017807 -0.709851 0.000000 0.000001
    37 0.014898 -0.883989 -0.019848 -0.845482 0.000000 0.000000
    38 -0.586770 -1.264477 0.200161 0.013123 -0.080121 -2.491297
    39 1.522835 0.058681 0.016848 0.001410 0.008985 0.411553
    40 1.117947 0.048424 -0.005766 -0.016890 -0.018702 0.790664
    41 -0.139399 -0.111698 0.014397 0.653645 -0.030687 1.580508
    42 -1.393470 8.839177 -0.239433 1.580804 -0.005023 -1.566847
  time 25
    0 0.000000 0.000000 0.000000 0.000000 0.000000 -0.000029
    1 8.213061 3.988003 -6.016337 -0.149965 -1.612726 -0.045697
    2 -0.071918 -8.498688 -0.104136 0.151251 0.282508 0.057557
    3 -2.047026 -2.271449 0.012398 0.054749 -0.245819 -0.015179
    4 3.423495 -1.665627 0.000000 -0.000005 0.000000 -3.141592
    5 4.039898 -4.447696 0.000000 0.000002 0.000000 3.141592
    6 4.734380 -3.434518 0.622250 -3.141592 0.000000 -1.570796
    7 1.257180 8.762585 -0.153713 -1.570562 0.002683 -1.566807
    8 -0.488518 -2.755602 -0.228260 -0.871614 -0.202562 -0.209541
    9 0.039887 -1.479790 0.029854 -2.058952 0.000000 0.000001
    10 0.028786 -1.075731 -0.023109 -0.606336 0.000000 0.000000
    11 0.250027 -2.820665 -0.238396 -0.797118 -0.167517 -0.114938
    12 -0.049759 -1.680544 0.100479 -1.934764 0.000000 -0.000002
    13 -0.034142 -1.148312 0.084782 -0.925898 0.000000 0.000000
    14 0.957766 -2.746780 -0.090302 0.005849 -0.162684 0.097910
    15 -0.033420 -1.397129 -0.011257 -0.520997 0.000000 -0.000001
    16 -0.022360 -0.957436 0.018784 -0.975515 0.000000 0.000000
    17 -1.180681 -2.507217 -0.193859 -0.671429 -0.081516 -0.261329
    18 -0.024967 -1.123934 0.017597 -2.056303 0.000000 0.000001
    19 -0.020057 -0.890968 0.010090 -0.677834 0.000000 0.000000
    20 0.583510 -1.197277 0.185379 0.180209 -0.812077 -1.291294
    21 1.535927 0.010246 0.005009 -0.002964 -0.012979 -0.506650
    22 1.100771 0.004527 -0.010679 -0.015488 -0.004784 -1.694062
    23 0.120153 -0.050270 -0.054489 0.287569 3.110905 1.561085
    24 0.178464 -8.153224 -10.036746 -1.766634 -5.321370 -1.065164
    25 0.096944 -8.450418 -0.009365 0.404834 -1.145406 -0.075759
    26 0.447953 -2.798986 -0.200443 -0.040272 -0.341746 -0.192844
    27 -0.032909 -1.480204 0.004940 -0.118334 0.000000 0.000002
    28 -0.027022 -1.076920 -0.020210 -0.581967 0.000000 0.000000
    29 -0.249534 -2.846964 -0.174213 0.217672 -0.180193 -0.283478
    30 0.043235 -1.683941 0.096012 -0.000111 0.002823 -0.000167
    31 0.031729 -1.160830 0.058838 -1.181244 0.000642 0.008372
    32 -0.963866 -2.785145 -0.085350 0.311679 0.369681 -0.496995
    33 0.028479 -1.403067 0.006271 -0.175176 -0.305236 0.172051
    34 0.021413 -0.957781 0.020046 -0.738192 0.000000 0.000000
    35 1.164475 -2.543940 -0.170330 -0.927423 -0.422062 -0.157700
    36 0.024032 -1.129042 0.017807 -0.709851 0.000000 0.000001
    37 0.014898 -0.883989 -0.019848 -0.845482 0.000000 0.000000
    38 -0.586770 -1.264477 0.200161 0.013123 -0.080121 -2.491297
    39 1.522835 0.058681 0.016848 0.001410 0.008985 0.411553
    40 1.117947 0.048424 -0.005766 -0.016890 -0.018702 0.790664
    41 -0.139399 -0.111698 0.014397 0.653645 -0.030687 1.580508
    42 -1.393470 8.839177 -0.239433 1.580804 -0.005023 -1.566847
end
