// Created by Crowbar 0.34.0.0

$ModelName "weapons/tfa_cso/w_cartblue_b.mdl"

$BodyGroup "studio"
{
	studio "v_cartblue_b"
}

$collisionmodel "v_cartblue_b.smd"
{
	$mass 9
}

$CDMaterials "models\weapons\tfa_cso\cartblue\"

$attachment "0" "root" -0.00 -12.00 -0.55 rotate -0 0 0

$Sequence "idle" {
	"anims\idle.smd"
	fps 30
}