version 1
nodes
  0 "Bone01" -1
  1 "Bone_Lefthand" 0
  2 "NEXON_CSO_FNC_Root" 1
  3 "NEXON_CSO_FNC_Magazine" 2
  4 "NEXON_CSO_FNC_Spring_02" 2
  5 "NEXON_CSO_FNC_Spring_01" 2
  6 "NEXON_CSO_FNC_Trigger" 2
  7 "NEXON_CSO_FNC_Bullet" 2
  8 "NEXON_CSO_FNC_Plane" 2
  9 "NEXON_CSO_FNC_SP_door" 2
  10 "NEXON_CSO_FNC_Clip" 2
  11 "Bone04" -1
  12 "Bone_Righthand" 11
  13 "Bone27" 12
  14 "Bone28" 13
  15 "Bone29" 14
  16 "Bone31" 12
  17 "Bone32" 16
  18 "Bone33" 17
  19 "Bone35" 12
  20 "Bone36" 19
  21 "Bone37" 20
  22 "Bone39" 12
  23 "Bone40" 22
  24 "Bone41" 23
  25 "Bone43" 12
  26 "Bone44" 25
  27 "Bone45" 26
  28 "Bone_Se_Hand-R" 12
  29 "Bone05" 1
  30 "Bone06" 29
  31 "Bone07" 30
  32 "Bone21" 1
  33 "Bone22" 32
  34 "Bone23" 33
  35 "Bone17" 1
  36 "Bone18" 35
  37 "Bone19" 36
  38 "Bone13" 1
  39 "Bone14" 38
  40 "Bone15" 39
  41 "Bone09" 1
  42 "Bone10" 41
  43 "Bone11" 42
  44 "Bone_Se_Hand-L" 1
end
skeleton
  time 0
    0 6.896857 4.116659 -7.128826 -0.810477 -1.320356 0.584504
    1 -0.071916 -8.498730 -0.104136 0.353109 -0.156770 -0.180431
    2 0.129975 -2.388487 0.824890 -1.502018 1.440634 -1.487710
    3 -0.008696 -4.578129 1.124703 0.000000 0.000000 0.000000
    4 -0.247827 -1.150955 4.199792 1.263967 -0.000345 -1.570796
    5 -0.247888 -3.268787 4.200336 1.263967 -0.000345 -1.570796
    6 -0.000002 -1.794749 1.912829 0.000000 0.000000 0.000000
    7 -0.000005 -4.708170 3.700294 0.000000 0.000000 0.000000
    8 -0.296295 -3.447807 3.376961 0.000000 0.000000 0.000000
    9 -0.286066 -2.211739 4.024995 0.000000 0.313631 0.000000
    10 -0.000004 -18.231224 3.081039 0.000000 0.000000 0.000000
    11 -0.300303 -2.961691 -8.774516 0.721804 2.272222 1.043170
    12 0.096946 -8.450419 -0.009363 0.005734 -0.669566 0.386008
    13 -0.586769 -1.264477 0.200164 -0.191304 -0.133537 -2.293171
    14 1.522835 0.058680 0.016850 0.501041 -0.006533 0.327430
    15 1.117947 0.048424 -0.005765 0.319581 0.126210 -0.030533
    16 -0.963867 -2.785143 -0.085346 -0.264595 0.014442 -0.052098
    17 0.028478 -1.403067 0.006272 -1.726477 0.042514 -0.050154
    18 0.021412 -0.957782 0.020047 -0.688809 -0.000003 -0.000008
    19 -0.249534 -2.846963 -0.174215 -0.924613 -0.061545 0.074434
    20 0.043235 -1.683940 0.096015 -1.707373 0.124125 -0.010522
    21 0.031729 -1.160830 0.058836 -0.480623 0.000000 0.000000
    22 0.447951 -2.798983 -0.200441 -1.048577 0.025838 0.116509
    23 -0.032909 -1.480207 0.004935 -1.789897 0.000000 0.000000
    24 -0.027023 -1.076921 -0.020212 -0.547360 0.000000 0.000000
    25 1.164474 -2.543939 -0.170327 -0.760503 -0.097052 0.109088
    26 0.024033 -1.129040 0.017807 -1.479009 0.090496 -0.010104
    27 0.014896 -0.883992 -0.019846 -1.331652 0.000000 0.000000
    28 -0.041181 -0.128692 -0.025406 0.350878 0.089487 1.418299
    29 0.583509 -1.197274 0.185379 0.310502 -0.934076 -0.996676
    30 1.535926 0.010247 0.005009 -0.303061 0.037452 -0.923896
    31 1.100770 0.004528 -0.010675 -0.009995 -0.094546 -0.796770
    32 0.957766 -2.746777 -0.090301 -0.279592 -0.023091 0.102297
    33 -0.033419 -1.397128 -0.011255 -0.592000 -0.031987 -0.047195
    34 -0.022361 -0.957433 0.018783 -0.581830 0.000000 0.000000
    35 0.250029 -2.820664 -0.238396 -0.848862 -0.049350 -0.226558
    36 -0.049759 -1.680544 0.100479 -1.864034 0.000000 0.000000
    37 -0.034141 -1.148311 0.084779 -0.994530 0.000000 0.000000
    38 -0.488517 -2.755600 -0.228261 -1.058608 -0.055696 -0.251816
    39 0.039889 -1.479791 0.029854 -1.719486 0.000000 0.000000
    40 0.028785 -1.075733 -0.023110 -0.869091 0.000000 0.000000
    41 -1.180679 -2.507216 -0.193861 -0.771938 0.121797 -0.246379
    42 -0.024967 -1.123934 0.017595 -1.614968 0.000000 0.000000
    43 -0.020058 -0.890965 0.010091 -0.746271 0.011865 0.013351
    44 0.120180 -0.051600 -0.063059 0.012085 -2.987703 1.512552
  time 1
    0 6.896857 4.116659 -7.128826 -0.810477 -1.320356 0.584504
    1 -0.071916 -8.498730 -0.104136 0.353109 -0.156770 -0.180431
    2 0.129975 -2.388487 0.824890 -1.502018 1.440634 -1.487710
    3 -0.008696 -4.578129 1.124703 0.000000 0.000000 0.000000
    4 -0.247827 -1.150955 4.199792 1.263967 -0.000345 -1.570796
    5 -0.247888 -3.268787 4.200336 1.263967 -0.000345 -1.570796
    6 -0.000002 -1.794749 1.912829 0.000000 0.000000 0.000000
    7 -0.000005 -4.708170 3.700294 0.000000 0.000000 0.000000
    8 -0.296295 -3.447807 3.376961 0.000000 0.000000 0.000000
    9 -0.286066 -2.211739 4.024995 0.000000 0.313631 0.000000
    10 -0.000004 -18.231224 3.081039 0.000000 0.000000 0.000000
    11 -0.300303 -2.961691 -8.774516 0.721804 2.272222 1.043170
    12 0.096946 -8.450419 -0.009363 0.005734 -0.669566 0.386008
    13 -0.586769 -1.264477 0.200164 -0.191304 -0.133537 -2.293171
    14 1.522835 0.058680 0.016850 0.501041 -0.006533 0.327430
    15 1.117947 0.048424 -0.005765 0.319581 0.126210 -0.030533
    16 -0.963867 -2.785143 -0.085346 -0.264595 0.014442 -0.052098
    17 0.028478 -1.403067 0.006272 -1.726477 0.042514 -0.050154
    18 0.021412 -0.957782 0.020047 -0.688809 -0.000003 -0.000008
    19 -0.249534 -2.846963 -0.174215 -0.924613 -0.061545 0.074434
    20 0.043235 -1.683940 0.096015 -1.707373 0.124125 -0.010522
    21 0.031729 -1.160830 0.058836 -0.480623 0.000000 0.000000
    22 0.447951 -2.798983 -0.200441 -1.048577 0.025838 0.116509
    23 -0.032909 -1.480207 0.004935 -1.789897 0.000000 0.000000
    24 -0.027023 -1.076921 -0.020212 -0.547360 0.000000 0.000000
    25 1.164474 -2.543939 -0.170327 -0.760503 -0.097052 0.109088
    26 0.024033 -1.129040 0.017807 -1.479009 0.090496 -0.010104
    27 0.014896 -0.883992 -0.019846 -1.331652 0.000000 0.000000
    28 -0.041181 -0.128692 -0.025406 0.350878 0.089487 1.418299
    29 0.583509 -1.197274 0.185379 0.310502 -0.934076 -0.996676
    30 1.535926 0.010247 0.005009 -0.303061 0.037452 -0.923896
    31 1.100770 0.004528 -0.010675 -0.009995 -0.094546 -0.796770
    32 0.957766 -2.746777 -0.090301 -0.279592 -0.023091 0.102297
    33 -0.033419 -1.397128 -0.011255 -0.592000 -0.031987 -0.047195
    34 -0.022361 -0.957433 0.018783 -0.581830 0.000000 0.000000
    35 0.250029 -2.820664 -0.238396 -0.848862 -0.049350 -0.226558
    36 -0.049759 -1.680544 0.100479 -1.864034 0.000000 0.000000
    37 -0.034141 -1.148311 0.084779 -0.994530 0.000000 0.000000
    38 -0.488517 -2.755600 -0.228261 -1.058608 -0.055696 -0.251816
    39 0.039889 -1.479791 0.029854 -1.719486 0.000000 0.000000
    40 0.028785 -1.075733 -0.023110 -0.869091 0.000000 0.000000
    41 -1.180679 -2.507216 -0.193861 -0.771938 0.121797 -0.246379
    42 -0.024967 -1.123934 0.017595 -1.614968 0.000000 0.000000
    43 -0.020058 -0.890965 0.010091 -0.746271 0.011865 0.013351
    44 0.120180 -0.051600 -0.063059 0.012085 -2.987703 1.512552
end
