version 1
nodes
  0 "Bone01" -1
  1 "Bone_Lefthand" 0
  2 "NEXON_CSO_M24_Body" 1
  3 "NEXON_CSO_M24_Norishe" 2
  4 "NEXON_CSO_M24_Trigger" 2
  5 "NEXON_CSO_M24_Magazine" 2
  6 "NEXON_CSO_M24_Bullet" 5
  7 "Bone04" -1
  8 "Bone_Righthand" 7
  9 "Bone27" 8
  10 "Bone28" 9
  11 "Bone29" 10
  12 "Bone31" 8
  13 "Bone32" 12
  14 "Bone33" 13
  15 "Bone35" 8
  16 "Bone36" 15
  17 "Bone37" 16
  18 "Bone39" 8
  19 "Bone40" 18
  20 "Bone41" 19
  21 "Bone43" 8
  22 "Bone44" 21
  23 "Bone45" 22
  24 "Bone_Se_Hand-R" 8
  25 "Bone05" 1
  26 "Bone06" 25
  27 "Bone07" 26
  28 "Bone21" 1
  29 "Bone22" 28
  30 "Bone23" 29
  31 "Bone17" 1
  32 "Bone18" 31
  33 "Bone19" 32
  34 "Bone13" 1
  35 "Bone14" 34
  36 "Bone15" 35
  37 "Bone09" 1
  38 "Bone10" 37
  39 "Bone11" 38
  40 "Bone_Se_Hand-L" 1
end
skeleton
  time 0
    0 12.864200 -0.983472 -0.798433 0.650717 -0.859470 -1.557594
    1 -0.071918 -8.498731 -0.104136 -0.504175 0.679201 -0.934388
    2 1.054752 -2.729689 1.050994 0.643393 1.323936 1.130239
    3 0.016027 -1.766232 1.182266 0.000000 0.000000 0.000000
    4 0.001592 -1.782947 -0.252182 0.000000 0.000000 0.000000
    5 0.002707 -4.151098 0.297608 0.000000 0.000000 0.000000
    6 0.000000 -0.000001 0.652253 -1.570796 0.000000 -1.572542
    7 -0.421400 -0.313172 -2.586828 0.888522 0.365654 0.111008
    8 0.096946 -8.450419 -0.009363 0.181634 -0.662044 0.151551
    9 -0.586769 -1.264477 0.200164 -0.038359 -0.234500 -2.188560
    10 1.522835 0.058680 0.016850 0.000014 0.000010 0.131637
    11 1.117947 0.048424 -0.005765 0.000000 0.000000 0.104206
    12 -0.963867 -2.785143 -0.085346 0.224855 0.147939 0.084275
    13 0.028478 -1.403067 0.006272 -0.460197 -0.000007 -0.000010
    14 0.021412 -0.957782 0.020047 -0.782818 -0.000003 -0.000008
    15 -0.249534 -2.846963 -0.174215 0.273888 0.031983 0.107404
    16 0.043235 -1.683940 0.096015 -1.794454 -0.002684 -0.000611
    17 0.031729 -1.160830 0.058836 -0.492812 0.000000 0.000000
    18 0.447951 -2.798983 -0.200441 -0.089195 0.052455 0.140994
    19 -0.032909 -1.480207 0.004935 -1.740899 0.000000 0.000000
    20 -0.027023 -1.076921 -0.020212 -0.750447 0.000000 0.000000
    21 1.164474 -2.543939 -0.170327 -0.798863 0.035007 0.072044
    22 0.024033 -1.129040 0.017807 -1.576980 -0.020326 0.095001
    23 0.014896 -0.883992 -0.019846 -1.454058 0.101857 0.002205
    24 -0.123215 -0.116973 0.005845 0.342810 0.033999 1.471402
    25 0.583509 -1.197274 0.185379 -0.316868 -0.934124 -0.591403
    26 1.535926 0.010247 0.005009 -0.077271 -0.063135 -0.992232
    27 1.100770 0.004528 -0.010675 0.036098 0.150131 -0.654132
    28 0.957766 -2.746777 -0.090301 -0.015248 -0.045538 0.176122
    29 -0.033419 -1.397128 -0.011255 -0.349227 0.000000 0.000000
    30 -0.022361 -0.957433 0.018783 -0.811565 0.000000 0.000000
    31 0.250029 -2.820664 -0.238396 -0.763388 0.057277 -0.106688
    32 -0.049759 -1.680544 0.100479 -1.613606 0.000000 0.000000
    33 -0.034141 -1.148311 0.084779 -1.193267 0.000000 0.000000
    34 -0.488517 -2.755600 -0.228261 -0.639569 0.054586 -0.144146
    35 0.039889 -1.479791 0.029854 -1.617533 0.000000 0.000000
    36 0.028785 -1.075733 -0.023110 -0.841832 0.000000 0.000000
    37 -1.180679 -2.507216 -0.193861 -0.260565 0.123427 -0.000527
    38 -0.024967 -1.123934 0.017595 -1.253816 0.000000 0.000000
    39 -0.020058 -0.890965 0.010091 -0.839123 0.000000 0.000000
    40 0.120180 -0.051600 -0.063059 0.012085 -2.987703 1.512552
  time 1
    0 12.856387 -0.624086 -1.165632 0.635508 -0.908411 -1.538427
    1 -0.071918 -8.498731 -0.104136 -0.442285 0.656490 -0.873088
    2 1.054752 -2.729689 1.050994 0.643393 1.323936 1.130239
    3 0.016027 -1.766232 1.182266 0.000000 0.000000 0.000000
    4 0.001592 -1.782947 -0.252182 0.000000 0.000000 0.000000
    5 0.002707 -4.151098 0.297608 0.000000 0.000000 0.000000
    6 0.000000 -0.000001 0.652253 -1.570796 0.000000 -1.572542
    7 -0.210456 -0.418644 -2.610266 0.874365 0.473508 0.145096
    8 0.096946 -8.450419 -0.009363 0.166688 -0.618638 0.156153
    9 -0.586769 -1.264477 0.200164 -0.034580 -0.235270 -2.204789
    10 1.522835 0.058680 0.016850 0.000014 0.000010 0.145340
    11 1.117947 0.048424 -0.005765 0.000000 0.000000 0.087101
    12 -0.963867 -2.785143 -0.085346 0.225820 0.151618 0.070912
    13 0.028478 -1.403067 0.006272 -0.431275 -0.000007 -0.000010
    14 0.021412 -0.957782 0.020047 -0.726655 -0.000003 -0.000008
    15 -0.249534 -2.846963 -0.174215 0.250942 0.027105 0.102119
    16 0.043235 -1.683940 0.096015 -1.780417 -0.002684 -0.000611
    17 0.031729 -1.160830 0.058836 -0.514798 0.000000 0.000000
    18 0.447951 -2.798983 -0.200441 -0.129622 0.050202 0.138945
    19 -0.032909 -1.480207 0.004935 -1.719498 0.000000 0.000000
    20 -0.027023 -1.076921 -0.020212 -0.766348 0.000000 0.000000
    21 1.164474 -2.543939 -0.170327 -0.790753 0.035007 0.072044
    22 0.024033 -1.129040 0.017807 -1.569080 -0.020326 0.095001
    23 0.014896 -0.883992 -0.019846 -1.404639 0.101857 0.002205
    24 -0.123215 -0.116973 0.005845 0.342810 0.033999 1.471402
    25 0.583509 -1.197274 0.185379 -0.316868 -0.934124 -0.591403
    26 1.535926 0.010247 0.005009 -0.077271 -0.063135 -0.992232
    27 1.100770 0.004528 -0.010675 0.034300 0.145289 -0.662187
    28 0.957766 -2.746777 -0.090301 -0.015248 -0.045538 0.176122
    29 -0.033419 -1.397128 -0.011255 -0.349227 0.000000 0.000000
    30 -0.022361 -0.957433 0.018783 -0.811565 0.000000 0.000000
    31 0.250029 -2.820664 -0.238396 -0.763388 0.057277 -0.106688
    32 -0.049759 -1.680544 0.100479 -1.613606 0.000000 0.000000
    33 -0.034141 -1.148311 0.084779 -1.193267 0.000000 0.000000
    34 -0.488517 -2.755600 -0.228261 -0.639569 0.054586 -0.144146
    35 0.039889 -1.479791 0.029854 -1.617533 0.000000 0.000000
    36 0.028785 -1.075733 -0.023110 -0.841832 0.000000 0.000000
    37 -1.180679 -2.507216 -0.193861 -0.260565 0.123427 -0.000527
    38 -0.024967 -1.123934 0.017595 -1.253816 0.000000 0.000000
    39 -0.020058 -0.890965 0.010091 -0.839123 0.000000 0.000000
    40 0.120180 -0.051600 -0.063059 0.012085 -2.987703 1.512552
  time 2
    0 12.852481 -0.288139 -1.505486 0.615403 -0.961223 -1.514276
    1 -0.071918 -8.498731 -0.104136 -0.379890 0.629017 -0.810835
    2 1.054752 -2.729689 1.050994 0.643393 1.323936 1.130239
    3 0.016027 -1.766232 1.182266 0.000000 0.000000 0.000000
    4 0.001592 -1.782947 -0.252182 0.000000 0.000000 0.000000
    5 0.002707 -4.151098 0.297608 0.000000 0.000000 0.000000
    6 0.000000 -0.000001 0.652253 -1.570796 0.000000 -1.572542
    7 -0.026857 -0.531929 -2.661049 0.870436 0.588851 0.185078
    8 0.096946 -8.450419 -0.009363 0.150292 -0.571312 0.160331
    9 -0.586769 -1.264477 0.200164 -0.030541 -0.236378 -2.222074
    10 1.522835 0.058680 0.016850 0.000014 0.000010 0.159898
    11 1.117947 0.048424 -0.005765 0.000000 0.000000 0.068331
    12 -0.963867 -2.785143 -0.085346 0.226785 0.155645 0.056386
    13 0.028478 -1.403067 0.006272 -0.399813 -0.000007 -0.000010
    14 0.021412 -0.957782 0.020047 -0.665545 -0.000003 -0.000008
    15 -0.249534 -2.846963 -0.174215 0.226025 0.021664 0.096510
    16 0.043235 -1.683940 0.096015 -1.765150 -0.002684 -0.000611
    17 0.031729 -1.160830 0.058836 -0.538740 0.000000 0.000000
    18 0.447951 -2.798983 -0.200441 -0.173588 0.047709 0.136883
    19 -0.032909 -1.480207 0.004935 -1.696267 0.000000 0.000000
    20 -0.027023 -1.076921 -0.020212 -0.783677 0.000000 0.000000
    21 1.164474 -2.543939 -0.170327 -0.781949 0.035007 0.072044
    22 0.024033 -1.129040 0.017807 -1.560473 -0.020326 0.095001
    23 0.014896 -0.883992 -0.019846 -1.350884 0.101857 0.002205
    24 -0.123215 -0.116973 0.005845 0.342810 0.033999 1.471402
    25 0.583509 -1.197274 0.185379 -0.316868 -0.934124 -0.591403
    26 1.535926 0.010247 0.005009 -0.077271 -0.063135 -0.992232
    27 1.100770 0.004528 -0.010675 0.032562 0.140423 -0.670228
    28 0.957766 -2.746777 -0.090301 -0.015248 -0.045538 0.176122
    29 -0.033419 -1.397128 -0.011255 -0.349227 0.000000 0.000000
    30 -0.022361 -0.957433 0.018783 -0.811565 0.000000 0.000000
    31 0.250029 -2.820664 -0.238396 -0.763388 0.057277 -0.106688
    32 -0.049759 -1.680544 0.100479 -1.613606 0.000000 0.000000
    33 -0.034141 -1.148311 0.084779 -1.193267 0.000000 0.000000
    34 -0.488517 -2.755600 -0.228261 -0.639569 0.054586 -0.144146
    35 0.039889 -1.479791 0.029854 -1.617533 0.000000 0.000000
    36 0.028785 -1.075733 -0.023110 -0.841832 0.000000 0.000000
    37 -1.180679 -2.507216 -0.193861 -0.260565 0.123427 -0.000527
    38 -0.024967 -1.123934 0.017595 -1.253816 0.000000 0.000000
    39 -0.020058 -0.890965 0.010091 -0.839123 0.000000 0.000000
    40 0.120180 -0.051600 -0.063059 0.012085 -2.987703 1.512552
  time 3
    0 12.848575 0.024371 -1.810183 0.589363 -1.016386 -1.484184
    1 -0.071918 -8.498731 -0.104136 -0.318674 0.597149 -0.749421
    2 1.054752 -2.729689 1.050994 0.643393 1.323936 1.130239
    3 0.016027 -1.766232 1.182266 0.000000 0.000000 0.000000
    4 0.001592 -1.782947 -0.252182 0.000000 0.000000 0.000000
    5 0.002707 -4.151098 0.297608 0.000000 0.000000 0.000000
    6 0.000000 -0.000001 0.652253 -1.570796 0.000000 -1.572542
    7 0.133304 -0.656933 -2.743082 0.877107 0.708674 0.232147
    8 0.096946 -8.450419 -0.009363 0.133240 -0.521500 0.163676
    9 -0.586769 -1.264477 0.200164 -0.026278 -0.237716 -2.240252
    10 1.522835 0.058680 0.016850 0.000014 0.000010 0.175166
    11 1.117947 0.048424 -0.005765 0.000000 0.000000 0.048168
    12 -0.963867 -2.785143 -0.085346 0.227778 0.159947 0.040902
    13 0.028478 -1.403067 0.006272 -0.366291 -0.000007 -0.000010
    14 0.021412 -0.957782 0.020047 -0.600449 -0.000003 -0.000008
    15 -0.249534 -2.846963 -0.174215 0.199491 0.015707 0.090685
    16 0.043235 -1.683940 0.096015 -1.748882 -0.002684 -0.000611
    17 0.031729 -1.160830 0.058836 -0.564205 0.000000 0.000000
    18 0.447951 -2.798983 -0.200441 -0.220374 0.045001 0.134846
    19 -0.032909 -1.480207 0.004935 -1.671466 0.000000 0.000000
    20 -0.027023 -1.076921 -0.020212 -0.802094 0.000000 0.000000
    21 1.164474 -2.543939 -0.170327 -0.772570 0.035007 0.072044
    22 0.024033 -1.129040 0.017807 -1.551317 -0.020326 0.095001
    23 0.014896 -0.883992 -0.019846 -1.293667 0.101857 0.002205
    24 -0.123215 -0.116973 0.005845 0.342810 0.033999 1.471402
    25 0.583509 -1.197274 0.185379 -0.316868 -0.934124 -0.591403
    26 1.535926 0.010247 0.005009 -0.077271 -0.063135 -0.992232
    27 1.100770 0.004528 -0.010675 0.030848 0.135558 -0.678255
    28 0.957766 -2.746777 -0.090301 -0.015248 -0.045538 0.176122
    29 -0.033419 -1.397128 -0.011255 -0.349227 0.000000 0.000000
    30 -0.022361 -0.957433 0.018783 -0.811565 0.000000 0.000000
    31 0.250029 -2.820664 -0.238396 -0.763388 0.057277 -0.106688
    32 -0.049759 -1.680544 0.100479 -1.613606 0.000000 0.000000
    33 -0.034141 -1.148311 0.084779 -1.193267 0.000000 0.000000
    34 -0.488517 -2.755600 -0.228261 -0.639569 0.054586 -0.144146
    35 0.039889 -1.479791 0.029854 -1.617533 0.000000 0.000000
    36 0.028785 -1.075733 -0.023110 -0.841832 0.000000 0.000000
    37 -1.180679 -2.507216 -0.193861 -0.260565 0.123427 -0.000527
    38 -0.024967 -1.123934 0.017595 -1.253816 0.000000 0.000000
    39 -0.020058 -0.890965 0.010091 -0.839123 0.000000 0.000000
    40 0.120180 -0.051600 -0.063059 0.012085 -2.987703 1.512552
  time 4
    0 12.848575 0.321255 -2.079722 0.556201 -1.072381 -1.447000
    1 -0.071918 -8.498731 -0.104136 -0.260001 0.561467 -0.690349
    2 1.054752 -2.729689 1.050994 0.643393 1.323936 1.130239
    3 0.016027 -1.766232 1.182266 0.000000 0.000000 0.000000
    4 0.001592 -1.782947 -0.252182 0.000000 0.000000 0.000000
    5 0.002707 -4.151098 0.297608 0.000000 0.000000 0.000000
    6 0.000000 -0.000001 0.652253 -1.570796 0.000000 -1.572542
    7 0.270027 -0.789749 -2.852461 0.895118 0.829834 0.288137
    8 0.096946 -8.450419 -0.009363 0.116361 -0.470632 0.166055
    9 -0.586769 -1.264477 0.200164 -0.021843 -0.239209 -2.259087
    10 1.522835 0.058680 0.016850 0.000014 0.000010 0.190962
    11 1.117947 0.048424 -0.005765 0.000000 0.000000 0.026999
    12 -0.963867 -2.785143 -0.085346 0.228716 0.164466 0.024711
    13 0.028478 -1.403067 0.006272 -0.331297 -0.000007 -0.000010
    14 0.021412 -0.957782 0.020047 -0.532414 -0.000003 -0.000008
    15 -0.249534 -2.846963 -0.174215 0.171814 0.009320 0.084765
    16 0.043235 -1.683940 0.096015 -1.731884 -0.002684 -0.000611
    17 0.031729 -1.160830 0.058836 -0.590854 0.000000 0.000000
    18 0.447951 -2.798983 -0.200441 -0.269309 0.042089 0.132880
    19 -0.032909 -1.480207 0.004935 -1.645576 0.000000 0.000000
    20 -0.027023 -1.076921 -0.020212 -0.821379 0.000000 0.000000
    21 1.164474 -2.543939 -0.170327 -0.762755 0.035007 0.072044
    22 0.024033 -1.129040 0.017807 -1.541742 -0.020326 0.095001
    23 0.014896 -0.883992 -0.019846 -1.233822 0.101857 0.002205
    24 -0.123215 -0.116973 0.005845 0.342810 0.033999 1.471402
    25 0.583509 -1.197274 0.185379 -0.316868 -0.934124 -0.591403
    26 1.535926 0.010247 0.005009 -0.077271 -0.063135 -0.992232
    27 1.100770 0.004528 -0.010675 0.029182 0.130668 -0.686254
    28 0.957766 -2.746777 -0.090301 -0.015248 -0.045538 0.176122
    29 -0.033419 -1.397128 -0.011255 -0.349227 0.000000 0.000000
    30 -0.022361 -0.957433 0.018783 -0.811565 0.000000 0.000000
    31 0.250029 -2.820664 -0.238396 -0.763388 0.057277 -0.106688
    32 -0.049759 -1.680544 0.100479 -1.613606 0.000000 0.000000
    33 -0.034141 -1.148311 0.084779 -1.193267 0.000000 0.000000
    34 -0.488517 -2.755600 -0.228261 -0.639569 0.054586 -0.144146
    35 0.039889 -1.479791 0.029854 -1.617533 0.000000 0.000000
    36 0.028785 -1.075733 -0.023110 -0.841832 0.000000 0.000000
    37 -1.180679 -2.507216 -0.193861 -0.260565 0.123427 -0.000527
    38 -0.024967 -1.123934 0.017595 -1.253816 0.000000 0.000000
    39 -0.020058 -0.890965 0.010091 -0.839123 0.000000 0.000000
    40 0.120180 -0.051600 -0.063059 0.012085 -2.987703 1.512552
  time 5
    0 12.848575 0.590794 -2.318011 0.514359 -1.127659 -1.401191
    1 -0.071918 -8.498731 -0.104136 -0.204864 0.522788 -0.634764
    2 1.054752 -2.729689 1.050994 0.643393 1.323936 1.130239
    3 0.016027 -1.766232 1.182266 0.000000 0.000000 0.000000
    4 0.001592 -1.782947 -0.252182 0.000000 0.000000 0.000000
    5 0.002707 -4.151098 0.297608 0.000000 0.000000 0.000000
    6 0.000000 -0.000001 0.652253 -1.570796 0.000000 -1.572542
    7 0.383312 -0.934285 -2.993090 0.926101 0.949189 0.355516
    8 0.096946 -8.450419 -0.009363 0.100241 -0.420257 0.167428
    9 -0.586769 -1.264477 0.200164 -0.017252 -0.240764 -2.278392
    10 1.522835 0.058680 0.016850 0.000014 0.000010 0.207103
    11 1.117947 0.048424 -0.005765 0.000000 0.000000 0.005133
    12 -0.963867 -2.785143 -0.085346 0.229626 0.169128 0.008053
    13 0.028478 -1.403067 0.006272 -0.295235 -0.000007 -0.000010
    14 0.021412 -0.957782 0.020047 -0.462401 -0.000003 -0.000008
    15 -0.249534 -2.846963 -0.174215 0.143349 0.002584 0.078880
    16 0.043235 -1.683940 0.096015 -1.714386 -0.002684 -0.000611
    17 0.031729 -1.160830 0.058836 -0.618275 0.000000 0.000000
    18 0.447951 -2.798983 -0.200441 -0.319633 0.039021 0.131023
    19 -0.032909 -1.480207 0.004935 -1.618901 0.000000 0.000000
    20 -0.027023 -1.076921 -0.020212 -0.841224 0.000000 0.000000
    21 1.164474 -2.543939 -0.170327 -0.752682 0.035007 0.072044
    22 0.024033 -1.129040 0.017807 -1.531880 -0.020326 0.095001
    23 0.014896 -0.883992 -0.019846 -1.172246 0.101857 0.002205
    24 -0.123215 -0.116973 0.005845 0.342810 0.033999 1.471402
    25 0.583509 -1.197274 0.185379 -0.316868 -0.934124 -0.591403
    26 1.535926 0.010247 0.005009 -0.077271 -0.063135 -0.992232
    27 1.100770 0.004528 -0.010675 0.027565 0.125766 -0.694254
    28 0.957766 -2.746777 -0.090301 -0.015248 -0.045538 0.176122
    29 -0.033419 -1.397128 -0.011255 -0.349227 0.000000 0.000000
    30 -0.022361 -0.957433 0.018783 -0.811565 0.000000 0.000000
    31 0.250029 -2.820664 -0.238396 -0.763388 0.057277 -0.106688
    32 -0.049759 -1.680544 0.100479 -1.613606 0.000000 0.000000
    33 -0.034141 -1.148311 0.084779 -1.193267 0.000000 0.000000
    34 -0.488517 -2.755600 -0.228261 -0.639569 0.054586 -0.144146
    35 0.039889 -1.479791 0.029854 -1.617533 0.000000 0.000000
    36 0.028785 -1.075733 -0.023110 -0.841832 0.000000 0.000000
    37 -1.180679 -2.507216 -0.193861 -0.260565 0.123427 -0.000527
    38 -0.024967 -1.123934 0.017595 -1.253816 0.000000 0.000000
    39 -0.020058 -0.890965 0.010091 -0.839123 0.000000 0.000000
    40 0.120180 -0.051600 -0.063059 0.012085 -2.987703 1.512552
  time 6
    0 12.852481 0.844708 -2.525048 0.462205 -1.180585 -1.345127
    1 -0.071918 -8.498731 -0.104136 -0.153953 0.482145 -0.583483
    2 1.054752 -2.729689 1.050994 0.643393 1.323936 1.130239
    3 0.016027 -1.766232 1.182266 0.000000 0.000000 0.000000
    4 0.001592 -1.782947 -0.252182 0.000000 0.000000 0.000000
    5 0.002707 -4.151098 0.297608 0.000000 0.000000 0.000000
    6 0.000000 -0.000001 0.652253 -1.570796 0.000000 -1.572542
    7 0.469252 -1.086633 -3.161064 0.972648 1.063730 0.437868
    8 0.096946 -8.450419 -0.009363 0.085536 -0.371806 0.167854
    9 -0.586769 -1.264477 0.200164 -0.012575 -0.242318 -2.297908
    10 1.522835 0.058680 0.016850 0.000014 0.000010 0.223408
    11 1.117947 0.048424 -0.005765 0.000000 0.000000 -0.017043
    12 -0.963867 -2.785143 -0.085346 0.230453 0.173861 -0.008858
    13 0.028478 -1.403067 0.006272 -0.258696 -0.000007 -0.000010
    14 0.021412 -0.957782 0.020047 -0.391398 -0.000003 -0.000008
    15 -0.249534 -2.846963 -0.174215 0.114568 -0.004415 0.073092
    16 0.043235 -1.683940 0.096015 -1.696619 -0.002684 -0.000611
    17 0.031729 -1.160830 0.058836 -0.646060 0.000000 0.000000
    18 0.447951 -2.798983 -0.200441 -0.370673 0.035821 0.129309
    19 -0.032909 -1.480207 0.004935 -1.591877 0.000000 0.000000
    20 -0.027023 -1.076921 -0.020212 -0.861318 0.000000 0.000000
    21 1.164474 -2.543939 -0.170327 -0.742450 0.035007 0.072044
    22 0.024033 -1.129040 0.017807 -1.521887 -0.020326 0.095001
    23 0.014896 -0.883992 -0.019846 -1.109816 0.101857 0.002205
    24 -0.123215 -0.116973 0.005845 0.342810 0.033999 1.471402
    25 0.583509 -1.197274 0.185379 -0.316868 -0.934124 -0.591403
    26 1.535926 0.010247 0.005009 -0.077271 -0.063135 -0.992232
    27 1.100770 0.004528 -0.010675 0.025971 0.120853 -0.702240
    28 0.957766 -2.746777 -0.090301 -0.015248 -0.045538 0.176122
    29 -0.033419 -1.397128 -0.011255 -0.349227 0.000000 0.000000
    30 -0.022361 -0.957433 0.018783 -0.811565 0.000000 0.000000
    31 0.250029 -2.820664 -0.238396 -0.763388 0.057277 -0.106688
    32 -0.049759 -1.680544 0.100479 -1.613606 0.000000 0.000000
    33 -0.034141 -1.148311 0.084779 -1.193267 0.000000 0.000000
    34 -0.488517 -2.755600 -0.228261 -0.639569 0.054586 -0.144146
    35 0.039889 -1.479791 0.029854 -1.617533 0.000000 0.000000
    36 0.028785 -1.075733 -0.023110 -0.841832 0.000000 0.000000
    37 -1.180679 -2.507216 -0.193861 -0.260565 0.123427 -0.000527
    38 -0.024967 -1.123934 0.017595 -1.253816 0.000000 0.000000
    39 -0.020058 -0.890965 0.010091 -0.839123 0.000000 0.000000
    40 0.120180 -0.051600 -0.063059 0.012085 -2.987703 1.512552
  time 7
    0 12.856387 1.075184 -2.696929 0.397958 -1.229641 -1.277180
    1 -0.071918 -8.498731 -0.104136 -0.107624 0.440652 -0.537041
    2 1.054752 -2.729689 1.050994 0.643393 1.323936 1.130239
    3 0.016027 -1.766232 1.182266 0.000000 0.000000 0.000000
    4 0.001592 -1.782947 -0.252182 0.000000 0.000000 0.000000
    5 0.002707 -4.151098 0.297608 0.000000 0.000000 0.000000
    6 0.000000 -0.000001 0.652253 -1.570796 0.000000 -1.572542
    7 0.535660 -1.250701 -3.356382 1.038763 1.170514 0.539972
    8 0.096946 -8.450419 -0.009363 0.072764 -0.326757 0.167544
    9 -0.586769 -1.264477 0.200164 -0.007881 -0.243765 -2.317448
    10 1.522835 0.058680 0.016850 0.000014 0.000010 0.239732
    11 1.117947 0.048424 -0.005765 0.000000 0.000000 -0.039218
    12 -0.963867 -2.785143 -0.085346 0.231226 0.178619 -0.025780
    13 0.028478 -1.403067 0.006272 -0.222156 -0.000007 -0.000010
    14 0.021412 -0.957782 0.020047 -0.320395 -0.000003 -0.000008
    15 -0.249534 -2.846963 -0.174215 0.085787 -0.011581 0.067507
    16 0.043235 -1.683940 0.096015 -1.678890 -0.002684 -0.000611
    17 0.031729 -1.160830 0.058836 -0.673868 0.000000 0.000000
    18 0.447951 -2.798983 -0.200441 -0.421671 0.032537 0.127763
    19 -0.032909 -1.480207 0.004935 -1.564854 0.000000 0.000000
    20 -0.027023 -1.076921 -0.020212 -0.881442 0.000000 0.000000
    21 1.164474 -2.543939 -0.170327 -0.732219 0.035007 0.072044
    22 0.024033 -1.129040 0.017807 -1.511920 -0.020326 0.095001
    23 0.014896 -0.883992 -0.019846 -1.047365 0.101857 0.002205
    24 -0.123215 -0.116973 0.005845 0.342810 0.033999 1.471402
    25 0.583509 -1.197274 0.185379 -0.316868 -0.934124 -0.591403
    26 1.535926 0.010247 0.005009 -0.077271 -0.063135 -0.992232
    27 1.100770 0.004528 -0.010675 0.024425 0.115927 -0.710226
    28 0.957766 -2.746777 -0.090301 -0.015248 -0.045538 0.176122
    29 -0.033419 -1.397128 -0.011255 -0.349227 0.000000 0.000000
    30 -0.022361 -0.957433 0.018783 -0.811565 0.000000 0.000000
    31 0.250029 -2.820664 -0.238396 -0.763388 0.057277 -0.106688
    32 -0.049759 -1.680544 0.100479 -1.613606 0.000000 0.000000
    33 -0.034141 -1.148311 0.084779 -1.193267 0.000000 0.000000
    34 -0.488517 -2.755600 -0.228261 -0.639569 0.054586 -0.144146
    35 0.039889 -1.479791 0.029854 -1.617533 0.000000 0.000000
    36 0.028785 -1.075733 -0.023110 -0.841832 0.000000 0.000000
    37 -1.180679 -2.507216 -0.193861 -0.260565 0.123427 -0.000527
    38 -0.024967 -1.123934 0.017595 -1.253816 0.000000 0.000000
    39 -0.020058 -0.890965 0.010091 -0.839123 0.000000 0.000000
    40 0.120180 -0.051600 -0.063059 0.012085 -2.987703 1.512552
  time 8
    0 12.864200 1.282222 -2.837558 0.321024 -1.273279 -1.196678
    1 -0.071918 -8.498731 -0.104136 -0.066065 0.399509 -0.495781
    2 1.054752 -2.729689 1.050994 0.643393 1.323936 1.130239
    3 0.016027 -1.766232 1.182266 0.000000 0.000000 0.000000
    4 0.001592 -1.782947 -0.252182 0.000000 0.000000 0.000000
    5 0.002707 -4.151098 0.297608 0.000000 0.000000 0.000000
    6 0.000000 -0.000001 0.652253 -1.570796 0.000000 -1.572542
    7 0.574724 -1.422581 -3.582952 1.130005 1.267002 0.668119
    8 0.096946 -8.450419 -0.009363 0.062513 -0.286611 0.166751
    9 -0.586769 -1.264477 0.200164 -0.003204 -0.245057 -2.336777
    10 1.522835 0.058680 0.016850 0.000014 0.000010 0.255855
    11 1.117947 0.048424 -0.005765 0.000000 0.000000 -0.061084
    12 -0.963867 -2.785143 -0.085346 0.231888 0.183317 -0.042474
    13 0.028478 -1.403067 0.006272 -0.186095 -0.000007 -0.000010
    14 0.021412 -0.957782 0.020047 -0.250381 -0.000003 -0.000008
    15 -0.249534 -2.846963 -0.174215 0.057480 -0.018808 0.062198
    16 0.043235 -1.683940 0.096015 -1.661392 -0.002684 -0.000611
    17 0.031729 -1.160830 0.058836 -0.701290 0.000000 0.000000
    18 0.447951 -2.798983 -0.200441 -0.471995 0.029205 0.126397
    19 -0.032909 -1.480207 0.004935 -1.538179 0.000000 0.000000
    20 -0.027023 -1.076921 -0.020212 -0.901287 0.000000 0.000000
    21 1.164474 -2.543939 -0.170327 -0.722126 0.035007 0.072044
    22 0.024033 -1.129040 0.017807 -1.502057 -0.020326 0.095001
    23 0.014896 -0.883992 -0.019846 -0.985810 0.101857 0.002205
    24 -0.123215 -0.116973 0.005845 0.342810 0.033999 1.471402
    25 0.583509 -1.197274 0.185379 -0.316868 -0.934124 -0.591403
    26 1.535926 0.010247 0.005009 -0.077271 -0.063135 -0.992232
    27 1.100770 0.004528 -0.010675 0.022927 0.111001 -0.718184
    28 0.957766 -2.746777 -0.090301 -0.015248 -0.045538 0.176122
    29 -0.033419 -1.397128 -0.011255 -0.349227 0.000000 0.000000
    30 -0.022361 -0.957433 0.018783 -0.811565 0.000000 0.000000
    31 0.250029 -2.820664 -0.238396 -0.763388 0.057277 -0.106688
    32 -0.049759 -1.680544 0.100479 -1.613606 0.000000 0.000000
    33 -0.034141 -1.148311 0.084779 -1.193267 0.000000 0.000000
    34 -0.488517 -2.755600 -0.228261 -0.639569 0.054586 -0.144146
    35 0.039889 -1.479791 0.029854 -1.617533 0.000000 0.000000
    36 0.028785 -1.075733 -0.023110 -0.841832 0.000000 0.000000
    37 -1.180679 -2.507216 -0.193861 -0.260565 0.123427 -0.000527
    38 -0.024967 -1.123934 0.017595 -1.253816 0.000000 0.000000
    39 -0.020058 -0.890965 0.010091 -0.839123 0.000000 0.000000
    40 0.120180 -0.051600 -0.063059 0.012085 -2.987703 1.512552
  time 9
    0 12.875919 1.469727 -2.943030 0.232963 -1.310178 -1.105155
    1 -0.071918 -8.498731 -0.104136 -0.029313 0.359965 -0.459854
    2 1.054752 -2.729689 1.050994 0.643393 1.323936 1.130239
    3 0.016027 -1.766232 1.182266 0.000000 0.000000 0.000000
    4 0.001592 -1.782947 -0.252182 0.000000 0.000000 0.000000
    5 0.002707 -4.151098 0.297608 0.000000 0.000000 0.000000
    6 0.000000 -0.000001 0.652253 -1.570796 0.000000 -1.572542
    7 0.590349 -1.606180 -3.836866 1.253267 1.351386 0.829637
    8 0.096946 -8.450419 -0.009363 0.055402 -0.252848 0.165765
    9 -0.586769 -1.264477 0.200164 0.001387 -0.246135 -2.355682
    10 1.522835 0.058680 0.016850 0.000014 0.000010 0.271651
    11 1.117947 0.048424 -0.005765 0.000000 0.000000 -0.082253
    12 -0.963867 -2.785143 -0.085346 0.232467 0.187895 -0.058714
    13 0.028478 -1.403067 0.006272 -0.151064 -0.000007 -0.000010
    14 0.021412 -0.957782 0.020047 -0.182346 -0.000003 -0.000008
    15 -0.249534 -2.846963 -0.174215 0.029960 -0.025963 0.057236
    16 0.043235 -1.683940 0.096015 -1.644394 -0.002684 -0.000611
    17 0.031729 -1.160830 0.058836 -0.727938 0.000000 0.000000
    18 0.447951 -2.798983 -0.200441 -0.520845 0.025921 0.125210
    19 -0.032909 -1.480207 0.004935 -1.512288 0.000000 0.000000
    20 -0.027023 -1.076921 -0.020212 -0.920573 0.000000 0.000000
    21 1.164474 -2.543939 -0.170327 -0.712330 0.035007 0.072044
    22 0.024033 -1.129040 0.017807 -1.492482 -0.020326 0.095001
    23 0.014896 -0.883992 -0.019846 -0.925966 0.101857 0.002205
    24 -0.123215 -0.116973 0.005845 0.342810 0.033999 1.471402
    25 0.583509 -1.197274 0.185379 -0.316868 -0.934124 -0.591403
    26 1.535926 0.010247 0.005009 -0.077271 -0.063135 -0.992232
    27 1.100770 0.004528 -0.010675 0.021464 0.106052 -0.726129
    28 0.957766 -2.746777 -0.090301 -0.015248 -0.045538 0.176122
    29 -0.033419 -1.397128 -0.011255 -0.349227 0.000000 0.000000
    30 -0.022361 -0.957433 0.018783 -0.811565 0.000000 0.000000
    31 0.250029 -2.820664 -0.238396 -0.763388 0.057277 -0.106688
    32 -0.049759 -1.680544 0.100479 -1.613606 0.000000 0.000000
    33 -0.034141 -1.148311 0.084779 -1.193267 0.000000 0.000000
    34 -0.488517 -2.755600 -0.228261 -0.639569 0.054586 -0.144146
    35 0.039889 -1.479791 0.029854 -1.617533 0.000000 0.000000
    36 0.028785 -1.075733 -0.023110 -0.841832 0.000000 0.000000
    37 -1.180679 -2.507216 -0.193861 -0.260565 0.123427 -0.000527
    38 -0.024967 -1.123934 0.017595 -1.253816 0.000000 0.000000
    39 -0.020058 -0.890965 0.010091 -0.839123 0.000000 0.000000
    40 0.120180 -0.051600 -0.063059 0.012085 -2.987703 1.512552
  time 10
    0 12.887638 1.637701 -3.013345 0.139857 -1.339480 -1.008937
    1 -0.071918 -8.498731 -0.104136 0.002726 0.323268 -0.429433
    2 1.054752 -2.729689 1.050994 0.643393 1.323936 1.130239
    3 0.016027 -1.766232 1.182266 0.000000 0.000000 0.000000
    4 0.001592 -1.782947 -0.252182 0.000000 0.000000 0.000000
    5 0.002707 -4.151098 0.297608 0.000000 0.000000 0.000000
    6 0.000000 -0.000001 0.652253 -1.570796 0.000000 -1.572542
    7 0.582537 -1.797593 -4.122031 1.414775 1.422999 1.031296
    8 0.096946 -8.450419 -0.009363 0.052088 -0.226874 0.164856
    9 -0.586769 -1.264477 0.200164 0.005822 -0.246904 -2.373930
    10 1.522835 0.058680 0.016850 0.000014 0.000010 0.286919
    11 1.117947 0.048424 -0.005765 0.000000 0.000000 -0.102416
    12 -0.963867 -2.785143 -0.085346 0.232936 0.192282 -0.074258
    13 0.028478 -1.403067 0.006272 -0.117579 -0.000007 -0.000010
    14 0.021412 -0.957782 0.020047 -0.117251 -0.000003 -0.000008
    15 -0.249534 -2.846963 -0.174215 0.003703 -0.032926 0.052682
    16 0.043235 -1.683940 0.096015 -1.628127 -0.002684 -0.000611
    17 0.031729 -1.160830 0.058836 -0.753403 0.000000 0.000000
    18 0.447951 -2.798983 -0.200441 -0.567590 0.022674 0.124216
    19 -0.032909 -1.480207 0.004935 -1.487531 0.000000 0.000000
    20 -0.027023 -1.076921 -0.020212 -0.938989 0.000000 0.000000
    21 1.164474 -2.543939 -0.170327 -0.702951 0.035007 0.072044
    22 0.024033 -1.129040 0.017807 -1.483326 -0.020326 0.095001
    23 0.014896 -0.883992 -0.019846 -0.868749 0.101857 0.002205
    24 -0.123215 -0.116973 0.005845 0.342810 0.033999 1.471402
    25 0.583509 -1.197274 0.185379 -0.316868 -0.934124 -0.591403
    26 1.535926 0.010247 0.005009 -0.077271 -0.063135 -0.992232
    27 1.100770 0.004528 -0.010675 0.020038 0.101090 -0.734073
    28 0.957766 -2.746777 -0.090301 -0.015248 -0.045538 0.176122
    29 -0.033419 -1.397128 -0.011255 -0.349227 0.000000 0.000000
    30 -0.022361 -0.957433 0.018783 -0.811565 0.000000 0.000000
    31 0.250029 -2.820664 -0.238396 -0.763388 0.057277 -0.106688
    32 -0.049759 -1.680544 0.100479 -1.613606 0.000000 0.000000
    33 -0.034141 -1.148311 0.084779 -1.193267 0.000000 0.000000
    34 -0.488517 -2.755600 -0.228261 -0.639569 0.054586 -0.144146
    35 0.039889 -1.479791 0.029854 -1.617533 0.000000 0.000000
    36 0.028785 -1.075733 -0.023110 -0.841832 0.000000 0.000000
    37 -1.180679 -2.507216 -0.193861 -0.260565 0.123427 -0.000527
    38 -0.024967 -1.123934 0.017595 -1.253816 0.000000 0.000000
    39 -0.020058 -0.890965 0.010091 -0.839123 0.000000 0.000000
    40 0.120180 -0.051600 -0.063059 0.012085 -2.987703 1.512552
  time 11
    0 12.903264 1.786143 -3.056315 0.054021 -1.360926 -0.920193
    1 -0.071918 -8.498731 -0.104136 0.030071 0.290650 -0.404574
    2 1.054752 -2.729689 1.050994 0.643393 1.323936 1.130239
    3 0.016027 -1.766232 1.182266 0.000000 0.000000 0.000000
    4 0.001592 -1.782947 -0.252182 0.000000 0.000000 0.000000
    5 0.002707 -4.151098 0.297608 0.000000 0.000000 0.000000
    6 0.000000 -0.000001 0.652253 -1.570796 0.000000 -1.572542
    7 0.547379 -2.000724 -4.434540 1.615493 1.483512 1.274290
    8 0.096946 -8.450419 -0.009363 0.053193 -0.210216 0.164276
    9 -0.586769 -1.264477 0.200164 0.010033 -0.247319 -2.391310
    10 1.522835 0.058680 0.016850 0.000014 0.000010 0.301495
    11 1.117947 0.048424 -0.005765 0.000000 0.000000 -0.121225
    12 -0.963867 -2.785143 -0.085346 0.233322 0.196404 -0.088867
    13 0.028478 -1.403067 0.006272 -0.086117 -0.000007 -0.000010
    14 0.021412 -0.957782 0.020047 -0.056141 -0.000003 -0.000008
    15 -0.249534 -2.846963 -0.174215 -0.020938 -0.039589 0.048571
    16 0.043235 -1.683940 0.096015 -1.612860 -0.002684 -0.000611
    17 0.031729 -1.160830 0.058836 -0.777346 0.000000 0.000000
    18 0.447951 -2.798983 -0.200441 -0.611471 0.019546 0.123377
    19 -0.032909 -1.480207 0.004935 -1.464256 0.000000 0.000000
    20 -0.027023 -1.076921 -0.020212 -0.956319 0.000000 0.000000
    21 1.164474 -2.543939 -0.170327 -0.694128 0.035007 0.072044
    22 0.024033 -1.129040 0.017807 -1.474720 -0.020326 0.095001
    23 0.014896 -0.883992 -0.019846 -0.814993 0.101857 0.002205
    24 -0.123215 -0.116973 0.005845 0.342810 0.033999 1.471402
    25 0.583509 -1.197274 0.185379 -0.316868 -0.934124 -0.591403
    26 1.535926 0.010247 0.005009 -0.077271 -0.063135 -0.992232
    27 1.100770 0.004528 -0.010675 0.018660 0.096116 -0.741991
    28 0.957766 -2.746777 -0.090301 -0.015248 -0.045538 0.176122
    29 -0.033419 -1.397128 -0.011255 -0.349227 0.000000 0.000000
    30 -0.022361 -0.957433 0.018783 -0.811565 0.000000 0.000000
    31 0.250029 -2.820664 -0.238396 -0.763388 0.057277 -0.106688
    32 -0.049759 -1.680544 0.100479 -1.613606 0.000000 0.000000
    33 -0.034141 -1.148311 0.084779 -1.193267 0.000000 0.000000
    34 -0.488517 -2.755600 -0.228261 -0.639569 0.054586 -0.144146
    35 0.039889 -1.479791 0.029854 -1.617533 0.000000 0.000000
    36 0.028785 -1.075733 -0.023110 -0.841832 0.000000 0.000000
    37 -1.180679 -2.507216 -0.193861 -0.260565 0.123427 -0.000527
    38 -0.024967 -1.123934 0.017595 -1.253816 0.000000 0.000000
    39 -0.020058 -0.890965 0.010091 -0.839123 0.000000 0.000000
    40 0.120180 -0.051600 -0.063059 0.012085 -2.987703 1.512552
  time 12
    0 12.918889 1.911147 -3.060221 -0.007036 -1.374860 -0.856463
    1 -0.071918 -8.498731 -0.104136 0.052814 0.263326 -0.385391
    2 1.054752 -2.729689 1.050994 0.643393 1.323936 1.130239
    3 0.016027 -1.766232 1.182266 0.000000 0.000000 0.000000
    4 0.001592 -1.782947 -0.252182 0.000000 0.000000 0.000000
    5 0.002707 -4.151098 0.297608 0.000000 0.000000 0.000000
    6 0.000000 -0.000001 0.652253 -1.570796 0.000000 -1.572542
    7 0.477065 -2.246825 -4.801739 1.196491 1.541485 0.904662
    8 0.096946 -8.450419 -0.009363 0.061684 -0.212046 0.163483
    9 -0.586769 -1.264477 0.200164 0.013951 -0.247335 -2.407608
    10 1.522835 0.058680 0.016850 0.000014 0.000010 0.315198
    11 1.117947 0.048424 -0.005765 0.000000 0.000000 -0.138292
    12 -0.963867 -2.785143 -0.085346 0.233625 0.200192 -0.102301
    13 0.028478 -1.403067 0.006272 -0.057194 -0.000007 -0.000010
    14 0.021412 -0.957782 0.020047 0.000051 -0.000003 -0.000008
    15 -0.249534 -2.846963 -0.174215 -0.043608 -0.045786 0.044940
    16 0.043235 -1.683940 0.096015 -1.598823 -0.002684 -0.000611
    17 0.031729 -1.160830 0.058836 -0.799332 0.000000 0.000000
    18 0.447951 -2.798983 -0.200441 -0.651815 0.016597 0.122705
    19 -0.032909 -1.480207 0.004935 -1.442855 0.000000 0.000000
    20 -0.027023 -1.076921 -0.020212 -0.972219 0.000000 0.000000
    21 1.164474 -2.543939 -0.170327 -0.686038 0.035007 0.072044
    22 0.024033 -1.129040 0.017807 -1.466819 -0.020326 0.095001
    23 0.014896 -0.883992 -0.019846 -0.765596 0.101857 0.002205
    24 -0.123215 -0.116973 0.005845 0.342810 0.033999 1.471402
    25 0.583509 -1.197274 0.185379 -0.316868 -0.934124 -0.591403
    26 1.535926 0.010247 0.005009 -0.077271 -0.063135 -0.992232
    27 1.100770 0.004528 -0.010675 0.017318 0.091131 -0.749908
    28 0.957766 -2.746777 -0.090301 -0.015248 -0.045538 0.176122
    29 -0.033419 -1.397128 -0.011255 -0.349227 0.000000 0.000000
    30 -0.022361 -0.957433 0.018783 -0.811565 0.000000 0.000000
    31 0.250029 -2.820664 -0.238396 -0.763388 0.057277 -0.106688
    32 -0.049759 -1.680544 0.100479 -1.613606 0.000000 0.000000
    33 -0.034141 -1.148311 0.084779 -1.193267 0.000000 0.000000
    34 -0.488517 -2.755600 -0.228261 -0.639569 0.054586 -0.144146
    35 0.039889 -1.479791 0.029854 -1.617533 0.000000 0.000000
    36 0.028785 -1.075733 -0.023110 -0.841832 0.000000 0.000000
    37 -1.180679 -2.507216 -0.193861 -0.260565 0.123427 -0.000527
    38 -0.024967 -1.123934 0.017595 -1.253816 0.000000 0.000000
    39 -0.020058 -0.890965 0.010091 -0.839123 0.000000 0.000000
    40 0.120180 -0.051600 -0.063059 0.012085 -2.987703 1.512552
  time 13
    0 12.942328 2.004900 -3.009438 -0.028476 -1.382315 -0.832600
    1 -0.071918 -8.498731 -0.104136 0.070938 0.242480 -0.372076
    2 1.054752 -2.729689 1.050994 0.643393 1.323936 1.130239
    3 0.016027 -1.766232 1.182266 0.000000 0.000000 0.000000
    4 0.001592 -1.782947 -0.252182 0.000000 0.000000 0.000000
    5 0.002707 -4.151098 0.297608 0.000000 0.000000 0.000000
    6 0.000000 -0.000001 0.652253 -1.570796 0.000000 -1.572542
    7 0.367686 -2.543709 -5.239252 -0.472771 1.486053 -0.706060
    8 0.096946 -8.450419 -0.009363 0.078978 -0.236119 0.161916
    9 -0.586769 -1.264477 0.200164 0.017524 -0.246889 -2.422569
    10 1.522835 0.058680 0.016850 0.000014 0.000010 0.327845
    11 1.117947 0.048424 -0.005765 0.000000 0.000000 -0.153346
    12 -0.963867 -2.785143 -0.085346 0.233846 0.203595 -0.114322
    13 0.028478 -1.403067 0.006272 -0.031326 -0.000007 -0.000010
    14 0.021412 -0.957782 0.020047 0.050279 -0.000003 -0.000008
    15 -0.249534 -2.846963 -0.174215 -0.063834 -0.051406 0.041812
    16 0.043235 -1.683940 0.096015 -1.586247 -0.002684 -0.000611
    17 0.031729 -1.160830 0.058836 -0.819022 0.000000 0.000000
    18 0.447951 -2.798983 -0.200441 -0.687863 0.013865 0.122154
    19 -0.032909 -1.480207 0.004935 -1.423721 0.000000 0.000000
    20 -0.027023 -1.076921 -0.020212 -0.986474 0.000000 0.000000
    21 1.164474 -2.543939 -0.170327 -0.678800 0.035007 0.072044
    22 0.024033 -1.129040 0.017807 -1.459756 -0.020326 0.095001
    23 0.014896 -0.883992 -0.019846 -0.721412 0.101857 0.002205
    24 -0.123215 -0.116973 0.005845 0.342810 0.033999 1.471402
    25 0.583509 -1.197274 0.185379 -0.316868 -0.934124 -0.591403
    26 1.535926 0.010247 0.005009 -0.077271 -0.063135 -0.992232
    27 1.100770 0.004528 -0.010675 0.016011 0.086145 -0.757825
    28 0.957766 -2.746777 -0.090301 -0.015248 -0.045538 0.176122
    29 -0.033419 -1.397128 -0.011255 -0.349227 0.000000 0.000000
    30 -0.022361 -0.957433 0.018783 -0.811565 0.000000 0.000000
    31 0.250029 -2.820664 -0.238396 -0.763388 0.057277 -0.106688
    32 -0.049759 -1.680544 0.100479 -1.613606 0.000000 0.000000
    33 -0.034141 -1.148311 0.084779 -1.193267 0.000000 0.000000
    34 -0.488517 -2.755600 -0.228261 -0.639569 0.054586 -0.144146
    35 0.039889 -1.479791 0.029854 -1.617533 0.000000 0.000000
    36 0.028785 -1.075733 -0.023110 -0.841832 0.000000 0.000000
    37 -1.180679 -2.507216 -0.193861 -0.260565 0.123427 -0.000527
    38 -0.024967 -1.123934 0.017595 -1.253816 0.000000 0.000000
    39 -0.020058 -0.890965 0.010091 -0.839123 0.000000 0.000000
    40 0.120180 -0.051600 -0.063059 0.012085 -2.987703 1.512552
  time 14
    0 12.969672 2.055683 -2.872715 -0.008520 -1.384694 -0.850425
    1 -0.071918 -8.498731 -0.104136 0.084011 0.229809 -0.365218
    2 1.054752 -2.729689 1.050994 0.643393 1.323936 1.130239
    3 0.016027 -1.766232 1.182266 0.000000 0.000000 0.000000
    4 0.001592 -1.782947 -0.252182 0.000000 0.000000 0.000000
    5 0.002707 -4.151098 0.297608 0.000000 0.000000 0.000000
    6 0.000000 -0.000001 0.652253 -1.570796 0.000000 -1.572542
    7 0.230963 -2.864031 -5.711923 -0.569868 1.366230 -0.739192
    8 0.096946 -8.450419 -0.009363 0.103520 -0.275654 0.159634
    9 -0.586769 -1.264477 0.200164 0.020665 -0.245934 -2.435979
    10 1.522835 0.058680 0.016850 0.000014 0.000010 0.339274
    11 1.117947 0.048424 -0.005765 0.000000 0.000000 -0.166040
    12 -0.963867 -2.785143 -0.085346 0.234011 0.206531 -0.124701
    13 0.028478 -1.403067 0.006272 -0.009027 -0.000007 -0.000010
    14 0.021412 -0.957782 0.020047 0.093610 -0.000003 -0.000008
    15 -0.249534 -2.846963 -0.174215 -0.081260 -0.056284 0.039199
    16 0.043235 -1.683940 0.096015 -1.575402 -0.002684 -0.000611
    17 0.031729 -1.160830 0.058836 -0.835983 0.000000 0.000000
    18 0.447951 -2.798983 -0.200441 -0.718984 0.011396 0.121687
    19 -0.032909 -1.480207 0.004935 -1.407245 0.000000 0.000000
    20 -0.027023 -1.076921 -0.020212 -0.998741 0.000000 0.000000
    21 1.164474 -2.543939 -0.170327 -0.672554 0.035007 0.072044
    22 0.024033 -1.129040 0.017807 -1.453634 -0.020326 0.095001
    23 0.014896 -0.883992 -0.019846 -0.683296 0.101857 0.002205
    24 -0.123215 -0.116973 0.005845 0.342810 0.033999 1.471402
    25 0.583509 -1.197274 0.185379 -0.316868 -0.934124 -0.591403
    26 1.535926 0.010247 0.005009 -0.077271 -0.063135 -0.992232
    27 1.100770 0.004528 -0.010675 0.014741 0.081136 -0.765715
    28 0.957766 -2.746777 -0.090301 -0.015248 -0.045538 0.176122
    29 -0.033419 -1.397128 -0.011255 -0.349227 0.000000 0.000000
    30 -0.022361 -0.957433 0.018783 -0.811565 0.000000 0.000000
    31 0.250029 -2.820664 -0.238396 -0.763388 0.057277 -0.106688
    32 -0.049759 -1.680544 0.100479 -1.613606 0.000000 0.000000
    33 -0.034141 -1.148311 0.084779 -1.193267 0.000000 0.000000
    34 -0.488517 -2.755600 -0.228261 -0.639569 0.054586 -0.144146
    35 0.039889 -1.479791 0.029854 -1.617533 0.000000 0.000000
    36 0.028785 -1.075733 -0.023110 -0.841832 0.000000 0.000000
    37 -1.180679 -2.507216 -0.193861 -0.260565 0.123427 -0.000527
    38 -0.024967 -1.123934 0.017595 -1.253816 0.000000 0.000000
    39 -0.020058 -0.890965 0.010091 -0.839123 0.000000 0.000000
    40 0.120180 -0.051600 -0.063059 0.012085 -2.987703 1.512552
  time 15
    0 13.000923 2.079121 -2.677397 0.046899 -1.382315 -0.903805
    1 -0.071918 -8.498731 -0.104136 0.092334 0.225480 -0.364532
    2 1.054752 -2.729689 1.050994 0.643393 1.323936 1.130239
    3 0.016027 -1.766232 1.182266 0.000000 0.000000 0.000000
    4 0.001592 -1.782947 -0.252182 0.000000 0.000000 0.000000
    5 0.002707 -4.151098 0.297608 0.000000 0.000000 0.000000
    6 0.000000 -0.000001 0.652253 -1.570796 0.000000 -1.572542
    7 0.078615 -3.172635 -6.196313 -0.581802 1.231429 -0.685194
    8 0.096946 -8.450419 -0.009363 0.133861 -0.323918 0.156753
    9 -0.586769 -1.264477 0.200164 0.023288 -0.244411 -2.447604
    10 1.522835 0.058680 0.016850 0.000014 0.000010 0.349319
    11 1.117947 0.048424 -0.005765 0.000000 0.000000 -0.176025
    12 -0.963867 -2.785143 -0.085346 0.234122 0.208928 -0.133186
    13 0.028478 -1.403067 0.006272 0.009188 -0.000007 -0.000010
    14 0.021412 -0.957782 0.020047 0.129026 -0.000003 -0.000008
    15 -0.249534 -2.846963 -0.174215 -0.095532 -0.060323 0.037126
    16 0.043235 -1.683940 0.096015 -1.566557 -0.002684 -0.000611
    17 0.031729 -1.160830 0.058836 -0.849851 0.000000 0.000000
    18 0.447951 -2.798983 -0.200441 -0.744377 0.009239 0.121291
    19 -0.032909 -1.480207 0.004935 -1.393733 0.000000 0.000000
    20 -0.027023 -1.076921 -0.020212 -1.008773 0.000000 0.000000
    21 1.164474 -2.543939 -0.170327 -0.667438 0.035007 0.072044
    22 0.024033 -1.129040 0.017807 -1.448664 -0.020326 0.095001
    23 0.014896 -0.883992 -0.019846 -0.652145 0.101857 0.002205
    24 -0.123215 -0.116973 0.005845 0.342810 0.033999 1.471402
    25 0.583509 -1.197274 0.185379 -0.316868 -0.934124 -0.591403
    26 1.535926 0.010247 0.005009 -0.077271 -0.063135 -0.992232
    27 1.100770 0.004528 -0.010675 0.013531 0.076126 -0.773605
    28 0.957766 -2.746777 -0.090301 -0.015248 -0.045538 0.176122
    29 -0.033419 -1.397128 -0.011255 -0.349227 0.000000 0.000000
    30 -0.022361 -0.957433 0.018783 -0.811565 0.000000 0.000000
    31 0.250029 -2.820664 -0.238396 -0.763388 0.057277 -0.106688
    32 -0.049759 -1.680544 0.100479 -1.613606 0.000000 0.000000
    33 -0.034141 -1.148311 0.084779 -1.193267 0.000000 0.000000
    34 -0.488517 -2.755600 -0.228261 -0.639569 0.054586 -0.144146
    35 0.039889 -1.479791 0.029854 -1.617533 0.000000 0.000000
    36 0.028785 -1.075733 -0.023110 -0.841832 0.000000 0.000000
    37 -1.180679 -2.507216 -0.193861 -0.260565 0.123427 -0.000527
    38 -0.024967 -1.123934 0.017595 -1.253816 0.000000 0.000000
    39 -0.020058 -0.890965 0.010091 -0.839123 0.000000 0.000000
    40 0.120180 -0.051600 -0.063059 0.012085 -2.987703 1.512552
  time 16
    0 13.039987 2.071308 -2.423483 0.127022 -1.375003 -0.982103
    1 -0.071918 -8.498731 -0.104136 0.096692 0.228311 -0.368971
    2 1.054752 -2.729689 1.050994 0.643393 1.323936 1.130239
    3 0.016027 -1.766232 1.182266 0.000000 0.000000 0.000000
    4 0.001592 -1.782947 -0.252182 0.000000 0.000000 0.000000
    5 0.002707 -4.151098 0.297608 0.000000 0.000000 0.000000
    6 0.000000 -0.000001 0.652253 -1.570796 0.000000 -1.572542
    7 -0.081546 -3.434361 -6.665077 -0.590400 1.098367 -0.628965
    8 0.096946 -8.450419 -0.009363 0.168345 -0.374152 0.153697
    9 -0.586769 -1.264477 0.200164 0.025359 -0.242272 -2.457257
    10 1.522835 0.058680 0.016850 0.000014 0.000010 0.357799
    11 1.117947 0.048424 -0.005765 0.000000 0.000000 -0.182913
    12 -0.963867 -2.785143 -0.085346 0.234177 0.210714 -0.139550
    13 0.028478 -1.403067 0.006272 0.022839 -0.000007 -0.000010
    14 0.021412 -0.957782 0.020047 0.155567 -0.000003 -0.000008
    15 -0.249534 -2.846963 -0.174215 -0.106216 -0.063367 0.035616
    16 0.043235 -1.683940 0.096015 -1.559943 -0.002684 -0.000611
    17 0.031729 -1.160830 0.058836 -0.860239 0.000000 0.000000
    18 0.447951 -2.798983 -0.200441 -0.763412 0.007453 0.120932
    19 -0.032909 -1.480207 0.004935 -1.383665 0.000000 0.000000
    20 -0.027023 -1.076921 -0.020212 -1.016288 0.000000 0.000000
    21 1.164474 -2.543939 -0.170327 -0.663631 0.035007 0.072044
    22 0.024033 -1.129040 0.017807 -1.444923 -0.020326 0.095001
    23 0.014896 -0.883992 -0.019846 -0.628813 0.101857 0.002205
    24 -0.123215 -0.116973 0.005845 0.342810 0.033999 1.471402
    25 0.583509 -1.197274 0.185379 -0.316868 -0.934124 -0.591403
    26 1.535926 0.010247 0.005009 -0.077271 -0.063135 -0.992232
    27 1.100770 0.004528 -0.010675 0.012344 0.071105 -0.781481
    28 0.957766 -2.746777 -0.090301 -0.015248 -0.045538 0.176122
    29 -0.033419 -1.397128 -0.011255 -0.349227 0.000000 0.000000
    30 -0.022361 -0.957433 0.018783 -0.811565 0.000000 0.000000
    31 0.250029 -2.820664 -0.238396 -0.763388 0.057277 -0.106688
    32 -0.049759 -1.680544 0.100479 -1.613606 0.000000 0.000000
    33 -0.034141 -1.148311 0.084779 -1.193267 0.000000 0.000000
    34 -0.488517 -2.755600 -0.228261 -0.639569 0.054586 -0.144146
    35 0.039889 -1.479791 0.029854 -1.617533 0.000000 0.000000
    36 0.028785 -1.075733 -0.023110 -0.841832 0.000000 0.000000
    37 -1.180679 -2.507216 -0.193861 -0.260565 0.123427 -0.000527
    38 -0.024967 -1.123934 0.017595 -1.253816 0.000000 0.000000
    39 -0.020058 -0.890965 0.010091 -0.839141 0.000000 0.000000
    40 0.120180 -0.051600 -0.063059 0.012085 -2.987703 1.512552
  time 17
    0 13.079051 2.040057 -2.138318 0.218793 -1.362675 -1.072188
    1 -0.071918 -8.498731 -0.104136 0.097740 0.237036 -0.377619
    2 1.054752 -2.729689 1.050994 0.643393 1.323936 1.130239
    3 0.016027 -1.766232 1.182266 0.000000 0.000000 0.000000
    4 0.001592 -1.782947 -0.252182 0.000000 0.000000 0.000000
    5 0.002707 -4.151098 0.297608 0.000000 0.000000 0.000000
    6 0.000000 -0.000001 0.652253 -1.570796 0.000000 -1.572542
    7 -0.229988 -3.617961 -7.086965 -0.603593 0.983893 -0.582214
    8 0.096946 -8.450419 -0.009363 0.205003 -0.419717 0.151531
    9 -0.586769 -1.264477 0.200164 0.026809 -0.239486 -2.464678
    10 1.522835 0.058680 0.016850 0.000014 -0.000002 0.364532
    11 1.117947 0.048424 -0.005765 0.000000 0.000000 -0.186435
    12 -0.963867 -2.785143 -0.085346 0.234204 0.211853 -0.143528
    13 0.028478 -1.403067 0.006272 0.031413 -0.000007 -0.000010
    14 0.021412 -0.957782 0.020047 0.172216 -0.000003 -0.000008
    15 -0.249534 -2.846963 -0.174215 -0.112879 -0.065272 0.034681
    16 0.043235 -1.683940 0.096015 -1.555789 -0.002684 -0.000611
    17 0.031729 -1.160830 0.058836 -0.866739 0.000000 0.000000
    18 0.447951 -2.798983 -0.200441 -0.775330 0.006087 0.120560
    19 -0.032909 -1.480207 0.004935 -1.377301 0.000000 0.000000
    20 -0.027023 -1.076921 -0.020212 -1.021009 0.000000 0.000000
    21 1.164474 -2.543939 -0.170327 -0.661232 0.035007 0.072044
    22 0.024033 -1.129040 0.017807 -1.442595 -0.020326 0.095001
    23 0.014896 -0.883992 -0.019846 -0.614199 0.101857 0.002205
    24 -0.123215 -0.116973 0.005845 0.342810 0.033999 1.471402
    25 0.583509 -1.197274 0.185379 -0.316868 -0.934124 -0.591403
    26 1.535926 0.010247 0.005009 -0.077271 -0.063135 -0.992232
    27 1.100770 0.004528 -0.010675 0.011206 0.066071 -0.789357
    28 0.957766 -2.746777 -0.090301 -0.015248 -0.045538 0.176122
    29 -0.033419 -1.397128 -0.011255 -0.349227 0.000000 0.000000
    30 -0.022361 -0.957433 0.018783 -0.811565 0.000000 0.000000
    31 0.250029 -2.820664 -0.238396 -0.763388 0.057277 -0.106688
    32 -0.049759 -1.680544 0.100479 -1.613606 0.000000 0.000000
    33 -0.034141 -1.148311 0.084779 -1.193267 0.000000 0.000000
    34 -0.488517 -2.755600 -0.228261 -0.639569 0.054586 -0.144146
    35 0.039889 -1.479791 0.029854 -1.617533 0.000000 0.000000
    36 0.028785 -1.075733 -0.023110 -0.841832 0.000000 0.000000
    37 -1.180679 -2.507216 -0.193861 -0.260565 0.123427 -0.000527
    38 -0.024967 -1.123934 0.017595 -1.253816 0.000000 0.000000
    39 -0.020058 -0.890965 0.010091 -0.839123 0.000000 0.000000
    40 0.120180 -0.051600 -0.063059 0.012085 -2.987703 1.512552
  time 18
    0 13.122021 1.989275 -1.825808 0.310786 -1.345616 -1.162465
    1 -0.071918 -8.498731 -0.104136 0.096075 0.250356 -0.389582
    2 1.054752 -2.729689 1.050994 0.643393 1.323936 1.130239
    3 0.016027 -1.766232 1.182266 0.000000 0.000000 0.000000
    4 0.001592 -1.782947 -0.252182 0.000000 0.000000 0.000000
    5 0.002707 -4.151098 0.297608 0.000000 0.000000 0.000000
    6 0.000000 -0.000001 0.652253 -1.570796 0.000000 -1.572542
    7 -0.358898 -3.688275 -7.434632 -0.621753 0.904924 -0.550117
    8 0.096946 -8.450419 -0.009363 0.241523 -0.454091 0.152150
    9 -0.586769 -1.264477 0.200164 0.027568 -0.235977 -2.469657
    10 1.522835 0.058680 0.016850 0.000014 -0.000002 0.369355
    11 1.117947 0.048424 -0.005765 0.000000 0.000000 -0.186203
    12 -0.963867 -2.785143 -0.085346 0.234232 0.212236 -0.144919
    13 0.028478 -1.403067 0.006272 0.034394 -0.000007 -0.000010
    14 0.021412 -0.957782 0.020047 0.177982 -0.000003 -0.000008
    15 -0.249534 -2.846963 -0.174215 -0.115205 -0.065944 0.034358
    16 0.043235 -1.683940 0.096015 -1.554328 -0.002684 -0.000611
    17 0.031729 -1.160830 0.058836 -0.869010 0.000000 0.000000
    18 0.447951 -2.798983 -0.200441 -0.779457 0.005164 0.120177
    19 -0.032909 -1.480207 0.004935 -1.375122 0.000000 0.000000
    20 -0.027023 -1.076921 -0.020212 -1.022624 0.000000 0.000000
    21 1.164474 -2.543939 -0.170327 -0.660399 0.035007 0.072044
    22 0.024033 -1.129040 0.017807 -1.441784 -0.020326 0.095001
    23 0.014896 -0.883992 -0.019846 -0.609114 0.101857 0.002205
    24 -0.123215 -0.116973 0.005845 0.342810 0.033999 1.471402
    25 0.583509 -1.197274 0.185379 -0.316868 -0.934124 -0.591403
    26 1.535926 0.010247 0.005009 -0.077271 -0.063135 -0.992232
    27 1.100770 0.004528 -0.010675 0.010103 0.061038 -0.797220
    28 0.957766 -2.746777 -0.090301 -0.015248 -0.045538 0.176122
    29 -0.033419 -1.397128 -0.011255 -0.349227 0.000000 0.000000
    30 -0.022361 -0.957433 0.018783 -0.811565 0.000000 0.000000
    31 0.250029 -2.820664 -0.238396 -0.763388 0.057277 -0.106688
    32 -0.049759 -1.680544 0.100479 -1.613606 0.000000 0.000000
    33 -0.034141 -1.148311 0.084779 -1.193267 0.000000 0.000000
    34 -0.488517 -2.755600 -0.228261 -0.639569 0.054586 -0.144146
    35 0.039889 -1.479791 0.029854 -1.617533 0.000000 0.000000
    36 0.028785 -1.075733 -0.023110 -0.841832 0.000000 0.000000
    37 -1.180679 -2.507216 -0.193861 -0.260565 0.123427 -0.000527
    38 -0.024967 -1.123934 0.017595 -1.253816 0.000000 0.000000
    39 -0.020058 -0.890965 0.010091 -0.839123 0.000000 0.000000
    40 0.120180 -0.051600 -0.063059 0.012085 -2.987703 1.512552
  time 19
    0 13.161084 1.930679 -1.501580 0.394990 -1.324715 -1.245267
    1 -0.071918 -8.498731 -0.104136 0.092260 0.266940 -0.404078
    2 1.054752 -2.729689 1.050994 0.643393 1.323936 1.130239
    3 0.016027 -1.766232 1.182266 0.000000 0.000000 0.000000
    4 0.001592 -1.782947 -0.252182 0.000000 0.000000 0.000000
    5 0.002707 -4.151098 0.297608 0.000000 0.000000 0.000000
    6 0.000000 -0.000001 0.652253 -1.570796 0.000000 -1.572542
    7 -0.476089 -3.614054 -7.735422 -0.634872 0.870890 -0.526463
    8 0.096946 -8.450419 -0.009363 0.287984 -0.473659 0.161085
    9 -0.586769 -1.264477 0.200164 0.026118 -0.228929 -2.467144
    10 1.522835 0.058680 0.016850 0.000014 -0.000002 0.368463
    11 1.117947 0.048424 -0.005765 0.000000 0.000000 -0.172232
    12 -0.963867 -2.785143 -0.085346 0.234149 0.210031 -0.137117
    13 0.028478 -1.403067 0.006272 0.017651 -0.000007 -0.000010
    14 0.021412 -0.957782 0.020047 0.145448 -0.000003 -0.000008
    15 -0.249534 -2.846963 -0.174215 -0.102116 -0.062204 0.036191
    16 0.043235 -1.683940 0.096015 -1.562481 -0.002684 -0.000611
    17 0.031729 -1.160830 0.058836 -0.856277 0.000000 0.000000
    18 0.447951 -2.798983 -0.200441 -0.756085 0.005835 0.119625
    19 -0.032909 -1.480207 0.004935 -1.387500 0.000000 0.000000
    20 -0.027023 -1.076921 -0.020212 -1.013431 0.000000 0.000000
    21 1.164474 -2.543939 -0.170327 -0.665079 0.035007 0.072044
    22 0.024033 -1.129040 0.017807 -1.446362 -0.020326 0.095001
    23 0.014896 -0.883992 -0.019846 -0.637723 0.101857 0.002205
    24 -0.123215 -0.116973 0.005845 0.342810 0.033999 1.471402
    25 0.583509 -1.197274 0.185379 -0.316868 -0.934124 -0.591403
    26 1.535926 0.010247 0.005009 -0.077271 -0.063135 -0.992232
    27 1.100770 0.004528 -0.010675 0.009036 0.055992 -0.805068
    28 0.957766 -2.746777 -0.090301 -0.015248 -0.045538 0.176122
    29 -0.033419 -1.397128 -0.011255 -0.349227 0.000000 0.000000
    30 -0.022361 -0.957433 0.018783 -0.811565 0.000000 0.000000
    31 0.250029 -2.820664 -0.238396 -0.763388 0.057277 -0.106688
    32 -0.049759 -1.680544 0.100479 -1.613606 0.000000 0.000000
    33 -0.034141 -1.148311 0.084779 -1.193267 0.000000 0.000000
    34 -0.488517 -2.755600 -0.228261 -0.639569 0.054586 -0.144146
    35 0.039889 -1.479791 0.029854 -1.617533 0.000000 0.000000
    36 0.028785 -1.075733 -0.023110 -0.841832 0.000000 0.000000
    37 -1.180679 -2.507216 -0.193861 -0.260565 0.123427 -0.000527
    38 -0.024967 -1.123934 0.017595 -1.253816 0.000000 0.000000
    39 -0.020058 -0.890965 0.010091 -0.839123 0.000000 0.000000
    40 0.120180 -0.051600 -0.063059 0.012085 -2.987703 1.512552
  time 20
    0 13.200148 1.864271 -1.185164 0.467695 -1.301118 -1.316568
    1 -0.071918 -8.498731 -0.104136 0.086948 0.285505 -0.420251
    2 1.054752 -2.729689 1.050994 0.643393 1.323936 1.130239
    3 0.016027 -1.766232 1.182266 0.000000 0.000000 0.000000
    4 0.001592 -1.782947 -0.252182 0.000000 0.000000 0.000000
    5 0.002707 -4.151098 0.297608 0.000000 0.000000 0.000000
    6 0.000000 -0.000001 0.652253 -1.570796 0.000000 -1.572542
    7 -0.593281 -3.438268 -8.024494 -0.632574 0.870422 -0.500260
    8 0.096946 -8.450419 -0.009363 0.347286 -0.484640 0.178239
    9 -0.586769 -1.264477 0.200164 0.021614 -0.216756 -2.453851
    10 1.522835 0.058680 0.016850 0.000014 0.000010 0.359382
    11 1.117947 0.048424 -0.005765 0.000000 0.000000 -0.138485
    12 -0.963867 -2.785143 -0.085346 0.233873 0.204111 -0.116144
    13 0.028478 -1.403067 0.006272 -0.027425 -0.000007 -0.000010
    14 0.021412 -0.957782 0.020047 0.057882 -0.000003 -0.000008
    15 -0.249534 -2.846963 -0.174215 -0.066869 -0.052257 0.041345
    16 0.043235 -1.683940 0.096015 -1.584363 -0.002684 -0.000611
    17 0.031729 -1.160830 0.058836 -0.821970 0.000000 0.000000
    18 0.447951 -2.798983 -0.200441 -0.693169 0.008831 0.118978
    19 -0.032909 -1.480207 0.004935 -1.420844 0.000000 0.000000
    20 -0.027023 -1.076921 -0.020212 -0.988617 0.000000 0.000000
    21 1.164474 -2.543939 -0.170327 -0.677709 0.035007 0.072044
    22 0.024033 -1.129040 0.017807 -1.458683 -0.020326 0.095001
    23 0.014896 -0.883992 -0.019846 -0.714746 0.101857 0.002205
    24 -0.123215 -0.116973 0.005845 0.342810 0.033999 1.471402
    25 0.583509 -1.197274 0.185379 -0.316868 -0.934124 -0.591403
    26 1.535926 0.010247 0.005009 -0.077271 -0.063135 -0.992232
    27 1.100770 0.004528 -0.010675 0.008018 0.050935 -0.812917
    28 0.957766 -2.746777 -0.090301 -0.015248 -0.045538 0.176122
    29 -0.033419 -1.397128 -0.011255 -0.349227 0.000000 0.000000
    30 -0.022361 -0.957433 0.018783 -0.811565 0.000000 0.000000
    31 0.250029 -2.820664 -0.238396 -0.763388 0.057277 -0.106688
    32 -0.049759 -1.680544 0.100479 -1.613606 0.000000 0.000000
    33 -0.034141 -1.148311 0.084779 -1.193267 0.000000 0.000000
    34 -0.488517 -2.755600 -0.228261 -0.639569 0.054586 -0.144146
    35 0.039889 -1.479791 0.029854 -1.617533 0.000000 0.000000
    36 0.028785 -1.075733 -0.023110 -0.841832 0.000000 0.000000
    37 -1.180679 -2.507216 -0.193861 -0.260565 0.123427 -0.000527
    38 -0.024967 -1.123934 0.017595 -1.253816 0.000000 0.000000
    39 -0.020058 -0.890965 0.010091 -0.839123 0.000000 0.000000
    40 0.120180 -0.051600 -0.063059 0.012085 -2.987703 1.512552
  time 21
    0 13.239212 1.793956 -0.884373 0.528010 -1.276260 -1.375698
    1 -0.071918 -8.498731 -0.104136 0.080813 0.304736 -0.437262
    2 1.054752 -2.729689 1.050994 0.643393 1.323936 1.130239
    3 0.016027 -1.766232 1.182266 0.000000 0.000000 0.000000
    4 0.001592 -1.782947 -0.252182 0.000000 0.000000 0.000000
    5 0.002707 -4.151098 0.297608 0.000000 0.000000 0.000000
    6 0.000000 -0.000001 0.652253 -1.570796 0.000000 -1.572542
    7 -0.702659 -3.207792 -8.266688 -0.613229 0.889412 -0.467686
    8 0.096946 -8.450419 -0.009363 0.406070 -0.494705 0.197482
    9 -0.586769 -1.264477 0.200164 0.015107 -0.201243 -2.432386
    10 1.522835 0.058680 0.016850 0.000014 0.000010 0.343841
    11 1.117947 0.048424 -0.005765 0.000000 0.000000 -0.090612
    12 -0.963867 -2.785143 -0.085346 0.233239 0.195482 -0.085619
    13 0.028478 -1.403067 0.006272 -0.093108 -0.000007 -0.000010
    14 0.021412 -0.957782 0.020047 -0.069737 -0.000003 -0.000008
    15 -0.249534 -2.846963 -0.174215 -0.015458 -0.038091 0.049470
    16 0.043235 -1.683940 0.096015 -1.616244 -0.002684 -0.000611
    17 0.031729 -1.160830 0.058836 -0.772007 0.000000 0.000000
    18 0.447951 -2.798983 -0.200441 -0.601533 0.013553 0.118607
    19 -0.032909 -1.480207 0.004935 -1.469443 0.000000 0.000000
    20 -0.027023 -1.076921 -0.020212 -0.952468 0.000000 0.000000
    21 1.164474 -2.543939 -0.170327 -0.696091 0.035007 0.072044
    22 0.024033 -1.129040 0.017807 -1.476629 -0.020326 0.095001
    23 0.014896 -0.883992 -0.019846 -0.826958 0.101857 0.002205
    24 -0.123215 -0.116973 0.005845 0.342810 0.033999 1.471402
    25 0.583509 -1.197274 0.185379 -0.316868 -0.934124 -0.591403
    26 1.535926 0.010247 0.005009 -0.077271 -0.063135 -0.992232
    27 1.100770 0.004528 -0.010675 0.007035 0.045865 -0.820752
    28 0.957766 -2.746777 -0.090301 -0.015248 -0.045538 0.176122
    29 -0.033419 -1.397128 -0.011255 -0.349227 0.000000 0.000000
    30 -0.022361 -0.957433 0.018783 -0.811565 0.000000 0.000000
    31 0.250029 -2.820664 -0.238396 -0.763388 0.057277 -0.106688
    32 -0.049759 -1.680544 0.100479 -1.613606 0.000000 0.000000
    33 -0.034141 -1.148311 0.084779 -1.193267 0.000000 0.000000
    34 -0.488517 -2.755600 -0.228261 -0.639569 0.054586 -0.144146
    35 0.039889 -1.479791 0.029854 -1.617533 0.000000 0.000000
    36 0.028785 -1.075733 -0.023110 -0.841832 0.000000 0.000000
    37 -1.180679 -2.507216 -0.193861 -0.260565 0.123427 -0.000527
    38 -0.024967 -1.123934 0.017595 -1.253816 0.000000 0.000000
    39 -0.020058 -0.890965 0.010091 -0.839123 0.000000 0.000000
    40 0.120180 -0.051600 -0.063059 0.012085 -2.987703 1.512552
  time 22
    0 13.270463 1.731454 -0.614834 0.576677 -1.251718 -1.423041
    1 -0.071918 -8.498731 -0.104136 0.074622 0.323367 -0.454140
    2 1.054752 -2.729689 1.050994 0.643393 1.323936 1.130239
    3 0.016027 -1.766232 1.182266 0.000000 0.000000 0.000000
    4 0.001592 -1.782947 -0.252182 0.000000 0.000000 0.000000
    5 0.002707 -4.151098 0.297608 0.000000 0.000000 0.000000
    6 0.000000 -0.000001 0.652253 -1.570796 0.000000 -1.572542
    7 -0.804224 -2.989035 -8.430756 -0.575205 0.913483 -0.424598
    8 0.096946 -8.450419 -0.009363 0.451150 -0.510543 0.212141
    9 -0.586769 -1.264477 0.200164 0.007634 -0.184176 -2.405330
    10 1.522835 0.058680 0.016850 0.000014 0.000010 0.323624
    11 1.117947 0.048424 -0.005765 0.000000 0.000000 -0.034342
    12 -0.963867 -2.785143 -0.085346 0.232136 0.185199 -0.049162
    13 0.028478 -1.403067 0.006272 -0.171670 -0.000007 -0.000010
    14 0.021412 -0.957782 0.020047 -0.222370 -0.000003 -0.000008
    15 -0.249534 -2.846963 -0.174215 0.046125 -0.021732 0.060137
    16 0.043235 -1.683940 0.096015 -1.654393 -0.002684 -0.000611
    17 0.031729 -1.160830 0.058836 -0.712258 0.000000 0.000000
    18 0.447951 -2.798983 -0.200441 -0.491914 0.019366 0.118858
    19 -0.032909 -1.480207 0.004935 -1.527544 0.000000 0.000000
    20 -0.027023 -1.076921 -0.020212 -0.909206 0.000000 0.000000
    21 1.164474 -2.543939 -0.170327 -0.718101 0.035007 0.072044
    22 0.024033 -1.129040 0.017807 -1.498107 -0.020326 0.095001
    23 0.014896 -0.883992 -0.019846 -0.961176 0.101857 0.002205
    24 -0.123215 -0.116973 0.005845 0.342810 0.033999 1.471402
    25 0.583509 -1.197274 0.185379 -0.316868 -0.934124 -0.591403
    26 1.535926 0.010247 0.005009 -0.077271 -0.063135 -0.992232
    27 1.100770 0.004528 -0.010675 0.006088 0.040796 -0.828587
    28 0.957766 -2.746777 -0.090301 -0.015248 -0.045538 0.176122
    29 -0.033419 -1.397128 -0.011255 -0.349227 0.000000 0.000000
    30 -0.022361 -0.957433 0.018783 -0.811565 0.000000 0.000000
    31 0.250029 -2.820664 -0.238396 -0.763388 0.057277 -0.106688
    32 -0.049759 -1.680544 0.100479 -1.613606 0.000000 0.000000
    33 -0.034141 -1.148311 0.084779 -1.193267 0.000000 0.000000
    34 -0.488517 -2.755600 -0.228261 -0.639569 0.054586 -0.144146
    35 0.039889 -1.479791 0.029854 -1.617533 0.000000 0.000000
    36 0.028785 -1.075733 -0.023110 -0.841832 0.000000 0.000000
    37 -1.180679 -2.507216 -0.193861 -0.260565 0.123427 -0.000527
    38 -0.024967 -1.123934 0.017595 -1.253816 0.000000 0.000000
    39 -0.020058 -0.890965 0.010091 -0.839123 0.000000 0.000000
    40 0.120180 -0.051600 -0.063059 0.012085 -2.987703 1.512552
  time 23
    0 13.301714 1.676765 -0.392171 0.614884 -1.228953 -1.460129
    1 -0.071918 -8.498731 -0.104136 0.069273 0.340201 -0.469874
    2 1.054752 -2.729689 1.050994 0.643393 1.323936 1.130239
    3 0.016027 -1.766232 1.182266 0.000000 0.000000 0.000000
    4 0.001592 -1.782947 -0.252182 0.000000 0.000000 0.000000
    5 0.002707 -4.151098 0.297608 0.000000 0.000000 0.000000
    6 0.000000 -0.000001 0.652253 -1.570796 0.000000 -1.572542
    7 -0.882352 -2.832780 -8.485445 -0.518874 0.927726 -0.368369
    8 0.096946 -8.450419 -0.009363 0.469410 -0.537925 0.215486
    9 -0.586769 -1.264477 0.200164 0.000006 -0.167417 -2.375105
    10 1.522835 0.058680 0.016850 0.000014 0.000010 0.300421
    11 1.117947 0.048424 -0.005765 0.000000 0.000000 0.024677
    12 -0.963867 -2.785143 -0.085346 0.230536 0.174293 -0.010380
    13 0.028478 -1.403067 0.006272 -0.255384 -0.000007 -0.000010
    14 0.021412 -0.957782 0.020047 -0.385010 -0.000003 -0.000008
    15 -0.249534 -2.846963 -0.174215 0.111966 -0.005050 0.072577
    16 0.043235 -1.683940 0.096015 -1.695042 -0.002684 -0.000611
    17 0.031729 -1.160830 0.058836 -0.648572 0.000000 0.000000
    18 0.447951 -2.798983 -0.200441 -0.375053 0.025550 0.119877
    19 -0.032909 -1.480207 0.004935 -1.589436 0.000000 0.000000
    20 -0.027023 -1.076921 -0.020212 -0.863150 0.000000 0.000000
    21 1.164474 -2.543939 -0.170327 -0.741538 0.035007 0.072044
    22 0.024033 -1.129040 0.017807 -1.520997 -0.020326 0.095001
    23 0.014896 -0.883992 -0.019846 -1.104176 0.101857 0.002205
    24 -0.123215 -0.116973 0.005845 0.342810 0.033999 1.471402
    25 0.583509 -1.197274 0.185379 -0.316868 -0.934124 -0.591403
    26 1.535926 0.010247 0.005009 -0.077271 -0.063135 -0.992232
    27 1.100770 0.004528 -0.010675 0.005189 0.035714 -0.836408
    28 0.957766 -2.746777 -0.090301 -0.015248 -0.045538 0.176122
    29 -0.033419 -1.397128 -0.011255 -0.349227 0.000000 0.000000
    30 -0.022361 -0.957433 0.018783 -0.811565 0.000000 0.000000
    31 0.250029 -2.820664 -0.238396 -0.763388 0.057277 -0.106688
    32 -0.049759 -1.680544 0.100479 -1.613606 0.000000 0.000000
    33 -0.034141 -1.148311 0.084779 -1.193267 0.000000 0.000000
    34 -0.488517 -2.755600 -0.228261 -0.639569 0.054586 -0.144146
    35 0.039889 -1.479791 0.029854 -1.617533 0.000000 0.000000
    36 0.028785 -1.075733 -0.023110 -0.841832 0.000000 0.000000
    37 -1.180679 -2.507216 -0.193861 -0.260565 0.123427 -0.000527
    38 -0.024967 -1.123934 0.017595 -1.253816 0.000000 0.000000
    39 -0.020058 -0.890965 0.010091 -0.839123 0.000000 0.000000
    40 0.120180 -0.051600 -0.063059 0.012085 -2.987703 1.512552
  time 24
    0 13.321245 1.637701 -0.228103 0.643966 -1.209486 -1.488113
    1 -0.071918 -8.498731 -0.104136 0.065701 0.354054 -0.483418
    2 1.054752 -2.729689 1.050994 0.643393 1.323936 1.130239
    3 0.016027 -1.766232 1.182266 0.000000 0.000000 0.000000
    4 0.001592 -1.782947 -0.252182 0.000000 0.000000 0.000000
    5 0.002707 -4.151098 0.297608 0.000000 0.000000 0.000000
    6 0.000000 -0.000001 0.652253 -1.570796 0.000000 -1.572542
    7 -0.937041 -2.746840 -8.356535 -0.423407 0.932473 -0.286017
    8 0.096946 -8.450419 -0.009363 0.442038 -0.590153 0.201311
    9 -0.586769 -1.264477 0.200164 -0.007121 -0.152859 -2.344128
    10 1.522835 0.058680 0.016850 0.000014 0.000010 0.276018
    11 1.117947 0.048424 -0.005765 0.000000 0.000000 0.080754
    12 -0.963867 -2.785143 -0.085346 0.228578 0.163782 0.027144
    13 0.028478 -1.403067 0.006272 -0.336522 -0.000007 -0.000010
    14 0.021412 -0.957782 0.020047 -0.542646 -0.000003 -0.000008
    15 -0.249534 -2.846963 -0.174215 0.175954 0.010290 0.085640
    16 0.043235 -1.683940 0.096015 -1.734423 -0.002684 -0.000611
    17 0.031729 -1.160830 0.058836 -0.586843 0.000000 0.000000
    18 0.447951 -2.798983 -0.200441 -0.261813 0.031410 0.121579
    19 -0.032909 -1.480207 0.004935 -1.649455 0.000000 0.000000
    20 -0.027023 -1.076921 -0.020212 -0.818491 0.000000 0.000000
    21 1.164474 -2.543939 -0.170327 -0.764242 0.035007 0.072044
    22 0.024033 -1.129040 0.017807 -1.543181 -0.020326 0.095001
    23 0.014896 -0.883992 -0.019846 -1.242817 0.101857 0.002205
    24 -0.123215 -0.116973 0.005845 0.342810 0.033999 1.471402
    25 0.583509 -1.197274 0.185379 -0.316868 -0.934124 -0.591403
    26 1.535926 0.010247 0.005009 -0.077271 -0.063135 -0.992232
    27 1.100770 0.004528 -0.010675 0.004326 0.030633 -0.844229
    28 0.957766 -2.746777 -0.090301 -0.015248 -0.045538 0.176122
    29 -0.033419 -1.397128 -0.011255 -0.349227 0.000000 0.000000
    30 -0.022361 -0.957433 0.018783 -0.811565 0.000000 0.000000
    31 0.250029 -2.820664 -0.238396 -0.763388 0.057277 -0.106688
    32 -0.049759 -1.680544 0.100479 -1.613606 0.000000 0.000000
    33 -0.034141 -1.148311 0.084779 -1.193267 0.000000 0.000000
    34 -0.488517 -2.755600 -0.228261 -0.639569 0.054586 -0.144146
    35 0.039889 -1.479791 0.029854 -1.617533 0.000000 0.000000
    36 0.028785 -1.075733 -0.023110 -0.841832 0.000000 0.000000
    37 -1.180679 -2.507216 -0.193861 -0.260565 0.123427 -0.000527
    38 -0.024967 -1.123934 0.017595 -1.253816 0.000000 0.000000
    39 -0.020058 -0.890965 0.010091 -0.839123 0.000000 0.000000
    40 0.120180 -0.051600 -0.063059 0.012085 -2.987703 1.512552
  time 25
    0 13.332965 1.618169 -0.138257 0.664813 -1.194777 -1.507951
    1 -0.071918 -8.498731 -0.104136 0.064953 0.363744 -0.493647
    2 1.054752 -2.729689 1.050994 0.643393 1.323936 1.130239
    3 0.016027 -1.766232 1.182266 0.000000 0.000000 0.000000
    4 0.001592 -1.782947 -0.252182 0.000000 0.000000 0.000000
    5 0.002707 -4.151098 0.297608 0.000000 0.000000 0.000000
    6 0.000000 -0.000001 0.652253 -1.570796 0.000000 -1.572542
    7 -0.976105 -2.696057 -8.040119 -0.288953 0.931203 -0.179215
    8 0.096946 -8.450419 -0.009363 0.376143 -0.661903 0.178007
    9 -0.586769 -1.264477 0.200164 -0.013317 -0.142486 -2.314677
    10 1.522835 0.058680 0.016850 0.000014 0.000010 0.252179
    11 1.117947 0.048424 -0.005765 0.000000 0.000000 0.128278
    12 -0.963867 -2.785143 -0.085346 0.226565 0.154674 0.059886
    13 0.028478 -1.403067 0.006272 -0.407393 -0.000007 -0.000010
    14 0.021412 -0.957782 0.020047 -0.680243 -0.000003 -0.000008
    15 -0.249534 -2.846963 -0.174215 0.232018 0.022982 0.097852
    16 0.043235 -1.683940 0.096015 -1.768803 -0.002684 -0.000611
    17 0.031729 -1.160830 0.058836 -0.532966 0.000000 0.000000
    18 0.447951 -2.798983 -0.200441 -0.162891 0.036348 0.123580
    19 -0.032909 -1.480207 0.004935 -1.701846 0.000000 0.000000
    20 -0.027023 -1.076921 -0.020212 -0.779485 0.000000 0.000000
    21 1.164474 -2.543939 -0.170327 -0.784071 0.035007 0.072044
    22 0.024033 -1.129040 0.017807 -1.562540 -0.020326 0.095001
    23 0.014896 -0.883992 -0.019846 -1.363831 0.101857 0.002205
    24 -0.123215 -0.116973 0.005845 0.342810 0.033999 1.471402
    25 0.583509 -1.197274 0.185379 -0.316868 -0.934124 -0.591403
    26 1.535926 0.010247 0.005009 -0.077271 -0.063135 -0.992232
    27 1.100770 0.004528 -0.010675 0.003500 0.025539 -0.852050
    28 0.957766 -2.746777 -0.090301 -0.015248 -0.045538 0.176122
    29 -0.033419 -1.397128 -0.011255 -0.349227 0.000000 0.000000
    30 -0.022361 -0.957433 0.018783 -0.811565 0.000000 0.000000
    31 0.250029 -2.820664 -0.238396 -0.763388 0.057277 -0.106688
    32 -0.049759 -1.680544 0.100479 -1.613606 0.000000 0.000000
    33 -0.034141 -1.148311 0.084779 -1.193267 0.000000 0.000000
    34 -0.488517 -2.755600 -0.228261 -0.639569 0.054586 -0.144146
    35 0.039889 -1.479791 0.029854 -1.617533 0.000000 0.000000
    36 0.028785 -1.075733 -0.023110 -0.841832 0.000000 0.000000
    37 -1.180679 -2.507216 -0.193861 -0.260565 0.123427 -0.000527
    38 -0.024967 -1.123934 0.017595 -1.253816 0.000000 0.000000
    39 -0.020058 -0.890965 0.010091 -0.839123 0.000000 0.000000
    40 0.120180 -0.051600 -0.063059 0.012085 -2.987703 1.512552
  time 26
    0 13.340777 1.614263 -0.118725 0.673715 -1.187667 -1.516289
    1 -0.071918 -8.498731 -0.104136 0.078569 0.355902 -0.492333
    2 1.054752 -2.729689 1.050994 0.643393 1.323936 1.130239
    3 0.016027 -1.766232 1.182266 0.000000 0.000000 0.000000
    4 0.001592 -1.782947 -0.252182 0.000000 0.000000 0.000000
    5 0.002707 -4.151098 0.297608 0.000000 0.000000 0.000000
    6 0.000000 -0.000001 0.652253 -1.570796 0.000000 -1.572542
    7 -0.995637 -2.680432 -7.610418 -0.153831 0.918498 -0.075518
    8 0.096946 -8.450419 -0.009363 0.297683 -0.730392 0.158590
    9 -0.586769 -1.264477 0.200164 -0.018288 -0.138331 -2.289031
    10 1.522835 0.058680 0.016850 0.000014 0.000010 0.230633
    11 1.117947 0.048424 -0.005765 0.000000 0.000000 0.161483
    12 -0.963867 -2.785143 -0.085346 0.224855 0.147939 0.084275
    13 0.028478 -1.403067 0.006272 -0.460197 -0.000007 -0.000010
    14 0.021412 -0.957782 0.020047 -0.782818 -0.000003 -0.000008
    15 -0.249534 -2.846963 -0.174215 0.273888 0.031983 0.107404
    16 0.043235 -1.683940 0.096015 -1.794454 -0.002684 -0.000611
    17 0.031729 -1.160830 0.058836 -0.492812 0.000000 0.000000
    18 0.447951 -2.798983 -0.200441 -0.089152 0.039836 0.125330
    19 -0.032909 -1.480207 0.004935 -1.740899 0.000000 0.000000
    20 -0.027023 -1.076921 -0.020212 -0.750447 0.000000 0.000000
    21 1.164474 -2.543939 -0.170327 -0.798863 0.035007 0.072044
    22 0.024033 -1.129040 0.017807 -1.576980 -0.020326 0.095001
    23 0.014896 -0.883992 -0.019846 -1.454058 0.101857 0.002205
    24 -0.123215 -0.116973 0.005845 0.342810 0.033999 1.471402
    25 0.583509 -1.197274 0.185379 -0.316868 -0.934124 -0.591403
    26 1.535926 0.010247 0.005009 -0.077271 -0.063135 -0.992232
    27 1.100770 0.004528 -0.010675 0.002721 0.020446 -0.859858
    28 0.957766 -2.746777 -0.090301 -0.015248 -0.045538 0.176122
    29 -0.033419 -1.397128 -0.011255 -0.349227 0.000000 0.000000
    30 -0.022361 -0.957433 0.018783 -0.811565 0.000000 0.000000
    31 0.250029 -2.820664 -0.238396 -0.763388 0.057277 -0.106688
    32 -0.049759 -1.680544 0.100479 -1.613606 0.000000 0.000000
    33 -0.034141 -1.148311 0.084779 -1.193267 0.000000 0.000000
    34 -0.488517 -2.755600 -0.228261 -0.639569 0.054586 -0.144146
    35 0.039889 -1.479791 0.029854 -1.617533 0.000000 0.000000
    36 0.028785 -1.075733 -0.023110 -0.841832 0.000000 0.000000
    37 -1.180679 -2.507216 -0.193861 -0.260565 0.123427 -0.000527
    38 -0.024967 -1.123934 0.017595 -1.253816 0.000000 0.000000
    39 -0.020058 -0.890965 0.010091 -0.839123 0.000000 0.000000
    40 0.120180 -0.051600 -0.063059 0.012085 -2.987703 1.512552
  time 27
    0 13.340777 1.614263 -0.138257 0.670377 -1.188040 -1.513222
    1 -0.071918 -8.498731 -0.104136 0.092634 0.344130 -0.484009
    2 1.054752 -2.729689 1.050994 0.643393 1.323936 1.130239
    3 0.016027 -1.766232 1.182266 0.000000 0.000000 0.000000
    4 0.001592 -1.782947 -0.252182 0.000000 0.000000 0.000000
    5 0.002707 -4.151098 0.297608 0.000000 0.000000 0.000000
    6 0.000000 -0.000001 0.652253 -1.570796 0.000000 -1.572542
    7 -1.003449 -2.680432 -7.141654 -0.055622 0.897369 -0.001529
    8 0.096946 -8.450419 -0.009363 0.235275 -0.771124 0.149268
    9 -0.586769 -1.264477 0.200164 -0.022464 -0.148704 -2.265264
    10 1.522835 0.058680 0.016850 0.000014 0.000010 0.208650
    11 1.117947 0.048424 -0.005765 0.000000 0.000000 0.168836
    12 -0.963867 -2.785143 -0.085346 0.224055 0.144991 0.094977
    13 0.028478 -1.403067 0.006272 -0.483379 -0.000007 -0.000010
    14 0.021412 -0.957782 0.020047 -0.827845 -0.000003 -0.000008
    15 -0.249534 -2.846963 -0.174215 0.292339 0.035818 0.111718
    16 0.043235 -1.683940 0.096015 -1.805722 -0.002684 -0.000611
    17 0.031729 -1.160830 0.058836 -0.475175 0.000000 0.000000
    18 0.447951 -2.798983 -0.200441 -0.056768 0.041298 0.126145
    19 -0.032909 -1.480207 0.004935 -1.758073 0.000000 0.000000
    20 -0.027023 -1.076921 -0.020212 -0.737683 0.000000 0.000000
    21 1.164474 -2.543939 -0.170327 -0.805347 0.035007 0.072044
    22 0.024033 -1.129040 0.017807 -1.583311 -0.020326 0.095001
    23 0.014896 -0.883992 -0.019846 -1.493648 0.101857 0.002205
    24 -0.123215 -0.116973 0.005845 0.342810 0.033999 1.471402
    25 0.583509 -1.197274 0.185379 -0.316868 -0.934124 -0.591403
    26 1.535926 0.010247 0.005009 -0.077271 -0.063135 -0.992232
    27 1.100770 0.004528 -0.010675 0.001977 0.015340 -0.867665
    28 0.957766 -2.746777 -0.090301 -0.015248 -0.045538 0.176122
    29 -0.033419 -1.397128 -0.011255 -0.349227 0.000000 0.000000
    30 -0.022361 -0.957433 0.018783 -0.811565 0.000000 0.000000
    31 0.250029 -2.820664 -0.238396 -0.763388 0.057277 -0.106688
    32 -0.049759 -1.680544 0.100479 -1.613606 0.000000 0.000000
    33 -0.034141 -1.148311 0.084779 -1.193267 0.000000 0.000000
    34 -0.488517 -2.755600 -0.228261 -0.639569 0.054586 -0.144146
    35 0.039889 -1.479791 0.029854 -1.617533 0.000000 0.000000
    36 0.028785 -1.075733 -0.023110 -0.841832 0.000000 0.000000
    37 -1.180679 -2.507216 -0.193861 -0.260565 0.123427 -0.000527
    38 -0.024967 -1.123934 0.017595 -1.253816 0.000000 0.000000
    39 -0.020058 -0.890965 0.010091 -0.839123 0.000000 0.000000
    40 0.120180 -0.051600 -0.063059 0.012085 -2.987703 1.512552
  time 28
    0 13.340777 1.618169 -0.177321 0.659916 -1.192656 -1.503447
    1 -0.071918 -8.498731 -0.104136 0.090502 0.347144 -0.477227
    2 1.054752 -2.729689 1.050994 0.643393 1.323936 1.130239
    3 0.016027 -1.766232 1.182266 0.000000 0.000000 0.000000
    4 0.001592 -1.782947 -0.252182 0.000000 0.000000 0.000000
    5 0.002707 -4.151098 0.297608 0.000000 0.000000 0.000000
    6 0.000000 -0.000001 0.652253 -1.570796 0.000000 -1.572542
    7 -1.003449 -2.692151 -6.715860 -0.017969 0.872093 0.025072
    8 0.096946 -8.450419 -0.009363 0.205555 -0.759158 0.148418
    9 -0.586769 -1.264477 0.200164 -0.026986 -0.174342 -2.240228
    10 1.522835 0.058680 0.016850 0.000014 0.000010 0.183610
    11 1.117947 0.048424 -0.005765 0.000000 0.000000 0.152118
    12 -0.963867 -2.785143 -0.085346 0.224138 0.145314 0.093778
    13 0.028478 -1.403067 0.006272 -0.480804 -0.000007 -0.000010
    14 0.021412 -0.957782 0.020047 -0.822842 -0.000003 -0.000008
    15 -0.249534 -2.846963 -0.174215 0.290289 0.035386 0.111227
    16 0.043235 -1.683940 0.096015 -1.804453 -0.002684 -0.000611
    17 0.031729 -1.160830 0.058836 -0.477132 0.000000 0.000000
    18 0.447951 -2.798983 -0.200441 -0.060390 0.041130 0.126061
    19 -0.032909 -1.480207 0.004935 -1.756155 0.000000 0.000000
    20 -0.027023 -1.076921 -0.020212 -0.739080 0.000000 0.000000
    21 1.164474 -2.543939 -0.170327 -0.804633 0.035007 0.072044
    22 0.024033 -1.129040 0.017807 -1.582605 -0.020326 0.095001
    23 0.014896 -0.883992 -0.019846 -1.489247 0.101857 0.002205
    24 -0.123215 -0.116973 0.005845 0.342810 0.033999 1.471402
    25 0.583509 -1.197274 0.185379 -0.316868 -0.934124 -0.591403
    26 1.535926 0.010247 0.005009 -0.077271 -0.063135 -0.992232
    27 1.100770 0.004528 -0.010675 0.001282 0.010235 -0.875459
    28 0.957766 -2.746777 -0.090301 -0.015248 -0.045538 0.176122
    29 -0.033419 -1.397128 -0.011255 -0.349227 0.000000 0.000000
    30 -0.022361 -0.957433 0.018783 -0.811565 0.000000 0.000000
    31 0.250029 -2.820664 -0.238396 -0.763388 0.057277 -0.106688
    32 -0.049759 -1.680544 0.100479 -1.613606 0.000000 0.000000
    33 -0.034141 -1.148311 0.084779 -1.193267 0.000000 0.000000
    34 -0.488517 -2.755600 -0.228261 -0.639569 0.054586 -0.144146
    35 0.039889 -1.479791 0.029854 -1.617533 0.000000 0.000000
    36 0.028785 -1.075733 -0.023110 -0.841832 0.000000 0.000000
    37 -1.180679 -2.507216 -0.193861 -0.260565 0.123427 -0.000527
    38 -0.024967 -1.123934 0.017595 -1.253816 0.000000 0.000000
    39 -0.020058 -0.890965 0.010091 -0.839123 0.000000 0.000000
    40 0.120180 -0.051600 -0.063059 0.012085 -2.987703 1.512552
  time 29
    0 13.336871 1.618169 -0.216384 0.647378 -1.198275 -1.491755
    1 -0.071918 -8.498731 -0.104136 0.083245 0.354387 -0.469817
    2 1.054752 -2.729689 1.050994 0.643393 1.323936 1.130239
    3 0.016027 -1.766232 1.182266 0.000000 0.000000 0.000000
    4 0.001592 -1.782947 -0.252182 0.000000 0.000000 0.000000
    5 0.002707 -4.151098 0.297608 0.000000 0.000000 0.000000
    6 0.000000 -0.000001 0.652253 -1.570796 0.000000 -1.572542
    7 -1.003449 -2.703870 -6.403350 -0.016116 0.844679 0.022444
    8 0.096946 -8.450419 -0.009363 0.193301 -0.710613 0.150390
    9 -0.586769 -1.264477 0.200164 -0.032284 -0.206029 -2.214441
    10 1.522835 0.058680 0.016850 0.000014 0.000010 0.157314
    11 1.117947 0.048424 -0.005765 0.000000 0.000000 0.125763
    12 -0.963867 -2.785143 -0.085346 0.224579 0.146956 0.087834
    13 0.028478 -1.403067 0.006272 -0.467925 -0.000007 -0.000010
    14 0.021412 -0.957782 0.020047 -0.797827 -0.000003 -0.000008
    15 -0.249534 -2.846963 -0.174215 0.280038 0.033277 0.108830
    16 0.043235 -1.683940 0.096015 -1.798223 -0.002684 -0.000611
    17 0.031729 -1.160830 0.058836 -0.486917 0.000000 0.000000
    18 0.447951 -2.798983 -0.200441 -0.078372 0.040327 0.125606
    19 -0.032909 -1.480207 0.004935 -1.746609 0.000000 0.000000
    20 -0.027023 -1.076921 -0.020212 -0.746192 0.000000 0.000000
    21 1.164474 -2.543939 -0.170327 -0.801025 0.035007 0.072044
    22 0.024033 -1.129040 0.017807 -1.579099 -0.020326 0.095001
    23 0.014896 -0.883992 -0.019846 -1.467240 0.101857 0.002205
    24 -0.123215 -0.116973 0.005845 0.342810 0.033999 1.471402
    25 0.583509 -1.197274 0.185379 -0.316868 -0.934124 -0.591403
    26 1.535926 0.010247 0.005009 -0.077271 -0.063135 -0.992232
    27 1.100770 0.004528 -0.010675 0.000611 0.005117 -0.883253
    28 0.957766 -2.746777 -0.090301 -0.015248 -0.045538 0.176122
    29 -0.033419 -1.397128 -0.011255 -0.349227 0.000000 0.000000
    30 -0.022361 -0.957433 0.018783 -0.811565 0.000000 0.000000
    31 0.250029 -2.820664 -0.238396 -0.763388 0.057277 -0.106688
    32 -0.049759 -1.680544 0.100479 -1.613606 0.000000 0.000000
    33 -0.034141 -1.148311 0.084779 -1.193267 0.000000 0.000000
    34 -0.488517 -2.755600 -0.228261 -0.639569 0.054586 -0.144146
    35 0.039889 -1.479791 0.029854 -1.617533 0.000000 0.000000
    36 0.028785 -1.075733 -0.023110 -0.841832 0.000000 0.000000
    37 -1.180679 -2.507216 -0.193861 -0.260565 0.123427 -0.000527
    38 -0.024967 -1.123934 0.017595 -1.253816 0.000000 0.000000
    39 -0.020058 -0.890965 0.010091 -0.839123 0.000000 0.000000
    40 0.120180 -0.051600 -0.063059 0.012085 -2.987703 1.512552
  time 30
    0 13.332965 1.618169 -0.232010 0.638327 -1.201745 -1.483226
    1 -0.071918 -8.498731 -0.104136 0.076025 0.361696 -0.462426
    2 1.054752 -2.729689 1.050994 0.643393 1.323936 1.130239
    3 0.016027 -1.766232 1.182266 0.000000 0.000000 0.000000
    4 0.001592 -1.782947 -0.252182 0.000000 0.000000 0.000000
    5 0.002707 -4.151098 0.297608 0.000000 0.000000 0.000000
    6 0.000000 -0.000001 0.652253 -1.570796 0.000000 -1.572542
    7 -0.999543 -2.711683 -6.278347 -0.014189 0.817331 0.019816
    8 0.096946 -8.450419 -0.009363 0.181634 -0.662044 0.151551
    9 -0.586769 -1.264477 0.200164 -0.038359 -0.234500 -2.188560
    10 1.522835 0.058680 0.016850 0.000014 0.000010 0.131637
    11 1.117947 0.048424 -0.005765 0.000000 0.000000 0.104206
    12 -0.963867 -2.785143 -0.085346 0.224855 0.147939 0.084275
    13 0.028478 -1.403067 0.006272 -0.460197 -0.000007 -0.000010
    14 0.021412 -0.957782 0.020047 -0.782818 -0.000003 -0.000008
    15 -0.249534 -2.846963 -0.174215 0.273888 0.031983 0.107404
    16 0.043235 -1.683940 0.096015 -1.794454 -0.002684 -0.000611
    17 0.031729 -1.160830 0.058836 -0.492812 0.000000 0.000000
    18 0.447951 -2.798983 -0.200441 -0.089152 0.039836 0.125330
    19 -0.032909 -1.480207 0.004935 -1.740899 0.000000 0.000000
    20 -0.027023 -1.076921 -0.020212 -0.750447 0.000000 0.000000
    21 1.164474 -2.543939 -0.170327 -0.798863 0.035007 0.072044
    22 0.024033 -1.129040 0.017807 -1.576980 -0.020326 0.095001
    23 0.014896 -0.883992 -0.019846 -1.454058 0.101857 0.002205
    24 -0.123215 -0.116973 0.005845 0.342810 0.033999 1.471402
    25 0.583509 -1.197274 0.185379 -0.316868 -0.934124 -0.591403
    26 1.535926 0.010247 0.005009 -0.077271 -0.063135 -0.992232
    27 1.100770 0.004528 -0.010675 0.000000 0.000000 -0.891047
    28 0.957766 -2.746777 -0.090301 -0.015248 -0.045538 0.176122
    29 -0.033419 -1.397128 -0.011255 -0.349227 0.000000 0.000000
    30 -0.022361 -0.957433 0.018783 -0.811565 0.000000 0.000000
    31 0.250029 -2.820664 -0.238396 -0.763388 0.057277 -0.106688
    32 -0.049759 -1.680544 0.100479 -1.613606 0.000000 0.000000
    33 -0.034141 -1.148311 0.084779 -1.193267 0.000000 0.000000
    34 -0.488517 -2.755600 -0.228261 -0.639569 0.054586 -0.144146
    35 0.039889 -1.479791 0.029854 -1.617533 0.000000 0.000000
    36 0.028785 -1.075733 -0.023110 -0.841832 0.000000 0.000000
    37 -1.180679 -2.507216 -0.193861 -0.260565 0.123427 -0.000527
    38 -0.024967 -1.123934 0.017595 -1.253816 0.000000 0.000000
    39 -0.020058 -0.890965 0.010091 -0.839123 0.000000 0.000000
    40 0.120180 -0.051600 -0.063059 0.012085 -2.987703 1.512552
end
