version 1
nodes
  0 "uzi_root_l" -1
  1 "triger01" 0
  2 "reloader01" 0
  3 "megazine01" 0
  4 "Hb01" 0
  5 "uzi_root_r" -1
  6 "triger" 5
  7 "reloader" 5
  8 "Hb" 5
  9 "megazine" 5
  10 "root" -1
  11 "Bone01" 10
  12 "Bone_L_Upper" 11
  13 "Bone_Lefthand" 11
  14 "Bone13" 13
  15 "Bone14" 14
  16 "Bone15" 15
  17 "Bone17" 13
  18 "Bone18" 17
  19 "Bone19" 18
  20 "Bone21" 13
  21 "Bone22" 20
  22 "Bone23" 21
  23 "Bone09" 13
  24 "Bone10" 23
  25 "Bone11" 24
  26 "Bone05" 13
  27 "Bone06" 26
  28 "Bone07" 27
  29 "Bone_Se_Hand-L" 13
  30 "Bone04" 10
  31 "Bone_Righthand" 30
  32 "Bone39" 31
  33 "Bone40" 32
  34 "Bone41" 33
  35 "Bone35" 31
  36 "Bone36" 35
  37 "Bone37" 36
  38 "Bone31" 31
  39 "Bone32" 38
  40 "Bone33" 39
  41 "Bone43" 31
  42 "Bone44" 41
  43 "Bone45" 42
  44 "Bone27" 31
  45 "Bone28" 44
  46 "Bone29" 45
  47 "Bone_Se_Hand-R" 31
  48 "Bone_R_Upper" 30
end
skeleton
  time 0
    0 -5.086093 -7.031678 -4.304819 -0.097498 -0.070460 -1.537089
    1 2.999629 0.000000 1.353194 0.000000 0.000000 1.570798
    2 3.639548 0.000000 3.113282 0.000000 0.000000 1.570798
    3 1.757773 0.000000 1.206649 0.000000 0.000000 1.570798
    4 -1.663432 -0.346000 1.941449 0.000000 0.000000 3.141589
    5 5.281411 -7.304697 -6.429884 0.218855 0.231060 -1.502182
    6 2.999629 0.000000 1.353194 0.000000 0.000000 1.570798
    7 3.639548 0.000000 3.113282 0.000000 0.000000 1.570798
    8 -1.663432 0.346269 1.941449 0.000000 0.000000 3.141589
    9 1.757773 0.000000 1.206649 0.000000 0.000000 1.570798
    10 -0.002752 8.717751 -1.784592 0.000000 0.000000 0.000000
    11 7.837402 -6.205892 -6.784345 0.332262 -2.221342 -0.460848
    12 7.835506 2.711619 -0.345125 1.566717 -3.120997 0.413346
    13 -0.068015 -8.428422 -0.111947 -0.004458 0.239244 -0.265477
    14 -0.488518 -2.755602 -0.228260 -0.434648 0.150360 -0.257287
    15 0.039887 -1.526666 0.010322 -1.357298 -0.013111 0.029747
    16 0.028786 -1.263237 -0.120768 -1.781379 -0.009516 0.040652
    17 0.250027 -2.820665 -0.238396 -0.156951 0.124643 -0.222602
    18 -0.049759 -1.598510 0.041883 -1.435809 0.002613 -0.039072
    19 -0.034142 -1.183469 0.041812 -1.449292 0.002673 -0.038027
    20 0.957766 -2.746780 -0.090302 0.163305 0.113141 0.005480
    21 -0.033420 -1.393223 -0.019070 -0.548424 0.008389 -0.026751
    22 -0.022360 -0.957436 -0.000748 -0.707945 0.007526 -0.034384
    23 -1.180681 -2.507217 -0.193859 -0.276772 0.235764 -0.220698
    24 -0.024967 -1.123934 0.017597 -0.793265 0.006687 -0.033843
    25 -0.020057 -0.906594 0.029622 -0.995434 0.005465 -0.040748
    26 0.583510 -1.193371 0.181473 0.313731 -0.595047 -0.692608
    27 1.516395 -0.153822 0.047979 0.016139 -0.157753 -0.527856
    28 1.007018 -0.182979 0.044010 0.086801 -0.241947 -1.032069
    29 0.038119 -0.319809 -0.031051 0.239607 3.240698 1.548022
    30 -6.751435 -6.680523 -5.138159 0.591220 -4.341456 0.689617
    31 -0.078843 -8.044156 -0.040616 0.111047 -0.074563 -0.056188
    32 0.447953 -2.798986 -0.200443 -0.117835 -0.183226 0.328409
    33 -0.032909 -1.499736 0.036191 -1.759219 0.021968 -0.036827
    34 -0.027022 -1.115984 -0.028023 -0.994625 0.022100 -0.015916
    35 -0.249534 -2.846964 -0.174213 0.009445 -0.070702 0.196948
    36 0.043235 -1.656596 0.056948 -1.763180 -0.024622 0.013759
    37 0.031729 -1.141298 0.054932 -1.121691 -0.012481 0.006191
    38 -0.963866 -2.785145 -0.085350 0.155044 0.028983 0.042035
    39 0.028479 -1.403067 -0.013261 -0.721813 -0.016035 -0.028308
    40 0.021413 -0.942156 0.012233 -1.001550 -0.026869 -0.034324
    41 1.164475 -2.543940 -0.170330 -0.286751 -0.269704 0.327293
    42 0.024032 -1.152480 -0.009538 -1.491828 0.033341 0.067846
    43 0.014898 -0.895708 -0.019848 -0.755705 0.001882 0.038243
    44 -0.586770 -1.264477 0.200161 -0.480709 -0.775215 -2.389088
    45 1.565805 0.035243 0.016848 -0.018844 -0.006943 0.893494
    46 1.110134 0.040611 -0.005766 -0.033752 -0.033060 1.195823
    47 -0.002676 -0.502335 -0.044199 0.290560 0.059641 1.643449
    48 -8.159302 1.698334 -0.469909 1.567286 -0.035897 -0.231757
  time 1
    0 -5.078280 -6.512131 -4.289193 -0.096262 -0.081408 -1.531063
    1 2.999629 0.000000 1.353194 0.639985 0.000000 1.570798
    2 2.385604 0.000000 3.113282 0.000000 0.000000 1.570798
    3 1.757773 0.000000 1.206649 0.000000 0.000000 1.570798
    4 -1.663432 -0.346000 1.941449 0.000000 0.000000 3.141589
    5 5.281411 -7.304697 -6.429884 0.218855 0.231060 -1.502182
    6 2.999629 0.000000 1.353194 0.000000 0.000000 1.570798
    7 3.639548 0.000000 3.113282 0.000000 0.000000 1.570798
    8 -1.663432 0.346269 1.941449 0.000000 0.000000 3.141589
    9 1.757773 0.000000 1.206649 0.000000 0.000000 1.570798
    10 -0.002752 8.717751 -1.784592 0.000000 0.000000 0.000000
    11 7.837402 -6.205892 -6.784345 0.332262 -2.221342 -0.460848
    12 7.835506 2.711619 -0.345125 1.566717 -3.120997 0.413346
    13 -0.068015 -8.428422 -0.111947 -0.004458 0.239244 -0.265477
    14 -0.488518 -2.755602 -0.228260 -0.434648 0.150360 -0.257287
    15 0.039887 -1.526666 0.010322 -1.357298 -0.013111 0.029747
    16 0.028786 -1.263237 -0.120768 -1.781379 -0.009516 0.040652
    17 0.250027 -2.820665 -0.238396 -0.156951 0.124643 -0.222602
    18 -0.049759 -1.598510 0.041883 -1.435809 0.002613 -0.039072
    19 -0.034142 -1.183469 0.041812 -1.449292 0.002673 -0.038027
    20 0.957766 -2.746780 -0.090302 0.163305 0.113141 0.005480
    21 -0.033420 -1.393223 -0.019070 -0.548424 0.008389 -0.026751
    22 -0.022360 -0.957436 -0.000748 -0.707945 0.007526 -0.034384
    23 -1.180681 -2.507217 -0.193859 -0.276772 0.235764 -0.220698
    24 -0.024967 -1.123934 0.017597 -0.793265 0.006687 -0.033843
    25 -0.020057 -0.906594 0.029622 -0.995434 0.005465 -0.040748
    26 0.583510 -1.193371 0.181473 0.313731 -0.595047 -0.692608
    27 1.516395 -0.153822 0.047979 0.016139 -0.157753 -0.527856
    28 1.007018 -0.182979 0.044010 0.086801 -0.241947 -1.032069
    29 0.038119 -0.319809 -0.031051 0.239607 3.240698 1.548022
    30 -6.794405 -6.196133 -5.220193 0.616334 -4.335818 0.719177
    31 -0.078843 -8.044156 -0.040616 0.111047 -0.074563 -0.056363
    32 0.447953 -2.798986 -0.200443 -0.117835 -0.183226 0.328409
    33 -0.032909 -1.499736 0.036191 -1.759219 0.021968 -0.036827
    34 -0.027022 -1.115984 -0.028023 -0.994625 0.022100 -0.015916
    35 -0.249534 -2.846964 -0.174213 0.009445 -0.070702 0.196948
    36 0.043235 -1.656596 0.056948 -1.763180 -0.024622 0.013759
    37 0.031729 -1.141298 0.054932 -1.121691 -0.012481 0.006191
    38 -0.963866 -2.785145 -0.085350 0.132687 0.028983 0.041030
    39 0.028479 -1.406973 -0.021074 -1.082975 -0.030249 -0.036205
    40 0.021413 -0.942156 0.012233 -1.001550 -0.026869 -0.034324
    41 1.164475 -2.543940 -0.170330 -0.286751 -0.269704 0.327293
    42 0.024032 -1.152480 -0.009538 -1.491828 0.033341 0.067846
    43 0.014898 -0.895708 -0.019848 -0.755705 0.001882 0.038243
    44 -0.586770 -1.264477 0.200161 -0.480709 -0.775215 -2.389088
    45 1.565805 0.035243 0.016848 -0.018844 -0.006943 0.893494
    46 1.110134 0.040611 -0.005766 -0.033752 -0.033060 1.195823
    47 -0.002676 -0.502335 -0.044199 0.290560 0.059641 1.643449
    48 -8.174927 0.897529 -0.477722 1.564985 -0.036948 -0.134244
  time 2
    0 -5.086093 -6.535569 -4.199347 -0.095025 -0.104614 -1.535845
    1 2.999629 0.000000 1.353194 0.639985 0.000000 1.570798
    2 2.975465 0.000000 3.113282 0.000000 0.000000 1.570798
    3 1.757773 0.000000 1.206649 0.000000 0.000000 1.570798
    4 -1.663432 -0.346000 1.941449 0.000000 0.000000 3.141589
    5 5.281411 -7.304697 -6.429884 0.218855 0.231060 -1.502182
    6 2.999629 0.000000 1.353194 0.000000 0.000000 1.570798
    7 3.639548 0.000000 3.113282 0.000000 0.000000 1.570798
    8 -1.663432 0.346269 1.941449 0.000000 0.000000 3.141589
    9 1.757773 0.000000 1.206649 0.000000 0.000000 1.570798
    10 -0.002752 8.717751 -1.784592 0.000000 0.000000 0.000000
    11 7.837402 -6.205892 -6.784345 0.332262 -2.221342 -0.460848
    12 7.835506 2.711619 -0.345125 1.566717 -3.120997 0.413346
    13 -0.068015 -8.428422 -0.111947 -0.004458 0.239244 -0.265477
    14 -0.488518 -2.755602 -0.228260 -0.434648 0.150360 -0.257287
    15 0.039887 -1.526666 0.010322 -1.357298 -0.013111 0.029747
    16 0.028786 -1.263237 -0.120768 -1.781379 -0.009516 0.040652
    17 0.250027 -2.820665 -0.238396 -0.156951 0.124643 -0.222602
    18 -0.049759 -1.598510 0.041883 -1.435809 0.002613 -0.039072
    19 -0.034142 -1.183469 0.041812 -1.449292 0.002673 -0.038027
    20 0.957766 -2.746780 -0.090302 0.163305 0.113141 0.005480
    21 -0.033420 -1.393223 -0.019070 -0.548424 0.008389 -0.026751
    22 -0.022360 -0.957436 -0.000748 -0.707945 0.007526 -0.034384
    23 -1.180681 -2.507217 -0.193859 -0.276772 0.235764 -0.220698
    24 -0.024967 -1.123934 0.017597 -0.793265 0.006687 -0.033843
    25 -0.020057 -0.906594 0.029622 -0.995434 0.005465 -0.040748
    26 0.583510 -1.193371 0.181473 0.313731 -0.595047 -0.692608
    27 1.516395 -0.153822 0.047979 0.016139 -0.157753 -0.527856
    28 1.007018 -0.182979 0.044010 0.086801 -0.241947 -1.032069
    29 0.038119 -0.319809 -0.031051 0.239607 3.240698 1.548022
    30 -6.794405 -6.246916 -5.204567 0.627165 -4.332029 0.729062
    31 -0.078843 -8.048062 -0.040616 0.120640 -0.072893 -0.072632
    32 0.447953 -2.798986 -0.200443 -0.117835 -0.183226 0.328409
    33 -0.032909 -1.499736 0.036191 -1.759219 0.021968 -0.036827
    34 -0.027022 -1.115984 -0.028023 -0.994625 0.022100 -0.015916
    35 -0.249534 -2.846964 -0.174213 0.009445 -0.070702 0.196948
    36 0.043235 -1.656596 0.056948 -1.763180 -0.024622 0.013759
    37 0.031729 -1.141298 0.054932 -1.121691 -0.012481 0.006191
    38 -0.963866 -2.785145 -0.085350 0.137764 0.028983 0.041256
    39 0.028479 -1.406973 -0.024980 -1.139403 -0.032694 -0.036960
    40 0.021413 -0.942156 0.012233 -1.001550 -0.026869 -0.034324
    41 1.164475 -2.543940 -0.170330 -0.286751 -0.269704 0.327293
    42 0.024032 -1.152480 -0.009538 -1.491828 0.033341 0.067846
    43 0.014898 -0.895708 -0.019848 -0.755705 0.001882 0.038243
    44 -0.586770 -1.264477 0.200161 -0.480709 -0.775215 -2.389088
    45 1.565805 0.035243 0.016848 -0.018844 -0.006943 0.893494
    46 1.110134 0.040611 -0.005766 -0.033752 -0.033060 1.195823
    47 -0.002676 -0.502335 -0.044199 0.290560 0.059641 1.643449
    48 -8.174927 0.924873 -0.477722 1.565081 -0.036948 -0.137767
  time 3
    0 -5.097812 -6.660573 -4.101688 -0.093598 -0.129318 -1.542541
    1 2.999629 0.000000 1.353194 0.639985 0.000000 1.570798
    2 4.065342 0.000000 3.113282 0.000000 0.000000 1.570798
    3 1.757773 0.000000 1.206649 0.000000 0.000000 1.570798
    4 -1.663432 -0.346000 1.941449 0.000000 0.000000 3.141589
    5 5.281411 -7.304697 -6.429884 0.218855 0.231060 -1.502182
    6 2.999629 0.000000 1.353194 0.000000 0.000000 1.570798
    7 3.639548 0.000000 3.113282 0.000000 0.000000 1.570798
    8 -1.663432 0.346269 1.941449 0.000000 0.000000 3.141589
    9 1.757773 0.000000 1.206649 0.000000 0.000000 1.570798
    10 -0.002752 8.717751 -1.784592 0.000000 0.000000 0.000000
    11 7.837402 -6.205892 -6.784345 0.332262 -2.221342 -0.460848
    12 7.835506 2.711619 -0.345125 1.566717 -3.120997 0.413346
    13 -0.068015 -8.428422 -0.111947 -0.004458 0.239244 -0.265477
    14 -0.488518 -2.755602 -0.228260 -0.434648 0.150360 -0.257287
    15 0.039887 -1.526666 0.010322 -1.357298 -0.013111 0.029747
    16 0.028786 -1.263237 -0.120768 -1.781379 -0.009516 0.040652
    17 0.250027 -2.820665 -0.238396 -0.156951 0.124643 -0.222602
    18 -0.049759 -1.598510 0.041883 -1.435809 0.002613 -0.039072
    19 -0.034142 -1.183469 0.041812 -1.449292 0.002673 -0.038027
    20 0.957766 -2.746780 -0.090302 0.163305 0.113141 0.005480
    21 -0.033420 -1.393223 -0.019070 -0.548424 0.008389 -0.026751
    22 -0.022360 -0.957436 -0.000748 -0.707945 0.007526 -0.034384
    23 -1.180681 -2.507217 -0.193859 -0.276772 0.235764 -0.220698
    24 -0.024967 -1.123934 0.017597 -0.793265 0.006687 -0.033843
    25 -0.020057 -0.906594 0.029622 -0.995434 0.005465 -0.040748
    26 0.583510 -1.193371 0.181473 0.313731 -0.595047 -0.692608
    27 1.516395 -0.153822 0.047979 0.016139 -0.157753 -0.527856
    28 1.007018 -0.182979 0.044010 0.086801 -0.241947 -1.032069
    29 0.038119 -0.319809 -0.031051 0.239607 3.240698 1.548022
    30 -6.782686 -6.391451 -5.173316 0.634833 -4.328702 0.734860
    31 -0.078843 -8.051969 -0.040616 0.131704 -0.070755 -0.091443
    32 0.447953 -2.798986 -0.200443 -0.117835 -0.183226 0.328409
    33 -0.032909 -1.499736 0.036191 -1.759219 0.021968 -0.036827
    34 -0.027022 -1.115984 -0.028023 -0.994625 0.022100 -0.015916
    35 -0.249534 -2.846964 -0.174213 0.009445 -0.070702 0.196948
    36 0.043235 -1.656596 0.056948 -1.763180 -0.024622 0.013759
    37 0.031729 -1.141298 0.054932 -1.121691 -0.012481 0.006191
    38 -0.963866 -2.785145 -0.085350 0.147820 0.028983 0.041709
    39 0.028479 -1.406973 -0.024980 -1.136291 -0.032550 -0.036913
    40 0.021413 -0.942156 0.012233 -1.001550 -0.026869 -0.034324
    41 1.164475 -2.543940 -0.170330 -0.286751 -0.269704 0.327293
    42 0.024032 -1.152480 -0.009538 -1.491828 0.033341 0.067846
    43 0.014898 -0.895708 -0.019848 -0.755705 0.001882 0.038243
    44 -0.586770 -1.264477 0.200161 -0.480709 -0.775215 -2.389088
    45 1.565805 0.035243 0.016848 -0.018844 -0.006943 0.893494
    46 1.110134 0.040611 -0.005766 -0.033752 -0.033060 1.195823
    47 -0.002676 -0.502335 -0.044199 0.290560 0.059641 1.643449
    48 -8.178833 1.112379 -0.473815 1.565560 -0.036662 -0.160241
  time 4
    0 -5.101718 -6.777764 -4.050905 -0.092647 -0.142324 -1.547036
    1 2.999629 0.000000 1.353194 0.639985 0.000000 1.570798
    2 4.655204 0.000000 3.113282 0.000000 0.000000 1.570798
    3 1.757773 0.000000 1.206649 0.000000 0.000000 1.570798
    4 -1.663432 -0.346000 1.941449 0.000000 0.000000 3.141589
    5 5.281411 -7.304697 -6.429884 0.218855 0.231060 -1.502182
    6 2.999629 0.000000 1.353194 0.000000 0.000000 1.570798
    7 3.639548 0.000000 3.113282 0.000000 0.000000 1.570798
    8 -1.663432 0.346269 1.941449 0.000000 0.000000 3.141589
    9 1.757773 0.000000 1.206649 0.000000 0.000000 1.570798
    10 -0.002752 8.717751 -1.784592 0.000000 0.000000 0.000000
    11 7.837402 -6.205892 -6.784345 0.332262 -2.221342 -0.460848
    12 7.835506 2.711619 -0.345125 1.566717 -3.120997 0.413346
    13 -0.068015 -8.428422 -0.111947 -0.004458 0.239244 -0.265477
    14 -0.488518 -2.755602 -0.228260 -0.434648 0.150360 -0.257287
    15 0.039887 -1.526666 0.010322 -1.357298 -0.013111 0.029747
    16 0.028786 -1.263237 -0.120768 -1.781379 -0.009516 0.040652
    17 0.250027 -2.820665 -0.238396 -0.156951 0.124643 -0.222602
    18 -0.049759 -1.598510 0.041883 -1.435809 0.002613 -0.039072
    19 -0.034142 -1.183469 0.041812 -1.449292 0.002673 -0.038027
    20 0.957766 -2.746780 -0.090302 0.163305 0.113141 0.005480
    21 -0.033420 -1.393223 -0.019070 -0.548424 0.008389 -0.026751
    22 -0.022360 -0.957436 -0.000748 -0.707945 0.007526 -0.034384
    23 -1.180681 -2.507217 -0.193859 -0.276772 0.235764 -0.220698
    24 -0.024967 -1.123934 0.017597 -0.793265 0.006687 -0.033843
    25 -0.020057 -0.906594 0.029622 -0.995434 0.005465 -0.040748
    26 0.583510 -1.193371 0.181473 0.313731 -0.595047 -0.692608
    27 1.516395 -0.153822 0.047979 0.016139 -0.157753 -0.527856
    28 1.007018 -0.182979 0.044010 0.086801 -0.241947 -1.032069
    29 0.038119 -0.319809 -0.031051 0.239607 3.240698 1.548022
    30 -6.774874 -6.516455 -5.145972 0.635888 -4.327870 0.734480
    31 -0.078843 -8.055875 -0.040616 0.138210 -0.069395 -0.102494
    32 0.447953 -2.798986 -0.200443 -0.117835 -0.183226 0.328409
    33 -0.032909 -1.499736 0.036191 -1.759219 0.021968 -0.036827
    34 -0.027022 -1.115984 -0.028023 -0.994625 0.022100 -0.015916
    35 -0.249534 -2.846964 -0.174213 0.009445 -0.070702 0.196948
    36 0.043235 -1.656596 0.056948 -1.763180 -0.024622 0.013759
    37 0.031729 -1.141298 0.054932 -1.121691 -0.012481 0.006191
    38 -0.963866 -2.785145 -0.085350 0.155044 0.028983 0.042035
    39 0.028479 -1.406973 -0.024980 -1.095886 -0.030800 -0.036385
    40 0.021413 -0.942156 0.012233 -1.001550 -0.026869 -0.034324
    41 1.164475 -2.543940 -0.170330 -0.286751 -0.269704 0.327293
    42 0.024032 -1.152480 -0.009538 -1.491828 0.033341 0.067846
    43 0.014898 -0.895708 -0.019848 -0.755705 0.001882 0.038243
    44 -0.586770 -1.264477 0.200161 -0.480709 -0.775215 -2.389088
    45 1.565805 0.035243 0.016848 -0.018844 -0.006943 0.893494
    46 1.110134 0.040611 -0.005766 -0.033752 -0.033060 1.195823
    47 -0.002676 -0.502335 -0.044199 0.290560 0.059641 1.643449
    48 -8.174927 1.288165 -0.473815 1.566136 -0.036470 -0.181667
  time 5
    0 -5.101718 -6.844172 -4.031373 -0.089889 -0.143821 -1.545888
    1 2.999629 0.000000 1.353194 0.573444 0.000000 1.570798
    2 4.147376 0.000000 3.113282 0.000000 0.000000 1.570798
    3 1.757773 0.000000 1.206649 0.000000 0.000000 1.570798
    4 -1.663432 -0.346000 1.941449 0.000000 0.000000 3.141589
    5 5.281411 -7.304697 -6.429884 0.218855 0.231060 -1.502182
    6 2.999629 0.000000 1.353194 0.000000 0.000000 1.570798
    7 3.639548 0.000000 3.113282 0.000000 0.000000 1.570798
    8 -1.663432 0.346269 1.941449 0.000000 0.000000 3.141589
    9 1.757773 0.000000 1.206649 0.000000 0.000000 1.570798
    10 -0.002752 8.717751 -1.784592 0.000000 0.000000 0.000000
    11 7.837402 -6.205892 -6.784345 0.332262 -2.221342 -0.460848
    12 7.835506 2.711619 -0.345125 1.566717 -3.120997 0.413346
    13 -0.068015 -8.428422 -0.111947 -0.004458 0.239244 -0.265477
    14 -0.488518 -2.755602 -0.228260 -0.434648 0.150360 -0.257287
    15 0.039887 -1.526666 0.010322 -1.357298 -0.013111 0.029747
    16 0.028786 -1.263237 -0.120768 -1.781379 -0.009516 0.040652
    17 0.250027 -2.820665 -0.238396 -0.156951 0.124643 -0.222602
    18 -0.049759 -1.598510 0.041883 -1.435809 0.002613 -0.039072
    19 -0.034142 -1.183469 0.041812 -1.449292 0.002673 -0.038027
    20 0.957766 -2.746780 -0.090302 0.163305 0.113141 0.005480
    21 -0.033420 -1.393223 -0.019070 -0.548424 0.008389 -0.026751
    22 -0.022360 -0.957436 -0.000748 -0.707945 0.007526 -0.034384
    23 -1.180681 -2.507217 -0.193859 -0.276772 0.235764 -0.220698
    24 -0.024967 -1.123934 0.017597 -0.793265 0.006687 -0.033843
    25 -0.020057 -0.906594 0.029622 -0.995434 0.005465 -0.040748
    26 0.583510 -1.193371 0.181473 0.313731 -0.595047 -0.692608
    27 1.516395 -0.153822 0.047979 0.016139 -0.157753 -0.527856
    28 1.007018 -0.182979 0.044010 0.086801 -0.241947 -1.032069
    29 0.038119 -0.319809 -0.031051 0.239607 3.240698 1.548022
    30 -6.770967 -6.582864 -5.130346 0.635600 -4.327593 0.733529
    31 -0.078843 -8.055875 -0.040616 0.137548 -0.072737 -0.104642
    32 0.447953 -2.798986 -0.200443 -0.117835 -0.183226 0.328409
    33 -0.032909 -1.499736 0.036191 -1.759219 0.021968 -0.036827
    34 -0.027022 -1.115984 -0.028023 -0.994625 0.022100 -0.015916
    35 -0.249534 -2.846964 -0.174213 0.009445 -0.070702 0.196948
    36 0.043235 -1.656596 0.056948 -1.763180 -0.024622 0.013759
    37 0.031729 -1.141298 0.054932 -1.121691 -0.012481 0.006191
    38 -0.963866 -2.785145 -0.085350 0.156826 0.028983 0.042123
    39 0.028479 -1.406973 -0.021074 -1.015423 -0.027385 -0.035127
    40 0.021413 -0.942156 0.012233 -1.001550 -0.026869 -0.034324
    41 1.164475 -2.543940 -0.170330 -0.286751 -0.269704 0.327293
    42 0.024032 -1.152480 -0.009538 -1.491828 0.033341 0.067846
    43 0.014898 -0.895708 -0.019848 -0.755705 0.001882 0.038243
    44 -0.586770 -1.264477 0.200161 -0.480709 -0.775215 -2.389088
    45 1.565805 0.035243 0.016848 -0.018844 -0.006943 0.893494
    46 1.110134 0.040611 -0.005766 -0.033752 -0.033060 1.195823
    47 -0.002676 -0.502335 -0.044199 0.290560 0.059641 1.643449
    48 -8.174927 1.389731 -0.473815 1.566423 -0.036375 -0.194047
  time 6
    0 -5.097812 -6.902768 -4.023560 -0.085703 -0.140266 -1.541680
    1 2.999629 0.000000 1.353194 0.414721 0.000000 1.570798
    2 3.639548 0.000000 3.113282 0.000000 0.000000 1.570798
    3 1.757773 0.000000 1.206649 0.000000 0.000000 1.570798
    4 -1.663432 -0.346000 1.941449 0.000000 0.000000 3.141589
    5 5.281411 -7.304697 -6.429884 0.218855 0.231060 -1.502182
    6 2.999629 0.000000 1.353194 0.000000 0.000000 1.570798
    7 3.639548 0.000000 3.113282 0.000000 0.000000 1.570798
    8 -1.663432 0.346269 1.941449 0.000000 0.000000 3.141589
    9 1.757773 0.000000 1.206649 0.000000 0.000000 1.570798
    10 -0.002752 8.717751 -1.784592 0.000000 0.000000 0.000000
    11 7.837402 -6.205892 -6.784345 0.332262 -2.221342 -0.460848
    12 7.835506 2.711619 -0.345125 1.566717 -3.120997 0.413346
    13 -0.068015 -8.428422 -0.111947 -0.004458 0.239244 -0.265477
    14 -0.488518 -2.755602 -0.228260 -0.434648 0.150360 -0.257287
    15 0.039887 -1.526666 0.010322 -1.357298 -0.013111 0.029747
    16 0.028786 -1.263237 -0.120768 -1.781379 -0.009516 0.040652
    17 0.250027 -2.820665 -0.238396 -0.156951 0.124643 -0.222602
    18 -0.049759 -1.598510 0.041883 -1.435809 0.002613 -0.039072
    19 -0.034142 -1.183469 0.041812 -1.449292 0.002673 -0.038027
    20 0.957766 -2.746780 -0.090302 0.163305 0.113141 0.005480
    21 -0.033420 -1.393223 -0.019070 -0.548424 0.008389 -0.026751
    22 -0.022360 -0.957436 -0.000748 -0.707945 0.007526 -0.034384
    23 -1.180681 -2.507217 -0.193859 -0.276772 0.235764 -0.220698
    24 -0.024967 -1.123934 0.017597 -0.793265 0.006687 -0.033843
    25 -0.020057 -0.906594 0.029622 -0.995434 0.005465 -0.040748
    26 0.583510 -1.193371 0.181473 0.313731 -0.595047 -0.692608
    27 1.516395 -0.153822 0.047979 0.016139 -0.157753 -0.527856
    28 1.007018 -0.182979 0.044010 0.086801 -0.241947 -1.032069
    29 0.038119 -0.319809 -0.031051 0.239607 3.240698 1.548022
    30 -6.763155 -6.641459 -5.118627 0.635025 -4.327500 0.732389
    31 -0.078843 -8.055875 -0.040616 0.133285 -0.079032 -0.102801
    32 0.447953 -2.798986 -0.200443 -0.117835 -0.183226 0.328409
    33 -0.032909 -1.499736 0.036191 -1.759219 0.021968 -0.036827
    34 -0.027022 -1.115984 -0.028023 -0.994625 0.022100 -0.015916
    35 -0.249534 -2.846964 -0.174213 0.009445 -0.070702 0.196948
    36 0.043235 -1.656596 0.056948 -1.763180 -0.024622 0.013759
    37 0.031729 -1.141298 0.054932 -1.121691 -0.012481 0.006191
    38 -0.963866 -2.785145 -0.085350 0.156631 0.028983 0.042111
    39 0.028479 -1.403067 -0.017167 -0.901760 -0.022759 -0.032886
    40 0.021413 -0.942156 0.012233 -1.001550 -0.026869 -0.034324
    41 1.164475 -2.543940 -0.170330 -0.286751 -0.269704 0.327293
    42 0.024032 -1.152480 -0.009538 -1.491828 0.033341 0.067846
    43 0.014898 -0.895708 -0.019848 -0.755705 0.001882 0.038243
    44 -0.586770 -1.264477 0.200161 -0.480709 -0.775215 -2.389088
    45 1.565805 0.035243 0.016848 -0.018844 -0.006943 0.893494
    46 1.110134 0.040611 -0.005766 -0.033752 -0.033060 1.195823
    47 -0.002676 -0.502335 -0.044199 0.290560 0.059641 1.643449
    48 -8.171021 1.475671 -0.473815 1.566711 -0.036184 -0.204617
  time 7
    0 -5.097812 -6.961364 -4.078249 -0.085513 -0.126978 -1.539671
    1 2.999629 0.000000 1.353194 0.225264 0.000000 1.570798
    2 3.639548 0.000000 3.113282 0.000000 0.000000 1.570798
    3 1.757773 0.000000 1.206649 0.000000 0.000000 1.570798
    4 -1.663432 -0.346000 1.941449 0.000000 0.000000 3.141589
    5 5.281411 -7.304697 -6.429884 0.218855 0.231060 -1.502182
    6 2.999629 0.000000 1.353194 0.000000 0.000000 1.570798
    7 3.639548 0.000000 3.113282 0.000000 0.000000 1.570798
    8 -1.663432 0.346269 1.941449 0.000000 0.000000 3.141589
    9 1.757773 0.000000 1.206649 0.000000 0.000000 1.570798
    10 -0.002752 8.717751 -1.784592 0.000000 0.000000 0.000000
    11 7.837402 -6.205892 -6.784345 0.332262 -2.221342 -0.460848
    12 7.835506 2.711619 -0.345125 1.566717 -3.120997 0.413346
    13 -0.068015 -8.428422 -0.111947 -0.004458 0.239244 -0.265477
    14 -0.488518 -2.755602 -0.228260 -0.434648 0.150360 -0.257287
    15 0.039887 -1.526666 0.010322 -1.357298 -0.013111 0.029747
    16 0.028786 -1.263237 -0.120768 -1.781379 -0.009516 0.040652
    17 0.250027 -2.820665 -0.238396 -0.156951 0.124643 -0.222602
    18 -0.049759 -1.598510 0.041883 -1.435809 0.002613 -0.039072
    19 -0.034142 -1.183469 0.041812 -1.449292 0.002673 -0.038027
    20 0.957766 -2.746780 -0.090302 0.163305 0.113141 0.005480
    21 -0.033420 -1.393223 -0.019070 -0.548424 0.008389 -0.026751
    22 -0.022360 -0.957436 -0.000748 -0.707945 0.007526 -0.034384
    23 -1.180681 -2.507217 -0.193859 -0.276772 0.235764 -0.220698
    24 -0.024967 -1.123934 0.017597 -0.793265 0.006687 -0.033843
    25 -0.020057 -0.906594 0.029622 -0.995434 0.005465 -0.040748
    26 0.583510 -1.193371 0.181473 0.313731 -0.595047 -0.692608
    27 1.516395 -0.153822 0.047979 0.016139 -0.157753 -0.527856
    28 1.007018 -0.182979 0.044010 0.086801 -0.241947 -1.032069
    29 0.038119 -0.319809 -0.031051 0.239607 3.240698 1.548022
    30 -6.759248 -6.680523 -5.114721 0.623715 -4.331105 0.720983
    31 -0.078843 -8.055875 -0.040616 0.128580 -0.081091 -0.095916
    32 0.447953 -2.798986 -0.200443 -0.117835 -0.183226 0.328409
    33 -0.032909 -1.499736 0.036191 -1.759219 0.021968 -0.036827
    34 -0.027022 -1.115984 -0.028023 -0.994625 0.022100 -0.015916
    35 -0.249534 -2.846964 -0.174213 0.009445 -0.070702 0.196948
    36 0.043235 -1.656596 0.056948 -1.763180 -0.024622 0.013759
    37 0.031729 -1.141298 0.054932 -1.121691 -0.012481 0.006191
    38 -0.963866 -2.785145 -0.085350 0.155630 0.028983 0.042061
    39 0.028479 -1.403067 -0.017167 -0.791613 -0.018540 -0.030225
    40 0.021413 -0.942156 0.012233 -1.001550 -0.026869 -0.034324
    41 1.164475 -2.543940 -0.170330 -0.286751 -0.269704 0.327293
    42 0.024032 -1.152480 -0.009538 -1.491828 0.033341 0.067846
    43 0.014898 -0.895708 -0.019848 -0.755705 0.001882 0.038243
    44 -0.586770 -1.264477 0.200161 -0.480709 -0.775215 -2.389088
    45 1.565805 0.035243 0.016848 -0.018844 -0.006943 0.893494
    46 1.110134 0.040611 -0.005766 -0.033752 -0.033060 1.195823
    47 -0.002676 -0.502335 -0.044199 0.290560 0.059641 1.643449
    48 -8.167114 1.577237 -0.469909 1.566998 -0.036088 -0.216997
  time 8
    0 -5.097812 -7.031678 -4.269662 -0.094835 -0.099094 -1.544932
    1 2.999629 0.000000 1.353194 0.066542 0.000000 1.570798
    2 3.639548 0.000000 3.113282 0.000000 0.000000 1.570798
    3 1.757773 0.000000 1.206649 0.000000 0.000000 1.570798
    4 -1.663432 -0.346000 1.941449 0.000000 0.000000 3.141589
    5 5.281411 -7.304697 -6.429884 0.218855 0.231060 -1.502182
    6 2.999629 0.000000 1.353194 0.000000 0.000000 1.570798
    7 3.639548 0.000000 3.113282 0.000000 0.000000 1.570798
    8 -1.663432 0.346269 1.941449 0.000000 0.000000 3.141589
    9 1.757773 0.000000 1.206649 0.000000 0.000000 1.570798
    10 -0.002752 8.717751 -1.784592 0.000000 0.000000 0.000000
    11 7.837402 -6.205892 -6.784345 0.332262 -2.221342 -0.460848
    12 7.835506 2.711619 -0.345125 1.566717 -3.120997 0.413346
    13 -0.068015 -8.428422 -0.111947 -0.004458 0.239244 -0.265477
    14 -0.488518 -2.755602 -0.228260 -0.434648 0.150360 -0.257287
    15 0.039887 -1.526666 0.010322 -1.357298 -0.013111 0.029747
    16 0.028786 -1.263237 -0.120768 -1.781379 -0.009516 0.040652
    17 0.250027 -2.820665 -0.238396 -0.156951 0.124643 -0.222602
    18 -0.049759 -1.598510 0.041883 -1.435809 0.002613 -0.039072
    19 -0.034142 -1.183469 0.041812 -1.449292 0.002673 -0.038027
    20 0.957766 -2.746780 -0.090302 0.163305 0.113141 0.005480
    21 -0.033420 -1.393223 -0.019070 -0.548424 0.008389 -0.026751
    22 -0.022360 -0.957436 -0.000748 -0.707945 0.007526 -0.034384
    23 -1.180681 -2.507217 -0.193859 -0.276772 0.235764 -0.220698
    24 -0.024967 -1.123934 0.017597 -0.793265 0.006687 -0.033843
    25 -0.020057 -0.906594 0.029622 -0.995434 0.005465 -0.040748
    26 0.583510 -1.193371 0.181473 0.313731 -0.595047 -0.692608
    27 1.516395 -0.153822 0.047979 0.016139 -0.157753 -0.527856
    28 1.007018 -0.182979 0.044010 0.086801 -0.241947 -1.032069
    29 0.038119 -0.319809 -0.031051 0.239607 3.240698 1.548022
    30 -6.747529 -6.692242 -5.134252 0.589974 -4.341826 0.688286
    31 -0.078843 -8.051969 -0.040616 0.126815 -0.071727 -0.082936
    32 0.447953 -2.798986 -0.200443 -0.117835 -0.183226 0.328409
    33 -0.032909 -1.499736 0.036191 -1.759219 0.021968 -0.036827
    34 -0.027022 -1.115984 -0.028023 -0.994625 0.022100 -0.015916
    35 -0.249534 -2.846964 -0.174213 0.009445 -0.070702 0.196948
    36 0.043235 -1.656596 0.056948 -1.763180 -0.024622 0.013759
    37 0.031729 -1.141298 0.054932 -1.121691 -0.012481 0.006191
    38 -0.963866 -2.785145 -0.085350 0.155044 0.028983 0.042035
    39 0.028479 -1.403067 -0.013261 -0.721813 -0.016035 -0.028308
    40 0.021413 -0.942156 0.012233 -1.001550 -0.026869 -0.034324
    41 1.164475 -2.543940 -0.170330 -0.286751 -0.269704 0.327293
    42 0.024032 -1.152480 -0.009538 -1.491828 0.033341 0.067846
    43 0.014898 -0.895708 -0.019848 -0.755705 0.001882 0.038243
    44 -0.586770 -1.264477 0.200161 -0.480709 -0.775215 -2.389088
    45 1.565805 0.035243 0.016848 -0.018844 -0.006943 0.893494
    46 1.110134 0.040611 -0.005766 -0.033752 -0.033060 1.195823
    47 -0.002676 -0.502335 -0.044199 0.290560 0.059641 1.643449
    48 -8.159302 1.721772 -0.469909 1.567382 -0.035897 -0.234423
  time 9
    0 -5.105625 -7.109806 -4.617328 -0.116522 -0.053430 -1.559184
    1 2.999629 0.000000 1.353194 0.000000 0.000000 1.570798
    2 3.639548 0.000000 3.113282 0.000000 0.000000 1.570798
    3 1.757773 0.000000 1.206649 0.000000 0.000000 1.570798
    4 -1.663432 -0.346000 1.941449 0.000000 0.000000 3.141589
    5 5.281411 -7.304697 -6.429884 0.218855 0.231060 -1.502182
    6 2.999629 0.000000 1.353194 0.000000 0.000000 1.570798
    7 3.639548 0.000000 3.113282 0.000000 0.000000 1.570798
    8 -1.663432 0.346269 1.941449 0.000000 0.000000 3.141589
    9 1.757773 0.000000 1.206649 0.000000 0.000000 1.570798
    10 -0.002752 8.717751 -1.784592 0.000000 0.000000 0.000000
    11 7.837402 -6.205892 -6.784345 0.332262 -2.221342 -0.460848
    12 7.835506 2.711619 -0.345125 1.566717 -3.120997 0.413346
    13 -0.068015 -8.428422 -0.111947 -0.004458 0.239244 -0.265477
    14 -0.488518 -2.755602 -0.228260 -0.434648 0.150360 -0.257287
    15 0.039887 -1.526666 0.010322 -1.357298 -0.013111 0.029747
    16 0.028786 -1.263237 -0.120768 -1.781379 -0.009516 0.040652
    17 0.250027 -2.820665 -0.238396 -0.156951 0.124643 -0.222602
    18 -0.049759 -1.598510 0.041883 -1.435809 0.002613 -0.039072
    19 -0.034142 -1.183469 0.041812 -1.449292 0.002673 -0.038027
    20 0.957766 -2.746780 -0.090302 0.163305 0.113141 0.005480
    21 -0.033420 -1.393223 -0.019070 -0.548424 0.008389 -0.026751
    22 -0.022360 -0.957436 -0.000748 -0.707945 0.007526 -0.034384
    23 -1.180681 -2.507217 -0.193859 -0.276772 0.235764 -0.220698
    24 -0.024967 -1.123934 0.017597 -0.793265 0.006687 -0.033843
    25 -0.020057 -0.906594 0.029622 -0.995434 0.005465 -0.040748
    26 0.583510 -1.193371 0.181473 0.313731 -0.595047 -0.692608
    27 1.516395 -0.153822 0.047979 0.016139 -0.157753 -0.527856
    28 1.007018 -0.182979 0.044010 0.086801 -0.241947 -1.032069
    29 0.038119 -0.319809 -0.031051 0.239607 3.240698 1.548022
    30 -6.731904 -6.672710 -5.177222 0.524027 -4.360218 0.624603
    31 -0.074936 -8.048062 -0.044522 0.128911 -0.048646 -0.062677
    32 0.447953 -2.798986 -0.200443 -0.117835 -0.183226 0.328409
    33 -0.032909 -1.499736 0.036191 -1.759219 0.021968 -0.036827
    34 -0.027022 -1.115984 -0.028023 -0.994625 0.022100 -0.015916
    35 -0.249534 -2.846964 -0.174213 0.009445 -0.070702 0.196948
    36 0.043235 -1.656596 0.056948 -1.763180 -0.024622 0.013759
    37 0.031729 -1.141298 0.054932 -1.121691 -0.012481 0.006191
    38 -0.963866 -2.785145 -0.085350 0.155044 0.028983 0.042035
    39 0.028479 -1.403067 -0.013261 -0.695818 -0.015137 -0.027553
    40 0.021413 -0.942156 0.012233 -1.001550 -0.026869 -0.034324
    41 1.164475 -2.543940 -0.170330 -0.286751 -0.269704 0.327293
    42 0.024032 -1.152480 -0.009538 -1.491828 0.033341 0.067846
    43 0.014898 -0.895708 -0.019848 -0.755705 0.001882 0.038243
    44 -0.586770 -1.264477 0.200161 -0.480709 -0.775215 -2.389088
    45 1.565805 0.035243 0.016848 -0.018844 -0.006943 0.893494
    46 1.110134 0.040611 -0.005766 -0.033752 -0.033060 1.195823
    47 -0.002676 -0.502335 -0.044199 0.290560 0.059641 1.643449
    48 -8.139770 1.924904 -0.469909 1.567957 -0.035515 -0.259087
  time 10
    0 -5.117344 -7.180120 -5.086093 -0.147531 0.004679 -1.579079
    1 2.999629 0.000000 1.353194 0.000000 0.000000 1.570798
    2 3.639548 0.000000 3.113282 0.000000 0.000000 1.570798
    3 1.757773 0.000000 1.206649 0.000000 0.000000 1.570798
    4 -1.663432 -0.346000 1.941449 0.000000 0.000000 3.141589
    5 5.281411 -7.304697 -6.429884 0.218855 0.231060 -1.502182
    6 2.999629 0.000000 1.353194 0.000000 0.000000 1.570798
    7 3.639548 0.000000 3.113282 0.000000 0.000000 1.570798
    8 -1.663432 0.346269 1.941449 0.000000 0.000000 3.141589
    9 1.757773 0.000000 1.206649 0.000000 0.000000 1.570798
    10 -0.002752 8.717751 -1.784592 0.000000 0.000000 0.000000
    11 7.837402 -6.205892 -6.784345 0.332262 -2.221342 -0.460848
    12 7.835506 2.711619 -0.345125 1.566717 -3.120997 0.413346
    13 -0.068015 -8.428422 -0.111947 -0.004458 0.239244 -0.265477
    14 -0.488518 -2.755602 -0.228260 -0.434648 0.150360 -0.257287
    15 0.039887 -1.526666 0.010322 -1.357298 -0.013111 0.029747
    16 0.028786 -1.263237 -0.120768 -1.781379 -0.009516 0.040652
    17 0.250027 -2.820665 -0.238396 -0.156951 0.124643 -0.222602
    18 -0.049759 -1.598510 0.041883 -1.435809 0.002613 -0.039072
    19 -0.034142 -1.183469 0.041812 -1.449292 0.002673 -0.038027
    20 0.957766 -2.746780 -0.090302 0.163305 0.113141 0.005480
    21 -0.033420 -1.393223 -0.019070 -0.548424 0.008389 -0.026751
    22 -0.022360 -0.957436 -0.000748 -0.707945 0.007526 -0.034384
    23 -1.180681 -2.507217 -0.193859 -0.276772 0.235764 -0.220698
    24 -0.024967 -1.123934 0.017597 -0.793265 0.006687 -0.033843
    25 -0.020057 -0.906594 0.029622 -0.995434 0.005465 -0.040748
    26 0.583510 -1.193371 0.181473 0.313731 -0.595047 -0.692608
    27 1.516395 -0.153822 0.047979 0.016139 -0.157753 -0.527856
    28 1.007018 -0.182979 0.044010 0.086801 -0.241947 -1.032069
    29 0.038119 -0.319809 -0.031051 0.239607 3.240698 1.548022
    30 -6.716278 -6.633646 -5.239724 0.427599 -4.381659 0.531360
    31 -0.071030 -8.044156 -0.052335 0.133358 -0.017212 -0.036499
    32 0.447953 -2.798986 -0.200443 -0.117835 -0.183226 0.328409
    33 -0.032909 -1.499736 0.036191 -1.759219 0.021968 -0.036827
    34 -0.027022 -1.115984 -0.028023 -0.994625 0.022100 -0.015916
    35 -0.249534 -2.846964 -0.174213 0.009445 -0.070702 0.196948
    36 0.043235 -1.656596 0.056948 -1.763180 -0.024622 0.013759
    37 0.031729 -1.141298 0.054932 -1.121691 -0.012481 0.006191
    38 -0.963866 -2.785145 -0.085350 0.155044 0.028983 0.042035
    39 0.028479 -1.403067 -0.013261 -0.688556 -0.014885 -0.027337
    40 0.021413 -0.942156 0.012233 -1.001550 -0.026869 -0.034324
    41 1.164475 -2.543940 -0.170330 -0.286751 -0.269704 0.327293
    42 0.024032 -1.152480 -0.009538 -1.491828 0.033341 0.067846
    43 0.014898 -0.895708 -0.019848 -0.755705 0.001882 0.038243
    44 -0.586770 -1.264477 0.200161 -0.480709 -0.775215 -2.389088
    45 1.565805 0.035243 0.016848 -0.018844 -0.006943 0.893494
    46 1.110134 0.040611 -0.005766 -0.033752 -0.033060 1.195823
    47 -0.002676 -0.502335 -0.044199 0.290560 0.059641 1.643449
    48 -8.116331 2.163192 -0.466002 1.568628 -0.035132 -0.288513
  time 11
    0 -5.129063 -7.226997 -5.605640 -0.184628 0.067934 -1.602225
    1 2.999629 0.000000 1.353194 0.000000 0.000000 1.570798
    2 3.639548 0.000000 3.113282 0.000000 0.000000 1.570798
    3 1.757773 0.000000 1.206649 0.000000 0.000000 1.570798
    4 -1.663432 -0.346000 1.941449 0.000000 0.000000 3.141589
    5 5.281411 -7.304697 -6.429884 0.218855 0.231060 -1.502182
    6 2.999629 0.000000 1.353194 0.000000 0.000000 1.570798
    7 3.639548 0.000000 3.113282 0.000000 0.000000 1.570798
    8 -1.663432 0.346269 1.941449 0.000000 0.000000 3.141589
    9 1.757773 0.000000 1.206649 0.000000 0.000000 1.570798
    10 -0.002752 8.717751 -1.784592 0.000000 0.000000 0.000000
    11 7.837402 -6.205892 -6.784345 0.332262 -2.221342 -0.460848
    12 7.835506 2.711619 -0.345125 1.566717 -3.120997 0.413346
    13 -0.068015 -8.428422 -0.111947 -0.004458 0.239244 -0.265477
    14 -0.488518 -2.755602 -0.228260 -0.434648 0.150360 -0.257287
    15 0.039887 -1.526666 0.010322 -1.357298 -0.013111 0.029747
    16 0.028786 -1.263237 -0.120768 -1.781379 -0.009516 0.040652
    17 0.250027 -2.820665 -0.238396 -0.156951 0.124643 -0.222602
    18 -0.049759 -1.598510 0.041883 -1.435809 0.002613 -0.039072
    19 -0.034142 -1.183469 0.041812 -1.449292 0.002673 -0.038027
    20 0.957766 -2.746780 -0.090302 0.163305 0.113141 0.005480
    21 -0.033420 -1.393223 -0.019070 -0.548424 0.008389 -0.026751
    22 -0.022360 -0.957436 -0.000748 -0.707945 0.007526 -0.034384
    23 -1.180681 -2.507217 -0.193859 -0.276772 0.235764 -0.220698
    24 -0.024967 -1.123934 0.017597 -0.793265 0.006687 -0.033843
    25 -0.020057 -0.906594 0.029622 -0.995434 0.005465 -0.040748
    26 0.583510 -1.193371 0.181473 0.313731 -0.595047 -0.692608
    27 1.516395 -0.153822 0.047979 0.016139 -0.157753 -0.527856
    28 1.007018 -0.182979 0.044010 0.086801 -0.241947 -1.032069
    29 0.038119 -0.319809 -0.031051 0.239607 3.240698 1.548022
    30 -6.696746 -6.578957 -5.310039 0.307112 -4.401253 0.414545
    31 -0.067124 -8.036343 -0.060148 0.139717 0.018030 -0.007601
    32 0.447953 -2.798986 -0.200443 -0.117835 -0.183226 0.328409
    33 -0.032909 -1.499736 0.036191 -1.759219 0.021968 -0.036827
    34 -0.027022 -1.115984 -0.028023 -0.994625 0.022100 -0.015916
    35 -0.249534 -2.846964 -0.174213 0.009445 -0.070702 0.196948
    36 0.043235 -1.656596 0.056948 -1.763180 -0.024622 0.013759
    37 0.031729 -1.141298 0.054932 -1.121691 -0.012481 0.006191
    38 -0.963866 -2.785145 -0.085350 0.155044 0.028983 0.042035
    39 0.028479 -1.403067 -0.013261 -0.693743 -0.015065 -0.027493
    40 0.021413 -0.942156 0.012233 -1.001550 -0.026869 -0.034324
    41 1.164475 -2.543940 -0.170330 -0.286751 -0.269704 0.327293
    42 0.024032 -1.152480 -0.009538 -1.491828 0.033341 0.067846
    43 0.014898 -0.895708 -0.019848 -0.755705 0.001882 0.038243
    44 -0.586770 -1.264477 0.200161 -0.480709 -0.775215 -2.389088
    45 1.565805 0.035243 0.016848 -0.018844 -0.006943 0.893494
    46 1.110134 0.040611 -0.005766 -0.033752 -0.033060 1.195823
    47 -0.002676 -0.502335 -0.044199 0.290560 0.059641 1.643449
    48 -8.081174 2.421013 -0.462096 1.569395 -0.034750 -0.319652
  time 12
    0 -5.144688 -7.246529 -6.121281 -0.223818 0.128756 -1.625851
    1 2.999629 0.000000 1.353194 0.000000 0.000000 1.570798
    2 3.639548 0.000000 3.113282 0.000000 0.000000 1.570798
    3 1.757773 0.000000 1.206649 0.000000 0.000000 1.570798
    4 -1.663432 -0.346000 1.941449 0.000000 0.000000 3.141589
    5 5.281411 -7.304697 -6.429884 0.218855 0.231060 -1.502182
    6 2.999629 0.000000 1.353194 0.000000 0.000000 1.570798
    7 3.639548 0.000000 3.113282 0.000000 0.000000 1.570798
    8 -1.663432 0.346269 1.941449 0.000000 0.000000 3.141589
    9 1.757773 0.000000 1.206649 0.000000 0.000000 1.570798
    10 -0.002752 8.717751 -1.784592 0.000000 0.000000 0.000000
    11 7.837402 -6.205892 -6.784345 0.332262 -2.221342 -0.460848
    12 7.835506 2.711619 -0.345125 1.566717 -3.120997 0.413346
    13 -0.068015 -8.428422 -0.111947 -0.004458 0.239244 -0.265477
    14 -0.488518 -2.755602 -0.228260 -0.434648 0.150360 -0.257287
    15 0.039887 -1.526666 0.010322 -1.357298 -0.013111 0.029747
    16 0.028786 -1.263237 -0.120768 -1.781379 -0.009516 0.040652
    17 0.250027 -2.820665 -0.238396 -0.156951 0.124643 -0.222602
    18 -0.049759 -1.598510 0.041883 -1.435809 0.002613 -0.039072
    19 -0.034142 -1.183469 0.041812 -1.449292 0.002673 -0.038027
    20 0.957766 -2.746780 -0.090302 0.163305 0.113141 0.005480
    21 -0.033420 -1.393223 -0.019070 -0.548424 0.008389 -0.026751
    22 -0.022360 -0.957436 -0.000748 -0.707945 0.007526 -0.034384
    23 -1.180681 -2.507217 -0.193859 -0.276772 0.235764 -0.220698
    24 -0.024967 -1.123934 0.017597 -0.793265 0.006687 -0.033843
    25 -0.020057 -0.906594 0.029622 -0.995434 0.005465 -0.040748
    26 0.583510 -1.193371 0.181473 0.313731 -0.595047 -0.692608
    27 1.516395 -0.153822 0.047979 0.016139 -0.157753 -0.527856
    28 1.007018 -0.182979 0.044010 0.086801 -0.241947 -1.032069
    29 0.038119 -0.319809 -0.031051 0.239607 3.240698 1.548022
    30 -6.677214 -6.520362 -5.376447 0.175794 -4.415486 0.286894
    31 -0.063217 -8.032437 -0.067961 0.147142 0.052612 0.020770
    32 0.447953 -2.798986 -0.200443 -0.117835 -0.183226 0.328409
    33 -0.032909 -1.499736 0.036191 -1.759219 0.021968 -0.036827
    34 -0.027022 -1.115984 -0.028023 -0.994625 0.022100 -0.015916
    35 -0.249534 -2.846964 -0.174213 0.009445 -0.070702 0.196948
    36 0.043235 -1.656596 0.056948 -1.763180 -0.024622 0.013759
    37 0.031729 -1.141298 0.054932 -1.121691 -0.012481 0.006191
    38 -0.963866 -2.785145 -0.085350 0.155044 0.028983 0.042035
    39 0.028479 -1.403067 -0.013261 -0.705156 -0.015460 -0.027828
    40 0.021413 -0.942156 0.012233 -1.001550 -0.026869 -0.034324
    41 1.164475 -2.543940 -0.170330 -0.286751 -0.269704 0.327293
    42 0.024032 -1.152480 -0.009538 -1.491828 0.033341 0.067846
    43 0.014898 -0.895708 -0.019848 -0.755705 0.001882 0.038243
    44 -0.586770 -1.264477 0.200161 -0.480709 -0.775215 -2.389088
    45 1.565805 0.035243 0.016848 -0.018844 -0.006943 0.893525
    46 1.110134 0.040611 -0.005766 -0.033752 -0.033060 1.195823
    47 -0.002676 -0.502335 -0.044199 0.290560 0.059641 1.643449
    48 -8.038204 2.663207 -0.462096 1.570066 -0.034272 -0.349553
  time 13
    0 -5.160314 -7.238716 -6.566607 -0.259678 0.180128 -1.647180
    1 2.999629 0.000000 1.353194 0.000000 0.000000 1.570798
    2 3.639548 0.000000 3.113282 0.000000 0.000000 1.570798
    3 1.757773 0.000000 1.206649 0.000000 0.000000 1.570798
    4 -1.663432 -0.346000 1.941449 0.000000 0.000000 3.141589
    5 5.281411 -7.304697 -6.429884 0.218855 0.231060 -1.502182
    6 2.999629 0.000000 1.353194 0.000000 0.000000 1.570798
    7 3.639548 0.000000 3.113282 0.000000 0.000000 1.570798
    8 -1.663432 0.346269 1.941449 0.000000 0.000000 3.141589
    9 1.757773 0.000000 1.206649 0.000000 0.000000 1.570798
    10 -0.002752 8.717751 -1.784592 0.000000 0.000000 0.000000
    11 7.837402 -6.205892 -6.784345 0.332262 -2.221342 -0.460848
    12 7.835506 2.711619 -0.345125 1.566717 -3.120997 0.413346
    13 -0.068015 -8.428422 -0.111947 -0.004458 0.239244 -0.265477
    14 -0.488518 -2.755602 -0.228260 -0.434648 0.150360 -0.257287
    15 0.039887 -1.526666 0.010322 -1.357298 -0.013111 0.029747
    16 0.028786 -1.263237 -0.120768 -1.781379 -0.009516 0.040652
    17 0.250027 -2.820665 -0.238396 -0.156951 0.124643 -0.222602
    18 -0.049759 -1.598510 0.041883 -1.435809 0.002613 -0.039072
    19 -0.034142 -1.183469 0.041812 -1.449292 0.002673 -0.038027
    20 0.957766 -2.746780 -0.090302 0.163305 0.113141 0.005480
    21 -0.033420 -1.393223 -0.019070 -0.548424 0.008389 -0.026751
    22 -0.022360 -0.957436 -0.000748 -0.707945 0.007526 -0.034384
    23 -1.180681 -2.507217 -0.193859 -0.276772 0.235764 -0.220698
    24 -0.024967 -1.123934 0.017597 -0.793265 0.006687 -0.033843
    25 -0.020057 -0.906594 0.029622 -0.995434 0.005465 -0.040748
    26 0.583510 -1.193371 0.181473 0.313731 -0.595047 -0.692608
    27 1.516395 -0.153822 0.047979 0.016139 -0.157753 -0.527856
    28 1.007018 -0.182979 0.044010 0.086801 -0.241947 -1.032069
    29 0.038119 -0.319809 -0.031051 0.239607 3.240698 1.548022
    30 -6.661589 -6.465672 -5.435043 0.054540 -4.423249 0.168938
    31 -0.063217 -8.028531 -0.071867 0.154383 0.082181 0.045414
    32 0.447953 -2.798986 -0.200443 -0.117835 -0.183226 0.328409
    33 -0.032909 -1.499736 0.036191 -1.759219 0.021968 -0.036827
    34 -0.027022 -1.115984 -0.028023 -0.994625 0.022100 -0.015916
    35 -0.249534 -2.846964 -0.174213 0.009445 -0.070702 0.196948
    36 0.043235 -1.656596 0.056948 -1.763180 -0.024622 0.013759
    37 0.031729 -1.141298 0.054932 -1.121691 -0.012481 0.006191
    38 -0.963866 -2.785145 -0.085350 0.155044 0.028983 0.042035
    39 0.028479 -1.403067 -0.013261 -0.716568 -0.015856 -0.028164
    40 0.021413 -0.942156 0.012233 -1.001550 -0.026869 -0.034324
    41 1.164475 -2.543940 -0.170330 -0.286751 -0.269704 0.327293
    42 0.024032 -1.152480 -0.009538 -1.491828 0.033341 0.067846
    43 0.014898 -0.895708 -0.019848 -0.755705 0.001882 0.038243
    44 -0.586770 -1.264477 0.200161 -0.480709 -0.775215 -2.389088
    45 1.565805 0.035243 0.016848 -0.018844 -0.006943 0.893525
    46 1.110134 0.040611 -0.005766 -0.033752 -0.033060 1.195823
    47 -0.002676 -0.502335 -0.044199 0.290560 0.059641 1.643449
    48 -7.999140 2.866339 -0.458190 1.570642 -0.033890 -0.375074
  time 14
    0 -5.168126 -7.223090 -6.875210 -0.285741 0.215498 -1.662388
    1 2.999629 0.000000 1.353194 0.000000 0.000000 1.570798
    2 3.639548 0.000000 3.113282 0.000000 0.000000 1.570798
    3 1.757773 0.000000 1.206649 0.000000 0.000000 1.570798
    4 -1.663432 -0.346000 1.941449 0.000000 0.000000 3.141589
    5 5.281411 -7.304697 -6.429884 0.218855 0.231060 -1.502182
    6 2.999629 0.000000 1.353194 0.000000 0.000000 1.570798
    7 3.639548 0.000000 3.113282 0.000000 0.000000 1.570798
    8 -1.663432 0.346269 1.941449 0.000000 0.000000 3.141589
    9 1.757773 0.000000 1.206649 0.000000 0.000000 1.570798
    10 -0.002752 8.717751 -1.784592 0.000000 0.000000 0.000000
    11 7.837402 -6.205892 -6.784345 0.332262 -2.221342 -0.460848
    12 7.835506 2.711619 -0.345125 1.566717 -3.120997 0.413346
    13 -0.068015 -8.428422 -0.111947 -0.004458 0.239244 -0.265477
    14 -0.488518 -2.755602 -0.228260 -0.434648 0.150360 -0.257287
    15 0.039887 -1.526666 0.010322 -1.357298 -0.013111 0.029747
    16 0.028786 -1.263237 -0.120768 -1.781379 -0.009516 0.040652
    17 0.250027 -2.820665 -0.238396 -0.156951 0.124643 -0.222602
    18 -0.049759 -1.598510 0.041883 -1.435809 0.002613 -0.039072
    19 -0.034142 -1.183469 0.041812 -1.449292 0.002673 -0.038027
    20 0.957766 -2.746780 -0.090302 0.163305 0.113141 0.005480
    21 -0.033420 -1.393223 -0.019070 -0.548424 0.008389 -0.026751
    22 -0.022360 -0.957436 -0.000748 -0.707945 0.007526 -0.034384
    23 -1.180681 -2.507217 -0.193859 -0.276772 0.235764 -0.220698
    24 -0.024967 -1.123934 0.017597 -0.793265 0.006687 -0.033843
    25 -0.020057 -0.906594 0.029622 -0.995434 0.005465 -0.040748
    26 0.583510 -1.193371 0.181473 0.313731 -0.595047 -0.692608
    27 1.516395 -0.153822 0.047979 0.016139 -0.157753 -0.527856
    28 1.007018 -0.182979 0.044010 0.086801 -0.241947 -1.032069
    29 0.038119 -0.319809 -0.031051 0.239607 3.240698 1.548022
    30 -6.649870 -6.430515 -5.474107 -0.032782 -4.426114 0.083869
    31 -0.059311 -8.024624 -0.075773 0.159749 0.102503 0.062735
    32 0.447953 -2.798986 -0.200443 -0.117835 -0.183226 0.328409
    33 -0.032909 -1.499736 0.036191 -1.759219 0.021968 -0.036827
    34 -0.027022 -1.115984 -0.028023 -0.994625 0.022100 -0.015916
    35 -0.249534 -2.846964 -0.174213 0.009445 -0.070702 0.196948
    36 0.043235 -1.656596 0.056948 -1.763180 -0.024622 0.013759
    37 0.031729 -1.141298 0.054932 -1.121691 -0.012481 0.006191
    38 -0.963866 -2.785145 -0.085350 0.155044 0.028983 0.042035
    39 0.028479 -1.403067 -0.013261 -0.721813 -0.016035 -0.028308
    40 0.021413 -0.942156 0.012233 -1.001550 -0.026869 -0.034324
    41 1.164475 -2.543940 -0.170330 -0.286751 -0.269704 0.327293
    42 0.024032 -1.152480 -0.009538 -1.491828 0.033341 0.067846
    43 0.014898 -0.895708 -0.019848 -0.755705 0.001882 0.038243
    44 -0.586770 -1.264477 0.200161 -0.480709 -0.775215 -2.389088
    45 1.565805 0.035243 0.016848 -0.018844 -0.006943 0.893494
    46 1.110134 0.040611 -0.005766 -0.033752 -0.033060 1.195823
    47 -0.002676 -0.502335 -0.044199 0.290560 0.059641 1.643449
    48 -7.963983 3.010874 -0.458190 1.571025 -0.033603 -0.393072
  time 15
    0 -5.175939 -7.215278 -7.035371 -0.299533 0.233651 -1.670423
    1 2.999629 0.000000 1.353194 0.000000 0.000000 1.570798
    2 3.639548 0.000000 3.113282 0.000000 0.000000 1.570798
    3 1.757773 0.000000 1.206649 0.000000 0.000000 1.570798
    4 -1.663432 -0.346000 1.941449 0.000000 0.000000 3.141589
    5 5.281411 -7.304697 -6.429884 0.218855 0.231060 -1.502182
    6 2.999629 0.000000 1.353194 0.000000 0.000000 1.570798
    7 3.639548 0.000000 3.113282 0.000000 0.000000 1.570798
    8 -1.663432 0.346269 1.941449 0.000000 0.000000 3.141589
    9 1.757773 0.000000 1.206649 0.000000 0.000000 1.570798
    10 -0.002752 8.717751 -1.784592 0.000000 0.000000 0.000000
    11 7.837402 -6.205892 -6.784345 0.332262 -2.221342 -0.460848
    12 7.835506 2.711619 -0.345125 1.566717 -3.120997 0.413346
    13 -0.068015 -8.428422 -0.111947 -0.004458 0.239244 -0.265477
    14 -0.488518 -2.755602 -0.228260 -0.434648 0.150360 -0.257287
    15 0.039887 -1.526666 0.010322 -1.357298 -0.013111 0.029747
    16 0.028786 -1.263237 -0.120768 -1.781379 -0.009516 0.040652
    17 0.250027 -2.820665 -0.238396 -0.156951 0.124643 -0.222602
    18 -0.049759 -1.598510 0.041883 -1.435809 0.002613 -0.039072
    19 -0.034142 -1.183469 0.041812 -1.449292 0.002673 -0.038027
    20 0.957766 -2.746780 -0.090302 0.163305 0.113141 0.005480
    21 -0.033420 -1.393223 -0.019070 -0.548424 0.008389 -0.026751
    22 -0.022360 -0.957436 -0.000748 -0.707945 0.007526 -0.034384
    23 -1.180681 -2.507217 -0.193859 -0.276772 0.235764 -0.220698
    24 -0.024967 -1.123934 0.017597 -0.793265 0.006687 -0.033843
    25 -0.020057 -0.906594 0.029622 -0.995434 0.005465 -0.040748
    26 0.583510 -1.193371 0.181473 0.313731 -0.595047 -0.692608
    27 1.516395 -0.153822 0.047979 0.016139 -0.157753 -0.527856
    28 1.007018 -0.182979 0.044010 0.086801 -0.241947 -1.032069
    29 0.038119 -0.319809 -0.031051 0.239607 3.240698 1.548022
    30 -6.645963 -6.414890 -5.493638 -0.078216 -4.426669 0.039671
    31 -0.059311 -8.024624 -0.079680 0.162616 0.112839 0.071725
    32 0.447953 -2.798986 -0.200443 -0.117835 -0.183226 0.328409
    33 -0.032909 -1.499736 0.036191 -1.759219 0.021968 -0.036827
    34 -0.027022 -1.115984 -0.028023 -0.994625 0.022100 -0.015916
    35 -0.249534 -2.846964 -0.174213 0.009445 -0.070702 0.196948
    36 0.043235 -1.656596 0.056948 -1.763180 -0.024622 0.013759
    37 0.031729 -1.141298 0.054932 -1.121691 -0.012481 0.006191
    38 -0.963866 -2.785145 -0.085350 0.155044 0.028983 0.042035
    39 0.028479 -1.403067 -0.013261 -0.721813 -0.016035 -0.028308
    40 0.021413 -0.942156 0.012233 -1.001550 -0.026869 -0.034324
    41 1.164475 -2.543940 -0.170330 -0.286751 -0.269704 0.327293
    42 0.024032 -1.152480 -0.009538 -1.491828 0.033341 0.067846
    43 0.014898 -0.895708 -0.019848 -0.755705 0.001882 0.038243
    44 -0.586770 -1.264477 0.200161 -0.480709 -0.775215 -2.389088
    45 1.565805 0.035243 0.016848 -0.018844 -0.006943 0.893525
    46 1.110134 0.040611 -0.005766 -0.033752 -0.033060 1.195823
    47 -0.002676 -0.502335 -0.044199 0.290560 0.059641 1.643449
    48 -7.948358 3.089002 -0.454283 1.571217 -0.033507 -0.402595
  time 16
    0 -5.175939 -7.211371 -7.090060 -0.304384 0.239827 -1.673292
    1 2.999629 0.000000 1.353194 0.000000 0.000000 1.570798
    2 3.639548 0.000000 3.113282 0.000000 0.000000 1.570798
    3 1.757773 0.000000 1.206649 0.000000 0.000000 1.570798
    4 -1.663432 -0.346000 1.941449 0.000000 0.000000 3.141589
    5 5.281411 -7.304697 -6.429884 0.218855 0.231060 -1.502182
    6 2.999629 0.000000 1.353194 0.000000 0.000000 1.570798
    7 3.639548 0.000000 3.113282 0.000000 0.000000 1.570798
    8 -1.663432 0.346269 1.941449 0.000000 0.000000 3.141589
    9 1.757773 0.000000 1.206649 0.000000 0.000000 1.570798
    10 -0.002752 8.717751 -1.784592 0.000000 0.000000 0.000000
    11 7.837402 -6.205892 -6.784345 0.332262 -2.221342 -0.460848
    12 7.835506 2.711619 -0.345125 1.566717 -3.120997 0.413346
    13 -0.068015 -8.428422 -0.111947 -0.004458 0.239244 -0.265477
    14 -0.488518 -2.755602 -0.228260 -0.434648 0.150360 -0.257287
    15 0.039887 -1.526666 0.010322 -1.357298 -0.013111 0.029747
    16 0.028786 -1.263237 -0.120768 -1.781379 -0.009516 0.040652
    17 0.250027 -2.820665 -0.238396 -0.156951 0.124643 -0.222602
    18 -0.049759 -1.598510 0.041883 -1.435809 0.002613 -0.039072
    19 -0.034142 -1.183469 0.041812 -1.449292 0.002673 -0.038027
    20 0.957766 -2.746780 -0.090302 0.163305 0.113141 0.005480
    21 -0.033420 -1.393223 -0.019070 -0.548424 0.008389 -0.026751
    22 -0.022360 -0.957436 -0.000748 -0.707945 0.007526 -0.034384
    23 -1.180681 -2.507217 -0.193859 -0.276772 0.235764 -0.220698
    24 -0.024967 -1.123934 0.017597 -0.793265 0.006687 -0.033843
    25 -0.020057 -0.906594 0.029622 -0.995434 0.005465 -0.040748
    26 0.583510 -1.193371 0.181473 0.313731 -0.595047 -0.692608
    27 1.516395 -0.153822 0.047979 0.016139 -0.157753 -0.527856
    28 1.007018 -0.182979 0.044010 0.086801 -0.241947 -1.032069
    29 0.038119 -0.319809 -0.031051 0.239607 3.240698 1.548022
    30 -6.642057 -6.407077 -5.501451 -0.094128 -4.426669 0.024178
    31 -0.059311 -8.020718 -0.079680 0.163682 0.116452 0.074794
    32 0.447953 -2.798986 -0.200443 -0.117835 -0.183226 0.328409
    33 -0.032909 -1.499736 0.036191 -1.759219 0.021968 -0.036827
    34 -0.027022 -1.115984 -0.028023 -0.994625 0.022100 -0.015916
    35 -0.249534 -2.846964 -0.174213 0.009445 -0.070702 0.196948
    36 0.043235 -1.656596 0.056948 -1.763180 -0.024622 0.013759
    37 0.031729 -1.141298 0.054932 -1.121691 -0.012481 0.006191
    38 -0.963866 -2.785145 -0.085350 0.155044 0.028983 0.042035
    39 0.028479 -1.403067 -0.013261 -0.721813 -0.016035 -0.028308
    40 0.021413 -0.942156 0.012233 -1.001550 -0.026869 -0.034324
    41 1.164475 -2.543940 -0.170330 -0.286751 -0.269704 0.327293
    42 0.024032 -1.152480 -0.009538 -1.491828 0.033341 0.067846
    43 0.014898 -0.895708 -0.019848 -0.755705 0.001882 0.038243
    44 -0.586770 -1.264477 0.200161 -0.480709 -0.775215 -2.389088
    45 1.565805 0.035243 0.016848 -0.018844 -0.006943 0.893494
    46 1.110134 0.040611 -0.005766 -0.033752 -0.033060 1.195823
    47 -0.002676 -0.502335 -0.044199 0.290560 0.059641 1.643449
    48 -7.940545 3.116346 -0.454283 1.571217 -0.033412 -0.405928
  time 17
    0 -5.175939 -7.211371 -7.070528 -0.302863 0.237675 -1.672431
    1 2.999629 0.000000 1.353194 0.000000 0.000000 1.570798
    2 3.639548 0.000000 3.113282 0.000000 0.000000 1.570798
    3 1.757773 0.000000 1.206649 0.000000 0.000000 1.570798
    4 -1.663432 -0.346000 1.941449 0.000000 0.000000 3.141589
    5 5.281411 -7.304697 -6.429884 0.218855 0.231060 -1.502182
    6 2.999629 0.000000 1.353194 0.000000 0.000000 1.570798
    7 3.639548 0.000000 3.113282 0.000000 0.000000 1.570798
    8 -1.663432 0.346269 1.941449 0.000000 0.000000 3.141589
    9 1.757773 0.000000 1.206649 0.000000 0.000000 1.570798
    10 -0.002752 8.717751 -1.784592 0.000000 0.000000 0.000000
    11 7.837402 -6.205892 -6.784345 0.332262 -2.221342 -0.460848
    12 7.835506 2.711619 -0.345125 1.566717 -3.120997 0.413346
    13 -0.068015 -8.428422 -0.111947 -0.004458 0.239244 -0.265477
    14 -0.488518 -2.755602 -0.228260 -0.434648 0.150360 -0.257287
    15 0.039887 -1.526666 0.010322 -1.357298 -0.013111 0.029747
    16 0.028786 -1.263237 -0.120768 -1.781379 -0.009516 0.040652
    17 0.250027 -2.820665 -0.238396 -0.156951 0.124643 -0.222602
    18 -0.049759 -1.598510 0.041883 -1.435809 0.002613 -0.039072
    19 -0.034142 -1.183469 0.041812 -1.449292 0.002673 -0.038027
    20 0.957766 -2.746780 -0.090302 0.163305 0.113141 0.005480
    21 -0.033420 -1.393223 -0.019070 -0.548424 0.008389 -0.026751
    22 -0.022360 -0.957436 -0.000748 -0.707945 0.007526 -0.034384
    23 -1.180681 -2.507217 -0.193859 -0.276772 0.235764 -0.220698
    24 -0.024967 -1.123934 0.017597 -0.793265 0.006687 -0.033843
    25 -0.020057 -0.906594 0.029622 -0.995434 0.005465 -0.040748
    26 0.583510 -1.193371 0.181473 0.313731 -0.595047 -0.692608
    27 1.516395 -0.153822 0.047979 0.016139 -0.157753 -0.527856
    28 1.007018 -0.182979 0.044010 0.086801 -0.241947 -1.032069
    29 0.038119 -0.319809 -0.031051 0.239607 3.240698 1.548022
    30 -6.642057 -6.410983 -5.497545 -0.088952 -4.426669 0.029121
    31 -0.059311 -8.024624 -0.079680 0.163425 0.115325 0.073698
    32 0.447953 -2.798986 -0.200443 -0.117835 -0.183226 0.328409
    33 -0.032909 -1.499736 0.036191 -1.759219 0.021968 -0.036827
    34 -0.027022 -1.115984 -0.028023 -0.994625 0.022100 -0.015916
    35 -0.249534 -2.846964 -0.174213 0.009445 -0.070702 0.196948
    36 0.043235 -1.656596 0.056948 -1.763180 -0.024622 0.013759
    37 0.031729 -1.141298 0.054932 -1.121691 -0.012481 0.006191
    38 -0.963866 -2.785145 -0.085350 0.155044 0.028983 0.042035
    39 0.028479 -1.403067 -0.013261 -0.721813 -0.016035 -0.028308
    40 0.021413 -0.942156 0.012233 -1.001550 -0.026869 -0.034324
    41 1.164475 -2.543940 -0.170330 -0.286751 -0.269704 0.327293
    42 0.024032 -1.152480 -0.009538 -1.491828 0.033341 0.067846
    43 0.014898 -0.895708 -0.019848 -0.755705 0.001882 0.038243
    44 -0.586770 -1.264477 0.200161 -0.480709 -0.775215 -2.389088
    45 1.565805 0.035243 0.016848 -0.018844 -0.006943 0.893494
    46 1.110134 0.040611 -0.005766 -0.033752 -0.033060 1.195823
    47 -0.002676 -0.502335 -0.044199 0.290560 0.059641 1.643449
    48 -7.944451 3.108534 -0.454283 1.571217 -0.033412 -0.404881
  time 18
    0 -5.175939 -7.215278 -7.011933 -0.297441 0.230657 -1.669371
    1 2.999629 0.000000 1.353194 0.000000 0.000000 1.570798
    2 3.639548 0.000000 3.113282 0.000000 0.000000 1.570798
    3 1.757773 0.000000 1.206649 0.000000 0.000000 1.570798
    4 -1.663432 -0.346000 1.941449 0.000000 0.000000 3.141589
    5 5.281411 -7.304697 -6.429884 0.218855 0.231060 -1.502182
    6 2.999629 0.000000 1.353194 0.000000 0.000000 1.570798
    7 3.639548 0.000000 3.113282 0.000000 0.000000 1.570798
    8 -1.663432 0.346269 1.941449 0.000000 0.000000 3.141589
    9 1.757773 0.000000 1.206649 0.000000 0.000000 1.570798
    10 -0.002752 8.717751 -1.784592 0.000000 0.000000 0.000000
    11 7.837402 -6.205892 -6.784345 0.332262 -2.221342 -0.460848
    12 7.835506 2.711619 -0.345125 1.566717 -3.120997 0.413346
    13 -0.068015 -8.428422 -0.111947 -0.004458 0.239244 -0.265477
    14 -0.488518 -2.755602 -0.228260 -0.434648 0.150360 -0.257287
    15 0.039887 -1.526666 0.010322 -1.357298 -0.013111 0.029747
    16 0.028786 -1.263237 -0.120768 -1.781379 -0.009516 0.040652
    17 0.250027 -2.820665 -0.238396 -0.156951 0.124643 -0.222602
    18 -0.049759 -1.598510 0.041883 -1.435809 0.002613 -0.039072
    19 -0.034142 -1.183469 0.041812 -1.449292 0.002673 -0.038027
    20 0.957766 -2.746780 -0.090302 0.163305 0.113141 0.005480
    21 -0.033420 -1.393223 -0.019070 -0.548424 0.008389 -0.026751
    22 -0.022360 -0.957436 -0.000748 -0.707945 0.007526 -0.034384
    23 -1.180681 -2.507217 -0.193859 -0.276772 0.235764 -0.220698
    24 -0.024967 -1.123934 0.017597 -0.793265 0.006687 -0.033843
    25 -0.020057 -0.906594 0.029622 -0.995434 0.005465 -0.040748
    26 0.583510 -1.193371 0.181473 0.313731 -0.595047 -0.692608
    27 1.516395 -0.153822 0.047979 0.016139 -0.157753 -0.527856
    28 1.007018 -0.182979 0.044010 0.086801 -0.241947 -1.032069
    29 0.038119 -0.319809 -0.031051 0.239607 3.240698 1.548022
    30 -6.645963 -6.414890 -5.489732 -0.071315 -4.426576 0.046325
    31 -0.059311 -8.024624 -0.079680 0.162359 0.111362 0.070146
    32 0.447953 -2.798986 -0.200443 -0.117835 -0.183226 0.328409
    33 -0.032909 -1.499736 0.036191 -1.759219 0.021968 -0.036827
    34 -0.027022 -1.115984 -0.028023 -0.994625 0.022100 -0.015916
    35 -0.249534 -2.846964 -0.174213 0.009445 -0.070702 0.196948
    36 0.043235 -1.656596 0.056948 -1.763180 -0.024622 0.013759
    37 0.031729 -1.141298 0.054932 -1.121691 -0.012481 0.006191
    38 -0.963866 -2.785145 -0.085350 0.155044 0.028983 0.042035
    39 0.028479 -1.403067 -0.013261 -0.721813 -0.016035 -0.028308
    40 0.021413 -0.942156 0.012233 -1.001550 -0.026869 -0.034324
    41 1.164475 -2.543940 -0.170330 -0.286751 -0.269704 0.327293
    42 0.024032 -1.152480 -0.009538 -1.491828 0.033341 0.067846
    43 0.014898 -0.895708 -0.019848 -0.755705 0.001882 0.038243
    44 -0.586770 -1.264477 0.200161 -0.480709 -0.775215 -2.389088
    45 1.565805 0.035243 0.016848 -0.018844 -0.006943 0.893525
    46 1.110134 0.040611 -0.005766 -0.033752 -0.033060 1.195823
    47 -0.002676 -0.502335 -0.044199 0.290560 0.059641 1.643449
    48 -7.948358 3.077283 -0.454283 1.571121 -0.033507 -0.401167
  time 19
    0 -5.172033 -7.223090 -6.933805 -0.290877 0.222048 -1.665545
    1 2.999629 0.000000 1.353194 0.000000 0.000000 1.570798
    2 3.639548 0.000000 3.113282 0.000000 0.000000 1.570798
    3 1.757773 0.000000 1.206649 0.000000 0.000000 1.570798
    4 -1.663432 -0.346000 1.941449 0.000000 0.000000 3.141589
    5 5.281411 -7.304697 -6.429884 0.218855 0.231060 -1.502182
    6 2.999629 0.000000 1.353194 0.000000 0.000000 1.570798
    7 3.639548 0.000000 3.113282 0.000000 0.000000 1.570798
    8 -1.663432 0.346269 1.941449 0.000000 0.000000 3.141589
    9 1.757773 0.000000 1.206649 0.000000 0.000000 1.570798
    10 -0.002752 8.717751 -1.784592 0.000000 0.000000 0.000000
    11 7.837402 -6.205892 -6.784345 0.332262 -2.221342 -0.460848
    12 7.835506 2.711619 -0.345125 1.566717 -3.120997 0.413346
    13 -0.068015 -8.428422 -0.111947 -0.004458 0.239244 -0.265477
    14 -0.488518 -2.755602 -0.228260 -0.434648 0.150360 -0.257287
    15 0.039887 -1.526666 0.010322 -1.357298 -0.013111 0.029747
    16 0.028786 -1.263237 -0.120768 -1.781379 -0.009516 0.040652
    17 0.250027 -2.820665 -0.238396 -0.156951 0.124643 -0.222602
    18 -0.049759 -1.598510 0.041883 -1.435809 0.002613 -0.039072
    19 -0.034142 -1.183469 0.041812 -1.449292 0.002673 -0.038027
    20 0.957766 -2.746780 -0.090302 0.163305 0.113141 0.005480
    21 -0.033420 -1.393223 -0.019070 -0.548424 0.008389 -0.026751
    22 -0.022360 -0.957436 -0.000748 -0.707945 0.007526 -0.034384
    23 -1.180681 -2.507217 -0.193859 -0.276772 0.235764 -0.220698
    24 -0.024967 -1.123934 0.017597 -0.793265 0.006687 -0.033843
    25 -0.020057 -0.906594 0.029622 -0.995434 0.005465 -0.040748
    26 0.583510 -1.193371 0.181473 0.313731 -0.595047 -0.692608
    27 1.516395 -0.153822 0.047979 0.016139 -0.157753 -0.527856
    28 1.007018 -0.182979 0.044010 0.086801 -0.241947 -1.032069
    29 0.038119 -0.319809 -0.031051 0.239607 3.240698 1.548022
    30 -6.645963 -6.426609 -5.481919 -0.049748 -4.426391 0.067426
    31 -0.059311 -8.024624 -0.079680 0.160999 0.106427 0.065937
    32 0.447953 -2.798986 -0.200443 -0.117835 -0.183226 0.328409
    33 -0.032909 -1.499736 0.036191 -1.759219 0.021968 -0.036827
    34 -0.027022 -1.115984 -0.028023 -0.994625 0.022100 -0.015916
    35 -0.249534 -2.846964 -0.174213 0.009445 -0.070702 0.196948
    36 0.043235 -1.656596 0.056948 -1.763180 -0.024622 0.013759
    37 0.031729 -1.141298 0.054932 -1.121691 -0.012481 0.006191
    38 -0.963866 -2.785145 -0.085350 0.155044 0.028983 0.042035
    39 0.028479 -1.403067 -0.013261 -0.721813 -0.016035 -0.028308
    40 0.021413 -0.942156 0.012233 -1.001550 -0.026869 -0.034324
    41 1.164475 -2.543940 -0.170330 -0.286751 -0.269704 0.327293
    42 0.024032 -1.152480 -0.009538 -1.491828 0.033341 0.067846
    43 0.014898 -0.895708 -0.019848 -0.755705 0.001882 0.038243
    44 -0.586770 -1.264477 0.200161 -0.480709 -0.775215 -2.389088
    45 1.565805 0.035243 0.016848 -0.018844 -0.006943 0.893494
    46 1.110134 0.040611 -0.005766 -0.033752 -0.033060 1.195823
    47 -0.002676 -0.502335 -0.044199 0.290560 0.059641 1.643449
    48 -7.960077 3.042125 -0.458190 1.571025 -0.033603 -0.396691
  time 20
    0 -5.168126 -7.223090 -6.875210 -0.285741 0.215498 -1.662388
    1 2.999629 0.000000 1.353194 0.000000 0.000000 1.570798
    2 3.639548 0.000000 3.113282 0.000000 0.000000 1.570798
    3 1.757773 0.000000 1.206649 0.000000 0.000000 1.570798
    4 -1.663432 -0.346000 1.941449 0.000000 0.000000 3.141589
    5 5.281411 -7.304697 -6.429884 0.218855 0.231060 -1.502182
    6 2.999629 0.000000 1.353194 0.000000 0.000000 1.570798
    7 3.639548 0.000000 3.113282 0.000000 0.000000 1.570798
    8 -1.663432 0.346269 1.941449 0.000000 0.000000 3.141589
    9 1.757773 0.000000 1.206649 0.000000 0.000000 1.570798
    10 -0.002752 8.717751 -1.784592 0.000000 0.000000 0.000000
    11 7.837402 -6.205892 -6.784345 0.332262 -2.221342 -0.460848
    12 7.835506 2.711619 -0.345125 1.566717 -3.120997 0.413346
    13 -0.068015 -8.428422 -0.111947 -0.004458 0.239244 -0.265477
    14 -0.488518 -2.755602 -0.228260 -0.434648 0.150360 -0.257287
    15 0.039887 -1.526666 0.010322 -1.357298 -0.013111 0.029747
    16 0.028786 -1.263237 -0.120768 -1.781379 -0.009516 0.040652
    17 0.250027 -2.820665 -0.238396 -0.156951 0.124643 -0.222602
    18 -0.049759 -1.598510 0.041883 -1.435809 0.002613 -0.039072
    19 -0.034142 -1.183469 0.041812 -1.449292 0.002673 -0.038027
    20 0.957766 -2.746780 -0.090302 0.163305 0.113141 0.005480
    21 -0.033420 -1.393223 -0.019070 -0.548424 0.008389 -0.026751
    22 -0.022360 -0.957436 -0.000748 -0.707945 0.007526 -0.034384
    23 -1.180681 -2.507217 -0.193859 -0.276772 0.235764 -0.220698
    24 -0.024967 -1.123934 0.017597 -0.793265 0.006687 -0.033843
    25 -0.020057 -0.906594 0.029622 -0.995434 0.005465 -0.040748
    26 0.583510 -1.193371 0.181473 0.313731 -0.595047 -0.692608
    27 1.516395 -0.153822 0.047979 0.016139 -0.157753 -0.527856
    28 1.007018 -0.182979 0.044010 0.086801 -0.241947 -1.032069
    29 0.038119 -0.319809 -0.031051 0.239607 3.240698 1.548022
    30 -6.649870 -6.430515 -5.474107 -0.032782 -4.426114 0.083869
    31 -0.059311 -8.024624 -0.075773 0.159749 0.102503 0.062735
    32 0.447953 -2.798986 -0.200443 -0.117835 -0.183226 0.328409
    33 -0.032909 -1.499736 0.036191 -1.759219 0.021968 -0.036827
    34 -0.027022 -1.115984 -0.028023 -0.994625 0.022100 -0.015916
    35 -0.249534 -2.846964 -0.174213 0.009445 -0.070702 0.196948
    36 0.043235 -1.656596 0.056948 -1.763180 -0.024622 0.013759
    37 0.031729 -1.141298 0.054932 -1.121691 -0.012481 0.006191
    38 -0.963866 -2.785145 -0.085350 0.155044 0.028983 0.042035
    39 0.028479 -1.403067 -0.013261 -0.721813 -0.016035 -0.028308
    40 0.021413 -0.942156 0.012233 -1.001550 -0.026869 -0.034324
    41 1.164475 -2.543940 -0.170330 -0.286751 -0.269704 0.327293
    42 0.024032 -1.152480 -0.009538 -1.491828 0.033341 0.067846
    43 0.014898 -0.895708 -0.019848 -0.755705 0.001882 0.038243
    44 -0.586770 -1.264477 0.200161 -0.480709 -0.775215 -2.389088
    45 1.565805 0.035243 0.016848 -0.018844 -0.006943 0.893494
    46 1.110134 0.040611 -0.005766 -0.033752 -0.033060 1.195823
    47 -0.002676 -0.502335 -0.044199 0.290560 0.059641 1.643449
    48 -7.963983 3.010874 -0.458190 1.571025 -0.033603 -0.393072
end
