version 1
nodes
  0 "Bone01" -1
  1 "Bone_Lefthand" 0
  2 "Bone02" 1
  3 "Bone03" 2
  4 "Bone48" 3
  5 "Bone25" 3
  6 "Bone52" 3
  7 "Bone50" 3
  8 "Bone 04" 1
  9 "Bone13" 8
  10 "Bone14" 9
  11 "Bone15" 10
  12 "Bone17" 8
  13 "Bone18" 12
  14 "Bone19" 13
  15 "Bone21" 8
  16 "Bone22" 15
  17 "Bone23" 16
  18 "Bone05" 8
  19 "Bone06" 18
  20 "Bone07" 19
  21 "Bone09" 8
  22 "Bone10" 21
  23 "Bone11" 22
  24 "Bone04" -1
  25 "Bone_Righthand" 24
  26 "Bone26" 25
  27 "Bone35" 26
  28 "Bone36" 27
  29 "Bone37" 28
  30 "Bone31" 26
  31 "Bone32" 30
  32 "Bone33" 31
  33 "Bone39" 26
  34 "Bone40" 33
  35 "Bone41" 34
  36 "Bone43" 26
  37 "Bone44" 36
  38 "Bone45" 37
  39 "Bone27" 26
  40 "Bone28" 39
  41 "Bone29" 40
end
skeleton
  time 0
    0 10.540233 1.349194 -6.444005 -0.774287 -1.331380 0.326349
    1 0.000000 -8.563281 0.000000 0.421670 0.027177 -0.094079
    2 -0.687785 -3.268885 0.771382 -0.649191 1.517736 -0.634003
    3 0.000000 1.978415 0.899280 0.000000 0.000000 0.000000
    4 0.000000 -4.488900 2.000896 0.000000 0.000000 0.000000
    5 -0.031251 -1.282598 0.681954 0.000000 0.000000 0.000000
    6 -0.000001 2.795271 0.337227 0.000000 0.000000 0.000000
    7 -0.000001 -6.827026 1.101617 0.000000 0.000000 0.000000
    8 -0.003480 -0.404829 0.000000 0.000000 0.000000 0.000000
    9 -0.519309 -2.501154 -0.278957 -1.025939 -0.112116 -0.189874
    10 -0.010598 -1.208184 0.000000 -1.226964 0.000000 0.000000
    11 0.000000 -0.763065 0.000000 -0.982627 0.000000 0.000000
    12 0.105981 -2.607134 -0.278957 -0.842755 -0.023454 -0.169254
    13 0.000000 -1.250579 0.000000 -1.291539 0.000000 0.000000
    14 0.000000 -0.932635 0.000000 -1.195552 0.000000 0.000000
    15 0.763064 -2.490555 -0.278957 -0.411878 0.000000 0.130900
    16 -0.012322 -1.280917 0.000000 -1.302003 0.000000 0.000000
    17 -0.001697 -0.749371 0.000000 -0.457279 0.000000 0.000000
    18 0.354567 0.016266 0.318133 0.488948 -0.453366 -1.121476
    19 1.887164 0.012878 0.000000 -0.301418 -0.050167 -0.561348
    20 1.001874 -0.000270 -0.000001 0.000000 0.000000 -0.703360
    21 -1.123359 -2.195093 -0.278957 -1.166683 -0.116814 -0.133119
    22 0.010772 -0.963791 0.000000 -0.657988 0.000000 0.000000
    23 -0.010412 -0.631916 -0.000001 -1.359599 0.000000 0.000000
    24 -0.562031 -7.833984 -9.326751 -2.116823 0.987287 -1.297769
    25 0.089929 -8.543163 0.000000 0.880817 -0.018644 0.571739
    26 0.000000 -0.359713 0.000002 0.000000 0.000000 0.000000
    27 -0.170479 -2.636147 -0.277654 -1.781942 0.000000 0.000000
    28 0.010599 -1.261177 0.000001 -0.493919 0.000000 0.000000
    29 -0.000001 -0.943233 -0.000001 -0.924996 0.000000 0.000000
    30 -0.827563 -2.508973 -0.277656 -1.710405 0.000000 0.000000
    31 0.000001 -1.292971 0.000002 -0.602126 0.000000 0.000000
    32 0.000000 -0.752466 0.000001 -1.078594 0.000000 0.000000
    33 0.444213 -2.561960 -0.277654 -1.701143 -0.045387 -0.024911
    34 0.021022 -1.208186 -0.000001 -0.548020 0.000000 0.000000
    35 0.010597 -0.741867 -0.000002 -0.872658 0.000000 0.000000
    36 1.047445 -2.222821 -0.277654 -1.508123 -0.078971 -0.038609
    37 0.000000 -0.996223 -0.000001 -0.570729 0.000000 0.000000
    38 -0.000001 -0.614690 0.000000 -0.523599 0.000000 0.000000
    39 -0.308254 -0.007814 0.307166 0.334142 -0.676682 -2.416499
    40 1.978377 0.019544 0.000000 -0.091217 0.051488 1.062266
    41 0.982426 0.003186 0.000000 0.000000 0.000000 1.137933
  time 1
    0 10.540233 1.349194 -6.444005 -0.774287 -1.331380 0.326349
    1 0.000000 -8.563281 0.000000 0.425445 0.019387 -0.068648
    2 -0.687785 -3.268885 0.771382 -0.649191 1.517736 -0.634003
    3 0.000000 1.978415 0.899280 0.000000 0.000000 0.000000
    4 0.000000 -4.488900 2.000896 0.000000 0.000000 0.000000
    5 -0.031251 -1.282598 0.681954 0.000000 0.000000 0.000000
    6 -0.000001 2.795271 0.337227 0.000000 0.000000 0.000000
    7 -0.000001 -6.827026 1.101617 0.000000 0.000000 0.000000
    8 -0.003480 -0.404829 0.000000 0.000000 0.000000 0.000000
    9 -0.519309 -2.501154 -0.278957 -1.025939 -0.112116 -0.189874
    10 -0.010598 -1.208184 0.000000 -1.226964 0.000000 0.000000
    11 0.000000 -0.763065 0.000000 -0.982627 0.000000 0.000000
    12 0.105981 -2.607134 -0.278957 -0.842755 -0.023454 -0.169254
    13 0.000000 -1.250579 0.000000 -1.291539 0.000000 0.000000
    14 0.000000 -0.932635 0.000000 -1.195552 0.000000 0.000000
    15 0.763064 -2.490555 -0.278957 -0.412601 0.000000 0.130900
    16 -0.012322 -1.280917 0.000000 -1.304223 0.000000 0.000000
    17 -0.001697 -0.749371 0.000000 -0.453732 0.000000 0.000000
    18 0.354567 0.016266 0.318133 0.488948 -0.453366 -1.121476
    19 1.887164 0.012878 0.000000 -0.301418 -0.050167 -0.561348
    20 1.001874 -0.000270 -0.000001 0.000000 0.000000 -0.703360
    21 -1.123359 -2.195093 -0.278957 -1.166683 -0.116814 -0.133119
    22 0.010772 -0.963791 0.000000 -0.657988 0.000000 0.000000
    23 -0.010412 -0.631916 -0.000001 -1.359599 0.000000 0.000000
    24 -0.464371 -7.951176 -9.397065 -2.124842 0.957432 -1.306160
    25 0.089929 -8.543163 0.000000 0.880904 0.005468 0.551843
    26 0.000000 -0.359713 0.000002 0.000000 0.000000 0.000000
    27 -0.170479 -2.636147 -0.277654 -1.781942 0.000000 0.000000
    28 0.010599 -1.261177 0.000001 -0.493919 0.000000 0.000000
    29 -0.000001 -0.943233 -0.000001 -0.924996 0.000000 0.000000
    30 -0.827563 -2.508973 -0.277656 -1.710405 0.000000 0.000000
    31 0.000001 -1.292971 0.000002 -0.602126 0.000000 0.000000
    32 0.000000 -0.752466 0.000001 -1.078594 0.000000 0.000000
    33 0.444213 -2.561960 -0.277654 -1.701143 -0.045387 -0.024911
    34 0.021022 -1.208186 -0.000001 -0.548020 0.000000 0.000000
    35 0.010597 -0.741867 -0.000002 -0.872658 0.000000 0.000000
    36 1.047445 -2.222821 -0.277654 -1.508123 -0.078971 -0.038609
    37 0.000000 -0.996223 -0.000001 -0.570729 0.000000 0.000000
    38 -0.000001 -0.614690 0.000000 -0.523599 0.000000 0.000000
    39 -0.308254 -0.007814 0.307166 0.334142 -0.676682 -2.416499
    40 1.978377 0.019544 0.000000 -0.091217 0.051488 1.062266
    41 0.982426 0.003186 0.000000 0.000000 0.000000 1.137933
  time 2
    0 10.540233 1.864835 -6.549477 -0.801609 -1.324602 0.354580
    1 0.000000 -8.563281 0.000000 0.427626 0.014799 -0.053715
    2 -0.687785 -3.268885 0.771382 -0.649191 1.517736 -0.634003
    3 0.000000 1.978415 0.899280 0.000000 0.000000 0.000000
    4 0.000000 -4.488900 2.000896 0.000000 0.000000 0.000000
    5 -0.031251 -1.282598 0.681954 0.000000 0.000000 0.000000
    6 -0.000001 2.795271 0.337227 0.000000 0.000000 0.000000
    7 -0.000001 -6.827026 1.101617 0.000000 0.000000 0.000000
    8 -0.003480 -0.404829 0.000000 0.000000 0.000000 0.000000
    9 -0.519309 -2.501154 -0.278957 -1.025939 -0.112116 -0.189874
    10 -0.010598 -1.208184 0.000000 -1.226964 0.000000 0.000000
    11 0.000000 -0.763065 0.000000 -0.982627 0.000000 0.000000
    12 0.105981 -2.607134 -0.278957 -0.842755 -0.023454 -0.169254
    13 0.000000 -1.250579 0.000000 -1.291539 0.000000 0.000000
    14 0.000000 -0.932635 0.000000 -1.195552 0.000000 0.000000
    15 0.763064 -2.490555 -0.278957 -0.414201 0.000000 0.130900
    16 -0.012322 -1.280917 0.000000 -1.309385 0.000000 0.000000
    17 -0.001697 -0.749371 0.000000 -0.445091 0.000000 0.000000
    18 0.354567 0.016266 0.318133 0.488948 -0.453366 -1.121476
    19 1.887164 0.012878 0.000000 -0.301418 -0.050167 -0.561348
    20 1.001874 -0.000270 -0.000001 0.000000 0.000000 -0.703360
    21 -1.123359 -2.195093 -0.278957 -1.166683 -0.116814 -0.133119
    22 0.010772 -0.963791 0.000000 -0.657988 0.000000 0.000000
    23 -0.010412 -0.631916 -0.000001 -1.359599 0.000000 0.000000
    24 -0.386244 -7.841797 -9.522069 -2.132096 0.927577 -1.313884
    25 0.089929 -8.543163 0.000000 0.880642 0.029581 0.531948
    26 0.000000 -0.359713 0.000002 0.000000 0.000000 0.000000
    27 -0.170479 -2.636147 -0.277654 -1.781942 0.000000 0.000000
    28 0.010599 -1.261177 0.000001 -0.493919 0.000000 0.000000
    29 -0.000001 -0.943233 -0.000001 -0.924996 0.000000 0.000000
    30 -0.827563 -2.508973 -0.277656 -1.710405 0.000000 0.000000
    31 0.000001 -1.292971 0.000002 -0.602126 0.000000 0.000000
    32 0.000000 -0.752466 0.000001 -1.078594 0.000000 0.000000
    33 0.444213 -2.561960 -0.277654 -1.701143 -0.045387 -0.024911
    34 0.021022 -1.208186 -0.000001 -0.548020 0.000000 0.000000
    35 0.010597 -0.741867 -0.000002 -0.872658 0.000000 0.000000
    36 1.047445 -2.222821 -0.277654 -1.508123 -0.078971 -0.038609
    37 0.000000 -0.996223 -0.000001 -0.570729 0.000000 0.000000
    38 -0.000001 -0.614690 0.000000 -0.523599 0.000000 0.000000
    39 -0.308254 -0.007814 0.307166 0.334142 -0.676682 -2.416499
    40 1.978377 0.019544 0.000000 -0.091217 0.051488 1.062266
    41 0.982426 0.003186 0.000000 0.000000 0.000000 1.137933
  time 3
    0 10.540233 2.196876 -6.619792 -0.818216 -1.320176 0.371726
    1 0.000000 -8.563281 0.000000 0.426811 0.017080 -0.060510
    2 -0.687785 -3.268885 0.771382 -0.649191 1.517736 -0.634003
    3 0.000000 1.978415 0.899280 0.000000 0.000000 0.000000
    4 0.000000 -4.488900 2.000896 0.000000 0.000000 0.000000
    5 -0.031251 -1.282598 0.681954 0.000000 0.000000 0.000000
    6 -0.000001 2.795271 0.337227 0.000000 0.000000 0.000000
    7 -0.000001 -6.827026 1.101617 0.000000 0.000000 0.000000
    8 -0.003480 -0.404829 0.000000 0.000000 0.000000 0.000000
    9 -0.519309 -2.501154 -0.278957 -1.025939 -0.112116 -0.189874
    10 -0.010598 -1.208184 0.000000 -1.226964 0.000000 0.000000
    11 0.000000 -0.763065 0.000000 -0.982627 0.000000 0.000000
    12 0.105981 -2.607134 -0.278957 -0.842755 -0.023454 -0.169254
    13 0.000000 -1.250579 0.000000 -1.291539 0.000000 0.000000
    14 0.000000 -0.932635 0.000000 -1.195552 0.000000 0.000000
    15 0.763064 -2.490555 -0.278957 -0.415801 0.000000 0.130900
    16 -0.012322 -1.280917 0.000000 -1.315322 0.000000 0.000000
    17 -0.001697 -0.749371 0.000000 -0.434401 0.000000 0.000000
    18 0.354567 0.016266 0.318133 0.488948 -0.453366 -1.121476
    19 1.887164 0.012878 0.000000 -0.301418 -0.050167 -0.561348
    20 1.001874 -0.000270 -0.000001 0.000000 0.000000 -0.703360
    21 -1.123359 -2.195093 -0.278957 -1.166683 -0.116814 -0.133119
    22 0.010772 -0.963791 0.000000 -0.657988 0.000000 0.000000
    23 -0.010412 -0.631916 -0.000001 -1.359599 0.000000 0.000000
    24 -0.335461 -7.501943 -9.697856 -2.138874 0.915232 -1.326567
    25 0.089929 -8.543163 0.000000 0.879944 0.049950 0.515095
    26 0.000000 -0.359713 0.000002 0.000000 0.000000 0.000000
    27 -0.170479 -2.636147 -0.277654 -1.781942 0.000000 0.000000
    28 0.010599 -1.261177 0.000001 -0.493919 0.000000 0.000000
    29 -0.000001 -0.943233 -0.000001 -0.924996 0.000000 0.000000
    30 -0.827563 -2.508973 -0.277656 -1.710405 0.000000 0.000000
    31 0.000001 -1.292971 0.000002 -0.602126 0.000000 0.000000
    32 0.000000 -0.752466 0.000001 -1.078594 0.000000 0.000000
    33 0.444213 -2.561960 -0.277654 -1.701143 -0.045387 -0.024911
    34 0.021022 -1.208186 -0.000001 -0.548020 0.000000 0.000000
    35 0.010597 -0.741867 -0.000002 -0.872658 0.000000 0.000000
    36 1.047445 -2.222821 -0.277654 -1.508123 -0.078971 -0.038609
    37 0.000000 -0.996223 -0.000001 -0.570729 0.000000 0.000000
    38 -0.000001 -0.614690 0.000000 -0.523599 0.000000 0.000000
    39 -0.308254 -0.007814 0.307166 0.334142 -0.676682 -2.416499
    40 1.978377 0.019544 0.000000 -0.091217 0.051488 1.062266
    41 0.982426 0.003186 0.000000 0.000000 0.000000 1.137933
  time 4
    0 10.540233 2.263284 -6.631511 -0.815377 -1.320947 0.368775
    1 0.000000 -8.563281 0.000000 0.424918 0.021720 -0.074832
    2 -0.687785 -3.268885 0.771382 -0.649191 1.517736 -0.634003
    3 0.000000 1.978415 0.899280 0.000000 0.000000 0.000000
    4 0.000000 -4.488900 2.000896 0.000000 0.000000 0.000000
    5 -0.031251 -1.282598 0.681954 0.000000 0.000000 0.000000
    6 -0.000001 2.795271 0.337227 0.000000 0.000000 0.000000
    7 -0.000001 -6.827026 1.101617 0.000000 0.000000 0.000000
    8 -0.003480 -0.404829 0.000000 0.000000 0.000000 0.000000
    9 -0.519309 -2.501154 -0.278957 -1.025939 -0.112116 -0.189874
    10 -0.010598 -1.208184 0.000000 -1.226964 0.000000 0.000000
    11 0.000000 -0.763065 0.000000 -0.982627 0.000000 0.000000
    12 0.105981 -2.607134 -0.278957 -0.842755 -0.023454 -0.169254
    13 0.000000 -1.250579 0.000000 -1.291539 0.000000 0.000000
    14 0.000000 -0.932635 0.000000 -1.195552 0.000000 0.000000
    15 0.763064 -2.490555 -0.278957 -0.416550 0.000000 0.130900
    16 -0.012322 -1.280917 0.000000 -1.319761 0.000000 0.000000
    17 -0.001697 -0.749371 0.000000 -0.424741 0.000000 0.000000
    18 0.354567 0.016266 0.318133 0.488948 -0.453366 -1.121476
    19 1.887164 0.012878 0.000000 -0.301418 -0.050167 -0.561348
    20 1.001874 -0.000270 -0.000001 0.000000 0.000000 -0.703360
    21 -1.123359 -2.195093 -0.278957 -1.166683 -0.116814 -0.133119
    22 0.010772 -0.963791 0.000000 -0.657988 0.000000 0.000000
    23 -0.010412 -0.631916 -0.000001 -1.359599 0.000000 0.000000
    24 -0.308117 -7.275374 -9.725200 -2.147656 0.928773 -1.350406
    25 0.089929 -8.543163 0.000000 0.879202 0.066204 0.501636
    26 0.000000 -0.359713 0.000002 0.000000 0.000000 0.000000
    27 -0.170479 -2.636147 -0.277654 -1.781942 0.000000 0.000000
    28 0.010599 -1.261177 0.000001 -0.493919 0.000000 0.000000
    29 -0.000001 -0.943233 -0.000001 -0.924996 0.000000 0.000000
    30 -0.827563 -2.508973 -0.277656 -1.710405 0.000000 0.000000
    31 0.000001 -1.292971 0.000002 -0.602126 0.000000 0.000000
    32 0.000000 -0.752466 0.000001 -1.078594 0.000000 0.000000
    33 0.444213 -2.561960 -0.277654 -1.701143 -0.045387 -0.024911
    34 0.021022 -1.208186 -0.000001 -0.548020 0.000000 0.000000
    35 0.010597 -0.741867 -0.000002 -0.872658 0.000000 0.000000
    36 1.047445 -2.222821 -0.277654 -1.508123 -0.078971 -0.038609
    37 0.000000 -0.996223 -0.000001 -0.570729 0.000000 0.000000
    38 -0.000001 -0.614690 0.000000 -0.523599 0.000000 0.000000
    39 -0.308254 -0.007814 0.307166 0.334142 -0.676682 -2.416499
    40 1.978377 0.019544 0.000000 -0.091217 0.051488 1.062266
    41 0.982426 0.003186 0.000000 0.000000 0.000000 1.137933
  time 5
    0 10.540233 2.099217 -6.588541 -0.805867 -1.323496 0.358966
    1 0.000000 -8.563281 0.000000 0.422832 0.026516 -0.089872
    2 -0.687785 -3.268885 0.771382 -0.649191 1.517736 -0.634003
    3 0.000000 1.978415 0.899280 0.000000 0.000000 0.000000
    4 0.000000 -4.488900 2.000896 0.000000 0.000000 0.000000
    5 -0.031251 -1.282598 0.681954 0.000000 0.000000 0.000000
    6 -0.000001 2.795271 0.337227 0.000000 0.000000 0.000000
    7 -0.000001 -6.827026 1.101617 0.000000 0.000000 0.000000
    8 -0.003480 -0.404829 0.000000 0.000000 0.000000 0.000000
    9 -0.519309 -2.501154 -0.278957 -1.025939 -0.112116 -0.189874
    10 -0.010598 -1.208184 0.000000 -1.226964 0.000000 0.000000
    11 0.000000 -0.763065 0.000000 -0.982627 0.000000 0.000000
    12 0.105981 -2.607134 -0.278957 -0.842755 -0.023454 -0.169254
    13 0.000000 -1.250579 0.000000 -1.291539 0.000000 0.000000
    14 0.000000 -0.932635 0.000000 -1.195552 0.000000 0.000000
    15 0.763064 -2.490555 -0.278957 -0.415517 0.000000 0.130900
    16 -0.012322 -1.280917 0.000000 -1.320510 0.000000 0.000000
    17 -0.001697 -0.749371 0.000000 -0.419156 0.000000 0.000000
    18 0.354567 0.016266 0.318133 0.488948 -0.453366 -1.121476
    19 1.887164 0.012878 0.000000 -0.301418 -0.050167 -0.561348
    20 1.001874 -0.000270 -0.000001 0.000000 0.000000 -0.703360
    21 -1.123359 -2.195093 -0.278957 -1.166683 -0.116814 -0.133119
    22 0.010772 -0.963791 0.000000 -0.657988 0.000000 0.000000
    23 -0.010412 -0.631916 -0.000001 -1.359599 0.000000 0.000000
    24 -0.312023 -7.154276 -9.619728 -2.159207 0.956487 -1.382065
    25 0.089929 -8.543163 0.000000 0.878329 0.080349 0.489855
    26 0.000000 -0.359713 0.000002 0.000000 0.000000 0.000000
    27 -0.170479 -2.636147 -0.277654 -1.781942 0.000000 0.000000
    28 0.010599 -1.261177 0.000001 -0.493919 0.000000 0.000000
    29 -0.000001 -0.943233 -0.000001 -0.924996 0.000000 0.000000
    30 -0.827563 -2.508973 -0.277656 -1.710405 0.000000 0.000000
    31 0.000001 -1.292971 0.000002 -0.602126 0.000000 0.000000
    32 0.000000 -0.752466 0.000001 -1.078594 0.000000 0.000000
    33 0.444213 -2.561960 -0.277654 -1.701143 -0.045387 -0.024911
    34 0.021022 -1.208186 -0.000001 -0.548020 0.000000 0.000000
    35 0.010597 -0.741867 -0.000002 -0.872658 0.000000 0.000000
    36 1.047445 -2.222821 -0.277654 -1.508123 -0.078971 -0.038609
    37 0.000000 -0.996223 -0.000001 -0.570729 0.000000 0.000000
    38 -0.000001 -0.614690 0.000000 -0.523599 0.000000 0.000000
    39 -0.308254 -0.007814 0.307166 0.334142 -0.676682 -2.416499
    40 1.978377 0.019544 0.000000 -0.091217 0.051488 1.062266
    41 0.982426 0.003186 0.000000 0.000000 0.000000 1.137933
  time 6
    0 10.540233 1.853116 -6.526039 -0.795222 -1.326242 0.347961
    1 0.000000 -8.563281 0.000000 0.421526 0.029316 -0.098849
    2 -0.687785 -3.268885 0.771382 -0.649191 1.517736 -0.634003
    3 0.000000 1.978415 0.899280 0.000000 0.000000 0.000000
    4 0.000000 -4.488900 2.000896 0.000000 0.000000 0.000000
    5 -0.031251 -1.282598 0.681954 0.000000 0.000000 0.000000
    6 -0.000001 2.795271 0.337227 0.000000 0.000000 0.000000
    7 -0.000001 -6.827026 1.101617 0.000000 0.000000 0.000000
    8 -0.003480 -0.404829 0.000000 0.000000 0.000000 0.000000
    9 -0.519309 -2.501154 -0.278957 -1.025939 -0.112116 -0.189874
    10 -0.010598 -1.208184 0.000000 -1.226964 0.000000 0.000000
    11 0.000000 -0.763065 0.000000 -0.982627 0.000000 0.000000
    12 0.105981 -2.607134 -0.278957 -0.842755 -0.023454 -0.169254
    13 0.000000 -1.250579 0.000000 -1.291539 0.000000 0.000000
    14 0.000000 -0.932635 0.000000 -1.195552 0.000000 0.000000
    15 0.763064 -2.490555 -0.278957 -0.411878 0.000000 0.130900
    16 -0.012322 -1.280917 0.000000 -1.315322 0.000000 0.000000
    17 -0.001697 -0.749371 0.000000 -0.420678 0.000000 0.000000
    18 0.354567 0.016266 0.318133 0.488948 -0.453366 -1.121476
    19 1.887164 0.012878 0.000000 -0.301418 -0.050167 -0.561348
    20 1.001874 -0.000270 -0.000001 0.000000 0.000000 -0.703360
    21 -1.123359 -2.195093 -0.278957 -1.166683 -0.116814 -0.133119
    22 0.010772 -0.963791 0.000000 -0.657988 0.000000 0.000000
    23 -0.010412 -0.631916 -0.000001 -1.359599 0.000000 0.000000
    24 -0.323742 -7.099587 -9.475193 -2.170949 0.984957 -1.412770
    25 0.089929 -8.543163 0.000000 0.877456 0.092384 0.479829
    26 0.000000 -0.359713 0.000002 0.000000 0.000000 0.000000
    27 -0.170479 -2.636147 -0.277654 -1.781942 0.000000 0.000000
    28 0.010599 -1.261177 0.000001 -0.493919 0.000000 0.000000
    29 -0.000001 -0.943233 -0.000001 -0.924996 0.000000 0.000000
    30 -0.827563 -2.508973 -0.277656 -1.710405 0.000000 0.000000
    31 0.000001 -1.292971 0.000002 -0.602126 0.000000 0.000000
    32 0.000000 -0.752466 0.000001 -1.078594 0.000000 0.000000
    33 0.444213 -2.561960 -0.277654 -1.701143 -0.045387 -0.024911
    34 0.021022 -1.208186 -0.000001 -0.548020 0.000000 0.000000
    35 0.010597 -0.741867 -0.000002 -0.872658 0.000000 0.000000
    36 1.047445 -2.222821 -0.277654 -1.508123 -0.078971 -0.038609
    37 0.000000 -0.996223 -0.000001 -0.570729 0.000000 0.000000
    38 -0.000001 -0.614690 0.000000 -0.523599 0.000000 0.000000
    39 -0.308254 -0.007814 0.307166 0.334142 -0.676682 -2.416499
    40 1.978377 0.019544 0.000000 -0.091217 0.051488 1.062266
    41 0.982426 0.003186 0.000000 0.000000 0.000000 1.137933
  time 7
    0 10.540233 1.689048 -6.486975 -0.789403 -1.327724 0.341979
    1 0.000000 -8.563281 0.000000 0.421119 0.030028 -0.101306
    2 -0.687785 -3.268885 0.771382 -0.649191 1.517736 -0.634003
    3 0.000000 1.978415 0.899280 0.000000 0.000000 0.000000
    4 0.000000 -4.488900 2.000896 0.000000 0.000000 0.000000
    5 -0.031251 -1.298224 0.681954 0.000000 0.000000 0.000000
    6 -0.000001 2.795271 0.337227 0.000000 0.000000 0.000000
    7 -0.000001 -6.827026 1.101617 0.000000 0.000000 0.000000
    8 -0.003480 -0.404829 0.000000 0.000000 0.000000 0.000000
    9 -0.519309 -2.501154 -0.278957 -1.025939 -0.112116 -0.189874
    10 -0.010598 -1.208184 0.000000 -1.226964 0.000000 0.000000
    11 0.000000 -0.763065 0.000000 -0.982627 0.000000 0.000000
    12 0.105981 -2.607134 -0.278957 -0.842755 -0.023454 -0.169254
    13 0.000000 -1.250579 0.000000 -1.291539 0.000000 0.000000
    14 0.000000 -0.932635 0.000000 -1.195552 0.000000 0.000000
    15 0.763064 -2.490555 -0.278957 -0.405039 0.000000 0.130900
    16 -0.012322 -1.280917 0.000000 -1.302003 0.000000 0.000000
    17 -0.001697 -0.749371 0.000000 -0.432375 0.000000 0.000000
    18 0.354567 0.016266 0.318133 0.488948 -0.453366 -1.121476
    19 1.887164 0.012878 0.000000 -0.301418 -0.050167 -0.561348
    20 1.001874 -0.000270 -0.000001 0.000000 0.000000 -0.703360
    21 -1.123359 -2.195093 -0.278957 -1.166683 -0.116814 -0.133119
    22 0.010772 -0.963791 0.000000 -0.657988 0.000000 0.000000
    23 -0.010412 -0.631916 -0.000001 -1.359599 0.000000 0.000000
    24 -0.335461 -7.060523 -9.389253 -2.177344 1.001018 -1.431078
    25 0.089929 -8.543163 0.000000 0.876670 0.102373 0.471520
    26 0.000000 -0.359713 0.000002 0.000000 0.000000 0.000000
    27 -0.170479 -2.636147 -0.277654 -1.781942 0.000000 0.000000
    28 0.010599 -1.261177 0.000001 -0.493919 0.000000 0.000000
    29 -0.000001 -0.943233 -0.000001 -0.924996 0.000000 0.000000
    30 -0.827563 -2.508973 -0.277656 -1.710405 0.000000 0.000000
    31 0.000001 -1.292971 0.000002 -0.602126 0.000000 0.000000
    32 0.000000 -0.752466 0.000001 -1.078594 0.000000 0.000000
    33 0.444213 -2.561960 -0.277654 -1.701143 -0.045387 -0.024911
    34 0.021022 -1.208186 -0.000001 -0.548020 0.000000 0.000000
    35 0.010597 -0.741867 -0.000002 -0.872658 0.000000 0.000000
    36 1.047445 -2.222821 -0.277654 -1.508123 -0.078971 -0.038609
    37 0.000000 -0.996223 -0.000001 -0.570729 0.000000 0.000000
    38 -0.000001 -0.614690 0.000000 -0.523599 0.000000 0.000000
    39 -0.308254 -0.007814 0.307166 0.334142 -0.676682 -2.416499
    40 1.978377 0.019544 0.000000 -0.091217 0.051488 1.062266
    41 0.982426 0.003186 0.000000 0.000000 0.000000 1.137933
  time 8
    0 10.540233 1.638265 -6.475256 -0.789261 -1.327744 0.341900
    1 0.000000 -8.563281 0.000000 0.420987 0.030054 -0.101725
    2 -0.687785 -3.268885 0.771382 -0.649191 1.517736 -0.634003
    3 0.000000 1.978415 0.899280 0.000000 0.000000 0.000000
    4 0.000000 -4.488900 2.000896 0.000000 0.000000 0.000000
    5 -0.027345 -1.345100 0.681954 0.000000 0.000000 0.000000
    6 -0.000001 2.795271 0.337227 0.000000 0.000000 0.000000
    7 -0.000001 -6.827026 1.101617 0.000000 0.000000 0.000000
    8 -0.003480 -0.404829 0.000000 0.000000 0.000000 0.000000
    9 -0.519309 -2.501154 -0.278957 -1.025939 -0.112116 -0.189874
    10 -0.010598 -1.208184 0.000000 -1.226964 0.000000 0.000000
    11 0.000000 -0.763065 0.000000 -0.982627 0.000000 0.000000
    12 0.105981 -2.607134 -0.278957 -0.842755 -0.023454 -0.169254
    13 0.000000 -1.250579 0.000000 -1.291539 0.000000 0.000000
    14 0.000000 -0.932635 0.000000 -1.195552 0.000000 0.000000
    15 0.763064 -2.490555 -0.278957 -0.395567 0.000000 0.130900
    16 -0.012322 -1.280917 0.000000 -1.277404 0.000000 0.000000
    17 -0.001697 -0.749371 0.000000 -0.457279 0.000000 0.000000
    18 0.354567 0.016266 0.318133 0.488948 -0.453366 -1.121476
    19 1.887164 0.012878 0.000000 -0.301418 -0.050167 -0.561348
    20 1.001874 -0.000270 -0.000001 0.000000 0.000000 -0.703360
    21 -1.123359 -2.195093 -0.278957 -1.166683 -0.116814 -0.133119
    22 0.010772 -0.963791 0.000000 -0.657988 0.000000 0.000000
    23 -0.010412 -0.631916 -0.000001 -1.359599 0.000000 0.000000
    24 -0.335461 -7.048804 -9.389253 -2.174767 1.001081 -1.432413
    25 0.089929 -8.543163 0.000000 0.875798 0.111844 0.463561
    26 0.000000 -0.359713 0.000002 0.000000 0.000000 0.000000
    27 -0.170479 -2.636147 -0.277654 -1.781942 0.000000 0.000000
    28 0.010599 -1.261177 0.000001 -0.493919 0.000000 0.000000
    29 -0.000001 -0.943233 -0.000001 -0.924996 0.000000 0.000000
    30 -0.827563 -2.508973 -0.277656 -1.710405 0.000000 0.000000
    31 0.000001 -1.292971 0.000002 -0.602126 0.000000 0.000000
    32 0.000000 -0.752466 0.000001 -1.078594 0.000000 0.000000
    33 0.444213 -2.561960 -0.277654 -1.701143 -0.045387 -0.024911
    34 0.021022 -1.208186 -0.000001 -0.548020 0.000000 0.000000
    35 0.010597 -0.741867 -0.000002 -0.872658 0.000000 0.000000
    36 1.047445 -2.222821 -0.277654 -1.508123 -0.078971 -0.038609
    37 0.000000 -0.996223 -0.000001 -0.570729 0.000000 0.000000
    38 -0.000001 -0.614690 0.000000 -0.523599 0.000000 0.000000
    39 -0.308254 -0.007814 0.307166 0.334142 -0.676682 -2.416499
    40 1.978377 0.019544 0.000000 -0.091217 0.051488 1.062266
    41 0.982426 0.003186 0.000000 0.000000 0.000000 1.137933
  time 9
    0 10.540233 1.634359 -6.471350 -0.791177 -1.327270 0.343814
    1 0.000000 -8.563281 0.000000 0.421023 0.029640 -0.100718
    2 -0.687785 -3.268885 0.771382 -0.649191 1.517736 -0.634003
    3 0.000000 1.978415 0.899280 0.000000 0.000000 0.000000
    4 0.000000 -4.488900 2.000896 0.000000 0.000000 0.000000
    5 -0.019532 -1.399790 0.681954 0.000000 0.000000 0.000000
    6 -0.000001 2.795271 0.337227 0.000000 0.000000 0.000000
    7 -0.000001 -6.827026 1.101617 0.000000 0.000000 0.000000
    8 -0.003480 -0.404829 0.000000 0.000000 0.000000 0.000000
    9 -0.519309 -2.501154 -0.278957 -1.025939 -0.112116 -0.189874
    10 -0.010598 -1.208184 0.000000 -1.226964 0.000000 0.000000
    11 0.000000 -0.763065 0.000000 -0.982627 0.000000 0.000000
    12 0.105981 -2.607134 -0.278957 -0.842755 -0.023454 -0.169254
    13 0.000000 -1.250579 0.000000 -1.291539 0.000000 0.000000
    14 0.000000 -0.932635 0.000000 -1.195552 0.000000 0.000000
    15 0.763064 -2.490555 -0.278957 -0.384365 0.000000 0.130900
    16 -0.012322 -1.280917 0.000000 -1.242223 0.000000 0.000000
    17 -0.001697 -0.749371 0.000000 -0.503072 0.000000 0.000000
    18 0.354567 0.016266 0.318133 0.488948 -0.453366 -1.121476
    19 1.887164 0.012878 0.000000 -0.301418 -0.050167 -0.561348
    20 1.001874 -0.000270 -0.000001 0.000000 0.000000 -0.703360
    21 -1.123359 -2.195093 -0.278957 -1.166683 -0.116814 -0.133119
    22 0.010772 -0.963791 0.000000 -0.657988 0.000000 0.000000
    23 -0.010412 -0.631916 -0.000001 -1.359611 0.000000 0.000000
    24 -0.339368 -7.080055 -9.440035 -2.166653 0.993145 -1.424022
    25 0.089929 -8.543163 0.000000 0.874881 0.121232 0.455681
    26 0.000000 -0.359713 0.000002 0.000000 0.000000 0.000000
    27 -0.170479 -2.636147 -0.277654 -1.781942 0.000000 0.000000
    28 0.010599 -1.261177 0.000001 -0.493919 0.000000 0.000000
    29 -0.000001 -0.943233 -0.000001 -0.924996 0.000000 0.000000
    30 -0.827563 -2.508973 -0.277656 -1.710405 0.000000 0.000000
    31 0.000001 -1.292971 0.000002 -0.602126 0.000000 0.000000
    32 0.000000 -0.752466 0.000001 -1.078594 0.000000 0.000000
    33 0.444213 -2.561960 -0.277654 -1.701143 -0.045387 -0.024911
    34 0.021022 -1.208186 -0.000001 -0.548020 0.000000 0.000000
    35 0.010597 -0.741867 -0.000002 -0.872658 0.000000 0.000000
    36 1.047445 -2.222821 -0.277654 -1.508123 -0.078971 -0.038609
    37 0.000000 -0.996223 -0.000001 -0.570729 0.000000 0.000000
    38 -0.000001 -0.614690 0.000000 -0.523599 0.000000 0.000000
    39 -0.308254 -0.007814 0.307166 0.334142 -0.676682 -2.416499
    40 1.978377 0.019544 0.000000 -0.091217 0.051488 1.062266
    41 0.982426 0.003186 0.000000 0.000000 0.000000 1.137933
  time 10
    0 10.540233 1.657797 -6.471350 -0.794300 -1.326460 0.347083
    1 0.000000 -8.563281 0.000000 0.421191 0.028927 -0.098861
    2 -0.687785 -3.268885 0.771382 -0.649191 1.517736 -0.634003
    3 0.000000 1.978415 0.899280 0.000000 0.000000 0.000000
    4 0.000000 -4.488900 2.000896 0.000000 0.000000 0.000000
    5 -0.019532 -1.458385 0.681954 0.000000 0.000000 0.000000
    6 -0.000001 2.795271 0.337227 0.000000 0.000000 0.000000
    7 -0.000001 -6.827026 1.101617 0.000000 0.000000 0.000000
    8 -0.003480 -0.404829 0.000000 0.000000 0.000000 0.000000
    9 -0.519309 -2.501154 -0.278957 -1.025939 -0.112116 -0.189874
    10 -0.010598 -1.208184 0.000000 -1.226964 0.000000 0.000000
    11 0.000000 -0.763065 0.000000 -0.982627 0.000000 0.000000
    12 0.105981 -2.607134 -0.278957 -0.842755 -0.023454 -0.169254
    13 0.000000 -1.250579 0.000000 -1.291539 0.000000 0.000000
    14 0.000000 -0.932635 0.000000 -1.195552 0.000000 0.000000
    15 0.763064 -2.490555 -0.278957 -0.372312 0.000000 0.130900
    16 -0.012322 -1.280917 0.000000 -1.200046 0.000000 0.000000
    17 -0.001697 -0.749371 0.000000 -0.570558 0.000000 0.000000
    18 0.354567 0.016266 0.318133 0.488948 -0.453366 -1.121476
    19 1.887164 0.012878 0.000000 -0.301418 -0.050167 -0.561348
    20 1.001874 -0.000270 -0.000001 0.000000 0.000000 -0.703360
    21 -1.123359 -2.195093 -0.278957 -1.166683 -0.116814 -0.133119
    22 0.010772 -0.963791 0.000000 -0.657988 0.000000 0.000000
    23 -0.010412 -0.631916 -0.000001 -1.359599 0.000000 0.000000
    24 -0.343274 -7.138651 -9.506444 -2.156534 0.981681 -1.410958
    25 0.089929 -8.543163 0.000000 0.874095 0.128656 0.449400
    26 0.000000 -0.359713 0.000002 0.000000 0.000000 0.000000
    27 -0.170479 -2.636147 -0.277654 -1.781942 0.000000 0.000000
    28 0.010599 -1.261177 0.000001 -0.493919 0.000000 0.000000
    29 -0.000001 -0.943233 -0.000001 -0.924996 0.000000 0.000000
    30 -0.827563 -2.508973 -0.277656 -1.710405 0.000000 0.000000
    31 0.000001 -1.292971 0.000002 -0.602126 0.000000 0.000000
    32 0.000000 -0.752466 0.000001 -1.078594 0.000000 0.000000
    33 0.444213 -2.561960 -0.277654 -1.701143 -0.045387 -0.024911
    34 0.021022 -1.208186 -0.000001 -0.548020 0.000000 0.000000
    35 0.010597 -0.741867 -0.000002 -0.872658 0.000000 0.000000
    36 1.047445 -2.222821 -0.277654 -1.508123 -0.078971 -0.038609
    37 0.000000 -0.996223 -0.000001 -0.570729 0.000000 0.000000
    38 -0.000001 -0.614690 0.000000 -0.523599 0.000000 0.000000
    39 -0.308254 -0.007814 0.307166 0.334142 -0.676682 -2.416499
    40 1.978377 0.019544 0.000000 -0.091217 0.051488 1.062266
    41 0.982426 0.003186 0.000000 0.000000 0.000000 1.137933
  time 11
    0 10.540233 1.700767 -6.475256 -0.797919 -1.325551 0.350752
    1 0.000000 -8.563281 0.000000 0.421406 0.028162 -0.096740
    2 -0.687785 -3.268885 0.771382 -0.649191 1.517736 -0.634003
    3 0.000000 1.978415 0.899280 0.000000 0.000000 0.000000
    4 0.000000 -4.488900 2.000896 0.000000 0.000000 0.000000
    5 -0.019532 -1.501355 0.681954 0.000000 0.000000 0.000000
    6 -0.000001 2.795271 0.337227 0.000000 0.000000 0.000000
    7 -0.000001 -6.827026 1.101617 0.000000 0.000000 0.000000
    8 -0.003480 -0.404829 0.000000 0.000000 0.000000 0.000000
    9 -0.519309 -2.501154 -0.278957 -1.025939 -0.112116 -0.189874
    10 -0.010598 -1.208184 0.000000 -1.226964 0.000000 0.000000
    11 0.000000 -0.763065 0.000000 -0.982627 0.000000 0.000000
    12 0.105981 -2.607134 -0.278957 -0.842755 -0.023454 -0.169254
    13 0.000000 -1.250579 0.000000 -1.291539 0.000000 0.000000
    14 0.000000 -0.932635 0.000000 -1.195552 0.000000 0.000000
    15 0.763064 -2.490555 -0.278957 -0.360234 0.000000 0.130900
    16 -0.012322 -1.280917 0.000000 -1.154307 0.000000 0.000000
    17 -0.001697 -0.749371 0.000000 -0.652496 0.000000 0.000000
    18 0.354567 0.016266 0.318133 0.488948 -0.453366 -1.121476
    19 1.887164 0.012878 0.000000 -0.301418 -0.050167 -0.561348
    20 1.001874 -0.000270 -0.000001 0.000000 0.000000 -0.703360
    21 -1.123359 -2.195093 -0.278957 -1.166683 -0.116814 -0.133119
    22 0.010772 -0.963791 0.000000 -0.657988 0.000000 0.000000
    23 -0.010412 -0.631916 -0.000001 -1.359599 0.000000 0.000000
    24 -0.347180 -7.201153 -9.572852 -2.147561 0.971163 -1.397989
    25 0.089929 -8.543163 0.000000 0.873702 0.132358 0.446280
    26 0.000000 -0.359713 0.000002 0.000000 0.000000 0.000000
    27 -0.170479 -2.636147 -0.277654 -1.781942 0.000000 0.000000
    28 0.010599 -1.261177 0.000001 -0.493919 0.000000 0.000000
    29 -0.000001 -0.943233 -0.000001 -0.924996 0.000000 0.000000
    30 -0.827563 -2.508973 -0.277656 -1.710405 0.000000 0.000000
    31 0.000001 -1.292971 0.000002 -0.602126 0.000000 0.000000
    32 0.000000 -0.752466 0.000001 -1.078594 0.000000 0.000000
    33 0.444213 -2.561960 -0.277654 -1.701143 -0.045387 -0.024911
    34 0.021022 -1.208186 -0.000001 -0.548020 0.000000 0.000000
    35 0.010597 -0.741867 -0.000002 -0.872658 0.000000 0.000000
    36 1.047445 -2.222821 -0.277654 -1.508123 -0.078971 -0.038609
    37 0.000000 -0.996223 -0.000001 -0.570729 0.000000 0.000000
    38 -0.000001 -0.614690 0.000000 -0.523599 0.000000 0.000000
    39 -0.308254 -0.007814 0.307166 0.334142 -0.676682 -2.416499
    40 1.978377 0.019544 0.000000 -0.091217 0.051488 1.062266
    41 0.982426 0.003186 0.000000 0.000000 0.000000 1.137933
  time 12
    0 10.540233 1.747644 -6.486975 -0.801184 -1.324701 0.354181
    1 0.000000 -8.563281 0.000000 0.421586 0.027501 -0.094954
    2 -0.687785 -3.268885 0.771382 -0.649191 1.517736 -0.634003
    3 0.000000 1.978415 0.899280 0.000000 0.000000 0.000000
    4 0.000000 -4.488900 2.000896 0.000000 0.000000 0.000000
    5 -0.011719 -1.516981 0.681954 0.000000 0.000000 0.000000
    6 -0.000001 2.795271 0.337227 0.000000 0.000000 0.000000
    7 -0.000001 -6.827026 1.101617 0.000000 0.000000 0.000000
    8 -0.003480 -0.404829 0.000000 0.000000 0.000000 0.000000
    9 -0.519309 -2.501154 -0.278957 -1.025939 -0.112116 -0.189874
    10 -0.010598 -1.208184 0.000000 -1.226964 0.000000 0.000000
    11 0.000000 -0.763065 0.000000 -0.982627 0.000000 0.000000
    12 0.105981 -2.607134 -0.278957 -0.842755 -0.023454 -0.169254
    13 0.000000 -1.250579 0.000000 -1.291539 0.000000 0.000000
    14 0.000000 -0.932635 0.000000 -1.195552 0.000000 0.000000
    15 0.763064 -2.490555 -0.278957 -0.349058 0.000000 0.130900
    16 -0.012322 -1.280917 0.000000 -1.108594 0.000000 0.000000
    17 -0.001697 -0.749371 0.000000 -0.741662 0.000000 0.000000
    18 0.354567 0.016266 0.318133 0.488948 -0.453366 -1.121476
    19 1.887164 0.012878 0.000000 -0.301418 -0.050167 -0.561348
    20 1.001874 -0.000270 -0.000001 0.000000 0.000000 -0.703360
    21 -1.123359 -2.195093 -0.278957 -1.166683 -0.116814 -0.133119
    22 0.010772 -0.963791 0.000000 -0.657988 0.000000 0.000000
    23 -0.010412 -0.631916 -0.000001 -1.359599 0.000000 0.000000
    24 -0.351087 -7.248029 -9.615822 -2.142406 0.966250 -1.389026
    25 0.089929 -8.543163 0.000000 0.873921 0.130497 0.447840
    26 0.000000 -0.359713 0.000002 0.000000 0.000000 0.000000
    27 -0.170479 -2.636147 -0.277654 -1.781942 0.000000 0.000000
    28 0.010599 -1.261177 0.000001 -0.493919 0.000000 0.000000
    29 -0.000001 -0.943233 -0.000001 -0.924996 0.000000 0.000000
    30 -0.827563 -2.508973 -0.277656 -1.710405 0.000000 0.000000
    31 0.000001 -1.292971 0.000002 -0.602126 0.000000 0.000000
    32 0.000000 -0.752466 0.000001 -1.078594 0.000000 0.000000
    33 0.444213 -2.561960 -0.277654 -1.701143 -0.045387 -0.024911
    34 0.021022 -1.208186 -0.000001 -0.548020 0.000000 0.000000
    35 0.010597 -0.741867 -0.000002 -0.872658 0.000000 0.000000
    36 1.047445 -2.222821 -0.277654 -1.508123 -0.078971 -0.038609
    37 0.000000 -0.996223 -0.000001 -0.570729 0.000000 0.000000
    38 -0.000001 -0.614690 0.000000 -0.523599 0.000000 0.000000
    39 -0.308254 -0.007814 0.307166 0.334142 -0.676682 -2.416499
    40 1.978377 0.019544 0.000000 -0.091217 0.051488 1.062266
    41 0.982426 0.003186 0.000000 0.000000 0.000000 1.137933
  time 13
    0 10.540233 1.786707 -6.486975 -0.803454 -1.324108 0.356494
    1 0.000000 -8.563281 0.000000 0.421670 0.027190 -0.094091
    2 -0.687785 -3.268885 0.771382 -0.649191 1.517736 -0.634003
    3 0.000000 1.978415 0.899280 0.000000 0.000000 0.000000
    4 0.000000 -4.488900 2.000896 0.000000 0.000000 0.000000
    5 -0.011719 -1.516981 0.681954 0.000000 0.000000 0.000000
    6 -0.000001 2.795271 0.337227 0.000000 0.000000 0.000000
    7 -0.000001 -6.827026 1.101617 0.000000 0.000000 0.000000
    8 -0.003480 -0.404829 0.000000 0.000000 0.000000 0.000000
    9 -0.519309 -2.501154 -0.278957 -1.025939 -0.112116 -0.189874
    10 -0.010598 -1.208184 0.000000 -1.226964 0.000000 0.000000
    11 0.000000 -0.763065 0.000000 -0.982627 0.000000 0.000000
    12 0.105981 -2.607134 -0.278957 -0.842755 -0.023454 -0.169254
    13 0.000000 -1.250579 0.000000 -1.291539 0.000000 0.000000
    14 0.000000 -0.932635 0.000000 -1.195552 0.000000 0.000000
    15 0.763064 -2.490555 -0.278957 -0.349058 0.000000 0.130900
    16 -0.012322 -1.280917 0.000000 -1.066366 0.000000 0.000000
    17 -0.001697 -0.749371 0.000000 -0.830851 0.000000 0.000000
    18 0.354567 0.016266 0.318133 0.488948 -0.453366 -1.121476
    19 1.887164 0.012878 0.000000 -0.301418 -0.050167 -0.561348
    20 1.001874 -0.000270 -0.000001 0.000000 0.000000 -0.703360
    21 -1.123359 -2.195093 -0.278957 -1.166683 -0.116814 -0.133119
    22 0.010772 -0.963791 0.000000 -0.657988 0.000000 0.000000
    23 -0.010412 -0.631916 -0.000001 -1.359599 0.000000 0.000000
    24 -0.354993 -7.279280 -9.631448 -2.140020 0.965809 -1.383495
    25 0.089929 -8.543163 0.000000 0.874488 0.124955 0.452560
    26 0.000000 -0.359713 0.000002 0.000000 0.000000 0.000000
    27 -0.170479 -2.636147 -0.277654 -1.781942 0.000000 0.000000
    28 0.010599 -1.261177 0.000001 -0.493919 0.000000 0.000000
    29 -0.000001 -0.943233 -0.000001 -0.924996 0.000000 0.000000
    30 -0.827563 -2.508973 -0.277656 -1.710405 0.000000 0.000000
    31 0.000001 -1.292971 0.000002 -0.602126 0.000000 0.000000
    32 0.000000 -0.752466 0.000001 -1.078594 0.000000 0.000000
    33 0.444213 -2.561960 -0.277654 -1.701143 -0.045387 -0.024911
    34 0.021022 -1.208186 -0.000001 -0.548020 0.000000 0.000000
    35 0.010597 -0.741867 -0.000002 -0.872658 0.000000 0.000000
    36 1.047445 -2.222821 -0.277654 -1.508123 -0.078971 -0.038609
    37 0.000000 -0.996223 -0.000001 -0.570729 0.000000 0.000000
    38 -0.000001 -0.614690 0.000000 -0.523599 0.000000 0.000000
    39 -0.308254 -0.007814 0.307166 0.334142 -0.676682 -2.416499
    40 1.978377 0.019544 0.000000 -0.091217 0.051488 1.062266
    41 0.982426 0.003186 0.000000 0.000000 0.000000 1.137933
  time 14
    0 10.540233 1.802333 -6.494788 -0.803951 -1.323990 0.356972
    1 0.000000 -8.563281 0.000000 0.421670 0.027112 -0.093911
    2 -0.687785 -3.268885 0.771382 -0.649191 1.517736 -0.634003
    3 0.000000 1.978415 0.899280 0.000000 0.000000 0.000000
    4 0.000000 -4.488900 2.000896 0.000000 0.000000 0.000000
    5 -0.011719 -1.516981 0.681954 0.000000 0.000000 0.000000
    6 -0.000001 2.795271 0.337227 0.000000 0.000000 0.000000
    7 -0.000001 -6.827026 1.101617 0.000000 0.000000 0.000000
    8 -0.003480 -0.404829 0.000000 0.000000 0.000000 0.000000
    9 -0.519309 -2.501154 -0.278957 -1.025939 -0.112116 -0.189874
    10 -0.010598 -1.208184 0.000000 -1.226964 0.000000 0.000000
    11 0.000000 -0.763065 0.000000 -0.982627 0.000000 0.000000
    12 0.105981 -2.607134 -0.278957 -0.842755 -0.023454 -0.169254
    13 0.000000 -1.250579 0.000000 -1.291539 0.000000 0.000000
    14 0.000000 -0.932635 0.000000 -1.195552 0.000000 0.000000
    15 0.763064 -2.490555 -0.278957 -0.349058 0.000000 0.130900
    16 -0.012322 -1.280917 0.000000 -1.066366 0.000000 0.000000
    17 -0.001697 -0.749371 0.000000 -0.912790 0.000000 0.000000
    18 0.354567 0.016266 0.318133 0.488948 -0.453366 -1.121476
    19 1.887164 0.012878 0.000000 -0.301418 -0.050167 -0.561348
    20 1.001874 -0.000270 -0.000001 0.000000 0.000000 -0.703360
    21 -1.123359 -2.195093 -0.278957 -1.166683 -0.116814 -0.133119
    22 0.010772 -0.963791 0.000000 -0.657988 0.000000 0.000000
    23 -0.010412 -0.631916 -0.000001 -1.359611 0.000000 0.000000
    24 -0.362806 -7.298812 -9.631448 -2.137920 0.965809 -1.378060
    25 0.089929 -8.543163 0.000000 0.875143 0.118771 0.457749
    26 0.000000 -0.359713 0.000002 0.000000 0.000000 0.000000
    27 -0.170479 -2.636147 -0.277654 -1.781942 0.000000 0.000000
    28 0.010599 -1.261177 0.000001 -0.493919 0.000000 0.000000
    29 -0.000001 -0.943233 -0.000001 -0.924996 0.000000 0.000000
    30 -0.827563 -2.508973 -0.277656 -1.710405 0.000000 0.000000
    31 0.000001 -1.292971 0.000002 -0.602126 0.000000 0.000000
    32 0.000000 -0.752466 0.000001 -1.078594 0.000000 0.000000
    33 0.444213 -2.561960 -0.277654 -1.701143 -0.045387 -0.024911
    34 0.021022 -1.208186 -0.000001 -0.548020 0.000000 0.000000
    35 0.010597 -0.741867 -0.000002 -0.872658 0.000000 0.000000
    36 1.047445 -2.222821 -0.277654 -1.508123 -0.078971 -0.038609
    37 0.000000 -0.996223 -0.000001 -0.570729 0.000000 0.000000
    38 -0.000001 -0.614690 0.000000 -0.523599 0.000000 0.000000
    39 -0.308254 -0.007814 0.307166 0.334142 -0.676682 -2.416499
    40 1.978377 0.019544 0.000000 -0.091217 0.051488 1.062266
    41 0.982426 0.003186 0.000000 0.000000 0.000000 1.137933
  time 15
    0 10.540233 1.802333 -6.494788 -0.803171 -1.324187 0.356175
    1 0.000000 -8.563281 0.000000 0.421670 0.027060 -0.093779
    2 -0.687785 -3.268885 0.771382 -0.649191 1.517736 -0.634003
    3 0.000000 1.978415 0.899280 0.000000 0.000000 0.000000
    4 0.000000 -4.488900 2.000896 0.000000 0.000000 0.000000
    5 -0.011719 -1.516981 0.681954 0.000000 0.000000 0.000000
    6 -0.000001 2.795271 0.337227 0.000000 0.000000 0.000000
    7 -0.000001 -6.827026 1.101617 0.000000 0.000000 0.000000
    8 -0.003480 -0.404829 0.000000 0.000000 0.000000 0.000000
    9 -0.519309 -2.501154 -0.278957 -1.025939 -0.112116 -0.189874
    10 -0.010598 -1.208184 0.000000 -1.226964 0.000000 0.000000
    11 0.000000 -0.763065 0.000000 -0.982627 0.000000 0.000000
    12 0.105981 -2.607134 -0.278957 -0.842755 -0.023454 -0.169254
    13 0.000000 -1.250579 0.000000 -1.291539 0.000000 0.000000
    14 0.000000 -0.932635 0.000000 -1.195552 0.000000 0.000000
    15 0.763064 -2.490555 -0.278957 -0.349058 0.000000 0.130900
    16 -0.012322 -1.280917 0.000000 -1.066366 0.000000 0.000000
    17 -0.001697 -0.749371 0.000000 -0.912790 0.000000 0.000000
    18 0.354567 0.016266 0.318133 0.488948 -0.453366 -1.121476
    19 1.887164 0.012878 0.000000 -0.301418 -0.050167 -0.561348
    20 1.001874 -0.000270 -0.000001 0.000000 0.000000 -0.703360
    21 -1.123359 -2.195093 -0.278957 -1.166683 -0.116814 -0.133119
    22 0.010772 -0.963791 0.000000 -0.657988 0.000000 0.000000
    23 -0.010412 -0.631916 -0.000001 -1.359599 0.000000 0.000000
    24 -0.370618 -7.318344 -9.623635 -2.136106 0.966061 -1.372815
    25 0.089929 -8.543163 0.000000 0.875798 0.112030 0.463405
    26 0.000000 -0.359713 0.000002 0.000000 0.000000 0.000000
    27 -0.170479 -2.636147 -0.277654 -1.781942 0.000000 0.000000
    28 0.010599 -1.261177 0.000001 -0.493919 0.000000 0.000000
    29 -0.000001 -0.943233 -0.000001 -0.924996 0.000000 0.000000
    30 -0.827563 -2.508973 -0.277656 -1.710405 0.000000 0.000000
    31 0.000001 -1.292971 0.000002 -0.602126 0.000000 0.000000
    32 0.000000 -0.752466 0.000001 -1.078594 0.000000 0.000000
    33 0.444213 -2.561960 -0.277654 -1.701143 -0.045387 -0.024911
    34 0.021022 -1.208186 -0.000001 -0.548020 0.000000 0.000000
    35 0.010597 -0.741867 -0.000002 -0.872658 0.000000 0.000000
    36 1.047445 -2.222821 -0.277654 -1.508123 -0.078971 -0.038609
    37 0.000000 -0.996223 -0.000001 -0.570729 0.000000 0.000000
    38 -0.000001 -0.614690 0.000000 -0.523599 0.000000 0.000000
    39 -0.308254 -0.007814 0.307166 0.334142 -0.676682 -2.416499
    40 1.978377 0.019544 0.000000 -0.091217 0.051488 1.062266
    41 0.982426 0.003186 0.000000 0.000000 0.000000 1.137933
  time 16
    0 10.540233 1.798427 -6.494788 -0.802177 -1.324464 0.355138
    1 0.000000 -8.563281 0.000000 0.421670 0.027021 -0.093695
    2 -0.687785 -3.268885 0.771382 -0.649191 1.517736 -0.634003
    3 0.000000 1.978415 0.899280 0.000000 0.000000 0.000000
    4 0.000000 -4.488900 2.000896 0.000000 0.000000 0.000000
    5 -0.011719 -1.516981 0.681954 0.000000 0.000000 0.000000
    6 -0.000001 2.795271 0.337227 0.000000 0.000000 0.000000
    7 -0.000001 -6.827026 1.101617 0.000000 0.000000 0.000000
    8 -0.003480 -0.404829 0.000000 0.000000 0.000000 0.000000
    9 -0.519309 -2.501154 -0.278957 -1.025939 -0.112116 -0.189874
    10 -0.010598 -1.208184 0.000000 -1.226964 0.000000 0.000000
    11 0.000000 -0.763065 0.000000 -0.982627 0.000000 0.000000
    12 0.105981 -2.607134 -0.278957 -0.842755 -0.023454 -0.169254
    13 0.000000 -1.250579 0.000000 -1.291539 0.000000 0.000000
    14 0.000000 -0.932635 0.000000 -1.195552 0.000000 0.000000
    15 0.763064 -2.490555 -0.278957 -0.349058 0.000000 0.130900
    16 -0.012322 -1.280917 0.000000 -1.066366 0.000000 0.000000
    17 -0.001697 -0.749371 0.000000 -0.912790 0.000000 0.000000
    18 0.354567 0.016266 0.318133 0.488948 -0.453366 -1.121476
    19 1.887164 0.012878 0.000000 -0.301418 -0.050167 -0.561348
    20 1.001874 -0.000270 -0.000001 0.000000 0.000000 -0.703360
    21 -1.123359 -2.195093 -0.278957 -1.166683 -0.116814 -0.133119
    22 0.010772 -0.963791 0.000000 -0.657988 0.000000 0.000000
    23 -0.010412 -0.631916 -0.000001 -1.359599 0.000000 0.000000
    24 -0.378431 -7.333969 -9.608009 -2.134388 0.966691 -1.367570
    25 0.089929 -8.543163 0.000000 0.876409 0.104771 0.469491
    26 0.000000 -0.359713 0.000002 0.000000 0.000000 0.000000
    27 -0.170479 -2.636147 -0.277654 -1.781942 0.000000 0.000000
    28 0.010599 -1.261177 0.000001 -0.493919 0.000000 0.000000
    29 -0.000001 -0.943233 -0.000001 -0.924996 0.000000 0.000000
    30 -0.827563 -2.508973 -0.277656 -1.710405 0.000000 0.000000
    31 0.000001 -1.292971 0.000002 -0.602126 0.000000 0.000000
    32 0.000000 -0.752466 0.000001 -1.078594 0.000000 0.000000
    33 0.444213 -2.561960 -0.277654 -1.701143 -0.045387 -0.024911
    34 0.021022 -1.208186 -0.000001 -0.548020 0.000000 0.000000
    35 0.010597 -0.741867 -0.000002 -0.872658 0.000000 0.000000
    36 1.047445 -2.222821 -0.277654 -1.508123 -0.078971 -0.038609
    37 0.000000 -0.996223 -0.000001 -0.570729 0.000000 0.000000
    38 -0.000001 -0.614690 0.000000 -0.523599 0.000000 0.000000
    39 -0.308254 -0.007814 0.307166 0.334142 -0.676682 -2.416499
    40 1.978377 0.019544 0.000000 -0.091217 0.051488 1.062266
    41 0.982426 0.003186 0.000000 0.000000 0.000000 1.137933
  time 17
    0 10.540233 1.794520 -6.486975 -0.800900 -1.324800 0.353782
    1 0.000000 -8.563281 0.000000 0.421682 0.026996 -0.093636
    2 -0.687785 -3.268885 0.771382 -0.649191 1.517736 -0.634003
    3 0.000000 1.978415 0.899280 0.000000 0.000000 0.000000
    4 0.000000 -4.488900 2.000896 0.000000 0.000000 0.000000
    5 -0.011719 -1.516981 0.681954 0.000000 0.000000 0.000000
    6 -0.000001 2.795271 0.337227 0.000000 0.000000 0.000000
    7 -0.000001 -6.827026 1.101617 0.000000 0.000000 0.000000
    8 -0.003480 -0.404829 0.000000 0.000000 0.000000 0.000000
    9 -0.519309 -2.501154 -0.278957 -1.025939 -0.112116 -0.189874
    10 -0.010598 -1.208184 0.000000 -1.226964 0.000000 0.000000
    11 0.000000 -0.763065 0.000000 -0.982627 0.000000 0.000000
    12 0.105981 -2.607134 -0.278957 -0.842755 -0.023454 -0.169254
    13 0.000000 -1.250579 0.000000 -1.291539 0.000000 0.000000
    14 0.000000 -0.932635 0.000000 -1.195552 0.000000 0.000000
    15 0.763064 -2.490555 -0.278957 -0.349058 0.000000 0.130900
    16 -0.012322 -1.280917 0.000000 -1.066366 0.000000 0.000000
    17 -0.001697 -0.749371 0.000000 -0.912790 0.000000 0.000000
    18 0.354567 0.016266 0.318133 0.488948 -0.453366 -1.121476
    19 1.887164 0.012878 0.000000 -0.301418 -0.050167 -0.561348
    20 1.001874 -0.000270 -0.000001 0.000000 0.000000 -0.703360
    21 -1.123359 -2.195093 -0.278957 -1.166683 -0.116814 -0.133119
    22 0.010772 -0.963791 0.000000 -0.657988 0.000000 0.000000
    23 -0.010412 -0.631916 -0.000001 -1.359599 0.000000 0.000000
    24 -0.386244 -7.353501 -9.584571 -2.132860 0.967510 -1.362421
    25 0.089929 -8.543163 0.000000 0.877063 0.097058 0.475928
    26 0.000000 -0.359713 0.000002 0.000000 0.000000 0.000000
    27 -0.170479 -2.636147 -0.277654 -1.781942 0.000000 0.000000
    28 0.010599 -1.261177 0.000001 -0.493919 0.000000 0.000000
    29 -0.000001 -0.943233 -0.000001 -0.924996 0.000000 0.000000
    30 -0.827563 -2.508973 -0.277656 -1.710405 0.000000 0.000000
    31 0.000001 -1.292971 0.000002 -0.602126 0.000000 0.000000
    32 0.000000 -0.752466 0.000001 -1.078594 0.000000 0.000000
    33 0.444213 -2.561960 -0.277654 -1.701143 -0.045387 -0.024911
    34 0.021022 -1.208186 -0.000001 -0.548020 0.000000 0.000000
    35 0.010597 -0.741867 -0.000002 -0.872658 0.000000 0.000000
    36 1.047445 -2.222821 -0.277654 -1.508123 -0.078971 -0.038609
    37 0.000000 -0.996223 -0.000001 -0.570729 0.000000 0.000000
    38 -0.000001 -0.614690 0.000000 -0.523599 0.000000 0.000000
    39 -0.308254 -0.007814 0.307166 0.334142 -0.676682 -2.416499
    40 1.978377 0.019544 0.000000 -0.091217 0.051488 1.062266
    41 0.982426 0.003186 0.000000 0.000000 0.000000 1.137933
  time 18
    0 10.540233 1.782801 -6.486975 -0.799338 -1.325175 0.352267
    1 0.000000 -8.563281 0.000000 0.421682 0.026970 -0.093612
    2 -0.687785 -3.268885 0.771382 -0.649191 1.517736 -0.634003
    3 0.000000 1.978415 0.899280 0.000000 0.000000 0.000000
    4 0.000000 -4.488900 2.000896 0.000000 0.000000 0.000000
    5 -0.011719 -1.516981 0.681954 0.000000 0.000000 0.000000
    6 -0.000001 2.795271 0.337227 0.000000 0.000000 0.000000
    7 -0.000001 -6.827026 1.101617 0.000000 0.000000 0.000000
    8 -0.003480 -0.404829 0.000000 0.000000 0.000000 0.000000
    9 -0.519309 -2.501154 -0.278957 -1.025939 -0.112116 -0.189874
    10 -0.010598 -1.208184 0.000000 -1.226964 0.000000 0.000000
    11 0.000000 -0.763065 0.000000 -0.982627 0.000000 0.000000
    12 0.105981 -2.607134 -0.278957 -0.842755 -0.023454 -0.169254
    13 0.000000 -1.250579 0.000000 -1.291539 0.000000 0.000000
    14 0.000000 -0.932635 0.000000 -1.195552 0.000000 0.000000
    15 0.763064 -2.490555 -0.278957 -0.349058 0.000000 0.130900
    16 -0.012322 -1.280917 0.000000 -1.066366 0.000000 0.000000
    17 -0.001697 -0.749371 0.000000 -0.912790 0.000000 0.000000
    18 0.354567 0.016266 0.318133 0.488948 -0.453366 -1.121476
    19 1.887164 0.012878 0.000000 -0.301418 -0.050167 -0.561348
    20 1.001874 -0.000270 -0.000001 0.000000 0.000000 -0.703360
    21 -1.123359 -2.195093 -0.278957 -1.166683 -0.116814 -0.133119
    22 0.010772 -0.963791 0.000000 -0.657988 0.000000 0.000000
    23 -0.010412 -0.631916 -0.000001 -1.359599 0.000000 0.000000
    24 -0.394057 -7.369126 -9.561133 -2.131428 0.968517 -1.357462
    25 0.089929 -8.543163 0.000000 0.877718 0.088972 0.482677
    26 0.000000 -0.359713 0.000002 0.000000 0.000000 0.000000
    27 -0.170479 -2.636147 -0.277654 -1.781942 0.000000 0.000000
    28 0.010599 -1.261177 0.000001 -0.493919 0.000000 0.000000
    29 -0.000001 -0.943233 -0.000001 -0.924996 0.000000 0.000000
    30 -0.827563 -2.508973 -0.277656 -1.710405 0.000000 0.000000
    31 0.000001 -1.292971 0.000002 -0.602126 0.000000 0.000000
    32 0.000000 -0.752466 0.000001 -1.078594 0.000000 0.000000
    33 0.444213 -2.561960 -0.277654 -1.701143 -0.045387 -0.024911
    34 0.021022 -1.208186 -0.000001 -0.548020 0.000000 0.000000
    35 0.010597 -0.741867 -0.000002 -0.872658 0.000000 0.000000
    36 1.047445 -2.222821 -0.277654 -1.508123 -0.078971 -0.038609
    37 0.000000 -0.996223 -0.000001 -0.570729 0.000000 0.000000
    38 -0.000001 -0.614690 0.000000 -0.523599 0.000000 0.000000
    39 -0.308254 -0.007814 0.307166 0.334142 -0.676682 -2.416499
    40 1.978377 0.019544 0.000000 -0.091217 0.051488 1.062266
    41 0.982426 0.003186 0.000000 0.000000 0.000000 1.137933
  time 19
    0 10.540233 1.767176 -6.486975 -0.797706 -1.325610 0.350592
    1 0.000000 -8.563281 0.000000 0.421682 0.026970 -0.093600
    2 -0.687785 -3.268885 0.771382 -0.649191 1.517736 -0.634003
    3 0.000000 1.978415 0.899280 0.000000 0.000000 0.000000
    4 0.000000 -4.488900 2.000896 0.000000 0.000000 0.000000
    5 -0.011719 -1.516981 0.681954 0.000000 0.000000 0.000000
    6 -0.000001 2.795271 0.337227 0.000000 0.000000 0.000000
    7 -0.000001 -6.827026 1.101617 0.000000 0.000000 0.000000
    8 -0.003480 -0.404829 0.000000 0.000000 0.000000 0.000000
    9 -0.519309 -2.501154 -0.278957 -1.025939 -0.112116 -0.189874
    10 -0.010598 -1.208184 0.000000 -1.226964 0.000000 0.000000
    11 0.000000 -0.763065 0.000000 -0.982627 0.000000 0.000000
    12 0.105981 -2.607134 -0.278957 -0.842755 -0.023454 -0.169254
    13 0.000000 -1.250579 0.000000 -1.291539 0.000000 0.000000
    14 0.000000 -0.932635 0.000000 -1.195552 0.000000 0.000000
    15 0.763064 -2.490555 -0.278957 -0.349058 0.000000 0.130900
    16 -0.012322 -1.280917 0.000000 -1.066366 0.000000 0.000000
    17 -0.001697 -0.749371 0.000000 -0.912790 0.000000 0.000000
    18 0.354567 0.016266 0.318133 0.488948 -0.453366 -1.121476
    19 1.887164 0.012878 0.000000 -0.301418 -0.050167 -0.561348
    20 1.001874 -0.000270 -0.000001 0.000000 0.000000 -0.703360
    21 -1.123359 -2.195093 -0.278957 -1.166683 -0.116814 -0.133119
    22 0.010772 -0.963791 0.000000 -0.657988 0.000000 0.000000
    23 -0.010412 -0.631916 -0.000001 -1.359599 0.000000 0.000000
    24 -0.405776 -7.392565 -9.541601 -2.130092 0.969840 -1.352409
    25 0.089929 -8.543163 0.000000 0.878329 0.080514 0.489699
    26 0.000000 -0.359713 0.000002 0.000000 0.000000 0.000000
    27 -0.170479 -2.636147 -0.277654 -1.781942 0.000000 0.000000
    28 0.010599 -1.261177 0.000001 -0.493919 0.000000 0.000000
    29 -0.000001 -0.943233 -0.000001 -0.924996 0.000000 0.000000
    30 -0.827563 -2.508973 -0.277656 -1.710405 0.000000 0.000000
    31 0.000001 -1.292971 0.000002 -0.602126 0.000000 0.000000
    32 0.000000 -0.752466 0.000001 -1.078594 0.000000 0.000000
    33 0.444213 -2.561960 -0.277654 -1.701143 -0.045387 -0.024911
    34 0.021022 -1.208186 -0.000001 -0.548020 0.000000 0.000000
    35 0.010597 -0.741867 -0.000002 -0.872658 0.000000 0.000000
    36 1.047445 -2.222821 -0.277654 -1.508123 -0.078971 -0.038609
    37 0.000000 -0.996223 -0.000001 -0.570729 0.000000 0.000000
    38 -0.000001 -0.614690 0.000000 -0.523599 0.000000 0.000000
    39 -0.308254 -0.007814 0.307166 0.334142 -0.676682 -2.416499
    40 1.978377 0.019544 0.000000 -0.091217 0.051488 1.062266
    41 0.982426 0.003186 0.000000 0.000000 0.000000 1.137933
  time 20
    0 10.540233 1.747644 -6.486975 -0.795861 -1.326084 0.348599
    1 0.000000 -8.563281 0.000000 0.421682 0.026996 -0.093624
    2 -0.687785 -3.268885 0.771382 -0.649191 1.517736 -0.634003
    3 0.000000 1.978415 0.899280 0.000000 0.000000 0.000000
    4 0.000000 -4.488900 2.000896 0.000000 0.000000 0.000000
    5 -0.011719 -1.516981 0.681954 0.000000 0.000000 0.000000
    6 -0.000001 2.795271 0.337227 0.000000 0.000000 0.000000
    7 -0.000001 -6.827026 1.101617 0.000000 0.000000 0.000000
    8 -0.003480 -0.404829 0.000000 0.000000 0.000000 0.000000
    9 -0.519309 -2.501154 -0.278957 -1.025939 -0.112116 -0.189874
    10 -0.010598 -1.208184 0.000000 -1.226964 0.000000 0.000000
    11 0.000000 -0.763065 0.000000 -0.982627 0.000000 0.000000
    12 0.105981 -2.607134 -0.278957 -0.842755 -0.023454 -0.169254
    13 0.000000 -1.250579 0.000000 -1.291539 0.000000 0.000000
    14 0.000000 -0.932635 0.000000 -1.195552 0.000000 0.000000
    15 0.763064 -2.490555 -0.278957 -0.349058 0.000000 0.130900
    16 -0.012322 -1.280917 0.000000 -1.066366 0.000000 0.000000
    17 -0.001697 -0.749371 0.000000 -0.912790 0.000000 0.000000
    18 0.354567 0.016266 0.318133 0.488948 -0.453366 -1.121476
    19 1.887164 0.012878 0.000000 -0.301418 -0.050167 -0.561348
    20 1.001874 -0.000270 -0.000001 0.000000 0.000000 -0.703360
    21 -1.123359 -2.195093 -0.278957 -1.166683 -0.116814 -0.133119
    22 0.010772 -0.963791 0.000000 -0.657988 0.000000 0.000000
    23 -0.010412 -0.631916 -0.000001 -1.359599 0.000000 0.000000
    24 -0.413589 -7.419909 -9.522069 -2.128851 0.971289 -1.347450
    25 0.089929 -8.543163 0.000000 0.878853 0.071788 0.496994
    26 0.000000 -0.359713 0.000002 0.000000 0.000000 0.000000
    27 -0.170479 -2.636147 -0.277654 -1.781942 0.000000 0.000000
    28 0.010599 -1.261177 0.000001 -0.493919 0.000000 0.000000
    29 -0.000001 -0.943233 -0.000001 -0.924996 0.000000 0.000000
    30 -0.827563 -2.508973 -0.277656 -1.710405 0.000000 0.000000
    31 0.000001 -1.292971 0.000002 -0.602126 0.000000 0.000000
    32 0.000000 -0.752466 0.000001 -1.078594 0.000000 0.000000
    33 0.444213 -2.561960 -0.277654 -1.701143 -0.045387 -0.024911
    34 0.021022 -1.208186 -0.000001 -0.548020 0.000000 0.000000
    35 0.010597 -0.741867 -0.000002 -0.872658 0.000000 0.000000
    36 1.047445 -2.222821 -0.277654 -1.508123 -0.078971 -0.038609
    37 0.000000 -0.996223 -0.000001 -0.570729 0.000000 0.000000
    38 -0.000001 -0.614690 0.000000 -0.523599 0.000000 0.000000
    39 -0.308254 -0.007814 0.307166 0.334142 -0.676682 -2.416499
    40 1.978377 0.019544 0.000000 -0.091217 0.051488 1.062266
    41 0.982426 0.003186 0.000000 0.000000 0.000000 1.137933
  time 21
    0 10.540233 1.728112 -6.483069 -0.793874 -1.326598 0.346605
    1 0.000000 -8.563281 0.000000 0.421682 0.027009 -0.093660
    2 -0.687785 -3.268885 0.771382 -0.649191 1.517736 -0.634003
    3 0.000000 1.978415 0.899280 0.000000 0.000000 0.000000
    4 0.000000 -4.488900 2.000896 0.000000 0.000000 0.000000
    5 -0.011719 -1.516981 0.681954 0.000000 0.000000 0.000000
    6 -0.000001 2.795271 0.337227 0.000000 0.000000 0.000000
    7 -0.000001 -6.827026 1.101617 0.000000 0.000000 0.000000
    8 -0.003480 -0.404829 0.000000 0.000000 0.000000 0.000000
    9 -0.519309 -2.501154 -0.278957 -1.025939 -0.112116 -0.189874
    10 -0.010598 -1.208184 0.000000 -1.226964 0.000000 0.000000
    11 0.000000 -0.763065 0.000000 -0.982627 0.000000 0.000000
    12 0.105981 -2.607134 -0.278957 -0.842755 -0.023454 -0.169254
    13 0.000000 -1.250579 0.000000 -1.291539 0.000000 0.000000
    14 0.000000 -0.932635 0.000000 -1.195552 0.000000 0.000000
    15 0.763064 -2.490555 -0.278957 -0.349058 0.000000 0.130900
    16 -0.012322 -1.280917 0.000000 -1.066366 0.000000 0.000000
    17 -0.001697 -0.749371 0.000000 -0.912790 0.000000 0.000000
    18 0.354567 0.016266 0.318133 0.488948 -0.453366 -1.121476
    19 1.887164 0.012878 0.000000 -0.301418 -0.050167 -0.561348
    20 1.001874 -0.000270 -0.000001 0.000000 0.000000 -0.703360
    21 -1.123359 -2.195093 -0.278957 -1.166683 -0.116814 -0.133119
    22 0.010772 -0.963791 0.000000 -0.657988 0.000000 0.000000
    23 -0.010412 -0.631916 -0.000001 -1.359599 0.000000 0.000000
    24 -0.425308 -7.451160 -9.506444 -2.127705 0.972800 -1.342587
    25 0.089929 -8.543163 0.000000 0.879333 0.062854 0.504406
    26 0.000000 -0.359713 0.000002 0.000000 0.000000 0.000000
    27 -0.170479 -2.636147 -0.277654 -1.781942 0.000000 0.000000
    28 0.010599 -1.261177 0.000001 -0.493919 0.000000 0.000000
    29 -0.000001 -0.943233 -0.000001 -0.924996 0.000000 0.000000
    30 -0.827563 -2.508973 -0.277656 -1.710405 0.000000 0.000000
    31 0.000001 -1.292971 0.000002 -0.602126 0.000000 0.000000
    32 0.000000 -0.752466 0.000001 -1.078594 0.000000 0.000000
    33 0.444213 -2.561960 -0.277654 -1.701143 -0.045387 -0.024911
    34 0.021022 -1.208186 -0.000001 -0.548020 0.000000 0.000000
    35 0.010597 -0.741867 -0.000002 -0.872658 0.000000 0.000000
    36 1.047445 -2.222821 -0.277654 -1.508123 -0.078971 -0.038609
    37 0.000000 -0.996223 -0.000001 -0.570729 0.000000 0.000000
    38 -0.000001 -0.614690 0.000000 -0.523599 0.000000 0.000000
    39 -0.308254 -0.007814 0.307166 0.334142 -0.676682 -2.416499
    40 1.978377 0.019544 0.000000 -0.091217 0.051488 1.062266
    41 0.982426 0.003186 0.000000 0.000000 0.000000 1.137933
  time 22
    0 10.540233 1.700767 -6.475256 -0.791745 -1.327112 0.344372
    1 0.000000 -8.563281 0.000000 0.421670 0.027021 -0.093707
    2 -0.687785 -3.268885 0.771382 -0.649191 1.517736 -0.634003
    3 0.000000 1.978415 0.899280 0.000000 0.000000 0.000000
    4 0.000000 -4.488900 2.000896 0.000000 0.000000 0.000000
    5 -0.011719 -1.516981 0.681954 0.000000 0.000000 0.000000
    6 -0.000001 2.795271 0.337227 0.000000 0.000000 0.000000
    7 -0.000001 -6.827026 1.101617 0.000000 0.000000 0.000000
    8 -0.003480 -0.404829 0.000000 0.000000 0.000000 0.000000
    9 -0.519309 -2.501154 -0.278957 -1.025939 -0.112116 -0.189874
    10 -0.010598 -1.208184 0.000000 -1.226964 0.000000 0.000000
    11 0.000000 -0.763065 0.000000 -0.982627 0.000000 0.000000
    12 0.105981 -2.607134 -0.278957 -0.842755 -0.023454 -0.169254
    13 0.000000 -1.250579 0.000000 -1.291539 0.000000 0.000000
    14 0.000000 -0.932635 0.000000 -1.195552 0.000000 0.000000
    15 0.763064 -2.490555 -0.278957 -0.349058 0.000000 0.130900
    16 -0.012322 -1.280917 0.000000 -1.066366 0.000000 0.000000
    17 -0.001697 -0.749371 0.000000 -0.912790 0.000000 0.000000
    18 0.354567 0.016266 0.318133 0.488948 -0.453366 -1.121476
    19 1.887164 0.012878 0.000000 -0.301418 -0.050167 -0.561348
    20 1.001874 -0.000270 -0.000001 0.000000 0.000000 -0.703360
    21 -1.123359 -2.195093 -0.278957 -1.166683 -0.116814 -0.133119
    22 0.010772 -0.963791 0.000000 -0.657988 0.000000 0.000000
    23 -0.010412 -0.631916 -0.000001 -1.359599 0.000000 0.000000
    24 -0.437027 -7.482411 -9.490818 -2.126560 0.974501 -1.337628
    25 0.089929 -8.543163 0.000000 0.879813 0.053714 0.511974
    26 0.000000 -0.359713 0.000002 0.000000 0.000000 0.000000
    27 -0.170479 -2.636147 -0.277654 -1.781942 0.000000 0.000000
    28 0.010599 -1.261177 0.000001 -0.493919 0.000000 0.000000
    29 -0.000001 -0.943233 -0.000001 -0.924996 0.000000 0.000000
    30 -0.827563 -2.508973 -0.277656 -1.710405 0.000000 0.000000
    31 0.000001 -1.292971 0.000002 -0.602126 0.000000 0.000000
    32 0.000000 -0.752466 0.000001 -1.078594 0.000000 0.000000
    33 0.444213 -2.561960 -0.277654 -1.701143 -0.045387 -0.024911
    34 0.021022 -1.208186 -0.000001 -0.548020 0.000000 0.000000
    35 0.010597 -0.741867 -0.000002 -0.872658 0.000000 0.000000
    36 1.047445 -2.222821 -0.277654 -1.508123 -0.078971 -0.038609
    37 0.000000 -0.996223 -0.000001 -0.570729 0.000000 0.000000
    38 -0.000001 -0.614690 0.000000 -0.523599 0.000000 0.000000
    39 -0.308254 -0.007814 0.307166 0.334142 -0.676682 -2.416499
    40 1.978377 0.019544 0.000000 -0.091217 0.051488 1.062266
    41 0.982426 0.003186 0.000000 0.000000 0.000000 1.137933
  time 23
    0 10.540233 1.669516 -6.475256 -0.789545 -1.327665 0.342139
    1 0.000000 -8.563281 0.000000 0.421670 0.027047 -0.093755
    2 -0.687785 -3.268885 0.771382 -0.649191 1.517736 -0.634003
    3 0.000000 1.978415 0.899280 0.000000 0.000000 0.000000
    4 0.000000 -4.488900 2.000896 0.000000 0.000000 0.000000
    5 -0.011719 -1.516981 0.681954 0.000000 0.000000 0.000000
    6 -0.000001 2.795271 0.337227 0.000000 0.000000 0.000000
    7 -0.000001 -6.827026 1.101617 0.000000 0.000000 0.000000
    8 -0.003480 -0.404829 0.000000 0.000000 0.000000 0.000000
    9 -0.519309 -2.501154 -0.278957 -1.025939 -0.112116 -0.189874
    10 -0.010598 -1.208184 0.000000 -1.226964 0.000000 0.000000
    11 0.000000 -0.763065 0.000000 -0.982627 0.000000 0.000000
    12 0.105981 -2.607134 -0.278957 -0.842755 -0.023454 -0.169254
    13 0.000000 -1.250579 0.000000 -1.291539 0.000000 0.000000
    14 0.000000 -0.932635 0.000000 -1.195552 0.000000 0.000000
    15 0.763064 -2.490555 -0.278957 -0.349058 0.000000 0.130900
    16 -0.012322 -1.280917 0.000000 -1.066366 0.000000 0.000000
    17 -0.001697 -0.749371 0.000000 -0.912790 0.000000 0.000000
    18 0.354567 0.016266 0.318133 0.488948 -0.453366 -1.121476
    19 1.887164 0.012878 0.000000 -0.301418 -0.050167 -0.561348
    20 1.001874 -0.000270 -0.000001 0.000000 0.000000 -0.703360
    21 -1.123359 -2.195093 -0.278957 -1.166683 -0.116814 -0.133119
    22 0.010772 -0.963791 0.000000 -0.657988 0.000000 0.000000
    23 -0.010412 -0.631916 -0.000001 -1.359599 0.000000 0.000000
    24 -0.452652 -7.521475 -9.471286 -2.125510 0.976202 -1.332765
    25 0.089929 -8.543163 0.000000 0.880206 0.044491 0.519620
    26 0.000000 -0.359713 0.000002 0.000000 0.000000 0.000000
    27 -0.170479 -2.636147 -0.277654 -1.781942 0.000000 0.000000
    28 0.010599 -1.261177 0.000001 -0.493919 0.000000 0.000000
    29 -0.000001 -0.943233 -0.000001 -0.924996 0.000000 0.000000
    30 -0.827563 -2.508973 -0.277656 -1.710405 0.000000 0.000000
    31 0.000001 -1.292971 0.000002 -0.602126 0.000000 0.000000
    32 0.000000 -0.752466 0.000001 -1.078594 0.000000 0.000000
    33 0.444213 -2.561960 -0.277654 -1.701143 -0.045387 -0.024911
    34 0.021022 -1.208186 -0.000001 -0.548020 0.000000 0.000000
    35 0.010597 -0.741867 -0.000002 -0.872658 0.000000 0.000000
    36 1.047445 -2.222821 -0.277654 -1.508123 -0.078971 -0.038609
    37 0.000000 -0.996223 -0.000001 -0.570729 0.000000 0.000000
    38 -0.000001 -0.614690 0.000000 -0.523599 0.000000 0.000000
    39 -0.308254 -0.007814 0.307166 0.334142 -0.676682 -2.416499
    40 1.978377 0.019544 0.000000 -0.091217 0.051488 1.062266
    41 0.982426 0.003186 0.000000 0.000000 0.000000 1.137933
  time 24
    0 10.540233 1.634359 -6.475256 -0.787345 -1.328218 0.339826
    1 0.000000 -8.563281 0.000000 0.421670 0.027073 -0.093815
    2 -0.687785 -3.268885 0.771382 -0.649191 1.517736 -0.634003
    3 0.000000 1.978415 0.899280 0.000000 0.000000 0.000000
    4 0.000000 -4.488900 2.000896 0.000000 0.000000 0.000000
    5 -0.011719 -1.516981 0.681954 0.000000 0.000000 0.000000
    6 -0.000001 2.795271 0.337227 0.000000 0.000000 0.000000
    7 -0.000001 -6.827026 1.101617 0.000000 0.000000 0.000000
    8 -0.003480 -0.404829 0.000000 0.000000 0.000000 0.000000
    9 -0.519309 -2.501154 -0.278957 -1.025939 -0.112116 -0.189874
    10 -0.010598 -1.208184 0.000000 -1.226964 0.000000 0.000000
    11 0.000000 -0.763065 0.000000 -0.982627 0.000000 0.000000
    12 0.105981 -2.607134 -0.278957 -0.842755 -0.023454 -0.169254
    13 0.000000 -1.250579 0.000000 -1.291539 0.000000 0.000000
    14 0.000000 -0.932635 0.000000 -1.195552 0.000000 0.000000
    15 0.763064 -2.490555 -0.278957 -0.349058 0.000000 0.130900
    16 -0.012322 -1.280917 0.000000 -1.066366 0.000000 0.000000
    17 -0.001697 -0.749371 0.000000 -0.912790 0.000000 0.000000
    18 0.354567 0.016266 0.318133 0.488948 -0.453366 -1.121476
    19 1.887164 0.012878 0.000000 -0.301418 -0.050167 -0.561348
    20 1.001874 -0.000270 -0.000001 0.000000 0.000000 -0.703360
    21 -1.123359 -2.195093 -0.278957 -1.166683 -0.116814 -0.133119
    22 0.010772 -0.963791 0.000000 -0.657988 0.000000 0.000000
    23 -0.010412 -0.631916 -0.000001 -1.359599 0.000000 0.000000
    24 -0.464371 -7.556632 -9.451755 -2.124364 0.978028 -1.327806
    25 0.089929 -8.543163 0.000000 0.880468 0.035185 0.527305
    26 0.000000 -0.359713 0.000002 0.000000 0.000000 0.000000
    27 -0.170479 -2.636147 -0.277654 -1.781942 0.000000 0.000000
    28 0.010599 -1.261177 0.000001 -0.493919 0.000000 0.000000
    29 -0.000001 -0.943233 -0.000001 -0.924996 0.000000 0.000000
    30 -0.827563 -2.508973 -0.277656 -1.710405 0.000000 0.000000
    31 0.000001 -1.292971 0.000002 -0.602126 0.000000 0.000000
    32 0.000000 -0.752466 0.000001 -1.078594 0.000000 0.000000
    33 0.444213 -2.561960 -0.277654 -1.701143 -0.045387 -0.024911
    34 0.021022 -1.208186 -0.000001 -0.548020 0.000000 0.000000
    35 0.010597 -0.741867 -0.000002 -0.872658 0.000000 0.000000
    36 1.047445 -2.222821 -0.277654 -1.508123 -0.078971 -0.038609
    37 0.000000 -0.996223 -0.000001 -0.570729 0.000000 0.000000
    38 -0.000001 -0.614690 0.000000 -0.523599 0.000000 0.000000
    39 -0.308254 -0.007814 0.307166 0.334142 -0.676682 -2.416499
    40 1.978377 0.019544 0.000000 -0.091217 0.051488 1.062266
    41 0.982426 0.003186 0.000000 0.000000 0.000000 1.137933
  time 25
    0 10.540233 1.599202 -6.471350 -0.785074 -1.328791 0.337514
    1 0.000000 -8.563281 0.000000 0.421670 0.027112 -0.093887
    2 -0.687785 -3.268885 0.771382 -0.649191 1.517736 -0.634003
    3 0.000000 1.978415 0.899280 0.000000 0.000000 0.000000
    4 0.000000 -4.488900 2.000896 0.000000 0.000000 0.000000
    5 -0.011719 -1.516981 0.681954 0.000000 0.000000 0.000000
    6 -0.000001 2.795271 0.337227 0.000000 0.000000 0.000000
    7 -0.000001 -6.827026 1.101617 0.000000 0.000000 0.000000
    8 -0.003480 -0.404829 0.000000 0.000000 0.000000 0.000000
    9 -0.519309 -2.501154 -0.278957 -1.025939 -0.112116 -0.189874
    10 -0.010598 -1.208184 0.000000 -1.226964 0.000000 0.000000
    11 0.000000 -0.763065 0.000000 -0.982627 0.000000 0.000000
    12 0.105981 -2.607134 -0.278957 -0.842755 -0.023454 -0.169254
    13 0.000000 -1.250579 0.000000 -1.291539 0.000000 0.000000
    14 0.000000 -0.932635 0.000000 -1.195552 0.000000 0.000000
    15 0.763064 -2.490555 -0.278957 -0.349058 0.000000 0.130900
    16 -0.012322 -1.280917 0.000000 -1.066366 0.000000 0.000000
    17 -0.001697 -0.749371 0.000000 -0.912790 0.000000 0.000000
    18 0.354567 0.016266 0.318133 0.488948 -0.453366 -1.121476
    19 1.887164 0.012878 0.000000 -0.301418 -0.050167 -0.561348
    20 1.001874 -0.000270 -0.000001 0.000000 0.000000 -0.703360
    21 -1.123359 -2.195093 -0.278957 -1.166683 -0.116814 -0.133119
    22 0.010772 -0.963791 0.000000 -0.657988 0.000000 0.000000
    23 -0.010412 -0.631916 -0.000001 -1.359599 0.000000 0.000000
    24 -0.479997 -7.599602 -9.436129 -2.123314 0.979729 -1.322943
    25 0.089929 -8.543163 0.000000 0.880730 0.025879 0.534991
    26 0.000000 -0.359713 0.000002 0.000000 0.000000 0.000000
    27 -0.170479 -2.636147 -0.277654 -1.781942 0.000000 0.000000
    28 0.010599 -1.261177 0.000001 -0.493919 0.000000 0.000000
    29 -0.000001 -0.943233 -0.000001 -0.924996 0.000000 0.000000
    30 -0.827563 -2.508973 -0.277656 -1.710405 0.000000 0.000000
    31 0.000001 -1.292971 0.000002 -0.602126 0.000000 0.000000
    32 0.000000 -0.752466 0.000001 -1.078594 0.000000 0.000000
    33 0.444213 -2.561960 -0.277654 -1.701143 -0.045387 -0.024911
    34 0.021022 -1.208186 -0.000001 -0.548020 0.000000 0.000000
    35 0.010597 -0.741867 -0.000002 -0.872658 0.000000 0.000000
    36 1.047445 -2.222821 -0.277654 -1.508123 -0.078971 -0.038609
    37 0.000000 -0.996223 -0.000001 -0.570729 0.000000 0.000000
    38 -0.000001 -0.614690 0.000000 -0.523599 0.000000 0.000000
    39 -0.308254 -0.007814 0.307166 0.334142 -0.676682 -2.416499
    40 1.978377 0.019544 0.000000 -0.091217 0.051488 1.062266
    41 0.982426 0.003186 0.000000 0.000000 0.000000 1.137933
  time 26
    0 10.540233 1.556232 -6.463537 -0.782732 -1.329345 0.335201
    1 0.000000 -8.563281 0.000000 0.421670 0.027125 -0.093947
    2 -0.687785 -3.268885 0.771382 -0.649191 1.517736 -0.634003
    3 0.000000 1.978415 0.899280 0.000000 0.000000 0.000000
    4 0.000000 -4.488900 2.000896 0.000000 0.000000 0.000000
    5 -0.011719 -1.516981 0.681954 0.000000 0.000000 0.000000
    6 -0.000001 2.795271 0.337227 0.000000 0.000000 0.000000
    7 -0.000001 -6.827026 1.101617 0.000000 0.000000 0.000000
    8 -0.003480 -0.404829 0.000000 0.000000 0.000000 0.000000
    9 -0.519309 -2.501154 -0.278957 -1.025939 -0.112116 -0.189874
    10 -0.010598 -1.208184 0.000000 -1.226964 0.000000 0.000000
    11 0.000000 -0.763065 0.000000 -0.982627 0.000000 0.000000
    12 0.105981 -2.607134 -0.278957 -0.842755 -0.023454 -0.169254
    13 0.000000 -1.250579 0.000000 -1.291539 0.000000 0.000000
    14 0.000000 -0.932635 0.000000 -1.195552 0.000000 0.000000
    15 0.763064 -2.490555 -0.278957 -0.349058 0.000000 0.130900
    16 -0.012322 -1.280917 0.000000 -1.066366 0.000000 0.000000
    17 -0.001697 -0.749371 0.000000 -0.912790 0.000000 0.000000
    18 0.354567 0.016266 0.318133 0.488948 -0.453366 -1.121476
    19 1.887164 0.012878 0.000000 -0.301418 -0.050167 -0.561348
    20 1.001874 -0.000270 -0.000001 0.000000 0.000000 -0.703360
    21 -1.123359 -2.195093 -0.278957 -1.166683 -0.116814 -0.133119
    22 0.010772 -0.963791 0.000000 -0.657988 0.000000 0.000000
    23 -0.010412 -0.631916 -0.000001 -1.359599 0.000000 0.000000
    24 -0.495622 -7.638666 -9.416597 -2.122169 0.981429 -1.317985
    25 0.089929 -8.543163 0.000000 0.880817 0.016635 0.542637
    26 0.000000 -0.359713 0.000002 0.000000 0.000000 0.000000
    27 -0.170479 -2.636147 -0.277654 -1.781942 0.000000 0.000000
    28 0.010599 -1.261177 0.000001 -0.493919 0.000000 0.000000
    29 -0.000001 -0.943233 -0.000001 -0.924996 0.000000 0.000000
    30 -0.827563 -2.508973 -0.277656 -1.710405 0.000000 0.000000
    31 0.000001 -1.292971 0.000002 -0.602126 0.000000 0.000000
    32 0.000000 -0.752466 0.000001 -1.078594 0.000000 0.000000
    33 0.444213 -2.561960 -0.277654 -1.701143 -0.045387 -0.024911
    34 0.021022 -1.208186 -0.000001 -0.548020 0.000000 0.000000
    35 0.010597 -0.741867 -0.000002 -0.872658 0.000000 0.000000
    36 1.047445 -2.222821 -0.277654 -1.508123 -0.078971 -0.038609
    37 0.000000 -0.996223 -0.000001 -0.570729 0.000000 0.000000
    38 -0.000001 -0.614690 0.000000 -0.523599 0.000000 0.000000
    39 -0.308254 -0.007814 0.307166 0.334142 -0.676682 -2.416499
    40 1.978377 0.019544 0.000000 -0.091217 0.051488 1.062266
    41 0.982426 0.003186 0.000000 0.000000 0.000000 1.137933
  time 27
    0 10.540233 1.509355 -6.455724 -0.780461 -1.329898 0.332888
    1 0.000000 -8.563281 0.000000 0.421670 0.027164 -0.094007
    2 -0.687785 -3.268885 0.771382 -0.649191 1.517736 -0.634003
    3 0.000000 1.978415 0.899280 0.000000 0.000000 0.000000
    4 0.000000 -4.488900 2.000896 0.000000 0.000000 0.000000
    5 -0.011719 -1.516981 0.681954 0.000000 0.000000 0.000000
    6 -0.000001 2.795271 0.337227 0.000000 0.000000 0.000000
    7 -0.000001 -6.827026 1.101617 0.000000 0.000000 0.000000
    8 -0.003480 -0.404829 0.000000 0.000000 0.000000 0.000000
    9 -0.519309 -2.501154 -0.278957 -1.025939 -0.112116 -0.189874
    10 -0.010598 -1.208184 0.000000 -1.226964 0.000000 0.000000
    11 0.000000 -0.763065 0.000000 -0.982627 0.000000 0.000000
    12 0.105981 -2.607134 -0.278957 -0.842755 -0.023454 -0.169254
    13 0.000000 -1.250579 0.000000 -1.291539 0.000000 0.000000
    14 0.000000 -0.932635 0.000000 -1.195552 0.000000 0.000000
    15 0.763064 -2.490555 -0.278957 -0.349058 0.000000 0.130900
    16 -0.012322 -1.280917 0.000000 -1.066366 0.000000 0.000000
    17 -0.001697 -0.749371 0.000000 -0.912790 0.000000 0.000000
    18 0.354567 0.016266 0.318133 0.488948 -0.453366 -1.121476
    19 1.887164 0.012878 0.000000 -0.301418 -0.050167 -0.561348
    20 1.001874 -0.000270 -0.000001 0.000000 0.000000 -0.703360
    21 -1.123359 -2.195093 -0.278957 -1.166683 -0.116814 -0.133119
    22 0.010772 -0.963791 0.000000 -0.657988 0.000000 0.000000
    23 -0.010412 -0.631916 -0.000001 -1.359599 0.000000 0.000000
    24 -0.511248 -7.685542 -9.389253 -2.120928 0.983130 -1.313026
    25 0.089929 -8.543163 0.000000 0.880904 0.007495 0.550166
    26 0.000000 -0.359713 0.000002 0.000000 0.000000 0.000000
    27 -0.170479 -2.636147 -0.277654 -1.781942 0.000000 0.000000
    28 0.010599 -1.261177 0.000001 -0.493919 0.000000 0.000000
    29 -0.000001 -0.943233 -0.000001 -0.924996 0.000000 0.000000
    30 -0.827563 -2.508973 -0.277656 -1.710405 0.000000 0.000000
    31 0.000001 -1.292971 0.000002 -0.602126 0.000000 0.000000
    32 0.000000 -0.752466 0.000001 -1.078594 0.000000 0.000000
    33 0.444213 -2.561960 -0.277654 -1.701143 -0.045387 -0.024911
    34 0.021022 -1.208186 -0.000001 -0.548020 0.000000 0.000000
    35 0.010597 -0.741867 -0.000002 -0.872658 0.000000 0.000000
    36 1.047445 -2.222821 -0.277654 -1.508123 -0.078971 -0.038609
    37 0.000000 -0.996223 -0.000001 -0.570729 0.000000 0.000000
    38 -0.000001 -0.614690 0.000000 -0.523599 0.000000 0.000000
    39 -0.308254 -0.007814 0.307166 0.334142 -0.676682 -2.416499
    40 1.978377 0.019544 0.000000 -0.091217 0.051488 1.062266
    41 0.982426 0.003186 0.000000 0.000000 0.000000 1.137933
  time 28
    0 10.540233 1.458572 -6.451818 -0.778261 -1.330432 0.330655
    1 0.000000 -8.563281 0.000000 0.421670 0.027177 -0.094043
    2 -0.687785 -3.268885 0.771382 -0.649191 1.517736 -0.634003
    3 0.000000 1.978415 0.899280 0.000000 0.000000 0.000000
    4 0.000000 -4.488900 2.000896 0.000000 0.000000 0.000000
    5 -0.011719 -1.516981 0.681954 0.000000 0.000000 0.000000
    6 -0.000001 2.795271 0.337227 0.000000 0.000000 0.000000
    7 -0.000001 -6.827026 1.101617 0.000000 0.000000 0.000000
    8 -0.003480 -0.404829 0.000000 0.000000 0.000000 0.000000
    9 -0.519309 -2.501154 -0.278957 -1.025939 -0.112116 -0.189874
    10 -0.010598 -1.208184 0.000000 -1.226964 0.000000 0.000000
    11 0.000000 -0.763065 0.000000 -0.982627 0.000000 0.000000
    12 0.105981 -2.607134 -0.278957 -0.842755 -0.023454 -0.169254
    13 0.000000 -1.250579 0.000000 -1.291539 0.000000 0.000000
    14 0.000000 -0.932635 0.000000 -1.195552 0.000000 0.000000
    15 0.763064 -2.490555 -0.278957 -0.349058 0.000000 0.130900
    16 -0.012322 -1.280917 0.000000 -1.066366 0.000000 0.000000
    17 -0.001697 -0.749371 0.000000 -0.912790 0.000000 0.000000
    18 0.354567 0.016266 0.318133 0.488948 -0.453366 -1.121476
    19 1.887164 0.012878 0.000000 -0.301418 -0.050167 -0.561348
    20 1.001874 -0.000270 -0.000001 0.000000 0.000000 -0.703360
    21 -1.123359 -2.195093 -0.278957 -1.166683 -0.116814 -0.133119
    22 0.010772 -0.963791 0.000000 -0.657988 0.000000 0.000000
    23 -0.010412 -0.631916 -0.000001 -1.359599 0.000000 0.000000
    24 -0.526873 -7.732419 -9.373627 -2.119591 0.984642 -1.307972
    25 0.089929 -8.543163 0.000000 0.880948 -0.001459 0.557578
    26 0.000000 -0.359713 0.000002 0.000000 0.000000 0.000000
    27 -0.170479 -2.636147 -0.277654 -1.781942 0.000000 0.000000
    28 0.010599 -1.261177 0.000001 -0.493919 0.000000 0.000000
    29 -0.000001 -0.943233 -0.000001 -0.924996 0.000000 0.000000
    30 -0.827563 -2.508973 -0.277656 -1.710405 0.000000 0.000000
    31 0.000001 -1.292971 0.000002 -0.602126 0.000000 0.000000
    32 0.000000 -0.752466 0.000001 -1.078594 0.000000 0.000000
    33 0.444213 -2.561960 -0.277654 -1.701143 -0.045387 -0.024911
    34 0.021022 -1.208186 -0.000001 -0.548020 0.000000 0.000000
    35 0.010597 -0.741867 -0.000002 -0.872658 0.000000 0.000000
    36 1.047445 -2.222821 -0.277654 -1.508123 -0.078971 -0.038609
    37 0.000000 -0.996223 -0.000001 -0.570729 0.000000 0.000000
    38 -0.000001 -0.614690 0.000000 -0.523599 0.000000 0.000000
    39 -0.308254 -0.007814 0.307166 0.334142 -0.676682 -2.416499
    40 1.978377 0.019544 0.000000 -0.091217 0.051488 1.062266
    41 0.982426 0.003186 0.000000 0.000000 0.000000 1.137933
  time 29
    0 10.540233 1.407790 -6.451818 -0.776203 -1.330926 0.328502
    1 0.000000 -8.563281 0.000000 0.421670 0.027190 -0.094079
    2 -0.687785 -3.268885 0.771382 -0.649191 1.517736 -0.634003
    3 0.000000 1.978415 0.899280 0.000000 0.000000 0.000000
    4 0.000000 -4.488900 2.000896 0.000000 0.000000 0.000000
    5 -0.011719 -1.516981 0.681954 0.000000 0.000000 0.000000
    6 -0.000001 2.795271 0.337227 0.000000 0.000000 0.000000
    7 -0.000001 -6.827026 1.101617 0.000000 0.000000 0.000000
    8 -0.003480 -0.404829 0.000000 0.000000 0.000000 0.000000
    9 -0.519309 -2.501154 -0.278957 -1.025939 -0.112116 -0.189874
    10 -0.010598 -1.208184 0.000000 -1.226964 0.000000 0.000000
    11 0.000000 -0.763065 0.000000 -0.982627 0.000000 0.000000
    12 0.105981 -2.607134 -0.278957 -0.842755 -0.023454 -0.169254
    13 0.000000 -1.250579 0.000000 -1.291539 0.000000 0.000000
    14 0.000000 -0.932635 0.000000 -1.195552 0.000000 0.000000
    15 0.763064 -2.490555 -0.278957 -0.349058 0.000000 0.130900
    16 -0.012322 -1.280917 0.000000 -1.066366 0.000000 0.000000
    17 -0.001697 -0.749371 0.000000 -0.912790 0.000000 0.000000
    18 0.354567 0.016266 0.318133 0.488948 -0.453366 -1.121476
    19 1.887164 0.012878 0.000000 -0.301418 -0.050167 -0.561348
    20 1.001874 -0.000270 -0.000001 0.000000 0.000000 -0.703360
    21 -1.123359 -2.195093 -0.278957 -1.166683 -0.116814 -0.133119
    22 0.010772 -0.963791 0.000000 -0.657988 0.000000 0.000000
    23 -0.010412 -0.631916 -0.000001 -1.359599 0.000000 0.000000
    24 -0.542499 -7.779295 -9.350189 -2.118255 0.986027 -1.302823
    25 0.089929 -8.543163 0.000000 0.880904 -0.010186 0.564795
    26 0.000000 -0.359713 0.000002 0.000000 0.000000 0.000000
    27 -0.170479 -2.636147 -0.277654 -1.781942 0.000000 0.000000
    28 0.010599 -1.261177 0.000001 -0.493919 0.000000 0.000000
    29 -0.000001 -0.943233 -0.000001 -0.924996 0.000000 0.000000
    30 -0.827563 -2.508973 -0.277656 -1.710405 0.000000 0.000000
    31 0.000001 -1.292971 0.000002 -0.602126 0.000000 0.000000
    32 0.000000 -0.752466 0.000001 -1.078594 0.000000 0.000000
    33 0.444213 -2.561960 -0.277654 -1.701143 -0.045387 -0.024911
    34 0.021022 -1.208186 -0.000001 -0.548020 0.000000 0.000000
    35 0.010597 -0.741867 -0.000002 -0.872658 0.000000 0.000000
    36 1.047445 -2.222821 -0.277654 -1.508123 -0.078971 -0.038609
    37 0.000000 -0.996223 -0.000001 -0.570729 0.000000 0.000000
    38 -0.000001 -0.614690 0.000000 -0.523599 0.000000 0.000000
    39 -0.308254 -0.007814 0.307166 0.334142 -0.676682 -2.416499
    40 1.978377 0.019544 0.000000 -0.091217 0.051488 1.062266
    41 0.982426 0.003186 0.000000 0.000000 0.000000 1.137933
  time 30
    0 10.540233 1.349194 -6.444005 -0.774287 -1.331380 0.326429
    1 0.000000 -8.563281 0.000000 0.421670 0.027190 -0.094091
    2 -0.687785 -3.268885 0.771382 -0.649191 1.517736 -0.634003
    3 0.000000 1.978415 0.899280 0.000000 0.000000 0.000000
    4 0.000000 -4.488900 2.000896 0.000000 0.000000 0.000000
    5 -0.011719 -1.516981 0.681954 0.000000 0.000000 0.000000
    6 -0.000001 2.795271 0.337227 0.000000 0.000000 0.000000
    7 -0.000001 -6.827026 1.101617 0.000000 0.000000 0.000000
    8 -0.003480 -0.404829 0.000000 0.000000 0.000000 0.000000
    9 -0.519309 -2.501154 -0.278957 -1.025939 -0.112116 -0.189874
    10 -0.010598 -1.208184 0.000000 -1.226964 0.000000 0.000000
    11 0.000000 -0.763065 0.000000 -0.982627 0.000000 0.000000
    12 0.105981 -2.607134 -0.278957 -0.842755 -0.023454 -0.169254
    13 0.000000 -1.250579 0.000000 -1.291539 0.000000 0.000000
    14 0.000000 -0.932635 0.000000 -1.195552 0.000000 0.000000
    15 0.763064 -2.490555 -0.278957 -0.349058 0.000000 0.130900
    16 -0.012322 -1.280917 0.000000 -1.066366 0.000000 0.000000
    17 -0.001697 -0.749371 0.000000 -0.912790 0.000000 0.000000
    18 0.354567 0.016266 0.318133 0.488948 -0.453366 -1.121476
    19 1.887164 0.012878 0.000000 -0.301418 -0.050167 -0.561348
    20 1.001874 -0.000270 -0.000001 0.000000 0.000000 -0.703360
    21 -1.123359 -2.195093 -0.278957 -1.166683 -0.116814 -0.133119
    22 0.010772 -0.963791 0.000000 -0.657988 0.000000 0.000000
    23 -0.010412 -0.631916 -0.000001 -1.359599 0.000000 0.000000
    24 -0.562031 -7.833984 -9.326751 -2.116823 0.987287 -1.297769
    25 0.089929 -8.543163 0.000000 0.880817 -0.018644 0.571739
    26 0.000000 -0.359713 0.000002 0.000000 0.000000 0.000000
    27 -0.170479 -2.636147 -0.277654 -1.781942 0.000000 0.000000
    28 0.010599 -1.261177 0.000001 -0.493919 0.000000 0.000000
    29 -0.000001 -0.943233 -0.000001 -0.924996 0.000000 0.000000
    30 -0.827563 -2.508973 -0.277656 -1.710405 0.000000 0.000000
    31 0.000001 -1.292971 0.000002 -0.602126 0.000000 0.000000
    32 0.000000 -0.752466 0.000001 -1.078594 0.000000 0.000000
    33 0.444213 -2.561960 -0.277654 -1.701143 -0.045387 -0.024911
    34 0.021022 -1.208186 -0.000001 -0.548020 0.000000 0.000000
    35 0.010597 -0.741867 -0.000002 -0.872658 0.000000 0.000000
    36 1.047445 -2.222821 -0.277654 -1.508123 -0.078971 -0.038609
    37 0.000000 -0.996223 -0.000001 -0.570729 0.000000 0.000000
    38 -0.000001 -0.614690 0.000000 -0.523599 0.000000 0.000000
    39 -0.308254 -0.007814 0.307166 0.334142 -0.676682 -2.416499
    40 1.978377 0.019544 0.000000 -0.091217 0.051488 1.062266
    41 0.982426 0.003186 0.000000 0.000000 0.000000 1.137933
end
