version 1
nodes
  0 "root" -1
  1 "Bone01" 0
  2 "Bone_Lefthand" 1
  3 "MG36_root" 2
  4 "MG36_charging" 3
  5 "MG36_magazine" 3
  6 "MG36_trigger" 3
  7 "MG36_cocking handle01" 3
  8 "Bone04" 0
  9 "Bone_Righthand" 8
  10 "MG36_magazine01" 9
  11 "Bone_L_Upper" 1
  12 "Bone13" 2
  13 "Bone14" 12
  14 "Bone15" 13
  15 "Bone17" 2
  16 "Bone18" 15
  17 "Bone19" 16
  18 "Bone21" 2
  19 "Bone22" 18
  20 "Bone23" 19
  21 "Bone09" 2
  22 "Bone10" 21
  23 "Bone11" 22
  24 "Bone05" 2
  25 "Bone06" 24
  26 "Bone07" 25
  27 "Bone_Se_Hand-L" 2
  28 "Bone39" 9
  29 "Bone40" 28
  30 "Bone41" 29
  31 "Bone35" 9
  32 "Bone36" 31
  33 "Bone37" 32
  34 "Bone31" 9
  35 "Bone32" 34
  36 "Bone33" 35
  37 "Bone43" 9
  38 "Bone44" 37
  39 "Bone45" 38
  40 "Bone27" 9
  41 "Bone28" 40
  42 "Bone29" 41
  43 "Bone_Se_Hand-R" 9
  44 "Bone_R_Upper" 8
end
skeleton
  time 0
    0 1.833241 -0.348932 -42.530646 -0.030285 0.000000 0.000000
    1 11.728146 -1.065110 31.509792 0.634005 -2.797650 -1.379730
    2 -0.071921 -8.498736 -0.104130 0.012160 0.699617 -0.852581
    3 1.279076 -2.919489 0.865077 -0.267837 -0.222057 -3.738209
    4 -3.112814 0.806304 0.000001 0.000000 0.000000 2.037040
    5 -1.613795 3.251794 0.000001 0.000000 0.000000 0.467615
    6 -0.412545 0.554348 0.000000 0.000002 0.000000 0.727008
    7 -3.109819 2.377850 0.350933 0.000000 0.000000 0.457271
    8 -1.809878 -11.696301 29.202733 -1.495185 -5.717841 -0.348045
    9 0.096944 -8.450418 -0.009365 0.386572 -0.976803 0.192611
    10 19.223891 25.284894 -22.451752 0.578430 0.098638 -0.792938
    11 1.257180 8.762585 -0.153713 -1.570562 0.002683 -1.566807
    12 -0.488518 -2.755602 -0.228260 -0.912721 0.017679 -0.333533
    13 0.039887 -1.479790 0.029854 -1.748663 0.000000 0.000001
    14 0.028786 -1.075731 -0.023109 0.002099 0.000000 0.000000
    15 0.250027 -2.820665 -0.238396 -0.542709 0.010094 -0.304331
    16 -0.049759 -1.680544 0.100479 -2.059934 0.000000 -0.000002
    17 -0.034142 -1.148312 0.084782 -0.502850 0.000000 0.000000
    18 0.957766 -2.746780 -0.090302 -0.192712 0.111199 -0.173277
    19 -0.033420 -1.397129 -0.011257 -1.420978 0.000000 -0.000001
    20 -0.022360 -0.957436 0.018784 -0.621026 0.000000 0.000000
    21 -1.180681 -2.507217 -0.193859 -1.441117 0.170544 -0.457493
    22 -0.024967 -1.123934 0.017597 -0.703057 0.000000 0.000001
    23 -0.020057 -0.890968 0.010090 -0.715137 0.000000 0.000000
    24 0.583510 -1.197277 0.185379 0.245908 -0.934494 -0.500771
    25 1.535927 0.010246 0.005009 -0.156714 0.038531 -1.190106
    26 1.100771 0.004527 -0.010679 -0.007254 0.014511 -0.287578
    27 -0.192357 -0.186993 -0.167774 3.368825 5.890604 -1.329850
    28 0.447953 -2.798986 -0.200443 -1.272932 -0.017479 0.389985
    29 -0.032909 -1.480204 0.004940 -0.594349 0.000000 0.000002
    30 -0.027022 -1.076920 -0.020210 -0.346317 0.000000 0.000000
    31 -0.249534 -2.846964 -0.174213 -0.819788 -0.020139 0.316768
    32 0.043235 -1.683941 0.096012 -1.142369 0.002823 -0.000167
    33 0.031729 -1.160830 0.058838 -0.344228 0.000642 0.008372
    34 -0.963866 -2.785145 -0.085350 0.183164 0.158981 0.144210
    35 0.028479 -1.403067 0.006271 -1.582713 0.000000 0.000000
    36 0.021413 -0.957781 0.020046 -0.677392 0.000000 0.000000
    37 1.164475 -2.543940 -0.170330 -0.870241 -0.217740 0.364457
    38 0.024032 -1.129042 0.017807 -0.852712 0.000000 0.000001
    39 0.014898 -0.883989 -0.019848 -0.274312 0.000000 0.000000
    40 -0.575051 -1.244945 0.110315 -0.157039 -0.022086 -2.791158
    41 1.522835 0.058681 0.016848 0.160709 -0.184998 0.380095
    42 1.117947 0.048424 -0.005766 0.023439 -0.084066 0.107270
    43 0.063732 -0.150762 -0.063730 0.447046 -0.006131 1.430485
    44 -1.393470 8.839177 -0.239433 1.580804 -0.005023 -1.566847
  time 1
    0 1.833241 -0.313775 -42.530646 -0.027133 0.000000 0.000000
    1 11.732052 -1.162769 31.537137 0.634005 -2.797650 -1.379730
    2 -0.071921 -8.498736 -0.104130 0.011775 0.700132 -0.853771
    3 1.279076 -2.919489 0.865077 -0.267837 -0.222057 -3.738209
    4 -1.882308 -1.642990 0.000001 0.000000 0.000000 2.037040
    5 -1.613795 3.251794 0.000001 0.000000 0.000000 0.467615
    6 -0.412545 0.554348 0.000000 0.000002 0.000000 0.727008
    7 -2.008223 0.135594 0.350933 0.000000 0.000000 0.457271
    8 -1.805972 -11.793960 29.202733 -1.495185 -5.717841 -0.348045
    9 0.096944 -8.450418 -0.009365 0.382278 -0.970598 0.196187
    10 19.223891 25.284894 -22.451752 0.578430 0.098638 -0.792938
    11 1.257180 8.762585 -0.153713 -1.570562 0.002683 -1.566807
    12 -0.488518 -2.755602 -0.228260 -0.912721 0.017679 -0.333533
    13 0.039887 -1.479790 0.029854 -1.748663 0.000000 0.000001
    14 0.028786 -1.075731 -0.023109 0.002099 0.000000 0.000000
    15 0.250027 -2.820665 -0.238396 -0.542709 0.010094 -0.304331
    16 -0.049759 -1.680544 0.100479 -2.059934 0.000000 -0.000002
    17 -0.034142 -1.148312 0.084782 -0.502864 0.000000 0.000000
    18 0.957766 -2.746780 -0.090302 -0.192712 0.111199 -0.173277
    19 -0.033420 -1.397129 -0.011257 -1.420978 0.000000 -0.000001
    20 -0.022360 -0.957436 0.018784 -0.621026 0.000000 0.000000
    21 -1.180681 -2.507217 -0.193859 -1.441117 0.170544 -0.457493
    22 -0.024967 -1.123934 0.017597 -0.703057 0.000000 0.000001
    23 -0.020057 -0.890968 0.010090 -0.715137 0.000000 0.000000
    24 0.583510 -1.197277 0.185379 0.245908 -0.934494 -0.500771
    25 1.535927 0.010246 0.005009 -0.156714 0.038531 -1.190106
    26 1.100771 0.004527 -0.010679 -0.007254 0.014511 -0.287578
    27 -0.192357 -0.186993 -0.167774 3.368825 5.890604 -1.329850
    28 0.447953 -2.798986 -0.200443 -1.272932 -0.017479 0.389985
    29 -0.032909 -1.480204 0.004940 -0.594349 0.000000 0.000002
    30 -0.027022 -1.076920 -0.020210 -0.346317 0.000000 0.000000
    31 -0.249534 -2.846964 -0.174213 -0.819393 -0.027222 0.310121
    32 0.043235 -1.683941 0.096012 -1.142369 0.002823 -0.000167
    33 0.031729 -1.160830 0.058838 -0.344228 0.000642 0.008372
    34 -0.963866 -2.785145 -0.085350 0.183164 0.158981 0.144210
    35 0.028479 -1.403067 0.006271 -1.582713 0.000000 0.000000
    36 0.021413 -0.957781 0.020046 -0.677392 0.000000 0.000000
    37 1.164475 -2.543940 -0.170330 -0.870241 -0.217740 0.364457
    38 0.024032 -1.129042 0.017807 -0.852712 0.000000 0.000001
    39 0.014898 -0.883989 -0.019848 -0.274312 0.000000 0.000000
    40 -0.575051 -1.244945 0.110315 -0.157079 -0.034140 -2.789223
    41 1.522835 0.058681 0.016848 0.160086 -0.151477 0.384683
    42 1.117947 0.048424 -0.005766 0.020850 -0.084713 0.137879
    43 0.063732 -0.150762 -0.063730 0.445054 0.004272 1.427477
    44 -1.393470 8.839177 -0.239433 1.580804 -0.005023 -1.566847
  time 2
    0 1.833241 -0.220022 -42.530646 -0.019619 0.000000 0.000000
    1 11.735959 -1.404964 31.556669 0.634005 -2.797650 -1.379730
    2 -0.071921 -8.498736 -0.104130 0.011025 0.701931 -0.854901
    3 1.279076 -2.919489 0.865077 -0.267837 -0.222057 -3.738209
    4 -2.499514 -0.416390 0.000001 0.000000 0.000000 2.037040
    5 -1.613795 3.251794 0.000001 0.000000 0.000000 0.467615
    6 -0.412545 0.554348 0.000000 0.000002 0.000000 0.727008
    7 -2.559021 1.256722 0.350933 0.000000 0.000000 0.457271
    8 -1.798159 -12.043968 29.198827 -1.495185 -5.717841 -0.348045
    9 0.096944 -8.450418 -0.009365 0.372076 -0.955767 0.204622
    10 19.223891 25.284894 -22.451752 0.578430 0.098638 -0.792938
    11 1.257180 8.762585 -0.153713 -1.570562 0.002683 -1.566807
    12 -0.488518 -2.755602 -0.228260 -0.912721 0.017679 -0.333533
    13 0.039887 -1.479790 0.029854 -1.748715 0.000000 0.000001
    14 0.028786 -1.075731 -0.023109 0.002099 0.000000 0.000000
    15 0.250027 -2.820665 -0.238396 -0.542709 0.010094 -0.304331
    16 -0.049759 -1.680544 0.100479 -2.059934 0.000000 -0.000002
    17 -0.034142 -1.148312 0.084782 -0.502850 0.000000 0.000000
    18 0.957766 -2.746780 -0.090302 -0.192712 0.111199 -0.173277
    19 -0.033420 -1.397129 -0.011257 -1.420978 0.000000 -0.000001
    20 -0.022360 -0.957436 0.018784 -0.621026 0.000000 0.000000
    21 -1.180681 -2.507217 -0.193859 -1.441117 0.170544 -0.457493
    22 -0.024967 -1.123934 0.017597 -0.703057 0.000000 0.000001
    23 -0.020057 -0.890968 0.010090 -0.715137 0.000000 0.000000
    24 0.583510 -1.197277 0.185379 0.245908 -0.934494 -0.500771
    25 1.535927 0.010246 0.005009 -0.156714 0.038531 -1.190106
    26 1.100771 0.004527 -0.010679 -0.007254 0.014511 -0.287578
    27 -0.192357 -0.186993 -0.167774 3.368825 5.890604 -1.329850
    28 0.447953 -2.798986 -0.200443 -1.272932 -0.017479 0.389985
    29 -0.032909 -1.480204 0.004940 -0.594349 0.000000 0.000002
    30 -0.027022 -1.076920 -0.020210 -0.346317 0.000000 0.000000
    31 -0.249534 -2.846964 -0.174213 -0.818920 -0.036115 0.301793
    32 0.043235 -1.683941 0.096012 -1.142369 0.002823 -0.000167
    33 0.031729 -1.160830 0.058838 -0.344228 0.000642 0.008372
    34 -0.963866 -2.785145 -0.085350 0.183164 0.158981 0.144210
    35 0.028479 -1.403067 0.006271 -1.582713 0.000000 0.000000
    36 0.021413 -0.957781 0.020046 -0.677392 0.000000 0.000000
    37 1.164475 -2.543940 -0.170330 -0.870241 -0.217740 0.364457
    38 0.024032 -1.129042 0.017807 -0.852712 0.000000 0.000001
    39 0.014898 -0.883989 -0.019848 -0.274312 0.000000 0.000000
    40 -0.575051 -1.244945 0.110315 -0.157119 -0.041638 -2.788037
    41 1.522835 0.058681 0.016848 0.158648 -0.106007 0.395094
    42 1.117947 0.048424 -0.005766 0.018261 -0.085337 0.168473
    43 0.063732 -0.150762 -0.063730 0.442565 0.017311 1.423702
    44 -1.393470 8.839177 -0.239433 1.580804 -0.005023 -1.566847
  time 3
    0 1.833241 -0.114550 -42.530646 -0.010654 0.000000 0.000000
    1 11.743771 -1.717473 31.576201 0.634005 -2.797650 -1.379730
    2 -0.071921 -8.498736 -0.104130 0.009727 0.704542 -0.856417
    3 1.279076 -2.919489 0.865077 -0.267837 -0.222057 -3.738209
    4 -3.112814 0.806304 0.000001 0.000000 0.000000 2.037040
    5 -1.613795 3.251794 0.000001 0.000000 0.000000 0.467615
    6 -0.412545 0.554348 0.000000 0.000002 0.000000 0.727008
    7 -3.109819 2.377850 0.350933 0.000000 0.000000 0.457271
    8 -1.790347 -12.364290 29.187107 -1.495185 -5.717841 -0.348045
    9 0.096944 -8.450418 -0.009365 0.359937 -0.938061 0.214558
    10 19.223891 25.284894 -22.451752 0.578430 0.098638 -0.792938
    11 1.257180 8.762585 -0.153713 -1.570562 0.002683 -1.566807
    12 -0.488518 -2.755602 -0.228260 -0.912721 0.017679 -0.333533
    13 0.039887 -1.479790 0.029854 -1.748715 0.000000 0.000001
    14 0.028786 -1.075731 -0.023109 0.002099 0.000000 0.000000
    15 0.250027 -2.820665 -0.238396 -0.542709 0.010094 -0.304331
    16 -0.049759 -1.680544 0.100479 -2.059934 0.000000 -0.000002
    17 -0.034142 -1.148312 0.084782 -0.502864 0.000000 0.000000
    18 0.957766 -2.746780 -0.090302 -0.192712 0.111199 -0.173277
    19 -0.033420 -1.397129 -0.011257 -1.420978 0.000000 -0.000001
    20 -0.022360 -0.957436 0.018784 -0.621026 0.000000 0.000000
    21 -1.180681 -2.507217 -0.193859 -1.441117 0.170544 -0.457493
    22 -0.024967 -1.123934 0.017597 -0.703057 0.000000 0.000001
    23 -0.020057 -0.890968 0.010090 -0.715137 0.000000 0.000000
    24 0.583510 -1.197277 0.185379 0.245908 -0.934494 -0.500771
    25 1.535927 0.010246 0.005009 -0.156714 0.038531 -1.190106
    26 1.100771 0.004527 -0.010679 -0.007254 0.014511 -0.287578
    27 -0.192357 -0.186993 -0.167774 3.368825 5.890604 -1.329850
    28 0.447953 -2.798986 -0.200443 -1.272932 -0.017479 0.389985
    29 -0.032909 -1.480204 0.004940 -0.594349 0.000000 0.000002
    30 -0.027022 -1.076920 -0.020210 -0.346317 0.000000 0.000000
    31 -0.249534 -2.846964 -0.174213 -0.818394 -0.046206 0.292338
    32 0.043235 -1.683941 0.096012 -1.142369 0.002823 -0.000167
    33 0.031729 -1.160830 0.058838 -0.344228 0.000642 0.008372
    34 -0.963866 -2.785145 -0.085350 0.183164 0.158981 0.144210
    35 0.028479 -1.403067 0.006271 -1.582713 0.000000 0.000000
    36 0.021413 -0.957781 0.020046 -0.677392 0.000000 0.000000
    37 1.164475 -2.543940 -0.170330 -0.870241 -0.217740 0.364457
    38 0.024032 -1.129042 0.017807 -0.852712 0.000000 0.000001
    39 0.014898 -0.883989 -0.019848 -0.274312 0.000000 0.000000
    40 -0.575051 -1.244945 0.110315 -0.157119 -0.045460 -2.787444
    41 1.522835 0.058681 0.016848 0.156982 -0.065991 0.406799
    42 1.117947 0.048424 -0.005766 0.016260 -0.085792 0.192006
    43 0.063732 -0.150762 -0.063730 0.439816 0.032124 1.419423
    44 -1.393470 8.839177 -0.239433 1.580804 -0.005023 -1.566847
  time 4
    0 1.833241 -0.020797 -42.530646 -0.003140 0.000000 0.000000
    1 11.751584 -2.018264 31.595733 0.634005 -2.797650 -1.379730
    2 -0.071921 -8.498736 -0.104130 0.007700 0.707489 -0.858766
    3 1.279076 -2.919489 0.865077 -0.267837 -0.222057 -3.738209
    4 -3.112814 0.806304 0.000001 0.000000 0.000000 2.037040
    5 -1.613795 3.251794 0.000001 0.000000 0.000000 0.467615
    6 -0.412545 0.554348 0.000000 0.000002 0.000000 0.727008
    7 -3.109819 2.377850 0.350933 0.000000 0.000000 0.457271
    8 -1.786440 -12.672893 29.167576 -1.495185 -5.717841 -0.348045
    9 0.096944 -8.450418 -0.009365 0.349864 -0.923199 0.222801
    10 19.223891 25.284894 -22.451752 0.578430 0.098638 -0.792938
    11 1.257180 8.762585 -0.153713 -1.570562 0.002683 -1.566807
    12 -0.488518 -2.755602 -0.228260 -0.912721 0.017679 -0.333533
    13 0.039887 -1.479790 0.029854 -1.748663 0.000000 0.000001
    14 0.028786 -1.075731 -0.023109 0.002099 0.000000 0.000000
    15 0.250027 -2.820665 -0.238396 -0.542709 0.010094 -0.304331
    16 -0.049759 -1.680544 0.100479 -2.059934 0.000000 -0.000002
    17 -0.034142 -1.148312 0.084782 -0.502864 0.000000 0.000000
    18 0.957766 -2.746780 -0.090302 -0.192712 0.111199 -0.173277
    19 -0.033420 -1.397129 -0.011257 -1.420978 0.000000 -0.000001
    20 -0.022360 -0.957436 0.018784 -0.621026 0.000000 0.000000
    21 -1.180681 -2.507217 -0.193859 -1.441117 0.170544 -0.457493
    22 -0.024967 -1.123934 0.017597 -0.703057 0.000000 0.000001
    23 -0.020057 -0.890968 0.010090 -0.715137 0.000000 0.000000
    24 0.583510 -1.197277 0.185379 0.245908 -0.934494 -0.500771
    25 1.535927 0.010246 0.005009 -0.156714 0.038531 -1.190106
    26 1.100771 0.004527 -0.010679 -0.007254 0.014511 -0.287578
    27 -0.192357 -0.186993 -0.167774 3.368825 5.890604 -1.329850
    28 0.447953 -2.798986 -0.200443 -1.272932 -0.017479 0.389985
    29 -0.032909 -1.480204 0.004940 -0.594349 0.000000 0.000002
    30 -0.027022 -1.076920 -0.020210 -0.346317 0.000000 0.000000
    31 -0.249534 -2.846964 -0.174213 -0.817815 -0.056884 0.282331
    32 0.043235 -1.683941 0.096012 -1.142369 0.002823 -0.000167
    33 0.031729 -1.160830 0.058838 -0.344228 0.000642 0.008372
    34 -0.963866 -2.785145 -0.085350 0.183164 0.158981 0.144210
    35 0.028479 -1.403067 0.006271 -1.582713 0.000000 0.000000
    36 0.021413 -0.957781 0.020046 -0.677392 0.000000 0.000000
    37 1.164475 -2.543940 -0.170330 -0.870241 -0.217740 0.364457
    38 0.024032 -1.129042 0.017807 -0.852712 0.000000 0.000001
    39 0.014898 -0.883989 -0.019848 -0.274312 0.000000 0.000000
    40 -0.575051 -1.244945 0.110315 -0.157159 -0.046544 -2.787257
    41 1.522835 0.058681 0.016848 0.155640 -0.048817 0.415181
    42 1.117947 0.048424 -0.005766 0.015469 -0.085984 0.201431
    43 0.063732 -0.150762 -0.063730 0.436936 0.047800 1.414893
    44 -1.393470 8.839177 -0.239433 1.580804 -0.005023 -1.566847
  time 5
    0 1.833241 0.014360 -42.530646 0.000000 0.000000 0.000000
    1 11.755491 -2.229208 31.611358 0.634005 -2.797650 -1.379730
    2 -0.071921 -8.498736 -0.104130 0.004760 0.710317 -0.862363
    3 1.279076 -2.919489 0.865077 -0.267837 -0.222057 -3.738209
    4 -3.112814 0.806304 0.000001 0.000000 0.000000 2.037040
    5 -1.613795 3.251794 0.000001 0.000000 0.000000 0.467615
    6 -0.412545 0.554348 0.000000 0.000002 0.000000 0.727008
    7 -3.109819 2.377850 0.350933 0.000000 0.000000 0.457271
    8 -1.782534 -12.895556 29.140231 -1.495185 -5.717841 -0.348045
    9 0.096944 -8.450418 -0.009365 0.345635 -0.916964 0.226241
    10 19.223891 25.284894 -22.451752 0.578430 0.098638 -0.792938
    11 1.257180 8.762585 -0.153713 -1.570562 0.002683 -1.566807
    12 -0.488518 -2.755602 -0.228260 -0.912721 0.017679 -0.333533
    13 0.039887 -1.479790 0.029854 -1.748663 0.000000 0.000001
    14 0.028786 -1.075731 -0.023109 0.002099 0.000000 0.000000
    15 0.250027 -2.820665 -0.238396 -0.542709 0.010094 -0.304331
    16 -0.049759 -1.680544 0.100479 -2.059934 0.000000 -0.000002
    17 -0.034142 -1.148312 0.084782 -0.502864 0.000000 0.000000
    18 0.957766 -2.746780 -0.090302 -0.192712 0.111199 -0.173277
    19 -0.033420 -1.397129 -0.011257 -1.420978 0.000000 -0.000001
    20 -0.022360 -0.957436 0.018784 -0.621026 0.000000 0.000000
    21 -1.180681 -2.507217 -0.193859 -1.441117 0.170544 -0.457493
    22 -0.024967 -1.123934 0.017597 -0.703057 0.000000 0.000001
    23 -0.020057 -0.890968 0.010090 -0.715137 0.000000 0.000000
    24 0.583510 -1.197277 0.185379 0.245908 -0.934494 -0.500771
    25 1.535927 0.010246 0.005009 -0.156714 0.038531 -1.190106
    26 1.100771 0.004527 -0.010679 -0.007254 0.014511 -0.287578
    27 -0.192357 -0.186993 -0.167774 3.368825 5.890604 -1.329850
    28 0.447953 -2.798986 -0.200443 -1.272932 -0.017479 0.389985
    29 -0.032909 -1.480204 0.004940 -0.594349 0.000000 0.000002
    30 -0.027022 -1.076920 -0.020210 -0.346317 0.000000 0.000000
    31 -0.249534 -2.846964 -0.174213 -0.817263 -0.067574 0.272299
    32 0.043235 -1.683941 0.096012 -1.142369 0.002823 -0.000167
    33 0.031729 -1.160830 0.058838 -0.344228 0.000642 0.008372
    34 -0.963866 -2.785145 -0.085350 0.183164 0.158981 0.144210
    35 0.028479 -1.403067 0.006271 -1.582713 0.000000 0.000000
    36 0.021413 -0.957781 0.020046 -0.677392 0.000000 0.000000
    37 1.164475 -2.543940 -0.170330 -0.870241 -0.217740 0.364457
    38 0.024032 -1.129042 0.017807 -0.852712 0.000000 0.000001
    39 0.014898 -0.883989 -0.019848 -0.274312 0.000000 0.000000
    40 -0.575051 -1.244945 0.110315 -0.157119 -0.045056 -2.787507
    41 1.522835 0.058681 0.016848 0.154597 -0.050542 0.420533
    42 1.117947 0.048424 -0.005766 0.015589 -0.085948 0.200004
    43 0.063732 -0.150762 -0.063730 0.434101 0.063488 1.410363
    44 -1.393470 8.839177 -0.239433 1.580804 -0.005023 -1.566847
  time 6
    0 1.833241 0.014360 -42.530646 0.000000 0.000000 0.000000
    1 11.751584 -2.346399 31.630890 0.634005 -2.797650 -1.379730
    2 -0.071921 -8.498736 -0.104130 -0.001141 0.713284 -0.869886
    3 1.279076 -2.919489 0.865077 -0.267837 -0.222057 -3.738209
    4 -3.112814 0.806304 0.000001 0.000000 0.000000 2.037040
    5 -1.613795 3.251794 0.000001 0.000000 0.000000 0.467615
    6 -0.412545 0.554348 0.000000 0.000002 0.000000 0.727008
    7 -3.109819 2.377850 0.350933 0.000000 0.000000 0.457271
    8 -1.782534 -13.028373 29.085542 -1.495185 -5.717841 -0.348045
    9 0.096944 -8.450418 -0.009365 0.352802 -0.917782 0.224057
    10 19.223891 25.284894 -22.451752 0.578430 0.098638 -0.792938
    11 1.257180 8.762585 -0.153713 -1.570562 0.002683 -1.566807
    12 -0.488518 -2.755602 -0.228260 -0.912721 0.017679 -0.333533
    13 0.039887 -1.479790 0.029854 -1.748715 0.000000 0.000001
    14 0.028786 -1.075731 -0.023109 0.002099 0.000000 0.000000
    15 0.250027 -2.820665 -0.238396 -0.542709 0.010094 -0.304331
    16 -0.049759 -1.680544 0.100479 -2.059934 0.000000 -0.000002
    17 -0.034142 -1.148312 0.084782 -0.502864 0.000000 0.000000
    18 0.957766 -2.746780 -0.090302 -0.192712 0.111199 -0.173277
    19 -0.033420 -1.397129 -0.011257 -1.420978 0.000000 -0.000001
    20 -0.022360 -0.957436 0.018784 -0.621026 0.000000 0.000000
    21 -1.180681 -2.507217 -0.193859 -1.441117 0.170544 -0.457493
    22 -0.024967 -1.123934 0.017597 -0.703057 0.000000 0.000001
    23 -0.020057 -0.890968 0.010090 -0.715137 0.000000 0.000000
    24 0.583510 -1.197277 0.185379 0.245908 -0.934494 -0.500771
    25 1.535927 0.010246 0.005009 -0.156714 0.038531 -1.190106
    26 1.100771 0.004527 -0.010679 -0.007254 0.014511 -0.287578
    27 -0.192357 -0.186993 -0.167774 3.368825 5.890604 -1.329850
    28 0.447953 -2.798986 -0.200443 -1.272932 -0.017479 0.389985
    29 -0.032909 -1.480204 0.004940 -0.594349 0.000000 0.000002
    30 -0.027022 -1.076920 -0.020210 -0.346317 0.000000 0.000000
    31 -0.249534 -2.846964 -0.174213 -0.816710 -0.077653 0.262844
    32 0.043235 -1.683941 0.096012 -1.142369 0.002823 -0.000167
    33 0.031729 -1.160830 0.058838 -0.344228 0.000642 0.008372
    34 -0.963866 -2.785145 -0.085350 0.183164 0.158981 0.144210
    35 0.028479 -1.403067 0.006271 -1.582713 0.000000 0.000000
    36 0.021413 -0.957781 0.020046 -0.677392 0.000000 0.000000
    37 1.164475 -2.543940 -0.170330 -0.870241 -0.217740 0.364457
    38 0.024032 -1.129042 0.017807 -0.852712 0.000000 0.000001
    39 0.014898 -0.883989 -0.019848 -0.274312 0.000000 0.000000
    40 -0.575051 -1.244945 0.110315 -0.157079 -0.040829 -2.788162
    41 1.522835 0.058681 0.016848 0.153494 -0.055384 0.426092
    42 1.117947 0.048424 -0.005766 0.015936 -0.085876 0.195960
    43 0.063732 -0.150762 -0.063730 0.431460 0.078289 1.406084
    44 -1.393470 8.839177 -0.239433 1.580804 -0.005023 -1.566847
  time 7
    0 1.833241 0.014360 -42.530646 0.000000 0.000000 0.000000
    1 11.743771 -2.420620 31.650422 0.634005 -2.797650 -1.379730
    2 -0.071921 -8.498736 -0.104130 -0.010143 0.716627 -0.881481
    3 1.279076 -2.919489 0.865077 -0.267837 -0.222057 -3.738209
    4 -3.112814 0.806304 0.000001 0.000000 0.000000 2.037040
    5 -1.613795 3.251794 0.000001 0.000000 0.000000 0.467615
    6 -0.412545 0.554348 0.000000 0.000002 0.000000 0.727008
    7 -3.109819 2.377850 0.350933 0.000000 0.000000 0.457271
    8 -1.790347 -13.118219 29.011321 -1.495185 -5.717841 -0.348045
    9 0.096944 -8.450418 -0.009365 0.369913 -0.919688 0.218871
    10 19.223891 25.284894 -22.451752 0.578430 0.098638 -0.792938
    11 1.257180 8.762585 -0.153713 -1.570562 0.002683 -1.566807
    12 -0.488518 -2.755602 -0.228260 -0.912721 0.017679 -0.333533
    13 0.039887 -1.479790 0.029854 -1.748715 0.000000 0.000001
    14 0.028786 -1.075731 -0.023109 0.002099 0.000000 0.000000
    15 0.250027 -2.820665 -0.238396 -0.542709 0.010094 -0.304331
    16 -0.049759 -1.680544 0.100479 -2.059934 0.000000 -0.000002
    17 -0.034142 -1.148312 0.084782 -0.502864 0.000000 0.000000
    18 0.957766 -2.746780 -0.090302 -0.192712 0.111199 -0.173277
    19 -0.033420 -1.397129 -0.011257 -1.420978 0.000000 -0.000001
    20 -0.022360 -0.957436 0.018784 -0.621026 0.000000 0.000000
    21 -1.180681 -2.507217 -0.193859 -1.441117 0.170544 -0.457493
    22 -0.024967 -1.123934 0.017597 -0.703057 0.000000 0.000001
    23 -0.020057 -0.890968 0.010090 -0.715137 0.000000 0.000000
    24 0.583510 -1.197277 0.185379 0.245908 -0.934494 -0.500771
    25 1.535927 0.010246 0.005009 -0.156714 0.038531 -1.190106
    26 1.100771 0.004527 -0.010679 -0.007254 0.014511 -0.287578
    27 -0.192357 -0.186993 -0.167774 3.368825 5.890604 -1.329850
    28 0.447953 -2.798986 -0.200443 -1.272932 -0.017479 0.389985
    29 -0.032909 -1.480204 0.004940 -0.594349 0.000000 0.000002
    30 -0.027022 -1.076920 -0.020210 -0.346317 0.000000 0.000000
    31 -0.249534 -2.846964 -0.174213 -0.816237 -0.086534 0.254505
    32 0.043235 -1.683941 0.096012 -1.142369 0.002823 -0.000167
    33 0.031729 -1.160830 0.058838 -0.344228 0.000642 0.008372
    34 -0.963866 -2.785145 -0.085350 0.183164 0.158981 0.144210
    35 0.028479 -1.403067 0.006271 -1.582713 0.000000 0.000000
    36 0.021413 -0.957781 0.020046 -0.677392 0.000000 0.000000
    37 1.164475 -2.543940 -0.170330 -0.870241 -0.217740 0.364457
    38 0.024032 -1.129042 0.017807 -0.852712 0.000000 0.000001
    39 0.014898 -0.883989 -0.019848 -0.274312 0.000000 0.000000
    40 -0.575051 -1.244945 0.110315 -0.157039 -0.034196 -2.789192
    41 1.522835 0.058681 0.016848 0.152332 -0.062887 0.431827
    42 1.117947 0.048424 -0.005766 0.016464 -0.085756 0.189701
    43 0.063732 -0.150762 -0.063730 0.429187 0.091328 1.402321
    44 -1.393470 8.839177 -0.239433 1.580804 -0.005023 -1.566847
  time 8
    0 1.833241 0.014360 -42.530646 0.000000 0.000000 0.000000
    1 11.735959 -2.459684 31.666047 0.634005 -2.797650 -1.379730
    2 -0.071921 -8.498736 -0.104130 -0.019713 0.719732 -0.893880
    3 1.279076 -2.919489 0.865077 -0.267837 -0.222057 -3.738209
    4 -3.112814 0.806304 0.000001 0.000000 0.000000 2.037040
    5 -1.613795 3.251794 0.000001 0.000000 0.000000 0.467615
    6 -0.412545 0.554348 0.000000 0.000002 0.000000 0.727008
    7 -3.109819 2.377850 0.350933 0.000000 0.000000 0.457271
    8 -1.798159 -13.176815 28.933193 -1.495185 -5.717841 -0.348045
    9 0.096944 -8.450418 -0.009365 0.390349 -0.921989 0.212674
    10 19.223891 25.284894 -22.451752 0.578430 0.098638 -0.792938
    11 1.257180 8.762585 -0.153713 -1.570562 0.002683 -1.566807
    12 -0.488518 -2.755602 -0.228260 -0.912721 0.017679 -0.333533
    13 0.039887 -1.479790 0.029854 -1.748715 0.000000 0.000001
    14 0.028786 -1.075731 -0.023109 0.002099 0.000000 0.000000
    15 0.250027 -2.820665 -0.238396 -0.542709 0.010094 -0.304331
    16 -0.049759 -1.680544 0.100479 -2.059934 0.000000 -0.000002
    17 -0.034142 -1.148312 0.084782 -0.502850 0.000000 0.000000
    18 0.957766 -2.746780 -0.090302 -0.192712 0.111199 -0.173277
    19 -0.033420 -1.397129 -0.011257 -1.420978 0.000000 -0.000001
    20 -0.022360 -0.957436 0.018784 -0.621026 0.000000 0.000000
    21 -1.180681 -2.507217 -0.193859 -1.441117 0.170544 -0.457493
    22 -0.024967 -1.123934 0.017597 -0.703057 0.000000 0.000001
    23 -0.020057 -0.890968 0.010090 -0.715137 0.000000 0.000000
    24 0.583510 -1.197277 0.185379 0.245908 -0.934494 -0.500771
    25 1.535927 0.010246 0.005009 -0.156714 0.038531 -1.190106
    26 1.100771 0.004527 -0.010679 -0.007254 0.014511 -0.287578
    27 -0.192357 -0.186993 -0.167774 3.368825 5.890604 -1.329850
    28 0.447953 -2.798986 -0.200443 -1.272932 -0.017479 0.389985
    29 -0.032909 -1.480204 0.004940 -0.594349 0.000000 0.000002
    30 -0.027022 -1.076920 -0.020210 -0.346317 0.000000 0.000000
    31 -0.249534 -2.846964 -0.174213 -0.815842 -0.093629 0.247845
    32 0.043235 -1.683941 0.096012 -1.142369 0.002823 -0.000167
    33 0.031729 -1.160830 0.058838 -0.344228 0.000642 0.008372
    34 -0.963866 -2.785145 -0.085350 0.183164 0.158981 0.144210
    35 0.028479 -1.403067 0.006271 -1.582713 0.000000 0.000000
    36 0.021413 -0.957781 0.020046 -0.677392 0.000000 0.000000
    37 1.164475 -2.543940 -0.170330 -0.870241 -0.217740 0.364457
    38 0.024032 -1.129042 0.017807 -0.852712 0.000000 0.000001
    39 0.014898 -0.883989 -0.019848 -0.274312 0.000000 0.000000
    40 -0.575051 -1.244945 0.110315 -0.156998 -0.025449 -2.790565
    41 1.522835 0.058681 0.016848 0.151122 -0.072618 0.437621
    42 1.117947 0.048424 -0.005766 0.017147 -0.085588 0.181570
    43 0.063732 -0.150762 -0.063730 0.427412 0.101731 1.399313
    44 -1.393470 8.839177 -0.239433 1.580804 -0.005023 -1.566847
  time 9
    0 1.833241 0.014360 -42.530646 0.000000 0.000000 0.000000
    1 11.724240 -2.479215 31.677766 0.634005 -2.797650 -1.379730
    2 -0.071921 -8.498736 -0.104130 -0.027276 0.722026 -0.903751
    3 1.279076 -2.919489 0.865077 -0.267837 -0.222057 -3.738209
    4 -3.112814 0.806304 0.000001 0.000000 0.000000 2.037040
    5 -1.613795 3.251794 0.000001 0.000000 0.000000 0.467615
    6 -0.412545 0.562160 0.000000 0.000002 0.000000 0.727008
    7 -3.109819 2.377850 0.350933 0.000000 0.000000 0.457271
    8 -1.809878 -13.204159 28.874598 -1.495185 -5.717841 -0.348045
    9 0.096944 -8.450418 -0.009365 0.407460 -0.923896 0.207461
    10 19.223891 25.284894 -22.451752 0.578430 0.098638 -0.792938
    11 1.257180 8.762585 -0.153713 -1.570562 0.002683 -1.566807
    12 -0.488518 -2.755602 -0.228260 -0.912721 0.017679 -0.333533
    13 0.039887 -1.479790 0.029854 -1.748663 0.000000 0.000001
    14 0.028786 -1.075731 -0.023109 0.002099 0.000000 0.000000
    15 0.250027 -2.820665 -0.238396 -0.542709 0.010094 -0.304331
    16 -0.049759 -1.680544 0.100479 -2.059934 0.000000 -0.000002
    17 -0.034142 -1.148312 0.084782 -0.502850 0.000000 0.000000
    18 0.957766 -2.746780 -0.090302 -0.186463 0.111199 -0.173277
    19 -0.033420 -1.397129 -0.011257 -1.422042 0.000000 -0.000001
    20 -0.022360 -0.957436 0.018784 -0.623500 0.000000 0.000000
    21 -1.180681 -2.507217 -0.193859 -1.441117 0.170544 -0.457493
    22 -0.024967 -1.123934 0.017597 -0.703057 0.000000 0.000001
    23 -0.020057 -0.890968 0.010090 -0.715137 0.000000 0.000000
    24 0.583510 -1.197277 0.185379 0.245908 -0.934494 -0.500771
    25 1.535927 0.010246 0.005009 -0.156714 0.038531 -1.190106
    26 1.100771 0.004527 -0.010679 -0.007254 0.014511 -0.287578
    27 -0.192357 -0.186993 -0.167774 3.368825 5.890604 -1.329850
    28 0.447953 -2.798986 -0.200443 -1.272932 -0.017479 0.389985
    29 -0.032909 -1.480204 0.004940 -0.594349 0.000000 0.000002
    30 -0.027022 -1.076920 -0.020210 -0.346317 0.000000 0.000000
    31 -0.249534 -2.846964 -0.174213 -0.815605 -0.098315 0.243441
    32 0.043235 -1.683941 0.096012 -1.142369 0.002823 -0.000167
    33 0.031729 -1.160830 0.058838 -0.344228 0.000642 0.008372
    34 -0.963866 -2.785145 -0.085350 0.183164 0.158981 0.144210
    35 0.028479 -1.403067 0.006271 -1.582713 0.000000 0.000000
    36 0.021413 -0.957781 0.020046 -0.677392 0.000000 0.000000
    37 1.164475 -2.543940 -0.170330 -0.870241 -0.217740 0.364457
    38 0.024032 -1.129042 0.017807 -0.852712 0.000000 0.000001
    39 0.014898 -0.883989 -0.019848 -0.274312 0.000000 0.000000
    40 -0.575051 -1.244945 0.110315 -0.156958 -0.014919 -2.792251
    41 1.522835 0.058681 0.016848 0.149899 -0.084123 0.443414
    42 1.117947 0.048424 -0.005766 0.017962 -0.085409 0.171951
    43 0.063732 -0.150762 -0.063730 0.426221 0.108622 1.397324
    44 -1.393470 8.839177 -0.239433 1.580804 -0.005023 -1.566847
  time 10
    0 1.833241 0.014360 -42.530646 0.000000 0.000000 0.000000
    1 11.716427 -2.483122 31.681673 0.634005 -2.797650 -1.379730
    2 -0.071921 -8.498736 -0.104130 -0.030379 0.722897 -0.907795
    3 1.279076 -2.919489 0.865077 -0.267837 -0.222057 -3.738209
    4 -3.112814 0.806304 0.000001 0.000000 0.000000 2.037040
    5 -1.613795 3.251794 0.000001 0.000000 0.000000 0.467615
    6 -0.420357 0.589505 0.000000 0.000002 0.000000 0.727008
    7 -3.109819 2.377850 0.350933 0.000000 0.000000 0.457271
    8 -1.821597 -13.215878 28.847253 -1.495185 -5.717841 -0.348045
    9 0.096944 -8.450418 -0.009365 0.414659 -0.924683 0.205277
    10 19.223891 25.284894 -22.451752 0.578430 0.098638 -0.792938
    11 1.257180 8.762585 -0.153713 -1.570562 0.002683 -1.566807
    12 -0.488518 -2.755602 -0.228260 -0.912721 0.017679 -0.333533
    13 0.039887 -1.479790 0.029854 -1.748715 0.000000 0.000001
    14 0.028786 -1.075731 -0.023109 0.002099 0.000000 0.000000
    15 0.250027 -2.820665 -0.238396 -0.542709 0.010094 -0.304331
    16 -0.049759 -1.680544 0.100479 -2.059934 0.000000 -0.000002
    17 -0.034142 -1.148312 0.084782 -0.502850 0.000000 0.000000
    18 0.957766 -2.746780 -0.090302 -0.168922 0.111199 -0.173277
    19 -0.033420 -1.397129 -0.011257 -1.424862 0.000000 -0.000001
    20 -0.022360 -0.957436 0.018784 -0.630324 0.000000 0.000000
    21 -1.180681 -2.507217 -0.193859 -1.441117 0.170544 -0.457493
    22 -0.024967 -1.123934 0.017597 -0.703057 0.000000 0.000001
    23 -0.020057 -0.890968 0.010090 -0.715137 0.000000 0.000000
    24 0.583510 -1.197277 0.185379 0.245908 -0.934494 -0.500771
    25 1.535927 0.010246 0.005009 -0.156714 0.038531 -1.190106
    26 1.100771 0.004527 -0.010679 -0.007254 0.014511 -0.287578
    27 -0.192357 -0.186993 -0.167774 3.368825 5.890604 -1.329850
    28 0.447953 -2.798986 -0.200443 -1.272932 -0.017479 0.389985
    29 -0.032909 -1.480204 0.004940 -0.594349 0.000000 0.000002
    30 -0.027022 -1.076920 -0.020210 -0.346317 0.000000 0.000000
    31 -0.249534 -2.846964 -0.174213 -0.815500 -0.100017 0.241846
    32 0.043235 -1.683941 0.096012 -1.142369 0.002823 -0.000167
    33 0.031729 -1.160830 0.058838 -0.344228 0.000642 0.008372
    34 -0.963866 -2.785145 -0.085350 0.183164 0.158981 0.144210
    35 0.028479 -1.403067 0.006271 -1.582713 0.000000 0.000000
    36 0.021413 -0.957781 0.020046 -0.677392 0.000000 0.000000
    37 1.164475 -2.543940 -0.170330 -0.870241 -0.217740 0.364457
    38 0.024032 -1.129042 0.017807 -0.852712 0.000000 0.000001
    39 0.014898 -0.883989 -0.019848 -0.274312 0.000000 0.000000
    40 -0.575051 -1.244945 0.110315 -0.156918 -0.002957 -2.794123
    41 1.522835 0.058681 0.016848 0.148677 -0.096959 0.449120
    42 1.117947 0.048424 -0.005766 0.018872 -0.085193 0.161203
    43 0.063732 -0.150762 -0.063730 0.425810 0.111115 1.396604
    44 -1.393470 8.839177 -0.239433 1.580804 -0.005023 -1.566847
  time 11
    0 1.833241 0.014360 -42.530646 0.000000 0.000000 0.000000
    1 11.708614 -2.471403 31.669954 0.634005 -2.797650 -1.379730
    2 -0.071921 -8.498736 -0.104130 -0.029284 0.722501 -0.906189
    3 1.279076 -2.919489 0.865077 -0.267837 -0.222057 -3.738209
    4 -3.112814 0.806304 0.000001 0.000000 0.000000 2.037040
    5 -1.613795 3.251794 0.000001 0.000000 0.000000 0.467615
    6 -0.428170 0.624662 0.000000 0.000002 0.000000 0.727008
    7 -3.109819 2.377850 0.350933 0.000000 0.000000 0.457271
    8 -1.833317 -13.204159 28.851160 -1.495185 -5.717841 -0.348045
    9 0.096944 -8.450418 -0.009365 0.411075 -0.924592 0.205768
    10 19.223891 25.284894 -22.451752 0.578430 0.098638 -0.792938
    11 1.257180 8.762585 -0.153713 -1.570562 0.002683 -1.566807
    12 -0.488518 -2.755602 -0.228260 -0.912721 0.017679 -0.333533
    13 0.039887 -1.479790 0.029854 -1.748663 0.000000 0.000001
    14 0.028786 -1.075731 -0.023109 0.002099 0.000000 0.000000
    15 0.250027 -2.820665 -0.238396 -0.542709 0.010094 -0.304331
    16 -0.049759 -1.680544 0.100479 -2.059934 0.000000 -0.000002
    17 -0.034142 -1.148312 0.084782 -0.502864 0.000000 0.000000
    18 0.957766 -2.746780 -0.090302 -0.141944 0.111199 -0.173277
    19 -0.033420 -1.397129 -0.011257 -1.429162 0.000000 -0.000001
    20 -0.022360 -0.957436 0.018784 -0.640653 0.000000 0.000000
    21 -1.180681 -2.507217 -0.193859 -1.441117 0.170544 -0.457493
    22 -0.024967 -1.123934 0.017597 -0.703057 0.000000 0.000001
    23 -0.020057 -0.890968 0.010090 -0.715137 0.000000 0.000000
    24 0.583510 -1.197277 0.185379 0.245908 -0.934494 -0.500771
    25 1.535927 0.010246 0.005009 -0.156714 0.038531 -1.190106
    26 1.100771 0.004527 -0.010679 -0.007254 0.014511 -0.287578
    27 -0.192357 -0.186993 -0.167774 3.368825 5.890604 -1.329850
    28 0.447953 -2.798986 -0.200443 -1.272932 -0.017479 0.389985
    29 -0.032909 -1.480204 0.004940 -0.594349 0.000000 0.000002
    30 -0.027022 -1.076920 -0.020210 -0.346317 0.000000 0.000000
    31 -0.249534 -2.846964 -0.174213 -0.815631 -0.097596 0.244113
    32 0.043235 -1.683941 0.096012 -1.142369 0.002823 -0.000167
    33 0.031729 -1.160830 0.058838 -0.344228 0.000642 0.008372
    34 -0.963866 -2.785145 -0.085350 0.183164 0.158981 0.144210
    35 0.028479 -1.403067 0.006271 -1.582713 0.000000 0.000000
    36 0.021413 -0.957781 0.020046 -0.677392 0.000000 0.000000
    37 1.164475 -2.543940 -0.170330 -0.870241 -0.217740 0.364457
    38 0.024032 -1.129042 0.017807 -0.852712 0.000000 0.000001
    39 0.014898 -0.883989 -0.019848 -0.274312 0.000000 0.000000
    40 -0.575051 -1.244945 0.110315 -0.156918 0.010164 -2.796183
    41 1.522835 0.058681 0.016848 0.147490 -0.110681 0.454649
    42 1.117947 0.048424 -0.005766 0.019843 -0.084953 0.149727
    43 0.063732 -0.150762 -0.063730 0.426416 0.107567 1.397635
    44 -1.393470 8.839177 -0.239433 1.580804 -0.005023 -1.566847
  time 12
    0 1.833241 0.014360 -42.530646 0.000000 0.000000 0.000000
    1 11.696895 -2.440152 31.638703 0.634005 -2.797650 -1.379730
    2 -0.071921 -8.498736 -0.104130 -0.026303 0.721374 -0.901878
    3 1.279076 -2.919489 0.865077 -0.267837 -0.222057 -3.738209
    4 -3.112814 0.806304 0.000001 0.000000 0.000000 2.037040
    5 -1.613795 3.251794 0.000001 0.000000 0.000000 0.467615
    6 -0.439889 0.671539 0.000000 0.000002 0.000000 0.727008
    7 -3.109819 2.377850 0.350933 0.000000 0.000000 0.457271
    8 -1.848942 -13.172908 28.855066 -1.495185 -5.717841 -0.348045
    9 0.096944 -8.450418 -0.009365 0.401422 -0.924259 0.207106
    10 19.223891 25.284894 -22.451752 0.578430 0.098638 -0.792938
    11 1.257180 8.762585 -0.153713 -1.570562 0.002683 -1.566807
    12 -0.488518 -2.755602 -0.228260 -0.912721 0.017679 -0.333533
    13 0.039887 -1.479790 0.029854 -1.748663 0.000000 0.000001
    14 0.028786 -1.075731 -0.023109 0.002099 0.000000 0.000000
    15 0.250027 -2.820665 -0.238396 -0.542709 0.010094 -0.304331
    16 -0.049759 -1.680544 0.100479 -2.059934 0.000000 -0.000002
    17 -0.034142 -1.148312 0.084782 -0.502850 0.000000 0.000000
    18 0.957766 -2.746780 -0.090302 -0.107338 0.111199 -0.173277
    19 -0.033420 -1.397129 -0.011257 -1.434572 0.000000 -0.000001
    20 -0.022360 -0.957436 0.018784 -0.653592 0.000000 0.000000
    21 -1.180681 -2.507217 -0.193859 -1.441117 0.170544 -0.457493
    22 -0.024967 -1.123934 0.017597 -0.703057 0.000000 0.000001
    23 -0.020057 -0.890968 0.010090 -0.715137 0.000000 0.000000
    24 0.583510 -1.197277 0.185379 0.245908 -0.934494 -0.500771
    25 1.535927 0.010246 0.005009 -0.156714 0.038531 -1.190106
    26 1.100771 0.004527 -0.010679 -0.007254 0.014511 -0.287578
    27 -0.192357 -0.186993 -0.167774 3.368825 5.890604 -1.329850
    28 0.447953 -2.798986 -0.200443 -1.272932 -0.017479 0.389985
    29 -0.032909 -1.480204 0.004940 -0.594349 0.000000 0.000002
    30 -0.027022 -1.076920 -0.020210 -0.346317 0.000000 0.000000
    31 -0.249534 -2.846964 -0.174213 -0.816000 -0.091040 0.250269
    32 0.043235 -1.683941 0.096012 -1.142369 0.002823 -0.000167
    33 0.031729 -1.160830 0.058838 -0.344228 0.000642 0.008372
    34 -0.963866 -2.785145 -0.085350 0.183164 0.158981 0.144210
    35 0.028479 -1.403067 0.006271 -1.582713 0.000000 0.000000
    36 0.021413 -0.957781 0.020046 -0.677392 0.000000 0.000000
    37 1.164475 -2.543940 -0.170330 -0.870241 -0.217740 0.364457
    38 0.024032 -1.129042 0.017807 -0.852712 0.000000 0.000001
    39 0.014898 -0.883989 -0.019848 -0.274312 0.000000 0.000000
    40 -0.575051 -1.244945 0.110315 -0.156958 0.024074 -2.798399
    41 1.522835 0.058681 0.016848 0.146340 -0.124847 0.459943
    42 1.117947 0.048424 -0.005766 0.020850 -0.084713 0.137879
    43 0.063732 -0.150762 -0.063730 0.428061 0.097944 1.400404
    44 -1.393470 8.839177 -0.239433 1.580804 -0.005023 -1.566847
  time 13
    0 1.833241 0.014360 -42.530646 0.000000 0.000000 0.000000
    1 11.689082 -2.393275 31.591826 0.634005 -2.797650 -1.379730
    2 -0.071921 -8.498736 -0.104130 -0.021944 0.719712 -0.895515
    3 1.279076 -2.919489 0.865077 -0.267837 -0.222057 -3.738209
    4 -3.112814 0.806304 0.000001 0.000000 0.000000 2.037040
    5 -1.613795 3.251794 0.000001 0.000000 0.000000 0.467615
    6 -0.451608 0.726228 0.000000 0.000002 0.000000 0.727008
    7 -3.109819 2.377850 0.350933 0.000000 0.000000 0.457271
    8 -1.864568 -13.126032 28.862879 -1.495185 -5.717841 -0.348045
    9 0.096944 -8.450418 -0.009365 0.387185 -0.923805 0.209044
    10 19.223891 25.284894 -22.451752 0.578430 0.098638 -0.792938
    11 1.257180 8.762585 -0.153713 -1.570562 0.002683 -1.566807
    12 -0.488518 -2.755602 -0.228260 -0.912721 0.017679 -0.333533
    13 0.039887 -1.479790 0.029854 -1.748663 0.000000 0.000001
    14 0.028786 -1.075731 -0.023109 0.002099 0.000000 0.000000
    15 0.250027 -2.820665 -0.238396 -0.542709 0.010094 -0.304331
    16 -0.049759 -1.680544 0.100479 -2.059934 0.000000 -0.000002
    17 -0.034142 -1.148312 0.084782 -0.502864 0.000000 0.000000
    18 0.957766 -2.746780 -0.090302 -0.066935 0.111199 -0.173277
    19 -0.033420 -1.397129 -0.011257 -1.440675 0.000000 -0.000001
    20 -0.022360 -0.957436 0.018784 -0.668249 0.000000 0.000000
    21 -1.180681 -2.507217 -0.193859 -1.441117 0.170544 -0.457493
    22 -0.024967 -1.123934 0.017597 -0.703057 0.000000 0.000001
    23 -0.020057 -0.890968 0.010090 -0.715137 0.000000 0.000000
    24 0.583510 -1.197277 0.185379 0.245908 -0.934494 -0.500771
    25 1.535927 0.010246 0.005009 -0.156714 0.038531 -1.190106
    26 1.100771 0.004527 -0.010679 -0.007254 0.014511 -0.287578
    27 -0.192357 -0.186993 -0.167774 3.368825 5.890604 -1.329850
    28 0.447953 -2.798986 -0.200443 -1.272932 -0.017479 0.389985
    29 -0.032909 -1.480204 0.004940 -0.594349 0.000000 0.000002
    30 -0.027022 -1.076920 -0.020210 -0.346317 0.000000 0.000000
    31 -0.249534 -2.846964 -0.174213 -0.816500 -0.081381 0.259340
    32 0.043235 -1.683941 0.096012 -1.142369 0.002823 -0.000167
    33 0.031729 -1.160830 0.058838 -0.344228 0.000642 0.008372
    34 -0.963866 -2.785145 -0.085350 0.183164 0.158981 0.144210
    35 0.028479 -1.403067 0.006271 -1.582713 0.000000 0.000000
    36 0.021413 -0.957781 0.020046 -0.677392 0.000000 0.000000
    37 1.164475 -2.543940 -0.170330 -0.870241 -0.217740 0.364457
    38 0.024032 -1.129042 0.017807 -0.852712 0.000000 0.000001
    39 0.014898 -0.883989 -0.019848 -0.274312 0.000000 0.000000
    40 -0.575051 -1.244945 0.110315 -0.157039 0.038499 -2.800678
    41 1.522835 0.058681 0.016848 0.145249 -0.139013 0.464913
    42 1.117947 0.048424 -0.005766 0.021857 -0.084462 0.126016
    43 0.063732 -0.150762 -0.063730 0.430507 0.083766 1.404502
    44 -1.393470 8.839177 -0.239433 1.580804 -0.005023 -1.566847
  time 14
    0 1.833241 0.014360 -42.530646 0.000000 0.000000 0.000000
    1 11.677363 -2.334680 31.533231 0.634005 -2.797650 -1.379730
    2 -0.071921 -8.498736 -0.104130 -0.016611 0.717695 -0.887785
    3 1.279076 -2.919489 0.865077 -0.267837 -0.222057 -3.738209
    4 -3.112814 0.806304 0.000001 0.000000 0.000000 2.037040
    5 -1.613795 3.251794 0.000001 0.000000 0.000000 0.467615
    6 -0.467234 0.784824 0.000000 0.000002 0.000000 0.727008
    7 -3.109819 2.377850 0.350933 0.000000 0.000000 0.457271
    8 -1.880193 -13.067436 28.870692 -1.495185 -5.717841 -0.348045
    9 0.096944 -8.450418 -0.009365 0.369913 -0.923260 0.211391
    10 19.223891 25.284894 -22.451752 0.578430 0.098638 -0.792938
    11 1.257180 8.762585 -0.153713 -1.570562 0.002683 -1.566807
    12 -0.488518 -2.755602 -0.228260 -0.912721 0.017679 -0.333533
    13 0.039887 -1.479790 0.029854 -1.748663 0.000000 0.000001
    14 0.028786 -1.075731 -0.023109 0.002099 0.000000 0.000000
    15 0.250027 -2.820665 -0.238396 -0.542709 0.010094 -0.304331
    16 -0.049759 -1.680544 0.100479 -2.059934 0.000000 -0.000002
    17 -0.034142 -1.148312 0.084782 -0.502864 0.000000 0.000000
    18 0.957766 -2.746780 -0.090302 -0.022541 0.111199 -0.173277
    19 -0.033420 -1.397129 -0.011257 -1.447148 0.000000 -0.000001
    20 -0.022360 -0.957436 0.018784 -0.683800 0.000000 0.000000
    21 -1.180681 -2.507217 -0.193859 -1.441117 0.170544 -0.457493
    22 -0.024967 -1.123934 0.017597 -0.703057 0.000000 0.000001
    23 -0.020057 -0.890968 0.010090 -0.715137 0.000000 0.000000
    24 0.583510 -1.197277 0.185379 0.245908 -0.934494 -0.500771
    25 1.535927 0.010246 0.005009 -0.156714 0.038531 -1.190106
    26 1.100771 0.004527 -0.010679 -0.007254 0.014511 -0.287578
    27 -0.192357 -0.186993 -0.167774 3.368825 5.890604 -1.329850
    28 0.447953 -2.798986 -0.200443 -1.272932 -0.017479 0.389985
    29 -0.032909 -1.480204 0.004940 -0.594349 0.000000 0.000002
    30 -0.027022 -1.076920 -0.020210 -0.346317 0.000000 0.000000
    31 -0.249534 -2.846964 -0.174213 -0.817131 -0.069660 0.270343
    32 0.043235 -1.683941 0.096012 -1.142369 0.002823 -0.000167
    33 0.031729 -1.160830 0.058838 -0.344228 0.000642 0.008372
    34 -0.963866 -2.785145 -0.085350 0.183164 0.158981 0.144210
    35 0.028479 -1.403067 0.006271 -1.582713 0.000000 0.000000
    36 0.021413 -0.957781 0.020046 -0.677392 0.000000 0.000000
    37 1.164475 -2.543940 -0.170330 -0.870241 -0.217740 0.364457
    38 0.024032 -1.129042 0.017807 -0.852712 0.000000 0.000001
    39 0.014898 -0.883989 -0.019848 -0.274312 0.000000 0.000000
    40 -0.575051 -1.244945 0.110315 -0.157159 0.053071 -2.802987
    41 1.522835 0.058681 0.016848 0.144230 -0.152735 0.469472
    42 1.117947 0.048424 -0.005766 0.022827 -0.084222 0.114539
    43 0.063732 -0.150762 -0.063730 0.433559 0.066544 1.409476
    44 -1.393470 8.839177 -0.239433 1.580804 -0.005023 -1.566847
  time 15
    0 1.833241 0.014360 -42.530646 0.000000 0.000000 0.000000
    1 11.669550 -2.268271 31.470729 0.634005 -2.797650 -1.379730
    2 -0.071921 -8.498736 -0.104130 -0.010812 0.715480 -0.879400
    3 1.279076 -2.919489 0.865077 -0.267837 -0.222057 -3.738209
    4 -3.112814 0.806304 0.000001 0.000000 0.000000 2.037040
    5 -1.613795 3.251794 0.000001 0.000000 0.000000 0.467615
    6 -0.482859 0.839513 0.000000 0.000002 0.000000 0.727008
    7 -3.109819 2.377850 0.350933 0.000000 0.000000 0.457271
    8 -1.899725 -13.001028 28.878504 -1.495185 -5.717841 -0.348045
    9 0.096944 -8.450418 -0.009365 0.351091 -0.922624 0.213984
    10 19.223891 25.284894 -22.451752 0.578430 0.098638 -0.792938
    11 1.257180 8.762585 -0.153713 -1.570562 0.002683 -1.566807
    12 -0.488518 -2.755602 -0.228260 -0.912721 0.017679 -0.333533
    13 0.039887 -1.479790 0.029854 -1.748715 0.000000 0.000001
    14 0.028786 -1.075731 -0.023109 0.002099 0.000000 0.000000
    15 0.250027 -2.820665 -0.238396 -0.542709 0.010094 -0.304331
    16 -0.049759 -1.680544 0.100479 -2.059934 0.000000 -0.000002
    17 -0.034142 -1.148312 0.084782 -0.502864 0.000000 0.000000
    18 0.957766 -2.746780 -0.090302 0.023960 0.111199 -0.173277
    19 -0.033420 -1.397129 -0.011257 -1.453620 0.000000 -0.000001
    20 -0.022360 -0.957436 0.018784 -0.699350 0.000000 0.000000
    21 -1.180681 -2.507217 -0.193859 -1.441117 0.170544 -0.457493
    22 -0.024967 -1.123934 0.017597 -0.703057 0.000000 0.000001
    23 -0.020057 -0.890968 0.010090 -0.715137 0.000000 0.000000
    24 0.583510 -1.197277 0.185379 0.245908 -0.934494 -0.500771
    25 1.535927 0.010246 0.005009 -0.156714 0.038531 -1.190106
    26 1.100771 0.004527 -0.010679 -0.007254 0.014511 -0.287578
    27 -0.192357 -0.186993 -0.167774 3.368825 5.890604 -1.329850
    28 0.447953 -2.798986 -0.200443 -1.272932 -0.017479 0.389985
    29 -0.032909 -1.480204 0.004940 -0.594349 0.000000 0.000002
    30 -0.027022 -1.076920 -0.020210 -0.346317 0.000000 0.000000
    31 -0.249534 -2.846964 -0.174213 -0.817815 -0.056884 0.282331
    32 0.043235 -1.683941 0.096012 -1.142369 0.002823 -0.000167
    33 0.031729 -1.160830 0.058838 -0.344228 0.000642 0.008372
    34 -0.963866 -2.785145 -0.085350 0.183164 0.158981 0.144210
    35 0.028479 -1.403067 0.006271 -1.582713 0.000000 0.000000
    36 0.021413 -0.957781 0.020046 -0.677392 0.000000 0.000000
    37 1.164475 -2.543940 -0.170330 -0.870241 -0.217740 0.364457
    38 0.024032 -1.129042 0.017807 -0.852712 0.000000 0.000001
    39 0.014898 -0.883989 -0.019848 -0.274312 0.000000 0.000000
    40 -0.575051 -1.244945 0.110315 -0.157280 0.067496 -2.805297
    41 1.522835 0.058681 0.016848 0.143332 -0.165559 0.473530
    42 1.117947 0.048424 -0.005766 0.023738 -0.083994 0.103806
    43 0.063732 -0.150762 -0.063730 0.436936 0.047800 1.414893
    44 -1.393470 8.839177 -0.239433 1.580804 -0.005023 -1.566847
  time 16
    0 1.833241 0.014360 -42.530646 0.000000 0.000000 0.000000
    1 11.657831 -2.201863 31.412133 0.634005 -2.797650 -1.379730
    2 -0.071921 -8.498736 -0.104130 -0.004993 0.713264 -0.870986
    3 1.279076 -2.919489 0.865077 -0.267837 -0.222057 -3.738209
    4 -3.112814 0.806304 0.000001 0.000000 0.000000 2.037040
    5 -1.613795 3.251794 0.000001 0.000000 0.000000 0.467615
    6 -0.494578 0.894202 0.000000 0.000002 0.000000 0.727008
    7 -3.109819 2.377850 0.350933 0.000000 0.000000 0.457271
    8 -1.915350 -12.934620 28.890223 -1.495185 -5.717841 -0.348045
    9 0.096944 -8.450418 -0.009365 0.332301 -0.922019 0.216550
    10 19.223891 25.284894 -22.451752 0.578430 0.098638 -0.792938
    11 1.257180 8.762585 -0.153713 -1.570562 0.002683 -1.566807
    12 -0.488518 -2.755602 -0.228260 -0.912721 0.017679 -0.333533
    13 0.039887 -1.479790 0.029854 -1.748663 0.000000 0.000001
    14 0.028786 -1.075731 -0.023109 0.002099 0.000000 0.000000
    15 0.250027 -2.820665 -0.238396 -0.542709 0.010094 -0.304331
    16 -0.049759 -1.680544 0.100479 -2.059934 0.000000 -0.000002
    17 -0.034142 -1.148312 0.084782 -0.502864 0.000000 0.000000
    18 0.957766 -2.746780 -0.090302 0.070813 0.111199 -0.173277
    19 -0.033420 -1.397129 -0.011257 -1.459724 0.000000 -0.000001
    20 -0.022360 -0.957436 0.018784 -0.714030 0.000000 0.000000
    21 -1.180681 -2.507217 -0.193859 -1.441117 0.170544 -0.457493
    22 -0.024967 -1.123934 0.017597 -0.703057 0.000000 0.000001
    23 -0.020057 -0.890968 0.010090 -0.715137 0.000000 0.000000
    24 0.583510 -1.197277 0.185379 0.245908 -0.934494 -0.500771
    25 1.535927 0.010246 0.005009 -0.156714 0.038531 -1.190106
    26 1.100771 0.004527 -0.010679 -0.007254 0.014511 -0.287578
    27 -0.192357 -0.186993 -0.167774 3.368825 5.890604 -1.329850
    28 0.447953 -2.798986 -0.200443 -1.272932 -0.017479 0.389985
    29 -0.032909 -1.480204 0.004940 -0.594349 0.000000 0.000002
    30 -0.027022 -1.076920 -0.020210 -0.346317 0.000000 0.000000
    31 -0.249534 -2.846964 -0.174213 -0.818499 -0.044120 0.294294
    32 0.043235 -1.683941 0.096012 -1.142369 0.002823 -0.000167
    33 0.031729 -1.160830 0.058838 -0.344228 0.000642 0.008372
    34 -0.963866 -2.785145 -0.085350 0.183164 0.158981 0.144210
    35 0.028479 -1.403067 0.006271 -1.582713 0.000000 0.000000
    36 0.021413 -0.957781 0.020046 -0.677392 0.000000 0.000000
    37 1.164475 -2.543940 -0.170330 -0.870241 -0.217740 0.364457
    38 0.024032 -1.129042 0.017807 -0.852712 0.000000 0.000001
    39 0.014898 -0.883989 -0.019848 -0.274312 0.000000 0.000000
    40 -0.575051 -1.244945 0.110315 -0.157481 0.081425 -2.807513
    41 1.522835 0.058681 0.016848 0.142553 -0.177052 0.477030
    42 1.117947 0.048424 -0.005766 0.024553 -0.083791 0.094188
    43 0.063732 -0.150762 -0.063730 0.440378 0.029056 1.420310
    44 -1.393470 8.839177 -0.239433 1.580804 -0.005023 -1.566847
  time 17
    0 1.833241 0.014360 -42.530646 0.000000 0.000000 0.000000
    1 11.650019 -2.139361 31.353538 0.634005 -2.797650 -1.379730
    2 -0.071921 -8.498736 -0.104130 0.000340 0.711207 -0.863285
    3 1.279076 -2.919489 0.865077 -0.267837 -0.222057 -3.738209
    4 -3.112814 0.806304 0.000001 0.000000 0.000000 2.037040
    5 -1.613795 3.251794 0.000001 0.000000 0.000000 0.467615
    6 -0.506298 0.941078 0.000000 0.000002 0.000000 0.727008
    7 -3.109819 2.377850 0.350933 0.000000 0.000000 0.457271
    8 -1.927069 -12.872118 28.898036 -1.495185 -5.717841 -0.348045
    9 0.096944 -8.450418 -0.009365 0.315029 -0.921444 0.218898
    10 19.223891 25.284894 -22.451752 0.578430 0.098638 -0.792938
    11 1.257180 8.762585 -0.153713 -1.570562 0.002683 -1.566807
    12 -0.488518 -2.755602 -0.228260 -0.912721 0.017679 -0.333533
    13 0.039887 -1.479790 0.029854 -1.748715 0.000000 0.000001
    14 0.028786 -1.075731 -0.023109 0.002099 0.000000 0.000000
    15 0.250027 -2.820665 -0.238396 -0.542709 0.010094 -0.304331
    16 -0.049759 -1.680544 0.100479 -2.059934 0.000000 -0.000002
    17 -0.034142 -1.148312 0.084782 -0.502864 0.000000 0.000000
    18 0.957766 -2.746780 -0.090302 0.116185 0.111199 -0.173277
    19 -0.033420 -1.397129 -0.011257 -1.465087 0.000000 -0.000001
    20 -0.022360 -0.957436 0.018784 -0.726969 0.000000 0.000000
    21 -1.180681 -2.507217 -0.193859 -1.441117 0.170544 -0.457493
    22 -0.024967 -1.123934 0.017597 -0.703057 0.000000 0.000001
    23 -0.020057 -0.890968 0.010090 -0.715137 0.000000 0.000000
    24 0.583510 -1.197277 0.185379 0.245908 -0.934494 -0.500771
    25 1.535927 0.010246 0.005009 -0.156714 0.038531 -1.190106
    26 1.100771 0.004527 -0.010679 -0.007254 0.014511 -0.287578
    27 -0.192357 -0.186993 -0.167774 3.368825 5.890604 -1.329850
    28 0.447953 -2.798986 -0.200443 -1.272932 -0.017479 0.389985
    29 -0.032909 -1.480204 0.004940 -0.594349 0.000000 0.000002
    30 -0.027022 -1.076920 -0.020210 -0.346317 0.000000 0.000000
    31 -0.249534 -2.846964 -0.174213 -0.819130 -0.032388 0.305297
    32 0.043235 -1.683941 0.096012 -1.142369 0.002823 -0.000167
    33 0.031729 -1.160830 0.058838 -0.344228 0.000642 0.008372
    34 -0.963866 -2.785145 -0.085350 0.183164 0.158981 0.144210
    35 0.028479 -1.403067 0.006271 -1.582713 0.000000 0.000000
    36 0.021413 -0.957781 0.020046 -0.677392 0.000000 0.000000
    37 1.164475 -2.543940 -0.170330 -0.870241 -0.217740 0.364457
    38 0.024032 -1.129042 0.017807 -0.852712 0.000000 0.000001
    39 0.014898 -0.883989 -0.019848 -0.274312 0.000000 0.000000
    40 -0.575051 -1.244945 0.110315 -0.157642 0.094582 -2.809635
    41 1.522835 0.058681 0.016848 0.141905 -0.186759 0.479912
    42 1.117947 0.048424 -0.005766 0.025236 -0.083611 0.086056
    43 0.063732 -0.150762 -0.063730 0.443604 0.011834 1.425296
    44 -1.393470 8.839177 -0.239433 1.580804 -0.005023 -1.566847
  time 18
    0 1.833241 0.014360 -42.530646 0.000000 0.000000 0.000000
    1 11.646112 -2.080766 31.306661 0.634005 -2.797650 -1.379730
    2 -0.071921 -8.498736 -0.104130 0.004739 0.709507 -0.856952
    3 1.279076 -2.919489 0.865077 -0.267837 -0.222057 -3.738209
    4 -3.112814 0.806304 0.000001 0.000000 0.000000 2.037040
    5 -1.613795 3.251794 0.000001 0.000000 0.000000 0.467615
    6 -0.514110 0.980142 0.000000 0.000002 0.000000 0.727008
    7 -3.109819 2.377850 0.350933 0.000000 0.000000 0.457271
    8 -1.938789 -12.813522 28.901942 -1.495185 -5.717841 -0.348045
    9 0.096944 -8.450418 -0.009365 0.300792 -0.920990 0.220836
    10 19.223891 25.284894 -22.451752 0.578430 0.098638 -0.792938
    11 1.257180 8.762585 -0.153713 -1.570562 0.002683 -1.566807
    12 -0.488518 -2.755602 -0.228260 -0.912721 0.017679 -0.333533
    13 0.039887 -1.479790 0.029854 -1.748663 0.000000 0.000001
    14 0.028786 -1.075731 -0.023109 0.002099 0.000000 0.000000
    15 0.250027 -2.820665 -0.238396 -0.542709 0.010094 -0.304331
    16 -0.049759 -1.680544 0.100479 -2.059934 0.000000 -0.000002
    17 -0.034142 -1.148312 0.084782 -0.502850 0.000000 0.000000
    18 0.957766 -2.746780 -0.090302 0.158220 0.111199 -0.173277
    19 -0.033420 -1.397129 -0.011257 -1.469387 0.000000 -0.000001
    20 -0.022360 -0.957436 0.018784 -0.737275 0.000000 0.000000
    21 -1.180681 -2.507217 -0.193859 -1.441117 0.170544 -0.457493
    22 -0.024967 -1.123934 0.017597 -0.703057 0.000000 0.000001
    23 -0.020057 -0.890968 0.010090 -0.715137 0.000000 0.000000
    24 0.583510 -1.197277 0.185379 0.245908 -0.934494 -0.500771
    25 1.535927 0.010246 0.005009 -0.156714 0.038531 -1.190106
    26 1.100771 0.004527 -0.010679 -0.007254 0.014511 -0.287578
    27 -0.192357 -0.186993 -0.167774 3.368825 5.890604 -1.329850
    28 0.447953 -2.798986 -0.200443 -1.272932 -0.017479 0.389985
    29 -0.032909 -1.480204 0.004940 -0.594349 0.000000 0.000002
    30 -0.027022 -1.076920 -0.020210 -0.346317 0.000000 0.000000
    31 -0.249534 -2.846964 -0.174213 -0.819630 -0.022716 0.314344
    32 0.043235 -1.683941 0.096012 -1.142369 0.002823 -0.000167
    33 0.031729 -1.160830 0.058838 -0.344228 0.000642 0.008372
    34 -0.963866 -2.785145 -0.085350 0.183164 0.158981 0.144210
    35 0.028479 -1.403067 0.006271 -1.582713 0.000000 0.000000
    36 0.021413 -0.957781 0.020046 -0.677392 0.000000 0.000000
    37 1.164475 -2.543940 -0.170330 -0.870241 -0.217740 0.364457
    38 0.024032 -1.129042 0.017807 -0.852712 0.000000 0.000001
    39 0.014898 -0.883989 -0.019848 -0.274312 0.000000 0.000000
    40 -0.575051 -1.244945 0.110315 -0.157883 0.106600 -2.811570
    41 1.522835 0.058681 0.016848 0.141426 -0.194250 0.482059
    42 1.117947 0.048424 -0.005766 0.025776 -0.083467 0.079783
    43 0.063732 -0.150762 -0.063730 0.446310 -0.002343 1.429382
    44 -1.393470 8.839177 -0.239433 1.580804 -0.005023 -1.566847
  time 19
    0 1.833241 0.014360 -42.530646 0.000000 0.000000 0.000000
    1 11.642206 -2.033889 31.275410 0.634005 -2.797650 -1.379730
    2 -0.071921 -8.498736 -0.104130 0.007720 0.708359 -0.852641
    3 1.279076 -2.919489 0.865077 -0.267837 -0.222057 -3.738209
    4 -3.112814 0.806304 0.000001 0.000000 0.000000 2.037040
    5 -1.613795 3.251794 0.000001 0.000000 0.000000 0.467615
    6 -0.521923 1.003580 0.000000 0.000002 0.000000 0.727008
    7 -3.109819 2.377850 0.350933 0.000000 0.000000 0.457271
    8 -1.946601 -12.766646 28.909755 -1.495185 -5.717841 -0.348045
    9 0.096944 -8.450418 -0.009365 0.291139 -0.920657 0.222146
    10 19.223891 25.284894 -22.451752 0.578430 0.098638 -0.792938
    11 1.257180 8.762585 -0.153713 -1.570562 0.002683 -1.566807
    12 -0.488518 -2.755602 -0.228260 -0.912721 0.017679 -0.333533
    13 0.039887 -1.479790 0.029854 -1.748663 0.000000 0.000001
    14 0.028786 -1.075731 -0.023109 0.002099 0.000000 0.000000
    15 0.250027 -2.820665 -0.238396 -0.542709 0.010094 -0.304331
    16 -0.049759 -1.680544 0.100479 -2.059934 0.000000 -0.000002
    17 -0.034142 -1.148312 0.084782 -0.502864 0.000000 0.000000
    18 0.957766 -2.746780 -0.090302 0.195085 0.111199 -0.173277
    19 -0.033420 -1.397129 -0.011257 -1.472253 0.000000 -0.000001
    20 -0.022360 -0.957436 0.018784 -0.744123 0.000000 0.000000
    21 -1.180681 -2.507217 -0.193859 -1.441117 0.170544 -0.457493
    22 -0.024967 -1.123934 0.017597 -0.703057 0.000000 0.000001
    23 -0.020057 -0.890968 0.010090 -0.715137 0.000000 0.000000
    24 0.583510 -1.197277 0.185379 0.245908 -0.934494 -0.500771
    25 1.535927 0.010246 0.005009 -0.156714 0.038531 -1.190106
    26 1.100771 0.004527 -0.010679 -0.007254 0.014511 -0.287578
    27 -0.192357 -0.186993 -0.167774 3.368825 5.890604 -1.329850
    28 0.447953 -2.798986 -0.200443 -1.272932 -0.017479 0.389985
    29 -0.032909 -1.480204 0.004940 -0.594349 0.000000 0.000002
    30 -0.027022 -1.076920 -0.020210 -0.346317 0.000000 0.000000
    31 -0.249534 -2.846964 -0.174213 -0.819998 -0.016160 0.320488
    32 0.043235 -1.683941 0.096012 -1.142369 0.002823 -0.000167
    33 0.031729 -1.160830 0.058838 -0.344228 0.000642 0.008372
    34 -0.963866 -2.785145 -0.085350 0.183164 0.158981 0.144210
    35 0.028479 -1.403067 0.006271 -1.582713 0.000000 0.000000
    36 0.021413 -0.957781 0.020046 -0.677392 0.000000 0.000000
    37 1.164475 -2.543940 -0.170330 -0.870241 -0.217740 0.364457
    38 0.024032 -1.129042 0.017807 -0.852712 0.000000 0.000001
    39 0.014898 -0.883989 -0.019848 -0.274312 0.000000 0.000000
    40 -0.575051 -1.244945 0.110315 -0.158084 0.117184 -2.813287
    41 1.522835 0.058681 0.016848 0.141114 -0.199067 0.483412
    42 1.117947 0.048424 -0.005766 0.026111 -0.083383 0.075754
    43 0.063732 -0.150762 -0.063730 0.448172 -0.011967 1.432163
    44 -1.393470 8.839177 -0.239433 1.580804 -0.005023 -1.566847
  time 20
    0 1.833241 0.014360 -42.530646 0.000000 0.000000 0.000000
    1 11.642206 -2.002638 31.263691 0.634005 -2.797650 -1.379730
    2 -0.071921 -8.498736 -0.104130 0.008815 0.707924 -0.851065
    3 1.279076 -2.919489 0.865077 -0.267837 -0.222057 -3.738209
    4 -3.112814 0.806304 0.000001 0.000000 0.000000 2.037040
    5 -1.613795 3.251794 0.000001 0.000000 0.000000 0.467615
    6 -0.521923 1.011393 0.000000 0.000002 0.000000 0.727008
    7 -3.109819 2.377850 0.350933 0.000000 0.000000 0.457271
    8 -1.946601 -12.735395 28.909755 -1.495185 -5.717841 -0.348045
    9 0.096944 -8.450418 -0.009365 0.287587 -0.920566 0.222638
    10 19.223891 25.284894 -22.451752 0.578430 0.098638 -0.792938
    11 1.257180 8.762585 -0.153713 -1.570562 0.002683 -1.566807
    12 -0.488518 -2.755602 -0.228260 -0.912721 0.017679 -0.333533
    13 0.039887 -1.479790 0.029854 -1.748715 0.000000 0.000001
    14 0.028786 -1.075731 -0.023109 0.002099 0.000000 0.000000
    15 0.250027 -2.820665 -0.238396 -0.542709 0.010094 -0.304331
    16 -0.049759 -1.680544 0.100479 -2.059934 0.000000 -0.000002
    17 -0.034142 -1.148312 0.084782 -0.502850 0.000000 0.000000
    18 0.957766 -2.746780 -0.090302 0.224973 0.111199 -0.173277
    19 -0.033420 -1.397129 -0.011257 -1.473270 0.000000 -0.000001
    20 -0.022360 -0.957436 0.018784 -0.746596 0.000000 0.000000
    21 -1.180681 -2.507217 -0.193859 -1.441117 0.170544 -0.457493
    22 -0.024967 -1.123934 0.017597 -0.703057 0.000000 0.000001
    23 -0.020057 -0.890968 0.010090 -0.715137 0.000000 0.000000
    24 0.583510 -1.197277 0.185379 0.245908 -0.934494 -0.500771
    25 1.535927 0.010246 0.005009 -0.156714 0.038531 -1.190106
    26 1.100771 0.004527 -0.010679 -0.007254 0.014511 -0.287578
    27 -0.192357 -0.186993 -0.167774 3.368825 5.890604 -1.329850
    28 0.447953 -2.798986 -0.200443 -1.272932 -0.017479 0.389985
    29 -0.032909 -1.480204 0.004940 -0.594349 0.000000 0.000002
    30 -0.027022 -1.076920 -0.020210 -0.346317 0.000000 0.000000
    31 -0.249534 -2.846964 -0.174213 -0.820104 -0.013739 0.322756
    32 0.043235 -1.683941 0.096012 -1.142369 0.002823 -0.000167
    33 0.031729 -1.160830 0.058838 -0.344228 0.000642 0.008372
    34 -0.963866 -2.785145 -0.085350 0.183164 0.158981 0.144210
    35 0.028479 -1.403067 0.006271 -1.582713 0.000000 0.000000
    36 0.021413 -0.957781 0.020046 -0.677392 0.000000 0.000000
    37 1.164475 -2.543940 -0.170330 -0.870241 -0.217740 0.364457
    38 0.024032 -1.129042 0.017807 -0.852712 0.000000 0.000001
    39 0.014898 -0.883989 -0.019848 -0.274312 0.000000 0.000000
    40 -0.575051 -1.244945 0.110315 -0.158245 0.125986 -2.814691
    41 1.522835 0.058681 0.016848 0.141007 -0.200781 0.483853
    42 1.117947 0.048424 -0.005766 0.026243 -0.083347 0.074327
    43 0.063732 -0.150762 -0.063730 0.448864 -0.015515 1.433193
    44 -1.393470 8.839177 -0.239433 1.580804 -0.005023 -1.566847
  time 21
    0 1.833241 0.014360 -42.530646 0.000000 0.000000 0.000000
    1 11.642206 -1.983106 31.267598 0.634005 -2.797650 -1.379730
    2 -0.071921 -8.498736 -0.104130 0.008450 0.709329 -0.851570
    3 1.279076 -2.919489 0.865077 -0.267837 -0.222057 -3.738209
    4 -3.112814 0.806304 0.000001 0.000000 0.000000 2.037040
    5 -1.613795 3.251794 0.000001 0.000000 0.000000 0.467615
    6 -0.521923 1.011393 0.000000 0.000002 0.000000 0.727008
    7 -3.109819 2.377850 0.350933 0.000000 0.000000 0.457271
    8 -1.942695 -12.715863 28.905849 -1.495185 -5.717841 -0.348045
    9 0.096944 -8.450418 -0.009365 0.287587 -0.920566 0.222638
    10 19.223891 25.284894 -22.451752 0.578430 0.098638 -0.792938
    11 1.257180 8.762585 -0.153713 -1.570562 0.002683 -1.566807
    12 -0.488518 -2.755602 -0.228260 -0.912721 0.017679 -0.333533
    13 0.039887 -1.479790 0.029854 -1.748663 0.000000 0.000001
    14 0.028786 -1.075731 -0.023109 0.002099 0.000000 0.000000
    15 0.250027 -2.820665 -0.238396 -0.542709 0.010094 -0.304331
    16 -0.049759 -1.680544 0.100479 -2.059934 0.000000 -0.000002
    17 -0.034142 -1.148312 0.084782 -0.502850 0.000000 0.000000
    18 0.957766 -2.746780 -0.090302 0.250068 0.111199 -0.173277
    19 -0.033420 -1.397129 -0.011257 -1.464948 0.000000 -0.000001
    20 -0.022360 -0.957436 0.018784 -0.743069 0.000000 0.000000
    21 -1.180681 -2.507217 -0.193859 -1.441117 0.170544 -0.457493
    22 -0.024967 -1.123934 0.017597 -0.703057 0.000000 0.000001
    23 -0.020057 -0.890968 0.010090 -0.715137 0.000000 0.000000
    24 0.583510 -1.197277 0.185379 0.245908 -0.934494 -0.500771
    25 1.535927 0.010246 0.005009 -0.156714 0.038531 -1.190106
    26 1.100771 0.004527 -0.010679 -0.007254 0.014511 -0.287578
    27 -0.192357 -0.186993 -0.167774 3.368825 5.890604 -1.329850
    28 0.447953 -2.798986 -0.200443 -1.272932 -0.017479 0.389985
    29 -0.032909 -1.480204 0.004940 -0.594349 0.000000 0.000002
    30 -0.027022 -1.076920 -0.020210 -0.346317 0.000000 0.000000
    31 -0.249534 -2.846964 -0.174213 -0.820104 -0.013739 0.322756
    32 0.043235 -1.683941 0.096012 -1.142369 0.002823 -0.000167
    33 0.031729 -1.160830 0.058838 -0.344228 0.000642 0.008372
    34 -0.963866 -2.785145 -0.085350 0.183164 0.158981 0.144210
    35 0.028479 -1.403067 0.006271 -1.582713 0.000000 0.000000
    36 0.021413 -0.957781 0.020046 -0.677392 0.000000 0.000000
    37 1.164475 -2.543940 -0.170330 -0.870241 -0.217740 0.364457
    38 0.024032 -1.129042 0.017807 -0.852712 0.000000 0.000001
    39 0.014898 -0.883989 -0.019848 -0.274312 0.000000 0.000000
    40 -0.575051 -1.244945 0.110315 -0.158406 0.133208 -2.815846
    41 1.522835 0.058681 0.016848 0.141007 -0.200781 0.483853
    42 1.117947 0.048424 -0.005766 0.026243 -0.083347 0.074327
    43 0.063732 -0.150762 -0.063730 0.448864 -0.015515 1.433193
    44 -1.393470 8.839177 -0.239433 1.580804 -0.005023 -1.566847
  time 22
    0 1.833241 0.014360 -42.530646 0.000000 0.000000 0.000000
    1 11.650019 -1.967481 31.279317 0.634005 -2.797650 -1.379730
    2 -0.071921 -8.498736 -0.104130 0.007436 0.713126 -0.852968
    3 1.279076 -2.919489 0.865077 -0.267837 -0.222057 -3.738209
    4 -3.112814 0.806304 0.000001 0.000000 0.000000 2.037040
    5 -1.613795 3.251794 0.000001 0.000000 0.000000 0.467615
    6 -0.521923 1.011393 0.000000 0.000002 0.000000 0.727008
    7 -3.109819 2.377850 0.350933 0.000000 0.000000 0.457271
    8 -1.934882 -12.700238 28.901942 -1.495185 -5.717841 -0.348045
    9 0.096944 -8.450418 -0.009365 0.287587 -0.920566 0.222638
    10 19.223891 25.284894 -22.451752 0.578430 0.098638 -0.792938
    11 1.257180 8.762585 -0.153713 -1.570562 0.002683 -1.566807
    12 -0.488518 -2.755602 -0.228260 -0.912721 0.017679 -0.333533
    13 0.039887 -1.479790 0.029854 -1.748663 0.000000 0.000001
    14 0.028786 -1.075731 -0.023109 0.002099 0.000000 0.000000
    15 0.250027 -2.820665 -0.238396 -0.542709 0.010094 -0.304331
    16 -0.049759 -1.680544 0.100479 -2.059934 0.000000 -0.000002
    17 -0.034142 -1.148312 0.084782 -0.502864 0.000000 0.000000
    18 0.957766 -2.746780 -0.090302 0.273583 0.111199 -0.173277
    19 -0.033420 -1.397129 -0.011257 -1.442432 0.000000 -0.000001
    20 -0.022360 -0.957436 0.018784 -0.733519 0.000000 0.000000
    21 -1.180681 -2.507217 -0.193859 -1.441117 0.170544 -0.457493
    22 -0.024967 -1.123934 0.017597 -0.703057 0.000000 0.000001
    23 -0.020057 -0.890968 0.010090 -0.715137 0.000000 0.000000
    24 0.583510 -1.197277 0.185379 0.245908 -0.934494 -0.500771
    25 1.535927 0.010246 0.005009 -0.156714 0.038531 -1.190106
    26 1.100771 0.004527 -0.010679 -0.007254 0.014511 -0.287578
    27 -0.192357 -0.186993 -0.167774 3.368825 5.890604 -1.329850
    28 0.447953 -2.798986 -0.200443 -1.272932 -0.017479 0.389985
    29 -0.032909 -1.480204 0.004940 -0.594349 0.000000 0.000002
    30 -0.027022 -1.076920 -0.020210 -0.346317 0.000000 0.000000
    31 -0.249534 -2.846964 -0.174213 -0.820104 -0.013739 0.322756
    32 0.043235 -1.683941 0.096012 -1.142369 0.002823 -0.000167
    33 0.031729 -1.160830 0.058838 -0.344228 0.000642 0.008372
    34 -0.963866 -2.785145 -0.085350 0.183164 0.158981 0.144210
    35 0.028479 -1.403067 0.006271 -1.582713 0.000000 0.000000
    36 0.021413 -0.957781 0.020046 -0.677392 0.000000 0.000000
    37 1.164475 -2.543940 -0.170330 -0.870241 -0.217740 0.364457
    38 0.024032 -1.129042 0.017807 -0.852712 0.000000 0.000001
    39 0.014898 -0.883989 -0.019848 -0.274312 0.000000 0.000000
    40 -0.575051 -1.244945 0.110315 -0.158567 0.139235 -2.816813
    41 1.522835 0.058681 0.016848 0.141007 -0.200781 0.483853
    42 1.117947 0.048424 -0.005766 0.026243 -0.083347 0.074327
    43 0.063732 -0.150762 -0.063730 0.448864 -0.015515 1.433193
    44 -1.393470 8.839177 -0.239433 1.580804 -0.005023 -1.566847
  time 23
    0 1.833241 0.014360 -42.530646 0.000000 0.000000 0.000000
    1 11.657831 -1.955762 31.294942 0.634005 -2.797650 -1.379730
    2 -0.071921 -8.498736 -0.104130 0.005915 0.718723 -0.855049
    3 1.279076 -2.919489 0.865077 -0.267837 -0.222057 -3.738209
    4 -3.112814 0.806304 0.000001 0.000000 0.000000 2.037040
    5 -1.613795 3.251794 0.000001 0.000000 0.000000 0.467615
    6 -0.521923 1.011393 0.000000 0.000002 0.000000 0.727008
    7 -3.109819 2.377850 0.350933 0.000000 0.000000 0.457271
    8 -1.919257 -12.688519 28.890223 -1.495185 -5.717841 -0.348045
    9 0.096944 -8.450418 -0.009365 0.287587 -0.920566 0.222638
    10 19.223891 25.284894 -22.451752 0.578430 0.098638 -0.792938
    11 1.257180 8.762585 -0.153713 -1.570562 0.002683 -1.566807
    12 -0.488518 -2.755602 -0.228260 -0.912721 0.017679 -0.333533
    13 0.039887 -1.479790 0.029854 -1.748663 0.000000 0.000001
    14 0.028786 -1.075731 -0.023109 0.002099 0.000000 0.000000
    15 0.250027 -2.820665 -0.238396 -0.542709 0.010094 -0.304331
    16 -0.049759 -1.680544 0.100479 -2.059934 0.000000 -0.000002
    17 -0.034142 -1.148312 0.084782 -0.502850 0.000000 0.000000
    18 0.957766 -2.746780 -0.090302 0.295265 0.111199 -0.173277
    19 -0.033420 -1.397129 -0.011257 -1.409188 0.000000 -0.000001
    20 -0.022360 -0.957436 0.018784 -0.719458 0.000000 0.000000
    21 -1.180681 -2.507217 -0.193859 -1.441117 0.170544 -0.457493
    22 -0.024967 -1.123934 0.017597 -0.703057 0.000000 0.000001
    23 -0.020057 -0.890968 0.010090 -0.715137 0.000000 0.000000
    24 0.583510 -1.197277 0.185379 0.245908 -0.934494 -0.500771
    25 1.535927 0.010246 0.005009 -0.156714 0.038531 -1.190106
    26 1.100771 0.004527 -0.010679 -0.007254 0.014511 -0.287578
    27 -0.192357 -0.186993 -0.167774 3.368825 5.890604 -1.329850
    28 0.447953 -2.798986 -0.200443 -1.272932 -0.017479 0.389985
    29 -0.032909 -1.480204 0.004940 -0.594349 0.000000 0.000002
    30 -0.027022 -1.076920 -0.020210 -0.346317 0.000000 0.000000
    31 -0.249534 -2.846964 -0.174213 -0.820104 -0.013739 0.322756
    32 0.043235 -1.683941 0.096012 -1.142369 0.002823 -0.000167
    33 0.031729 -1.160830 0.058838 -0.344228 0.000642 0.008372
    34 -0.963866 -2.785145 -0.085350 0.183164 0.158981 0.144210
    35 0.028479 -1.403067 0.006271 -1.582713 0.000000 0.000000
    36 0.021413 -0.957781 0.020046 -0.677392 0.000000 0.000000
    37 1.164475 -2.543940 -0.170330 -0.870241 -0.217740 0.364457
    38 0.024032 -1.129042 0.017807 -0.852712 0.000000 0.000001
    39 0.014898 -0.883989 -0.019848 -0.274312 0.000000 0.000000
    40 -0.575051 -1.244945 0.110315 -0.158687 0.144196 -2.817625
    41 1.522835 0.058681 0.016848 0.141007 -0.200781 0.483853
    42 1.117947 0.048424 -0.005766 0.026243 -0.083347 0.074327
    43 0.063732 -0.150762 -0.063730 0.448864 -0.015515 1.433193
    44 -1.393470 8.839177 -0.239433 1.580804 -0.005023 -1.566847
  time 24
    0 1.833241 0.014360 -42.530646 0.000000 0.000000 0.000000
    1 11.669550 -1.944043 31.314474 0.634005 -2.797650 -1.379730
    2 -0.071921 -8.498736 -0.104130 0.004050 0.725507 -0.857606
    3 1.279076 -2.919489 0.865077 -0.267892 -0.222057 -3.738209
    4 -3.112814 0.806304 0.000001 0.000000 0.000000 2.037040
    5 -1.613795 3.251794 0.000001 0.000000 0.000000 0.467615
    6 -0.521923 1.011393 0.000000 0.000002 0.000000 0.727008
    7 -3.109819 2.377850 0.350933 0.000000 0.000000 0.457271
    8 -1.899725 -12.676800 28.878504 -1.495185 -5.717841 -0.348045
    9 0.096944 -8.450418 -0.009365 0.287587 -0.920566 0.222638
    10 19.223891 25.284894 -22.451752 0.578430 0.098638 -0.792938
    11 1.257180 8.762585 -0.153713 -1.570562 0.002683 -1.566807
    12 -0.488518 -2.755602 -0.228260 -0.912721 0.017679 -0.333533
    13 0.039887 -1.479790 0.029854 -1.748715 0.000000 0.000001
    14 0.028786 -1.075731 -0.023109 0.002099 0.000000 0.000000
    15 0.250027 -2.820665 -0.238396 -0.542709 0.010094 -0.304331
    16 -0.049759 -1.680544 0.100479 -2.059934 0.000000 -0.000002
    17 -0.034142 -1.148312 0.084782 -0.502850 0.000000 0.000000
    18 0.957766 -2.746780 -0.090302 0.314890 0.111199 -0.173277
    19 -0.033420 -1.397129 -0.011257 -1.368871 0.000000 -0.000001
    20 -0.022360 -0.957436 0.018784 -0.702396 0.000000 0.000000
    21 -1.180681 -2.507217 -0.193859 -1.441117 0.170544 -0.457493
    22 -0.024967 -1.123934 0.017597 -0.703057 0.000000 0.000001
    23 -0.020057 -0.890968 0.010090 -0.715137 0.000000 0.000000
    24 0.583510 -1.197277 0.185379 0.245908 -0.934494 -0.500771
    25 1.535927 0.010246 0.005009 -0.156714 0.038531 -1.190106
    26 1.100771 0.004527 -0.010679 -0.007254 0.014511 -0.287578
    27 -0.192357 -0.186993 -0.167774 3.368825 5.890604 -1.329850
    28 0.447953 -2.798986 -0.200443 -1.272932 -0.017479 0.389985
    29 -0.032909 -1.480204 0.004940 -0.594349 0.000000 0.000002
    30 -0.027022 -1.076920 -0.020210 -0.346317 0.000000 0.000000
    31 -0.249534 -2.846964 -0.174213 -0.820104 -0.013739 0.322756
    32 0.043235 -1.683941 0.096012 -1.142369 0.002823 -0.000167
    33 0.031729 -1.160830 0.058838 -0.344228 0.000642 0.008372
    34 -0.963866 -2.785145 -0.085350 0.183164 0.158981 0.144210
    35 0.028479 -1.403067 0.006271 -1.582713 0.000000 0.000000
    36 0.021413 -0.957781 0.020046 -0.677392 0.000000 0.000000
    37 1.164475 -2.543940 -0.170330 -0.870241 -0.217740 0.364457
    38 0.024032 -1.129042 0.017807 -0.852712 0.000000 0.000001
    39 0.014898 -0.883989 -0.019848 -0.274312 0.000000 0.000000
    40 -0.575051 -1.244945 0.110315 -0.158768 0.148184 -2.818280
    41 1.522835 0.058681 0.016848 0.141007 -0.200781 0.483853
    42 1.117947 0.048424 -0.005766 0.026243 -0.083347 0.074327
    43 0.063732 -0.150762 -0.063730 0.448864 -0.015515 1.433193
    44 -1.393470 8.839177 -0.239433 1.580804 -0.005023 -1.566847
  time 25
    0 1.833241 0.014360 -42.530646 0.000000 0.000000 0.000000
    1 11.685176 -1.940136 31.334006 0.634005 -2.797650 -1.379730
    2 -0.071921 -8.498736 -0.104130 0.001962 0.732905 -0.860431
    3 1.279076 -2.919489 0.865077 -0.267837 -0.222057 -3.738209
    4 -3.112814 0.806304 0.000001 0.000000 0.000000 2.037040
    5 -1.613795 3.251794 0.000001 0.000000 0.000000 0.467615
    6 -0.521923 1.011393 0.000000 0.000002 0.000000 0.727008
    7 -3.109819 2.377850 0.350933 0.000000 0.000000 0.457271
    8 -1.880193 -12.672893 28.866785 -1.495185 -5.717841 -0.348045
    9 0.096944 -8.450418 -0.009365 0.287587 -0.920566 0.222638
    10 19.223891 25.284894 -22.451752 0.578430 0.098638 -0.792938
    11 1.257180 8.762585 -0.153713 -1.570562 0.002683 -1.566807
    12 -0.488518 -2.755602 -0.228260 -0.912721 0.017679 -0.333533
    13 0.039887 -1.479790 0.029854 -1.748715 0.000000 0.000001
    14 0.028786 -1.075731 -0.023109 0.002099 0.000000 0.000000
    15 0.250027 -2.820665 -0.238396 -0.542709 0.010094 -0.304331
    16 -0.049759 -1.680544 0.100479 -2.059934 0.000000 -0.000002
    17 -0.034142 -1.148312 0.084782 -0.502864 0.000000 0.000000
    18 0.957766 -2.746780 -0.090302 0.332155 0.111199 -0.173277
    19 -0.033420 -1.397129 -0.011257 -1.324994 0.000000 -0.000001
    20 -0.022360 -0.957436 0.018784 -0.683800 0.000000 0.000000
    21 -1.180681 -2.507217 -0.193859 -1.441117 0.170544 -0.457493
    22 -0.024967 -1.123934 0.017597 -0.703057 0.000000 0.000001
    23 -0.020057 -0.890968 0.010090 -0.715137 0.000000 0.000000
    24 0.583510 -1.197277 0.185379 0.245908 -0.934494 -0.500771
    25 1.535927 0.010246 0.005009 -0.156714 0.038531 -1.190106
    26 1.100771 0.004527 -0.010679 -0.007254 0.014511 -0.287578
    27 -0.192357 -0.186993 -0.167774 3.368825 5.890604 -1.329850
    28 0.447953 -2.798986 -0.200443 -1.272932 -0.017479 0.389985
    29 -0.032909 -1.480204 0.004940 -0.594349 0.000000 0.000002
    30 -0.027022 -1.076920 -0.020210 -0.346317 0.000000 0.000000
    31 -0.249534 -2.846964 -0.174213 -0.820104 -0.013739 0.322756
    32 0.043235 -1.683941 0.096012 -1.142369 0.002823 -0.000167
    33 0.031729 -1.160830 0.058838 -0.344228 0.000642 0.008372
    34 -0.963866 -2.785145 -0.085350 0.183164 0.158981 0.144210
    35 0.028479 -1.403067 0.006271 -1.582713 0.000000 0.000000
    36 0.021413 -0.957781 0.020046 -0.677392 0.000000 0.000000
    37 1.164475 -2.543940 -0.170330 -0.870241 -0.217740 0.364457
    38 0.024032 -1.129042 0.017807 -0.852712 0.000000 0.000001
    39 0.014898 -0.883989 -0.019848 -0.274312 0.000000 0.000000
    40 -0.575051 -1.244945 0.110315 -0.158848 0.151290 -2.818780
    41 1.522835 0.058681 0.016848 0.141007 -0.200781 0.483853
    42 1.117947 0.048424 -0.005766 0.026243 -0.083347 0.074327
    43 0.063732 -0.150762 -0.063730 0.448864 -0.015515 1.433193
    44 -1.393470 8.839177 -0.239433 1.580804 -0.005023 -1.566847
  time 26
    0 1.833241 0.014360 -42.530646 0.000000 0.000000 0.000000
    1 11.696895 -1.936230 31.353538 0.634005 -2.797650 -1.379730
    2 -0.071921 -8.498736 -0.104130 -0.000147 0.740282 -0.863285
    3 1.279076 -2.919489 0.865077 -0.267837 -0.222057 -3.738209
    4 -3.112814 0.806304 0.000001 0.000000 0.000000 2.037040
    5 -1.613795 3.251794 0.000001 0.000000 0.000000 0.467615
    6 -0.521923 1.011393 0.000000 0.000002 0.000000 0.727008
    7 -3.109819 2.377850 0.350933 0.000000 0.000000 0.457271
    8 -1.856755 -12.668987 28.855066 -1.495185 -5.717841 -0.348045
    9 0.096944 -8.450418 -0.009365 0.287587 -0.920566 0.222638
    10 19.223891 25.284894 -22.451752 0.578430 0.098638 -0.792938
    11 1.257180 8.762585 -0.153713 -1.570562 0.002683 -1.566807
    12 -0.488518 -2.755602 -0.228260 -0.912721 0.017679 -0.333533
    13 0.039887 -1.479790 0.029854 -1.748715 0.000000 0.000001
    14 0.028786 -1.075731 -0.023109 0.002099 0.000000 0.000000
    15 0.250027 -2.820665 -0.238396 -0.542709 0.010094 -0.304331
    16 -0.049759 -1.680544 0.100479 -2.059934 0.000000 -0.000002
    17 -0.034142 -1.148312 0.084782 -0.502850 0.000000 0.000000
    18 0.957766 -2.746780 -0.090302 0.346861 0.111199 -0.173277
    19 -0.033420 -1.397129 -0.011257 -1.281071 0.000000 -0.000001
    20 -0.022360 -0.957436 0.018784 -0.665226 0.000000 0.000000
    21 -1.180681 -2.507217 -0.193859 -1.441117 0.170544 -0.457493
    22 -0.024967 -1.123934 0.017597 -0.703057 0.000000 0.000001
    23 -0.020057 -0.890968 0.010090 -0.715137 0.000000 0.000000
    24 0.583510 -1.197277 0.185379 0.245908 -0.934494 -0.500771
    25 1.535927 0.010246 0.005009 -0.156714 0.038531 -1.190106
    26 1.100771 0.004527 -0.010679 -0.007254 0.014511 -0.287578
    27 -0.192357 -0.186993 -0.167774 3.368825 5.890604 -1.329850
    28 0.447953 -2.798986 -0.200443 -1.272932 -0.017479 0.389985
    29 -0.032909 -1.480204 0.004940 -0.594349 0.000000 0.000002
    30 -0.027022 -1.076920 -0.020210 -0.346317 0.000000 0.000000
    31 -0.249534 -2.846964 -0.174213 -0.820104 -0.013739 0.322756
    32 0.043235 -1.683941 0.096012 -1.142369 0.002823 -0.000167
    33 0.031729 -1.160830 0.058838 -0.344228 0.000642 0.008372
    34 -0.963866 -2.785145 -0.085350 0.183164 0.158981 0.144210
    35 0.028479 -1.403067 0.006271 -1.582713 0.000000 0.000000
    36 0.021413 -0.957781 0.020046 -0.677392 0.000000 0.000000
    37 1.164475 -2.543940 -0.170330 -0.870241 -0.217740 0.364457
    38 0.024032 -1.129042 0.017807 -0.852712 0.000000 0.000001
    39 0.014898 -0.883989 -0.019848 -0.274312 0.000000 0.000000
    40 -0.575051 -1.244945 0.110315 -0.158889 0.153605 -2.819154
    41 1.522835 0.058681 0.016848 0.141007 -0.200781 0.483853
    42 1.117947 0.048424 -0.005766 0.026243 -0.083347 0.074327
    43 0.063732 -0.150762 -0.063730 0.448864 -0.015515 1.433193
    44 -1.393470 8.839177 -0.239433 1.580804 -0.005023 -1.566847
  time 27
    0 1.833241 0.014360 -42.530646 0.000000 0.000000 0.000000
    1 11.708614 -1.932324 31.373070 0.634005 -2.797650 -1.379730
    2 -0.071921 -8.498736 -0.104130 -0.002114 0.747066 -0.865931
    3 1.279076 -2.919489 0.865077 -0.267837 -0.222057 -3.738209
    4 -3.112814 0.806304 0.000001 0.000000 0.000000 2.037040
    5 -1.613795 3.251794 0.000001 0.000000 0.000000 0.467615
    6 -0.521923 1.011393 0.000000 0.000002 0.000000 0.727008
    7 -3.109819 2.377850 0.350933 0.000000 0.000000 0.457271
    8 -1.837223 -12.665080 28.843347 -1.495185 -5.717841 -0.348045
    9 0.096944 -8.450418 -0.009365 0.287587 -0.920566 0.222638
    10 19.223891 25.284894 -22.451752 0.578430 0.098638 -0.792938
    11 1.257180 8.762585 -0.153713 -1.570562 0.002683 -1.566807
    12 -0.488518 -2.755602 -0.228260 -0.912721 0.017679 -0.333533
    13 0.039887 -1.479790 0.029854 -1.748663 0.000000 0.000001
    14 0.028786 -1.075731 -0.023109 0.002099 0.000000 0.000000
    15 0.250027 -2.820665 -0.238396 -0.542709 0.010094 -0.304331
    16 -0.049759 -1.680544 0.100479 -2.059934 0.000000 -0.000002
    17 -0.034142 -1.148312 0.084782 -0.502864 0.000000 0.000000
    18 0.957766 -2.746780 -0.090302 0.358731 0.111199 -0.173277
    19 -0.033420 -1.397129 -0.011257 -1.240754 0.000000 -0.000001
    20 -0.022360 -0.957436 0.018784 -0.648142 0.000000 0.000000
    21 -1.180681 -2.507217 -0.193859 -1.441117 0.170544 -0.457493
    22 -0.024967 -1.123934 0.017597 -0.703057 0.000000 0.000001
    23 -0.020057 -0.890968 0.010090 -0.715137 0.000000 0.000000
    24 0.583510 -1.197277 0.185379 0.245908 -0.934494 -0.500771
    25 1.535927 0.010246 0.005009 -0.156714 0.038531 -1.190106
    26 1.100771 0.004527 -0.010679 -0.007254 0.014511 -0.287578
    27 -0.192357 -0.186993 -0.167774 3.368825 5.890604 -1.329850
    28 0.447953 -2.798986 -0.200443 -1.272932 -0.017479 0.389985
    29 -0.032909 -1.480204 0.004940 -0.594349 0.000000 0.000002
    30 -0.027022 -1.076920 -0.020210 -0.346317 0.000000 0.000000
    31 -0.249534 -2.846964 -0.174213 -0.820104 -0.013739 0.322756
    32 0.043235 -1.683941 0.096012 -1.142369 0.002823 -0.000167
    33 0.031729 -1.160830 0.058838 -0.344228 0.000642 0.008372
    34 -0.963866 -2.785145 -0.085350 0.183164 0.158981 0.144210
    35 0.028479 -1.403067 0.006271 -1.582713 0.000000 0.000000
    36 0.021413 -0.957781 0.020046 -0.677392 0.000000 0.000000
    37 1.164475 -2.543940 -0.170330 -0.870241 -0.217740 0.364457
    38 0.024032 -1.129042 0.017807 -0.852712 0.000000 0.000001
    39 0.014898 -0.883989 -0.019848 -0.274312 0.000000 0.000000
    40 -0.575051 -1.244945 0.110315 -0.158929 0.155240 -2.819404
    41 1.522835 0.058681 0.016848 0.141007 -0.200781 0.483853
    42 1.117947 0.048424 -0.005766 0.026243 -0.083347 0.074327
    43 0.063732 -0.150762 -0.063730 0.448864 -0.015515 1.433193
    44 -1.393470 8.839177 -0.239433 1.580804 -0.005023 -1.566847
  time 28
    0 1.833241 0.014360 -42.530646 0.000000 0.000000 0.000000
    1 11.720333 -1.928417 31.388695 0.634005 -2.797650 -1.379730
    2 -0.071921 -8.498736 -0.104130 -0.003776 0.752644 -0.868132
    3 1.279076 -2.919489 0.865077 -0.267837 -0.222057 -3.738209
    4 -3.112814 0.806304 0.000001 0.000000 0.000000 2.037040
    5 -1.613795 3.251794 0.000001 0.000000 0.000000 0.467615
    6 -0.521923 1.011393 0.000000 0.000002 0.000000 0.727008
    7 -3.109819 2.377850 0.350933 0.000000 0.000000 0.457271
    8 -1.821597 -12.661174 28.831628 -1.495185 -5.717841 -0.348045
    9 0.096944 -8.450418 -0.009365 0.287587 -0.920566 0.222638
    10 19.223891 25.284894 -22.451752 0.578430 0.098638 -0.792938
    11 1.257180 8.762585 -0.153713 -1.570562 0.002683 -1.566807
    12 -0.488518 -2.755602 -0.228260 -0.912721 0.017679 -0.333533
    13 0.039887 -1.479790 0.029854 -1.748663 0.000000 0.000001
    14 0.028786 -1.075731 -0.023109 0.002099 0.000000 0.000000
    15 0.250027 -2.820665 -0.238396 -0.542709 0.010094 -0.304331
    16 -0.049759 -1.680544 0.100479 -2.059934 0.000000 -0.000002
    17 -0.034142 -1.148312 0.084782 -0.502864 0.000000 0.000000
    18 0.957766 -2.746780 -0.090302 0.367514 0.111199 -0.173277
    19 -0.033420 -1.397129 -0.011257 -1.207511 0.000000 -0.000001
    20 -0.022360 -0.957436 0.018784 -0.634080 0.000000 0.000000
    21 -1.180681 -2.507217 -0.193859 -1.441117 0.170544 -0.457493
    22 -0.024967 -1.123934 0.017597 -0.703057 0.000000 0.000001
    23 -0.020057 -0.890968 0.010090 -0.715137 0.000000 0.000000
    24 0.583510 -1.197277 0.185379 0.245908 -0.934494 -0.500771
    25 1.535927 0.010246 0.005009 -0.156714 0.038531 -1.190106
    26 1.100771 0.004527 -0.010679 -0.007254 0.014511 -0.287578
    27 -0.192357 -0.186993 -0.167774 3.368825 5.890604 -1.329850
    28 0.447953 -2.798986 -0.200443 -1.272932 -0.017479 0.389985
    29 -0.032909 -1.480204 0.004940 -0.594349 0.000000 0.000002
    30 -0.027022 -1.076920 -0.020210 -0.346317 0.000000 0.000000
    31 -0.249534 -2.846964 -0.174213 -0.820104 -0.013739 0.322756
    32 0.043235 -1.683941 0.096012 -1.142369 0.002823 -0.000167
    33 0.031729 -1.160830 0.058838 -0.344228 0.000642 0.008372
    34 -0.963866 -2.785145 -0.085350 0.183164 0.158981 0.144210
    35 0.028479 -1.403067 0.006271 -1.582713 0.000000 0.000000
    36 0.021413 -0.957781 0.020046 -0.677392 0.000000 0.000000
    37 1.164475 -2.543940 -0.170330 -0.870241 -0.217740 0.364457
    38 0.024032 -1.129042 0.017807 -0.852712 0.000000 0.000001
    39 0.014898 -0.883989 -0.019848 -0.274312 0.000000 0.000000
    40 -0.575051 -1.244945 0.110315 -0.158969 0.156288 -2.819560
    41 1.522835 0.058681 0.016848 0.141007 -0.200781 0.483853
    42 1.117947 0.048424 -0.005766 0.026243 -0.083347 0.074327
    43 0.063732 -0.150762 -0.063730 0.448864 -0.015515 1.433193
    44 -1.393470 8.839177 -0.239433 1.580804 -0.005023 -1.566847
  time 29
    0 1.833241 0.014360 -42.530646 0.000000 0.000000 0.000000
    1 11.724240 -1.928417 31.400414 0.634005 -2.797650 -1.379730
    2 -0.071921 -8.498736 -0.104130 -0.004912 0.756421 -0.869648
    3 1.279076 -2.919489 0.865077 -0.267837 -0.222057 -3.738209
    4 -3.112814 0.806304 0.000001 0.000000 0.000000 2.037040
    5 -1.613795 3.251794 0.000001 0.000000 0.000000 0.467615
    6 -0.521923 1.011393 0.000000 0.000002 0.000000 0.727008
    7 -3.109819 2.377850 0.350933 0.000000 0.000000 0.457271
    8 -1.813785 -12.661174 28.827721 -1.495185 -5.717841 -0.348045
    9 0.096944 -8.450418 -0.009365 0.287587 -0.920566 0.222638
    10 19.223891 25.284894 -22.451752 0.578430 0.098638 -0.792938
    11 1.257180 8.762585 -0.153713 -1.570562 0.002683 -1.566807
    12 -0.488518 -2.755602 -0.228260 -0.912721 0.017679 -0.333533
    13 0.039887 -1.479790 0.029854 -1.748715 0.000000 0.000001
    14 0.028786 -1.075731 -0.023109 0.002099 0.000000 0.000000
    15 0.250027 -2.820665 -0.238396 -0.542709 0.010094 -0.304331
    16 -0.049759 -1.680544 0.100479 -2.059934 0.000000 -0.000002
    17 -0.034142 -1.148312 0.084782 -0.502864 0.000000 0.000000
    18 0.957766 -2.746780 -0.090302 0.372960 0.111199 -0.173277
    19 -0.033420 -1.397129 -0.011257 -1.184994 0.000000 -0.000001
    20 -0.022360 -0.957436 0.018784 -0.624553 0.000000 0.000000
    21 -1.180681 -2.507217 -0.193859 -1.441117 0.170544 -0.457493
    22 -0.024967 -1.123934 0.017597 -0.703057 0.000000 0.000001
    23 -0.020057 -0.890968 0.010090 -0.715137 0.000000 0.000000
    24 0.583510 -1.197277 0.185379 0.245908 -0.934494 -0.500771
    25 1.535927 0.010246 0.005009 -0.156714 0.038531 -1.190106
    26 1.100771 0.004527 -0.010679 -0.007254 0.014511 -0.287578
    27 -0.192357 -0.186993 -0.167774 3.368825 5.890604 -1.329850
    28 0.447953 -2.798986 -0.200443 -1.272932 -0.017479 0.389985
    29 -0.032909 -1.480204 0.004940 -0.594349 0.000000 0.000002
    30 -0.027022 -1.076920 -0.020210 -0.346317 0.000000 0.000000
    31 -0.249534 -2.846964 -0.174213 -0.820104 -0.013739 0.322756
    32 0.043235 -1.683941 0.096012 -1.142369 0.002823 -0.000167
    33 0.031729 -1.160830 0.058838 -0.344228 0.000642 0.008372
    34 -0.963866 -2.785145 -0.085350 0.183164 0.158981 0.144210
    35 0.028479 -1.403067 0.006271 -1.582713 0.000000 0.000000
    36 0.021413 -0.957781 0.020046 -0.677392 0.000000 0.000000
    37 1.164475 -2.543940 -0.170330 -0.870241 -0.217740 0.364457
    38 0.024032 -1.129042 0.017807 -0.852712 0.000000 0.000001
    39 0.014898 -0.883989 -0.019848 -0.274312 0.000000 0.000000
    40 -0.575051 -1.244945 0.110315 -0.158969 0.156857 -2.819654
    41 1.522835 0.058681 0.016848 0.141007 -0.200781 0.483853
    42 1.117947 0.048424 -0.005766 0.026243 -0.083347 0.074327
    43 0.063732 -0.150762 -0.063730 0.448864 -0.015515 1.433193
    44 -1.393470 8.839177 -0.239433 1.580804 -0.005023 -1.566847
  time 30
    0 1.833241 0.014360 -42.530646 0.000000 0.000000 0.000000
    1 11.728146 -1.928417 31.404320 0.634005 -2.797650 -1.379730
    2 -0.071921 -8.498736 -0.104130 -0.005338 0.757825 -0.870213
    3 1.279076 -2.919489 0.865077 -0.267837 -0.222057 -3.738209
    4 -3.112814 0.806304 0.000001 0.000000 0.000000 2.037040
    5 -1.613795 3.251794 0.000001 0.000000 0.000000 0.467615
    6 -0.521923 1.011393 0.000000 0.000002 0.000000 0.727008
    7 -3.109819 2.377850 0.350933 0.000000 0.000000 0.457271
    8 -1.809878 -12.661174 28.823815 -1.495185 -5.717841 -0.348045
    9 0.096944 -8.450418 -0.009365 0.287587 -0.920566 0.222638
    10 19.223891 25.284894 -22.451752 0.578430 0.098638 -0.792938
    11 1.257180 8.762585 -0.153713 -1.570562 0.002683 -1.566807
    12 -0.488518 -2.755602 -0.228260 -0.912721 0.017679 -0.333533
    13 0.039887 -1.479790 0.029854 -1.748663 0.000000 0.000001
    14 0.028786 -1.075731 -0.023109 0.002099 0.000000 0.000000
    15 0.250027 -2.820665 -0.238396 -0.542709 0.010094 -0.304331
    16 -0.049759 -1.680544 0.100479 -2.059934 0.000000 -0.000002
    17 -0.034142 -1.148312 0.084782 -0.502850 0.000000 0.000000
    18 0.957766 -2.746780 -0.090302 0.374842 0.111199 -0.173277
    19 -0.033420 -1.397129 -0.011257 -1.176672 0.000000 -0.000001
    20 -0.022360 -0.957436 0.018784 -0.621026 0.000000 0.000000
    21 -1.180681 -2.507217 -0.193859 -1.441117 0.170544 -0.457493
    22 -0.024967 -1.123934 0.017597 -0.703057 0.000000 0.000001
    23 -0.020057 -0.890968 0.010090 -0.715137 0.000000 0.000000
    24 0.583510 -1.197277 0.185379 0.245908 -0.934494 -0.500771
    25 1.535927 0.010246 0.005009 -0.156714 0.038531 -1.190106
    26 1.100771 0.004527 -0.010679 -0.007254 0.014511 -0.287578
    27 -0.192357 -0.186993 -0.167774 3.368825 5.890604 -1.329850
    28 0.447953 -2.798986 -0.200443 -1.272932 -0.017479 0.389985
    29 -0.032909 -1.480204 0.004940 -0.594349 0.000000 0.000002
    30 -0.027022 -1.076920 -0.020210 -0.346317 0.000000 0.000000
    31 -0.249534 -2.846964 -0.174213 -0.820104 -0.013739 0.322756
    32 0.043235 -1.683941 0.096012 -1.142369 0.002823 -0.000167
    33 0.031729 -1.160830 0.058838 -0.344228 0.000642 0.008372
    34 -0.963866 -2.785145 -0.085350 0.183164 0.158981 0.144210
    35 0.028479 -1.403067 0.006271 -1.582713 0.000000 0.000000
    36 0.021413 -0.957781 0.020046 -0.677392 0.000000 0.000000
    37 1.164475 -2.543940 -0.170330 -0.870241 -0.217740 0.364457
    38 0.024032 -1.129042 0.017807 -0.852712 0.000000 0.000001
    39 0.014898 -0.883989 -0.019848 -0.274312 0.000000 0.000000
    40 -0.575051 -1.244945 0.110315 -0.158969 0.157023 -2.819685
    41 1.522835 0.058681 0.016848 0.141007 -0.200781 0.483853
    42 1.117947 0.048424 -0.005766 0.026243 -0.083347 0.074327
    43 0.063732 -0.150762 -0.063730 0.448864 -0.015515 1.433193
    44 -1.393470 8.839177 -0.239433 1.580804 -0.005023 -1.566847
end
