version 1
nodes
  0 "root" -1
  1 "Bone01" 0
  2 "Bone_Lefthand" 1
  3 "Bone02" 2
  4 "Bone24" 3
  5 "Bone16" 3
  6 "Bone26" 3
  7 "Bone34" 3
  8 "Dummy01" 3
  9 "Bone08" 8
  10 "Bone03" 3
  11 "Bone_L_Upper" 1
  12 "Bone13" 2
  13 "Bone14" 12
  14 "Bone15" 13
  15 "Bone17" 2
  16 "Bone18" 15
  17 "Bone19" 16
  18 "Bone21" 2
  19 "Bone22" 18
  20 "Bone23" 19
  21 "Bone09" 2
  22 "Bone10" 21
  23 "Bone11" 22
  24 "Bone05" 2
  25 "Bone06" 24
  26 "Bone07" 25
  27 "Bone_Se_Hand-L" 2
  28 "Bone04" 0
  29 "Bone_Righthand" 28
  30 "Bone39" 29
  31 "Bone40" 30
  32 "Bone41" 31
  33 "Bone35" 29
  34 "Bone36" 33
  35 "Bone37" 34
  36 "Bone31" 29
  37 "Bone32" 36
  38 "Bone33" 37
  39 "Bone43" 29
  40 "Bone44" 39
  41 "Bone45" 40
  42 "Bone27" 29
  43 "Bone28" 42
  44 "Bone29" 43
  45 "Bone_Se_Hand-R" 29
  46 "Bone_R_Upper" 28
end
skeleton
  time 0
    0 -0.999768 -1.867275 2.937151 0.000000 0.000000 0.000000
    1 8.542158 0.689384 -8.602877 -0.173613 -1.612728 -0.022073
    2 -0.071918 -8.498730 -0.104137 0.149145 0.256984 0.031341
    3 2.326608 -5.978026 1.161003 0.229329 0.050133 -1.560828
    4 8.068350 -0.889454 0.636832 0.000000 0.000000 -1.570796
    5 -1.093079 -1.020534 0.000000 0.000000 0.000000 -1.570796
    6 0.332523 0.688256 1.169537 0.000000 0.000000 -1.570797
    7 -3.883944 0.696199 1.094116 0.000000 0.000000 1.570796
    8 -2.125080 1.560641 0.000000 0.000000 0.000000 1.570796
    9 0.000000 0.000000 0.000000 0.000000 0.000000 0.000000
    10 2.303347 -0.775169 0.632548 3.141592 -1.570796 0.000000
    11 1.257180 8.762585 -0.153713 -1.570562 0.002683 -1.566807
    12 -0.488518 -2.755602 -0.228260 -1.046804 -0.202562 -0.209541
    13 0.039887 -1.479790 0.029854 -1.943778 0.000000 0.000001
    14 0.028786 -1.075731 -0.023109 -0.173679 0.000000 0.000000
    15 0.250027 -2.820665 -0.238396 -0.797118 -0.167517 -0.114938
    16 -0.049759 -1.680544 0.100479 -1.774062 0.000000 -0.000002
    17 -0.034142 -1.148312 0.084782 -0.925906 0.000000 0.000000
    18 0.957766 -2.746780 -0.090302 -0.139536 -0.162277 0.053939
    19 -0.033420 -1.397129 -0.011257 -0.521004 0.000000 -0.000001
    20 -0.022360 -0.957436 0.018784 -0.975475 0.000000 0.000000
    21 -1.180681 -2.507217 -0.193859 -0.960196 -0.081516 -0.261329
    22 -0.024967 -1.123934 0.017597 -1.635831 0.000000 0.000001
    23 -0.020057 -0.890968 0.010090 -0.677870 0.000000 0.000000
    24 0.583510 -1.197277 0.185379 0.188028 -0.850416 -1.301860
    25 1.535927 0.010246 0.005009 -0.002964 -0.012979 -0.506650
    26 1.100771 0.004527 -0.010679 -0.016207 0.000369 -1.371740
    27 0.120153 -0.050270 -0.054489 0.287569 3.110905 1.561085
    28 0.596445 -11.250975 -12.458695 -1.885221 -5.270863 -1.231923
    29 0.096944 -8.450418 -0.009365 0.146791 -1.328380 0.242747
    30 0.447953 -2.798986 -0.200443 -1.127266 -0.048016 0.185408
    31 -0.032909 -1.480204 0.004940 -1.739492 0.000000 0.000002
    32 -0.027022 -1.076920 -0.020210 -0.060489 0.000000 0.000000
    33 -0.249534 -2.846964 -0.174213 -0.749792 -0.055002 0.096913
    34 0.043235 -1.683941 0.096012 -1.901441 0.002823 -0.000167
    35 0.031729 -1.160830 0.058838 -0.355262 0.000642 0.008372
    36 -0.963866 -2.785145 -0.085350 -0.089607 0.106308 0.015262
    37 0.028479 -1.403067 0.006271 -1.682399 0.000000 0.000000
    38 0.021413 -0.957781 0.020046 -0.738188 0.000000 0.000000
    39 1.164475 -2.543940 -0.170330 -1.523254 -0.190582 0.231608
    40 0.024032 -1.129042 0.017807 -1.225022 0.000000 0.000001
    41 0.014898 -0.883989 -0.019848 -0.316775 0.000000 0.000000
    42 -0.586770 -1.264477 0.200161 0.172354 -0.158106 -2.744325
    43 1.522835 0.058681 0.016848 0.001410 0.008985 0.812634
    44 1.117947 0.048424 -0.005766 0.005054 -0.024155 -0.153264
    45 -0.139399 -0.111698 0.014397 1.203062 0.226005 1.577116
    46 -1.393470 8.839177 -0.239433 1.580804 -0.005023 -1.566847
  time 1
    0 -0.999768 -1.867275 2.937151 0.000000 0.000000 0.000000
    1 8.542158 2.490220 -8.247397 -0.496204 -1.587266 0.300461
    2 -0.071918 -8.498730 -0.104137 0.149145 0.256984 0.031341
    3 2.326608 -5.978026 1.161003 0.229329 0.050133 -1.560828
    4 8.068350 -0.889454 0.636832 -0.051119 -1.577003 -1.570796
    5 -1.093079 -1.020534 0.000000 0.000000 0.000000 -2.044842
    6 0.332523 0.688256 1.169537 -0.180045 -1.233145 -1.570797
    7 -3.883944 0.696199 1.094116 0.000000 0.000000 1.570796
    8 -2.125080 1.560641 0.000000 0.000000 0.000000 1.570796
    9 0.000000 0.000000 0.000000 0.000000 0.000000 0.000000
    10 2.303347 -0.775169 0.632548 3.141592 -1.570796 0.000000
    11 1.257180 8.762585 -0.153713 -1.570562 0.002683 -1.566807
    12 -0.488518 -2.755602 -0.228260 -1.046804 -0.202562 -0.209541
    13 0.039887 -1.479790 0.029854 -1.943778 0.000000 0.000001
    14 0.028786 -1.075731 -0.023109 -0.173679 0.000000 0.000000
    15 0.250027 -2.820665 -0.238396 -0.797118 -0.167517 -0.114938
    16 -0.049759 -1.680544 0.100479 -1.774062 0.000000 -0.000002
    17 -0.034142 -1.148312 0.084782 -0.925906 0.000000 0.000000
    18 0.957766 -2.746780 -0.090302 -0.139536 -0.162277 0.053939
    19 -0.033420 -1.397129 -0.011257 -1.035034 0.000000 -0.000001
    20 -0.022360 -0.957436 0.018784 -1.489563 0.000000 0.000000
    21 -1.180681 -2.507217 -0.193859 -0.960196 -0.081516 -0.261329
    22 -0.024967 -1.123934 0.017597 -1.635831 0.000000 0.000001
    23 -0.020057 -0.890968 0.010090 -0.677870 0.000000 0.000000
    24 0.583510 -1.197277 0.185379 0.188028 -0.850416 -1.301860
    25 1.535927 0.010246 0.005009 -0.002964 -0.012979 -0.506650
    26 1.100771 0.004527 -0.010679 -0.016207 0.000369 -1.371740
    27 0.120153 -0.050270 -0.054489 0.287569 3.110905 1.561085
    28 0.498786 -9.422794 -11.958679 -1.929199 -5.257108 -1.269285
    29 0.096944 -8.450418 -0.009365 0.146791 -1.328380 0.242747
    30 0.447953 -2.798986 -0.200443 -1.127266 -0.048016 0.185408
    31 -0.032909 -1.480204 0.004940 -1.739492 0.000000 0.000002
    32 -0.027022 -1.076920 -0.020210 -0.060489 0.000000 0.000000
    33 -0.249534 -2.846964 -0.174213 -0.749792 -0.055002 0.096913
    34 0.043235 -1.683941 0.096012 -1.901441 0.002823 -0.000167
    35 0.031729 -1.160830 0.058838 -0.355262 0.000642 0.008372
    36 -0.963866 -2.785145 -0.085350 -0.089607 0.106308 0.015262
    37 0.028479 -1.403067 0.006271 -1.682399 0.000000 0.000000
    38 0.021413 -0.957781 0.020046 -0.738188 0.000000 0.000000
    39 1.164475 -2.543940 -0.170330 -1.523254 -0.190582 0.231608
    40 0.024032 -1.129042 0.017807 -1.225022 0.000000 0.000001
    41 0.014898 -0.883989 -0.019848 -0.316775 0.000000 0.000000
    42 -0.586770 -1.264477 0.200161 0.189313 -0.137252 -2.859519
    43 1.522835 0.058681 0.016848 0.001410 0.008985 1.016383
    44 1.117947 0.048424 -0.005766 0.009105 -0.022933 -0.325009
    45 -0.139399 -0.111698 0.014397 1.203062 0.226005 1.577116
    46 -1.393470 8.839177 -0.239433 1.580804 -0.005023 -1.566847
  time 2
    0 -0.999768 -1.867275 2.937151 0.000000 0.000000 0.000000
    1 8.542158 3.076176 -9.759162 1.206020 -1.653745 -1.401099
    2 -0.071918 -8.498730 -0.104137 0.149145 0.256984 0.031341
    3 2.326608 -5.978026 1.161003 0.229329 0.050133 -1.560828
    4 8.068350 -0.889454 0.636832 -0.018674 -1.841396 -1.435418
    5 -1.093079 -1.020534 0.000000 0.000000 0.000000 -2.011988
    6 0.332523 0.688256 1.169537 -0.763952 -1.687663 -0.796414
    7 -3.883944 0.696199 1.094116 0.000000 0.000000 1.570796
    8 -2.125080 1.560641 0.000000 0.000000 0.000000 1.570796
    9 0.000000 0.000000 0.000000 0.000000 0.000000 0.000000
    10 2.303347 -0.775169 0.632548 3.141592 -1.570796 0.000000
    11 1.257180 8.762585 -0.153713 -1.570562 0.002683 -1.566807
    12 -0.488518 -2.755602 -0.228260 -1.046804 -0.202562 -0.209541
    13 0.039887 -1.479790 0.029854 -1.943778 0.000000 0.000001
    14 0.028786 -1.075731 -0.023109 -0.173679 0.000000 0.000000
    15 0.250027 -2.820665 -0.238396 -0.797118 -0.167517 -0.114938
    16 -0.049759 -1.680544 0.100479 -1.774062 0.000000 -0.000002
    17 -0.034142 -1.148312 0.084782 -0.925906 0.000000 0.000000
    18 0.957766 -2.746780 -0.090302 -0.139536 -0.162277 0.053939
    19 -0.033420 -1.397129 -0.011257 -1.035034 0.000000 -0.000001
    20 -0.022360 -0.957436 0.018784 -1.489563 0.000000 0.000000
    21 -1.180681 -2.507217 -0.193859 -0.960196 -0.081516 -0.261329
    22 -0.024967 -1.123934 0.017597 -1.635831 0.000000 0.000001
    23 -0.020057 -0.890968 0.010090 -0.677870 0.000000 0.000000
    24 0.583510 -1.197277 0.185379 0.188028 -0.850416 -1.301860
    25 1.535927 0.010246 0.005009 -0.002964 -0.012979 -0.506650
    26 1.100771 0.004527 -0.010679 -0.016207 0.000369 -1.371740
    27 0.120153 -0.050270 -0.054489 0.287569 3.110905 1.561085
    28 0.494879 -9.114191 -12.415725 -1.975772 -5.339931 -1.308176
    29 0.096944 -8.450418 -0.009365 0.146791 -1.328380 0.242747
    30 0.447953 -2.798986 -0.200443 -1.127266 -0.048016 0.185408
    31 -0.032909 -1.480204 0.004940 -1.739492 0.000000 0.000002
    32 -0.027022 -1.076920 -0.020210 -0.060489 0.000000 0.000000
    33 -0.249534 -2.846964 -0.174213 -0.749792 -0.055002 0.096913
    34 0.043235 -1.683941 0.096012 -1.901441 0.002823 -0.000167
    35 0.031729 -1.160830 0.058838 -0.355262 0.000642 0.008372
    36 -0.963866 -2.785145 -0.085350 -0.089607 0.106308 0.015262
    37 0.028479 -1.403067 0.006271 -1.682399 0.000000 0.000000
    38 0.021413 -0.957781 0.020046 -0.738188 0.000000 0.000000
    39 1.164475 -2.543940 -0.170330 -1.523254 -0.190582 0.231608
    40 0.024032 -1.129042 0.017807 -1.225022 0.000000 0.000001
    41 0.014898 -0.883989 -0.019848 -0.316775 0.000000 0.000000
    42 -0.586770 -1.264477 0.200161 0.189313 -0.137252 -2.859519
    43 1.522835 0.058681 0.016848 0.001410 0.008985 1.016383
    44 1.117947 0.048424 -0.005766 0.009105 -0.022933 -0.325009
    45 -0.139399 -0.111698 0.014397 1.203062 0.226005 1.577116
    46 -1.393470 8.839177 -0.239433 1.580804 -0.005023 -1.566847
  time 3
    0 -0.999768 -1.867275 2.937151 0.000000 0.000000 0.000000
    1 8.542158 2.712883 -9.388057 1.074613 -1.625366 -1.269896
    2 -0.071918 -8.498730 -0.104137 0.149145 0.256984 0.031341
    3 2.326608 -5.978026 1.161003 0.229329 0.050133 -1.560828
    4 8.068350 -0.889454 0.636832 0.001603 -1.847259 -1.254595
    5 -1.093079 -1.020534 0.000000 0.000000 0.000000 -1.929195
    6 0.332523 0.688256 1.169537 -0.430707 -1.972561 -0.878172
    7 -3.883944 0.696199 1.094116 0.000000 0.000000 1.570796
    8 -2.125080 1.560641 0.000000 0.000000 0.000000 1.570796
    9 0.000000 0.000000 0.000000 0.000000 0.000000 0.000000
    10 2.303347 -0.775169 0.632548 3.141592 -1.570796 0.000000
    11 1.257180 8.762585 -0.153713 -1.570562 0.002683 -1.566807
    12 -0.488518 -2.755602 -0.228260 -1.046804 -0.202562 -0.209541
    13 0.039887 -1.479790 0.029854 -1.943778 0.000000 0.000001
    14 0.028786 -1.075731 -0.023109 -0.173679 0.000000 0.000000
    15 0.250027 -2.820665 -0.238396 -0.797118 -0.167517 -0.114938
    16 -0.049759 -1.680544 0.100479 -1.774062 0.000000 -0.000002
    17 -0.034142 -1.148312 0.084782 -0.925906 0.000000 0.000000
    18 0.957766 -2.746780 -0.090302 -0.139536 -0.162277 0.053939
    19 -0.033420 -1.397129 -0.011257 -1.035034 0.000000 -0.000001
    20 -0.022360 -0.957436 0.018784 -1.489563 0.000000 0.000000
    21 -1.180681 -2.507217 -0.193859 -0.960196 -0.081516 -0.261329
    22 -0.024967 -1.123934 0.017597 -1.635831 0.000000 0.000001
    23 -0.020057 -0.890968 0.010090 -0.677870 0.000000 0.000000
    24 0.583510 -1.197277 0.185379 0.188028 -0.850416 -1.301860
    25 1.535927 0.010246 0.005009 -0.002964 -0.012979 -0.506650
    26 1.100771 0.004527 -0.010679 -0.016207 0.000369 -1.371740
    27 0.120153 -0.050270 -0.054489 0.287569 3.110905 1.561085
    28 0.502692 -9.395449 -12.423537 -1.958407 -5.311913 -1.293843
    29 0.096944 -8.450418 -0.009365 0.146791 -1.328380 0.242747
    30 0.447953 -2.798986 -0.200443 -1.127266 -0.048016 0.185408
    31 -0.032909 -1.480204 0.004940 -1.739492 0.000000 0.000002
    32 -0.027022 -1.076920 -0.020210 -0.060489 0.000000 0.000000
    33 -0.249534 -2.846964 -0.174213 -0.749792 -0.055002 0.096913
    34 0.043235 -1.683941 0.096012 -1.901441 0.002823 -0.000167
    35 0.031729 -1.160830 0.058838 -0.355262 0.000642 0.008372
    36 -0.963866 -2.785145 -0.085350 -0.089607 0.106308 0.015262
    37 0.028479 -1.403067 0.006271 -1.682399 0.000000 0.000000
    38 0.021413 -0.957781 0.020046 -0.738188 0.000000 0.000000
    39 1.164475 -2.543940 -0.170330 -1.523254 -0.190582 0.231608
    40 0.024032 -1.129042 0.017807 -1.225022 0.000000 0.000001
    41 0.014898 -0.883989 -0.019848 -0.316775 0.000000 0.000000
    42 -0.586770 -1.264477 0.200161 0.189313 -0.137252 -2.859519
    43 1.522835 0.058681 0.016848 0.001410 0.008985 1.016383
    44 1.117947 0.048424 -0.005766 0.009105 -0.022933 -0.325009
    45 -0.139399 -0.111698 0.014397 1.203062 0.226005 1.577116
    46 -1.393470 8.839177 -0.239433 1.580804 -0.005023 -1.566847
  time 4
    0 -0.999768 -1.867275 2.937151 0.000000 0.000000 0.000000
    1 8.542158 2.185523 -8.977888 0.639853 -1.595090 -0.835447
    2 -0.071918 -8.498730 -0.104137 0.149145 0.256984 0.031341
    3 2.326608 -5.978026 1.161003 0.229329 0.050133 -1.560828
    4 8.068350 -0.889454 0.636832 -0.094598 -1.694937 -1.036667
    5 -1.093079 -1.020534 0.000000 0.000000 0.000000 -1.820072
    6 0.332523 0.688256 1.169537 -0.343615 -2.130419 -0.782834
    7 -3.883944 0.696199 1.094116 0.000000 0.000000 1.570796
    8 -2.125080 1.560641 0.000000 0.000000 0.000000 1.570796
    9 0.000000 0.000000 0.000000 0.000000 0.000000 0.000000
    10 2.303347 -0.775169 0.632548 3.141592 -1.570796 0.000000
    11 1.257180 8.762585 -0.153713 -1.570562 0.002683 -1.566807
    12 -0.488518 -2.755602 -0.228260 -1.046804 -0.202562 -0.209541
    13 0.039887 -1.479790 0.029854 -1.943778 0.000000 0.000001
    14 0.028786 -1.075731 -0.023109 -0.173679 0.000000 0.000000
    15 0.250027 -2.820665 -0.238396 -0.797118 -0.167517 -0.114938
    16 -0.049759 -1.680544 0.100479 -1.774062 0.000000 -0.000002
    17 -0.034142 -1.148312 0.084782 -0.925906 0.000000 0.000000
    18 0.957766 -2.746780 -0.090302 -0.139536 -0.162277 0.053939
    19 -0.033420 -1.397129 -0.011257 -1.035034 0.000000 -0.000001
    20 -0.022360 -0.957436 0.018784 -1.489563 0.000000 0.000000
    21 -1.180681 -2.507217 -0.193859 -0.960196 -0.081516 -0.261329
    22 -0.024967 -1.123934 0.017597 -1.635831 0.000000 0.000001
    23 -0.020057 -0.890968 0.010090 -0.677870 0.000000 0.000000
    24 0.583510 -1.197277 0.185379 0.188028 -0.850416 -1.301860
    25 1.535927 0.010246 0.005009 -0.002964 -0.012979 -0.506650
    26 1.100771 0.004527 -0.010679 -0.016207 0.000369 -1.371740
    27 0.120153 -0.050270 -0.054489 0.287569 3.110905 1.561085
    28 0.502692 -9.813431 -12.427444 -1.940776 -5.279189 -1.279127
    29 0.096944 -8.450418 -0.009365 0.146791 -1.328380 0.242747
    30 0.447953 -2.798986 -0.200443 -1.127266 -0.048016 0.185408
    31 -0.032909 -1.480204 0.004940 -1.739492 0.000000 0.000002
    32 -0.027022 -1.076920 -0.020210 -0.060489 0.000000 0.000000
    33 -0.249534 -2.846964 -0.174213 -0.749792 -0.055002 0.096913
    34 0.043235 -1.683941 0.096012 -1.901441 0.002823 -0.000167
    35 0.031729 -1.160830 0.058838 -0.355262 0.000642 0.008372
    36 -0.963866 -2.785145 -0.085350 -0.089607 0.106308 0.015262
    37 0.028479 -1.403067 0.006271 -1.682399 0.000000 0.000000
    38 0.021413 -0.957781 0.020046 -0.738188 0.000000 0.000000
    39 1.164475 -2.543940 -0.170330 -1.523254 -0.190582 0.231608
    40 0.024032 -1.129042 0.017807 -1.225022 0.000000 0.000001
    41 0.014898 -0.883989 -0.019848 -0.316775 0.000000 0.000000
    42 -0.586770 -1.264477 0.200161 0.189313 -0.137252 -2.859519
    43 1.522835 0.058681 0.016848 0.001410 0.008985 1.016383
    44 1.117947 0.048424 -0.005766 0.009105 -0.022933 -0.325009
    45 -0.139399 -0.111698 0.014397 1.203062 0.226005 1.577116
    46 -1.393470 8.839177 -0.239433 1.580804 -0.005023 -1.566847
  time 5
    0 -0.999768 -1.867275 2.937151 0.000000 0.000000 0.000000
    1 8.542158 1.619100 -8.540375 -1.053955 -1.595368 0.858104
    2 -0.071918 -8.498730 -0.104137 0.149145 0.256984 0.031341
    3 2.326608 -5.978026 1.161003 0.229329 0.050133 -1.560828
    4 8.068350 -0.889454 0.636832 0.242674 -1.446892 -1.351909
    5 -1.093079 -1.020534 0.000000 0.000000 0.000000 -1.708216
    6 0.332523 0.688256 1.169537 -0.280170 -2.204212 -0.780490
    7 -3.883944 0.696199 1.094116 0.000000 0.000000 1.570796
    8 -2.125080 1.560641 0.000000 0.000000 0.000000 1.570796
    9 0.000000 0.000000 0.000000 0.000000 0.000000 0.000000
    10 2.303347 -0.775169 0.632548 3.141592 -1.570796 0.000000
    11 1.257180 8.762585 -0.153713 -1.570562 0.002683 -1.566807
    12 -0.488518 -2.755602 -0.228260 -1.046804 -0.202562 -0.209541
    13 0.039887 -1.479790 0.029854 -1.943778 0.000000 0.000001
    14 0.028786 -1.075731 -0.023109 -0.173679 0.000000 0.000000
    15 0.250027 -2.820665 -0.238396 -0.797118 -0.167517 -0.114938
    16 -0.049759 -1.680544 0.100479 -1.774062 0.000000 -0.000002
    17 -0.034142 -1.148312 0.084782 -0.925906 0.000000 0.000000
    18 0.957766 -2.746780 -0.090302 -0.139536 -0.162277 0.053939
    19 -0.033420 -1.397129 -0.011257 -0.926318 0.000000 -0.000001
    20 -0.022360 -0.957436 0.018784 -1.380821 0.000000 0.000000
    21 -1.180681 -2.507217 -0.193859 -0.960196 -0.081516 -0.261329
    22 -0.024967 -1.123934 0.017597 -1.635831 0.000000 0.000001
    23 -0.020057 -0.890968 0.010090 -0.677870 0.000000 0.000000
    24 0.583510 -1.197277 0.185379 0.188028 -0.850416 -1.301860
    25 1.535927 0.010246 0.005009 -0.002964 -0.012979 -0.506650
    26 1.100771 0.004527 -0.010679 -0.016207 0.000369 -1.371740
    27 0.120153 -0.050270 -0.054489 0.287569 3.110905 1.561085
    28 0.498786 -10.247038 -12.419631 -1.920483 -5.244148 -1.261832
    29 0.096944 -8.450418 -0.009365 0.146791 -1.328380 0.242747
    30 0.447953 -2.798986 -0.200443 -1.127266 -0.048016 0.185408
    31 -0.032909 -1.480204 0.004940 -1.739492 0.000000 0.000002
    32 -0.027022 -1.076920 -0.020210 -0.060489 0.000000 0.000000
    33 -0.249534 -2.846964 -0.174213 -0.749792 -0.055002 0.096913
    34 0.043235 -1.683941 0.096012 -1.901441 0.002823 -0.000167
    35 0.031729 -1.160830 0.058838 -0.355262 0.000642 0.008372
    36 -0.963866 -2.785145 -0.085350 -0.089607 0.106308 0.015262
    37 0.028479 -1.403067 0.006271 -1.682399 0.000000 0.000000
    38 0.021413 -0.957781 0.020046 -0.738188 0.000000 0.000000
    39 1.164475 -2.543940 -0.170330 -1.523254 -0.190582 0.231608
    40 0.024032 -1.129042 0.017807 -1.225022 0.000000 0.000001
    41 0.014898 -0.883989 -0.019848 -0.316775 0.000000 0.000000
    42 -0.586770 -1.264477 0.200161 0.189313 -0.137252 -2.859519
    43 1.522835 0.058681 0.016848 0.001410 0.008985 1.016383
    44 1.117947 0.048424 -0.005766 0.009105 -0.022933 -0.325009
    45 -0.139399 -0.111698 0.014397 1.203062 0.226005 1.577116
    46 -1.393470 8.839177 -0.239433 1.580804 -0.005023 -1.566847
  time 6
    0 -0.999768 -1.867275 2.937151 0.000000 0.000000 0.000000
    1 8.542158 1.083927 -8.165363 -1.463007 -1.623839 1.266860
    2 -0.071918 -8.498730 -0.104137 0.149145 0.256984 0.031341
    3 2.326608 -5.978026 1.161003 0.229329 0.050133 -1.560828
    4 8.068350 -0.889454 0.636832 0.109217 -1.128492 -1.236762
    5 -1.093079 -1.020534 0.000000 0.000000 0.000000 -1.617249
    6 0.332523 0.688256 1.169537 -0.254555 -2.216445 -0.792857
    7 -3.883944 0.696199 1.094116 0.000000 0.000000 1.570796
    8 -2.125080 1.560641 0.000000 0.000000 0.000000 1.570796
    9 0.000000 0.000000 0.000000 0.000000 0.000000 0.000000
    10 2.303347 -0.775169 0.632548 3.141592 -1.570796 0.000000
    11 1.257180 8.762585 -0.153713 -1.570562 0.002683 -1.566807
    12 -0.488518 -2.755602 -0.228260 -1.046804 -0.202562 -0.209541
    13 0.039887 -1.479790 0.029854 -1.943778 0.000000 0.000001
    14 0.028786 -1.075731 -0.023109 -0.173679 0.000000 0.000000
    15 0.250027 -2.820665 -0.238396 -0.797118 -0.167517 -0.114938
    16 -0.049759 -1.680544 0.100479 -1.774062 0.000000 -0.000002
    17 -0.034142 -1.148312 0.084782 -0.925879 0.000000 0.000000
    18 0.957766 -2.746780 -0.090302 -0.139536 -0.162277 0.053939
    19 -0.033420 -1.397129 -0.011257 -0.703349 0.000000 -0.000001
    20 -0.022360 -0.957436 0.018784 -1.157821 0.000000 0.000000
    21 -1.180681 -2.507217 -0.193859 -0.960196 -0.081516 -0.261329
    22 -0.024967 -1.123934 0.017597 -1.635831 0.000000 0.000001
    23 -0.020057 -0.890968 0.010090 -0.677870 0.000000 0.000000
    24 0.583510 -1.197277 0.185379 0.188028 -0.850416 -1.301860
    25 1.535927 0.010246 0.005009 -0.002964 -0.012979 -0.506650
    26 1.100771 0.004527 -0.010679 -0.016207 0.000369 -1.371740
    27 0.120153 -0.050270 -0.054489 0.287569 3.110905 1.561085
    28 0.498786 -10.649394 -12.419631 -1.900590 -5.213596 -1.244536
    29 0.096944 -8.450418 -0.009365 0.146791 -1.328380 0.242747
    30 0.447953 -2.798986 -0.200443 -1.127266 -0.048016 0.185408
    31 -0.032909 -1.480204 0.004940 -1.739492 0.000000 0.000002
    32 -0.027022 -1.076920 -0.020210 -0.060489 0.000000 0.000000
    33 -0.249534 -2.846964 -0.174213 -0.749792 -0.055002 0.096913
    34 0.043235 -1.683941 0.096012 -1.901441 0.002823 -0.000167
    35 0.031729 -1.160830 0.058838 -0.355262 0.000642 0.008372
    36 -0.963866 -2.785145 -0.085350 -0.089607 0.106308 0.015262
    37 0.028479 -1.403067 0.006271 -1.682399 0.000000 0.000000
    38 0.021413 -0.957781 0.020046 -0.738188 0.000000 0.000000
    39 1.164475 -2.543940 -0.170330 -1.523254 -0.190582 0.231608
    40 0.024032 -1.129042 0.017807 -1.225022 0.000000 0.000001
    41 0.014898 -0.883989 -0.019848 -0.316775 0.000000 0.000000
    42 -0.586770 -1.264477 0.200161 0.187549 -0.139422 -2.847538
    43 1.522835 0.058681 0.016848 0.001410 0.008985 0.995194
    44 1.117947 0.048424 -0.005766 0.008686 -0.023065 -0.307151
    45 -0.139399 -0.111698 0.014397 1.203062 0.226005 1.577116
    46 -1.393470 8.839177 -0.239433 1.580804 -0.005023 -1.566847
  time 7
    0 -0.999768 -1.867275 2.937151 0.000000 0.000000 0.000000
    1 8.542158 0.650320 -7.946607 -1.543397 -1.643791 1.347144
    2 -0.071918 -8.498730 -0.104137 0.149145 0.256984 0.031341
    3 2.326608 -5.978026 1.161003 0.229329 0.050133 -1.560828
    4 8.068350 -0.889454 0.636832 0.064229 -0.762231 -1.236762
    5 -1.093079 -1.020534 0.000000 0.000000 0.000000 -1.570796
    6 0.332523 0.688256 1.169537 -0.293367 -2.145005 -0.776489
    7 -3.883944 0.696199 1.094116 0.000000 0.000000 1.570796
    8 -2.125080 1.560641 0.000000 0.000000 0.000000 1.570796
    9 0.000000 0.000000 0.000000 0.000000 0.000000 0.000000
    10 2.303347 -0.775169 0.632548 3.141592 -1.570796 0.000000
    11 1.257180 8.762585 -0.153713 -1.570562 0.002683 -1.566807
    12 -0.488518 -2.755602 -0.228260 -1.046804 -0.202562 -0.209541
    13 0.039887 -1.479790 0.029854 -1.943778 0.000000 0.000001
    14 0.028786 -1.075731 -0.023109 -0.173679 0.000000 0.000000
    15 0.250027 -2.820665 -0.238396 -0.797118 -0.167517 -0.114938
    16 -0.049759 -1.680544 0.100479 -1.774062 0.000000 -0.000002
    17 -0.034142 -1.148312 0.084782 -0.925906 0.000000 0.000000
    18 0.957766 -2.746780 -0.090302 -0.139536 -0.162277 0.053939
    19 -0.033420 -1.397129 -0.011257 -0.521004 0.000000 -0.000001
    20 -0.022360 -0.957436 0.018784 -0.975475 0.000000 0.000000
    21 -1.180681 -2.507217 -0.193859 -0.960196 -0.081516 -0.261329
    22 -0.024967 -1.123934 0.017597 -1.635831 0.000000 0.000001
    23 -0.020057 -0.890968 0.010090 -0.677870 0.000000 0.000000
    24 0.583510 -1.197277 0.185379 0.188028 -0.850416 -1.301860
    25 1.535927 0.010246 0.005009 -0.002964 -0.012979 -0.506650
    26 1.100771 0.004527 -0.010679 -0.016207 0.000369 -1.371740
    27 0.120153 -0.050270 -0.054489 0.287569 3.110905 1.561085
    28 0.502692 -10.997061 -12.443069 -1.885687 -5.194266 -1.231445
    29 0.096944 -8.450418 -0.009365 0.146791 -1.328380 0.242747
    30 0.447953 -2.798986 -0.200443 -1.127266 -0.048016 0.185408
    31 -0.032909 -1.480204 0.004940 -1.739492 0.000000 0.000002
    32 -0.027022 -1.076920 -0.020210 -0.060489 0.000000 0.000000
    33 -0.249534 -2.846964 -0.174213 -0.749792 -0.055002 0.096913
    34 0.043235 -1.683941 0.096012 -1.901441 0.002823 -0.000167
    35 0.031729 -1.160830 0.058838 -0.355262 0.000642 0.008372
    36 -0.963866 -2.785145 -0.085350 -0.089607 0.106308 0.015262
    37 0.028479 -1.403067 0.006271 -1.682399 0.000000 0.000000
    38 0.021413 -0.957781 0.020046 -0.738188 0.000000 0.000000
    39 1.164475 -2.543940 -0.170330 -1.523254 -0.190582 0.231608
    40 0.024032 -1.129042 0.017807 -1.225022 0.000000 0.000001
    41 0.014898 -0.883989 -0.019848 -0.316775 0.000000 0.000000
    42 -0.586770 -1.264477 0.200161 0.183351 -0.144599 -2.818962
    43 1.522835 0.058681 0.016848 0.001410 0.008985 0.944638
    44 1.117947 0.048424 -0.005766 0.007679 -0.023364 -0.264574
    45 -0.139399 -0.111698 0.014397 1.203062 0.226005 1.577116
    46 -1.393470 8.839177 -0.239433 1.580804 -0.005023 -1.566847
  time 8
    0 -0.999768 -1.867275 2.937151 0.000000 0.000000 0.000000
    1 8.542158 0.376874 -8.063798 -1.519177 -1.641616 1.322918
    2 -0.071918 -8.498730 -0.104137 0.149145 0.256984 0.031341
    3 2.326608 -5.978026 1.161003 0.229329 0.050133 -1.560828
    4 8.068350 -0.889454 0.636832 0.027634 -0.376916 -1.257950
    5 -1.093079 -1.020534 0.000000 0.000000 0.000000 -1.555852
    6 0.332523 0.688256 1.169537 -0.491487 -1.974992 -0.617296
    7 -3.883944 0.696199 1.094116 0.000000 0.000000 1.570796
    8 -2.125080 1.560641 0.000000 0.000000 0.000000 1.570796
    9 0.000000 0.000000 0.000000 0.000000 0.000000 0.000000
    10 2.303347 -0.775169 0.632548 3.141592 -1.570796 0.000000
    11 1.257180 8.762585 -0.153713 -1.570562 0.002683 -1.566807
    12 -0.488518 -2.755602 -0.228260 -1.046804 -0.202562 -0.209541
    13 0.039887 -1.479790 0.029854 -1.943778 0.000000 0.000001
    14 0.028786 -1.075731 -0.023109 -0.173679 0.000000 0.000000
    15 0.250027 -2.820665 -0.238396 -0.797118 -0.167517 -0.114938
    16 -0.049759 -1.680544 0.100479 -1.774062 0.000000 -0.000002
    17 -0.034142 -1.148312 0.084782 -0.925879 0.000000 0.000000
    18 0.957766 -2.746780 -0.090302 -0.139536 -0.162277 0.053939
    19 -0.033420 -1.397129 -0.011257 -0.433481 0.000000 -0.000001
    20 -0.022360 -0.957436 0.018784 -0.887970 0.000000 0.000000
    21 -1.180681 -2.507217 -0.193859 -0.960196 -0.081516 -0.261329
    22 -0.024967 -1.123934 0.017597 -1.635831 0.000000 0.000001
    23 -0.020057 -0.890968 0.010090 -0.677870 0.000000 0.000000
    24 0.583510 -1.197277 0.185379 0.188028 -0.850416 -1.301860
    25 1.535927 0.010246 0.005009 -0.002964 -0.012979 -0.506650
    26 1.100771 0.004527 -0.010679 -0.016207 0.000369 -1.371740
    27 0.120153 -0.050270 -0.054489 0.287569 3.110905 1.561085
    28 0.506599 -11.282226 -12.536822 -1.885088 -5.197089 -1.230872
    29 0.096944 -8.450418 -0.009365 0.146791 -1.328380 0.242747
    30 0.447953 -2.798986 -0.200443 -1.127266 -0.048016 0.185408
    31 -0.032909 -1.480204 0.004940 -1.739492 0.000000 0.000002
    32 -0.027022 -1.076920 -0.020210 -0.060489 0.000000 0.000000
    33 -0.249534 -2.846964 -0.174213 -0.749792 -0.055002 0.096913
    34 0.043235 -1.683941 0.096012 -1.901441 0.002823 -0.000167
    35 0.031729 -1.160830 0.058838 -0.355262 0.000642 0.008372
    36 -0.963866 -2.785145 -0.085350 -0.089607 0.106308 0.015262
    37 0.028479 -1.403067 0.006271 -1.682399 0.000000 0.000000
    38 0.021413 -0.957781 0.020046 -0.738188 0.000000 0.000000
    39 1.164475 -2.543940 -0.170330 -1.523254 -0.190582 0.231608
    40 0.024032 -1.129042 0.017807 -1.225022 0.000000 0.000001
    41 0.014898 -0.883989 -0.019848 -0.316775 0.000000 0.000000
    42 -0.586770 -1.264477 0.200161 0.178316 -0.150771 -2.784882
    43 1.522835 0.058681 0.016848 0.001410 0.008985 0.884347
    44 1.117947 0.048424 -0.005766 0.006480 -0.023724 -0.213728
    45 -0.139399 -0.111698 0.014397 1.203062 0.226005 1.577116
    46 -1.393470 8.839177 -0.239433 1.580804 -0.005023 -1.566847
  time 9
    0 -0.999768 -1.867275 2.937151 0.000000 0.000000 0.000000
    1 8.542158 0.240152 -8.403652 -1.399679 -1.624163 1.203595
    2 -0.071918 -8.498730 -0.104137 0.149145 0.256984 0.031341
    3 2.326608 -5.978026 1.161003 0.229329 0.050133 -1.560828
    4 8.068350 -0.889454 0.636832 0.000000 0.000000 -1.281728
    5 -1.093079 -1.020534 0.000000 0.000000 0.000000 -1.543555
    6 0.332523 0.688256 1.169537 1.342900 -1.330620 -2.516013
    7 -3.883944 0.696199 1.094116 0.000000 0.000000 1.570796
    8 -2.125080 1.560641 0.000000 0.000000 0.000000 1.570796
    9 0.000000 0.000000 0.000000 0.000000 0.000000 0.000000
    10 2.303347 -0.775169 0.632548 3.141592 -1.570796 0.000000
    11 1.257180 8.762585 -0.153713 -1.570562 0.002683 -1.566807
    12 -0.488518 -2.755602 -0.228260 -1.046804 -0.202562 -0.209541
    13 0.039887 -1.479790 0.029854 -1.943778 0.000000 0.000001
    14 0.028786 -1.075731 -0.023109 -0.173679 0.000000 0.000000
    15 0.250027 -2.820665 -0.238396 -0.797118 -0.167517 -0.114938
    16 -0.049759 -1.680544 0.100479 -1.774062 0.000000 -0.000002
    17 -0.034142 -1.148312 0.084782 -0.925906 0.000000 0.000000
    18 0.957766 -2.746780 -0.090302 -0.139536 -0.162277 0.053939
    19 -0.033420 -1.397129 -0.011257 -0.386582 0.000000 -0.000001
    20 -0.022360 -0.957436 0.018784 -0.841074 0.000000 0.000000
    21 -1.180681 -2.507217 -0.193859 -0.960196 -0.081516 -0.261329
    22 -0.024967 -1.123934 0.017597 -1.635831 0.000000 0.000001
    23 -0.020057 -0.890968 0.010090 -0.677870 0.000000 0.000000
    24 0.583510 -1.197277 0.185379 0.188028 -0.850416 -1.301860
    25 1.535927 0.010246 0.005009 -0.002964 -0.012979 -0.506650
    26 1.100771 0.004527 -0.010679 -0.016207 0.000369 -1.371740
    27 0.120153 -0.050270 -0.054489 0.287569 3.110905 1.561085
    28 0.514411 -11.500982 -12.673545 -1.894602 -5.215478 -1.239281
    29 0.096944 -8.450418 -0.009365 0.146791 -1.328380 0.242747
    30 0.447953 -2.798986 -0.200443 -1.127266 -0.048016 0.185408
    31 -0.032909 -1.480204 0.004940 -1.739492 0.000000 0.000002
    32 -0.027022 -1.076920 -0.020210 -0.060489 0.000000 0.000000
    33 -0.249534 -2.846964 -0.174213 -0.749792 -0.055002 0.096913
    34 0.043235 -1.683941 0.096012 -1.901441 0.002823 -0.000167
    35 0.031729 -1.160830 0.058838 -0.355262 0.000642 0.008372
    36 -0.963866 -2.785145 -0.085350 -0.089607 0.106308 0.015262
    37 0.028479 -1.403067 0.006271 -1.682399 0.000000 0.000000
    38 0.021413 -0.957781 0.020046 -0.738188 0.000000 0.000000
    39 1.164475 -2.543940 -0.170330 -1.523254 -0.190582 0.231608
    40 0.024032 -1.129042 0.017807 -1.225022 0.000000 0.000001
    41 0.014898 -0.883989 -0.019848 -0.316775 0.000000 0.000000
    42 -0.586770 -1.264477 0.200161 0.174118 -0.155936 -2.756305
    43 1.522835 0.058681 0.016848 0.001410 0.008985 0.833824
    44 1.117947 0.048424 -0.005766 0.005474 -0.024024 -0.171151
    45 -0.139399 -0.111698 0.014397 1.203062 0.226005 1.577116
    46 -1.393470 8.839177 -0.239433 1.580804 -0.005023 -1.566847
  time 10
    0 -0.999768 -1.867275 2.937151 0.000000 0.000000 0.000000
    1 8.542158 0.193275 -8.626315 -1.228363 -1.611802 1.032485
    2 -0.071918 -8.498730 -0.104137 0.149145 0.256984 0.031341
    3 2.326608 -5.978026 1.161003 0.229329 0.050133 -1.560828
    4 8.068350 -0.889454 0.636832 0.001792 0.491298 -1.281536
    5 -1.093079 -1.020534 0.000000 0.000000 0.000000 -1.533718
    6 0.332523 0.688256 1.169537 0.355910 -0.887394 -1.628226
    7 -3.883944 0.696199 1.094116 0.000000 0.000000 1.570796
    8 -2.125080 1.560641 0.000000 0.000000 0.000000 1.570796
    9 0.000000 0.000000 0.000000 0.000000 0.000000 0.000000
    10 2.303347 -0.775169 0.632548 3.141592 -1.570796 0.000000
    11 1.257180 8.762585 -0.153713 -1.570562 0.002683 -1.566807
    12 -0.488518 -2.755602 -0.228260 -1.046804 -0.202562 -0.209541
    13 0.039887 -1.479790 0.029854 -1.943778 0.000000 0.000001
    14 0.028786 -1.075731 -0.023109 -0.173679 0.000000 0.000000
    15 0.250027 -2.820665 -0.238396 -0.797118 -0.167517 -0.114938
    16 -0.049759 -1.680544 0.100479 -1.774062 0.000000 -0.000002
    17 -0.034142 -1.148312 0.084782 -0.925879 0.000000 0.000000
    18 0.957766 -2.746780 -0.090302 -0.139536 -0.162277 0.053939
    19 -0.033420 -1.397129 -0.011257 -0.372656 0.000000 -0.000001
    20 -0.022360 -0.957436 0.018784 -0.827173 0.000000 0.000000
    21 -1.180681 -2.507217 -0.193859 -0.960196 -0.081516 -0.261329
    22 -0.024967 -1.123934 0.017597 -1.635831 0.000000 0.000001
    23 -0.020057 -0.890968 0.010090 -0.677870 0.000000 0.000000
    24 0.583510 -1.197277 0.185379 0.188028 -0.850416 -1.301860
    25 1.535927 0.010246 0.005009 -0.002964 -0.012979 -0.506650
    26 1.100771 0.004527 -0.010679 -0.016207 0.000369 -1.371740
    27 0.120153 -0.050270 -0.054489 0.287569 3.110905 1.561085
    28 0.522224 -11.610361 -12.743860 -1.900723 -5.229886 -1.244727
    29 0.096944 -8.450418 -0.009365 0.146791 -1.328380 0.242747
    30 0.447953 -2.798986 -0.200443 -1.127266 -0.048016 0.185408
    31 -0.032909 -1.480204 0.004940 -1.739492 0.000000 0.000002
    32 -0.027022 -1.076920 -0.020210 -0.060489 0.000000 0.000000
    33 -0.249534 -2.846964 -0.174213 -0.749792 -0.055002 0.096913
    34 0.043235 -1.683941 0.096012 -1.901441 0.002823 -0.000167
    35 0.031729 -1.160830 0.058838 -0.355262 0.000642 0.008372
    36 -0.963866 -2.785145 -0.085350 -0.089607 0.106308 0.015262
    37 0.028479 -1.403067 0.006271 -1.682399 0.000000 0.000000
    38 0.021413 -0.957781 0.020046 -0.738188 0.000000 0.000000
    39 1.164475 -2.543940 -0.170330 -1.523254 -0.190582 0.231608
    40 0.024032 -1.129042 0.017807 -1.225022 0.000000 0.000001
    41 0.014898 -0.883989 -0.019848 -0.316775 0.000000 0.000000
    42 -0.586770 -1.264477 0.200161 0.172354 -0.158106 -2.744325
    43 1.522835 0.058681 0.016848 0.001410 0.008985 0.812634
    44 1.117947 0.048424 -0.005766 0.005054 -0.024155 -0.153264
    45 -0.139399 -0.111698 0.014397 1.203062 0.226005 1.577116
    46 -1.393470 8.839177 -0.239433 1.580804 -0.005023 -1.566847
  time 11
    0 -0.999768 -1.867275 2.937151 0.000000 0.000000 0.000000
    1 8.542158 0.216713 -8.614596 -1.147801 -1.609950 0.951935
    2 -0.071918 -8.498730 -0.104137 0.149145 0.256984 0.031341
    3 2.326608 -5.978026 1.161003 0.229329 0.050133 -1.560828
    4 8.068350 -0.889454 0.636832 -0.015562 0.858123 -1.323051
    5 -1.093079 -1.020534 0.000000 0.000000 0.000000 -1.526181
    6 0.332523 0.688256 1.169537 0.126601 -0.349907 -1.523956
    7 -3.883944 0.696199 1.094116 0.000000 0.000000 1.570796
    8 -2.125080 1.560641 0.000000 0.000000 0.000000 1.570796
    9 0.000000 0.000000 0.000000 0.000000 0.000000 0.000000
    10 2.303347 -0.775169 0.632548 3.141592 -1.570796 0.000000
    11 1.257180 8.762585 -0.153713 -1.570562 0.002683 -1.566807
    12 -0.488518 -2.755602 -0.228260 -1.046804 -0.202562 -0.209541
    13 0.039887 -1.479790 0.029854 -1.943778 0.000000 0.000001
    14 0.028786 -1.075731 -0.023109 -0.173679 0.000000 0.000000
    15 0.250027 -2.820665 -0.238396 -0.797118 -0.167517 -0.114938
    16 -0.049759 -1.680544 0.100479 -1.774062 0.000000 -0.000002
    17 -0.034142 -1.148312 0.084782 -0.925906 0.000000 0.000000
    18 0.957766 -2.746780 -0.090302 -0.139536 -0.162277 0.053939
    19 -0.033420 -1.397129 -0.011257 -0.388086 0.000000 -0.000001
    20 -0.022360 -0.957436 0.018784 -0.842578 0.000000 0.000000
    21 -1.180681 -2.507217 -0.193859 -0.960196 -0.081516 -0.261329
    22 -0.024967 -1.123934 0.017597 -1.635831 0.000000 0.000001
    23 -0.020057 -0.890968 0.010090 -0.677870 0.000000 0.000000
    24 0.583510 -1.197277 0.185379 0.188028 -0.850416 -1.301860
    25 1.535927 0.010246 0.005009 -0.002964 -0.012979 -0.506650
    26 1.100771 0.004527 -0.010679 -0.016207 0.000369 -1.371740
    27 0.120153 -0.050270 -0.054489 0.287569 3.110905 1.561085
    28 0.526130 -11.594735 -12.704796 -1.899659 -5.233578 -1.243867
    29 0.096944 -8.450418 -0.009365 0.146791 -1.328380 0.242747
    30 0.447953 -2.798986 -0.200443 -1.127266 -0.048016 0.185408
    31 -0.032909 -1.480204 0.004940 -1.739492 0.000000 0.000002
    32 -0.027022 -1.076920 -0.020210 -0.060489 0.000000 0.000000
    33 -0.249534 -2.846964 -0.174213 -0.749792 -0.055002 0.096913
    34 0.043235 -1.683941 0.096012 -1.901441 0.002823 -0.000167
    35 0.031729 -1.160830 0.058838 -0.355262 0.000642 0.008372
    36 -0.963866 -2.785145 -0.085350 -0.089607 0.106308 0.015262
    37 0.028479 -1.403067 0.006271 -1.682399 0.000000 0.000000
    38 0.021413 -0.957781 0.020046 -0.738188 0.000000 0.000000
    39 1.164475 -2.543940 -0.170330 -1.523254 -0.190582 0.231608
    40 0.024032 -1.129042 0.017807 -1.225022 0.000000 0.000001
    41 0.014898 -0.883989 -0.019848 -0.316775 0.000000 0.000000
    42 -0.586770 -1.264477 0.200161 0.172354 -0.158106 -2.744325
    43 1.522835 0.058681 0.016848 0.001410 0.008985 0.812634
    44 1.117947 0.048424 -0.005766 0.005054 -0.024155 -0.153264
    45 -0.139399 -0.111698 0.014397 1.203062 0.226005 1.577116
    46 -1.393470 8.839177 -0.239433 1.580804 -0.005023 -1.566847
  time 12
    0 -0.999768 -1.867275 2.937151 0.000000 0.000000 0.000000
    1 8.542158 0.310466 -8.516937 -1.111099 -1.610830 0.915163
    2 -0.071918 -8.498730 -0.104137 0.149145 0.256984 0.031341
    3 2.326608 -5.978026 1.161003 0.229329 0.050133 -1.560828
    4 8.068350 -0.889454 0.636832 -0.144020 0.864381 -1.520461
    5 -1.093079 -1.020534 0.000000 0.000000 0.000000 -1.520741
    6 0.332523 0.688256 1.169537 0.011599 0.000784 -1.529089
    7 -3.883944 0.696199 1.094116 0.000000 0.000000 1.570796
    8 -2.125080 1.560641 0.000000 0.000000 0.000000 1.570796
    9 0.000000 0.000000 0.000000 0.000000 0.000000 0.000000
    10 2.303347 -0.775169 0.632548 3.141592 -1.570796 0.000000
    11 1.257180 8.762585 -0.153713 -1.570562 0.002683 -1.566807
    12 -0.488518 -2.755602 -0.228260 -1.046804 -0.202562 -0.209541
    13 0.039887 -1.479790 0.029854 -1.943778 0.000000 0.000001
    14 0.028786 -1.075731 -0.023109 -0.173679 0.000000 0.000000
    15 0.250027 -2.820665 -0.238396 -0.797118 -0.167517 -0.114938
    16 -0.049759 -1.680544 0.100479 -1.774062 0.000000 -0.000002
    17 -0.034142 -1.148312 0.084782 -0.925879 0.000000 0.000000
    18 0.957766 -2.746780 -0.090302 -0.139536 -0.162277 0.053939
    19 -0.033420 -1.397129 -0.011257 -0.424869 0.000000 -0.000001
    20 -0.022360 -0.957436 0.018784 -0.879357 0.000000 0.000000
    21 -1.180681 -2.507217 -0.193859 -0.960196 -0.081516 -0.261329
    22 -0.024967 -1.123934 0.017597 -1.635831 0.000000 0.000001
    23 -0.020057 -0.890968 0.010090 -0.677870 0.000000 0.000000
    24 0.583510 -1.197277 0.185379 0.188028 -0.850416 -1.301860
    25 1.535927 0.010246 0.005009 -0.002964 -0.012979 -0.506650
    26 1.100771 0.004527 -0.010679 -0.016207 0.000369 -1.371740
    27 0.120153 -0.050270 -0.054489 0.287569 3.110905 1.561085
    28 0.533943 -11.504889 -12.614949 -1.896531 -5.234302 -1.241096
    29 0.096944 -8.450418 -0.009365 0.146791 -1.328380 0.242747
    30 0.447953 -2.798986 -0.200443 -1.127266 -0.048016 0.185408
    31 -0.032909 -1.480204 0.004940 -1.739492 0.000000 0.000002
    32 -0.027022 -1.076920 -0.020210 -0.060489 0.000000 0.000000
    33 -0.249534 -2.846964 -0.174213 -0.749792 -0.055002 0.096913
    34 0.043235 -1.683941 0.096012 -1.901441 0.002823 -0.000167
    35 0.031729 -1.160830 0.058838 -0.355262 0.000642 0.008372
    36 -0.963866 -2.785145 -0.085350 -0.089607 0.106308 0.015262
    37 0.028479 -1.403067 0.006271 -1.682399 0.000000 0.000000
    38 0.021413 -0.957781 0.020046 -0.738188 0.000000 0.000000
    39 1.164475 -2.543940 -0.170330 -1.523254 -0.190582 0.231608
    40 0.024032 -1.129042 0.017807 -1.225022 0.000000 0.000001
    41 0.014898 -0.883989 -0.019848 -0.316775 0.000000 0.000000
    42 -0.586770 -1.264477 0.200161 0.172354 -0.158106 -2.744325
    43 1.522835 0.058681 0.016848 0.001410 0.008985 0.812634
    44 1.117947 0.048424 -0.005766 0.005054 -0.024155 -0.153264
    45 -0.139399 -0.111698 0.014397 1.203062 0.226005 1.577116
    46 -1.393470 8.839177 -0.239433 1.580804 -0.005023 -1.566847
  time 13
    0 -0.999768 -1.867275 2.937151 0.000000 0.000000 0.000000
    1 8.542158 0.419845 -8.399745 -1.086077 -1.612358 0.890138
    2 -0.071918 -8.498730 -0.104137 0.149145 0.256984 0.031341
    3 2.326608 -5.978026 1.161003 0.229329 0.050133 -1.560828
    4 8.068350 -0.889454 0.636832 -0.237675 0.713468 -1.701859
    5 -1.093079 -1.020534 0.000000 0.000000 0.000000 -1.517226
    6 0.332523 0.688256 1.169537 -0.036517 0.064539 -1.541052
    7 -3.883944 0.696199 1.094116 0.000000 0.000000 1.570796
    8 -2.125080 1.560641 0.000000 0.000000 0.000000 1.570796
    9 0.000000 0.000000 0.000000 0.000000 0.000000 0.000000
    10 2.303347 -0.775169 0.632548 3.141592 -1.570796 0.000000
    11 1.257180 8.762585 -0.153713 -1.570562 0.002683 -1.566807
    12 -0.488518 -2.755602 -0.228260 -1.046804 -0.202562 -0.209541
    13 0.039887 -1.479790 0.029854 -1.943778 0.000000 0.000001
    14 0.028786 -1.075731 -0.023109 -0.173679 0.000000 0.000000
    15 0.250027 -2.820665 -0.238396 -0.797118 -0.167517 -0.114938
    16 -0.049759 -1.680544 0.100479 -1.774062 0.000000 -0.000002
    17 -0.034142 -1.148312 0.084782 -0.925906 0.000000 0.000000
    18 0.957766 -2.746780 -0.090302 -0.139536 -0.162277 0.053939
    19 -0.033420 -1.397129 -0.011257 -0.468791 0.000000 -0.000001
    20 -0.022360 -0.957436 0.018784 -0.923291 0.000000 0.000000
    21 -1.180681 -2.507217 -0.193859 -0.960196 -0.081516 -0.261329
    22 -0.024967 -1.123934 0.017597 -1.635831 0.000000 0.000001
    23 -0.020057 -0.890968 0.010090 -0.677870 0.000000 0.000000
    24 0.583510 -1.197277 0.185379 0.188028 -0.850416 -1.301860
    25 1.535927 0.010246 0.005009 -0.002964 -0.012979 -0.506650
    26 1.100771 0.004527 -0.010679 -0.016207 0.000369 -1.371740
    27 0.120153 -0.050270 -0.054489 0.287569 3.110905 1.561085
    28 0.541756 -11.395510 -12.517290 -1.892872 -5.234302 -1.238038
    29 0.096944 -8.450418 -0.009365 0.146791 -1.328380 0.242747
    30 0.447953 -2.798986 -0.200443 -1.127266 -0.048016 0.185408
    31 -0.032909 -1.480204 0.004940 -1.739492 0.000000 0.000002
    32 -0.027022 -1.076920 -0.020210 -0.060489 0.000000 0.000000
    33 -0.249534 -2.846964 -0.174213 -0.749792 -0.055002 0.096913
    34 0.043235 -1.683941 0.096012 -1.901441 0.002823 -0.000167
    35 0.031729 -1.160830 0.058838 -0.355262 0.000642 0.008372
    36 -0.963866 -2.785145 -0.085350 -0.089607 0.106308 0.015262
    37 0.028479 -1.403067 0.006271 -1.682399 0.000000 0.000000
    38 0.021413 -0.957781 0.020046 -0.738188 0.000000 0.000000
    39 1.164475 -2.543940 -0.170330 -1.523254 -0.190582 0.231608
    40 0.024032 -1.129042 0.017807 -1.225022 0.000000 0.000001
    41 0.014898 -0.883989 -0.019848 -0.316775 0.000000 0.000000
    42 -0.586770 -1.264477 0.200161 0.172354 -0.158106 -2.744325
    43 1.522835 0.058681 0.016848 0.001410 0.008985 0.812634
    44 1.117947 0.048424 -0.005766 0.005054 -0.024155 -0.153264
    45 -0.139399 -0.111698 0.014397 1.203062 0.226005 1.577116
    46 -1.393470 8.839177 -0.239433 1.580804 -0.005023 -1.566847
  time 14
    0 -0.999768 -1.867275 2.937151 0.000000 0.000000 0.000000
    1 8.542158 0.497972 -8.341150 -1.034087 -1.612543 0.838150
    2 -0.071918 -8.498730 -0.104137 0.149145 0.256984 0.031341
    3 2.326608 -5.978026 1.161003 0.229329 0.050133 -1.560828
    4 8.068350 -0.889454 0.636832 -0.233525 0.524390 -1.752482
    5 -1.093079 -1.020534 0.000000 0.000000 0.000000 -1.515432
    6 0.332523 0.688256 1.169537 -0.044960 -0.047287 -1.540769
    7 -3.883944 0.696199 1.094116 0.000000 0.000000 1.570796
    8 -2.125080 1.560641 0.000000 0.000000 0.000000 1.570796
    9 0.000000 0.000000 0.000000 0.000000 0.000000 0.000000
    10 2.303347 -0.775169 0.632548 3.141592 -1.570796 0.000000
    11 1.257180 8.762585 -0.153713 -1.570562 0.002683 -1.566807
    12 -0.488518 -2.755602 -0.228260 -1.046804 -0.202562 -0.209541
    13 0.039887 -1.479790 0.029854 -1.943778 0.000000 0.000001
    14 0.028786 -1.075731 -0.023109 -0.173679 0.000000 0.000000
    15 0.250027 -2.820665 -0.238396 -0.797118 -0.167517 -0.114938
    16 -0.049759 -1.680544 0.100479 -1.774062 0.000000 -0.000002
    17 -0.034142 -1.148312 0.084782 -0.925906 0.000000 0.000000
    18 0.957766 -2.746780 -0.090302 -0.139536 -0.162277 0.053939
    19 -0.033420 -1.397129 -0.011257 -0.505574 0.000000 -0.000001
    20 -0.022360 -0.957436 0.018784 -0.960070 0.000000 0.000000
    21 -1.180681 -2.507217 -0.193859 -0.960196 -0.081516 -0.261329
    22 -0.024967 -1.123934 0.017597 -1.635831 0.000000 0.000001
    23 -0.020057 -0.890968 0.010090 -0.677870 0.000000 0.000000
    24 0.583510 -1.197277 0.185379 0.188028 -0.850416 -1.301860
    25 1.535927 0.010246 0.005009 -0.002964 -0.012979 -0.506650
    26 1.100771 0.004527 -0.010679 -0.016207 0.000369 -1.371740
    27 0.120153 -0.050270 -0.054489 0.287569 3.110905 1.561085
    28 0.545662 -11.317383 -12.466507 -1.890344 -5.236112 -1.235936
    29 0.096944 -8.450418 -0.009365 0.146791 -1.328380 0.242747
    30 0.447953 -2.798986 -0.200443 -1.127266 -0.048016 0.185408
    31 -0.032909 -1.480204 0.004940 -1.739492 0.000000 0.000002
    32 -0.027022 -1.076920 -0.020210 -0.060489 0.000000 0.000000
    33 -0.249534 -2.846964 -0.174213 -0.749792 -0.055002 0.096913
    34 0.043235 -1.683941 0.096012 -1.901441 0.002823 -0.000167
    35 0.031729 -1.160830 0.058838 -0.355262 0.000642 0.008372
    36 -0.963866 -2.785145 -0.085350 -0.089607 0.106308 0.015262
    37 0.028479 -1.403067 0.006271 -1.682399 0.000000 0.000000
    38 0.021413 -0.957781 0.020046 -0.738188 0.000000 0.000000
    39 1.164475 -2.543940 -0.170330 -1.523254 -0.190582 0.231608
    40 0.024032 -1.129042 0.017807 -1.225022 0.000000 0.000001
    41 0.014898 -0.883989 -0.019848 -0.316775 0.000000 0.000000
    42 -0.586770 -1.264477 0.200161 0.172354 -0.158106 -2.744325
    43 1.522835 0.058681 0.016848 0.001410 0.008985 0.812634
    44 1.117947 0.048424 -0.005766 0.005054 -0.024155 -0.153264
    45 -0.139399 -0.111698 0.014397 1.203062 0.226005 1.577116
    46 -1.393470 8.839177 -0.239433 1.580804 -0.005023 -1.566847
  time 15
    0 -0.999768 -1.867275 2.937151 0.000000 0.000000 0.000000
    1 8.542158 0.548755 -8.348963 -0.942359 -1.611385 0.746456
    2 -0.071918 -8.498730 -0.104137 0.149145 0.256984 0.031341
    3 2.326608 -5.978026 1.161003 0.229329 0.050133 -1.560828
    4 8.068350 -0.889454 0.636832 -0.175615 0.318456 -1.695340
    5 -1.093079 -1.020534 0.000000 0.000000 0.000000 -1.515186
    6 0.332523 0.688256 1.169537 -0.034222 -0.207576 -1.535758
    7 -3.883944 0.696199 1.094116 0.000000 0.000000 1.570796
    8 -2.125080 1.560641 0.000000 0.000000 0.000000 1.570796
    9 0.000000 0.000000 0.000000 0.000000 0.000000 0.000000
    10 2.303347 -0.775169 0.632548 3.141592 -1.570796 0.000000
    11 1.257180 8.762585 -0.153713 -1.570562 0.002683 -1.566807
    12 -0.488518 -2.755602 -0.228260 -1.046804 -0.202562 -0.209541
    13 0.039887 -1.479790 0.029854 -1.943778 0.000000 0.000001
    14 0.028786 -1.075731 -0.023109 -0.173679 0.000000 0.000000
    15 0.250027 -2.820665 -0.238396 -0.797118 -0.167517 -0.114938
    16 -0.049759 -1.680544 0.100479 -1.774062 0.000000 -0.000002
    17 -0.034142 -1.148312 0.084782 -0.925879 0.000000 0.000000
    18 0.957766 -2.746780 -0.090302 -0.139536 -0.162277 0.053939
    19 -0.033420 -1.397129 -0.011257 -0.521004 0.000000 -0.000001
    20 -0.022360 -0.957436 0.018784 -0.975475 0.000000 0.000000
    21 -1.180681 -2.507217 -0.193859 -0.960196 -0.081516 -0.261329
    22 -0.024967 -1.123934 0.017597 -1.635831 0.000000 0.000001
    23 -0.020057 -0.890968 0.010090 -0.677870 0.000000 0.000000
    24 0.583510 -1.197277 0.185379 0.188028 -0.850416 -1.301860
    25 1.535927 0.010246 0.005009 -0.002964 -0.012979 -0.506650
    26 1.100771 0.004527 -0.010679 -0.016207 0.000369 -1.371740
    27 0.120153 -0.050270 -0.054489 0.287569 3.110905 1.561085
    28 0.553475 -11.282226 -12.446976 -1.889080 -5.239949 -1.234885
    29 0.096944 -8.450418 -0.009365 0.146791 -1.328380 0.242747
    30 0.447953 -2.798986 -0.200443 -1.127266 -0.048016 0.185408
    31 -0.032909 -1.480204 0.004940 -1.739492 0.000000 0.000002
    32 -0.027022 -1.076920 -0.020210 -0.060489 0.000000 0.000000
    33 -0.249534 -2.846964 -0.174213 -0.749792 -0.055002 0.096913
    34 0.043235 -1.683941 0.096012 -1.901441 0.002823 -0.000167
    35 0.031729 -1.160830 0.058838 -0.355262 0.000642 0.008372
    36 -0.963866 -2.785145 -0.085350 -0.089607 0.106308 0.015262
    37 0.028479 -1.403067 0.006271 -1.682399 0.000000 0.000000
    38 0.021413 -0.957781 0.020046 -0.738188 0.000000 0.000000
    39 1.164475 -2.543940 -0.170330 -1.523254 -0.190582 0.231608
    40 0.024032 -1.129042 0.017807 -1.225022 0.000000 0.000001
    41 0.014898 -0.883989 -0.019848 -0.316775 0.000000 0.000000
    42 -0.586770 -1.264477 0.200161 0.172354 -0.158106 -2.744325
    43 1.522835 0.058681 0.016848 0.001410 0.008985 0.812634
    44 1.117947 0.048424 -0.005766 0.005054 -0.024155 -0.153264
    45 -0.139399 -0.111698 0.014397 1.203062 0.226005 1.577116
    46 -1.393470 8.839177 -0.239433 1.580804 -0.005023 -1.566847
  time 16
    0 -0.999768 -1.867275 2.937151 0.000000 0.000000 0.000000
    1 8.542158 0.599537 -8.376307 -0.829504 -1.610321 0.633606
    2 -0.071918 -8.498730 -0.104137 0.149145 0.256984 0.031341
    3 2.326608 -5.978026 1.161003 0.229329 0.050133 -1.560828
    4 8.068350 -0.889454 0.636832 -0.113839 0.064097 -1.606175
    5 -1.093079 -1.020534 0.000000 0.000000 0.000000 -1.516300
    6 0.332523 0.688256 1.169537 -0.024837 -0.289367 -1.533211
    7 -3.883944 0.696199 1.094116 0.000000 0.000000 1.570796
    8 -2.125080 1.560641 0.000000 0.000000 0.000000 1.570796
    9 0.000000 0.000000 0.000000 0.000000 0.000000 0.000000
    10 2.303347 -0.775169 0.632548 3.141592 -1.570796 0.000000
    11 1.257180 8.762585 -0.153713 -1.570562 0.002683 -1.566807
    12 -0.488518 -2.755602 -0.228260 -1.046804 -0.202562 -0.209541
    13 0.039887 -1.479790 0.029854 -1.943778 0.000000 0.000001
    14 0.028786 -1.075731 -0.023109 -0.173679 0.000000 0.000000
    15 0.250027 -2.820665 -0.238396 -0.797118 -0.167517 -0.114938
    16 -0.049759 -1.680544 0.100479 -1.774062 0.000000 -0.000002
    17 -0.034142 -1.148312 0.084782 -0.925906 0.000000 0.000000
    18 0.957766 -2.746780 -0.090302 -0.139536 -0.162277 0.053939
    19 -0.033420 -1.397129 -0.011257 -0.521004 0.000000 -0.000001
    20 -0.022360 -0.957436 0.018784 -0.975475 0.000000 0.000000
    21 -1.180681 -2.507217 -0.193859 -0.960196 -0.081516 -0.261329
    22 -0.024967 -1.123934 0.017597 -1.635831 0.000000 0.000001
    23 -0.020057 -0.890968 0.010090 -0.677870 0.000000 0.000000
    24 0.583510 -1.197277 0.185379 0.188028 -0.850416 -1.301860
    25 1.535927 0.010246 0.005009 -0.002964 -0.012979 -0.506650
    26 1.100771 0.004527 -0.010679 -0.016207 0.000369 -1.371740
    27 0.120153 -0.050270 -0.054489 0.287569 3.110905 1.561085
    28 0.561288 -11.247068 -12.439163 -1.887949 -5.244583 -1.233929
    29 0.096944 -8.450418 -0.009365 0.146791 -1.328380 0.242747
    30 0.447953 -2.798986 -0.200443 -1.127266 -0.048016 0.185408
    31 -0.032909 -1.480204 0.004940 -1.739492 0.000000 0.000002
    32 -0.027022 -1.076920 -0.020210 -0.060489 0.000000 0.000000
    33 -0.249534 -2.846964 -0.174213 -0.749792 -0.055002 0.096913
    34 0.043235 -1.683941 0.096012 -1.901441 0.002823 -0.000167
    35 0.031729 -1.160830 0.058838 -0.355262 0.000642 0.008372
    36 -0.963866 -2.785145 -0.085350 -0.089607 0.106308 0.015262
    37 0.028479 -1.403067 0.006271 -1.682399 0.000000 0.000000
    38 0.021413 -0.957781 0.020046 -0.738188 0.000000 0.000000
    39 1.164475 -2.543940 -0.170330 -1.523254 -0.190582 0.231608
    40 0.024032 -1.129042 0.017807 -1.225022 0.000000 0.000001
    41 0.014898 -0.883989 -0.019848 -0.316775 0.000000 0.000000
    42 -0.586770 -1.264477 0.200161 0.172354 -0.158106 -2.744325
    43 1.522835 0.058681 0.016848 0.001410 0.008985 0.812634
    44 1.117947 0.048424 -0.005766 0.005054 -0.024155 -0.153264
    45 -0.139399 -0.111698 0.014397 1.203062 0.226005 1.577116
    46 -1.393470 8.839177 -0.239433 1.580804 -0.005023 -1.566847
  time 17
    0 -0.999768 -1.867275 2.937151 0.000000 0.000000 0.000000
    1 8.542158 0.650320 -8.411465 -0.701303 -1.609626 0.505406
    2 -0.071918 -8.498730 -0.104137 0.149145 0.256984 0.031341
    3 2.326608 -5.978026 1.161003 0.229329 0.050133 -1.560828
    4 8.068350 -0.889454 0.636832 -0.070454 -0.191953 -1.514516
    5 -1.093079 -1.020534 0.000000 0.000000 0.000000 -1.518586
    6 0.332523 0.688256 1.169537 -0.016845 -0.250707 -1.532363
    7 -3.883944 0.696199 1.094116 0.000000 0.000000 1.570796
    8 -2.125080 1.560641 0.000000 0.000000 0.000000 1.570796
    9 0.000000 0.000000 0.000000 0.000000 0.000000 0.000000
    10 2.303347 -0.775169 0.632548 3.141592 -1.570796 0.000000
    11 1.257180 8.762585 -0.153713 -1.570562 0.002683 -1.566807
    12 -0.488518 -2.755602 -0.228260 -1.046804 -0.202562 -0.209541
    13 0.039887 -1.479790 0.029854 -1.943778 0.000000 0.000001
    14 0.028786 -1.075731 -0.023109 -0.173679 0.000000 0.000000
    15 0.250027 -2.820665 -0.238396 -0.797118 -0.167517 -0.114938
    16 -0.049759 -1.680544 0.100479 -1.774062 0.000000 -0.000002
    17 -0.034142 -1.148312 0.084782 -0.925906 0.000000 0.000000
    18 0.957766 -2.746780 -0.090302 -0.139536 -0.162277 0.053939
    19 -0.033420 -1.397129 -0.011257 -0.521004 0.000000 -0.000001
    20 -0.022360 -0.957436 0.018784 -0.975475 0.000000 0.000000
    21 -1.180681 -2.507217 -0.193859 -0.960196 -0.081516 -0.261329
    22 -0.024967 -1.123934 0.017597 -1.635831 0.000000 0.000001
    23 -0.020057 -0.890968 0.010090 -0.677870 0.000000 0.000000
    24 0.583510 -1.197277 0.185379 0.188028 -0.850416 -1.301860
    25 1.535927 0.010246 0.005009 -0.002964 -0.012979 -0.506650
    26 1.100771 0.004527 -0.010679 -0.016207 0.000369 -1.371740
    27 0.120153 -0.050270 -0.054489 0.287569 3.110905 1.561085
    28 0.569100 -11.215817 -12.435256 -1.887017 -5.249650 -1.233260
    29 0.096944 -8.450418 -0.009365 0.146791 -1.328380 0.242747
    30 0.447953 -2.798986 -0.200443 -1.127266 -0.048016 0.185408
    31 -0.032909 -1.480204 0.004940 -1.739492 0.000000 0.000002
    32 -0.027022 -1.076920 -0.020210 -0.060489 0.000000 0.000000
    33 -0.249534 -2.846964 -0.174213 -0.749792 -0.055002 0.096913
    34 0.043235 -1.683941 0.096012 -1.901441 0.002823 -0.000167
    35 0.031729 -1.160830 0.058838 -0.355262 0.000642 0.008372
    36 -0.963866 -2.785145 -0.085350 -0.089607 0.106308 0.015262
    37 0.028479 -1.403067 0.006271 -1.682399 0.000000 0.000000
    38 0.021413 -0.957781 0.020046 -0.738188 0.000000 0.000000
    39 1.164475 -2.543940 -0.170330 -1.523254 -0.190582 0.231608
    40 0.024032 -1.129042 0.017807 -1.225022 0.000000 0.000001
    41 0.014898 -0.883989 -0.019848 -0.316775 0.000000 0.000000
    42 -0.586770 -1.264477 0.200161 0.172354 -0.158106 -2.744325
    43 1.522835 0.058681 0.016848 0.001410 0.008985 0.812634
    44 1.117947 0.048424 -0.005766 0.005054 -0.024155 -0.153264
    45 -0.139399 -0.111698 0.014397 1.203062 0.226005 1.577116
    46 -1.393470 8.839177 -0.239433 1.580804 -0.005023 -1.566847
  time 18
    0 -0.999768 -1.867275 2.937151 0.000000 0.000000 0.000000
    1 8.542158 0.689384 -8.454435 -0.567147 -1.609487 0.371268
    2 -0.071918 -8.498730 -0.104137 0.149145 0.256984 0.031341
    3 2.326608 -5.978026 1.161003 0.229329 0.050133 -1.560828
    4 8.068350 -0.889454 0.636832 -0.048195 -0.399014 -1.438582
    5 -1.093079 -1.020534 0.000000 0.000000 0.000000 -1.521855
    6 0.332523 0.688256 1.169537 -0.001271 -0.162014 -1.530140
    7 -3.883944 0.696199 1.094116 0.000000 0.000000 1.570796
    8 -2.125080 1.560641 0.000000 0.000000 0.000000 1.570796
    9 0.000000 0.000000 0.000000 0.000000 0.000000 0.000000
    10 2.303347 -0.775169 0.632548 3.141592 -1.570796 0.000000
    11 1.257180 8.762585 -0.153713 -1.570562 0.002683 -1.566807
    12 -0.488518 -2.755602 -0.228260 -1.046804 -0.202562 -0.209541
    13 0.039887 -1.479790 0.029854 -1.943778 0.000000 0.000001
    14 0.028786 -1.075731 -0.023109 -0.173679 0.000000 0.000000
    15 0.250027 -2.820665 -0.238396 -0.797118 -0.167517 -0.114938
    16 -0.049759 -1.680544 0.100479 -1.774062 0.000000 -0.000002
    17 -0.034142 -1.148312 0.084782 -0.925906 0.000000 0.000000
    18 0.957766 -2.746780 -0.090302 -0.139536 -0.162277 0.053939
    19 -0.033420 -1.397129 -0.011257 -0.521004 0.000000 -0.000001
    20 -0.022360 -0.957436 0.018784 -0.975475 0.000000 0.000000
    21 -1.180681 -2.507217 -0.193859 -0.960196 -0.081516 -0.261329
    22 -0.024967 -1.123934 0.017597 -1.635831 0.000000 0.000001
    23 -0.020057 -0.890968 0.010090 -0.677870 0.000000 0.000000
    24 0.583510 -1.197277 0.185379 0.188028 -0.850416 -1.301860
    25 1.535927 0.010246 0.005009 -0.002964 -0.012979 -0.506650
    26 1.100771 0.004527 -0.010679 -0.016207 0.000369 -1.371740
    27 0.120153 -0.050270 -0.054489 0.287569 3.110905 1.561085
    28 0.576913 -11.192379 -12.439163 -1.886285 -5.254791 -1.232592
    29 0.096944 -8.450418 -0.009365 0.146791 -1.328380 0.242747
    30 0.447953 -2.798986 -0.200443 -1.127266 -0.048016 0.185408
    31 -0.032909 -1.480204 0.004940 -1.739492 0.000000 0.000002
    32 -0.027022 -1.076920 -0.020210 -0.060489 0.000000 0.000000
    33 -0.249534 -2.846964 -0.174213 -0.749792 -0.055002 0.096913
    34 0.043235 -1.683941 0.096012 -1.901441 0.002823 -0.000167
    35 0.031729 -1.160830 0.058838 -0.355262 0.000642 0.008372
    36 -0.963866 -2.785145 -0.085350 -0.089607 0.106308 0.015262
    37 0.028479 -1.403067 0.006271 -1.682399 0.000000 0.000000
    38 0.021413 -0.957781 0.020046 -0.738188 0.000000 0.000000
    39 1.164475 -2.543940 -0.170330 -1.523254 -0.190582 0.231608
    40 0.024032 -1.129042 0.017807 -1.225022 0.000000 0.000001
    41 0.014898 -0.883989 -0.019848 -0.316775 0.000000 0.000000
    42 -0.586770 -1.264477 0.200161 0.172354 -0.158106 -2.744325
    43 1.522835 0.058681 0.016848 0.001410 0.008985 0.812634
    44 1.117947 0.048424 -0.005766 0.005054 -0.024155 -0.153264
    45 -0.139399 -0.111698 0.014397 1.203062 0.226005 1.577116
    46 -1.393470 8.839177 -0.239433 1.580804 -0.005023 -1.566847
  time 19
    0 -0.999768 -1.867275 2.937151 0.000000 0.000000 0.000000
    1 8.542158 0.728448 -8.501311 -0.438259 -1.609997 0.242468
    2 -0.071918 -8.498730 -0.104137 0.149145 0.256984 0.031341
    3 2.326608 -5.978026 1.161003 0.229329 0.050133 -1.560828
    4 8.068350 -0.889454 0.636832 -0.036311 -0.505561 -1.403299
    5 -1.093079 -1.020534 0.000000 0.000000 0.000000 -1.525935
    6 0.332523 0.688256 1.169537 0.015697 -0.064853 -1.526139
    7 -3.883944 0.696199 1.094116 0.000000 0.000000 1.570796
    8 -2.125080 1.560641 0.000000 0.000000 0.000000 1.570796
    9 0.000000 0.000000 0.000000 0.000000 0.000000 0.000000
    10 2.303347 -0.775169 0.632548 3.141592 -1.570796 0.000000
    11 1.257180 8.762585 -0.153713 -1.570562 0.002683 -1.566807
    12 -0.488518 -2.755602 -0.228260 -1.046804 -0.202562 -0.209541
    13 0.039887 -1.479790 0.029854 -1.943778 0.000000 0.000001
    14 0.028786 -1.075731 -0.023109 -0.173679 0.000000 0.000000
    15 0.250027 -2.820665 -0.238396 -0.797118 -0.167517 -0.114938
    16 -0.049759 -1.680544 0.100479 -1.774062 0.000000 -0.000002
    17 -0.034142 -1.148312 0.084782 -0.925906 0.000000 0.000000
    18 0.957766 -2.746780 -0.090302 -0.139536 -0.162277 0.053939
    19 -0.033420 -1.397129 -0.011257 -0.521004 0.000000 -0.000001
    20 -0.022360 -0.957436 0.018784 -0.975475 0.000000 0.000000
    21 -1.180681 -2.507217 -0.193859 -0.960196 -0.081516 -0.261329
    22 -0.024967 -1.123934 0.017597 -1.635831 0.000000 0.000001
    23 -0.020057 -0.890968 0.010090 -0.677870 0.000000 0.000000
    24 0.583510 -1.197277 0.185379 0.188028 -0.850416 -1.301860
    25 1.535927 0.010246 0.005009 -0.002964 -0.012979 -0.506650
    26 1.100771 0.004527 -0.010679 -0.016207 0.000369 -1.371740
    27 0.120153 -0.050270 -0.054489 0.287569 3.110905 1.561085
    28 0.584726 -11.168941 -12.446976 -1.885687 -5.259859 -1.232114
    29 0.096944 -8.450418 -0.009365 0.146791 -1.328380 0.242747
    30 0.447953 -2.798986 -0.200443 -1.127266 -0.048016 0.185408
    31 -0.032909 -1.480204 0.004940 -1.739492 0.000000 0.000002
    32 -0.027022 -1.076920 -0.020210 -0.060489 0.000000 0.000000
    33 -0.249534 -2.846964 -0.174213 -0.749792 -0.055002 0.096913
    34 0.043235 -1.683941 0.096012 -1.901441 0.002823 -0.000167
    35 0.031729 -1.160830 0.058838 -0.355262 0.000642 0.008372
    36 -0.963866 -2.785145 -0.085350 -0.089607 0.106308 0.015262
    37 0.028479 -1.403067 0.006271 -1.682399 0.000000 0.000000
    38 0.021413 -0.957781 0.020046 -0.738188 0.000000 0.000000
    39 1.164475 -2.543940 -0.170330 -1.523254 -0.190582 0.231608
    40 0.024032 -1.129042 0.017807 -1.225022 0.000000 0.000001
    41 0.014898 -0.883989 -0.019848 -0.316775 0.000000 0.000000
    42 -0.586770 -1.264477 0.200161 0.172354 -0.158106 -2.744325
    43 1.522835 0.058681 0.016848 0.001410 0.008985 0.812634
    44 1.117947 0.048424 -0.005766 0.005054 -0.024155 -0.153264
    45 -0.139399 -0.111698 0.014397 1.203062 0.226005 1.577116
    46 -1.393470 8.839177 -0.239433 1.580804 -0.005023 -1.566847
  time 20
    0 -0.999768 -1.867275 2.937151 0.000000 0.000000 0.000000
    1 8.542158 0.763605 -8.544281 -0.325232 -1.610923 0.129417
    2 -0.071918 -8.498730 -0.104137 0.149145 0.256984 0.031341
    3 2.326608 -5.978026 1.161003 0.229329 0.050133 -1.560828
    4 8.068350 -0.889454 0.636832 -0.021504 -0.493384 -1.417010
    5 -1.093079 -1.020534 0.000000 0.000000 0.000000 -1.530636
    6 0.332523 0.688256 1.169537 0.028033 -0.000471 -1.522178
    7 -3.883944 0.696199 1.094116 0.000000 0.000000 1.570796
    8 -2.125080 1.560641 0.000000 0.000000 0.000000 1.570796
    9 0.000000 0.000000 0.000000 0.000000 0.000000 0.000000
    10 2.303347 -0.775169 0.632548 3.141592 -1.570796 0.000000
    11 1.257180 8.762585 -0.153713 -1.570562 0.002683 -1.566807
    12 -0.488518 -2.755602 -0.228260 -1.046804 -0.202562 -0.209541
    13 0.039887 -1.479790 0.029854 -1.943778 0.000000 0.000001
    14 0.028786 -1.075731 -0.023109 -0.173679 0.000000 0.000000
    15 0.250027 -2.820665 -0.238396 -0.797118 -0.167517 -0.114938
    16 -0.049759 -1.680544 0.100479 -1.774062 0.000000 -0.000002
    17 -0.034142 -1.148312 0.084782 -0.925879 0.000000 0.000000
    18 0.957766 -2.746780 -0.090302 -0.139536 -0.162277 0.053939
    19 -0.033420 -1.397129 -0.011257 -0.521004 0.000000 -0.000001
    20 -0.022360 -0.957436 0.018784 -0.975475 0.000000 0.000000
    21 -1.180681 -2.507217 -0.193859 -0.960196 -0.081516 -0.261329
    22 -0.024967 -1.123934 0.017597 -1.635831 0.000000 0.000001
    23 -0.020057 -0.890968 0.010090 -0.677870 0.000000 0.000000
    24 0.583510 -1.197277 0.185379 0.188028 -0.850416 -1.301860
    25 1.535927 0.010246 0.005009 -0.002964 -0.012979 -0.506650
    26 1.100771 0.004527 -0.010679 -0.016207 0.000369 -1.371740
    27 0.120153 -0.050270 -0.054489 0.287569 3.110905 1.561085
    28 0.588632 -11.153316 -12.454788 -1.885154 -5.264420 -1.231732
    29 0.096944 -8.450418 -0.009365 0.146791 -1.328380 0.242747
    30 0.447953 -2.798986 -0.200443 -1.127266 -0.048016 0.185408
    31 -0.032909 -1.480204 0.004940 -1.739492 0.000000 0.000002
    32 -0.027022 -1.076920 -0.020210 -0.060489 0.000000 0.000000
    33 -0.249534 -2.846964 -0.174213 -0.749792 -0.055002 0.096913
    34 0.043235 -1.683941 0.096012 -1.901441 0.002823 -0.000167
    35 0.031729 -1.160830 0.058838 -0.355262 0.000642 0.008372
    36 -0.963866 -2.785145 -0.085350 -0.089607 0.106308 0.015262
    37 0.028479 -1.403067 0.006271 -1.682399 0.000000 0.000000
    38 0.021413 -0.957781 0.020046 -0.738188 0.000000 0.000000
    39 1.164475 -2.543940 -0.170330 -1.523254 -0.190582 0.231608
    40 0.024032 -1.129042 0.017807 -1.225022 0.000000 0.000001
    41 0.014898 -0.883989 -0.019848 -0.316775 0.000000 0.000000
    42 -0.586770 -1.264477 0.200161 0.172354 -0.158106 -2.744325
    43 1.522835 0.058681 0.016848 0.001410 0.008985 0.812634
    44 1.117947 0.048424 -0.005766 0.005054 -0.024155 -0.153264
    45 -0.139399 -0.111698 0.014397 1.203062 0.226005 1.577116
    46 -1.393470 8.839177 -0.239433 1.580804 -0.005023 -1.566847
  time 21
    0 -0.999768 -1.867275 2.937151 0.000000 0.000000 0.000000
    1 8.542158 0.787043 -8.579438 -0.235509 -1.612126 0.039791
    2 -0.071918 -8.498730 -0.104137 0.149145 0.256984 0.031341
    3 2.326608 -5.978026 1.161003 0.229329 0.050133 -1.560828
    4 8.068350 -0.889454 0.636832 -0.006225 -0.399860 -1.455456
    5 -1.093079 -1.020534 0.000000 0.000000 0.000000 -1.535758
    6 0.332523 0.688256 1.169537 0.031394 0.001647 -1.520360
    7 -3.883944 0.696199 1.094116 0.000000 0.000000 1.570796
    8 -2.125080 1.560641 0.000000 0.000000 0.000000 1.570796
    9 0.000000 0.000000 0.000000 0.000000 0.000000 0.000000
    10 2.303347 -0.775169 0.632548 3.141592 -1.570796 0.000000
    11 1.257180 8.762585 -0.153713 -1.570562 0.002683 -1.566807
    12 -0.488518 -2.755602 -0.228260 -1.046804 -0.202562 -0.209541
    13 0.039887 -1.479790 0.029854 -1.943778 0.000000 0.000001
    14 0.028786 -1.075731 -0.023109 -0.173679 0.000000 0.000000
    15 0.250027 -2.820665 -0.238396 -0.797118 -0.167517 -0.114938
    16 -0.049759 -1.680544 0.100479 -1.774062 0.000000 -0.000002
    17 -0.034142 -1.148312 0.084782 -0.925879 0.000000 0.000000
    18 0.957766 -2.746780 -0.090302 -0.139536 -0.162277 0.053939
    19 -0.033420 -1.397129 -0.011257 -0.521004 0.000000 -0.000001
    20 -0.022360 -0.957436 0.018784 -0.975475 0.000000 0.000000
    21 -1.180681 -2.507217 -0.193859 -0.960196 -0.081516 -0.261329
    22 -0.024967 -1.123934 0.017597 -1.635831 0.000000 0.000001
    23 -0.020057 -0.890968 0.010090 -0.677870 0.000000 0.000000
    24 0.583510 -1.197277 0.185379 0.188028 -0.850416 -1.301860
    25 1.535927 0.010246 0.005009 -0.002964 -0.012979 -0.506650
    26 1.100771 0.004527 -0.010679 -0.016207 0.000369 -1.371740
    27 0.120153 -0.050270 -0.054489 0.287569 3.110905 1.561085
    28 0.596445 -11.137690 -12.458695 -1.884755 -5.268257 -1.231445
    29 0.096944 -8.450418 -0.009365 0.146791 -1.328380 0.242747
    30 0.447953 -2.798986 -0.200443 -1.127266 -0.048016 0.185408
    31 -0.032909 -1.480204 0.004940 -1.739492 0.000000 0.000002
    32 -0.027022 -1.076920 -0.020210 -0.060489 0.000000 0.000000
    33 -0.249534 -2.846964 -0.174213 -0.749792 -0.055002 0.096913
    34 0.043235 -1.683941 0.096012 -1.901441 0.002823 -0.000167
    35 0.031729 -1.160830 0.058838 -0.355262 0.000642 0.008372
    36 -0.963866 -2.785145 -0.085350 -0.089607 0.106308 0.015262
    37 0.028479 -1.403067 0.006271 -1.682399 0.000000 0.000000
    38 0.021413 -0.957781 0.020046 -0.738188 0.000000 0.000000
    39 1.164475 -2.543940 -0.170330 -1.523254 -0.190582 0.231608
    40 0.024032 -1.129042 0.017807 -1.225022 0.000000 0.000001
    41 0.014898 -0.883989 -0.019848 -0.316775 0.000000 0.000000
    42 -0.586770 -1.264477 0.200161 0.172354 -0.158106 -2.744325
    43 1.522835 0.058681 0.016848 0.001410 0.008985 0.812634
    44 1.117947 0.048424 -0.005766 0.005054 -0.024155 -0.153264
    45 -0.139399 -0.111698 0.014397 1.203062 0.226005 1.577116
    46 -1.393470 8.839177 -0.239433 1.580804 -0.005023 -1.566847
  time 22
    0 -0.999768 -1.867275 2.937151 0.000000 0.000000 0.000000
    1 8.542158 0.806575 -8.602877 -0.173727 -1.613145 -0.021939
    2 -0.071918 -8.498730 -0.104137 0.149145 0.256984 0.031341
    3 2.326608 -5.978026 1.161003 0.229329 0.050133 -1.560828
    4 8.068350 -0.889454 0.636832 0.001603 -0.258192 -1.503970
    5 -1.093079 -1.020534 0.000000 0.000000 0.000000 -1.541139
    6 0.332523 0.688256 1.169537 0.029673 -0.029878 -1.520158
    7 -3.883944 0.696199 1.094116 0.000000 0.000000 1.570796
    8 -2.125080 1.560641 0.000000 0.000000 0.000000 1.570796
    9 0.000000 0.000000 0.000000 0.000000 0.000000 0.000000
    10 2.303347 -0.775169 0.632548 3.141592 -1.570796 0.000000
    11 1.257180 8.762585 -0.153713 -1.570562 0.002683 -1.566807
    12 -0.488518 -2.755602 -0.228260 -1.046804 -0.202562 -0.209541
    13 0.039887 -1.479790 0.029854 -1.943778 0.000000 0.000001
    14 0.028786 -1.075731 -0.023109 -0.173679 0.000000 0.000000
    15 0.250027 -2.820665 -0.238396 -0.797118 -0.167517 -0.114938
    16 -0.049759 -1.680544 0.100479 -1.774062 0.000000 -0.000002
    17 -0.034142 -1.148312 0.084782 -0.925879 0.000000 0.000000
    18 0.957766 -2.746780 -0.090302 -0.139536 -0.162277 0.053939
    19 -0.033420 -1.397129 -0.011257 -0.521004 0.000000 -0.000001
    20 -0.022360 -0.957436 0.018784 -0.975475 0.000000 0.000000
    21 -1.180681 -2.507217 -0.193859 -0.960196 -0.081516 -0.261329
    22 -0.024967 -1.123934 0.017597 -1.635831 0.000000 0.000001
    23 -0.020057 -0.890968 0.010090 -0.677870 0.000000 0.000000
    24 0.583510 -1.197277 0.185379 0.188028 -0.850416 -1.301860
    25 1.535927 0.010246 0.005009 -0.002964 -0.012979 -0.506650
    26 1.100771 0.004527 -0.010679 -0.016207 0.000369 -1.371740
    27 0.120153 -0.050270 -0.054489 0.287569 3.110905 1.561085
    28 0.600351 -11.133784 -12.462601 -1.884422 -5.271008 -1.231254
    29 0.096944 -8.450418 -0.009365 0.146791 -1.328380 0.242747
    30 0.447953 -2.798986 -0.200443 -1.127266 -0.048016 0.185408
    31 -0.032909 -1.480204 0.004940 -1.739492 0.000000 0.000002
    32 -0.027022 -1.076920 -0.020210 -0.060489 0.000000 0.000000
    33 -0.249534 -2.846964 -0.174213 -0.749792 -0.055002 0.096913
    34 0.043235 -1.683941 0.096012 -1.901441 0.002823 -0.000167
    35 0.031729 -1.160830 0.058838 -0.355262 0.000642 0.008372
    36 -0.963866 -2.785145 -0.085350 -0.089607 0.106308 0.015262
    37 0.028479 -1.403067 0.006271 -1.682399 0.000000 0.000000
    38 0.021413 -0.957781 0.020046 -0.738188 0.000000 0.000000
    39 1.164475 -2.543940 -0.170330 -1.523254 -0.190582 0.231608
    40 0.024032 -1.129042 0.017807 -1.225022 0.000000 0.000001
    41 0.014898 -0.883989 -0.019848 -0.316775 0.000000 0.000000
    42 -0.586770 -1.264477 0.200161 0.172354 -0.158106 -2.744325
    43 1.522835 0.058681 0.016848 0.001410 0.008985 0.812634
    44 1.117947 0.048424 -0.005766 0.005054 -0.024155 -0.153264
    45 -0.139399 -0.111698 0.014397 1.203062 0.226005 1.577116
    46 -1.393470 8.839177 -0.239433 1.580804 -0.005023 -1.566847
  time 23
    0 -0.999768 -1.867275 2.937151 0.000000 0.000000 0.000000
    1 8.542158 0.810481 -8.614596 -0.138685 -1.613839 -0.057042
    2 -0.071918 -8.498730 -0.104137 0.149145 0.256984 0.031341
    3 2.326608 -5.978026 1.161003 0.229329 0.050133 -1.560828
    4 8.068350 -0.889454 0.636832 0.000000 -0.102149 -1.553251
    5 -1.093079 -1.020534 0.000000 0.000000 0.000000 -1.546579
    6 0.332523 0.688256 1.169537 0.028484 -0.050424 -1.520683
    7 -3.883944 0.696199 1.094116 0.000000 0.000000 1.570796
    8 -2.125080 1.560641 0.000000 0.000000 0.000000 1.570796
    9 0.000000 0.000000 0.000000 0.000000 0.000000 0.000000
    10 2.303347 -0.775169 0.632548 3.141592 -1.570796 0.000000
    11 1.257180 8.762585 -0.153713 -1.570562 0.002683 -1.566807
    12 -0.488518 -2.755602 -0.228260 -1.046804 -0.202562 -0.209541
    13 0.039887 -1.479790 0.029854 -1.943778 0.000000 0.000001
    14 0.028786 -1.075731 -0.023109 -0.173679 0.000000 0.000000
    15 0.250027 -2.820665 -0.238396 -0.797118 -0.167517 -0.114938
    16 -0.049759 -1.680544 0.100479 -1.774062 0.000000 -0.000002
    17 -0.034142 -1.148312 0.084782 -0.925906 0.000000 0.000000
    18 0.957766 -2.746780 -0.090302 -0.139536 -0.162277 0.053939
    19 -0.033420 -1.397129 -0.011257 -0.521004 0.000000 -0.000001
    20 -0.022360 -0.957436 0.018784 -0.975475 0.000000 0.000000
    21 -1.180681 -2.507217 -0.193859 -0.960196 -0.081516 -0.261329
    22 -0.024967 -1.123934 0.017597 -1.635831 0.000000 0.000001
    23 -0.020057 -0.890968 0.010090 -0.677870 0.000000 0.000000
    24 0.583510 -1.197277 0.185379 0.188028 -0.850416 -1.301860
    25 1.535927 0.010246 0.005009 -0.002964 -0.012979 -0.506650
    26 1.100771 0.004527 -0.010679 -0.016207 0.000369 -1.371740
    27 0.120153 -0.050270 -0.054489 0.287569 3.110905 1.561085
    28 0.600351 -11.129877 -12.462601 -1.884223 -5.272673 -1.231063
    29 0.096944 -8.450418 -0.009365 0.146791 -1.328380 0.242747
    30 0.447953 -2.798986 -0.200443 -1.127266 -0.048016 0.185408
    31 -0.032909 -1.480204 0.004940 -1.739492 0.000000 0.000002
    32 -0.027022 -1.076920 -0.020210 -0.060489 0.000000 0.000000
    33 -0.249534 -2.846964 -0.174213 -0.749792 -0.055002 0.096913
    34 0.043235 -1.683941 0.096012 -1.901441 0.002823 -0.000167
    35 0.031729 -1.160830 0.058838 -0.355262 0.000642 0.008372
    36 -0.963866 -2.785145 -0.085350 -0.089607 0.106308 0.015262
    37 0.028479 -1.403067 0.006271 -1.682399 0.000000 0.000000
    38 0.021413 -0.957781 0.020046 -0.738188 0.000000 0.000000
    39 1.164475 -2.543940 -0.170330 -1.523254 -0.190582 0.231608
    40 0.024032 -1.129042 0.017807 -1.225022 0.000000 0.000001
    41 0.014898 -0.883989 -0.019848 -0.316775 0.000000 0.000000
    42 -0.586770 -1.264477 0.200161 0.172354 -0.158106 -2.744325
    43 1.522835 0.058681 0.016848 0.001410 0.008985 0.812634
    44 1.117947 0.048424 -0.005766 0.005054 -0.024155 -0.153264
    45 -0.139399 -0.111698 0.014397 1.203062 0.226005 1.577116
    46 -1.393470 8.839177 -0.239433 1.580804 -0.005023 -1.566847
  time 24
    0 -0.999768 -1.867275 2.937151 0.000000 0.000000 0.000000
    1 8.542158 0.810481 -8.622409 -0.122538 -1.614163 -0.073192
    2 -0.071918 -8.498730 -0.104137 0.149145 0.256984 0.031341
    3 2.326608 -5.978026 1.161003 0.229329 0.050133 -1.560828
    4 8.068350 -0.889454 0.636832 -0.008111 0.034219 -1.595532
    5 -1.093079 -1.020534 0.000000 0.000000 0.000000 -1.551888
    6 0.332523 0.688256 1.169537 0.030738 -0.043993 -1.521249
    7 -3.883944 0.696199 1.094116 0.000000 0.000000 1.570796
    8 -2.125080 1.560641 0.000000 0.000000 0.000000 1.570796
    9 0.000000 0.000000 0.000000 0.000000 0.000000 0.000000
    10 2.303347 -0.775169 0.632548 3.141592 -1.570796 0.000000
    11 1.257180 8.762585 -0.153713 -1.570562 0.002683 -1.566807
    12 -0.488518 -2.755602 -0.228260 -1.046804 -0.202562 -0.209541
    13 0.039887 -1.479790 0.029854 -1.943778 0.000000 0.000001
    14 0.028786 -1.075731 -0.023109 -0.173679 0.000000 0.000000
    15 0.250027 -2.820665 -0.238396 -0.797118 -0.167517 -0.114938
    16 -0.049759 -1.680544 0.100479 -1.774062 0.000000 -0.000002
    17 -0.034142 -1.148312 0.084782 -0.925906 0.000000 0.000000
    18 0.957766 -2.746780 -0.090302 -0.139536 -0.162277 0.053939
    19 -0.033420 -1.397129 -0.011257 -0.521004 0.000000 -0.000001
    20 -0.022360 -0.957436 0.018784 -0.975475 0.000000 0.000000
    21 -1.180681 -2.507217 -0.193859 -0.960196 -0.081516 -0.261329
    22 -0.024967 -1.123934 0.017597 -1.635831 0.000000 0.000001
    23 -0.020057 -0.890968 0.010090 -0.677870 0.000000 0.000000
    24 0.583510 -1.197277 0.185379 0.188028 -0.850416 -1.301860
    25 1.535927 0.010246 0.005009 -0.002964 -0.012979 -0.506650
    26 1.100771 0.004527 -0.010679 -0.016207 0.000369 -1.371740
    27 0.120153 -0.050270 -0.054489 0.287569 3.110905 1.561085
    28 0.604258 -11.133784 -12.462601 -1.884156 -5.273470 -1.231063
    29 0.096944 -8.450418 -0.009365 0.146791 -1.328380 0.242747
    30 0.447953 -2.798986 -0.200443 -1.127266 -0.048016 0.185408
    31 -0.032909 -1.480204 0.004940 -1.739492 0.000000 0.000002
    32 -0.027022 -1.076920 -0.020210 -0.060489 0.000000 0.000000
    33 -0.249534 -2.846964 -0.174213 -0.749792 -0.055002 0.096913
    34 0.043235 -1.683941 0.096012 -1.901441 0.002823 -0.000167
    35 0.031729 -1.160830 0.058838 -0.355262 0.000642 0.008372
    36 -0.963866 -2.785145 -0.085350 -0.089607 0.106308 0.015262
    37 0.028479 -1.403067 0.006271 -1.682399 0.000000 0.000000
    38 0.021413 -0.957781 0.020046 -0.738188 0.000000 0.000000
    39 1.164475 -2.543940 -0.170330 -1.523254 -0.190582 0.231608
    40 0.024032 -1.129042 0.017807 -1.225022 0.000000 0.000001
    41 0.014898 -0.883989 -0.019848 -0.316775 0.000000 0.000000
    42 -0.586770 -1.264477 0.200161 0.172354 -0.158106 -2.744325
    43 1.522835 0.058681 0.016848 0.001410 0.008985 0.812634
    44 1.117947 0.048424 -0.005766 0.005054 -0.024155 -0.153264
    45 -0.139399 -0.111698 0.014397 1.203062 0.226005 1.577116
    46 -1.393470 8.839177 -0.239433 1.580804 -0.005023 -1.566847
  time 25
    0 -0.999768 -1.867275 2.937151 0.000000 0.000000 0.000000
    1 8.542158 0.802669 -8.626315 -0.120363 -1.614163 -0.075328
    2 -0.071918 -8.498730 -0.104137 0.149145 0.256984 0.031341
    3 2.326608 -5.978026 1.161003 0.229329 0.050133 -1.560828
    4 8.068350 -0.889454 0.636832 -0.014808 0.117652 -1.621994
    5 -1.093079 -1.020534 0.000000 0.000000 0.000000 -1.556893
    6 0.332523 0.688256 1.169537 0.033935 -0.029172 -1.521936
    7 -3.883944 0.696199 1.094116 0.000000 0.000000 1.570796
    8 -2.125080 1.560641 0.000000 0.000000 0.000000 1.570796
    9 0.000000 0.000000 0.000000 0.000000 0.000000 0.000000
    10 2.303347 -0.775169 0.632548 3.141592 -1.570796 0.000000
    11 1.257180 8.762585 -0.153713 -1.570562 0.002683 -1.566807
    12 -0.488518 -2.755602 -0.228260 -1.046804 -0.202562 -0.209541
    13 0.039887 -1.479790 0.029854 -1.943778 0.000000 0.000001
    14 0.028786 -1.075731 -0.023109 -0.173679 0.000000 0.000000
    15 0.250027 -2.820665 -0.238396 -0.797118 -0.167517 -0.114938
    16 -0.049759 -1.680544 0.100479 -1.774062 0.000000 -0.000002
    17 -0.034142 -1.148312 0.084782 -0.925906 0.000000 0.000000
    18 0.957766 -2.746780 -0.090302 -0.139536 -0.162277 0.053939
    19 -0.033420 -1.397129 -0.011257 -0.521004 0.000000 -0.000001
    20 -0.022360 -0.957436 0.018784 -0.975475 0.000000 0.000000
    21 -1.180681 -2.507217 -0.193859 -0.960196 -0.081516 -0.261329
    22 -0.024967 -1.123934 0.017597 -1.635831 0.000000 0.000001
    23 -0.020057 -0.890968 0.010090 -0.677870 0.000000 0.000000
    24 0.583510 -1.197277 0.185379 0.188028 -0.850416 -1.301860
    25 1.535927 0.010246 0.005009 -0.002964 -0.012979 -0.506650
    26 1.100771 0.004527 -0.010679 -0.016207 0.000369 -1.371740
    27 0.120153 -0.050270 -0.054489 0.287569 3.110905 1.561085
    28 0.604258 -11.145503 -12.466507 -1.884223 -5.273542 -1.231063
    29 0.096944 -8.450418 -0.009365 0.146791 -1.328380 0.242747
    30 0.447953 -2.798986 -0.200443 -1.127266 -0.048016 0.185408
    31 -0.032909 -1.480204 0.004940 -1.739492 0.000000 0.000002
    32 -0.027022 -1.076920 -0.020210 -0.060489 0.000000 0.000000
    33 -0.249534 -2.846964 -0.174213 -0.749792 -0.055002 0.096913
    34 0.043235 -1.683941 0.096012 -1.901441 0.002823 -0.000167
    35 0.031729 -1.160830 0.058838 -0.355262 0.000642 0.008372
    36 -0.963866 -2.785145 -0.085350 -0.089607 0.106308 0.015262
    37 0.028479 -1.403067 0.006271 -1.682399 0.000000 0.000000
    38 0.021413 -0.957781 0.020046 -0.738188 0.000000 0.000000
    39 1.164475 -2.543940 -0.170330 -1.523254 -0.190582 0.231608
    40 0.024032 -1.129042 0.017807 -1.225022 0.000000 0.000001
    41 0.014898 -0.883989 -0.019848 -0.316775 0.000000 0.000000
    42 -0.586770 -1.264477 0.200161 0.172354 -0.158106 -2.744325
    43 1.522835 0.058681 0.016848 0.001410 0.008985 0.812634
    44 1.117947 0.048424 -0.005766 0.005054 -0.024155 -0.153264
    45 -0.139399 -0.111698 0.014397 1.203062 0.226005 1.577116
    46 -1.393470 8.839177 -0.239433 1.580804 -0.005023 -1.566847
  time 26
    0 -0.999768 -1.867275 2.937151 0.000000 0.000000 0.000000
    1 8.542158 0.787043 -8.626315 -0.127921 -1.613932 -0.067787
    2 -0.071918 -8.498730 -0.104137 0.149145 0.256984 0.031341
    3 2.326608 -5.978026 1.161003 0.229329 0.050133 -1.560828
    4 8.068350 -0.889454 0.636832 -0.015279 0.138623 -1.627555
    5 -1.093079 -1.020534 0.000000 0.000000 0.000000 -1.561407
    6 0.332523 0.688256 1.169537 0.036107 -0.012547 -1.523552
    7 -3.883944 0.696199 1.094116 0.000000 0.000000 1.570796
    8 -2.125080 1.560641 0.000000 0.000000 0.000000 1.570796
    9 0.000000 0.000000 0.000000 0.000000 0.000000 0.000000
    10 2.303347 -0.775169 0.632548 3.141592 -1.570796 0.000000
    11 1.257180 8.762585 -0.153713 -1.570562 0.002683 -1.566807
    12 -0.488518 -2.755602 -0.228260 -1.046804 -0.202562 -0.209541
    13 0.039887 -1.479790 0.029854 -1.943778 0.000000 0.000001
    14 0.028786 -1.075731 -0.023109 -0.173679 0.000000 0.000000
    15 0.250027 -2.820665 -0.238396 -0.797118 -0.167517 -0.114938
    16 -0.049759 -1.680544 0.100479 -1.774062 0.000000 -0.000002
    17 -0.034142 -1.148312 0.084782 -0.925879 0.000000 0.000000
    18 0.957766 -2.746780 -0.090302 -0.139536 -0.162277 0.053939
    19 -0.033420 -1.397129 -0.011257 -0.521004 0.000000 -0.000001
    20 -0.022360 -0.957436 0.018784 -0.975475 0.000000 0.000000
    21 -1.180681 -2.507217 -0.193859 -0.960196 -0.081516 -0.261329
    22 -0.024967 -1.123934 0.017597 -1.635831 0.000000 0.000001
    23 -0.020057 -0.890968 0.010090 -0.677870 0.000000 0.000000
    24 0.583510 -1.197277 0.185379 0.188028 -0.850416 -1.301860
    25 1.535927 0.010246 0.005009 -0.002964 -0.012979 -0.506650
    26 1.100771 0.004527 -0.010679 -0.016207 0.000369 -1.371740
    27 0.120153 -0.050270 -0.054489 0.287569 3.110905 1.561085
    28 0.600351 -11.157222 -12.470414 -1.884422 -5.273108 -1.231254
    29 0.096944 -8.450418 -0.009365 0.146791 -1.328380 0.242747
    30 0.447953 -2.798986 -0.200443 -1.127266 -0.048016 0.185408
    31 -0.032909 -1.480204 0.004940 -1.739492 0.000000 0.000002
    32 -0.027022 -1.076920 -0.020210 -0.060489 0.000000 0.000000
    33 -0.249534 -2.846964 -0.174213 -0.749792 -0.055002 0.096913
    34 0.043235 -1.683941 0.096012 -1.901441 0.002823 -0.000167
    35 0.031729 -1.160830 0.058838 -0.355262 0.000642 0.008372
    36 -0.963866 -2.785145 -0.085350 -0.089607 0.106308 0.015262
    37 0.028479 -1.403067 0.006271 -1.682399 0.000000 0.000000
    38 0.021413 -0.957781 0.020046 -0.738188 0.000000 0.000000
    39 1.164475 -2.543940 -0.170330 -1.523254 -0.190582 0.231608
    40 0.024032 -1.129042 0.017807 -1.225022 0.000000 0.000001
    41 0.014898 -0.883989 -0.019848 -0.316775 0.000000 0.000000
    42 -0.586770 -1.264477 0.200161 0.172354 -0.158106 -2.744325
    43 1.522835 0.058681 0.016848 0.001410 0.008985 0.812634
    44 1.117947 0.048424 -0.005766 0.005054 -0.024155 -0.153264
    45 -0.139399 -0.111698 0.014397 1.203062 0.226005 1.577116
    46 -1.393470 8.839177 -0.239433 1.580804 -0.005023 -1.566847
  time 27
    0 -0.999768 -1.867275 2.937151 0.000000 0.000000 0.000000
    1 8.542158 0.767511 -8.622409 -0.141205 -1.613561 -0.054439
    2 -0.071918 -8.498730 -0.104137 0.149145 0.256984 0.031341
    3 2.326608 -5.978026 1.161003 0.229329 0.050133 -1.560828
    4 8.068350 -0.889454 0.636832 -0.012167 0.120753 -1.619118
    5 -1.093079 -1.020534 0.000000 0.000000 0.000000 -1.565241
    6 0.332523 0.688256 1.169537 0.035124 -0.000627 -1.526907
    7 -3.883944 0.696199 1.094116 0.000000 0.000000 1.570796
    8 -2.125080 1.560641 0.000000 0.000000 0.000000 1.570796
    9 0.000000 0.000000 0.000000 0.000000 0.000000 0.000000
    10 2.303347 -0.775169 0.632548 3.141592 -1.570796 0.000000
    11 1.257180 8.762585 -0.153713 -1.570562 0.002683 -1.566807
    12 -0.488518 -2.755602 -0.228260 -1.046804 -0.202562 -0.209541
    13 0.039887 -1.479790 0.029854 -1.943778 0.000000 0.000001
    14 0.028786 -1.075731 -0.023109 -0.173679 0.000000 0.000000
    15 0.250027 -2.820665 -0.238396 -0.797118 -0.167517 -0.114938
    16 -0.049759 -1.680544 0.100479 -1.774062 0.000000 -0.000002
    17 -0.034142 -1.148312 0.084782 -0.925879 0.000000 0.000000
    18 0.957766 -2.746780 -0.090302 -0.139536 -0.162277 0.053939
    19 -0.033420 -1.397129 -0.011257 -0.521004 0.000000 -0.000001
    20 -0.022360 -0.957436 0.018784 -0.975475 0.000000 0.000000
    21 -1.180681 -2.507217 -0.193859 -0.960196 -0.081516 -0.261329
    22 -0.024967 -1.123934 0.017597 -1.635831 0.000000 0.000001
    23 -0.020057 -0.890968 0.010090 -0.677870 0.000000 0.000000
    24 0.583510 -1.197277 0.185379 0.188028 -0.850416 -1.301860
    25 1.535927 0.010246 0.005009 -0.002964 -0.012979 -0.506650
    26 1.100771 0.004527 -0.010679 -0.016207 0.000369 -1.371740
    27 0.120153 -0.050270 -0.054489 0.287569 3.110905 1.561085
    28 0.600351 -11.176754 -12.470414 -1.884622 -5.272456 -1.231445
    29 0.096944 -8.450418 -0.009365 0.146791 -1.328380 0.242747
    30 0.447953 -2.798986 -0.200443 -1.127266 -0.048016 0.185408
    31 -0.032909 -1.480204 0.004940 -1.739492 0.000000 0.000002
    32 -0.027022 -1.076920 -0.020210 -0.060489 0.000000 0.000000
    33 -0.249534 -2.846964 -0.174213 -0.749792 -0.055002 0.096913
    34 0.043235 -1.683941 0.096012 -1.901441 0.002823 -0.000167
    35 0.031729 -1.160830 0.058838 -0.355262 0.000642 0.008372
    36 -0.963866 -2.785145 -0.085350 -0.089607 0.106308 0.015262
    37 0.028479 -1.403067 0.006271 -1.682399 0.000000 0.000000
    38 0.021413 -0.957781 0.020046 -0.738188 0.000000 0.000000
    39 1.164475 -2.543940 -0.170330 -1.523254 -0.190582 0.231608
    40 0.024032 -1.129042 0.017807 -1.225022 0.000000 0.000001
    41 0.014898 -0.883989 -0.019848 -0.316775 0.000000 0.000000
    42 -0.586770 -1.264477 0.200161 0.172354 -0.158106 -2.744325
    43 1.522835 0.058681 0.016848 0.001410 0.008985 0.812634
    44 1.117947 0.048424 -0.005766 0.005054 -0.024155 -0.153264
    45 -0.139399 -0.111698 0.014397 1.203062 0.226005 1.577116
    46 -1.393470 8.839177 -0.239433 1.580804 -0.005023 -1.566847
  time 28
    0 -0.999768 -1.867275 2.937151 0.000000 0.000000 0.000000
    1 8.542158 0.740167 -8.614596 -0.156149 -1.613145 -0.039557
    2 -0.071918 -8.498730 -0.104137 0.149145 0.256984 0.031341
    3 2.326608 -5.978026 1.161003 0.229329 0.050133 -1.560828
    4 8.068350 -0.889454 0.636832 -0.007357 0.080558 -1.602723
    5 -1.093079 -1.020534 0.000000 0.000000 0.000000 -1.568206
    6 0.332523 0.688256 1.169537 0.028279 0.002823 -1.533656
    7 -3.883944 0.696199 1.094116 0.000000 0.000000 1.570796
    8 -2.125080 1.560641 0.000000 0.000000 0.000000 1.570796
    9 0.000000 0.000000 0.000000 0.000000 0.000000 0.000000
    10 2.303347 -0.775169 0.632548 3.141592 -1.570796 0.000000
    11 1.257180 8.762585 -0.153713 -1.570562 0.002683 -1.566807
    12 -0.488518 -2.755602 -0.228260 -1.046804 -0.202562 -0.209541
    13 0.039887 -1.479790 0.029854 -1.943778 0.000000 0.000001
    14 0.028786 -1.075731 -0.023109 -0.173679 0.000000 0.000000
    15 0.250027 -2.820665 -0.238396 -0.797118 -0.167517 -0.114938
    16 -0.049759 -1.680544 0.100479 -1.774062 0.000000 -0.000002
    17 -0.034142 -1.148312 0.084782 -0.925906 0.000000 0.000000
    18 0.957766 -2.746780 -0.090302 -0.139536 -0.162277 0.053939
    19 -0.033420 -1.397129 -0.011257 -0.521004 0.000000 -0.000001
    20 -0.022360 -0.957436 0.018784 -0.975475 0.000000 0.000000
    21 -1.180681 -2.507217 -0.193859 -0.960196 -0.081516 -0.261329
    22 -0.024967 -1.123934 0.017597 -1.635831 0.000000 0.000001
    23 -0.020057 -0.890968 0.010090 -0.677870 0.000000 0.000000
    24 0.583510 -1.197277 0.185379 0.188028 -0.850416 -1.301860
    25 1.535927 0.010246 0.005009 -0.002964 -0.012979 -0.506650
    26 1.100771 0.004527 -0.010679 -0.016207 0.000369 -1.371740
    27 0.120153 -0.050270 -0.054489 0.287569 3.110905 1.561085
    28 0.600351 -11.200192 -12.470414 -1.884888 -5.271732 -1.231636
    29 0.096944 -8.450418 -0.009365 0.146791 -1.328380 0.242747
    30 0.447953 -2.798986 -0.200443 -1.127266 -0.048016 0.185408
    31 -0.032909 -1.480204 0.004940 -1.739492 0.000000 0.000002
    32 -0.027022 -1.076920 -0.020210 -0.060489 0.000000 0.000000
    33 -0.249534 -2.846964 -0.174213 -0.749792 -0.055002 0.096913
    34 0.043235 -1.683941 0.096012 -1.901441 0.002823 -0.000167
    35 0.031729 -1.160830 0.058838 -0.355262 0.000642 0.008372
    36 -0.963866 -2.785145 -0.085350 -0.089607 0.106308 0.015262
    37 0.028479 -1.403067 0.006271 -1.682399 0.000000 0.000000
    38 0.021413 -0.957781 0.020046 -0.738188 0.000000 0.000000
    39 1.164475 -2.543940 -0.170330 -1.523254 -0.190582 0.231608
    40 0.024032 -1.129042 0.017807 -1.225022 0.000000 0.000001
    41 0.014898 -0.883989 -0.019848 -0.316775 0.000000 0.000000
    42 -0.586770 -1.264477 0.200161 0.172354 -0.158106 -2.744325
    43 1.522835 0.058681 0.016848 0.001410 0.008985 0.812634
    44 1.117947 0.048424 -0.005766 0.005054 -0.024155 -0.153264
    45 -0.139399 -0.111698 0.014397 1.203062 0.226005 1.577116
    46 -1.393470 8.839177 -0.239433 1.580804 -0.005023 -1.566847
  time 29
    0 -0.999768 -1.867275 2.937151 0.000000 0.000000 0.000000
    1 8.542158 0.716729 -8.610689 -0.168459 -1.612821 -0.027211
    2 -0.071918 -8.498730 -0.104137 0.149145 0.256984 0.031341
    3 2.326608 -5.978026 1.161003 0.229329 0.050133 -1.560828
    4 8.068350 -0.889454 0.636832 -0.003018 0.034726 -1.584698
    5 -1.093079 -1.020534 0.000000 0.000000 0.000000 -1.570131
    6 0.332523 0.688256 1.169537 0.017132 0.001568 -1.543032
    7 -3.883944 0.696199 1.094116 0.000000 0.000000 1.570796
    8 -2.125080 1.560641 0.000000 0.000000 0.000000 1.570796
    9 0.000000 0.000000 0.000000 0.000000 0.000000 0.000000
    10 2.303347 -0.775169 0.632548 3.141592 -1.570796 0.000000
    11 1.257180 8.762585 -0.153713 -1.570562 0.002683 -1.566807
    12 -0.488518 -2.755602 -0.228260 -1.046804 -0.202562 -0.209541
    13 0.039887 -1.479790 0.029854 -1.943778 0.000000 0.000001
    14 0.028786 -1.075731 -0.023109 -0.173679 0.000000 0.000000
    15 0.250027 -2.820665 -0.238396 -0.797118 -0.167517 -0.114938
    16 -0.049759 -1.680544 0.100479 -1.774062 0.000000 -0.000002
    17 -0.034142 -1.148312 0.084782 -0.925906 0.000000 0.000000
    18 0.957766 -2.746780 -0.090302 -0.139536 -0.162277 0.053939
    19 -0.033420 -1.397129 -0.011257 -0.521004 0.000000 -0.000001
    20 -0.022360 -0.957436 0.018784 -0.975475 0.000000 0.000000
    21 -1.180681 -2.507217 -0.193859 -0.960196 -0.081516 -0.261329
    22 -0.024967 -1.123934 0.017597 -1.635831 0.000000 0.000001
    23 -0.020057 -0.890968 0.010090 -0.677870 0.000000 0.000000
    24 0.583510 -1.197277 0.185379 0.188028 -0.850416 -1.301860
    25 1.535927 0.010246 0.005009 -0.002964 -0.012979 -0.506650
    26 1.100771 0.004527 -0.010679 -0.016207 0.000369 -1.371740
    27 0.120153 -0.050270 -0.054489 0.287569 3.110905 1.561085
    28 0.596445 -11.223630 -12.466507 -1.885088 -5.271153 -1.231827
    29 0.096944 -8.450418 -0.009365 0.146791 -1.328380 0.242747
    30 0.447953 -2.798986 -0.200443 -1.127266 -0.048016 0.185408
    31 -0.032909 -1.480204 0.004940 -1.739492 0.000000 0.000002
    32 -0.027022 -1.076920 -0.020210 -0.060489 0.000000 0.000000
    33 -0.249534 -2.846964 -0.174213 -0.749792 -0.055002 0.096913
    34 0.043235 -1.683941 0.096012 -1.901441 0.002823 -0.000167
    35 0.031729 -1.160830 0.058838 -0.355262 0.000642 0.008372
    36 -0.963866 -2.785145 -0.085350 -0.089607 0.106308 0.015262
    37 0.028479 -1.403067 0.006271 -1.682399 0.000000 0.000000
    38 0.021413 -0.957781 0.020046 -0.738188 0.000000 0.000000
    39 1.164475 -2.543940 -0.170330 -1.523254 -0.190582 0.231608
    40 0.024032 -1.129042 0.017807 -1.225022 0.000000 0.000001
    41 0.014898 -0.883989 -0.019848 -0.316775 0.000000 0.000000
    42 -0.586770 -1.264477 0.200161 0.172354 -0.158106 -2.744325
    43 1.522835 0.058681 0.016848 0.001410 0.008985 0.812634
    44 1.117947 0.048424 -0.005766 0.005054 -0.024155 -0.153264
    45 -0.139399 -0.111698 0.014397 1.203062 0.226005 1.577116
    46 -1.393470 8.839177 -0.239433 1.580804 -0.005023 -1.566847
  time 30
    0 -0.999768 -1.867275 2.937151 0.000000 0.000000 0.000000
    1 8.542158 0.689384 -8.602877 -0.173613 -1.612728 -0.022073
    2 -0.071918 -8.498730 -0.104137 0.149145 0.256984 0.031341
    3 2.326608 -5.978026 1.161003 0.229329 0.050133 -1.560828
    4 8.068350 -0.889454 0.636832 0.000000 0.000000 -1.570796
    5 -1.093079 -1.020534 0.000000 0.000000 0.000000 -1.570796
    6 0.332523 0.688256 1.169537 0.005984 0.000314 -1.552449
    7 -3.883944 0.696199 1.094116 0.000000 0.000000 1.570796
    8 -2.125080 1.560641 0.000000 0.000000 0.000000 1.570796
    9 0.000000 0.000000 0.000000 0.000000 0.000000 0.000000
    10 2.303347 -0.775169 0.632548 3.141592 -1.570796 0.000000
    11 1.257180 8.762585 -0.153713 -1.570562 0.002683 -1.566807
    12 -0.488518 -2.755602 -0.228260 -1.046804 -0.202562 -0.209541
    13 0.039887 -1.479790 0.029854 -1.943778 0.000000 0.000001
    14 0.028786 -1.075731 -0.023109 -0.173679 0.000000 0.000000
    15 0.250027 -2.820665 -0.238396 -0.797118 -0.167517 -0.114938
    16 -0.049759 -1.680544 0.100479 -1.774062 0.000000 -0.000002
    17 -0.034142 -1.148312 0.084782 -0.925879 0.000000 0.000000
    18 0.957766 -2.746780 -0.090302 -0.139536 -0.162277 0.053939
    19 -0.033420 -1.397129 -0.011257 -0.521004 0.000000 -0.000001
    20 -0.022360 -0.957436 0.018784 -0.975475 0.000000 0.000000
    21 -1.180681 -2.507217 -0.193859 -0.960196 -0.081516 -0.261329
    22 -0.024967 -1.123934 0.017597 -1.635831 0.000000 0.000001
    23 -0.020057 -0.890968 0.010090 -0.677870 0.000000 0.000000
    24 0.583510 -1.197277 0.185379 0.188028 -0.850416 -1.301860
    25 1.535927 0.010246 0.005009 -0.002964 -0.012979 -0.506650
    26 1.100771 0.004527 -0.010679 -0.016207 0.000369 -1.371740
    27 0.120153 -0.050270 -0.054489 0.287569 3.110905 1.561085
    28 0.596445 -11.250975 -12.458695 -1.885221 -5.270863 -1.231923
    29 0.096944 -8.450418 -0.009365 0.146791 -1.328380 0.242747
    30 0.447953 -2.798986 -0.200443 -1.127266 -0.048016 0.185408
    31 -0.032909 -1.480204 0.004940 -1.739492 0.000000 0.000002
    32 -0.027022 -1.076920 -0.020210 -0.060489 0.000000 0.000000
    33 -0.249534 -2.846964 -0.174213 -0.749792 -0.055002 0.096913
    34 0.043235 -1.683941 0.096012 -1.901441 0.002823 -0.000167
    35 0.031729 -1.160830 0.058838 -0.355262 0.000642 0.008372
    36 -0.963866 -2.785145 -0.085350 -0.089607 0.106308 0.015262
    37 0.028479 -1.403067 0.006271 -1.682399 0.000000 0.000000
    38 0.021413 -0.957781 0.020046 -0.738188 0.000000 0.000000
    39 1.164475 -2.543940 -0.170330 -1.523254 -0.190582 0.231608
    40 0.024032 -1.129042 0.017807 -1.225022 0.000000 0.000001
    41 0.014898 -0.883989 -0.019848 -0.316775 0.000000 0.000000
    42 -0.586770 -1.264477 0.200161 0.172354 -0.158106 -2.744325
    43 1.522835 0.058681 0.016848 0.001410 0.008985 0.812634
    44 1.117947 0.048424 -0.005766 0.005054 -0.024155 -0.153264
    45 -0.139399 -0.111698 0.014397 1.203062 0.226005 1.577116
    46 -1.393470 8.839177 -0.239433 1.580804 -0.005023 -1.566847
end
