// Created by Crowbar 0.34.0.0

$ModelName "weapons/tfa_cso/w_starchasersr.mdl"

$BodyGroup "studio"
{
	studio "w_starchasersr.smd"
}

$collisionmodel "w_starchasersr.smd"
{
	$mass 1
}

$CDMaterials "models\weapons\tfa_cso\star_chaser_sr\"

$attachment "0" "root" 0.00 -25.60 -0.90 rotate -0 0 0

$Sequence "idle" {
	"p_stormgiant_anims\idle.smd"
	fps 30
}