version 1
nodes
  0 "root" -1
  1 "Bone01" 0
  2 "Bone_L_Upper" 1
  3 "Bone_Lefthand" 1
  4 "Bone13" 3
  5 "Bone14" 4
  6 "Bone15" 5
  7 "Bone17" 3
  8 "Bone18" 7
  9 "Bone19" 8
  10 "Bone21" 3
  11 "Bone22" 10
  12 "Bone23" 11
  13 "Bone09" 3
  14 "Bone10" 13
  15 "Bone11" 14
  16 "Bone05" 3
  17 "Bone06" 16
  18 "Bone07" 17
  19 "Bone_Se_Hand-L" 3
  20 "Bone04" 0
  21 "Bone_Righthand" 20
  22 "Bone39" 21
  23 "Bone40" 22
  24 "Bone41" 23
  25 "Bone35" 21
  26 "Bone36" 25
  27 "Bone37" 26
  28 "Bone31" 21
  29 "Bone32" 28
  30 "Bone33" 29
  31 "Bone43" 21
  32 "Bone44" 31
  33 "Bone45" 32
  34 "Bone27" 21
  35 "Bone28" 34
  36 "Bone29" 35
  37 "Bone_Se_Hand-R" 21
  38 "Bone_R_Upper" 20
  39 "p_blade01" -1
  40 "ef_blade2" 39
  41 "ef_blade1" 39
  42 "root_sword" 21
  43 "Plane001" 42
  44 "Point001" 42
  45 "holyswordr" 44
  46 "holysword" 42
  47 "Bone_holy1_L" 42
  48 "holy1_L" 47
  49 "Bone_holy1_R" 42
  50 "holy1_R" 49
  51 "Bone_holy2_L" 42
  52 "holy2_L" 51
  53 "Bone_holy2_R" 42
  54 "holy2_R" 53
  55 "Bone_holy3_L" 42
  56 "holy3_L" 55
  57 "Bone_holy3_R" 42
  58 "holy3_R" 57
end
skeleton
  time 0
    0 0.001265 -0.569176 -20.601572 0.000000 0.000000 0.000000
    1 9.310103 -5.299614 -12.557959 3.138909 -0.000224 -1.566807
    2 1.257180 8.762585 -0.153713 -1.570562 0.002683 -1.566807
    3 -0.071921 -8.498736 -0.104134 -0.025046 0.287591 0.014898
    4 -0.488518 -2.755602 -0.228260 0.106454 0.010332 -0.264490
    5 0.039887 -1.479790 0.029854 -0.055395 0.000000 0.000001
    6 0.028786 -1.075731 -0.023109 0.002099 0.000000 0.000000
    7 0.250027 -2.820665 -0.238396 0.041826 -0.002921 0.008443
    8 -0.049759 -1.680544 0.100479 0.019826 0.000000 -0.000002
    9 -0.034142 -1.148312 0.084782 -0.040115 0.000000 0.000000
    10 0.957766 -2.746780 -0.090302 -0.017221 -0.162277 0.191558
    11 -0.033420 -1.397129 -0.011257 0.013931 0.000000 -0.000001
    12 -0.022360 -0.957436 0.018784 0.003845 0.000000 0.000000
    13 -1.180681 -2.507217 -0.193859 0.082999 0.013294 -0.477915
    14 -0.024967 -1.123934 0.017597 -0.018065 0.000000 0.000001
    15 -0.020057 -0.890968 0.010090 -0.060797 0.000000 0.000000
    16 0.583510 -1.197277 0.185379 0.158049 -0.404973 -0.364290
    17 1.535927 0.010246 0.005009 -0.002964 -0.012979 0.000887
    18 1.100771 0.004527 -0.010679 -0.002796 0.015973 0.003458
    19 0.120153 -0.050270 -0.054489 0.287569 3.110905 1.561085
    20 -9.310107 -5.231260 -12.513384 0.004984 -3.131565 -1.566847
    21 0.096944 -8.450418 -0.009365 -0.032965 -0.297907 -0.004663
    22 0.447953 -2.798986 -0.200443 0.106456 -0.010396 0.265094
    23 -0.032909 -1.480204 0.004940 -0.055403 0.000000 0.000002
    24 -0.027022 -1.076920 -0.020210 0.002094 0.000000 0.000000
    25 -0.249534 -2.846964 -0.174213 0.041903 -0.000125 -0.008396
    26 0.043235 -1.683941 0.096012 0.019757 0.002823 -0.000167
    27 0.031729 -1.160830 0.058838 -0.040181 0.000642 0.008372
    28 -0.963866 -2.785145 -0.085350 -0.017227 0.162276 -0.191556
    29 0.028479 -1.403067 0.006271 0.013941 0.000000 0.000000
    30 0.021413 -0.957781 0.020046 0.003851 0.000000 0.000000
    31 1.164475 -2.543940 -0.170330 0.083003 -0.013294 0.477915
    32 0.024032 -1.129042 0.017807 -0.018074 0.000000 0.000001
    33 0.014898 -0.883989 -0.019848 -0.060801 0.000000 0.000000
    34 -0.586770 -1.264477 0.200161 -0.152092 -0.410513 -2.814816
    35 1.522835 0.058681 0.016848 0.001410 0.008985 -0.046880
    36 1.117947 0.048424 -0.005766 -0.000243 -0.025198 0.065422
    37 -0.139399 -0.111698 0.014397 0.285382 -0.030687 1.580508
    38 -1.393470 8.839177 -0.239433 1.580804 -0.005023 -1.566847
    39 -48.829529 -14.276731 -5.805456 0.199477 -3.141093 -0.013935
    40 19.998596 -0.028404 -0.021360 -3.141592 -1.570796 0.000000
    41 -19.865419 -0.019397 -0.021361 -3.141592 -1.570796 0.000000
    42 6.003271 -2.241147 1.293390 1.123856 -2.667852 -0.587690
    43 14.254024 0.468632 -2.422641 -0.087266 0.000008 1.570797
    44 17.446016 0.000006 0.000005 1.570793 -1.553340 1.570803
    45 -0.000001 0.000001 -0.000002 -0.000003 0.000000 0.000000
    46 3.203910 0.000001 0.000001 1.570793 -1.553340 1.570803
    47 14.154207 0.000004 0.000003 -0.017453 -0.017454 -1.570793
    48 0.000005 -10.950730 -0.000004 -1.570796 -1.570796 0.000000
    49 14.154207 0.000004 0.000003 0.017454 0.017453 1.570797
    50 -0.000005 10.950730 -0.000006 1.570797 -1.570796 0.000000
    51 22.616211 0.000007 0.000005 -0.017453 -0.017454 -1.570793
    52 0.000009 -19.412216 -0.000005 -1.570796 -1.570796 0.000000
    53 22.616211 0.000007 0.000005 0.017454 0.017453 1.570797
    54 -0.000008 19.412218 -0.000008 1.570797 -1.570796 0.000000
    55 31.179209 0.000007 0.000006 -0.017453 -0.017454 -1.570793
    56 0.000010 -27.975035 -0.000010 -1.570796 -1.570796 0.000000
    57 31.179209 0.000007 0.000006 0.017454 0.017453 1.570797
    58 -0.000010 27.975031 -0.000015 1.570797 -1.570796 0.000000
end
triangles
$0bholy_light1.bmp
  43 -21.020601 -5.235596 -47.920912 -0.688529 -0.464803 0.556673 0.000000 1.000000
  43 -17.262861 -12.440189 -49.288692 -0.688529 -0.464803 0.556673 0.000000 0.498039
  43 -8.173019 -2.134595 -29.440431 -0.688529 -0.464803 0.556673 1.000000 1.000000
$0bholy_light1.bmp
  43 -8.173019 -2.134595 -29.440431 -0.688529 -0.464803 0.556673 1.000000 1.000000
  43 -17.262861 -12.440189 -49.288692 -0.688529 -0.464803 0.556673 0.000000 0.498039
  43 -4.451762 -9.269241 -30.794931 -0.688529 -0.464803 0.556673 1.000000 0.498039
$0bholy_light1.bmp
  43 -17.262861 -12.440189 -49.288692 -0.688529 -0.464803 0.556673 0.000000 0.498039
  43 -8.146692 -29.918322 -52.606886 -0.688529 -0.464803 0.556673 0.000000 0.000000
  43 -4.451762 -9.269241 -30.794931 -0.688529 -0.464803 0.556673 1.000000 0.498039
$0bholy_light1.bmp
  43 -4.451762 -9.269241 -30.794931 -0.688529 -0.464803 0.556673 1.000000 0.498039
  43 -8.146692 -29.918322 -52.606886 -0.688529 -0.464803 0.556673 0.000000 0.000000
  43 4.668967 -26.756118 -34.114785 -0.688529 -0.464803 0.556673 1.000000 0.000000
$0bholy_light1.bmp
  43 -8.299012 -2.125073 -29.354785 0.688529 0.464803 -0.556673 0.000000 1.000000
  43 -4.541271 -9.329666 -30.722565 0.688529 0.464803 -0.556673 0.000000 0.498039
  43 -21.073628 -5.365968 -47.861825 0.688529 0.464803 -0.556673 1.000000 1.000000
$0bholy_light1.bmp
  43 -21.073628 -5.365968 -47.861825 0.688529 0.464803 -0.556673 1.000000 1.000000
  43 -4.541271 -9.329666 -30.722565 0.688529 0.464803 -0.556673 0.000000 0.498039
  43 -17.352371 -12.500614 -49.216326 0.688529 0.464803 -0.556673 1.000000 0.498039
$0bholy_light1.bmp
  43 -4.541271 -9.329666 -30.722565 0.688529 0.464803 -0.556673 0.000000 0.498039
  43 4.579458 -26.816543 -34.042419 0.688529 0.464803 -0.556673 0.000000 0.000000
  43 -17.352371 -12.500614 -49.216326 0.688529 0.464803 -0.556673 1.000000 0.498039
$0bholy_light1.bmp
  43 -17.352371 -12.500614 -49.216326 0.688529 0.464803 -0.556673 1.000000 0.498039
  43 4.579458 -26.816543 -34.042419 0.688529 0.464803 -0.556673 0.000000 0.000000
  43 -8.236202 -29.978747 -52.534520 0.688529 0.464803 -0.556673 1.000000 0.000000
$0bholy_sword_ef.bmp
  41 -28.842598 -4.908593 -7.764024 -0.003250 -0.198131 -0.980170 0.000000 1.000000
  41 -29.109456 -24.196499 -3.864300 -0.003250 -0.198131 -0.980170 0.000000 0.000000
  40 -68.552742 -4.354223 -7.744379 -0.003250 -0.198131 -0.980170 1.000000 1.000000
$0bholy_sword_ef.bmp
  40 -68.552742 -4.354223 -7.744379 -0.003250 -0.198131 -0.980170 1.000000 1.000000
  41 -29.109456 -24.196499 -3.864300 -0.003250 -0.198131 -0.980170 0.000000 0.000000
  40 -68.819595 -23.642130 -3.844655 -0.003250 -0.198131 -0.980170 1.000000 0.000000
$0bholy_sword_ef.bmp
  41 -28.842598 -4.908593 -7.764024 0.003250 0.198131 0.980170 0.000000 1.000000
  40 -68.552742 -4.354223 -7.744379 0.003250 0.198131 0.980170 1.000000 1.000000
  41 -29.109456 -24.196499 -3.864300 0.003250 0.198131 0.980170 0.000000 0.000000
$0bholy_sword_ef.bmp
  41 -29.109456 -24.196499 -3.864300 0.003250 0.198131 0.980170 0.000000 0.000000
  40 -68.552742 -4.354223 -7.744379 0.003250 0.198131 0.980170 1.000000 1.000000
  40 -68.819595 -23.642130 -3.844655 0.003250 0.198131 0.980170 1.000000 0.000000
end
