version 1
nodes
  0 "Bone01" -1
  1 "Bone_Lefthand" 0
  2 "Bone02" 1
  3 "Bone03" 2
  4 "Bone52" 3
  5 "Bone25" 3
  6 "Bone54" 3
  7 "Bone56" 3
  8 "Bone58" 3
  9 "Bone 04" 1
  10 "Bone13" 9
  11 "Bone14" 10
  12 "Bone15" 11
  13 "Bone17" 9
  14 "Bone18" 13
  15 "Bone19" 14
  16 "Bone21" 9
  17 "Bone22" 16
  18 "Bone23" 17
  19 "Bone05" 9
  20 "Bone06" 19
  21 "Bone07" 20
  22 "Bone09" 9
  23 "Bone10" 22
  24 "Bone11" 23
  25 "Bone04" -1
  26 "Bone_Righthand" 25
  27 "Bone26" 26
  28 "Bone35" 27
  29 "Bone36" 28
  30 "Bone37" 29
  31 "Bone31" 27
  32 "Bone32" 31
  33 "Bone33" 32
  34 "Bone39" 27
  35 "Bone40" 34
  36 "Bone41" 35
  37 "Bone43" 27
  38 "Bone44" 37
  39 "Bone45" 38
  40 "Bone27" 27
  41 "Bone28" 40
  42 "Bone29" 41
end
skeleton
  time 0
    0 6.606519 0.165564 -6.694013 -0.774287 -1.331381 0.567232
    1 0.000000 -8.563284 0.000000 0.347157 -0.117018 -0.166597
    2 -0.251103 -3.675759 0.760352 -1.186398 1.434476 -1.173754
    3 -0.000001 2.696691 0.690915 0.000000 0.000000 0.000000
    4 0.000922 -0.883960 1.569312 0.000000 0.000000 0.000000
    5 0.000922 -3.415222 1.347102 0.403170 0.000000 0.000000
    6 0.000922 -2.222973 2.023393 0.000000 0.000000 0.000000
    7 -0.001984 -7.144153 2.100413 0.000000 0.000000 0.000000
    8 -0.002861 -1.798472 1.044055 0.000000 0.000000 0.000000
    9 -0.003480 -0.404829 0.000000 0.000000 0.000000 0.000000
    10 -0.519309 -2.501156 -0.278958 -1.003564 0.000000 -0.122173
    11 -0.010598 -1.208185 0.000000 -1.090831 0.000000 0.000000
    12 0.000000 -0.763066 0.000000 -1.223482 0.000000 0.000000
    13 0.105980 -2.607134 -0.278958 -0.890118 0.000000 -0.148353
    14 0.000000 -1.250578 0.000000 -1.213004 0.000000 0.000000
    15 0.000000 -0.932634 -0.000001 -1.279337 0.000000 0.000000
    16 0.763063 -2.490557 -0.278958 -0.349065 0.000000 0.130900
    17 -0.012322 -1.280917 0.000000 -0.799347 0.000000 0.000000
    18 -0.001697 -0.749371 0.000000 -1.096046 0.000000 0.000000
    19 0.354567 0.016266 0.318133 0.505409 -0.466262 -1.212439
    20 1.887165 0.012878 0.000000 -0.304966 -0.017306 -0.456358
    21 1.001874 -0.000270 0.000000 0.000000 0.000000 -0.572452
    22 -1.123359 -2.195094 -0.278958 -0.788809 0.052708 -0.017695
    23 0.010772 -0.963791 0.000001 -0.932004 0.000000 0.000000
    24 -0.010412 -0.631916 -0.000001 -1.061165 0.000000 0.000000
    25 -1.214393 -2.716641 -10.975239 -0.375302 0.000015 0.602068
    26 0.089929 -8.543163 0.000001 0.079772 -0.284688 0.455193
    27 0.000000 -0.359713 0.000000 0.000000 0.000000 0.000000
    28 -0.170479 -2.636147 -0.277655 -0.820322 0.000000 0.000000
    29 0.010599 -1.261177 0.000000 -0.584649 0.000000 0.000000
    30 -0.000001 -0.943233 -0.000001 -0.532326 0.000000 0.000000
    31 -0.827563 -2.508974 -0.277656 -0.942479 0.000000 0.000000
    32 -0.000001 -1.292971 0.000000 -0.287992 0.000000 0.000000
    33 0.000000 -0.752465 0.000000 -0.445059 0.000000 0.000000
    34 0.444213 -2.561960 -0.277656 -1.081577 -0.046226 -0.024599
    35 0.021022 -1.208186 0.000000 -0.427606 0.000000 0.000000
    36 0.010597 -0.741867 -0.000002 -0.453786 0.000000 0.000000
    37 1.047445 -2.222821 -0.277656 -1.019688 -0.066950 -0.041090
    38 0.000000 -0.996223 -0.000002 -0.584712 0.000000 0.000000
    39 -0.000001 -0.614690 0.000001 -0.523599 0.000000 0.000000
    40 -0.308254 -0.007814 0.307166 -0.318043 -0.539818 -2.424628
    41 1.978378 0.019543 0.000000 -0.000002 -0.000010 0.549778
    42 0.982426 0.003186 0.000000 0.000000 0.000000 0.593409
  time 1
    0 6.606519 0.165564 -6.694013 -0.774287 -1.331381 0.567232
    1 0.000000 -8.563284 0.000000 0.308122 -0.149338 0.035812
    2 -0.251103 -3.675759 0.760352 -1.186398 1.434476 -1.173754
    3 -0.000001 2.696691 0.690915 0.000000 0.000000 0.000000
    4 0.000922 -0.883960 1.569312 0.701622 0.000000 0.000000
    5 0.000922 -3.415222 1.347102 0.408250 0.000000 0.000000
    6 0.000922 -1.972965 2.023393 0.000000 0.000000 0.000000
    7 -0.001984 -7.144153 2.100413 0.000000 0.000000 0.000000
    8 -0.002861 -1.798472 1.044055 0.000000 0.000000 0.000000
    9 -0.003480 -0.404829 0.000000 0.000000 0.000000 0.000000
    10 -0.519309 -2.501156 -0.278958 -1.003564 0.000000 -0.122173
    11 -0.010598 -1.208185 0.000000 -1.090831 0.000000 0.000000
    12 0.000000 -0.763066 0.000000 -1.223482 0.000000 0.000000
    13 0.105980 -2.607134 -0.278958 -0.890118 0.000000 -0.148353
    14 0.000000 -1.250578 0.000000 -1.213004 0.000000 0.000000
    15 0.000000 -0.932634 -0.000001 -1.279337 0.000000 0.000000
    16 0.763063 -2.490557 -0.278958 -0.349065 0.000000 0.130900
    17 -0.012322 -1.280917 0.000000 -0.799347 0.000000 0.000000
    18 -0.001697 -0.749371 0.000000 -1.096046 0.000000 0.000000
    19 0.354567 0.016266 0.318133 0.505409 -0.466262 -1.212439
    20 1.887165 0.012878 0.000000 -0.304966 -0.017306 -0.456358
    21 1.001874 -0.000270 0.000000 0.000000 0.000000 -0.572452
    22 -1.123359 -2.195094 -0.278958 -0.788809 0.052708 -0.017695
    23 0.010772 -0.963791 0.000001 -0.932004 0.000000 0.000000
    24 -0.010412 -0.631916 -0.000001 -1.061165 0.000000 0.000000
    25 -1.015168 -2.927585 -10.764295 -0.429664 0.001443 0.601238
    26 0.089929 -8.543163 0.000001 0.125009 -0.199236 0.471855
    27 0.000000 -0.359713 0.000000 0.000000 0.000000 0.000000
    28 -0.170479 -2.636147 -0.277655 -0.820322 0.000000 0.000000
    29 0.010599 -1.261177 0.000000 -0.584649 0.000000 0.000000
    30 -0.000001 -0.943233 -0.000001 -0.532326 0.000000 0.000000
    31 -0.827563 -2.508974 -0.277656 -0.942479 0.000000 0.000000
    32 -0.000001 -1.292971 0.000000 -0.287992 0.000000 0.000000
    33 0.000000 -0.752465 0.000000 -0.445059 0.000000 0.000000
    34 0.444213 -2.561960 -0.277656 -1.081577 -0.046226 -0.024599
    35 0.021022 -1.208186 0.000000 -0.427606 0.000000 0.000000
    36 0.010597 -0.741867 -0.000002 -0.453786 0.000000 0.000000
    37 1.047445 -2.222821 -0.277656 -1.019688 -0.066950 -0.041090
    38 0.000000 -0.996223 -0.000002 -0.584712 0.000000 0.000000
    39 -0.000001 -0.614690 0.000001 -0.523599 0.000000 0.000000
    40 -0.308254 -0.007814 0.307166 -0.318043 -0.539818 -2.424628
    41 1.978378 0.019543 0.000000 -0.000002 -0.000010 0.549778
    42 0.982426 0.003186 0.000000 0.000000 0.000000 0.593409
  time 2
    0 7.044033 0.349164 -6.694013 -0.992113 -1.293664 0.701491
    1 0.000000 -8.563284 0.000000 0.284531 -0.176173 0.158659
    2 -0.251103 -3.675759 0.760352 -1.186398 1.434476 -1.173754
    3 -0.000001 2.696691 0.690915 0.000000 0.000000 0.000000
    4 0.000922 -0.883960 1.569312 0.571670 0.000000 0.000000
    5 0.000922 -3.415222 1.347102 0.419447 0.000000 0.000000
    6 0.000922 -1.207317 2.023393 0.000000 0.000000 0.000000
    7 -0.001984 -7.144153 2.100413 0.000000 0.000000 0.000000
    8 -0.002861 -1.798472 1.044055 0.000000 0.000000 0.000000
    9 -0.003480 -0.404829 0.000000 0.000000 0.000000 0.000000
    10 -0.519309 -2.501156 -0.278958 -1.003564 0.000000 -0.122173
    11 -0.010598 -1.208185 0.000000 -1.090831 0.000000 0.000000
    12 0.000000 -0.763066 0.000000 -1.223482 0.000000 0.000000
    13 0.105980 -2.607134 -0.278958 -0.890118 0.000000 -0.148353
    14 0.000000 -1.250578 0.000000 -1.213004 0.000000 0.000000
    15 0.000000 -0.932634 -0.000001 -1.279337 0.000000 0.000000
    16 0.763063 -2.490557 -0.278958 -0.349065 0.000000 0.130900
    17 -0.012322 -1.280917 0.000000 -0.808270 0.000000 0.000000
    18 -0.001697 -0.749371 0.000000 -1.104608 0.000000 0.000000
    19 0.354567 0.016266 0.318133 0.505409 -0.466262 -1.212439
    20 1.887165 0.012878 0.000000 -0.304966 -0.017306 -0.456358
    21 1.001874 -0.000270 0.000000 0.000000 0.000000 -0.572452
    22 -1.123359 -2.195094 -0.278958 -0.788809 0.052708 -0.017695
    23 0.010772 -0.963791 0.000001 -0.932004 0.000000 0.000000
    24 -0.010412 -0.631916 -0.000001 -1.061165 0.000000 0.000000
    25 -0.917509 -3.076027 -10.690074 -0.484128 0.002872 0.600257
    26 0.089929 -8.543163 0.000001 0.171095 -0.114577 0.492184
    27 0.000000 -0.359713 0.000000 0.000000 0.000000 0.000000
    28 -0.170479 -2.636147 -0.277655 -0.820322 0.000000 0.000000
    29 0.010599 -1.261177 0.000000 -0.584649 0.000000 0.000000
    30 -0.000001 -0.943233 -0.000001 -0.532326 0.000000 0.000000
    31 -0.827563 -2.508974 -0.277656 -0.942479 0.000000 0.000000
    32 -0.000001 -1.292971 0.000000 -0.287992 0.000000 0.000000
    33 0.000000 -0.752465 0.000000 -0.445059 0.000000 0.000000
    34 0.444213 -2.561960 -0.277656 -1.081577 -0.046226 -0.024599
    35 0.021022 -1.208186 0.000000 -0.427606 0.000000 0.000000
    36 0.010597 -0.741867 -0.000002 -0.453786 0.000000 0.000000
    37 1.047445 -2.222821 -0.277656 -1.019688 -0.066950 -0.041090
    38 0.000000 -0.996223 -0.000002 -0.584712 0.000000 0.000000
    39 -0.000001 -0.614690 0.000001 -0.523599 0.000000 0.000000
    40 -0.308254 -0.007814 0.307166 -0.318043 -0.539818 -2.424628
    41 1.978378 0.019543 0.000000 -0.000002 -0.000010 0.549778
    42 0.982426 0.003186 0.000000 0.000000 0.000000 0.593409
  time 3
    0 7.579205 0.560108 -6.701826 -1.062314 -1.279378 0.735420
    1 0.000000 -8.563284 0.000000 0.311009 -0.196172 0.086103
    2 -0.251103 -3.675759 0.760352 -1.186398 1.434476 -1.173754
    3 -0.000001 2.696691 0.690915 0.000000 0.000000 0.000000
    4 0.000922 -0.883960 1.569312 0.285835 0.000000 0.000000
    5 0.000922 -3.415222 1.347102 0.430658 0.000000 0.000000
    6 0.000922 -1.316695 2.023393 0.000000 0.000000 0.000000
    7 -0.001984 -7.144153 2.100413 0.000000 0.000000 0.000000
    8 -0.002861 -1.798472 1.044055 0.000000 0.000000 0.000000
    9 -0.003480 -0.404829 0.000000 0.000000 0.000000 0.000000
    10 -0.519309 -2.501156 -0.278958 -1.003564 0.000000 -0.122173
    11 -0.010598 -1.208185 0.000000 -1.090831 0.000000 0.000000
    12 0.000000 -0.763066 0.000000 -1.223482 0.000000 0.000000
    13 0.105980 -2.607134 -0.278958 -0.890118 0.000000 -0.148353
    14 0.000000 -1.250578 0.000000 -1.213004 0.000000 0.000000
    15 0.000000 -0.932634 -0.000001 -1.279337 0.000000 0.000000
    16 0.763063 -2.490557 -0.278958 -0.349065 0.000000 0.130900
    17 -0.012322 -1.280917 0.000000 -0.823168 0.000000 0.000000
    18 -0.001697 -0.749371 0.000000 -1.118890 0.000000 0.000000
    19 0.354567 0.016266 0.318133 0.505409 -0.466262 -1.212439
    20 1.887165 0.012878 0.000000 -0.304966 -0.017306 -0.456358
    21 1.001874 -0.000270 0.000000 0.000000 0.000000 -0.572452
    22 -1.123359 -2.195094 -0.278958 -0.788809 0.052708 -0.017695
    23 0.010772 -0.963791 0.000001 -0.932004 0.000000 0.000000
    24 -0.010412 -0.631916 -0.000001 -1.061165 0.000000 0.000000
    25 -0.913602 -3.158061 -10.744763 -0.511335 0.000015 0.602068
    26 0.089929 -8.543163 0.000001 0.217667 -0.070132 0.504268
    27 0.000000 -0.359713 0.000000 0.000000 0.000000 0.000000
    28 -0.170479 -2.636147 -0.277655 -0.820322 0.000000 0.000000
    29 0.010599 -1.261177 0.000000 -0.584649 0.000000 0.000000
    30 -0.000001 -0.943233 -0.000001 -0.532326 0.000000 0.000000
    31 -0.827563 -2.508974 -0.277656 -0.942479 0.000000 0.000000
    32 -0.000001 -1.292971 0.000000 -0.287992 0.000000 0.000000
    33 0.000000 -0.752465 0.000000 -0.445059 0.000000 0.000000
    34 0.444213 -2.561960 -0.277656 -1.081577 -0.046226 -0.024599
    35 0.021022 -1.208186 0.000000 -0.427606 0.000000 0.000000
    36 0.010597 -0.741867 -0.000002 -0.453786 0.000000 0.000000
    37 1.047445 -2.222821 -0.277656 -1.019688 -0.066950 -0.041090
    38 0.000000 -0.996223 -0.000002 -0.584712 0.000000 0.000000
    39 -0.000001 -0.614690 0.000001 -0.523599 0.000000 0.000000
    40 -0.308254 -0.007814 0.307166 -0.318043 -0.539818 -2.424628
    41 1.978378 0.019543 0.000000 -0.000002 -0.000010 0.549778
    42 0.982426 0.003186 0.000000 0.000000 0.000000 0.593409
  time 4
    0 7.243258 0.298381 -6.756515 -1.004232 -1.297855 0.688288
    1 0.000000 -8.563284 0.000000 0.353753 -0.196594 -0.060034
    2 -0.251103 -3.675759 0.760352 -1.186398 1.434476 -1.173754
    3 -0.000001 2.696691 0.690915 0.000000 0.000000 0.000000
    4 0.000922 -0.883960 1.569312 0.000000 0.000000 0.000000
    5 0.000922 -3.415222 1.347102 0.435751 0.000000 0.000000
    6 0.000922 -1.656549 2.023393 0.000000 0.000000 0.000000
    7 -0.001984 -7.144153 2.100413 0.000000 0.000000 0.000000
    8 -0.002861 -1.798472 1.044055 0.000000 0.000000 0.000000
    9 -0.003480 -0.404829 0.000000 0.000000 0.000000 0.000000
    10 -0.519309 -2.501156 -0.278958 -1.003564 0.000000 -0.122173
    11 -0.010598 -1.208185 0.000000 -1.090831 0.000000 0.000000
    12 0.000000 -0.763066 0.000000 -1.223482 0.000000 0.000000
    13 0.105980 -2.607134 -0.278958 -0.890118 0.000000 -0.148353
    14 0.000000 -1.250578 0.000000 -1.213004 0.000000 0.000000
    15 0.000000 -0.932634 -0.000001 -1.279337 0.000000 0.000000
    16 0.763063 -2.490557 -0.278958 -0.349065 0.000000 0.130900
    17 -0.012322 -1.280917 0.000000 -0.826163 0.000000 0.000000
    18 -0.001697 -0.749371 0.000000 -1.121750 0.000000 0.000000
    19 0.354567 0.016266 0.318133 0.505409 -0.466262 -1.212439
    20 1.887165 0.012878 0.000000 -0.304966 -0.017306 -0.456358
    21 1.001874 -0.000270 0.000000 0.000000 0.000000 -0.572452
    22 -1.123359 -2.195094 -0.278958 -0.788809 0.052708 -0.017695
    23 0.010772 -0.963791 0.000001 -0.932004 0.000000 0.000000
    24 -0.010412 -0.631916 -0.000001 -1.061165 0.000000 0.000000
    25 -1.046419 -3.173687 -11.002583 -0.498272 -0.008842 0.607803
    26 0.089929 -8.543163 0.000001 0.269761 -0.082357 0.499833
    27 0.000000 -0.359713 0.000000 0.000000 0.000000 0.000000
    28 -0.170479 -2.636147 -0.277655 -0.820322 0.000000 0.000000
    29 0.010599 -1.261177 0.000000 -0.584649 0.000000 0.000000
    30 -0.000001 -0.943233 -0.000001 -0.532326 0.000000 0.000000
    31 -0.827563 -2.508974 -0.277656 -0.942479 0.000000 0.000000
    32 -0.000001 -1.292971 0.000000 -0.287992 0.000000 0.000000
    33 0.000000 -0.752465 0.000000 -0.445059 0.000000 0.000000
    34 0.444213 -2.561960 -0.277656 -1.081577 -0.046226 -0.024599
    35 0.021022 -1.208186 0.000000 -0.427606 0.000000 0.000000
    36 0.010597 -0.741867 -0.000002 -0.453786 0.000000 0.000000
    37 1.047445 -2.222821 -0.277656 -1.019688 -0.066950 -0.041090
    38 0.000000 -0.996223 -0.000002 -0.584712 0.000000 0.000000
    39 -0.000001 -0.614690 0.000001 -0.523599 0.000000 0.000000
    40 -0.308254 -0.007814 0.307166 -0.318043 -0.539818 -2.424628
    41 1.978378 0.019543 0.000000 -0.000002 -0.000010 0.549778
    42 0.982426 0.003186 0.000000 0.000000 0.000000 0.593409
  time 5
    0 7.055752 0.149939 -6.787766 -0.871113 -1.326079 0.594176
    1 0.000000 -8.563284 0.000000 0.376357 -0.184302 -0.168314
    2 -0.251103 -3.675759 0.760352 -1.186398 1.434476 -1.173754
    3 -0.000001 2.696691 0.690915 0.000000 0.000000 0.000000
    4 0.000922 -0.883960 1.569312 0.000000 0.000000 0.000000
    5 0.000922 -3.415222 1.347102 0.428610 0.000000 0.000000
    6 0.000922 -2.222973 2.023393 0.000000 0.000000 0.000000
    7 -0.001984 -7.144153 2.100413 0.000000 0.000000 0.000000
    8 -0.002861 -1.798472 1.044055 0.000000 0.000000 0.000000
    9 -0.003480 -0.404829 0.000000 0.000000 0.000000 0.000000
    10 -0.519309 -2.501156 -0.278958 -1.003564 0.000000 -0.122173
    11 -0.010598 -1.208185 0.000000 -1.090831 0.000000 0.000000
    12 0.000000 -0.763066 0.000000 -1.223482 0.000000 0.000000
    13 0.105980 -2.607134 -0.278958 -0.890118 0.000000 -0.148353
    14 0.000000 -1.250578 0.000000 -1.213004 0.000000 0.000000
    15 0.000000 -0.932634 -0.000001 -1.279337 0.000000 0.000000
    16 0.763063 -2.490557 -0.278958 -0.349065 0.000000 0.130900
    17 -0.012322 -1.280917 0.000000 -0.799347 0.000000 0.000000
    18 -0.001697 -0.749371 0.000000 -1.096046 0.000000 0.000000
    19 0.354567 0.016266 0.318133 0.505409 -0.466262 -1.212439
    20 1.887165 0.012878 0.000000 -0.304966 -0.017306 -0.456358
    21 1.001874 -0.000270 0.000000 0.000000 0.000000 -0.572452
    22 -1.123359 -2.195094 -0.278958 -0.788809 0.052708 -0.017695
    23 0.010772 -0.963791 0.000001 -0.932004 0.000000 0.000000
    24 -0.010412 -0.631916 -0.000001 -1.061165 0.000000 0.000000
    25 -1.210486 -3.138529 -11.248685 -0.463299 -0.021317 0.615348
    26 0.089929 -8.543163 0.000001 0.326254 -0.124442 0.483654
    27 0.000000 -0.359713 0.000000 0.000000 0.000000 0.000000
    28 -0.170479 -2.636147 -0.277655 -0.820322 0.000000 0.000000
    29 0.010599 -1.261177 0.000000 -0.584649 0.000000 0.000000
    30 -0.000001 -0.943233 -0.000001 -0.532326 0.000000 0.000000
    31 -0.827563 -2.508974 -0.277656 -0.942479 0.000000 0.000000
    32 -0.000001 -1.292971 0.000000 -0.287992 0.000000 0.000000
    33 0.000000 -0.752465 0.000000 -0.445059 0.000000 0.000000
    34 0.444213 -2.561960 -0.277656 -1.081577 -0.046226 -0.024599
    35 0.021022 -1.208186 0.000000 -0.427606 0.000000 0.000000
    36 0.010597 -0.741867 -0.000002 -0.453786 0.000000 0.000000
    37 1.047445 -2.222821 -0.277656 -1.019688 -0.066950 -0.041090
    38 0.000000 -0.996223 -0.000002 -0.584712 0.000000 0.000000
    39 -0.000001 -0.614690 0.000001 -0.523599 0.000000 0.000000
    40 -0.308254 -0.007814 0.307166 -0.318043 -0.539818 -2.424628
    41 1.978378 0.019543 0.000000 -0.000002 -0.000010 0.549778
    42 0.982426 0.003186 0.000000 0.000000 0.000000 0.593409
  time 6
    0 6.907310 0.044467 -6.807298 -0.757526 -1.342048 0.517642
    1 0.000000 -8.563284 0.000000 0.371405 -0.172263 -0.200826
    2 -0.251103 -3.675759 0.760352 -1.186398 1.434476 -1.173754
    3 -0.000001 2.696691 0.690915 0.000000 0.000000 0.000000
    4 0.000922 -0.883960 1.569312 0.000000 0.000000 0.000000
    5 0.000922 -3.415222 1.347102 0.403170 0.000000 0.000000
    6 0.000922 -2.222973 2.023393 0.000000 0.000000 0.000000
    7 -0.001984 -7.144153 2.100413 0.000000 0.000000 0.000000
    8 -0.002861 -1.798472 1.044055 0.000000 0.000000 0.000000
    9 -0.003480 -0.404829 0.000000 0.000000 0.000000 0.000000
    10 -0.519309 -2.501156 -0.278958 -1.003564 0.000000 -0.122173
    11 -0.010598 -1.208185 0.000000 -1.090831 0.000000 0.000000
    12 0.000000 -0.763066 0.000000 -1.223482 0.000000 0.000000
    13 0.105980 -2.607134 -0.278958 -0.890118 0.000000 -0.148353
    14 0.000000 -1.250578 0.000000 -1.213004 0.000000 0.000000
    15 0.000000 -0.932634 -0.000001 -1.279337 0.000000 0.000000
    16 0.763063 -2.490557 -0.278958 -0.349065 0.000000 0.130900
    17 -0.012322 -1.280917 0.000000 -0.741982 0.000000 0.000000
    18 -0.001697 -0.749371 0.000000 -1.043424 0.000000 0.000000
    19 0.354567 0.016266 0.318133 0.505409 -0.466262 -1.212439
    20 1.887165 0.012878 0.000000 -0.304966 -0.017306 -0.456358
    21 1.001874 -0.000270 0.000000 0.000000 0.000000 -0.572452
    22 -1.123359 -2.195094 -0.278958 -0.788809 0.052708 -0.017695
    23 0.010772 -0.963791 0.000001 -0.932004 0.000000 0.000000
    24 -0.010412 -0.631916 -0.000001 -1.061165 0.000000 0.000000
    25 -1.323771 -3.060402 -11.240872 -0.426372 -0.034649 0.622517
    26 0.089929 -8.543163 0.000001 0.375222 -0.170372 0.463524
    27 0.000000 -0.359713 0.000000 0.000000 0.000000 0.000000
    28 -0.170479 -2.636147 -0.277655 -0.820322 0.000000 0.000000
    29 0.010599 -1.261177 0.000000 -0.584649 0.000000 0.000000
    30 -0.000001 -0.943233 -0.000001 -0.532326 0.000000 0.000000
    31 -0.827563 -2.508974 -0.277656 -0.942479 0.000000 0.000000
    32 -0.000001 -1.292971 0.000000 -0.287992 0.000000 0.000000
    33 0.000000 -0.752465 0.000000 -0.445059 0.000000 0.000000
    34 0.444213 -2.561960 -0.277656 -1.081577 -0.046226 -0.024599
    35 0.021022 -1.208186 0.000000 -0.427606 0.000000 0.000000
    36 0.010597 -0.741867 -0.000002 -0.453786 0.000000 0.000000
    37 1.047445 -2.222821 -0.277656 -1.019688 -0.066950 -0.041090
    38 0.000000 -0.996223 -0.000002 -0.584712 0.000000 0.000000
    39 -0.000001 -0.614690 0.000001 -0.523599 0.000000 0.000000
    40 -0.308254 -0.007814 0.307166 -0.318043 -0.539818 -2.424628
    41 1.978378 0.019543 0.000000 -0.000002 -0.000010 0.549778
    42 0.982426 0.003186 0.000000 0.000000 0.000000 0.593409
  time 7
    0 6.774493 -0.033661 -6.811204 -0.723811 -1.343477 0.505130
    1 0.000000 -8.563284 0.000000 0.356992 -0.161546 -0.200881
    2 -0.251103 -3.675759 0.760352 -1.186398 1.434476 -1.173754
    3 -0.000001 2.696691 0.690915 0.000000 0.000000 0.000000
    4 0.000922 -0.883960 1.569312 0.000000 0.000000 0.000000
    5 0.000922 -3.415222 1.347102 0.350681 0.000000 0.000000
    6 0.000922 -2.222973 2.023393 0.000000 0.000000 0.000000
    7 -0.001984 -7.144153 2.100413 0.000000 0.000000 0.000000
    8 -0.002861 -1.798472 1.044055 0.000000 0.000000 0.000000
    9 -0.003480 -0.404829 0.000000 0.000000 0.000000 0.000000
    10 -0.519309 -2.501156 -0.278958 -1.003564 0.000000 -0.122173
    11 -0.010598 -1.208185 0.000000 -1.090831 0.000000 0.000000
    12 0.000000 -0.763066 0.000000 -1.223482 0.000000 0.000000
    13 0.105980 -2.607134 -0.278958 -0.890118 0.000000 -0.148353
    14 0.000000 -1.250578 0.000000 -1.213004 0.000000 0.000000
    15 0.000000 -0.932634 -0.000001 -1.279337 0.000000 0.000000
    16 0.763063 -2.490557 -0.278958 -0.349065 0.000000 0.130900
    17 -0.012322 -1.280917 0.000000 -0.668766 0.000000 0.000000
    18 -0.001697 -0.749371 0.000000 -0.979072 0.000000 0.000000
    19 0.354567 0.016266 0.318133 0.505409 -0.466262 -1.212439
    20 1.887165 0.012878 0.000000 -0.304966 -0.017306 -0.456358
    21 1.001874 -0.000270 0.000000 0.000000 0.000000 -0.572452
    22 -1.123359 -2.195094 -0.278958 -0.788809 0.052708 -0.017695
    23 0.010772 -0.963791 0.000001 -0.932004 0.000000 0.000000
    24 -0.010412 -0.631916 -0.000001 -1.061165 0.000000 0.000000
    25 -1.390179 -2.982275 -11.139306 -0.407240 -0.045506 0.627648
    26 0.089929 -8.543163 0.000001 0.402771 -0.195595 0.450957
    27 0.000000 -0.359713 0.000000 0.000000 0.000000 0.000000
    28 -0.170479 -2.636147 -0.277655 -0.820322 0.000000 0.000000
    29 0.010599 -1.261177 0.000000 -0.584649 0.000000 0.000000
    30 -0.000001 -0.943233 -0.000001 -0.532326 0.000000 0.000000
    31 -0.827563 -2.508974 -0.277656 -0.942479 0.000000 0.000000
    32 -0.000001 -1.292971 0.000000 -0.287992 0.000000 0.000000
    33 0.000000 -0.752465 0.000000 -0.445059 0.000000 0.000000
    34 0.444213 -2.561960 -0.277656 -1.081577 -0.046226 -0.024599
    35 0.021022 -1.208186 0.000000 -0.427606 0.000000 0.000000
    36 0.010597 -0.741867 -0.000002 -0.453786 0.000000 0.000000
    37 1.047445 -2.222821 -0.277656 -1.019688 -0.066950 -0.041090
    38 0.000000 -0.996223 -0.000002 -0.584712 0.000000 0.000000
    39 -0.000001 -0.614690 0.000001 -0.523599 0.000000 0.000000
    40 -0.308254 -0.007814 0.307166 -0.318043 -0.539818 -2.424628
    41 1.978378 0.019543 0.000000 -0.000002 -0.000010 0.549778
    42 0.982426 0.003186 0.000000 0.000000 0.000000 0.593409
  time 8
    0 6.700272 -0.045380 -6.799485 -0.728130 -1.339635 0.521711
    1 0.000000 -8.563284 0.000000 0.337838 -0.151588 -0.180111
    2 -0.251103 -3.675759 0.760352 -1.186398 1.434476 -1.173754
    3 -0.000001 2.696691 0.690915 0.000000 0.000000 0.000000
    4 0.000922 -0.883960 1.569312 0.000000 0.000000 0.000000
    5 0.000922 -3.415222 1.347102 0.273563 0.000000 0.000000
    6 0.000922 -2.222973 2.023393 0.000000 0.000000 0.000000
    7 -0.001984 -7.144153 2.100413 0.000000 0.000000 0.000000
    8 -0.002861 -1.798472 1.044055 0.000000 0.000000 0.000000
    9 -0.003480 -0.404829 0.000000 0.000000 0.000000 0.000000
    10 -0.519309 -2.501156 -0.278958 -1.003564 0.000000 -0.122173
    11 -0.010598 -1.208185 0.000000 -1.090831 0.000000 0.000000
    12 0.000000 -0.763066 0.000000 -1.223482 0.000000 0.000000
    13 0.105980 -2.607134 -0.278958 -0.890118 0.000000 -0.148353
    14 0.000000 -1.250578 0.000000 -1.213004 0.000000 0.000000
    15 0.000000 -0.932634 -0.000001 -1.279337 0.000000 0.000000
    16 0.763063 -2.490557 -0.278958 -0.349065 0.000000 0.130900
    17 -0.012322 -1.280917 0.000000 -0.584923 0.000000 0.000000
    18 -0.001697 -0.749371 0.000000 -0.906212 0.000000 0.000000
    19 0.354567 0.016266 0.318133 0.505409 -0.466262 -1.212439
    20 1.887165 0.012878 0.000000 -0.304966 -0.017306 -0.456358
    21 1.001874 -0.000270 0.000000 0.000000 0.000000 -0.572452
    22 -1.123359 -2.195094 -0.278958 -0.788809 0.052708 -0.017695
    23 0.010772 -0.963791 0.000001 -0.932004 0.000000 0.000000
    24 -0.010412 -0.631916 -0.000001 -1.061165 0.000000 0.000000
    25 -1.362835 -2.982275 -11.037741 -0.408269 -0.054934 0.631722
    26 0.089929 -8.543163 0.000001 0.409719 -0.197771 0.448767
    27 0.000000 -0.359713 0.000000 0.000000 0.000000 0.000000
    28 -0.170479 -2.636147 -0.277655 -0.820322 0.000000 0.000000
    29 0.010599 -1.261177 0.000000 -0.584649 0.000000 0.000000
    30 -0.000001 -0.943233 -0.000001 -0.532326 0.000000 0.000000
    31 -0.827563 -2.508974 -0.277656 -0.942479 0.000000 0.000000
    32 -0.000001 -1.292971 0.000000 -0.287992 0.000000 0.000000
    33 0.000000 -0.752465 0.000000 -0.445059 0.000000 0.000000
    34 0.444213 -2.561960 -0.277656 -1.081577 -0.046226 -0.024599
    35 0.021022 -1.208186 0.000000 -0.427606 0.000000 0.000000
    36 0.010597 -0.741867 -0.000002 -0.453786 0.000000 0.000000
    37 1.047445 -2.222821 -0.277656 -1.019688 -0.066950 -0.041090
    38 0.000000 -0.996223 -0.000002 -0.584712 0.000000 0.000000
    39 -0.000001 -0.614690 0.000001 -0.523599 0.000000 0.000000
    40 -0.308254 -0.007814 0.307166 -0.318043 -0.539818 -2.424628
    41 1.978378 0.019543 0.000000 -0.000002 -0.000010 0.549778
    42 0.982426 0.003186 0.000000 0.000000 0.000000 0.593409
  time 9
    0 6.665115 -0.021941 -6.768234 -0.755141 -1.332556 0.554719
    1 0.000000 -8.563284 0.000000 0.318144 -0.141996 -0.150092
    2 -0.251103 -3.675759 0.760352 -1.186398 1.434476 -1.173754
    3 -0.000001 2.696691 0.690915 0.000000 0.000000 0.000000
    4 0.000922 -0.883960 1.569312 0.000000 0.000000 0.000000
    5 0.000922 -3.415222 1.347102 0.182362 0.000000 0.000000
    6 0.000922 -2.222973 2.023393 0.000000 0.000000 0.000000
    7 -0.001984 -7.144153 2.100413 0.000000 0.000000 0.000000
    8 -0.002861 -1.798472 1.044055 0.000000 0.000000 0.000000
    9 -0.003480 -0.404829 0.000000 0.000000 0.000000 0.000000
    10 -0.519309 -2.501156 -0.278958 -1.003564 0.000000 -0.122173
    11 -0.010598 -1.208185 0.000000 -1.090831 0.000000 0.000000
    12 0.000000 -0.763066 0.000000 -1.223482 0.000000 0.000000
    13 0.105980 -2.607134 -0.278958 -0.890118 0.000000 -0.148353
    14 0.000000 -1.250578 0.000000 -1.213004 0.000000 0.000000
    15 0.000000 -0.932634 -0.000001 -1.279337 0.000000 0.000000
    16 0.763063 -2.490557 -0.278958 -0.349065 0.000000 0.130900
    17 -0.012322 -1.280917 0.000000 -0.495811 0.000000 0.000000
    18 -0.001697 -0.749371 0.000000 -0.828012 0.000000 0.000000
    19 0.354567 0.016266 0.318133 0.505409 -0.466262 -1.212439
    20 1.887165 0.012878 0.000000 -0.304966 -0.017306 -0.456358
    21 1.001874 -0.000270 0.000000 0.000000 0.000000 -0.572452
    22 -1.123359 -2.195094 -0.278958 -0.788809 0.052708 -0.017695
    23 0.010772 -0.963791 0.000001 -0.932004 0.000000 0.000000
    24 -0.010412 -0.631916 -0.000001 -1.061165 0.000000 0.000000
    25 -1.292520 -3.013525 -10.951801 -0.416806 -0.064838 0.636023
    26 0.089929 -8.543163 0.000001 0.408384 -0.192401 0.450189
    27 0.000000 -0.359713 0.000000 0.000000 0.000000 0.000000
    28 -0.170479 -2.636147 -0.277655 -0.820322 0.000000 0.000000
    29 0.010599 -1.261177 0.000000 -0.584649 0.000000 0.000000
    30 -0.000001 -0.943233 -0.000001 -0.532326 0.000000 0.000000
    31 -0.827563 -2.508974 -0.277656 -0.942479 0.000000 0.000000
    32 -0.000001 -1.292971 0.000000 -0.287992 0.000000 0.000000
    33 0.000000 -0.752465 0.000000 -0.445059 0.000000 0.000000
    34 0.444213 -2.561960 -0.277656 -1.081577 -0.046226 -0.024599
    35 0.021022 -1.208186 0.000000 -0.427606 0.000000 0.000000
    36 0.010597 -0.741867 -0.000002 -0.453786 0.000000 0.000000
    37 1.047445 -2.222821 -0.277656 -1.019688 -0.066950 -0.041090
    38 0.000000 -0.996223 -0.000002 -0.584712 0.000000 0.000000
    39 -0.000001 -0.614690 0.000001 -0.523599 0.000000 0.000000
    40 -0.308254 -0.007814 0.307166 -0.318043 -0.539818 -2.424628
    41 1.978378 0.019543 0.000000 -0.000002 -0.000010 0.549778
    42 0.982426 0.003186 0.000000 0.000000 0.000000 0.593409
  time 10
    0 6.649490 0.024935 -6.736983 -0.789501 -1.324111 0.591566
    1 0.000000 -8.563284 0.000000 0.302019 -0.132911 -0.122094
    2 -0.251103 -3.675759 0.760352 -1.186398 1.434476 -1.173754
    3 -0.000001 2.696691 0.690915 0.000000 0.000000 0.000000
    4 0.000922 -0.883960 1.569312 0.000000 0.000000 0.000000
    5 0.000922 -3.415222 1.347102 0.087664 0.000000 0.000000
    6 0.000922 -2.222973 2.023393 0.000000 0.000000 0.000000
    7 -0.001984 -7.144153 2.100413 0.000000 0.000000 0.000000
    8 -0.002861 -1.798472 1.044055 0.000000 0.000000 0.000000
    9 -0.003480 -0.404829 0.000000 0.000000 0.000000 0.000000
    10 -0.519309 -2.501156 -0.278958 -1.003564 0.000000 -0.122173
    11 -0.010598 -1.208185 0.000000 -1.090831 0.000000 0.000000
    12 0.000000 -0.763066 0.000000 -1.223482 0.000000 0.000000
    13 0.105980 -2.607134 -0.278958 -0.890118 0.000000 -0.148353
    14 0.000000 -1.250578 0.000000 -1.213004 0.000000 0.000000
    15 0.000000 -0.932634 -0.000001 -1.279337 0.000000 0.000000
    16 0.763063 -2.490557 -0.278958 -0.349065 0.000000 0.130900
    17 -0.012322 -1.280917 0.000000 -0.406700 0.000000 0.000000
    18 -0.001697 -0.749371 0.000000 -0.747676 0.000000 0.000000
    19 0.354567 0.016266 0.318133 0.505409 -0.466262 -1.212439
    20 1.887165 0.012878 0.000000 -0.304966 -0.017306 -0.456358
    21 1.001874 -0.000270 0.000000 0.000000 0.000000 -0.572452
    22 -1.123359 -2.195094 -0.278958 -0.788809 0.052708 -0.017695
    23 0.010772 -0.963791 0.000001 -0.932004 0.000000 0.000000
    24 -0.010412 -0.631916 -0.000001 -1.061165 0.000000 0.000000
    25 -1.210486 -3.087747 -10.912737 -0.430024 -0.074552 0.640249
    26 0.089929 -8.543163 0.000001 0.400526 -0.182271 0.453885
    27 0.000000 -0.359713 0.000000 0.000000 0.000000 0.000000
    28 -0.170479 -2.636147 -0.277655 -0.820322 0.000000 0.000000
    29 0.010599 -1.261177 0.000000 -0.584649 0.000000 0.000000
    30 -0.000001 -0.943233 -0.000001 -0.532326 0.000000 0.000000
    31 -0.827563 -2.508974 -0.277656 -0.942479 0.000000 0.000000
    32 -0.000001 -1.292971 0.000000 -0.287992 0.000000 0.000000
    33 0.000000 -0.752465 0.000000 -0.445059 0.000000 0.000000
    34 0.444213 -2.561960 -0.277656 -1.081577 -0.046226 -0.024599
    35 0.021022 -1.208186 0.000000 -0.427606 0.000000 0.000000
    36 0.010597 -0.741867 -0.000002 -0.453786 0.000000 0.000000
    37 1.047445 -2.222821 -0.277656 -1.019688 -0.066950 -0.041090
    38 0.000000 -0.996223 -0.000002 -0.584712 0.000000 0.000000
    39 -0.000001 -0.614690 0.000001 -0.523599 0.000000 0.000000
    40 -0.308254 -0.007814 0.307166 -0.318043 -0.539818 -2.424628
    41 1.978378 0.019543 0.000000 -0.000002 -0.000010 0.549778
    42 0.982426 0.003186 0.000000 0.000000 0.000000 0.593409
  time 11
    0 6.645583 0.071811 -6.705732 -0.818961 -1.316364 0.622041
    1 0.000000 -8.563284 0.000000 0.293263 -0.125035 -0.107500
    2 -0.251103 -3.675759 0.760352 -1.186398 1.434476 -1.173754
    3 -0.000001 2.696691 0.690915 0.000000 0.000000 0.000000
    4 0.000922 -0.883960 1.569312 0.000000 0.000000 0.000000
    5 0.000922 -3.415222 1.347102 0.000000 0.000000 0.000000
    6 0.000922 -2.222973 2.023393 0.000000 0.000000 0.000000
    7 -0.001984 -7.144153 2.100413 0.000000 0.000000 0.000000
    8 -0.002861 -1.798472 1.044055 0.000000 0.000000 0.000000
    9 -0.003480 -0.404829 0.000000 0.000000 0.000000 0.000000
    10 -0.519309 -2.501156 -0.278958 -1.003564 0.000000 -0.122173
    11 -0.010598 -1.208185 0.000000 -1.090831 0.000000 0.000000
    12 0.000000 -0.763066 0.000000 -1.223482 0.000000 0.000000
    13 0.105980 -2.607134 -0.278958 -0.890118 0.000000 -0.148353
    14 0.000000 -1.250578 0.000000 -1.213004 0.000000 0.000000
    15 0.000000 -0.932634 -0.000001 -1.279337 0.000000 0.000000
    16 0.763063 -2.490557 -0.278958 -0.349065 0.000000 0.130900
    17 -0.012322 -1.280917 0.000000 -0.322887 0.000000 0.000000
    18 -0.001697 -0.749371 0.000000 -0.668408 0.000000 0.000000
    19 0.354567 0.016266 0.318133 0.505409 -0.466262 -1.212439
    20 1.887165 0.012878 0.000000 -0.304966 -0.017306 -0.456358
    21 1.001874 -0.000270 0.000000 0.000000 0.000000 -0.572452
    22 -1.123359 -2.195094 -0.278958 -0.788809 0.052708 -0.017695
    23 0.010772 -0.963791 0.000001 -0.932004 0.000000 0.000000
    24 -0.010412 -0.631916 -0.000001 -1.061165 0.000000 0.000000
    25 -1.128453 -3.158061 -10.908831 -0.444939 -0.083122 0.644022
    26 0.089929 -8.543163 0.000001 0.388208 -0.170250 0.458605
    27 0.000000 -0.359713 0.000000 0.000000 0.000000 0.000000
    28 -0.170479 -2.636147 -0.277655 -0.820322 0.000000 0.000000
    29 0.010599 -1.261177 0.000000 -0.584649 0.000000 0.000000
    30 -0.000001 -0.943233 -0.000001 -0.532326 0.000000 0.000000
    31 -0.827563 -2.508974 -0.277656 -0.942479 0.000000 0.000000
    32 -0.000001 -1.292971 0.000000 -0.287992 0.000000 0.000000
    33 0.000000 -0.752465 0.000000 -0.445059 0.000000 0.000000
    34 0.444213 -2.561960 -0.277656 -1.081577 -0.046226 -0.024599
    35 0.021022 -1.208186 0.000000 -0.427606 0.000000 0.000000
    36 0.010597 -0.741867 -0.000002 -0.453786 0.000000 0.000000
    37 1.047445 -2.222821 -0.277656 -1.019688 -0.066950 -0.041090
    38 0.000000 -0.996223 -0.000002 -0.584712 0.000000 0.000000
    39 -0.000001 -0.614690 0.000001 -0.523599 0.000000 0.000000
    40 -0.308254 -0.007814 0.307166 -0.318043 -0.539818 -2.424628
    41 1.978378 0.019543 0.000000 -0.000002 -0.000010 0.549778
    42 0.982426 0.003186 0.000000 0.000000 0.000000 0.593409
  time 12
    0 6.629958 0.095250 -6.690107 -0.832563 -1.311919 0.638238
    1 0.000000 -8.563284 0.000000 0.292676 -0.120253 -0.105257
    2 -0.251103 -3.675759 0.760352 -1.186398 1.434476 -1.173754
    3 -0.000001 2.696691 0.690915 0.000000 0.000000 0.000000
    4 0.000922 -0.883960 1.569312 0.000000 0.000000 0.000000
    5 0.000922 -3.415222 1.347102 0.000000 0.000000 0.000000
    6 0.000922 -2.222973 2.023393 0.000000 0.000000 0.000000
    7 -0.001984 -7.144153 2.100413 0.000000 0.000000 0.000000
    8 -0.002861 -1.798472 1.044055 0.000000 0.000000 0.000000
    9 -0.003480 -0.404829 0.000000 0.000000 0.000000 0.000000
    10 -0.519309 -2.501156 -0.278958 -1.003564 0.000000 -0.122173
    11 -0.010598 -1.208185 0.000000 -1.090831 0.000000 0.000000
    12 0.000000 -0.763066 0.000000 -1.223482 0.000000 0.000000
    13 0.105980 -2.607134 -0.278958 -0.890118 0.000000 -0.148353
    14 0.000000 -1.250578 0.000000 -1.213004 0.000000 0.000000
    15 0.000000 -0.932634 -0.000001 -1.279337 0.000000 0.000000
    16 0.763063 -2.490557 -0.278958 -0.349065 0.000000 0.130900
    17 -0.012322 -1.280917 0.000000 -0.322887 0.000000 0.000000
    18 -0.001697 -0.749371 0.000000 -0.593412 0.000000 0.000000
    19 0.354567 0.016266 0.318133 0.505409 -0.466262 -1.212439
    20 1.887165 0.012878 0.000000 -0.304966 -0.017306 -0.456358
    21 1.001874 -0.000270 0.000000 0.000000 0.000000 -0.572452
    22 -1.123359 -2.195094 -0.278958 -0.788809 0.052708 -0.017695
    23 0.010772 -0.963791 0.000001 -0.932004 0.000000 0.000000
    24 -0.010412 -0.631916 -0.000001 -1.061165 0.000000 0.000000
    25 -1.093295 -3.181499 -10.963520 -0.458773 -0.089693 0.647115
    26 0.089929 -8.543163 0.000001 0.373190 -0.159144 0.463069
    27 0.000000 -0.359713 0.000000 0.000000 0.000000 0.000000
    28 -0.170479 -2.636147 -0.277655 -0.820322 0.000000 0.000000
    29 0.010599 -1.261177 0.000000 -0.584649 0.000000 0.000000
    30 -0.000001 -0.943233 -0.000001 -0.532326 0.000000 0.000000
    31 -0.827563 -2.508974 -0.277656 -0.942479 0.000000 0.000000
    32 -0.000001 -1.292971 0.000000 -0.287992 0.000000 0.000000
    33 0.000000 -0.752465 0.000000 -0.445059 0.000000 0.000000
    34 0.444213 -2.561960 -0.277656 -1.081577 -0.046226 -0.024599
    35 0.021022 -1.208186 0.000000 -0.427606 0.000000 0.000000
    36 0.010597 -0.741867 -0.000002 -0.453786 0.000000 0.000000
    37 1.047445 -2.222821 -0.277656 -1.019688 -0.066950 -0.041090
    38 0.000000 -0.996223 -0.000002 -0.584712 0.000000 0.000000
    39 -0.000001 -0.614690 0.000001 -0.523599 0.000000 0.000000
    40 -0.308254 -0.007814 0.307166 -0.318043 -0.539818 -2.424628
    41 1.978378 0.019543 0.000000 -0.000002 -0.000010 0.549778
    42 0.982426 0.003186 0.000000 0.000000 0.000000 0.593409
  time 13
    0 6.610426 0.106969 -6.686200 -0.832563 -1.311158 0.640694
    1 0.000000 -8.563284 0.000000 0.297488 -0.119071 -0.106254
    2 -0.251103 -3.675759 0.760352 -1.186398 1.434476 -1.173754
    3 -0.000001 2.696691 0.690915 0.000000 0.000000 0.000000
    4 0.000922 -0.883960 1.569312 0.000000 0.000000 0.000000
    5 0.000922 -3.415222 1.347102 0.000000 0.000000 0.000000
    6 0.000922 -2.222973 2.023393 0.000000 0.000000 0.000000
    7 -0.001984 -7.144153 2.100413 0.000000 0.000000 0.000000
    8 -0.002861 -1.798472 1.044055 0.000000 0.000000 0.000000
    9 -0.003480 -0.404829 0.000000 0.000000 0.000000 0.000000
    10 -0.519309 -2.501156 -0.278958 -1.003564 0.000000 -0.122173
    11 -0.010598 -1.208185 0.000000 -1.090831 0.000000 0.000000
    12 0.000000 -0.763066 0.000000 -1.223482 0.000000 0.000000
    13 0.105980 -2.607134 -0.278958 -0.890118 0.000000 -0.148353
    14 0.000000 -1.250578 0.000000 -1.213004 0.000000 0.000000
    15 0.000000 -0.932634 -0.000001 -1.279337 0.000000 0.000000
    16 0.763063 -2.490557 -0.278958 -0.349065 0.000000 0.130900
    17 -0.012322 -1.280917 0.000000 -0.322887 0.000000 0.000000
    18 -0.001697 -0.749371 0.000000 -0.593412 0.000000 0.000000
    19 0.354567 0.016266 0.318133 0.505409 -0.466262 -1.212439
    20 1.887165 0.012878 0.000000 -0.304966 -0.017306 -0.456358
    21 1.001874 -0.000270 0.000000 0.000000 0.000000 -0.572452
    22 -1.123359 -2.195094 -0.278958 -0.788809 0.052708 -0.017695
    23 0.010772 -0.963791 0.000001 -0.932004 0.000000 0.000000
    24 -0.010412 -0.631916 -0.000001 -1.061165 0.000000 0.000000
    25 -1.077670 -3.177593 -11.026022 -0.468596 -0.093503 0.648700
    26 0.089929 -8.543163 0.000001 0.357322 -0.151821 0.466225
    27 0.000000 -0.359713 0.000000 0.000000 0.000000 0.000000
    28 -0.170479 -2.636147 -0.277655 -0.820322 0.000000 0.000000
    29 0.010599 -1.261177 0.000000 -0.584649 0.000000 0.000000
    30 -0.000001 -0.943233 -0.000001 -0.532326 0.000000 0.000000
    31 -0.827563 -2.508974 -0.277656 -0.942479 0.000000 0.000000
    32 -0.000001 -1.292971 0.000000 -0.287992 0.000000 0.000000
    33 0.000000 -0.752465 0.000000 -0.445059 0.000000 0.000000
    34 0.444213 -2.561960 -0.277656 -1.081577 -0.046226 -0.024599
    35 0.021022 -1.208186 0.000000 -0.427606 0.000000 0.000000
    36 0.010597 -0.741867 -0.000002 -0.453786 0.000000 0.000000
    37 1.047445 -2.222821 -0.277656 -1.019688 -0.066950 -0.041090
    38 0.000000 -0.996223 -0.000002 -0.584712 0.000000 0.000000
    39 -0.000001 -0.614690 0.000001 -0.523599 0.000000 0.000000
    40 -0.308254 -0.007814 0.307166 -0.318043 -0.539818 -2.424628
    41 1.978378 0.019543 0.000000 -0.000002 -0.000010 0.549778
    42 0.982426 0.003186 0.000000 0.000000 0.000000 0.593409
  time 14
    0 6.598707 0.118688 -6.682294 -0.828373 -1.312396 0.636165
    1 0.000000 -8.563284 0.000000 0.306032 -0.120478 -0.109715
    2 -0.251103 -3.675759 0.760352 -1.186398 1.434476 -1.173754
    3 -0.000001 2.696691 0.690915 0.000000 0.000000 0.000000
    4 0.000922 -0.883960 1.569312 0.000000 0.000000 0.000000
    5 0.000922 -3.415222 1.347102 0.000000 0.000000 0.000000
    6 0.000922 -2.222973 2.023393 0.000000 0.000000 0.000000
    7 -0.001984 -7.144153 2.100413 0.000000 0.000000 0.000000
    8 -0.002861 -1.798472 1.044055 0.000000 0.000000 0.000000
    9 -0.003480 -0.404829 0.000000 0.000000 0.000000 0.000000
    10 -0.519309 -2.501156 -0.278958 -1.003564 0.000000 -0.122173
    11 -0.010598 -1.208185 0.000000 -1.090831 0.000000 0.000000
    12 0.000000 -0.763066 0.000000 -1.223482 0.000000 0.000000
    13 0.105980 -2.607134 -0.278958 -0.890118 0.000000 -0.148353
    14 0.000000 -1.250578 0.000000 -1.213004 0.000000 0.000000
    15 0.000000 -0.932634 -0.000001 -1.279337 0.000000 0.000000
    16 0.763063 -2.490557 -0.278958 -0.349065 0.000000 0.130900
    17 -0.012322 -1.280917 0.000000 -0.322887 0.000000 0.000000
    18 -0.001697 -0.749371 0.000000 -0.593412 0.000000 0.000000
    19 0.354567 0.016266 0.318133 0.505409 -0.466262 -1.212439
    20 1.887165 0.012878 0.000000 -0.304966 -0.017306 -0.456358
    21 1.001874 -0.000270 0.000000 0.000000 0.000000 -0.572452
    22 -1.123359 -2.195094 -0.278958 -0.788809 0.052708 -0.017695
    23 0.010772 -0.963791 0.000001 -0.932004 0.000000 0.000000
    24 -0.010412 -0.631916 -0.000001 -1.061165 0.000000 0.000000
    25 -1.058138 -3.161968 -11.057273 -0.471528 -0.093598 0.648549
    26 0.089929 -8.543163 0.000001 0.342394 -0.151231 0.467050
    27 0.000000 -0.359713 0.000000 0.000000 0.000000 0.000000
    28 -0.170479 -2.636147 -0.277655 -0.820322 0.000000 0.000000
    29 0.010599 -1.261177 0.000000 -0.584649 0.000000 0.000000
    30 -0.000001 -0.943233 -0.000001 -0.532326 0.000000 0.000000
    31 -0.827563 -2.508974 -0.277656 -0.942479 0.000000 0.000000
    32 -0.000001 -1.292971 0.000000 -0.287992 0.000000 0.000000
    33 0.000000 -0.752465 0.000000 -0.445059 0.000000 0.000000
    34 0.444213 -2.561960 -0.277656 -1.081577 -0.046226 -0.024599
    35 0.021022 -1.208186 0.000000 -0.427606 0.000000 0.000000
    36 0.010597 -0.741867 -0.000002 -0.453786 0.000000 0.000000
    37 1.047445 -2.222821 -0.277656 -1.019688 -0.066950 -0.041090
    38 0.000000 -0.996223 -0.000002 -0.584712 0.000000 0.000000
    39 -0.000001 -0.614690 0.000001 -0.523599 0.000000 0.000000
    40 -0.308254 -0.007814 0.307166 -0.318043 -0.539818 -2.424628
    41 1.978378 0.019543 0.000000 -0.000002 -0.000010 0.549778
    42 0.982426 0.003186 0.000000 0.000000 0.000000 0.593409
  time 15
    0 6.594800 0.126501 -6.682294 -0.821153 -1.314999 0.626723
    1 0.000000 -8.563284 0.000000 0.316548 -0.123319 -0.114811
    2 -0.251103 -3.675759 0.760352 -1.186398 1.434476 -1.173754
    3 -0.000001 2.696691 0.690915 0.000000 0.000000 0.000000
    4 0.000922 -0.883960 1.569312 0.000000 0.000000 0.000000
    5 0.000922 -3.415222 1.347102 0.000000 0.000000 0.000000
    6 0.000922 -2.222973 2.023393 0.000000 0.000000 0.000000
    7 -0.001984 -7.144153 2.100413 0.000000 0.000000 0.000000
    8 -0.002861 -1.798472 1.044055 0.000000 0.000000 0.000000
    9 -0.003480 -0.404829 0.000000 0.000000 0.000000 0.000000
    10 -0.519309 -2.501156 -0.278958 -1.003564 0.000000 -0.122173
    11 -0.010598 -1.208185 0.000000 -1.090831 0.000000 0.000000
    12 0.000000 -0.763066 0.000000 -1.223482 0.000000 0.000000
    13 0.105980 -2.607134 -0.278958 -0.890118 0.000000 -0.148353
    14 0.000000 -1.250578 0.000000 -1.213004 0.000000 0.000000
    15 0.000000 -0.932634 -0.000001 -1.279337 0.000000 0.000000
    16 0.763063 -2.490557 -0.278958 -0.349065 0.000000 0.130900
    17 -0.012322 -1.280917 0.000000 -0.322887 0.000000 0.000000
    18 -0.001697 -0.749371 0.000000 -0.593412 0.000000 0.000000
    19 0.354567 0.016266 0.318133 0.505409 -0.466262 -1.212439
    20 1.887165 0.012878 0.000000 -0.304966 -0.017306 -0.456358
    21 1.001874 -0.000270 0.000000 0.000000 0.000000 -0.572452
    22 -1.123359 -2.195094 -0.278958 -0.788809 0.052708 -0.017695
    23 0.010772 -0.963791 0.000001 -0.932004 0.000000 0.000000
    24 -0.010412 -0.631916 -0.000001 -1.061165 0.000000 0.000000
    25 -1.046419 -3.130717 -11.068992 -0.469471 -0.091217 0.647115
    26 0.089929 -8.543163 0.000001 0.328195 -0.155523 0.466282
    27 0.000000 -0.359713 0.000000 0.000000 0.000000 0.000000
    28 -0.170479 -2.636147 -0.277655 -0.820322 0.000000 0.000000
    29 0.010599 -1.261177 0.000000 -0.584649 0.000000 0.000000
    30 -0.000001 -0.943233 -0.000001 -0.532326 0.000000 0.000000
    31 -0.827563 -2.508974 -0.277656 -0.942479 0.000000 0.000000
    32 -0.000001 -1.292971 0.000000 -0.287992 0.000000 0.000000
    33 0.000000 -0.752465 0.000000 -0.445059 0.000000 0.000000
    34 0.444213 -2.561960 -0.277656 -1.081577 -0.046226 -0.024599
    35 0.021022 -1.208186 0.000000 -0.427606 0.000000 0.000000
    36 0.010597 -0.741867 -0.000002 -0.453786 0.000000 0.000000
    37 1.047445 -2.222821 -0.277656 -1.019688 -0.066950 -0.041090
    38 0.000000 -0.996223 -0.000002 -0.584712 0.000000 0.000000
    39 -0.000001 -0.614690 0.000001 -0.523599 0.000000 0.000000
    40 -0.308254 -0.007814 0.307166 -0.318043 -0.539818 -2.424628
    41 1.978378 0.019543 0.000000 -0.000002 -0.000010 0.549778
    42 0.982426 0.003186 0.000000 0.000000 0.000000 0.593409
  time 16
    0 6.598707 0.138220 -6.686200 -0.811999 -1.318364 0.614211
    1 0.000000 -8.563284 0.000000 0.327369 -0.126385 -0.120792
    2 -0.251103 -3.675759 0.760352 -1.186398 1.434476 -1.173754
    3 -0.000001 2.696691 0.690915 0.000000 0.000000 0.000000
    4 0.000922 -0.883960 1.569312 0.000000 0.000000 0.000000
    5 0.000922 -3.415222 1.347102 0.000000 0.000000 0.000000
    6 0.000922 -2.222973 2.023393 0.000000 0.000000 0.000000
    7 -0.001984 -7.144153 2.100413 0.000000 0.000000 0.000000
    8 -0.002861 -1.798472 1.044055 0.000000 0.000000 0.000000
    9 -0.003480 -0.404829 0.000000 0.000000 0.000000 0.000000
    10 -0.519309 -2.501156 -0.278958 -1.003564 0.000000 -0.122173
    11 -0.010598 -1.208185 0.000000 -1.090831 0.000000 0.000000
    12 0.000000 -0.763066 0.000000 -1.223482 0.000000 0.000000
    13 0.105980 -2.607134 -0.278958 -0.890118 0.000000 -0.148353
    14 0.000000 -1.250578 0.000000 -1.213004 0.000000 0.000000
    15 0.000000 -0.932634 -0.000001 -1.279337 0.000000 0.000000
    16 0.763063 -2.490557 -0.278958 -0.349065 0.000000 0.130900
    17 -0.012322 -1.280917 0.000000 -0.322887 0.000000 0.000000
    18 -0.001697 -0.749371 0.000000 -0.593412 0.000000 0.000000
    19 0.354567 0.016266 0.318133 0.505409 -0.466262 -1.212439
    20 1.887165 0.012878 0.000000 -0.304966 -0.017306 -0.456358
    21 1.001874 -0.000270 0.000000 0.000000 0.000000 -0.572452
    22 -1.123359 -2.195094 -0.278958 -0.788809 0.052708 -0.017695
    23 0.010772 -0.963791 0.000001 -0.932004 0.000000 0.000000
    24 -0.010412 -0.631916 -0.000001 -1.061165 0.000000 0.000000
    25 -1.042513 -3.095559 -11.084617 -0.466385 -0.087979 0.645153
    26 0.089929 -8.543163 0.000001 0.313420 -0.160832 0.465344
    27 0.000000 -0.359713 0.000000 0.000000 0.000000 0.000000
    28 -0.170479 -2.636147 -0.277655 -0.820322 0.000000 0.000000
    29 0.010599 -1.261177 0.000000 -0.584649 0.000000 0.000000
    30 -0.000001 -0.943233 -0.000001 -0.532326 0.000000 0.000000
    31 -0.827563 -2.508974 -0.277656 -0.942479 0.000000 0.000000
    32 -0.000001 -1.292971 0.000000 -0.287992 0.000000 0.000000
    33 0.000000 -0.752465 0.000000 -0.445059 0.000000 0.000000
    34 0.444213 -2.561960 -0.277656 -1.081577 -0.046226 -0.024599
    35 0.021022 -1.208186 0.000000 -0.427606 0.000000 0.000000
    36 0.010597 -0.741867 -0.000002 -0.453786 0.000000 0.000000
    37 1.047445 -2.222821 -0.277656 -1.019688 -0.066950 -0.041090
    38 0.000000 -0.996223 -0.000002 -0.584712 0.000000 0.000000
    39 -0.000001 -0.614690 0.000001 -0.523599 0.000000 0.000000
    40 -0.308254 -0.007814 0.307166 -0.318043 -0.539818 -2.424628
    41 1.978378 0.019543 0.000000 -0.000002 -0.000010 0.549778
    42 0.982426 0.003186 0.000000 0.000000 0.000000 0.593409
  time 17
    0 6.602613 0.149939 -6.690107 -0.802136 -1.321888 0.600701
    1 0.000000 -8.563284 0.000000 0.336735 -0.128776 -0.126747
    2 -0.251103 -3.675759 0.760352 -1.186398 1.434476 -1.173754
    3 -0.000001 2.696691 0.690915 0.000000 0.000000 0.000000
    4 0.000922 -0.883960 1.569312 0.000000 0.000000 0.000000
    5 0.000922 -3.415222 1.347102 0.000000 0.000000 0.000000
    6 0.000922 -2.222973 2.023393 0.000000 0.000000 0.000000
    7 -0.001984 -7.144153 2.100413 0.000000 0.000000 0.000000
    8 -0.002861 -1.798472 1.044055 0.000000 0.000000 0.000000
    9 -0.003480 -0.404829 0.000000 0.000000 0.000000 0.000000
    10 -0.519309 -2.501156 -0.278958 -1.003564 0.000000 -0.122173
    11 -0.010598 -1.208185 0.000000 -1.090831 0.000000 0.000000
    12 0.000000 -0.763066 0.000000 -1.223482 0.000000 0.000000
    13 0.105980 -2.607134 -0.278958 -0.890118 0.000000 -0.148353
    14 0.000000 -1.250578 0.000000 -1.213004 0.000000 0.000000
    15 0.000000 -0.932634 -0.000001 -1.279337 0.000000 0.000000
    16 0.763063 -2.490557 -0.278958 -0.349065 0.000000 0.130900
    17 -0.012322 -1.280917 0.000000 -0.322887 0.000000 0.000000
    18 -0.001697 -0.749371 0.000000 -0.593412 0.000000 0.000000
    19 0.354567 0.016266 0.318133 0.505409 -0.466262 -1.212439
    20 1.887165 0.012878 0.000000 -0.304966 -0.017306 -0.456358
    21 1.001874 -0.000270 0.000000 0.000000 0.000000 -0.572452
    22 -1.123359 -2.195094 -0.278958 -0.788809 0.052708 -0.017695
    23 0.010772 -0.963791 0.000001 -0.932004 0.000000 0.000000
    24 -0.010412 -0.631916 -0.000001 -1.061165 0.000000 0.000000
    25 -1.054232 -3.072121 -11.108055 -0.462373 -0.083979 0.642890
    26 0.089929 -8.543163 0.000001 0.298159 -0.167077 0.464263
    27 0.000000 -0.359713 0.000000 0.000000 0.000000 0.000000
    28 -0.170479 -2.636147 -0.277655 -0.820322 0.000000 0.000000
    29 0.010599 -1.261177 0.000000 -0.584649 0.000000 0.000000
    30 -0.000001 -0.943233 -0.000001 -0.532326 0.000000 0.000000
    31 -0.827563 -2.508974 -0.277656 -0.942479 0.000000 0.000000
    32 -0.000001 -1.292971 0.000000 -0.287992 0.000000 0.000000
    33 0.000000 -0.752465 0.000000 -0.445059 0.000000 0.000000
    34 0.444213 -2.561960 -0.277656 -1.081577 -0.046226 -0.024599
    35 0.021022 -1.208186 0.000000 -0.427606 0.000000 0.000000
    36 0.010597 -0.741867 -0.000002 -0.453786 0.000000 0.000000
    37 1.047445 -2.222821 -0.277656 -1.019688 -0.066950 -0.041090
    38 0.000000 -0.996223 -0.000002 -0.584712 0.000000 0.000000
    39 -0.000001 -0.614690 0.000001 -0.523599 0.000000 0.000000
    40 -0.308254 -0.007814 0.307166 -0.318043 -0.539818 -2.424628
    41 1.978378 0.019543 0.000000 -0.000002 -0.000010 0.549778
    42 0.982426 0.003186 0.000000 0.000000 0.000000 0.593409
  time 18
    0 6.606519 0.157752 -6.694013 -0.793111 -1.325000 0.588495
    1 0.000000 -8.563284 0.000000 0.342908 -0.129366 -0.131842
    2 -0.251103 -3.675759 0.760352 -1.186398 1.434476 -1.173754
    3 -0.000001 2.696691 0.690915 0.000000 0.000000 0.000000
    4 0.000922 -0.883960 1.569312 0.000000 0.000000 0.000000
    5 0.000922 -3.415222 1.347102 0.000000 0.000000 0.000000
    6 0.000922 -2.222973 2.023393 0.000000 0.000000 0.000000
    7 -0.001984 -7.144153 2.100413 0.000000 0.000000 0.000000
    8 -0.002861 -1.798472 1.044055 0.000000 0.000000 0.000000
    9 -0.003480 -0.404829 0.000000 0.000000 0.000000 0.000000
    10 -0.519309 -2.501156 -0.278958 -1.003564 0.000000 -0.122173
    11 -0.010598 -1.208185 0.000000 -1.090831 0.000000 0.000000
    12 0.000000 -0.763066 0.000000 -1.223482 0.000000 0.000000
    13 0.105980 -2.607134 -0.278958 -0.890118 0.000000 -0.148353
    14 0.000000 -1.250578 0.000000 -1.213004 0.000000 0.000000
    15 0.000000 -0.932634 -0.000001 -1.279337 0.000000 0.000000
    16 0.763063 -2.490557 -0.278958 -0.349065 0.000000 0.130900
    17 -0.012322 -1.280917 0.000000 -0.322887 0.000000 0.000000
    18 -0.001697 -0.749371 0.000000 -0.593412 0.000000 0.000000
    19 0.354567 0.016266 0.318133 0.505409 -0.466262 -1.212439
    20 1.887165 0.012878 0.000000 -0.304966 -0.017306 -0.456358
    21 1.001874 -0.000270 0.000000 0.000000 0.000000 -0.572452
    22 -1.123359 -2.195094 -0.278958 -0.788809 0.052708 -0.017695
    23 0.010772 -0.963791 0.000001 -0.932004 0.000000 0.000000
    24 -0.010412 -0.631916 -0.000001 -1.061165 0.000000 0.000000
    25 -1.077670 -3.044776 -11.135400 -0.457436 -0.079313 0.640249
    26 0.089929 -8.543163 0.000001 0.282534 -0.174155 0.463069
    27 0.000000 -0.359713 0.000000 0.000000 0.000000 0.000000
    28 -0.170479 -2.636147 -0.277655 -0.820322 0.000000 0.000000
    29 0.010599 -1.261177 0.000000 -0.584649 0.000000 0.000000
    30 -0.000001 -0.943233 -0.000001 -0.532326 0.000000 0.000000
    31 -0.827563 -2.508974 -0.277656 -0.942479 0.000000 0.000000
    32 -0.000001 -1.292971 0.000000 -0.287992 0.000000 0.000000
    33 0.000000 -0.752465 0.000000 -0.445059 0.000000 0.000000
    34 0.444213 -2.561960 -0.277656 -1.081577 -0.046226 -0.024599
    35 0.021022 -1.208186 0.000000 -0.427606 0.000000 0.000000
    36 0.010597 -0.741867 -0.000002 -0.453786 0.000000 0.000000
    37 1.047445 -2.222821 -0.277656 -1.019688 -0.066950 -0.041090
    38 0.000000 -0.996223 -0.000002 -0.584712 0.000000 0.000000
    39 -0.000001 -0.614690 0.000001 -0.523599 0.000000 0.000000
    40 -0.308254 -0.007814 0.307166 -0.318043 -0.539818 -2.424628
    41 1.978378 0.019543 0.000000 -0.000002 -0.000010 0.549778
    42 0.982426 0.003186 0.000000 0.000000 0.000000 0.593409
  time 19
    0 6.606519 0.165564 -6.694013 -0.786600 -1.327063 0.579974
    1 0.000000 -8.563284 0.000000 0.346312 -0.128691 -0.135941
    2 -0.251103 -3.675759 0.760352 -1.186398 1.434476 -1.173754
    3 -0.000001 2.696691 0.690915 0.000000 0.000000 0.000000
    4 0.000922 -0.883960 1.569312 0.000000 0.000000 0.000000
    5 0.000922 -3.415222 1.347102 0.000000 0.000000 0.000000
    6 0.000922 -2.222973 2.023393 0.000000 0.000000 0.000000
    7 -0.001984 -7.144153 2.100413 0.000000 0.000000 0.000000
    8 -0.002861 -1.798472 1.044055 0.000000 0.000000 0.000000
    9 -0.003480 -0.404829 0.000000 0.000000 0.000000 0.000000
    10 -0.519309 -2.501156 -0.278958 -1.003564 0.000000 -0.122173
    11 -0.010598 -1.208185 0.000000 -1.090831 0.000000 0.000000
    12 0.000000 -0.763066 0.000000 -1.223482 0.000000 0.000000
    13 0.105980 -2.607134 -0.278958 -0.890118 0.000000 -0.148353
    14 0.000000 -1.250578 0.000000 -1.213004 0.000000 0.000000
    15 0.000000 -0.932634 -0.000001 -1.279337 0.000000 0.000000
    16 0.763063 -2.490557 -0.278958 -0.349065 0.000000 0.130900
    17 -0.012322 -1.280917 0.000000 -0.322887 0.000000 0.000000
    18 -0.001697 -0.749371 0.000000 -0.593412 0.000000 0.000000
    19 0.354567 0.016266 0.318133 0.505409 -0.466262 -1.212439
    20 1.887165 0.012878 0.000000 -0.304966 -0.017306 -0.456358
    21 1.001874 -0.000270 0.000000 0.000000 0.000000 -0.572452
    22 -1.123359 -2.195094 -0.278958 -0.788809 0.052708 -0.017695
    23 0.010772 -0.963791 0.000001 -0.932004 0.000000 0.000000
    24 -0.010412 -0.631916 -0.000001 -1.061165 0.000000 0.000000
    25 -1.097202 -3.017432 -11.162745 -0.451882 -0.073885 0.637381
    26 0.089929 -8.543163 0.000001 0.266454 -0.181926 0.461846
    27 0.000000 -0.359713 0.000000 0.000000 0.000000 0.000000
    28 -0.170479 -2.636147 -0.277655 -0.820322 0.000000 0.000000
    29 0.010599 -1.261177 0.000000 -0.584649 0.000000 0.000000
    30 -0.000001 -0.943233 -0.000001 -0.532326 0.000000 0.000000
    31 -0.827563 -2.508974 -0.277656 -0.942479 0.000000 0.000000
    32 -0.000001 -1.292971 0.000000 -0.287992 0.000000 0.000000
    33 0.000000 -0.752465 0.000000 -0.445059 0.000000 0.000000
    34 0.444213 -2.561960 -0.277656 -1.081577 -0.046226 -0.024599
    35 0.021022 -1.208186 0.000000 -0.427606 0.000000 0.000000
    36 0.010597 -0.741867 -0.000002 -0.453786 0.000000 0.000000
    37 1.047445 -2.222821 -0.277656 -1.019688 -0.066950 -0.041090
    38 0.000000 -0.996223 -0.000002 -0.584712 0.000000 0.000000
    39 -0.000001 -0.614690 0.000001 -0.523599 0.000000 0.000000
    40 -0.308254 -0.007814 0.307166 -0.318043 -0.539818 -2.424628
    41 1.978378 0.019543 0.000000 -0.000002 -0.000010 0.549778
    42 0.982426 0.003186 0.000000 0.000000 0.000000 0.593409
  time 20
    0 6.602613 0.169471 -6.694013 -0.782281 -1.328301 0.574908
    1 0.000000 -8.563284 0.000000 0.348589 -0.127932 -0.139513
    2 -0.251103 -3.675759 0.760352 -1.186398 1.434476 -1.173754
    3 -0.000001 2.696691 0.690915 0.000000 0.000000 0.000000
    4 0.000922 -0.883960 1.569312 0.000000 0.000000 0.000000
    5 0.000922 -3.415222 1.347102 0.000000 0.000000 0.000000
    6 0.000922 -2.222973 2.023393 0.000000 0.000000 0.000000
    7 -0.001984 -7.144153 2.100413 0.000000 0.000000 0.000000
    8 -0.002861 -1.798472 1.044055 0.000000 0.000000 0.000000
    9 -0.003480 -0.404829 0.000000 0.000000 0.000000 0.000000
    10 -0.519309 -2.501156 -0.278958 -1.003564 0.000000 -0.122173
    11 -0.010598 -1.208185 0.000000 -1.090831 0.000000 0.000000
    12 0.000000 -0.763066 0.000000 -1.223482 0.000000 0.000000
    13 0.105980 -2.607134 -0.278958 -0.890118 0.000000 -0.148353
    14 0.000000 -1.250578 0.000000 -1.213004 0.000000 0.000000
    15 0.000000 -0.932634 -0.000001 -1.279337 0.000000 0.000000
    16 0.763063 -2.490557 -0.278958 -0.349065 0.000000 0.130900
    17 -0.012322 -1.280917 0.000000 -0.322887 0.000000 0.000000
    18 -0.001697 -0.749371 0.000000 -0.593412 0.000000 0.000000
    19 0.354567 0.016266 0.318133 0.505409 -0.466262 -1.212439
    20 1.887165 0.012878 0.000000 -0.304966 -0.017306 -0.456358
    21 1.001874 -0.000270 0.000000 0.000000 0.000000 -0.572452
    22 -1.123359 -2.195094 -0.278958 -0.788809 0.052708 -0.017695
    23 0.010772 -0.963791 0.000001 -0.932004 0.000000 0.000000
    24 -0.010412 -0.631916 -0.000001 -1.061165 0.000000 0.000000
    25 -1.108921 -2.990087 -11.170557 -0.445761 -0.068076 0.634288
    26 0.089929 -8.543163 0.000001 0.250070 -0.190306 0.460652
    27 0.000000 -0.359713 0.000000 0.000000 0.000000 0.000000
    28 -0.170479 -2.636147 -0.277655 -0.820322 0.000000 0.000000
    29 0.010599 -1.261177 0.000000 -0.584649 0.000000 0.000000
    30 -0.000001 -0.943233 -0.000001 -0.532326 0.000000 0.000000
    31 -0.827563 -2.508974 -0.277656 -0.942479 0.000000 0.000000
    32 -0.000001 -1.292971 0.000000 -0.287992 0.000000 0.000000
    33 0.000000 -0.752465 0.000000 -0.445059 0.000000 0.000000
    34 0.444213 -2.561960 -0.277656 -1.081577 -0.046226 -0.024599
    35 0.021022 -1.208186 0.000000 -0.427606 0.000000 0.000000
    36 0.010597 -0.741867 -0.000002 -0.453786 0.000000 0.000000
    37 1.047445 -2.222821 -0.277656 -1.019688 -0.066950 -0.041090
    38 0.000000 -0.996223 -0.000002 -0.584712 0.000000 0.000000
    39 -0.000001 -0.614690 0.000001 -0.523599 0.000000 0.000000
    40 -0.308254 -0.007814 0.307166 -0.318043 -0.539818 -2.424628
    41 1.978378 0.019543 0.000000 -0.000002 -0.000010 0.549778
    42 0.982426 0.003186 0.000000 0.000000 0.000000 0.593409
  time 21
    0 6.602613 0.173377 -6.694013 -0.779122 -1.329159 0.571300
    1 0.000000 -8.563284 0.000000 0.350021 -0.127060 -0.142698
    2 -0.251103 -3.675759 0.760352 -1.186398 1.434476 -1.173754
    3 -0.000001 2.696691 0.690915 0.000000 0.000000 0.000000
    4 0.000922 -0.883960 1.569312 0.000000 0.000000 0.000000
    5 0.000922 -3.415222 1.347102 0.000000 0.000000 0.000000
    6 0.000922 -2.222973 2.023393 0.000000 0.000000 0.000000
    7 -0.001984 -7.144153 2.100413 0.000000 0.000000 0.000000
    8 -0.002861 -1.798472 1.044055 0.000000 0.000000 0.000000
    9 -0.003480 -0.404829 0.000000 0.000000 0.000000 0.000000
    10 -0.519309 -2.501156 -0.278958 -1.003564 0.000000 -0.122173
    11 -0.010598 -1.208185 0.000000 -1.090831 0.000000 0.000000
    12 0.000000 -0.763066 0.000000 -1.223482 0.000000 0.000000
    13 0.105980 -2.607134 -0.278958 -0.890118 0.000000 -0.148353
    14 0.000000 -1.250578 0.000000 -1.213004 0.000000 0.000000
    15 0.000000 -0.932634 -0.000001 -1.279337 0.000000 0.000000
    16 0.763063 -2.490557 -0.278958 -0.349065 0.000000 0.130900
    17 -0.012322 -1.280917 0.000000 -0.322887 0.000000 0.000000
    18 -0.001697 -0.749371 0.000000 -0.593412 0.000000 0.000000
    19 0.354567 0.016266 0.318133 0.505409 -0.466262 -1.212439
    20 1.887165 0.012878 0.000000 -0.304966 -0.017306 -0.456358
    21 1.001874 -0.000270 0.000000 0.000000 0.000000 -0.572452
    22 -1.123359 -2.195094 -0.278958 -0.788809 0.052708 -0.017695
    23 0.010772 -0.963791 0.000001 -0.932004 0.000000 0.000000
    24 -0.010412 -0.631916 -0.000001 -1.061165 0.000000 0.000000
    25 -1.124546 -2.962743 -11.182276 -0.439024 -0.061790 0.631043
    26 0.089929 -8.543163 0.000001 0.233444 -0.199215 0.459458
    27 0.000000 -0.359713 0.000000 0.000000 0.000000 0.000000
    28 -0.170479 -2.636147 -0.277655 -0.820322 0.000000 0.000000
    29 0.010599 -1.261177 0.000000 -0.584649 0.000000 0.000000
    30 -0.000001 -0.943233 -0.000001 -0.532326 0.000000 0.000000
    31 -0.827563 -2.508974 -0.277656 -0.942479 0.000000 0.000000
    32 -0.000001 -1.292971 0.000000 -0.287992 0.000000 0.000000
    33 0.000000 -0.752465 0.000000 -0.445059 0.000000 0.000000
    34 0.444213 -2.561960 -0.277656 -1.081577 -0.046226 -0.024599
    35 0.021022 -1.208186 0.000000 -0.427606 0.000000 0.000000
    36 0.010597 -0.741867 -0.000002 -0.453786 0.000000 0.000000
    37 1.047445 -2.222821 -0.277656 -1.019688 -0.066950 -0.041090
    38 0.000000 -0.996223 -0.000002 -0.584712 0.000000 0.000000
    39 -0.000001 -0.614690 0.000001 -0.523599 0.000000 0.000000
    40 -0.308254 -0.007814 0.307166 -0.318043 -0.539818 -2.424628
    41 1.978378 0.019543 0.000000 -0.000002 -0.000010 0.549778
    42 0.982426 0.003186 0.000000 0.000000 0.000000 0.593409
  time 22
    0 6.598707 0.177283 -6.694013 -0.776930 -1.329698 0.568844
    1 0.000000 -8.563284 0.000000 0.350678 -0.126104 -0.145522
    2 -0.251103 -3.675759 0.760352 -1.186398 1.434476 -1.173754
    3 -0.000001 2.696691 0.690915 0.000000 0.000000 0.000000
    4 0.000922 -0.883960 1.569312 0.000000 0.000000 0.000000
    5 0.000922 -3.415222 1.347102 0.000000 0.000000 0.000000
    6 0.000922 -2.222973 2.023393 0.000000 0.000000 0.000000
    7 -0.001984 -7.144153 2.100413 0.000000 0.000000 0.000000
    8 -0.002861 -1.798472 1.044055 0.000000 0.000000 0.000000
    9 -0.003480 -0.404829 0.000000 0.000000 0.000000 0.000000
    10 -0.519309 -2.501156 -0.278958 -1.003564 0.000000 -0.122173
    11 -0.010598 -1.208185 0.000000 -1.090831 0.000000 0.000000
    12 0.000000 -0.763066 0.000000 -1.223482 0.000000 0.000000
    13 0.105980 -2.607134 -0.278958 -0.890118 0.000000 -0.148353
    14 0.000000 -1.250578 0.000000 -1.213004 0.000000 0.000000
    15 0.000000 -0.932634 -0.000001 -1.279337 0.000000 0.000000
    16 0.763063 -2.490557 -0.278958 -0.349065 0.000000 0.130900
    17 -0.012322 -1.280917 0.000000 -0.322887 0.000000 0.000000
    18 -0.001697 -0.749371 0.000000 -0.593412 0.000000 0.000000
    19 0.354567 0.016266 0.318133 0.505409 -0.466262 -1.212439
    20 1.887165 0.012878 0.000000 -0.304966 -0.017306 -0.456358
    21 1.001874 -0.000270 0.000000 0.000000 0.000000 -0.572452
    22 -1.123359 -2.195094 -0.278958 -0.788809 0.052708 -0.017695
    23 0.010772 -0.963791 0.000001 -0.932004 0.000000 0.000000
    24 -0.010412 -0.631916 -0.000001 -1.061165 0.000000 0.000000
    25 -1.140172 -2.939304 -11.186183 -0.432030 -0.055124 0.627648
    26 0.089929 -8.543163 0.000001 0.216544 -0.208531 0.458349
    27 0.000000 -0.359713 0.000000 0.000000 0.000000 0.000000
    28 -0.170479 -2.636147 -0.277655 -0.820322 0.000000 0.000000
    29 0.010599 -1.261177 0.000000 -0.584649 0.000000 0.000000
    30 -0.000001 -0.943233 -0.000001 -0.532326 0.000000 0.000000
    31 -0.827563 -2.508974 -0.277656 -0.942479 0.000000 0.000000
    32 -0.000001 -1.292971 0.000000 -0.287992 0.000000 0.000000
    33 0.000000 -0.752465 0.000000 -0.445059 0.000000 0.000000
    34 0.444213 -2.561960 -0.277656 -1.081577 -0.046226 -0.024599
    35 0.021022 -1.208186 0.000000 -0.427606 0.000000 0.000000
    36 0.010597 -0.741867 -0.000002 -0.453786 0.000000 0.000000
    37 1.047445 -2.222821 -0.277656 -1.019688 -0.066950 -0.041090
    38 0.000000 -0.996223 -0.000002 -0.584712 0.000000 0.000000
    39 -0.000001 -0.614690 0.000001 -0.523599 0.000000 0.000000
    40 -0.308254 -0.007814 0.307166 -0.318043 -0.539818 -2.424628
    41 1.978378 0.019543 0.000000 -0.000002 -0.000010 0.549778
    42 0.982426 0.003186 0.000000 0.000000 0.000000 0.593409
  time 23
    0 6.598707 0.181190 -6.694013 -0.775512 -1.330048 0.567308
    1 0.000000 -8.563284 0.000000 0.350748 -0.125147 -0.148098
    2 -0.251103 -3.675759 0.760352 -1.186398 1.434476 -1.173754
    3 -0.000001 2.696691 0.690915 0.000000 0.000000 0.000000
    4 0.000922 -0.883960 1.569312 0.000000 0.000000 0.000000
    5 0.000922 -3.415222 1.347102 0.000000 0.000000 0.000000
    6 0.000922 -2.222973 2.023393 0.000000 0.000000 0.000000
    7 -0.001984 -7.144153 2.100413 0.000000 0.000000 0.000000
    8 -0.002861 -1.798472 1.044055 0.000000 0.000000 0.000000
    9 -0.003480 -0.404829 0.000000 0.000000 0.000000 0.000000
    10 -0.519309 -2.501156 -0.278958 -1.003564 0.000000 -0.122173
    11 -0.010598 -1.208185 0.000000 -1.090831 0.000000 0.000000
    12 0.000000 -0.763066 0.000000 -1.223482 0.000000 0.000000
    13 0.105980 -2.607134 -0.278958 -0.890118 0.000000 -0.148353
    14 0.000000 -1.250578 0.000000 -1.213004 0.000000 0.000000
    15 0.000000 -0.932634 -0.000001 -1.279337 0.000000 0.000000
    16 0.763063 -2.490557 -0.278958 -0.349065 0.000000 0.130900
    17 -0.012322 -1.280917 0.000000 -0.322887 0.000000 0.000000
    18 -0.001697 -0.749371 0.000000 -0.593412 0.000000 0.000000
    19 0.354567 0.016266 0.318133 0.505409 -0.466262 -1.212439
    20 1.887165 0.012878 0.000000 -0.304966 -0.017306 -0.456358
    21 1.001874 -0.000270 0.000000 0.000000 0.000000 -0.572452
    22 -1.123359 -2.195094 -0.278958 -0.788809 0.052708 -0.017695
    23 0.010772 -0.963791 0.000001 -0.932004 0.000000 0.000000
    24 -0.010412 -0.631916 -0.000001 -1.061165 0.000000 0.000000
    25 -1.151891 -2.911960 -11.178370 -0.424675 -0.048172 0.624177
    26 0.089929 -8.543163 0.000001 0.199493 -0.218132 0.457354
    27 0.000000 -0.359713 0.000000 0.000000 0.000000 0.000000
    28 -0.170479 -2.636147 -0.277655 -0.820322 0.000000 0.000000
    29 0.010599 -1.261177 0.000000 -0.584649 0.000000 0.000000
    30 -0.000001 -0.943233 -0.000001 -0.532326 0.000000 0.000000
    31 -0.827563 -2.508974 -0.277656 -0.942479 0.000000 0.000000
    32 -0.000001 -1.292971 0.000000 -0.287992 0.000000 0.000000
    33 0.000000 -0.752465 0.000000 -0.445059 0.000000 0.000000
    34 0.444213 -2.561960 -0.277656 -1.081577 -0.046226 -0.024599
    35 0.021022 -1.208186 0.000000 -0.427606 0.000000 0.000000
    36 0.010597 -0.741867 -0.000002 -0.453786 0.000000 0.000000
    37 1.047445 -2.222821 -0.277656 -1.019688 -0.066950 -0.041090
    38 0.000000 -0.996223 -0.000002 -0.584712 0.000000 0.000000
    39 -0.000001 -0.614690 0.000001 -0.523599 0.000000 0.000000
    40 -0.308254 -0.007814 0.307166 -0.318043 -0.539818 -2.424628
    41 1.978378 0.019543 0.000000 -0.000002 -0.000010 0.549778
    42 0.982426 0.003186 0.000000 0.000000 0.000000 0.593409
  time 24
    0 6.598707 0.181190 -6.694013 -0.774803 -1.330206 0.566618
    1 0.000000 -8.563284 0.000000 0.350349 -0.124106 -0.150563
    2 -0.251103 -3.675759 0.760352 -1.186398 1.434476 -1.173754
    3 -0.000001 2.696691 0.690915 0.000000 0.000000 0.000000
    4 0.000922 -0.883960 1.569312 0.000000 0.000000 0.000000
    5 0.000922 -3.415222 1.347102 0.000000 0.000000 0.000000
    6 0.000922 -2.222973 2.023393 0.000000 0.000000 0.000000
    7 -0.001984 -7.144153 2.100413 0.000000 0.000000 0.000000
    8 -0.002861 -1.798472 1.044055 0.000000 0.000000 0.000000
    9 -0.003480 -0.404829 0.000000 0.000000 0.000000 0.000000
    10 -0.519309 -2.501156 -0.278958 -1.003564 0.000000 -0.122173
    11 -0.010598 -1.208185 0.000000 -1.090831 0.000000 0.000000
    12 0.000000 -0.763066 0.000000 -1.223482 0.000000 0.000000
    13 0.105980 -2.607134 -0.278958 -0.890118 0.000000 -0.148353
    14 0.000000 -1.250578 0.000000 -1.213004 0.000000 0.000000
    15 0.000000 -0.932634 -0.000001 -1.279337 0.000000 0.000000
    16 0.763063 -2.490557 -0.278958 -0.349065 0.000000 0.130900
    17 -0.012322 -1.280917 0.000000 -0.322887 0.000000 0.000000
    18 -0.001697 -0.749371 0.000000 -0.593412 0.000000 0.000000
    19 0.354567 0.016266 0.318133 0.505409 -0.466262 -1.212439
    20 1.887165 0.012878 0.000000 -0.304966 -0.017306 -0.456358
    21 1.001874 -0.000270 0.000000 0.000000 0.000000 -0.572452
    22 -1.123359 -2.195094 -0.278958 -0.788809 0.052708 -0.017695
    23 0.010772 -0.963791 0.000001 -0.932004 0.000000 0.000000
    24 -0.010412 -0.631916 -0.000001 -1.061165 0.000000 0.000000
    25 -1.163610 -2.884615 -11.166651 -0.417218 -0.041030 0.620781
    26 0.089929 -8.543163 0.000001 0.182351 -0.227937 0.456501
    27 0.000000 -0.359713 0.000000 0.000000 0.000000 0.000000
    28 -0.170479 -2.636147 -0.277655 -0.820322 0.000000 0.000000
    29 0.010599 -1.261177 0.000000 -0.584649 0.000000 0.000000
    30 -0.000001 -0.943233 -0.000001 -0.532326 0.000000 0.000000
    31 -0.827563 -2.508974 -0.277656 -0.942479 0.000000 0.000000
    32 -0.000001 -1.292971 0.000000 -0.287992 0.000000 0.000000
    33 0.000000 -0.752465 0.000000 -0.445059 0.000000 0.000000
    34 0.444213 -2.561960 -0.277656 -1.081577 -0.046226 -0.024599
    35 0.021022 -1.208186 0.000000 -0.427606 0.000000 0.000000
    36 0.010597 -0.741867 -0.000002 -0.453786 0.000000 0.000000
    37 1.047445 -2.222821 -0.277656 -1.019688 -0.066950 -0.041090
    38 0.000000 -0.996223 -0.000002 -0.584712 0.000000 0.000000
    39 -0.000001 -0.614690 0.000001 -0.523599 0.000000 0.000000
    40 -0.308254 -0.007814 0.307166 -0.318043 -0.539818 -2.424628
    41 1.978378 0.019543 0.000000 -0.000002 -0.000010 0.549778
    42 0.982426 0.003186 0.000000 0.000000 0.000000 0.593409
  time 25
    0 6.598707 0.181190 -6.694013 -0.774287 -1.330302 0.566387
    1 0.000000 -8.563284 0.000000 0.349669 -0.122981 -0.152917
    2 -0.251103 -3.675759 0.760352 -1.186398 1.434476 -1.173754
    3 -0.000001 2.696691 0.690915 0.000000 0.000000 0.000000
    4 0.000922 -0.883960 1.569312 0.000000 0.000000 0.000000
    5 0.000922 -3.415222 1.347102 0.000000 0.000000 0.000000
    6 0.000922 -2.222973 2.023393 0.000000 0.000000 0.000000
    7 -0.001984 -7.144153 2.100413 0.000000 0.000000 0.000000
    8 -0.002861 -1.798472 1.044055 0.000000 0.000000 0.000000
    9 -0.003480 -0.404829 0.000000 0.000000 0.000000 0.000000
    10 -0.519309 -2.501156 -0.278958 -1.003564 0.000000 -0.122173
    11 -0.010598 -1.208185 0.000000 -1.090831 0.000000 0.000000
    12 0.000000 -0.763066 0.000000 -1.223482 0.000000 0.000000
    13 0.105980 -2.607134 -0.278958 -0.890118 0.000000 -0.148353
    14 0.000000 -1.250578 0.000000 -1.213004 0.000000 0.000000
    15 0.000000 -0.932634 -0.000001 -1.279337 0.000000 0.000000
    16 0.763063 -2.490557 -0.278958 -0.349065 0.000000 0.130900
    17 -0.012322 -1.280917 0.000000 -0.322887 0.000000 0.000000
    18 -0.001697 -0.749371 0.000000 -0.593412 0.000000 0.000000
    19 0.354567 0.016266 0.318133 0.505409 -0.466262 -1.212439
    20 1.887165 0.012878 0.000000 -0.304966 -0.017306 -0.456358
    21 1.001874 -0.000270 0.000000 0.000000 0.000000 -0.572452
    22 -1.123359 -2.195094 -0.278958 -0.788809 0.052708 -0.017695
    23 0.010772 -0.963791 0.000001 -0.932004 0.000000 0.000000
    24 -0.010412 -0.631916 -0.000001 -1.061165 0.000000 0.000000
    25 -1.171423 -2.857271 -11.151025 -0.409760 -0.033888 0.617386
    26 0.089929 -8.543163 0.000001 0.165088 -0.237822 0.455790
    27 0.000000 -0.359713 0.000000 0.000000 0.000000 0.000000
    28 -0.170479 -2.636147 -0.277655 -0.820322 0.000000 0.000000
    29 0.010599 -1.261177 0.000000 -0.584649 0.000000 0.000000
    30 -0.000001 -0.943233 -0.000001 -0.532326 0.000000 0.000000
    31 -0.827563 -2.508974 -0.277656 -0.942479 0.000000 0.000000
    32 -0.000001 -1.292971 0.000000 -0.287992 0.000000 0.000000
    33 0.000000 -0.752465 0.000000 -0.445059 0.000000 0.000000
    34 0.444213 -2.561960 -0.277656 -1.081577 -0.046226 -0.024599
    35 0.021022 -1.208186 0.000000 -0.427606 0.000000 0.000000
    36 0.010597 -0.741867 -0.000002 -0.453786 0.000000 0.000000
    37 1.047445 -2.222821 -0.277656 -1.019688 -0.066950 -0.041090
    38 0.000000 -0.996223 -0.000002 -0.584712 0.000000 0.000000
    39 -0.000001 -0.614690 0.000001 -0.523599 0.000000 0.000000
    40 -0.308254 -0.007814 0.307166 -0.318043 -0.539818 -2.424628
    41 1.978378 0.019543 0.000000 -0.000002 -0.000010 0.549778
    42 0.982426 0.003186 0.000000 0.000000 0.000000 0.593409
  time 26
    0 6.598707 0.181190 -6.694013 -0.774158 -1.330302 0.566387
    1 0.000000 -8.563284 0.000000 0.348824 -0.121856 -0.155298
    2 -0.251103 -3.675759 0.760352 -1.186398 1.434476 -1.173754
    3 -0.000001 2.696691 0.690915 0.000000 0.000000 0.000000
    4 0.000922 -0.883960 1.569312 0.000000 0.000000 0.000000
    5 0.000922 -3.415222 1.347102 0.000000 0.000000 0.000000
    6 0.000922 -2.222973 2.023393 0.000000 0.000000 0.000000
    7 -0.001984 -7.144153 2.100413 0.000000 0.000000 0.000000
    8 -0.002861 -1.798472 1.044055 0.000000 0.000000 0.000000
    9 -0.003480 -0.404829 0.000000 0.000000 0.000000 0.000000
    10 -0.519309 -2.501156 -0.278958 -1.003564 0.000000 -0.122173
    11 -0.010598 -1.208185 0.000000 -1.090831 0.000000 0.000000
    12 0.000000 -0.763066 0.000000 -1.223482 0.000000 0.000000
    13 0.105980 -2.607134 -0.278958 -0.890118 0.000000 -0.148353
    14 0.000000 -1.250578 0.000000 -1.213004 0.000000 0.000000
    15 0.000000 -0.932634 -0.000001 -1.279337 0.000000 0.000000
    16 0.763063 -2.490557 -0.278958 -0.349065 0.000000 0.130900
    17 -0.012322 -1.280917 0.000000 -0.322887 0.000000 0.000000
    18 -0.001697 -0.749371 0.000000 -0.593412 0.000000 0.000000
    19 0.354567 0.016266 0.318133 0.505409 -0.466262 -1.212439
    20 1.887165 0.012878 0.000000 -0.304966 -0.017306 -0.456358
    21 1.001874 -0.000270 0.000000 0.000000 0.000000 -0.572452
    22 -1.123359 -2.195094 -0.278958 -0.788809 0.052708 -0.017695
    23 0.010772 -0.963791 0.000001 -0.932004 0.000000 0.000000
    24 -0.010412 -0.631916 -0.000001 -1.061165 0.000000 0.000000
    25 -1.183142 -2.829926 -11.127587 -0.402303 -0.026745 0.614066
    26 0.089929 -8.543163 0.000001 0.147855 -0.247708 0.455278
    27 0.000000 -0.359713 0.000000 0.000000 0.000000 0.000000
    28 -0.170479 -2.636147 -0.277655 -0.820322 0.000000 0.000000
    29 0.010599 -1.261177 0.000000 -0.584649 0.000000 0.000000
    30 -0.000001 -0.943233 -0.000001 -0.532326 0.000000 0.000000
    31 -0.827563 -2.508974 -0.277656 -0.942479 0.000000 0.000000
    32 -0.000001 -1.292971 0.000000 -0.287992 0.000000 0.000000
    33 0.000000 -0.752465 0.000000 -0.445059 0.000000 0.000000
    34 0.444213 -2.561960 -0.277656 -1.081577 -0.046226 -0.024599
    35 0.021022 -1.208186 0.000000 -0.427606 0.000000 0.000000
    36 0.010597 -0.741867 -0.000002 -0.453786 0.000000 0.000000
    37 1.047445 -2.222821 -0.277656 -1.019688 -0.066950 -0.041090
    38 0.000000 -0.996223 -0.000002 -0.584712 0.000000 0.000000
    39 -0.000001 -0.614690 0.000001 -0.523599 0.000000 0.000000
    40 -0.308254 -0.007814 0.307166 -0.318043 -0.539818 -2.424628
    41 1.978378 0.019543 0.000000 -0.000002 -0.000010 0.549778
    42 0.982426 0.003186 0.000000 0.000000 0.000000 0.593409
  time 27
    0 6.598707 0.177283 -6.694013 -0.774029 -1.330302 0.566387
    1 0.000000 -8.563284 0.000000 0.348002 -0.120675 -0.157763
    2 -0.251103 -3.675759 0.760352 -1.186398 1.434476 -1.173754
    3 -0.000001 2.696691 0.690915 0.000000 0.000000 0.000000
    4 0.000922 -0.883960 1.569312 0.000000 0.000000 0.000000
    5 0.000922 -3.415222 1.347102 0.000000 0.000000 0.000000
    6 0.000922 -2.222973 2.023393 0.000000 0.000000 0.000000
    7 -0.001984 -7.144153 2.100413 0.000000 0.000000 0.000000
    8 -0.002861 -1.798472 1.044055 0.000000 0.000000 0.000000
    9 -0.003480 -0.404829 0.000000 0.000000 0.000000 0.000000
    10 -0.519309 -2.501156 -0.278958 -1.003564 0.000000 -0.122173
    11 -0.010598 -1.208185 0.000000 -1.090831 0.000000 0.000000
    12 0.000000 -0.763066 0.000000 -1.223482 0.000000 0.000000
    13 0.105980 -2.607134 -0.278958 -0.890118 0.000000 -0.148353
    14 0.000000 -1.250578 0.000000 -1.213004 0.000000 0.000000
    15 0.000000 -0.932634 -0.000001 -1.279337 0.000000 0.000000
    16 0.763063 -2.490557 -0.278958 -0.349065 0.000000 0.130900
    17 -0.012322 -1.280917 0.000000 -0.322887 0.000000 0.000000
    18 -0.001697 -0.749371 0.000000 -0.593412 0.000000 0.000000
    19 0.354567 0.016266 0.318133 0.505409 -0.466262 -1.212439
    20 1.887165 0.012878 0.000000 -0.304966 -0.017306 -0.456358
    21 1.001874 -0.000270 0.000000 0.000000 0.000000 -0.572452
    22 -1.123359 -2.195094 -0.278958 -0.788809 0.052708 -0.017695
    23 0.010772 -0.963791 0.000001 -0.932004 0.000000 0.000000
    24 -0.010412 -0.631916 -0.000001 -1.061165 0.000000 0.000000
    25 -1.190955 -2.798675 -11.100243 -0.395000 -0.019603 0.610821
    26 0.089929 -8.543163 0.000001 0.130622 -0.257431 0.454966
    27 0.000000 -0.359713 0.000000 0.000000 0.000000 0.000000
    28 -0.170479 -2.636147 -0.277655 -0.820322 0.000000 0.000000
    29 0.010599 -1.261177 0.000000 -0.584649 0.000000 0.000000
    30 -0.000001 -0.943233 -0.000001 -0.532326 0.000000 0.000000
    31 -0.827563 -2.508974 -0.277656 -0.942479 0.000000 0.000000
    32 -0.000001 -1.292971 0.000000 -0.287992 0.000000 0.000000
    33 0.000000 -0.752465 0.000000 -0.445059 0.000000 0.000000
    34 0.444213 -2.561960 -0.277656 -1.081577 -0.046226 -0.024599
    35 0.021022 -1.208186 0.000000 -0.427606 0.000000 0.000000
    36 0.010597 -0.741867 -0.000002 -0.453786 0.000000 0.000000
    37 1.047445 -2.222821 -0.277656 -1.019688 -0.066950 -0.041090
    38 0.000000 -0.996223 -0.000002 -0.584712 0.000000 0.000000
    39 -0.000001 -0.614690 0.000001 -0.523599 0.000000 0.000000
    40 -0.308254 -0.007814 0.307166 -0.318043 -0.539818 -2.424628
    41 1.978378 0.019543 0.000000 -0.000002 -0.000010 0.549778
    42 0.982426 0.003186 0.000000 0.000000 0.000000 0.593409
  time 28
    0 6.602613 0.173377 -6.694013 -0.773642 -1.330333 0.566234
    1 0.000000 -8.563284 0.000000 0.347392 -0.119465 -0.160421
    2 -0.251103 -3.675759 0.760352 -1.186398 1.434476 -1.173754
    3 -0.000001 2.696691 0.690915 0.000000 0.000000 0.000000
    4 0.000922 -0.883960 1.569312 0.000000 0.000000 0.000000
    5 0.000922 -3.415222 1.347102 0.000000 0.000000 0.000000
    6 0.000922 -2.222973 2.023393 0.000000 0.000000 0.000000
    7 -0.001984 -7.144153 2.100413 0.000000 0.000000 0.000000
    8 -0.002861 -1.798472 1.044055 0.000000 0.000000 0.000000
    9 -0.003480 -0.404829 0.000000 0.000000 0.000000 0.000000
    10 -0.519309 -2.501156 -0.278958 -1.003564 0.000000 -0.122173
    11 -0.010598 -1.208185 0.000000 -1.090831 0.000000 0.000000
    12 0.000000 -0.763066 0.000000 -1.223482 0.000000 0.000000
    13 0.105980 -2.607134 -0.278958 -0.890118 0.000000 -0.148353
    14 0.000000 -1.250578 0.000000 -1.213004 0.000000 0.000000
    15 0.000000 -0.932634 -0.000001 -1.279337 0.000000 0.000000
    16 0.763063 -2.490557 -0.278958 -0.349065 0.000000 0.130900
    17 -0.012322 -1.280917 0.000000 -0.322887 0.000000 0.000000
    18 -0.001697 -0.749371 0.000000 -0.593412 0.000000 0.000000
    19 0.354567 0.016266 0.318133 0.505409 -0.466262 -1.212439
    20 1.887165 0.012878 0.000000 -0.304966 -0.017306 -0.456358
    21 1.001874 -0.000270 0.000000 0.000000 0.000000 -0.572452
    22 -1.123359 -2.195094 -0.278958 -0.788809 0.052708 -0.017695
    23 0.010772 -0.963791 0.000001 -0.932004 0.000000 0.000000
    24 -0.010412 -0.631916 -0.000001 -1.061165 0.000000 0.000000
    25 -1.198767 -2.771331 -11.065085 -0.388005 -0.012746 0.607727
    26 0.089929 -8.543163 0.000001 0.113510 -0.266910 0.454823
    27 0.000000 -0.359713 0.000000 0.000000 0.000000 0.000000
    28 -0.170479 -2.636147 -0.277655 -0.820322 0.000000 0.000000
    29 0.010599 -1.261177 0.000000 -0.584649 0.000000 0.000000
    30 -0.000001 -0.943233 -0.000001 -0.532326 0.000000 0.000000
    31 -0.827563 -2.508974 -0.277656 -0.942479 0.000000 0.000000
    32 -0.000001 -1.292971 0.000000 -0.287992 0.000000 0.000000
    33 0.000000 -0.752465 0.000000 -0.445059 0.000000 0.000000
    34 0.444213 -2.561960 -0.277656 -1.081577 -0.046226 -0.024599
    35 0.021022 -1.208186 0.000000 -0.427606 0.000000 0.000000
    36 0.010597 -0.741867 -0.000002 -0.453786 0.000000 0.000000
    37 1.047445 -2.222821 -0.277656 -1.019688 -0.066950 -0.041090
    38 0.000000 -0.996223 -0.000002 -0.584712 0.000000 0.000000
    39 -0.000001 -0.614690 0.000001 -0.523599 0.000000 0.000000
    40 -0.308254 -0.007814 0.307166 -0.318043 -0.539818 -2.424628
    41 1.978378 0.019543 0.000000 -0.000002 -0.000010 0.549778
    42 0.982426 0.003186 0.000000 0.000000 0.000000 0.593409
  time 29
    0 6.602613 0.169471 -6.694013 -0.772804 -1.330429 0.565620
    1 0.000000 -8.563284 0.000000 0.347063 -0.118256 -0.163329
    2 -0.251103 -3.675759 0.760352 -1.186398 1.434476 -1.173754
    3 -0.000001 2.696691 0.690915 0.000000 0.000000 0.000000
    4 0.000922 -0.883960 1.569312 0.000000 0.000000 0.000000
    5 0.000922 -3.415222 1.347102 0.000000 0.000000 0.000000
    6 0.000922 -2.222973 2.023393 0.000000 0.000000 0.000000
    7 -0.001984 -7.144153 2.100413 0.000000 0.000000 0.000000
    8 -0.002861 -1.798472 1.044055 0.000000 0.000000 0.000000
    9 -0.003480 -0.404829 0.000000 0.000000 0.000000 0.000000
    10 -0.519309 -2.501156 -0.278958 -1.003564 0.000000 -0.122173
    11 -0.010598 -1.208185 0.000000 -1.090831 0.000000 0.000000
    12 0.000000 -0.763066 0.000000 -1.223482 0.000000 0.000000
    13 0.105980 -2.607134 -0.278958 -0.890118 0.000000 -0.148353
    14 0.000000 -1.250578 0.000000 -1.213004 0.000000 0.000000
    15 0.000000 -0.932634 -0.000001 -1.279337 0.000000 0.000000
    16 0.763063 -2.490557 -0.278958 -0.349065 0.000000 0.130900
    17 -0.012322 -1.280917 0.000000 -0.322887 0.000000 0.000000
    18 -0.001697 -0.749371 0.000000 -0.593412 0.000000 0.000000
    19 0.354567 0.016266 0.318133 0.505409 -0.466262 -1.212439
    20 1.887165 0.012878 0.000000 -0.304966 -0.017306 -0.456358
    21 1.001874 -0.000270 0.000000 0.000000 0.000000 -0.572452
    22 -1.123359 -2.195094 -0.278958 -0.788809 0.052708 -0.017695
    23 0.010772 -0.963791 0.000001 -0.932004 0.000000 0.000000
    24 -0.010412 -0.631916 -0.000001 -1.061165 0.000000 0.000000
    25 -1.206580 -2.743986 -11.022115 -0.381422 -0.006175 0.604785
    26 0.089929 -8.543163 0.000001 0.096520 -0.276023 0.454937
    27 0.000000 -0.359713 0.000000 0.000000 0.000000 0.000000
    28 -0.170479 -2.636147 -0.277655 -0.820322 0.000000 0.000000
    29 0.010599 -1.261177 0.000000 -0.584649 0.000000 0.000000
    30 -0.000001 -0.943233 -0.000001 -0.532326 0.000000 0.000000
    31 -0.827563 -2.508974 -0.277656 -0.942479 0.000000 0.000000
    32 -0.000001 -1.292971 0.000000 -0.287992 0.000000 0.000000
    33 0.000000 -0.752465 0.000000 -0.445059 0.000000 0.000000
    34 0.444213 -2.561960 -0.277656 -1.081577 -0.046226 -0.024599
    35 0.021022 -1.208186 0.000000 -0.427606 0.000000 0.000000
    36 0.010597 -0.741867 -0.000002 -0.453786 0.000000 0.000000
    37 1.047445 -2.222821 -0.277656 -1.019688 -0.066950 -0.041090
    38 0.000000 -0.996223 -0.000002 -0.584712 0.000000 0.000000
    39 -0.000001 -0.614690 0.000001 -0.523599 0.000000 0.000000
    40 -0.308254 -0.007814 0.307166 -0.318043 -0.539818 -2.424628
    41 1.978378 0.019543 0.000000 -0.000002 -0.000010 0.549778
    42 0.982426 0.003186 0.000000 0.000000 0.000000 0.593409
  time 30
    0 6.606519 0.165564 -6.694013 -0.771579 -1.330778 0.564315
    1 0.000000 -8.563284 0.000000 0.347157 -0.117018 -0.166597
    2 -0.251103 -3.675759 0.760352 -1.186398 1.434476 -1.173754
    3 -0.000001 2.696691 0.690915 0.000000 0.000000 0.000000
    4 0.000922 -0.883960 1.569312 0.000000 0.000000 0.000000
    5 0.000922 -3.415222 1.347102 0.000000 0.000000 0.000000
    6 0.000922 -2.222973 2.023393 0.000000 0.000000 0.000000
    7 -0.001984 -7.144153 2.100413 0.000000 0.000000 0.000000
    8 -0.002861 -1.798472 1.044055 0.000000 0.000000 0.000000
    9 -0.003480 -0.404829 0.000000 0.000000 0.000000 0.000000
    10 -0.519309 -2.501156 -0.278958 -1.003564 0.000000 -0.122173
    11 -0.010598 -1.208185 0.000000 -1.090831 0.000000 0.000000
    12 0.000000 -0.763066 0.000000 -1.223482 0.000000 0.000000
    13 0.105980 -2.607134 -0.278958 -0.890118 0.000000 -0.148353
    14 0.000000 -1.250578 0.000000 -1.213004 0.000000 0.000000
    15 0.000000 -0.932634 -0.000001 -1.279337 0.000000 0.000000
    16 0.763063 -2.490557 -0.278958 -0.349065 0.000000 0.130900
    17 -0.012322 -1.280917 0.000000 -0.322887 0.000000 0.000000
    18 -0.001697 -0.749371 0.000000 -0.593412 0.000000 0.000000
    19 0.354567 0.016266 0.318133 0.505409 -0.466262 -1.212439
    20 1.887165 0.012878 0.000000 -0.304966 -0.017306 -0.456358
    21 1.001874 -0.000270 0.000000 0.000000 0.000000 -0.572452
    22 -1.123359 -2.195094 -0.278958 -0.788809 0.052708 -0.017695
    23 0.010772 -0.963791 0.000001 -0.932004 0.000000 0.000000
    24 -0.010412 -0.631916 -0.000001 -1.061165 0.000000 0.000000
    25 -1.214393 -2.716641 -10.975239 -0.375302 0.000015 0.602068
    26 0.089929 -8.543163 0.000001 0.079772 -0.284688 0.455193
    27 0.000000 -0.359713 0.000000 0.000000 0.000000 0.000000
    28 -0.170479 -2.636147 -0.277655 -0.820322 0.000000 0.000000
    29 0.010599 -1.261177 0.000000 -0.584649 0.000000 0.000000
    30 -0.000001 -0.943233 -0.000001 -0.532326 0.000000 0.000000
    31 -0.827563 -2.508974 -0.277656 -0.942479 0.000000 0.000000
    32 -0.000001 -1.292971 0.000000 -0.287992 0.000000 0.000000
    33 0.000000 -0.752465 0.000000 -0.445059 0.000000 0.000000
    34 0.444213 -2.561960 -0.277656 -1.081577 -0.046226 -0.024599
    35 0.021022 -1.208186 0.000000 -0.427606 0.000000 0.000000
    36 0.010597 -0.741867 -0.000002 -0.453786 0.000000 0.000000
    37 1.047445 -2.222821 -0.277656 -1.019688 -0.066950 -0.041090
    38 0.000000 -0.996223 -0.000002 -0.584712 0.000000 0.000000
    39 -0.000001 -0.614690 0.000001 -0.523599 0.000000 0.000000
    40 -0.308254 -0.007814 0.307166 -0.318043 -0.539818 -2.424628
    41 1.978378 0.019543 0.000000 -0.000002 -0.000010 0.549778
    42 0.982426 0.003186 0.000000 0.000000 0.000000 0.593409
end
