version 1
nodes
  0 "buff_m249" -1
  1 "Dummy001" 0
  2 "lever" 1
  3 "Dummy003" 0
  4 "trigger" 3
  5 "wing1" 1
  6 "wing2" 1
  7 "wing003" 1
  8 "wing004" 1
  9 "wing005" 1
  10 "wing006" 1
  11 "wing007" 1
  12 "wing008" 1
  13 "wing009" 1
  14 "wing010" 1
  15 "wing011" 1
  16 "wing012" 1
  17 "wing013" 1
  18 "wing014" 1
  19 "cover" 0
  20 "Object028" 19
  21 "Point006" 19
  22 "????????" 21
  23 "magazine" 1
  24 "Dummy002" 23
  25 "bullet1" 24
  26 "bullet2" 25
  27 "bullet3" 26
  28 "bullet4" 27
  29 "bullet5" 28
  30 "bullet6" 29
  31 "bullet7" 30
  32 "bullet8" 31
  33 "Point001" 19
  34 "orange" 33
  35 "Point002" 2
  36 "leverlight1" 35
  37 "Point003" 2
  38 "leverlight2" 37
  39 "Point004" 1
  40 "GeoSphere001" 39
  41 "Point005" 1
  42 "GeoSphere002" 41
  43 "black1" 1
  44 "black2" 1
  45 "black3" 1
  46 "black4" 1
  47 "black5" 1
  48 "black6" 1
  49 "root" -1
  50 "Bone01" 49
  51 "Bone_L_Upper" 50
  52 "Bone_Lefthand" 50
  53 "Bone13" 52
  54 "Bone14" 53
  55 "Bone15" 54
  56 "Bone17" 52
  57 "Bone18" 56
  58 "Bone19" 57
  59 "Bone21" 52
  60 "Bone22" 59
  61 "Bone23" 60
  62 "Bone09" 52
  63 "Bone10" 62
  64 "Bone11" 63
  65 "Bone05" 52
  66 "Bone06" 65
  67 "Bone07" 66
  68 "Bone_Se_Hand-L" 52
  69 "Bone04" 49
  70 "Bone_Righthand" 69
  71 "Bone39" 70
  72 "Bone40" 71
  73 "Bone41" 72
  74 "Bone35" 70
  75 "Bone36" 74
  76 "Bone37" 75
  77 "Bone31" 70
  78 "Bone32" 77
  79 "Bone33" 78
  80 "Bone43" 70
  81 "Bone44" 80
  82 "Bone45" 81
  83 "Bone27" 70
  84 "Bone28" 83
  85 "Bone29" 84
  86 "Bone_Se_Hand-R" 70
  87 "Bone_R_Upper" 69
end
skeleton
  time 0
    0 7.216372 -8.312578 -3.381669 -1.521021 -3.131799 1.467669
    1 6.185434 0.379124 -0.000001 0.000000 0.000000 0.000000
    2 -3.563981 1.256647 -1.087708 0.000000 0.000000 0.021642
    3 -1.464251 -1.398945 0.000000 0.000000 0.000000 0.000000
    4 0.103153 0.068699 0.000000 0.000000 0.000000 -1.424330
    5 -1.646002 -1.588399 1.593848 -0.278216 -0.494126 -2.868259
    6 -0.998352 -1.580052 1.698083 -0.507848 -0.678035 -2.570251
    7 -0.165947 -1.834276 1.705774 -0.771421 -0.937955 -2.095339
    8 0.720433 -1.619241 1.641268 -1.057063 -1.015006 -1.580642
    9 1.291739 -1.362477 1.639532 -1.256646 -0.974371 -1.192860
    10 1.881563 -1.154258 1.658113 -1.556168 -0.918465 -0.701604
    11 2.533382 -0.880921 1.417083 -1.844576 -0.648490 -0.583211
    12 -0.114986 -1.811761 -2.226530 -0.927015 -0.513583 1.249772
    13 0.774039 -1.595395 -2.187590 -1.128328 -0.637551 1.565415
    14 1.346209 -1.338449 -2.194060 -1.305643 -0.661252 1.905686
    15 1.910635 -1.038882 -1.951995 1.514354 -2.466979 -0.724089
    16 2.590990 -0.855057 -2.002131 1.297019 -2.493108 -0.583215
    17 -0.949288 -1.766195 -2.232661 -0.891381 -0.346632 0.997588
    18 -1.589159 -1.561627 -2.172420 -0.758947 -0.143850 0.619577
    19 1.343212 0.759871 -0.659468 -1.570801 -1.547537 0.000008
    20 0.616271 -0.042046 0.018120 0.000000 0.000000 0.000000
    21 0.616272 -0.042044 0.191434 0.000000 0.000000 0.000000
    22 -0.000007 10.649727 -2.184227 0.000000 0.000000 0.000000
    23 -4.723832 -1.475883 0.721802 0.000001 0.000000 -1.570796
    24 0.579225 -0.112310 0.643977 -3.141592 1.570796 0.000000
    25 -0.183390 0.009382 0.270586 -1.570794 -0.677250 -0.000001
    26 0.298495 0.000000 -0.000001 0.000000 0.000000 -0.214661
    27 0.271157 0.000001 -0.000001 0.000000 0.000000 -0.272137
    28 0.339450 0.000000 -0.000001 -0.000297 0.000312 -0.185631
    29 0.339187 0.000000 -0.000001 0.000254 -0.000187 0.128251
    30 0.385388 0.000000 -0.000001 -0.000063 -0.000261 0.401172
    31 0.341048 0.000000 -0.000001 -0.000161 -0.000026 0.590021
    32 0.315277 0.000000 -0.000001 0.000247 -0.000021 0.243588
    33 0.617627 -0.042344 -0.213050 0.000008 0.000032 0.000001
    34 0.000054 0.000001 0.000000 -0.000002 0.000000 -0.000001
    35 -0.027699 2.056633 0.190775 0.141025 1.159637 3.136647
    36 0.000000 0.000000 0.000002 0.000000 0.000000 0.000000
    37 -0.108783 -0.003680 0.135396 0.141025 1.159637 3.136647
    38 0.000000 0.000000 0.000000 0.000000 0.000000 0.000000
    39 -1.639297 -0.733058 1.473499 -0.210880 2.081601 1.371256
    40 0.000000 0.000000 0.000000 0.000000 0.000000 0.000000
    41 -0.512197 -1.035055 1.997663 -0.210879 2.081601 1.371256
    42 0.000000 0.000000 0.000000 0.000000 0.000000 0.000000
    43 -8.459149 -0.575940 0.000001 0.000000 0.000000 1.562439
    44 -7.376782 -0.561701 -0.000804 0.000000 0.000000 1.562440
    45 -6.265542 -0.528891 -0.002659 0.000000 0.000000 1.562440
    46 -2.220867 -0.492363 -0.004725 0.000000 0.000000 1.562440
    47 -1.138244 -0.466984 -0.006159 0.000000 0.000000 1.562439
    48 -0.027756 -0.466983 -0.006160 0.000000 0.000000 1.562439
    49 0.001265 -0.569176 -20.601572 0.000000 0.000000 0.000000
    50 9.310103 -5.299614 -12.557959 3.138909 -0.000224 -1.566807
    51 1.257180 8.762585 -0.153713 -1.570562 0.002683 -1.566807
    52 -0.071921 -8.498736 -0.104134 -0.025046 0.287591 0.014898
    53 -0.488518 -2.755602 -0.228260 0.106454 0.010332 -0.264490
    54 0.039887 -1.479790 0.029854 -0.055395 0.000000 0.000001
    55 0.028786 -1.075731 -0.023109 0.002099 0.000000 0.000000
    56 0.250027 -2.820665 -0.238396 0.041826 -0.002921 0.008443
    57 -0.049759 -1.680544 0.100479 0.019826 0.000000 -0.000002
    58 -0.034142 -1.148312 0.084782 -0.040115 0.000000 0.000000
    59 0.957766 -2.746780 -0.090302 -0.017221 -0.162277 0.191558
    60 -0.033420 -1.397129 -0.011257 0.013931 0.000000 -0.000001
    61 -0.022360 -0.957436 0.018784 0.003845 0.000000 0.000000
    62 -1.180681 -2.507217 -0.193859 0.082999 0.013294 -0.477915
    63 -0.024967 -1.123934 0.017597 -0.018065 0.000000 0.000001
    64 -0.020057 -0.890968 0.010090 -0.060797 0.000000 0.000000
    65 0.583510 -1.197277 0.185379 0.158049 -0.404973 -0.364290
    66 1.535927 0.010246 0.005009 -0.002964 -0.012979 0.000887
    67 1.100771 0.004527 -0.010679 -0.002796 0.015973 0.003458
    68 0.120153 -0.050270 -0.054489 0.287569 3.110905 1.561085
    69 -9.310107 -5.231260 -12.513384 0.004984 -3.131565 -1.566847
    70 0.096944 -8.450418 -0.009365 -0.032965 -0.297907 -0.004663
    71 0.447953 -2.798986 -0.200443 0.106456 -0.010396 0.265094
    72 -0.032909 -1.480204 0.004940 -0.055403 0.000000 0.000002
    73 -0.027022 -1.076920 -0.020210 0.002094 0.000000 0.000000
    74 -0.249534 -2.846964 -0.174213 0.041903 -0.000125 -0.008396
    75 0.043235 -1.683941 0.096012 0.019757 0.002823 -0.000167
    76 0.031729 -1.160830 0.058838 -0.040181 0.000642 0.008372
    77 -0.963866 -2.785145 -0.085350 -0.017227 0.162276 -0.191556
    78 0.028479 -1.403067 0.006271 0.013941 0.000000 0.000000
    79 0.021413 -0.957781 0.020046 0.003851 0.000000 0.000000
    80 1.164475 -2.543940 -0.170330 0.083003 -0.013294 0.477915
    81 0.024032 -1.129042 0.017807 -0.018074 0.000000 0.000001
    82 0.014898 -0.883989 -0.019848 -0.060801 0.000000 0.000000
    83 -0.586770 -1.264477 0.200161 -0.152092 -0.410513 -2.814816
    84 1.522835 0.058681 0.016848 0.001410 0.008985 -0.046880
    85 1.117947 0.048424 -0.005766 -0.000243 -0.025198 0.065422
    86 -0.139399 -0.111698 0.014397 0.285382 -0.030687 1.580508
    87 -1.393470 8.839177 -0.239433 1.580804 -0.005023 -1.566847
end
triangles
$0b_buff_m249_2_glow.bmp
  46 6.055638 -12.811858 -2.828940 -0.863295 0.094227 0.495826 0.653620 0.733855
  46 6.220653 -12.828447 -2.540332 -0.897005 0.071216 0.436246 0.653620 0.802348
  46 6.118675 -12.205139 -2.839811 -0.897005 0.071216 0.436246 0.520548 0.731898
$0b_buff_m249_2_glow.bmp
  46 6.118675 -12.205139 -2.839811 -0.897005 0.071216 0.436246 0.520548 0.731898
  46 6.220653 -12.828447 -2.540332 -0.897005 0.071216 0.436246 0.653620 0.802348
  46 6.263327 -12.219616 -2.542210 -0.916726 0.037599 0.397743 0.520548 0.802348
$0b_buff_m249_2_glow.bmp
  46 6.220653 -12.828447 -2.540332 -0.897005 0.071216 0.436246 0.653620 0.802348
  46 6.367860 -12.983840 -2.181608 -0.741004 -0.030151 0.670823 0.655577 0.843444
  46 6.263327 -12.219616 -2.542210 -0.916726 0.037599 0.397743 0.520548 0.802348
$0b_buff_m249_2_glow.bmp
  46 6.263327 -12.219616 -2.542210 -0.916726 0.037599 0.397743 0.520548 0.802348
  46 6.367860 -12.983840 -2.181608 -0.741004 -0.030151 0.670823 0.655577 0.843444
  46 6.419811 -12.436151 -2.092515 -0.770894 -0.024646 0.636486 0.575342 0.853229
$0b_buff_m249_2_glow.bmp
  46 6.367860 -12.983840 -2.181608 -0.741004 -0.030151 0.670823 0.655577 0.843444
  46 6.669470 -13.004635 -2.016385 -0.066984 -0.172555 0.982720 0.661448 0.894325
  46 6.419811 -12.436151 -2.092515 -0.770894 -0.024646 0.636486 0.575342 0.853229
$0b_buff_m249_2_glow.bmp
  46 6.419811 -12.436151 -2.092515 -0.770894 -0.024646 0.636486 0.575342 0.853229
  46 6.669470 -13.004635 -2.016385 -0.066984 -0.172555 0.982720 0.661448 0.894325
  46 6.712232 -12.536393 -1.907202 -0.066984 -0.172555 0.982720 0.592955 0.908023
$0b_buff_m249_2_glow.bmp
  46 6.669470 -13.004635 -2.016385 -0.066984 -0.172555 0.982720 0.661448 0.894325
  46 7.035784 -12.499597 -2.061669 0.682999 -0.174399 0.709293 0.575342 0.853229
  46 6.712232 -12.536393 -1.907202 -0.066984 -0.172555 0.982720 0.592955 0.908023
$0b_buff_m249_2_glow.bmp
  46 6.712232 -12.536393 -1.907202 -0.066984 -0.172555 0.982720 0.592955 0.908023
  46 7.035784 -12.499597 -2.061669 0.682999 -0.174399 0.709293 0.575342 0.853229
  46 7.092467 -12.022823 -2.011928 0.820616 -0.127896 0.556984 0.489237 0.870841
$0b_buff_m249_2_glow.bmp
  46 7.035784 -12.499597 -2.061669 0.682999 -0.174399 0.709293 0.575342 0.853229
  46 7.276702 -12.323995 -2.491463 0.861313 -0.145541 0.486782 0.520548 0.802348
  46 7.092467 -12.022823 -2.011928 0.820616 -0.127896 0.556984 0.489237 0.870841
$0b_buff_m249_2_glow.bmp
  46 7.092467 -12.022823 -2.011928 0.820616 -0.127896 0.556984 0.489237 0.870841
  46 7.276702 -12.323995 -2.491463 0.861313 -0.145541 0.486782 0.520548 0.802348
  46 7.254765 -11.889272 -2.365231 0.551993 -0.022155 0.833554 0.450098 0.833659
$0b_buff_m249_2_glow.bmp
  46 7.276702 -12.323995 -2.491463 0.861313 -0.145541 0.486782 0.520548 0.802348
  46 7.426622 -11.907060 -2.416699 0.880610 0.006477 0.473798 0.448141 0.808219
  46 7.254765 -11.889272 -2.365231 0.551993 -0.022155 0.833554 0.450098 0.833659
$0b_buff_m249_2_glow.bmp
  46 7.254765 -11.889272 -2.365231 0.551993 -0.022155 0.833554 0.450098 0.833659
  46 7.426622 -11.907060 -2.416699 0.880610 0.006477 0.473798 0.448141 0.808219
  46 7.232724 -11.464911 -2.459211 0.802696 0.399274 0.443012 0.381605 0.814090
$0b_buff_m249_2_glow.bmp
  46 7.426622 -11.907060 -2.416699 0.880610 0.006477 0.473798 0.448141 0.808219
  46 7.386322 -11.903186 -2.608951 0.970953 0.063199 0.230773 0.448141 0.778865
  46 7.232724 -11.464911 -2.459211 0.802696 0.399274 0.443012 0.381605 0.814090
$0b_buff_m249_2_glow.bmp
  46 6.253726 -11.786527 -2.665669 -0.955775 0.261653 0.134286 0.448141 0.778865
  46 6.194675 -11.780168 -2.478392 -0.903327 0.190227 0.384466 0.448141 0.808219
  46 6.477660 -11.387138 -2.497022 -0.744517 0.558640 0.365535 0.381605 0.814090
$0b_buff_m249_2_glow.bmp
  46 6.477660 -11.387138 -2.497022 -0.744517 0.558640 0.365535 0.381605 0.814090
  46 6.194675 -11.780168 -2.478392 -0.903327 0.190227 0.384466 0.448141 0.808219
  46 6.360611 -11.797172 -2.410009 -0.624602 0.099034 0.774638 0.450098 0.833659
$0b_buff_m249_2_glow.bmp
  46 6.194675 -11.780168 -2.478392 -0.903327 0.190227 0.384466 0.448141 0.808219
  46 6.263327 -12.219616 -2.542210 -0.916726 0.037599 0.397743 0.520548 0.802348
  46 6.360611 -11.797172 -2.410009 -0.624602 0.099034 0.774638 0.450098 0.833659
$0b_buff_m249_2_glow.bmp
  46 6.360611 -11.797172 -2.410009 -0.624602 0.099034 0.774638 0.450098 0.833659
  46 6.263327 -12.219616 -2.542210 -0.916726 0.037599 0.397743 0.520548 0.802348
  46 6.456624 -11.957331 -2.043770 -0.880435 0.047315 0.471800 0.489237 0.870841
$0b_buff_m249_2_glow.bmp
  46 6.263327 -12.219616 -2.542210 -0.916726 0.037599 0.397743 0.520548 0.802348
  46 6.419811 -12.436151 -2.092515 -0.770894 -0.024646 0.636486 0.575342 0.853229
  46 6.456624 -11.957331 -2.043770 -0.880435 0.047315 0.471800 0.489237 0.870841
$0b_buff_m249_2_glow.bmp
  46 6.456624 -11.957331 -2.043770 -0.880435 0.047315 0.471800 0.489237 0.870841
  46 6.419811 -12.436151 -2.092515 -0.770894 -0.024646 0.636486 0.575342 0.853229
  46 6.712232 -12.536393 -1.907202 -0.066984 -0.172555 0.982720 0.592955 0.908023
$0b_buff_m249_2_glow.bmp
  46 7.276702 -12.323995 -2.491463 0.861313 -0.145541 0.486782 0.520548 0.802348
  46 7.386322 -11.903186 -2.608951 0.970953 0.063199 0.230773 0.448141 0.778865
  46 7.426622 -11.907060 -2.416699 0.880610 0.006477 0.473798 0.448141 0.808219
$0b_buff_m249_2_glow.bmp
  46 7.276702 -12.323995 -2.491463 0.861313 -0.145541 0.486782 0.520548 0.802348
  46 7.448399 -11.909653 -2.655904 0.713540 -0.010802 0.700531 0.448141 0.755382
  46 7.386322 -11.903186 -2.608951 0.970953 0.063199 0.230773 0.448141 0.778865
$0b_buff_m249_2_glow.bmp
  46 7.276702 -12.323995 -2.491463 0.861313 -0.145541 0.486782 0.520548 0.802348
  46 7.449972 -12.342265 -2.773143 0.845131 -0.108225 0.523489 0.520548 0.731898
  46 7.448399 -11.909653 -2.655904 0.713540 -0.010802 0.700531 0.448141 0.755382
$0b_buff_m249_2_glow.bmp
  46 7.276702 -12.323995 -2.491463 0.861313 -0.145541 0.486782 0.520548 0.802348
  46 7.194288 -12.928733 -2.491575 0.845131 -0.108225 0.523489 0.653620 0.802348
  46 7.449972 -12.342265 -2.773143 0.845131 -0.108225 0.523489 0.520548 0.731898
$0b_buff_m249_2_glow.bmp
  46 7.276702 -12.323995 -2.491463 0.861313 -0.145541 0.486782 0.520548 0.802348
  46 6.983833 -13.047286 -2.150761 0.649371 -0.173362 0.740448 0.655577 0.843444
  46 7.194288 -12.928733 -2.491575 0.845131 -0.108225 0.523489 0.653620 0.802348
$0b_buff_m249_2_glow.bmp
  46 7.276702 -12.323995 -2.491463 0.861313 -0.145541 0.486782 0.520548 0.802348
  46 7.035784 -12.499597 -2.061669 0.682999 -0.174399 0.709293 0.575342 0.853229
  46 6.983833 -13.047286 -2.150761 0.649371 -0.173362 0.740448 0.655577 0.843444
$0b_buff_m249_2_glow.bmp
  46 6.055638 -12.811858 -2.828940 -0.993505 0.102333 -0.049753 0.653620 0.733855
  46 6.118675 -12.205139 -2.839811 -0.993505 0.102333 -0.049753 0.520548 0.731898
  46 6.082776 -12.815455 -3.378259 -0.993505 0.102333 -0.049753 0.657534 0.637965
$0b_buff_m249_2_glow.bmp
  46 6.082776 -12.815455 -3.378259 -0.993505 0.102333 -0.049753 0.657534 0.637965
  46 6.118675 -12.205139 -2.839811 -0.993505 0.102333 -0.049753 0.520548 0.731898
  46 6.147293 -12.208932 -3.419092 -0.993505 0.102333 -0.049753 0.524462 0.634051
$0b_buff_m249_2_glow.bmp
  46 6.118675 -12.205139 -2.839811 -0.993505 0.102333 -0.049753 0.520548 0.731898
  46 6.169178 -11.778256 -2.970272 -0.993505 0.102333 -0.049753 0.450098 0.702544
  46 6.147293 -12.208932 -3.419092 -0.993505 0.102333 -0.049753 0.524462 0.634051
$0b_buff_m249_2_glow.bmp
  46 6.147293 -12.208932 -3.419092 -0.993505 0.102333 -0.049753 0.524462 0.634051
  46 6.169178 -11.778256 -2.970272 -0.993505 0.102333 -0.049753 0.450098 0.702544
  46 6.185460 -11.780414 -3.299863 -0.993505 0.102333 -0.049753 0.452055 0.653620
$0b_buff_m249_2_glow.bmp
  46 6.712232 -12.536393 -1.907202 -0.091350 -0.456620 0.884960 0.592955 0.908023
  46 6.581213 -12.020151 -1.846968 -0.751846 -0.272079 0.600584 0.502935 0.909980
  46 6.456624 -11.957331 -2.043770 -0.851826 -0.280001 0.442709 0.489237 0.870841
$0b_buff_m249_2_glow.bmp
  46 6.712232 -12.536393 -1.907202 -0.091350 -0.456620 0.884960 0.592955 0.908023
  46 6.760352 -11.957946 -1.678326 -0.084231 -0.367397 0.926242 0.499022 0.958904
  46 6.581213 -12.020151 -1.846968 -0.751846 -0.272079 0.600584 0.502935 0.909980
$0b_buff_m249_2_glow.bmp
  46 6.712232 -12.536393 -1.907202 -0.091350 -0.456620 0.884960 0.592955 0.908023
  46 6.938875 -12.056991 -1.829057 0.617680 -0.413144 0.669166 0.502935 0.909980
  46 6.760352 -11.957946 -1.678326 -0.084231 -0.367397 0.926242 0.499022 0.958904
$0b_buff_m249_2_glow.bmp
  46 6.712232 -12.536393 -1.907202 -0.091350 -0.456620 0.884960 0.592955 0.908023
  46 7.092467 -12.022823 -2.011928 0.729071 -0.442838 0.521871 0.489237 0.870841
  46 6.938875 -12.056991 -1.829057 0.617680 -0.413144 0.669166 0.502935 0.909980
$0b_buff_m249_2_glow.bmp
  46 6.821158 -11.935756 -2.846920 0.232181 0.972667 -0.003197 0.544031 0.230920
  46 6.169178 -11.778256 -2.970272 0.232181 0.972667 -0.003197 0.385519 0.217221
  46 6.196582 -11.780714 -2.718592 0.232181 0.972667 -0.003197 0.395303 0.256360
$0b_buff_m249_2_glow.bmp
  46 6.821158 -11.935756 -2.846920 0.232181 0.972667 -0.003197 0.544031 0.230920
  46 6.185460 -11.780414 -3.299863 0.232181 0.972667 -0.003197 0.385519 0.174168
  46 6.169178 -11.778256 -2.970272 0.232181 0.972667 -0.003197 0.385519 0.217221
$0b_buff_m249_2_glow.bmp
  46 6.821158 -11.935756 -2.846920 0.232181 0.972667 -0.003197 0.544031 0.230920
  46 6.190850 -11.791211 -3.429688 0.232181 0.972667 -0.003197 0.385519 0.154599
  46 6.185460 -11.780414 -3.299863 0.232181 0.972667 -0.003197 0.385519 0.174168
$0b_buff_m249_2_glow.bmp
  46 6.821158 -11.935756 -2.846920 0.232181 0.972667 -0.003197 0.544031 0.230920
  46 6.848296 -11.939352 -3.396238 0.232181 0.972667 -0.003197 0.544031 0.154599
  46 6.190850 -11.791211 -3.429688 0.232181 0.972667 -0.003197 0.385519 0.154599
$0b_buff_m249_2_glow.bmp
  46 6.821158 -11.935756 -2.846920 -0.028076 0.999474 -0.016230 0.545988 0.230920
  46 7.522147 -11.928337 -3.363020 -0.028076 0.999474 -0.016230 0.704501 0.154599
  46 6.848296 -11.939352 -3.396238 -0.028076 0.999474 -0.016230 0.545988 0.154599
$0b_buff_m249_2_glow.bmp
  46 6.821158 -11.935756 -2.846920 -0.028076 0.999474 -0.016230 0.545988 0.230920
  46 7.516758 -11.917539 -3.233195 -0.028076 0.999474 -0.016230 0.704501 0.174168
  46 7.522147 -11.928337 -3.363020 -0.028076 0.999474 -0.016230 0.704501 0.154599
$0b_buff_m249_2_glow.bmp
  46 6.821158 -11.935756 -2.846920 -0.028076 0.999474 -0.016230 0.545988 0.230920
  46 7.500475 -11.915381 -2.903604 -0.028076 0.999474 -0.016230 0.704501 0.217221
  46 7.516758 -11.917539 -3.233195 -0.028076 0.999474 -0.016230 0.704501 0.174168
$0b_buff_m249_2_glow.bmp
  46 6.821158 -11.935756 -2.846920 -0.028076 0.999474 -0.016230 0.545988 0.230920
  46 7.448399 -11.909653 -2.655904 -0.028076 0.999474 -0.016230 0.696673 0.256360
  46 7.500475 -11.915381 -2.903604 -0.028076 0.999474 -0.016230 0.704501 0.217221
$0b_buff_m249_2_glow.bmp
  46 6.118675 -12.205139 -2.839811 -0.897005 0.071216 0.436246 0.520548 0.731898
  46 6.263327 -12.219616 -2.542210 -0.916726 0.037599 0.397743 0.520548 0.802348
  46 6.196582 -11.780714 -2.718592 -0.766513 0.141644 0.626414 0.448141 0.755382
$0b_buff_m249_2_glow.bmp
  46 6.196582 -11.780714 -2.718592 -0.766513 0.141644 0.626414 0.448141 0.755382
  46 6.263327 -12.219616 -2.542210 -0.916726 0.037599 0.397743 0.520548 0.802348
  46 6.253726 -11.786527 -2.665669 -0.955775 0.261653 0.134286 0.448141 0.778865
$0b_buff_m249_2_glow.bmp
  46 6.263327 -12.219616 -2.542210 -0.916726 0.037599 0.397743 0.520548 0.802348
  46 6.194675 -11.780168 -2.478392 -0.903327 0.190227 0.384466 0.448141 0.808219
  46 6.253726 -11.786527 -2.665669 -0.955775 0.261653 0.134286 0.448141 0.778865
$0b_buff_m249_2_glow.bmp
  46 6.343198 -11.384682 -3.424823 0.044213 -0.015144 -0.998907 0.749511 0.334638
  46 6.190850 -11.791211 -3.429688 0.044213 -0.015144 -0.998907 0.763209 0.334638
  46 6.121304 -11.784048 -3.433170 0.044213 -0.015144 -0.998907 0.763209 0.336595
$0b_buff_m249_2_glow.bmp
  46 6.121304 -11.784048 -3.433170 0.044213 -0.015144 -0.998907 0.763209 0.336595
  46 6.190850 -11.791211 -3.429688 0.044213 -0.015144 -0.998907 0.763209 0.334638
  46 6.147293 -12.208932 -3.419092 0.044213 -0.015144 -0.998907 0.776908 0.334638
$0b_buff_m249_2_glow.bmp
  46 6.190850 -11.791211 -3.429688 0.044213 -0.015144 -0.998907 0.763209 0.334638
  46 6.848296 -11.939352 -3.396238 0.044213 -0.015144 -0.998907 0.767123 0.313112
  46 6.147293 -12.208932 -3.419092 0.044213 -0.015144 -0.998907 0.776908 0.334638
$0b_buff_m249_2_glow.bmp
  46 7.414073 -12.952581 -3.311590 0.993505 -0.102331 0.049753 0.657534 0.637965
  46 7.478590 -12.346058 -3.352424 0.993505 -0.102331 0.049753 0.524462 0.634051
  46 7.449972 -12.342265 -2.773143 0.993505 -0.102331 0.049753 0.520548 0.731898
$0b_buff_m249_2_glow.bmp
  46 7.449972 -12.342265 -2.773143 0.993505 -0.102331 0.049753 0.520548 0.731898
  46 7.478590 -12.346058 -3.352424 0.993505 -0.102331 0.049753 0.524462 0.634051
  46 7.500475 -11.915381 -2.903604 0.993505 -0.102331 0.049753 0.450098 0.702544
$0b_buff_m249_2_glow.bmp
  46 7.478590 -12.346058 -3.352424 0.993505 -0.102331 0.049753 0.524462 0.634051
  46 7.516758 -11.917539 -3.233195 0.993505 -0.102331 0.049753 0.452055 0.653620
  46 7.500475 -11.915381 -2.903604 0.993505 -0.102331 0.049753 0.450098 0.702544
$0b_buff_m249_2_glow.bmp
  46 6.848296 -11.939352 -3.396238 0.044213 -0.015144 -0.998907 0.767123 0.313112
  46 7.522147 -11.928337 -3.363020 0.044213 -0.015144 -0.998907 0.763209 0.334638
  46 7.478590 -12.346058 -3.352424 0.044213 -0.015144 -0.998907 0.776908 0.334638
$0b_buff_m249_2_glow.bmp
  46 7.478590 -12.346058 -3.352424 0.044213 -0.015144 -0.998907 0.776908 0.334638
  46 7.522147 -11.928337 -3.363020 0.044213 -0.015144 -0.998907 0.763209 0.334638
  46 7.591692 -11.935500 -3.359537 0.044213 -0.015144 -0.998907 0.763209 0.336595
$0b_buff_m249_2_glow.bmp
  46 7.522147 -11.928337 -3.363020 0.044213 -0.015144 -0.998907 0.763209 0.334638
  46 7.455924 -11.499294 -3.369100 0.044213 -0.015144 -0.998907 0.749511 0.334638
  46 7.591692 -11.935500 -3.359537 0.044213 -0.015144 -0.998907 0.763209 0.336595
$0b_buff_m249_2_glow.bmp
  46 6.220653 -12.828447 -2.540332 -0.102940 -0.994639 0.009793 0.714286 0.350294
  46 6.055638 -12.811858 -2.828940 -0.102940 -0.994639 0.009793 0.702544 0.326810
  46 6.748424 -12.884018 -3.344924 -0.102940 -0.994639 0.009793 0.741683 0.293542
$0b_buff_m249_2_glow.bmp
  46 6.748424 -12.884018 -3.344924 -0.102940 -0.994639 0.009793 0.741683 0.293542
  46 6.055638 -12.811858 -2.828940 -0.102940 -0.994639 0.009793 0.702544 0.326810
  46 6.082776 -12.815455 -3.378259 -0.102940 -0.994639 0.009793 0.702544 0.293542
$0b_buff_m249_2_glow.bmp
  46 6.082776 -12.815455 -3.378259 0.044182 -0.056008 -0.997452 0.804305 0.334638
  46 6.848296 -11.939352 -3.396238 0.044182 -0.056008 -0.997452 0.767123 0.313112
  46 6.748424 -12.884018 -3.344924 0.044182 -0.056008 -0.997452 0.804305 0.313112
$0b_buff_m249_2_glow.bmp
  46 6.748424 -12.884018 -3.344924 0.044182 -0.056008 -0.997452 0.804305 0.313112
  46 6.848296 -11.939352 -3.396238 0.044182 -0.056008 -0.997452 0.767123 0.313112
  46 7.414073 -12.952581 -3.311590 0.044182 -0.056008 -0.997452 0.804305 0.334638
$0b_buff_m249_2_glow.bmp
  46 7.194288 -12.928733 -2.491575 -0.102940 -0.994639 0.009793 0.714286 0.350294
  46 6.748424 -12.884018 -3.344924 -0.102940 -0.994639 0.009793 0.741683 0.293542
  46 7.386935 -12.948984 -2.762272 -0.102940 -0.994639 0.009793 0.702544 0.326810
$0b_buff_m249_2_glow.bmp
  46 7.386935 -12.948984 -2.762272 -0.102940 -0.994639 0.009793 0.702544 0.326810
  46 6.748424 -12.884018 -3.344924 -0.102940 -0.994639 0.009793 0.741683 0.293542
  46 7.414073 -12.952581 -3.311590 -0.102940 -0.994639 0.009793 0.702544 0.293542
$0b_buff_m249_2_glow.bmp
  46 6.147293 -12.208932 -3.419092 -0.878974 -0.050903 0.474145 0.524462 0.634051
  46 6.185460 -11.780414 -3.299863 -0.878974 -0.050903 0.474145 0.452055 0.653620
  46 6.121304 -11.784048 -3.433170 -0.878974 -0.050903 0.474145 0.452055 0.626223
$0b_buff_m249_2_glow.bmp
  46 6.196582 -11.780714 -2.718592 -0.644884 0.408563 0.645911 0.448141 0.755382
  46 6.334982 -11.372923 -2.834574 -0.644884 0.408563 0.645911 0.381605 0.727984
  46 6.083283 -11.769219 -2.844414 -0.644884 0.408563 0.645911 0.450098 0.727984
$0b_buff_m249_2_glow.bmp
  46 6.083283 -11.769219 -2.844414 -0.697318 0.462587 -0.547504 0.450098 0.727984
  46 6.334982 -11.372923 -2.834574 -0.697318 0.462587 -0.547504 0.381605 0.727984
  46 6.169178 -11.778256 -2.970272 -0.697318 0.462587 -0.547504 0.450098 0.702544
$0b_buff_m249_2_glow.bmp
  46 6.196582 -11.780714 -2.718592 -0.741004 -0.030151 0.670823 0.448141 0.755382
  46 6.083283 -11.769219 -2.844414 -0.741004 -0.030151 0.670823 0.450098 0.727984
  46 6.118675 -12.205139 -2.839811 -0.741004 -0.030151 0.670823 0.520548 0.731898
$0b_buff_m249_2_glow.bmp
  46 6.083283 -11.769219 -2.844414 -0.808874 -0.079689 -0.582557 0.450098 0.727984
  46 6.169178 -11.778256 -2.970272 -0.808874 -0.079689 -0.582557 0.450098 0.702544
  46 6.118675 -12.205139 -2.839811 -0.808874 -0.079689 -0.582557 0.520548 0.731898
$0b_buff_m249_2_glow.bmp
  46 6.761216 -12.119392 -2.027661 0.101536 0.898922 -0.426181 0.544031 0.442270
  46 6.581213 -12.020151 -1.846968 0.101536 0.898922 -0.426181 0.504892 0.512720
  46 6.760352 -11.957946 -1.678326 0.101536 0.898922 -0.426181 0.544031 0.583170
$0b_buff_m249_2_glow.bmp
  46 6.761216 -12.119392 -2.027661 0.467945 0.883523 -0.020346 0.544031 0.442270
  46 6.456624 -11.957331 -2.043770 0.467945 0.883523 -0.020346 0.467710 0.438356
  46 6.581213 -12.020151 -1.846968 0.467945 0.883523 -0.020346 0.504892 0.512720
$0b_buff_m249_2_glow.bmp
  46 6.343198 -11.384682 -3.424823 -0.782776 0.435528 0.444497 0.383562 0.632094
  46 6.121304 -11.784048 -3.433170 -0.782776 0.435528 0.444497 0.452055 0.626223
  46 6.185460 -11.780414 -3.299863 -0.782776 0.435528 0.444497 0.452055 0.653620
$0b_buff_m249_2_glow.bmp
  46 6.253726 -11.786527 -2.665669 0.872081 -0.333271 -0.358337 0.407045 0.277886
  46 6.477660 -11.387138 -2.497022 0.872081 -0.333271 -0.358337 0.383562 0.309198
  46 6.360611 -11.797172 -2.410009 0.872081 -0.333271 -0.358337 0.432485 0.303327
$0b_buff_m249_2_glow.bmp
  46 6.169178 -11.778256 -2.970272 0.930083 -0.349058 -0.114475 0.385519 0.217221
  46 6.334982 -11.372923 -2.834574 0.930083 -0.349058 -0.114475 0.379648 0.246575
  46 6.196582 -11.780714 -2.718592 0.930083 -0.349058 -0.114475 0.395303 0.256360
$0b_buff_m249_2_glow.bmp
  46 6.190850 -11.791211 -3.429688 0.937143 -0.345254 0.050628 0.385519 0.154599
  46 6.343198 -11.384682 -3.424823 0.937143 -0.345254 0.050628 0.363992 0.154599
  46 6.185460 -11.780414 -3.299863 0.937143 -0.345254 0.050628 0.385519 0.174168
$0b_buff_m249_2_glow.bmp
  46 6.761216 -12.119392 -2.027661 0.438094 0.857869 0.268580 0.544031 0.442270
  46 6.360611 -11.797172 -2.410009 0.438094 0.857869 0.268580 0.432485 0.303327
  46 6.456624 -11.957331 -2.043770 0.438094 0.857869 0.268580 0.467710 0.438356
$0b_buff_m249_2_glow.bmp
  46 6.360611 -11.797172 -2.410009 0.232067 0.848139 0.476241 0.432485 0.303327
  46 6.761216 -12.119392 -2.027661 0.232067 0.848139 0.476241 0.544031 0.442270
  46 6.798460 -11.932748 -2.387490 0.232067 0.848139 0.476241 0.544031 0.299413
$0b_buff_m249_2_glow.bmp
  46 6.821158 -11.935756 -2.846920 0.214300 0.968025 -0.130397 0.544031 0.230920
  46 6.196582 -11.780714 -2.718592 0.214300 0.968025 -0.130397 0.395303 0.256360
  46 6.253726 -11.786527 -2.665669 0.214300 0.968025 -0.130397 0.407045 0.277886
$0b_buff_m249_2_glow.bmp
  46 6.821158 -11.935756 -2.846920 0.232181 0.972667 -0.003197 0.544031 0.230920
  46 6.253726 -11.786527 -2.665669 0.232181 0.972667 -0.003197 0.407045 0.277886
  46 6.798460 -11.932748 -2.387490 0.232181 0.972667 -0.003197 0.544031 0.299413
$0b_buff_m249_2_glow.bmp
  46 6.748424 -12.884018 -3.344924 -0.421222 -0.882773 -0.208050 0.741683 0.293542
  46 6.367860 -12.983840 -2.181608 -0.421222 -0.882773 -0.208050 0.724070 0.360078
  46 6.220653 -12.828447 -2.540332 -0.421222 -0.882773 -0.208050 0.714286 0.350294
$0b_buff_m249_2_glow.bmp
  46 6.367860 -12.983840 -2.181608 -0.045474 -0.994514 -0.094204 0.724070 0.360078
  46 6.748424 -12.884018 -3.344924 -0.045474 -0.994514 -0.094204 0.741683 0.293542
  46 6.669470 -13.004635 -2.016385 -0.045474 -0.994514 -0.094204 0.741683 0.365949
$0b_buff_m249_2_glow.bmp
  46 6.848296 -11.939352 -3.396238 0.074316 -0.082203 -0.993841 0.767123 0.313112
  46 6.082776 -12.815455 -3.378259 0.074316 -0.082203 -0.993841 0.804305 0.334638
  46 6.147293 -12.208932 -3.419092 0.074316 -0.082203 -0.993841 0.776908 0.334638
$0b_buff_m249_2_glow.bmp
  46 7.414073 -12.952581 -3.311590 0.993505 -0.102331 0.049753 0.657534 0.637965
  46 7.449972 -12.342265 -2.773143 0.993505 -0.102331 0.049753 0.520548 0.731898
  46 7.386935 -12.948984 -2.762272 0.993505 -0.102331 0.049753 0.653620 0.733855
$0b_buff_m249_2_glow.bmp
  46 7.035784 -12.499597 -2.061669 0.682999 -0.174399 0.709293 0.575342 0.853229
  46 6.669470 -13.004635 -2.016385 -0.066984 -0.172555 0.982720 0.661448 0.894325
  46 6.983833 -13.047286 -2.150761 0.649371 -0.173362 0.740448 0.655577 0.843444
$0b_buff_m249_2_glow.bmp
  46 7.449972 -12.342265 -2.773143 0.845131 -0.108225 0.523489 0.520548 0.731898
  46 7.194288 -12.928733 -2.491575 0.845131 -0.108225 0.523489 0.653620 0.802348
  46 7.386935 -12.948984 -2.762272 0.811082 -0.078235 0.579676 0.653620 0.733855
$0b_buff_m249_2_glow.bmp
  46 7.591692 -11.935500 -3.359537 0.798988 -0.223735 0.558176 0.452055 0.626223
  46 7.516758 -11.917539 -3.233195 0.798988 -0.223735 0.558176 0.452055 0.653620
  46 7.478590 -12.346058 -3.352424 0.798988 -0.223735 0.558176 0.524462 0.634051
$0b_buff_m249_2_glow.bmp
  46 7.573541 -11.922718 -2.769785 0.647405 0.275456 0.710627 0.450098 0.727984
  46 7.407968 -11.483442 -2.780841 0.647405 0.275456 0.710627 0.381605 0.727984
  46 7.448399 -11.909653 -2.655904 0.647405 0.275456 0.710627 0.448141 0.755382
$0b_buff_m249_2_glow.bmp
  46 7.500475 -11.915381 -2.903604 0.827449 0.305536 -0.471143 0.450098 0.702544
  46 7.407968 -11.483442 -2.780841 0.827449 0.305536 -0.471143 0.381605 0.727984
  46 7.573541 -11.922718 -2.769785 0.827449 0.305536 -0.471143 0.450098 0.727984
$0b_buff_m249_2_glow.bmp
  46 7.449972 -12.342265 -2.773143 0.649371 -0.173362 0.740448 0.520548 0.731898
  46 7.573541 -11.922718 -2.769785 0.649371 -0.173362 0.740448 0.450098 0.727984
  46 7.448399 -11.909653 -2.655904 0.649371 -0.173362 0.740448 0.448141 0.755382
$0b_buff_m249_2_glow.bmp
  46 7.449972 -12.342265 -2.773143 0.829320 -0.248425 -0.500514 0.520548 0.731898
  46 7.500475 -11.915381 -2.903604 0.829320 -0.248425 -0.500514 0.450098 0.702544
  46 7.573541 -11.922718 -2.769785 0.829320 -0.248425 -0.500514 0.450098 0.727984
$0b_buff_m249_2_glow.bmp
  46 6.760352 -11.957946 -1.678326 0.101536 0.898922 -0.426181 0.545988 0.583170
  46 6.938875 -12.056991 -1.829057 0.101536 0.898922 -0.426181 0.585127 0.512720
  46 6.761216 -12.119392 -2.027661 0.101536 0.898922 -0.426181 0.545988 0.442270
$0b_buff_m249_2_glow.bmp
  46 6.938875 -12.056991 -1.829057 -0.274166 0.959962 -0.057501 0.585127 0.512720
  46 7.092467 -12.022823 -2.011928 -0.274166 0.959962 -0.057501 0.622309 0.438356
  46 6.761216 -12.119392 -2.027661 -0.274166 0.959962 -0.057501 0.545988 0.442270
$0b_buff_m249_2_glow.bmp
  46 7.516758 -11.917539 -3.233195 0.807121 0.271766 0.524117 0.452055 0.653620
  46 7.591692 -11.935500 -3.359537 0.807121 0.271766 0.524117 0.452055 0.626223
  46 7.455924 -11.499294 -3.369100 0.807121 0.271766 0.524117 0.383562 0.632094
$0b_buff_m249_2_glow.bmp
  46 7.254765 -11.889272 -2.365231 -0.881841 -0.152616 -0.446167 0.115460 0.174168
  46 7.232724 -11.464911 -2.459211 -0.881841 -0.152616 -0.446167 0.062622 0.180039
  46 7.386322 -11.903186 -2.608951 -0.881841 -0.152616 -0.446167 0.090020 0.146771
$0b_buff_m249_2_glow.bmp
  46 7.448399 -11.909653 -2.655904 -0.965658 -0.153794 -0.209408 0.076321 0.125245
  46 7.407968 -11.483442 -2.780841 -0.965658 -0.153794 -0.209408 0.033268 0.113503
  46 7.500475 -11.915381 -2.903604 -0.965658 -0.153794 -0.209408 0.066536 0.082192
$0b_buff_m249_2_glow.bmp
  46 7.516758 -11.917539 -3.233195 -0.988083 -0.146953 -0.045781 0.066536 0.037182
  46 7.455924 -11.499294 -3.369100 -0.988083 -0.146953 -0.045781 0.017613 0.015656
  46 7.522147 -11.928337 -3.363020 -0.988083 -0.146953 -0.045781 0.066536 0.015656
$0b_buff_m249_2_glow.bmp
  46 6.761216 -12.119392 -2.027661 -0.100683 0.882412 0.459578 0.545988 0.442270
  46 7.254765 -11.889272 -2.365231 -0.100683 0.882412 0.459578 0.657534 0.303327
  46 6.798460 -11.932748 -2.387490 -0.100683 0.882412 0.459578 0.545988 0.299413
$0b_buff_m249_2_glow.bmp
  46 7.254765 -11.889272 -2.365231 -0.278867 0.931716 0.232676 0.657534 0.303327
  46 6.761216 -12.119392 -2.027661 -0.278867 0.931716 0.232676 0.545988 0.442270
  46 7.092467 -12.022823 -2.011928 -0.278867 0.931716 0.232676 0.622309 0.438356
$0b_buff_m249_2_glow.bmp
  46 7.386322 -11.903186 -2.608951 0.000970 0.989999 -0.141074 0.682975 0.277886
  46 7.448399 -11.909653 -2.655904 0.000970 0.989999 -0.141074 0.696673 0.256360
  46 6.821158 -11.935756 -2.846920 0.000970 0.989999 -0.141074 0.545988 0.230920
$0b_buff_m249_2_glow.bmp
  46 7.254765 -11.889272 -2.365231 -0.083683 0.990837 -0.106013 0.657534 0.303327
  46 7.386322 -11.903186 -2.608951 -0.083683 0.990837 -0.106013 0.682975 0.277886
  46 6.798460 -11.932748 -2.387490 -0.083683 0.990837 -0.106013 0.545988 0.299413
$0b_buff_m249_2_glow.bmp
  46 6.748424 -12.884018 -3.344924 -0.148613 -0.983890 -0.099369 0.741683 0.293542
  46 6.983833 -13.047286 -2.150761 -0.148613 -0.983890 -0.099369 0.724070 0.360078
  46 6.669470 -13.004635 -2.016385 -0.148613 -0.983890 -0.099369 0.741683 0.365949
$0b_buff_m249_2_glow.bmp
  46 6.983833 -13.047286 -2.150761 0.251388 -0.952050 -0.174369 0.724070 0.360078
  46 6.748424 -12.884018 -3.344924 0.251388 -0.952050 -0.174369 0.741683 0.293542
  46 7.194288 -12.928733 -2.491575 0.251388 -0.952050 -0.174369 0.714286 0.350294
$0b_buff_m249_2_glow.bmp
  46 7.414073 -12.952581 -3.311590 0.009141 -0.075490 -0.997105 0.804305 0.334638
  46 6.848296 -11.939352 -3.396238 0.009141 -0.075490 -0.997105 0.767123 0.313112
  46 7.478590 -12.346058 -3.352424 0.009141 -0.075490 -0.997105 0.776908 0.334638
$0b_buff_m249_2_glow.bmp
  46 6.798460 -11.932748 -2.387490 -0.028076 0.999474 -0.016230 0.545988 0.299413
  46 7.386322 -11.903186 -2.608951 -0.028076 0.999474 -0.016230 0.682975 0.277886
  46 6.821158 -11.935756 -2.846920 -0.028076 0.999474 -0.016230 0.545988 0.230920
$0b_buff_m249_2_glow.bmp
  46 6.798460 -11.932748 -2.387490 0.293469 0.951990 -0.087130 0.544031 0.299413
  46 6.253726 -11.786527 -2.665669 0.293469 0.951990 -0.087130 0.407045 0.277886
  46 6.360611 -11.797172 -2.410009 0.293469 0.951990 -0.087130 0.432485 0.303327
end
