version 1
nodes
  0 "Bone01" -1
  1 "Bone_Lefthand" 0
  2 "NEXON_CSO_infi_Root_L" 1
  3 "NEXON_CSO_infi_Dummy_L" 2
  4 "NEXON_CSO_infi_Slide_L" 3
  5 "NEXON_CSO_infi_Nori_L" 3
  6 "NEXON_CSO_infi_Triigger_L" 3
  7 "NEXON_CSO_infi_Magazine_L" 3
  8 "NEXON_CSO_infi_Bullet_L" 7
  9 "Bone05" 1
  10 "Bone06" 9
  11 "Bone07" 10
  12 "Bone21" 1
  13 "Bone22" 12
  14 "Bone23" 13
  15 "Bone17" 1
  16 "Bone18" 15
  17 "Bone19" 16
  18 "Bone13" 1
  19 "Bone14" 18
  20 "Bone15" 19
  21 "Bone09" 1
  22 "Bone10" 21
  23 "Bone11" 22
  24 "Bone_Se_Hand-L" 1
  25 "Bone_L_Upper" 0
  26 "Bone04" -1
  27 "Bone_Righthand" 26
  28 "Bone27" 27
  29 "Bone28" 28
  30 "Bone29" 29
  31 "Bone31" 27
  32 "Bone32" 31
  33 "Bone33" 32
  34 "Bone35" 27
  35 "Bone36" 34
  36 "Bone37" 35
  37 "Bone39" 27
  38 "Bone40" 37
  39 "Bone41" 38
  40 "Bone43" 27
  41 "Bone44" 40
  42 "Bone45" 41
  43 "Bone_Se_Hand-R" 27
  44 "Bone_R_Upper" 26
end
skeleton
  time 0
    0 7.199624 -11.060157 -14.576100 1.558627 3.090642 -1.436822
    1 -0.071919 -8.498734 -0.104136 -0.098394 0.346295 -0.110181
    2 0.270743 -2.981032 0.317115 0.554697 1.379928 0.480550
    3 -0.000001 -1.808652 1.012938 0.000000 0.000000 0.000000
    4 -0.115836 -1.983283 1.652800 0.000000 0.000000 0.000000
    5 0.000000 2.290612 1.335354 0.000000 0.000000 0.000000
    6 0.000000 0.706664 0.002903 0.000000 0.000000 0.000000
    7 -0.194965 1.732989 -0.758107 0.000000 0.000000 0.000000
    8 -0.000001 -0.273071 1.043217 0.000000 0.000000 0.000000
    9 0.583509 -1.197273 0.185379 -0.077883 -0.765982 -0.796225
    10 1.535925 0.010247 0.005009 -0.076524 0.315739 -1.052216
    11 1.100770 0.004527 -0.010675 -0.000003 0.000010 -0.670681
    12 0.957766 -2.746777 -0.090301 0.182281 -0.052115 0.117110
    13 -0.033419 -1.397129 -0.011256 -0.842493 -0.018348 -0.065736
    14 -0.022362 -0.957434 0.018782 -0.642334 0.000000 0.000000
    15 0.250028 -2.820664 -0.238397 -0.282644 0.057278 -0.106682
    16 -0.049759 -1.680546 0.100479 -2.012741 0.000000 -0.000002
    17 -0.034141 -1.148309 0.084778 -1.037448 0.000000 0.000000
    18 -0.488517 -2.755600 -0.228262 -0.195772 0.054591 -0.144142
    19 0.039889 -1.479791 0.029853 -2.042721 0.000000 0.000001
    20 0.028786 -1.075733 -0.023111 -0.841807 0.000000 0.000000
    21 -1.180679 -2.507216 -0.193861 0.008684 0.244081 -0.056771
    22 -0.024966 -1.123935 0.017594 -1.466568 0.000000 0.000001
    23 -0.020058 -0.890966 0.010091 -1.308722 0.000000 0.000000
    24 0.120152 -0.050267 -0.054488 0.287569 3.110905 1.561085
    25 1.304080 8.804363 -0.126173 1.605129 -1.493046 -0.161010
    26 -0.247877 -8.362308 -12.715063 -1.693349 -5.617762 -0.695331
    27 0.096946 -8.450419 -0.009364 -0.072864 -0.252287 0.115562
    28 -0.587378 -1.261647 0.201457 0.148885 -0.611555 -2.914189
    29 1.522835 0.058680 0.016851 -0.003592 0.086262 0.637044
    30 1.117948 0.048425 -0.005765 -0.000027 0.000018 1.019814
    31 -0.963867 -2.785143 -0.085346 0.230931 0.199968 -0.171434
    32 0.028478 -1.403069 0.006271 -1.008232 0.000000 0.000000
    33 0.021414 -0.957782 0.020047 -0.332300 0.000000 0.000000
    34 -0.249534 -2.846964 -0.174215 -0.001189 0.000966 -0.025450
    35 0.043234 -1.683941 0.096014 -2.021618 -0.002966 -0.000335
    36 0.031729 -1.160830 0.058836 -1.017627 0.000007 0.000007
    37 0.447951 -2.798983 -0.200442 -0.016203 0.053277 0.116304
    38 -0.032910 -1.480207 0.004936 -1.783733 0.000000 0.000002
    39 -0.027022 -1.076920 -0.020212 -0.898894 0.000000 0.000000
    40 1.164474 -2.543939 -0.170327 -0.365253 -0.001010 -0.002103
    41 0.024033 -1.129040 0.017806 -1.210698 -0.100239 0.187008
    42 0.014896 -0.883991 -0.019845 -0.909602 0.074161 0.017318
    43 -0.139399 -0.111701 0.014397 0.285534 -0.040597 1.576226
    44 -1.441116 8.792395 -0.163593 -1.643144 1.483711 0.062639
  time 1
    0 7.199624 -11.060157 -14.576100 1.558627 3.090642 -1.436822
    1 -0.071919 -8.498734 -0.104136 -0.097987 0.346254 -0.109627
    2 0.270743 -2.981032 0.317115 0.554697 1.379928 0.480550
    3 -0.000001 -1.808652 1.012938 0.000000 0.000000 0.000000
    4 -0.115836 -1.983283 1.652800 0.000000 0.000000 0.000000
    5 0.000000 2.290612 1.335354 0.000000 0.000000 0.000000
    6 0.000000 0.706664 0.002903 0.000000 0.000000 0.000000
    7 -0.194965 1.732989 -0.758107 0.000000 0.000000 0.000000
    8 -0.000001 -0.273071 1.043217 0.000000 0.000000 0.000000
    9 0.583509 -1.197273 0.185379 -0.077883 -0.765982 -0.796225
    10 1.535925 0.010247 0.005009 -0.076524 0.315739 -1.052216
    11 1.100770 0.004527 -0.010675 -0.000003 0.000010 -0.670681
    12 0.957766 -2.746777 -0.090301 0.182609 -0.052115 0.117110
    13 -0.033419 -1.397129 -0.011256 -0.840504 -0.018348 -0.065736
    14 -0.022362 -0.957434 0.018782 -0.644086 0.000000 0.000000
    15 0.250028 -2.820664 -0.238397 -0.282644 0.057278 -0.106682
    16 -0.049759 -1.680546 0.100479 -2.012741 0.000000 -0.000002
    17 -0.034141 -1.148309 0.084778 -1.037448 0.000000 0.000000
    18 -0.488517 -2.755600 -0.228262 -0.195772 0.054591 -0.144142
    19 0.039889 -1.479791 0.029853 -2.042721 0.000000 0.000001
    20 0.028786 -1.075733 -0.023111 -0.841807 0.000000 0.000000
    21 -1.180679 -2.507216 -0.193861 0.008684 0.244081 -0.056771
    22 -0.024966 -1.123935 0.017594 -1.466568 0.000000 0.000001
    23 -0.020058 -0.890966 0.010091 -1.308722 0.000000 0.000000
    24 0.120152 -0.050267 -0.054488 0.287569 3.110905 1.561085
    25 1.304080 8.804363 -0.126173 1.605129 -1.493046 -0.161010
    26 -0.247877 -8.366214 -12.715063 -1.693349 -5.617762 -0.695331
    27 0.096946 -8.450419 -0.009364 -0.073318 -0.251928 0.115676
    28 -0.587378 -1.261647 0.201457 0.148885 -0.611555 -2.914189
    29 1.522835 0.058680 0.016851 -0.003592 0.086262 0.637044
    30 1.117948 0.048425 -0.005765 -0.000027 0.000018 1.019814
    31 -0.963867 -2.785143 -0.085346 0.230931 0.199968 -0.171434
    32 0.028478 -1.403069 0.006271 -1.008232 0.000000 0.000000
    33 0.021414 -0.957782 0.020047 -0.332300 0.000000 0.000000
    34 -0.249534 -2.846964 -0.174215 -0.001189 0.000966 -0.025450
    35 0.043234 -1.683941 0.096014 -2.021618 -0.002966 -0.000335
    36 0.031729 -1.160830 0.058836 -1.017627 0.000007 0.000007
    37 0.447951 -2.798983 -0.200442 -0.016203 0.053277 0.116304
    38 -0.032910 -1.480207 0.004936 -1.783733 0.000000 0.000002
    39 -0.027022 -1.076920 -0.020212 -0.898894 0.000000 0.000000
    40 1.164474 -2.543939 -0.170327 -0.365253 -0.001010 -0.002103
    41 0.024033 -1.129040 0.017806 -1.210698 -0.100239 0.187008
    42 0.014896 -0.883991 -0.019845 -0.909602 0.074161 0.017318
    43 -0.139399 -0.111701 0.014397 0.285534 -0.040597 1.576226
    44 -1.441116 8.792395 -0.163593 -1.643144 1.483711 0.062639
  time 2
    0 7.199624 -11.067970 -14.580007 1.558627 3.090642 -1.436822
    1 -0.071919 -8.498734 -0.104136 -0.096930 0.346131 -0.108183
    2 0.270743 -2.981032 0.317115 0.554697 1.379928 0.480550
    3 -0.000001 -1.808652 1.012938 0.000000 0.000000 0.000000
    4 -0.115836 -1.983283 1.652800 0.000000 0.000000 0.000000
    5 0.000000 2.290612 1.335354 0.000000 0.000000 0.000000
    6 0.000000 0.706664 0.002903 0.000000 0.000000 0.000000
    7 -0.194965 1.732989 -0.758107 0.000000 0.000000 0.000000
    8 -0.000001 -0.273071 1.043217 0.000000 0.000000 0.000000
    9 0.583509 -1.197273 0.185379 -0.077883 -0.765982 -0.796225
    10 1.535925 0.010247 0.005009 -0.076524 0.315739 -1.052216
    11 1.100770 0.004527 -0.010675 -0.000003 0.000010 -0.670681
    12 0.957766 -2.746777 -0.090301 0.182998 -0.052115 0.117110
    13 -0.033419 -1.397129 -0.011256 -0.838189 -0.018348 -0.065736
    14 -0.022362 -0.957434 0.018782 -0.646092 0.000000 0.000000
    15 0.250028 -2.820664 -0.238397 -0.282644 0.057278 -0.106682
    16 -0.049759 -1.680546 0.100479 -2.012741 0.000000 -0.000002
    17 -0.034141 -1.148309 0.084778 -1.037448 0.000000 0.000000
    18 -0.488517 -2.755600 -0.228262 -0.195772 0.054591 -0.144142
    19 0.039889 -1.479791 0.029853 -2.042721 0.000000 0.000001
    20 0.028786 -1.075733 -0.023111 -0.841807 0.000000 0.000000
    21 -1.180679 -2.507216 -0.193861 0.008684 0.244081 -0.056771
    22 -0.024966 -1.123935 0.017594 -1.466568 0.000000 0.000001
    23 -0.020058 -0.890966 0.010091 -1.308722 0.000000 0.000000
    24 0.120152 -0.050267 -0.054488 0.287569 3.110905 1.561085
    25 1.304080 8.804363 -0.126173 1.605129 -1.493046 -0.161010
    26 -0.247877 -8.374027 -12.718969 -1.693349 -5.617762 -0.695331
    27 0.096946 -8.450419 -0.009364 -0.074495 -0.251011 0.115905
    28 -0.587378 -1.261647 0.201457 0.148885 -0.611555 -2.914189
    29 1.522835 0.058680 0.016851 -0.003592 0.086262 0.637044
    30 1.117948 0.048425 -0.005765 -0.000027 0.000018 1.019814
    31 -0.963867 -2.785143 -0.085346 0.230931 0.199968 -0.171434
    32 0.028478 -1.403069 0.006271 -1.008232 0.000000 0.000000
    33 0.021414 -0.957782 0.020047 -0.332300 0.000000 0.000000
    34 -0.249534 -2.846964 -0.174215 -0.001189 0.000966 -0.025450
    35 0.043234 -1.683941 0.096014 -2.021618 -0.002966 -0.000335
    36 0.031729 -1.160830 0.058836 -1.017627 0.000007 0.000007
    37 0.447951 -2.798983 -0.200442 -0.016203 0.053277 0.116304
    38 -0.032910 -1.480207 0.004936 -1.783733 0.000000 0.000002
    39 -0.027022 -1.076920 -0.020212 -0.898894 0.000000 0.000000
    40 1.164474 -2.543939 -0.170327 -0.365253 -0.001010 -0.002103
    41 0.024033 -1.129040 0.017806 -1.210698 -0.100239 0.187008
    42 0.014896 -0.883991 -0.019845 -0.909602 0.074161 0.017318
    43 -0.139399 -0.111701 0.014397 0.285534 -0.040597 1.576226
    44 -1.441116 8.792395 -0.163593 -1.643144 1.483711 0.062639
  time 3
    0 7.199624 -11.079689 -14.580007 1.558627 3.090642 -1.436822
    1 -0.071919 -8.498734 -0.104136 -0.095493 0.345968 -0.106224
    2 0.270743 -2.981032 0.317115 0.554697 1.379928 0.480550
    3 -0.000001 -1.808652 1.012938 0.000000 0.000000 0.000000
    4 -0.115836 -1.983283 1.652800 0.000000 0.000000 0.000000
    5 0.000000 2.290612 1.335354 0.000000 0.000000 0.000000
    6 0.000000 0.706664 0.002903 0.000000 0.000000 0.000000
    7 -0.194965 1.732989 -0.758107 0.000000 0.000000 0.000000
    8 -0.000001 -0.273071 1.043217 0.000000 0.000000 0.000000
    9 0.583509 -1.197273 0.185379 -0.077883 -0.765982 -0.796225
    10 1.535925 0.010247 0.005009 -0.076524 0.315739 -1.052216
    11 1.100770 0.004527 -0.010675 -0.000003 0.000010 -0.670681
    12 0.957766 -2.746777 -0.090301 0.183388 -0.052115 0.117110
    13 -0.033419 -1.397129 -0.011256 -0.835794 -0.018348 -0.065736
    14 -0.022362 -0.957434 0.018782 -0.648162 0.000000 0.000000
    15 0.250028 -2.820664 -0.238397 -0.282644 0.057278 -0.106682
    16 -0.049759 -1.680546 0.100479 -2.012741 0.000000 -0.000002
    17 -0.034141 -1.148309 0.084778 -1.037448 0.000000 0.000000
    18 -0.488517 -2.755600 -0.228262 -0.195772 0.054591 -0.144142
    19 0.039889 -1.479791 0.029853 -2.042721 0.000000 0.000001
    20 0.028786 -1.075733 -0.023111 -0.841807 0.000000 0.000000
    21 -1.180679 -2.507216 -0.193861 0.008684 0.244081 -0.056771
    22 -0.024966 -1.123935 0.017594 -1.466568 0.000000 0.000001
    23 -0.020058 -0.890966 0.010091 -1.308722 0.000000 0.000000
    24 0.120152 -0.050267 -0.054488 0.287569 3.110905 1.561085
    25 1.304080 8.804363 -0.126173 1.605129 -1.493046 -0.161010
    26 -0.247877 -8.381840 -12.722876 -1.693349 -5.617762 -0.695331
    27 0.096946 -8.450419 -0.009364 -0.076126 -0.249755 0.116247
    28 -0.587378 -1.261647 0.201457 0.148885 -0.611555 -2.914189
    29 1.522835 0.058680 0.016851 -0.003592 0.086262 0.637044
    30 1.117948 0.048425 -0.005765 -0.000027 0.000018 1.019814
    31 -0.963867 -2.785143 -0.085346 0.230931 0.199968 -0.171434
    32 0.028478 -1.403069 0.006271 -1.008232 0.000000 0.000000
    33 0.021414 -0.957782 0.020047 -0.332300 0.000000 0.000000
    34 -0.249534 -2.846964 -0.174215 -0.001189 0.000966 -0.025450
    35 0.043234 -1.683941 0.096014 -2.021618 -0.002966 -0.000335
    36 0.031729 -1.160830 0.058836 -1.017627 0.000007 0.000007
    37 0.447951 -2.798983 -0.200442 -0.016203 0.053277 0.116304
    38 -0.032910 -1.480207 0.004936 -1.783733 0.000000 0.000002
    39 -0.027022 -1.076920 -0.020212 -0.898894 0.000000 0.000000
    40 1.164474 -2.543939 -0.170327 -0.365253 -0.001010 -0.002103
    41 0.024033 -1.129040 0.017806 -1.210698 -0.100239 0.187008
    42 0.014896 -0.883991 -0.019845 -0.909602 0.074161 0.017318
    43 -0.139399 -0.111701 0.014397 0.285534 -0.040597 1.576226
    44 -1.441116 8.792395 -0.163593 -1.643144 1.483711 0.062639
  time 4
    0 7.199624 -11.087501 -14.583913 1.558627 3.090642 -1.436822
    1 -0.071919 -8.498734 -0.104136 -0.093934 0.345805 -0.104088
    2 0.270743 -2.981032 0.317115 0.554697 1.379928 0.480550
    3 -0.000001 -1.808652 1.012938 0.000000 0.000000 0.000000
    4 -0.115836 -1.983283 1.652800 0.000000 0.000000 0.000000
    5 0.000000 2.290612 1.335354 0.000000 0.000000 0.000000
    6 0.000000 0.706664 0.002903 0.000000 0.000000 0.000000
    7 -0.194965 1.732989 -0.758107 0.000000 0.000000 0.000000
    8 -0.000001 -0.273071 1.043217 0.000000 0.000000 0.000000
    9 0.583509 -1.197273 0.185379 -0.077883 -0.765982 -0.796225
    10 1.535925 0.010247 0.005009 -0.076524 0.315739 -1.052216
    11 1.100770 0.004527 -0.010675 -0.000003 0.000010 -0.670681
    12 0.957766 -2.746777 -0.090301 0.183763 -0.052115 0.117110
    13 -0.033419 -1.397129 -0.011256 -0.833560 -0.018348 -0.065736
    14 -0.022362 -0.957434 0.018782 -0.650105 0.000000 0.000000
    15 0.250028 -2.820664 -0.238397 -0.282644 0.057278 -0.106682
    16 -0.049759 -1.680546 0.100479 -2.012741 0.000000 -0.000002
    17 -0.034141 -1.148309 0.084778 -1.037448 0.000000 0.000000
    18 -0.488517 -2.755600 -0.228262 -0.195772 0.054591 -0.144142
    19 0.039889 -1.479791 0.029853 -2.042721 0.000000 0.000001
    20 0.028786 -1.075733 -0.023111 -0.841807 0.000000 0.000000
    21 -1.180679 -2.507216 -0.193861 0.008684 0.244081 -0.056771
    22 -0.024966 -1.123935 0.017594 -1.466568 0.000000 0.000001
    23 -0.020058 -0.890966 0.010091 -1.308722 0.000000 0.000000
    24 0.120152 -0.050267 -0.054488 0.287569 3.110905 1.561085
    25 1.304080 8.804363 -0.126173 1.605129 -1.493046 -0.161010
    26 -0.247877 -8.393559 -12.722876 -1.693349 -5.617762 -0.695331
    27 0.096946 -8.450419 -0.009364 -0.077865 -0.248379 0.116618
    28 -0.587378 -1.261647 0.201457 0.148885 -0.611555 -2.914189
    29 1.522835 0.058680 0.016851 -0.003592 0.086262 0.637044
    30 1.117948 0.048425 -0.005765 -0.000027 0.000018 1.019814
    31 -0.963867 -2.785143 -0.085346 0.230931 0.199968 -0.171434
    32 0.028478 -1.403069 0.006271 -1.008232 0.000000 0.000000
    33 0.021414 -0.957782 0.020047 -0.332300 0.000000 0.000000
    34 -0.249534 -2.846964 -0.174215 -0.001189 0.000966 -0.025450
    35 0.043234 -1.683941 0.096014 -2.021618 -0.002966 -0.000335
    36 0.031729 -1.160830 0.058836 -1.017627 0.000007 0.000007
    37 0.447951 -2.798983 -0.200442 -0.016203 0.053277 0.116304
    38 -0.032910 -1.480207 0.004936 -1.783733 0.000000 0.000002
    39 -0.027022 -1.076920 -0.020212 -0.898894 0.000000 0.000000
    40 1.164474 -2.543939 -0.170327 -0.365253 -0.001010 -0.002103
    41 0.024033 -1.129040 0.017806 -1.210698 -0.100239 0.187008
    42 0.014896 -0.883991 -0.019845 -0.909602 0.074161 0.017318
    43 -0.139399 -0.111701 0.014397 0.285534 -0.040597 1.576226
    44 -1.441116 8.792395 -0.163593 -1.643144 1.483711 0.062639
  time 5
    0 7.199624 -11.099221 -14.587820 1.558627 3.090642 -1.436822
    1 -0.071919 -8.498734 -0.104136 -0.092497 0.345642 -0.102110
    2 0.270743 -2.981032 0.317115 0.554697 1.379928 0.480550
    3 -0.000001 -1.808652 1.012938 0.000000 0.000000 0.000000
    4 -0.115836 -1.983283 1.652800 0.000000 0.000000 0.000000
    5 0.000000 2.290612 1.335354 0.000000 0.000000 0.000000
    6 0.000000 0.706664 0.002903 0.000000 0.000000 0.000000
    7 -0.194965 1.732989 -0.758107 0.000000 0.000000 0.000000
    8 -0.000001 -0.273071 1.043217 0.000000 0.000000 0.000000
    9 0.583509 -1.197273 0.185379 -0.077883 -0.765982 -0.796225
    10 1.535925 0.010247 0.005009 -0.076524 0.315739 -1.052216
    11 1.100770 0.004527 -0.010675 -0.000003 0.000010 -0.670681
    12 0.957766 -2.746777 -0.090301 0.184075 -0.052115 0.117110
    13 -0.033419 -1.397129 -0.011256 -0.831692 -0.018348 -0.065736
    14 -0.022362 -0.957434 0.018782 -0.651761 0.000000 0.000000
    15 0.250028 -2.820664 -0.238397 -0.282644 0.057278 -0.106682
    16 -0.049759 -1.680546 0.100479 -2.012741 0.000000 -0.000002
    17 -0.034141 -1.148309 0.084778 -1.037448 0.000000 0.000000
    18 -0.488517 -2.755600 -0.228262 -0.195772 0.054591 -0.144142
    19 0.039889 -1.479791 0.029853 -2.042721 0.000000 0.000001
    20 0.028786 -1.075733 -0.023111 -0.841807 0.000000 0.000000
    21 -1.180679 -2.507216 -0.193861 0.008684 0.244081 -0.056771
    22 -0.024966 -1.123935 0.017594 -1.466568 0.000000 0.000001
    23 -0.020058 -0.890966 0.010091 -1.308722 0.000000 0.000000
    24 0.120152 -0.050267 -0.054488 0.287569 3.110905 1.561085
    25 1.304080 8.804363 -0.126173 1.605129 -1.493046 -0.161010
    26 -0.247877 -8.405278 -12.726782 -1.693349 -5.617762 -0.695331
    27 0.096946 -8.450419 -0.009364 -0.079496 -0.247103 0.116960
    28 -0.587378 -1.261647 0.201457 0.148885 -0.611555 -2.914189
    29 1.522835 0.058680 0.016851 -0.003592 0.086262 0.637044
    30 1.117948 0.048425 -0.005765 -0.000027 0.000018 1.019814
    31 -0.963867 -2.785143 -0.085346 0.230931 0.199968 -0.171434
    32 0.028478 -1.403069 0.006271 -1.008232 0.000000 0.000000
    33 0.021414 -0.957782 0.020047 -0.332300 0.000000 0.000000
    34 -0.249534 -2.846964 -0.174215 -0.001189 0.000966 -0.025450
    35 0.043234 -1.683941 0.096014 -2.021618 -0.002966 -0.000335
    36 0.031729 -1.160830 0.058836 -1.017627 0.000007 0.000007
    37 0.447951 -2.798983 -0.200442 -0.016203 0.053277 0.116304
    38 -0.032910 -1.480207 0.004936 -1.783733 0.000000 0.000002
    39 -0.027022 -1.076920 -0.020212 -0.898894 0.000000 0.000000
    40 1.164474 -2.543939 -0.170327 -0.365253 -0.001010 -0.002103
    41 0.024033 -1.129040 0.017806 -1.210698 -0.100239 0.187008
    42 0.014896 -0.883991 -0.019845 -0.909602 0.074161 0.017318
    43 -0.139399 -0.111701 0.014397 0.285534 -0.040597 1.576226
    44 -1.441116 8.792395 -0.163593 -1.643144 1.483711 0.062639
  time 6
    0 7.199624 -11.107033 -14.587820 1.558627 3.090642 -1.436822
    1 -0.071919 -8.498734 -0.104136 -0.091453 0.345519 -0.100686
    2 0.270743 -2.981032 0.317115 0.554697 1.379928 0.480550
    3 -0.000001 -1.808652 1.012938 0.000000 0.000000 0.000000
    4 -0.115836 -1.983283 1.652800 0.000000 0.000000 0.000000
    5 0.000000 2.290612 1.335354 0.000000 0.000000 0.000000
    6 0.000000 0.706664 0.002903 0.000000 0.000000 0.000000
    7 -0.194965 1.732989 -0.758107 0.000000 0.000000 0.000000
    8 -0.000001 -0.273071 1.043217 0.000000 0.000000 0.000000
    9 0.583509 -1.197273 0.185379 -0.077883 -0.765982 -0.796225
    10 1.535925 0.010247 0.005009 -0.076524 0.315739 -1.052216
    11 1.100770 0.004527 -0.010675 -0.000003 0.000010 -0.670681
    12 0.957766 -2.746777 -0.090301 0.184277 -0.052115 0.117110
    13 -0.033419 -1.397129 -0.011256 -0.830393 -0.018348 -0.065736
    14 -0.022362 -0.957434 0.018782 -0.652875 0.000000 0.000000
    15 0.250028 -2.820664 -0.238397 -0.282644 0.057278 -0.106682
    16 -0.049759 -1.680546 0.100479 -2.012741 0.000000 -0.000002
    17 -0.034141 -1.148309 0.084778 -1.037448 0.000000 0.000000
    18 -0.488517 -2.755600 -0.228262 -0.195772 0.054591 -0.144142
    19 0.039889 -1.479791 0.029853 -2.042721 0.000000 0.000001
    20 0.028786 -1.075733 -0.023111 -0.841807 0.000000 0.000000
    21 -1.180679 -2.507216 -0.193861 0.008684 0.244081 -0.056771
    22 -0.024966 -1.123935 0.017594 -1.466568 0.000000 0.000001
    23 -0.020058 -0.890966 0.010091 -1.308722 0.000000 0.000000
    24 0.120152 -0.050267 -0.054488 0.287569 3.110905 1.561085
    25 1.304080 8.804363 -0.126173 1.605129 -1.493046 -0.161010
    26 -0.247877 -8.409184 -12.730688 -1.693349 -5.617762 -0.695331
    27 0.096946 -8.450419 -0.009364 -0.080672 -0.246186 0.117217
    28 -0.587378 -1.261647 0.201457 0.148885 -0.611555 -2.914189
    29 1.522835 0.058680 0.016851 -0.003592 0.086262 0.637044
    30 1.117948 0.048425 -0.005765 -0.000027 0.000018 1.019814
    31 -0.963867 -2.785143 -0.085346 0.230931 0.199968 -0.171434
    32 0.028478 -1.403069 0.006271 -1.008232 0.000000 0.000000
    33 0.021414 -0.957782 0.020047 -0.332300 0.000000 0.000000
    34 -0.249534 -2.846964 -0.174215 -0.001189 0.000966 -0.025450
    35 0.043234 -1.683941 0.096014 -2.021618 -0.002966 -0.000335
    36 0.031729 -1.160830 0.058836 -1.017627 0.000007 0.000007
    37 0.447951 -2.798983 -0.200442 -0.016203 0.053277 0.116304
    38 -0.032910 -1.480207 0.004936 -1.783733 0.000000 0.000002
    39 -0.027022 -1.076920 -0.020212 -0.898894 0.000000 0.000000
    40 1.164474 -2.543939 -0.170327 -0.365253 -0.001010 -0.002103
    41 0.024033 -1.129040 0.017806 -1.210698 -0.100239 0.187008
    42 0.014896 -0.883991 -0.019845 -0.909602 0.074161 0.017318
    43 -0.139399 -0.111701 0.014397 0.285534 -0.040597 1.576226
    44 -1.441116 8.792395 -0.163593 -1.643144 1.483711 0.062639
  time 7
    0 7.199624 -11.107033 -14.591726 1.558627 3.090642 -1.436822
    1 -0.071919 -8.498734 -0.104136 -0.091046 0.345479 -0.100112
    2 0.270743 -2.981032 0.317115 0.554697 1.379928 0.480550
    3 -0.000001 -1.808652 1.012938 0.000000 0.000000 0.000000
    4 -0.115836 -1.983283 1.652800 0.000000 0.000000 0.000000
    5 0.000000 2.290612 1.335354 0.000000 0.000000 0.000000
    6 0.000000 0.706664 0.002903 0.000000 0.000000 0.000000
    7 -0.194965 1.732989 -0.758107 0.000000 0.000000 0.000000
    8 -0.000001 -0.273071 1.043217 0.000000 0.000000 0.000000
    9 0.583509 -1.197273 0.185379 -0.077883 -0.765982 -0.796225
    10 1.535925 0.010247 0.005009 -0.076524 0.315739 -1.052216
    11 1.100770 0.004527 -0.010675 -0.000003 0.000010 -0.670681
    12 0.957766 -2.746777 -0.090301 0.184371 -0.052115 0.117110
    13 -0.033419 -1.397129 -0.011256 -0.829906 -0.018348 -0.065736
    14 -0.022362 -0.957434 0.018782 -0.653289 0.000000 0.000000
    15 0.250028 -2.820664 -0.238397 -0.282644 0.057278 -0.106682
    16 -0.049759 -1.680546 0.100479 -2.012741 0.000000 -0.000002
    17 -0.034141 -1.148309 0.084778 -1.037448 0.000000 0.000000
    18 -0.488517 -2.755600 -0.228262 -0.195772 0.054591 -0.144142
    19 0.039889 -1.479791 0.029853 -2.042721 0.000000 0.000001
    20 0.028786 -1.075733 -0.023111 -0.841807 0.000000 0.000000
    21 -1.180679 -2.507216 -0.193861 0.008684 0.244081 -0.056771
    22 -0.024966 -1.123935 0.017594 -1.466568 0.000000 0.000001
    23 -0.020058 -0.890966 0.010091 -1.308722 0.000000 0.000000
    24 0.120152 -0.050267 -0.054488 0.287569 3.110905 1.561085
    25 1.304080 8.804363 -0.126173 1.605129 -1.493046 -0.161010
    26 -0.247877 -8.413091 -12.730688 -1.693349 -5.617762 -0.695331
    27 0.096946 -8.450419 -0.009364 -0.081127 -0.245827 0.117303
    28 -0.587378 -1.261647 0.201457 0.148885 -0.611555 -2.914189
    29 1.522835 0.058680 0.016851 -0.003592 0.086262 0.637044
    30 1.117948 0.048425 -0.005765 -0.000027 0.000018 1.019814
    31 -0.963867 -2.785143 -0.085346 0.230931 0.199968 -0.171434
    32 0.028478 -1.403069 0.006271 -1.008232 0.000000 0.000000
    33 0.021414 -0.957782 0.020047 -0.332300 0.000000 0.000000
    34 -0.249534 -2.846964 -0.174215 -0.001189 0.000966 -0.025450
    35 0.043234 -1.683941 0.096014 -2.021618 -0.002966 -0.000335
    36 0.031729 -1.160830 0.058836 -1.017627 0.000007 0.000007
    37 0.447951 -2.798983 -0.200442 -0.016203 0.053277 0.116304
    38 -0.032910 -1.480207 0.004936 -1.783733 0.000000 0.000002
    39 -0.027022 -1.076920 -0.020212 -0.898894 0.000000 0.000000
    40 1.164474 -2.543939 -0.170327 -0.365253 -0.001010 -0.002103
    41 0.024033 -1.129040 0.017806 -1.210698 -0.100239 0.187008
    42 0.014896 -0.883991 -0.019845 -0.909602 0.074161 0.017318
    43 -0.139399 -0.111701 0.014397 0.285534 -0.040597 1.576226
    44 -1.441116 8.792395 -0.163593 -1.643144 1.483711 0.062639
  time 8
    0 7.199624 -11.107033 -14.587820 1.558627 3.090642 -1.436822
    1 -0.071919 -8.498734 -0.104136 -0.091453 0.345519 -0.100686
    2 0.270743 -2.981032 0.317115 0.554697 1.379928 0.480550
    3 -0.000001 -1.808652 1.012938 0.000000 0.000000 0.000000
    4 -0.115836 -1.983283 1.652800 0.000000 0.000000 0.000000
    5 0.000000 2.290612 1.335354 0.000000 0.000000 0.000000
    6 0.000000 0.706664 0.002903 0.000000 0.000000 0.000000
    7 -0.194965 1.732989 -0.758107 0.000000 0.000000 0.000000
    8 -0.000001 -0.273071 1.043217 0.000000 0.000000 0.000000
    9 0.583509 -1.197273 0.185379 -0.077883 -0.765982 -0.796225
    10 1.535925 0.010247 0.005009 -0.076524 0.315739 -1.052216
    11 1.100770 0.004527 -0.010675 -0.000003 0.000010 -0.670681
    12 0.957766 -2.746777 -0.090301 0.184277 -0.052115 0.117110
    13 -0.033419 -1.397129 -0.011256 -0.830393 -0.018348 -0.065736
    14 -0.022362 -0.957434 0.018782 -0.652875 0.000000 0.000000
    15 0.250028 -2.820664 -0.238397 -0.282644 0.057278 -0.106682
    16 -0.049759 -1.680546 0.100479 -2.012741 0.000000 -0.000002
    17 -0.034141 -1.148309 0.084778 -1.037448 0.000000 0.000000
    18 -0.488517 -2.755600 -0.228262 -0.195772 0.054591 -0.144142
    19 0.039889 -1.479791 0.029853 -2.042721 0.000000 0.000001
    20 0.028786 -1.075733 -0.023111 -0.841807 0.000000 0.000000
    21 -1.180679 -2.507216 -0.193861 0.008684 0.244081 -0.056771
    22 -0.024966 -1.123935 0.017594 -1.466568 0.000000 0.000001
    23 -0.020058 -0.890966 0.010091 -1.308722 0.000000 0.000000
    24 0.120152 -0.050267 -0.054488 0.287569 3.110905 1.561085
    25 1.304080 8.804363 -0.126173 1.605129 -1.493046 -0.161010
    26 -0.247877 -8.409184 -12.730688 -1.693349 -5.617762 -0.695331
    27 0.096946 -8.450419 -0.009364 -0.080672 -0.246186 0.117217
    28 -0.587378 -1.261647 0.201457 0.148885 -0.611555 -2.914189
    29 1.522835 0.058680 0.016851 -0.003592 0.086262 0.637044
    30 1.117948 0.048425 -0.005765 -0.000027 0.000018 1.019814
    31 -0.963867 -2.785143 -0.085346 0.230931 0.199968 -0.171434
    32 0.028478 -1.403069 0.006271 -1.008232 0.000000 0.000000
    33 0.021414 -0.957782 0.020047 -0.332300 0.000000 0.000000
    34 -0.249534 -2.846964 -0.174215 -0.001189 0.000966 -0.025450
    35 0.043234 -1.683941 0.096014 -2.021618 -0.002966 -0.000335
    36 0.031729 -1.160830 0.058836 -1.017627 0.000007 0.000007
    37 0.447951 -2.798983 -0.200442 -0.016203 0.053277 0.116304
    38 -0.032910 -1.480207 0.004936 -1.783733 0.000000 0.000002
    39 -0.027022 -1.076920 -0.020212 -0.898894 0.000000 0.000000
    40 1.164474 -2.543939 -0.170327 -0.365253 -0.001010 -0.002103
    41 0.024033 -1.129040 0.017806 -1.210698 -0.100239 0.187008
    42 0.014896 -0.883991 -0.019845 -0.909602 0.074161 0.017318
    43 -0.139399 -0.111701 0.014397 0.285534 -0.040597 1.576226
    44 -1.441116 8.792395 -0.163593 -1.643144 1.483711 0.062639
  time 9
    0 7.199624 -11.099221 -14.587820 1.558627 3.090642 -1.436822
    1 -0.071919 -8.498734 -0.104136 -0.092497 0.345642 -0.102110
    2 0.270743 -2.981032 0.317115 0.554697 1.379928 0.480550
    3 -0.000001 -1.808652 1.012938 0.000000 0.000000 0.000000
    4 -0.115836 -1.983283 1.652800 0.000000 0.000000 0.000000
    5 0.000000 2.290612 1.335354 0.000000 0.000000 0.000000
    6 0.000000 0.706664 0.002903 0.000000 0.000000 0.000000
    7 -0.194965 1.732989 -0.758107 0.000000 0.000000 0.000000
    8 -0.000001 -0.273071 1.043217 0.000000 0.000000 0.000000
    9 0.583509 -1.197273 0.185379 -0.077883 -0.765982 -0.796225
    10 1.535925 0.010247 0.005009 -0.076524 0.315739 -1.052216
    11 1.100770 0.004527 -0.010675 -0.000003 0.000010 -0.670681
    12 0.957766 -2.746777 -0.090301 0.184075 -0.052115 0.117110
    13 -0.033419 -1.397129 -0.011256 -0.831692 -0.018348 -0.065736
    14 -0.022362 -0.957434 0.018782 -0.651761 0.000000 0.000000
    15 0.250028 -2.820664 -0.238397 -0.282644 0.057278 -0.106682
    16 -0.049759 -1.680546 0.100479 -2.012741 0.000000 -0.000002
    17 -0.034141 -1.148309 0.084778 -1.037448 0.000000 0.000000
    18 -0.488517 -2.755600 -0.228262 -0.195772 0.054591 -0.144142
    19 0.039889 -1.479791 0.029853 -2.042721 0.000000 0.000001
    20 0.028786 -1.075733 -0.023111 -0.841807 0.000000 0.000000
    21 -1.180679 -2.507216 -0.193861 0.008684 0.244081 -0.056771
    22 -0.024966 -1.123935 0.017594 -1.466568 0.000000 0.000001
    23 -0.020058 -0.890966 0.010091 -1.308722 0.000000 0.000000
    24 0.120152 -0.050267 -0.054488 0.287569 3.110905 1.561085
    25 1.304080 8.804363 -0.126173 1.605129 -1.493046 -0.161010
    26 -0.247877 -8.405278 -12.726782 -1.693349 -5.617762 -0.695331
    27 0.096946 -8.450419 -0.009364 -0.079496 -0.247103 0.116960
    28 -0.587378 -1.261647 0.201457 0.148885 -0.611555 -2.914189
    29 1.522835 0.058680 0.016851 -0.003592 0.086262 0.637044
    30 1.117948 0.048425 -0.005765 -0.000027 0.000018 1.019814
    31 -0.963867 -2.785143 -0.085346 0.230931 0.199968 -0.171434
    32 0.028478 -1.403069 0.006271 -1.008232 0.000000 0.000000
    33 0.021414 -0.957782 0.020047 -0.332300 0.000000 0.000000
    34 -0.249534 -2.846964 -0.174215 -0.001189 0.000966 -0.025450
    35 0.043234 -1.683941 0.096014 -2.021618 -0.002966 -0.000335
    36 0.031729 -1.160830 0.058836 -1.017627 0.000007 0.000007
    37 0.447951 -2.798983 -0.200442 -0.016203 0.053277 0.116304
    38 -0.032910 -1.480207 0.004936 -1.783733 0.000000 0.000002
    39 -0.027022 -1.076920 -0.020212 -0.898894 0.000000 0.000000
    40 1.164474 -2.543939 -0.170327 -0.365253 -0.001010 -0.002103
    41 0.024033 -1.129040 0.017806 -1.210698 -0.100239 0.187008
    42 0.014896 -0.883991 -0.019845 -0.909602 0.074161 0.017318
    43 -0.139399 -0.111701 0.014397 0.285534 -0.040597 1.576226
    44 -1.441116 8.792395 -0.163593 -1.643144 1.483711 0.062639
  time 10
    0 7.199624 -11.087501 -14.583913 1.558627 3.090642 -1.436822
    1 -0.071919 -8.498734 -0.104136 -0.093934 0.345805 -0.104088
    2 0.270743 -2.981032 0.317115 0.554697 1.379928 0.480550
    3 -0.000001 -1.808652 1.012938 0.000000 0.000000 0.000000
    4 -0.115836 -1.983283 1.652800 0.000000 0.000000 0.000000
    5 0.000000 2.290612 1.335354 0.000000 0.000000 0.000000
    6 0.000000 0.706664 0.002903 0.000000 0.000000 0.000000
    7 -0.194965 1.732989 -0.758107 0.000000 0.000000 0.000000
    8 -0.000001 -0.273071 1.043217 0.000000 0.000000 0.000000
    9 0.583509 -1.197273 0.185379 -0.077883 -0.765982 -0.796225
    10 1.535925 0.010247 0.005009 -0.076524 0.315739 -1.052216
    11 1.100770 0.004527 -0.010675 -0.000003 0.000010 -0.670681
    12 0.957766 -2.746777 -0.090301 0.183763 -0.052115 0.117110
    13 -0.033419 -1.397129 -0.011256 -0.833560 -0.018348 -0.065736
    14 -0.022362 -0.957434 0.018782 -0.650105 0.000000 0.000000
    15 0.250028 -2.820664 -0.238397 -0.282644 0.057278 -0.106682
    16 -0.049759 -1.680546 0.100479 -2.012741 0.000000 -0.000002
    17 -0.034141 -1.148309 0.084778 -1.037448 0.000000 0.000000
    18 -0.488517 -2.755600 -0.228262 -0.195772 0.054591 -0.144142
    19 0.039889 -1.479791 0.029853 -2.042721 0.000000 0.000001
    20 0.028786 -1.075733 -0.023111 -0.841807 0.000000 0.000000
    21 -1.180679 -2.507216 -0.193861 0.008684 0.244081 -0.056771
    22 -0.024966 -1.123935 0.017594 -1.466568 0.000000 0.000001
    23 -0.020058 -0.890966 0.010091 -1.308722 0.000000 0.000000
    24 0.120152 -0.050267 -0.054488 0.287569 3.110905 1.561085
    25 1.304080 8.804363 -0.126173 1.605129 -1.493046 -0.161010
    26 -0.247877 -8.393559 -12.722876 -1.693349 -5.617762 -0.695331
    27 0.096946 -8.450419 -0.009364 -0.077865 -0.248379 0.116618
    28 -0.587378 -1.261647 0.201457 0.148885 -0.611555 -2.914189
    29 1.522835 0.058680 0.016851 -0.003592 0.086262 0.637044
    30 1.117948 0.048425 -0.005765 -0.000027 0.000018 1.019814
    31 -0.963867 -2.785143 -0.085346 0.230931 0.199968 -0.171434
    32 0.028478 -1.403069 0.006271 -1.008232 0.000000 0.000000
    33 0.021414 -0.957782 0.020047 -0.332300 0.000000 0.000000
    34 -0.249534 -2.846964 -0.174215 -0.001189 0.000966 -0.025450
    35 0.043234 -1.683941 0.096014 -2.021618 -0.002966 -0.000335
    36 0.031729 -1.160830 0.058836 -1.017627 0.000007 0.000007
    37 0.447951 -2.798983 -0.200442 -0.016203 0.053277 0.116304
    38 -0.032910 -1.480207 0.004936 -1.783733 0.000000 0.000002
    39 -0.027022 -1.076920 -0.020212 -0.898894 0.000000 0.000000
    40 1.164474 -2.543939 -0.170327 -0.365253 -0.001010 -0.002103
    41 0.024033 -1.129040 0.017806 -1.210698 -0.100239 0.187008
    42 0.014896 -0.883991 -0.019845 -0.909602 0.074161 0.017318
    43 -0.139399 -0.111701 0.014397 0.285534 -0.040597 1.576226
    44 -1.441116 8.792395 -0.163593 -1.643144 1.483711 0.062639
  time 11
    0 7.199624 -11.079689 -14.580007 1.558627 3.090642 -1.436822
    1 -0.071919 -8.498734 -0.104136 -0.095493 0.345968 -0.106224
    2 0.270743 -2.981032 0.317115 0.554697 1.379928 0.480550
    3 -0.000001 -1.808652 1.012938 0.000000 0.000000 0.000000
    4 -0.115836 -1.983283 1.652800 0.000000 0.000000 0.000000
    5 0.000000 2.290612 1.335354 0.000000 0.000000 0.000000
    6 0.000000 0.706664 0.002903 0.000000 0.000000 0.000000
    7 -0.194965 1.732989 -0.758107 0.000000 0.000000 0.000000
    8 -0.000001 -0.273071 1.043217 0.000000 0.000000 0.000000
    9 0.583509 -1.197273 0.185379 -0.077883 -0.765982 -0.796225
    10 1.535925 0.010247 0.005009 -0.076524 0.315739 -1.052216
    11 1.100770 0.004527 -0.010675 -0.000003 0.000010 -0.670681
    12 0.957766 -2.746777 -0.090301 0.183388 -0.052115 0.117110
    13 -0.033419 -1.397129 -0.011256 -0.835794 -0.018348 -0.065736
    14 -0.022362 -0.957434 0.018782 -0.648162 0.000000 0.000000
    15 0.250028 -2.820664 -0.238397 -0.282644 0.057278 -0.106682
    16 -0.049759 -1.680546 0.100479 -2.012741 0.000000 -0.000002
    17 -0.034141 -1.148309 0.084778 -1.037448 0.000000 0.000000
    18 -0.488517 -2.755600 -0.228262 -0.195772 0.054591 -0.144142
    19 0.039889 -1.479791 0.029853 -2.042721 0.000000 0.000001
    20 0.028786 -1.075733 -0.023111 -0.841807 0.000000 0.000000
    21 -1.180679 -2.507216 -0.193861 0.008684 0.244081 -0.056771
    22 -0.024966 -1.123935 0.017594 -1.466568 0.000000 0.000001
    23 -0.020058 -0.890966 0.010091 -1.308722 0.000000 0.000000
    24 0.120152 -0.050267 -0.054488 0.287569 3.110905 1.561085
    25 1.304080 8.804363 -0.126173 1.605129 -1.493046 -0.161010
    26 -0.247877 -8.381840 -12.722876 -1.693349 -5.617762 -0.695331
    27 0.096946 -8.450419 -0.009364 -0.076126 -0.249755 0.116247
    28 -0.587378 -1.261647 0.201457 0.148885 -0.611555 -2.914189
    29 1.522835 0.058680 0.016851 -0.003592 0.086262 0.637044
    30 1.117948 0.048425 -0.005765 -0.000027 0.000018 1.019814
    31 -0.963867 -2.785143 -0.085346 0.230931 0.199968 -0.171434
    32 0.028478 -1.403069 0.006271 -1.008232 0.000000 0.000000
    33 0.021414 -0.957782 0.020047 -0.332300 0.000000 0.000000
    34 -0.249534 -2.846964 -0.174215 -0.001189 0.000966 -0.025450
    35 0.043234 -1.683941 0.096014 -2.021618 -0.002966 -0.000335
    36 0.031729 -1.160830 0.058836 -1.017627 0.000007 0.000007
    37 0.447951 -2.798983 -0.200442 -0.016203 0.053277 0.116304
    38 -0.032910 -1.480207 0.004936 -1.783733 0.000000 0.000002
    39 -0.027022 -1.076920 -0.020212 -0.898894 0.000000 0.000000
    40 1.164474 -2.543939 -0.170327 -0.365253 -0.001010 -0.002103
    41 0.024033 -1.129040 0.017806 -1.210698 -0.100239 0.187008
    42 0.014896 -0.883991 -0.019845 -0.909602 0.074161 0.017318
    43 -0.139399 -0.111701 0.014397 0.285534 -0.040597 1.576226
    44 -1.441116 8.792395 -0.163593 -1.643144 1.483711 0.062639
  time 12
    0 7.199624 -11.067970 -14.580007 1.558627 3.090642 -1.436822
    1 -0.071919 -8.498734 -0.104136 -0.096930 0.346131 -0.108183
    2 0.270743 -2.981032 0.317115 0.554697 1.379928 0.480550
    3 -0.000001 -1.808652 1.012938 0.000000 0.000000 0.000000
    4 -0.115836 -1.983283 1.652800 0.000000 0.000000 0.000000
    5 0.000000 2.290612 1.335354 0.000000 0.000000 0.000000
    6 0.000000 0.706664 0.002903 0.000000 0.000000 0.000000
    7 -0.194965 1.732989 -0.758107 0.000000 0.000000 0.000000
    8 -0.000001 -0.273071 1.043217 0.000000 0.000000 0.000000
    9 0.583509 -1.197273 0.185379 -0.077883 -0.765982 -0.796225
    10 1.535925 0.010247 0.005009 -0.076524 0.315739 -1.052216
    11 1.100770 0.004527 -0.010675 -0.000003 0.000010 -0.670681
    12 0.957766 -2.746777 -0.090301 0.182998 -0.052115 0.117110
    13 -0.033419 -1.397129 -0.011256 -0.838189 -0.018348 -0.065736
    14 -0.022362 -0.957434 0.018782 -0.646092 0.000000 0.000000
    15 0.250028 -2.820664 -0.238397 -0.282644 0.057278 -0.106682
    16 -0.049759 -1.680546 0.100479 -2.012741 0.000000 -0.000002
    17 -0.034141 -1.148309 0.084778 -1.037448 0.000000 0.000000
    18 -0.488517 -2.755600 -0.228262 -0.195772 0.054591 -0.144142
    19 0.039889 -1.479791 0.029853 -2.042721 0.000000 0.000001
    20 0.028786 -1.075733 -0.023111 -0.841807 0.000000 0.000000
    21 -1.180679 -2.507216 -0.193861 0.008684 0.244081 -0.056771
    22 -0.024966 -1.123935 0.017594 -1.466568 0.000000 0.000001
    23 -0.020058 -0.890966 0.010091 -1.308722 0.000000 0.000000
    24 0.120152 -0.050267 -0.054488 0.287569 3.110905 1.561085
    25 1.304080 8.804363 -0.126173 1.605129 -1.493046 -0.161010
    26 -0.247877 -8.374027 -12.718969 -1.693349 -5.617762 -0.695331
    27 0.096946 -8.450419 -0.009364 -0.074495 -0.251011 0.115905
    28 -0.587378 -1.261647 0.201457 0.148885 -0.611555 -2.914189
    29 1.522835 0.058680 0.016851 -0.003592 0.086262 0.637044
    30 1.117948 0.048425 -0.005765 -0.000027 0.000018 1.019814
    31 -0.963867 -2.785143 -0.085346 0.230931 0.199968 -0.171434
    32 0.028478 -1.403069 0.006271 -1.008232 0.000000 0.000000
    33 0.021414 -0.957782 0.020047 -0.332300 0.000000 0.000000
    34 -0.249534 -2.846964 -0.174215 -0.001189 0.000966 -0.025450
    35 0.043234 -1.683941 0.096014 -2.021618 -0.002966 -0.000335
    36 0.031729 -1.160830 0.058836 -1.017627 0.000007 0.000007
    37 0.447951 -2.798983 -0.200442 -0.016203 0.053277 0.116304
    38 -0.032910 -1.480207 0.004936 -1.783733 0.000000 0.000002
    39 -0.027022 -1.076920 -0.020212 -0.898894 0.000000 0.000000
    40 1.164474 -2.543939 -0.170327 -0.365253 -0.001010 -0.002103
    41 0.024033 -1.129040 0.017806 -1.210698 -0.100239 0.187008
    42 0.014896 -0.883991 -0.019845 -0.909602 0.074161 0.017318
    43 -0.139399 -0.111701 0.014397 0.285534 -0.040597 1.576226
    44 -1.441116 8.792395 -0.163593 -1.643144 1.483711 0.062639
  time 13
    0 7.199624 -11.060157 -14.576100 1.558627 3.090642 -1.436822
    1 -0.071919 -8.498734 -0.104136 -0.097987 0.346254 -0.109627
    2 0.270743 -2.981032 0.317115 0.554697 1.379928 0.480550
    3 -0.000001 -1.808652 1.012938 0.000000 0.000000 0.000000
    4 -0.115836 -1.983283 1.652800 0.000000 0.000000 0.000000
    5 0.000000 2.290612 1.335354 0.000000 0.000000 0.000000
    6 0.000000 0.706664 0.002903 0.000000 0.000000 0.000000
    7 -0.194965 1.732989 -0.758107 0.000000 0.000000 0.000000
    8 -0.000001 -0.273071 1.043217 0.000000 0.000000 0.000000
    9 0.583509 -1.197273 0.185379 -0.077883 -0.765982 -0.796225
    10 1.535925 0.010247 0.005009 -0.076524 0.315739 -1.052216
    11 1.100770 0.004527 -0.010675 -0.000003 0.000010 -0.670681
    12 0.957766 -2.746777 -0.090301 0.182609 -0.052115 0.117110
    13 -0.033419 -1.397129 -0.011256 -0.840504 -0.018348 -0.065736
    14 -0.022362 -0.957434 0.018782 -0.644086 0.000000 0.000000
    15 0.250028 -2.820664 -0.238397 -0.282644 0.057278 -0.106682
    16 -0.049759 -1.680546 0.100479 -2.012741 0.000000 -0.000002
    17 -0.034141 -1.148309 0.084778 -1.037448 0.000000 0.000000
    18 -0.488517 -2.755600 -0.228262 -0.195772 0.054591 -0.144142
    19 0.039889 -1.479791 0.029853 -2.042721 0.000000 0.000001
    20 0.028786 -1.075733 -0.023111 -0.841807 0.000000 0.000000
    21 -1.180679 -2.507216 -0.193861 0.008684 0.244081 -0.056771
    22 -0.024966 -1.123935 0.017594 -1.466568 0.000000 0.000001
    23 -0.020058 -0.890966 0.010091 -1.308722 0.000000 0.000000
    24 0.120152 -0.050267 -0.054488 0.287569 3.110905 1.561085
    25 1.304080 8.804363 -0.126173 1.605129 -1.493046 -0.161010
    26 -0.247877 -8.366214 -12.715063 -1.693349 -5.617762 -0.695331
    27 0.096946 -8.450419 -0.009364 -0.073318 -0.251928 0.115676
    28 -0.587378 -1.261647 0.201457 0.148885 -0.611555 -2.914189
    29 1.522835 0.058680 0.016851 -0.003592 0.086262 0.637044
    30 1.117948 0.048425 -0.005765 -0.000027 0.000018 1.019814
    31 -0.963867 -2.785143 -0.085346 0.230931 0.199968 -0.171434
    32 0.028478 -1.403069 0.006271 -1.008232 0.000000 0.000000
    33 0.021414 -0.957782 0.020047 -0.332300 0.000000 0.000000
    34 -0.249534 -2.846964 -0.174215 -0.001189 0.000966 -0.025450
    35 0.043234 -1.683941 0.096014 -2.021618 -0.002966 -0.000335
    36 0.031729 -1.160830 0.058836 -1.017627 0.000007 0.000007
    37 0.447951 -2.798983 -0.200442 -0.016203 0.053277 0.116304
    38 -0.032910 -1.480207 0.004936 -1.783733 0.000000 0.000002
    39 -0.027022 -1.076920 -0.020212 -0.898894 0.000000 0.000000
    40 1.164474 -2.543939 -0.170327 -0.365253 -0.001010 -0.002103
    41 0.024033 -1.129040 0.017806 -1.210698 -0.100239 0.187008
    42 0.014896 -0.883991 -0.019845 -0.909602 0.074161 0.017318
    43 -0.139399 -0.111701 0.014397 0.285534 -0.040597 1.576226
    44 -1.441116 8.792395 -0.163593 -1.643144 1.483711 0.062639
  time 14
    0 7.199624 -11.060157 -14.576100 1.558627 3.090642 -1.436822
    1 -0.071919 -8.498734 -0.104136 -0.098394 0.346295 -0.110181
    2 0.270743 -2.981032 0.317115 0.554697 1.379928 0.480550
    3 -0.000001 -1.808652 1.012938 0.000000 0.000000 0.000000
    4 -0.115836 -1.983283 1.652800 0.000000 0.000000 0.000000
    5 0.000000 2.290612 1.335354 0.000000 0.000000 0.000000
    6 0.000000 0.706664 0.002903 0.000000 0.000000 0.000000
    7 -0.194965 1.732989 -0.758107 0.000000 0.000000 0.000000
    8 -0.000001 -0.273071 1.043217 0.000000 0.000000 0.000000
    9 0.583509 -1.197273 0.185379 -0.077883 -0.765982 -0.796225
    10 1.535925 0.010247 0.005009 -0.076524 0.315739 -1.052216
    11 1.100770 0.004527 -0.010675 -0.000003 0.000010 -0.670681
    12 0.957766 -2.746777 -0.090301 0.182281 -0.052115 0.117110
    13 -0.033419 -1.397129 -0.011256 -0.842493 -0.018348 -0.065736
    14 -0.022362 -0.957434 0.018782 -0.642334 0.000000 0.000000
    15 0.250028 -2.820664 -0.238397 -0.282644 0.057278 -0.106682
    16 -0.049759 -1.680546 0.100479 -2.012741 0.000000 -0.000002
    17 -0.034141 -1.148309 0.084778 -1.037448 0.000000 0.000000
    18 -0.488517 -2.755600 -0.228262 -0.195772 0.054591 -0.144142
    19 0.039889 -1.479791 0.029853 -2.042721 0.000000 0.000001
    20 0.028786 -1.075733 -0.023111 -0.841807 0.000000 0.000000
    21 -1.180679 -2.507216 -0.193861 0.008684 0.244081 -0.056771
    22 -0.024966 -1.123935 0.017594 -1.466568 0.000000 0.000001
    23 -0.020058 -0.890966 0.010091 -1.308722 0.000000 0.000000
    24 0.120152 -0.050267 -0.054488 0.287569 3.110905 1.561085
    25 1.304080 8.804363 -0.126173 1.605129 -1.493046 -0.161010
    26 -0.247877 -8.362308 -12.715063 -1.693349 -5.617762 -0.695331
    27 0.096946 -8.450419 -0.009364 -0.072864 -0.252287 0.115562
    28 -0.587378 -1.261647 0.201457 0.148885 -0.611555 -2.914189
    29 1.522835 0.058680 0.016851 -0.003592 0.086262 0.637044
    30 1.117948 0.048425 -0.005765 -0.000027 0.000018 1.019814
    31 -0.963867 -2.785143 -0.085346 0.230931 0.199968 -0.171434
    32 0.028478 -1.403069 0.006271 -1.008232 0.000000 0.000000
    33 0.021414 -0.957782 0.020047 -0.332300 0.000000 0.000000
    34 -0.249534 -2.846964 -0.174215 -0.001189 0.000966 -0.025450
    35 0.043234 -1.683941 0.096014 -2.021618 -0.002966 -0.000335
    36 0.031729 -1.160830 0.058836 -1.017627 0.000007 0.000007
    37 0.447951 -2.798983 -0.200442 -0.016203 0.053277 0.116304
    38 -0.032910 -1.480207 0.004936 -1.783733 0.000000 0.000002
    39 -0.027022 -1.076920 -0.020212 -0.898894 0.000000 0.000000
    40 1.164474 -2.543939 -0.170327 -0.365253 -0.001010 -0.002103
    41 0.024033 -1.129040 0.017806 -1.210698 -0.100239 0.187008
    42 0.014896 -0.883991 -0.019845 -0.909602 0.074161 0.017318
    43 -0.139399 -0.111701 0.014397 0.285534 -0.040597 1.576226
    44 -1.441116 8.792395 -0.163593 -1.643144 1.483711 0.062639
end
