version 1
nodes
  0 "root" -1
  1 "Bone01" 0
  2 "Bone_Lefthand" 1
  3 "skull3L_root" 2
  4 "trigger_L" 3
  5 "scope_L" 3
  6 "reload_L" 3
  7 "silencer_L" 3
  8 "magazine_L" 3
  9 "Bone04" 0
  10 "Bone_Righthand" 9
  11 "skull3R_root" 10
  12 "scope_R" 11
  13 "reload_R" 11
  14 "magazine_R" 11
  15 "silencer_R" 11
  16 "trigger_R" 11
  17 "Bone_L_Upper" 1
  18 "Bone13" 2
  19 "Bone14" 18
  20 "Bone15" 19
  21 "Bone17" 2
  22 "Bone18" 21
  23 "Bone19" 22
  24 "Bone21" 2
  25 "Bone22" 24
  26 "Bone23" 25
  27 "Bone09" 2
  28 "Bone10" 27
  29 "Bone11" 28
  30 "Bone05" 2
  31 "Bone06" 30
  32 "Bone07" 31
  33 "Bone_Se_Hand-L" 2
  34 "Bone39" 10
  35 "Bone40" 34
  36 "Bone41" 35
  37 "Bone35" 10
  38 "Bone36" 37
  39 "Bone37" 38
  40 "Bone31" 10
  41 "Bone32" 40
  42 "Bone33" 41
  43 "Bone43" 10
  44 "Bone44" 43
  45 "Bone45" 44
  46 "Bone27" 10
  47 "Bone28" 46
  48 "Bone29" 47
  49 "Bone_Se_Hand-R" 10
  50 "Bone_R_Upper" 9
end
skeleton
  time 0
    0 0.000000 0.000000 0.000000 0.000000 0.000000 -0.000016
    1 7.747556 5.726923 -6.642266 1.276003 -1.619030 -1.385045
    2 -0.071918 -8.498729 -0.104137 0.233264 0.229964 0.027316
    3 1.861052 -2.316011 1.422734 0.139416 0.201012 -3.172999
    4 1.111351 2.047762 0.000000 0.000000 0.000000 0.000000
    5 -2.197709 3.248277 -0.000006 0.000001 0.000000 3.141592
    6 -1.583559 10.474715 0.386643 1.570797 -1.570796 0.000000
    7 -0.609616 11.483512 -0.000014 0.000000 0.000001 1.570796
    8 0.249077 5.246643 -0.000014 -0.000001 0.000000 0.226893
    9 -1.309863 -7.033240 -10.273580 -2.110829 -5.190259 -1.381975
    10 0.096944 -8.450419 -0.009364 0.228648 -0.233694 0.292775
    11 5.284078 16.225037 55.362292 -2.676192 -1.216110 0.861362
    12 -2.196302 -3.238963 0.258082 0.072146 -0.010897 3.141198
    13 -1.583562 -10.474718 0.386644 -1.589286 1.570796 0.000000
    14 0.251131 -5.233087 0.375461 -0.072749 -0.005596 -0.226690
    15 -0.605067 -11.453402 0.834369 -0.010926 -0.072142 -1.570402
    16 1.112089 -2.042870 0.135495 -0.072147 0.010897 -0.000393
    17 1.257180 8.762585 -0.153713 -1.570562 0.002683 -1.566807
    18 -0.488518 -2.755602 -0.228260 -1.085960 -0.191560 -0.439285
    19 0.039887 -1.479790 0.029854 -0.928033 0.000000 0.000001
    20 0.028786 -1.075731 -0.023109 -1.481404 0.000000 0.000000
    21 0.250027 -2.820665 -0.238396 -0.892857 -0.160399 -0.409458
    22 -0.049759 -1.680544 0.100479 -1.289132 0.000000 -0.000002
    23 -0.034142 -1.148312 0.084782 -1.087270 0.000000 0.000000
    24 0.957766 -2.746780 -0.090302 -0.208375 -0.395425 -0.120125
    25 -0.033420 -1.397129 -0.011257 -0.691832 0.124808 -0.122316
    26 -0.022360 -0.957436 0.018784 -0.519754 0.000000 0.000000
    27 -1.180681 -2.507217 -0.193859 -0.873937 -0.068285 -0.359963
    28 -0.024967 -1.123934 0.017597 -1.152494 0.000000 0.000001
    29 -0.020057 -0.890968 0.010090 -0.933448 0.000000 0.000000
    30 0.583510 -1.197277 0.185379 0.316258 -1.087026 -0.583548
    31 1.535927 0.010246 0.005009 0.347010 -0.308555 -0.883745
    32 1.100771 0.004527 -0.010679 -0.011449 0.011491 -0.607443
    33 0.120153 -0.050270 -0.054489 0.287569 3.110905 1.561085
    34 0.447953 -2.798986 -0.200443 -1.159457 -0.126508 -0.047440
    35 -0.032909 -1.480204 0.004940 -1.413638 0.000000 0.000002
    36 -0.027022 -1.076920 -0.020210 -1.481391 0.000000 0.000000
    37 -0.249534 -2.846964 -0.174213 -1.055898 -0.135815 -0.084786
    38 0.043235 -1.683941 0.096012 -1.469808 0.002823 -0.000167
    39 0.031729 -1.160830 0.058838 -1.698243 0.000642 0.008372
    40 -0.963866 -2.785145 -0.085350 -1.049434 -0.085997 -0.167475
    41 0.028479 -1.403067 0.006271 -1.158128 0.000000 0.000000
    42 0.021413 -0.957781 0.020046 -1.216858 0.000000 0.000000
    43 1.164475 -2.543940 -0.170330 -0.843988 -0.306425 0.042666
    44 0.024032 -1.129042 0.017807 -1.373633 0.000000 0.000001
    45 0.014898 -0.883989 -0.019848 -1.314671 0.000000 0.000000
    46 -0.586770 -1.264477 0.200161 -0.276779 -0.716323 -2.528368
    47 1.522835 0.058681 0.016848 -0.037192 -0.131247 0.649005
    48 1.117947 0.048424 -0.005766 -0.016374 -0.019146 0.763702
    49 -0.139399 -0.111698 0.014397 0.285382 -0.030687 1.580508
    50 -1.393470 8.839177 -0.239433 1.580804 -0.005023 -1.566847
  time 1
    0 0.000000 0.871120 0.000000 0.000000 0.000000 -0.000016
    1 7.747556 5.726923 -6.642266 1.276003 -1.619030 -1.385045
    2 -0.071918 -8.498729 -0.104137 0.233264 0.229964 0.027316
    3 1.861052 -2.316011 1.422734 0.139416 0.201012 -3.172999
    4 1.111351 2.047762 0.000000 0.000000 0.000000 0.000000
    5 -2.197709 3.248277 -0.000006 0.000001 0.000000 3.141592
    6 -1.583559 7.451185 0.386643 1.570797 -1.570796 0.000000
    7 -0.609616 11.483512 -0.000014 0.000000 0.000001 1.570796
    8 0.249077 5.246643 -0.000014 -0.000001 0.000000 0.226893
    9 -1.309863 -7.033240 -10.273580 -2.110829 -5.190259 -1.381975
    10 0.096944 -8.450419 -0.009364 0.237932 -0.233694 0.292775
    11 5.284078 16.225037 55.362292 -2.676192 -1.216110 0.861362
    12 -2.196302 -3.238963 0.258082 0.072146 -0.010897 3.141198
    13 -1.583562 -10.474718 0.386644 -1.589286 1.570317 0.000000
    14 0.251131 -5.233087 0.375461 -0.072749 -0.005596 -0.226690
    15 -0.605067 -11.453402 0.834369 -0.010926 -0.072142 -1.570402
    16 1.112089 -2.042870 0.135495 -0.072147 0.010897 -0.000393
    17 1.257180 8.762585 -0.153713 -1.570562 0.002683 -1.566807
    18 -0.488518 -2.755602 -0.228260 -1.085960 -0.191560 -0.439285
    19 0.039887 -1.479790 0.029854 -0.928033 0.000000 0.000001
    20 0.028786 -1.075731 -0.023109 -1.481404 0.000000 0.000000
    21 0.250027 -2.820665 -0.238396 -0.892857 -0.160399 -0.409458
    22 -0.049759 -1.680544 0.100479 -1.289132 0.000000 -0.000002
    23 -0.034142 -1.148312 0.084782 -1.087270 0.000000 0.000000
    24 0.957766 -2.746780 -0.090302 -0.208375 -0.395425 -0.120125
    25 -0.033420 -1.397129 -0.011257 -0.691832 0.124808 -0.122316
    26 -0.022360 -0.957436 0.018784 -0.519754 0.000000 0.000000
    27 -1.180681 -2.507217 -0.193859 -0.873937 -0.068285 -0.359963
    28 -0.024967 -1.123934 0.017597 -1.152494 0.000000 0.000001
    29 -0.020057 -0.890968 0.010090 -0.933448 0.000000 0.000000
    30 0.583510 -1.197277 0.185379 0.316258 -1.087026 -0.583548
    31 1.535927 0.010246 0.005009 0.347010 -0.308555 -0.883745
    32 1.100771 0.004527 -0.010679 -0.011449 0.011491 -0.607443
    33 0.120153 -0.050270 -0.054489 0.287569 3.110905 1.561085
    34 0.447953 -2.798986 -0.200443 -1.204736 -0.126508 -0.047440
    35 -0.032909 -1.480204 0.004940 -1.413638 0.000000 0.000002
    36 -0.027022 -1.076920 -0.020210 -1.481391 0.000000 0.000000
    37 -0.249534 -2.846964 -0.174213 -1.101134 -0.135815 -0.084786
    38 0.043235 -1.683941 0.096012 -1.469808 0.002823 -0.000167
    39 0.031729 -1.160830 0.058838 -1.698243 0.000642 0.008372
    40 -0.963866 -2.785145 -0.085350 -1.094695 -0.085997 -0.167475
    41 0.028479 -1.403067 0.006271 -1.158128 0.000000 0.000000
    42 0.021413 -0.957781 0.020046 -1.216858 0.000000 0.000000
    43 1.164475 -2.543940 -0.170330 -0.889235 -0.306425 0.042666
    44 0.024032 -1.129042 0.017807 -1.373633 0.000000 0.000001
    45 0.014898 -0.883989 -0.019848 -1.314671 0.000000 0.000000
    46 -0.586770 -1.264477 0.200161 -0.276779 -0.716323 -2.528368
    47 1.522835 0.058681 0.016848 -0.044119 -0.178502 0.671828
    48 1.117947 0.048424 -0.005766 -0.016374 -0.019146 0.763702
    49 -0.139399 -0.111698 0.014397 0.285382 -0.030687 1.580508
    50 -1.393470 8.839177 -0.239433 1.580804 -0.005023 -1.566847
  time 2
    0 0.000000 0.839869 0.000000 -0.007111 0.000000 -0.000016
    1 7.747556 5.726923 -6.642266 1.276003 -1.619030 -1.385045
    2 -0.071918 -8.498729 -0.104137 0.233264 0.229964 0.027316
    3 1.861052 -2.316011 1.422734 0.139416 0.201012 -3.172999
    4 1.111351 2.047762 0.000000 0.000000 0.000000 0.000000
    5 -2.197709 3.248277 -0.000006 0.000001 0.000000 3.141592
    6 -1.583559 7.673849 0.386643 1.570797 -1.570796 0.000000
    7 -0.609616 11.483512 -0.000014 0.000000 0.000001 1.570796
    8 0.249077 5.246643 -0.000014 -0.000001 0.000000 0.226893
    9 -1.309863 -7.033240 -10.273580 -2.110829 -5.190259 -1.381975
    10 0.096944 -8.450419 -0.009364 0.255207 -0.233694 0.292775
    11 5.284078 16.225037 55.362292 -2.676192 -1.216110 0.861362
    12 -2.196302 -3.238963 0.258082 0.072146 -0.010897 3.141198
    13 -1.583562 -10.474718 0.386644 -1.589286 1.570796 0.000000
    14 0.251131 -5.233087 0.375461 -0.072749 -0.005596 -0.226690
    15 -0.605067 -11.453402 0.834369 -0.010926 -0.072142 -1.570402
    16 1.112089 -2.042870 0.135495 -0.072147 0.010897 -0.000393
    17 1.257180 8.762585 -0.153713 -1.570562 0.002683 -1.566807
    18 -0.488518 -2.755602 -0.228260 -1.085960 -0.191560 -0.439285
    19 0.039887 -1.479790 0.029854 -0.928033 0.000000 0.000001
    20 0.028786 -1.075731 -0.023109 -1.481404 0.000000 0.000000
    21 0.250027 -2.820665 -0.238396 -0.892857 -0.160399 -0.409458
    22 -0.049759 -1.680544 0.100479 -1.289132 0.000000 -0.000002
    23 -0.034142 -1.148312 0.084782 -1.087270 0.000000 0.000000
    24 0.957766 -2.746780 -0.090302 -0.208375 -0.395425 -0.120125
    25 -0.033420 -1.397129 -0.011257 -0.691832 0.124808 -0.122316
    26 -0.022360 -0.957436 0.018784 -0.519754 0.000000 0.000000
    27 -1.180681 -2.507217 -0.193859 -0.873937 -0.068285 -0.359963
    28 -0.024967 -1.123934 0.017597 -1.152494 0.000000 0.000001
    29 -0.020057 -0.890968 0.010090 -0.933448 0.000000 0.000000
    30 0.583510 -1.197277 0.185379 0.316258 -1.087026 -0.583548
    31 1.535927 0.010246 0.005009 0.347010 -0.308555 -0.883772
    32 1.100771 0.004527 -0.010679 -0.011449 0.011491 -0.607443
    33 0.120153 -0.050270 -0.054489 0.287569 3.110905 1.561085
    34 0.447953 -2.798986 -0.200443 -1.288743 -0.126508 -0.047440
    35 -0.032909 -1.480204 0.004940 -1.413638 0.000000 0.000002
    36 -0.027022 -1.076920 -0.020210 -1.481391 0.000000 0.000000
    37 -0.249534 -2.846964 -0.174213 -1.185159 -0.135815 -0.084786
    38 0.043235 -1.683941 0.096012 -1.469808 0.002823 -0.000167
    39 0.031729 -1.160830 0.058838 -1.698243 0.000642 0.008372
    40 -0.963866 -2.785145 -0.085350 -1.178736 -0.085997 -0.167475
    41 0.028479 -1.403067 0.006271 -1.158128 0.000000 0.000000
    42 0.021413 -0.957781 0.020046 -1.216858 0.000000 0.000000
    43 1.164475 -2.543940 -0.170330 -0.973241 -0.306425 0.042666
    44 0.024032 -1.129042 0.017807 -1.373633 0.000000 0.000001
    45 0.014898 -0.883989 -0.019848 -1.314671 0.000000 0.000000
    46 -0.586770 -1.264477 0.200161 -0.276779 -0.716323 -2.528368
    47 1.522835 0.058681 0.016848 -0.056991 -0.266265 0.714257
    48 1.117947 0.048424 -0.005766 -0.016374 -0.019146 0.763702
    49 -0.139399 -0.111698 0.014397 0.285382 -0.030687 1.580508
    50 -1.393470 8.839177 -0.239433 1.580804 -0.005023 -1.566847
  time 3
    0 0.000000 0.761742 0.000000 -0.022811 0.000000 -0.000016
    1 7.747556 5.726923 -6.642266 1.276003 -1.619030 -1.385045
    2 -0.071918 -8.498729 -0.104137 0.233264 0.229964 0.027316
    3 1.861052 -2.316011 1.422734 0.139416 0.201012 -3.172999
    4 1.111351 2.047762 0.000000 0.000000 0.000000 0.000000
    5 -2.197709 3.248277 -0.000006 0.000001 0.000000 3.141592
    6 -1.583559 8.236366 0.386643 1.570797 -1.570796 0.000000
    7 -0.609616 11.483512 -0.000014 0.000000 0.000001 1.570796
    8 0.249077 5.246643 -0.000014 -0.000001 0.000000 0.226893
    9 -1.309863 -7.033240 -10.273580 -2.110829 -5.190259 -1.381975
    10 0.096944 -8.450419 -0.009364 0.264536 -0.233694 0.292775
    11 5.284078 16.225037 55.362292 -2.676192 -1.216110 0.861362
    12 -2.196302 -3.238963 0.258082 0.072146 -0.010897 3.141198
    13 -1.583562 -10.474718 0.386644 -1.589286 1.570796 0.000000
    14 0.251131 -5.233087 0.375461 -0.072749 -0.005596 -0.226690
    15 -0.605067 -11.453402 0.834369 -0.010926 -0.072142 -1.570402
    16 1.112089 -2.042870 0.135495 -0.072147 0.010897 -0.000393
    17 1.257180 8.762585 -0.153713 -1.570562 0.002683 -1.566807
    18 -0.488518 -2.755602 -0.228260 -1.085960 -0.191560 -0.439285
    19 0.039887 -1.479790 0.029854 -0.928033 0.000000 0.000001
    20 0.028786 -1.075731 -0.023109 -1.481404 0.000000 0.000000
    21 0.250027 -2.820665 -0.238396 -0.892857 -0.160399 -0.409458
    22 -0.049759 -1.680544 0.100479 -1.289132 0.000000 -0.000002
    23 -0.034142 -1.148312 0.084782 -1.087270 0.000000 0.000000
    24 0.957766 -2.746780 -0.090302 -0.208375 -0.395425 -0.120125
    25 -0.033420 -1.397129 -0.011257 -0.691832 0.124808 -0.122316
    26 -0.022360 -0.957436 0.018784 -0.519754 0.000000 0.000000
    27 -1.180681 -2.507217 -0.193859 -0.873937 -0.068285 -0.359963
    28 -0.024967 -1.123934 0.017597 -1.152494 0.000000 0.000001
    29 -0.020057 -0.890968 0.010090 -0.933448 0.000000 0.000000
    30 0.583510 -1.197277 0.185379 0.316258 -1.087026 -0.583548
    31 1.535927 0.010246 0.005009 0.347010 -0.308555 -0.883745
    32 1.100771 0.004527 -0.010679 -0.011449 0.011491 -0.607443
    33 0.120153 -0.050270 -0.054489 0.287569 3.110905 1.561085
    34 0.447953 -2.798986 -0.200443 -1.333978 -0.126508 -0.047440
    35 -0.032909 -1.480204 0.004940 -1.413638 0.000000 0.000002
    36 -0.027022 -1.076920 -0.020210 -1.481391 0.000000 0.000000
    37 -0.249534 -2.846964 -0.174213 -1.230394 -0.135815 -0.084786
    38 0.043235 -1.683941 0.096012 -1.469808 0.002823 -0.000167
    39 0.031729 -1.160830 0.058838 -1.698243 0.000642 0.008372
    40 -0.963866 -2.785145 -0.085350 -1.223997 -0.085997 -0.167475
    41 0.028479 -1.403067 0.006271 -1.158128 0.000000 0.000000
    42 0.021413 -0.957781 0.020046 -1.216858 0.000000 0.000000
    43 1.164475 -2.543940 -0.170330 -1.018488 -0.306425 0.042666
    44 0.024032 -1.129042 0.017807 -1.373633 0.000000 0.000001
    45 0.014898 -0.883989 -0.019848 -1.314671 0.000000 0.000000
    46 -0.586770 -1.264477 0.200161 -0.276779 -0.716323 -2.528368
    47 1.522835 0.058681 0.016848 -0.063906 -0.313520 0.737081
    48 1.117947 0.048424 -0.005766 -0.016374 -0.019146 0.763702
    49 -0.139399 -0.111698 0.014397 0.285382 -0.030687 1.580508
    50 -1.393470 8.839177 -0.239433 1.580804 -0.005023 -1.566847
  time 4
    0 0.000000 0.644551 0.000000 -0.038471 0.000000 -0.000016
    1 7.747556 5.726923 -6.642266 1.276003 -1.619030 -1.385045
    2 -0.071918 -8.498729 -0.104137 0.233264 0.229964 0.027316
    3 1.861052 -2.316011 1.422734 0.139416 0.201012 -3.172999
    4 1.111351 2.047762 0.000000 0.000000 0.000000 0.000000
    5 -2.197709 3.248277 -0.000006 0.000001 0.000000 3.141592
    6 -1.583559 8.962950 0.386643 1.570797 -1.570796 0.000000
    7 -0.609616 11.483512 -0.000014 0.000000 0.000001 1.570796
    8 0.249077 5.246643 -0.000014 -0.000001 0.000000 0.226893
    9 -1.309863 -7.033240 -10.273580 -2.110829 -5.190259 -1.381975
    10 0.096944 -8.450419 -0.009364 0.260786 -0.233694 0.292775
    11 5.284078 16.225037 55.362292 -2.676192 -1.216110 0.861362
    12 -2.196302 -3.238963 0.258082 0.072146 -0.010897 3.141198
    13 -1.583562 -10.474718 0.386644 -1.589286 1.570796 0.000000
    14 0.251131 -5.233087 0.375461 -0.072749 -0.005596 -0.226690
    15 -0.605067 -11.453402 0.834369 -0.010926 -0.072142 -1.570402
    16 1.112089 -2.042870 0.135495 -0.072147 0.010897 -0.000393
    17 1.257180 8.762585 -0.153713 -1.570562 0.002683 -1.566807
    18 -0.488518 -2.755602 -0.228260 -1.085960 -0.191560 -0.439285
    19 0.039887 -1.479790 0.029854 -0.928033 0.000000 0.000001
    20 0.028786 -1.075731 -0.023109 -1.481404 0.000000 0.000000
    21 0.250027 -2.820665 -0.238396 -0.892857 -0.160399 -0.409458
    22 -0.049759 -1.680544 0.100479 -1.289132 0.000000 -0.000002
    23 -0.034142 -1.148312 0.084782 -1.087270 0.000000 0.000000
    24 0.957766 -2.746780 -0.090302 -0.208375 -0.395425 -0.120125
    25 -0.033420 -1.397129 -0.011257 -0.691832 0.124808 -0.122316
    26 -0.022360 -0.957436 0.018784 -0.519754 0.000000 0.000000
    27 -1.180681 -2.507217 -0.193859 -0.873937 -0.068285 -0.359963
    28 -0.024967 -1.123934 0.017597 -1.152494 0.000000 0.000001
    29 -0.020057 -0.890968 0.010090 -0.933448 0.000000 0.000000
    30 0.583510 -1.197277 0.185379 0.316258 -1.087026 -0.583548
    31 1.535927 0.010246 0.005009 0.347010 -0.308555 -0.883745
    32 1.100771 0.004527 -0.010679 -0.011449 0.011491 -0.607443
    33 0.120153 -0.050270 -0.054489 0.287569 3.110905 1.561085
    34 0.447953 -2.798986 -0.200443 -1.324351 -0.126508 -0.047440
    35 -0.032909 -1.480204 0.004940 -1.413638 0.000000 0.000002
    36 -0.027022 -1.076920 -0.020210 -1.481391 0.000000 0.000000
    37 -0.249534 -2.846964 -0.174213 -1.220765 -0.135815 -0.084786
    38 0.043235 -1.683941 0.096012 -1.469808 0.002823 -0.000167
    39 0.031729 -1.160830 0.058838 -1.698243 0.000642 0.008372
    40 -0.963866 -2.785145 -0.085350 -1.214311 -0.085997 -0.167475
    41 0.028479 -1.403067 0.006271 -1.158128 0.000000 0.000000
    42 0.021413 -0.957781 0.020046 -1.216858 0.000000 0.000000
    43 1.164475 -2.543940 -0.170330 -1.008841 -0.306425 0.042666
    44 0.024032 -1.129042 0.017807 -1.373633 0.000000 0.000001
    45 0.014898 -0.883989 -0.019848 -1.314671 0.000000 0.000000
    46 -0.586770 -1.264477 0.200161 -0.276779 -0.716323 -2.528368
    47 1.522835 0.058681 0.016848 -0.062432 -0.303417 0.732213
    48 1.117947 0.048424 -0.005766 -0.016374 -0.019146 0.763702
    49 -0.139399 -0.111698 0.014397 0.285382 -0.030687 1.580508
    50 -1.393470 8.839177 -0.239433 1.580804 -0.005023 -1.566847
  time 5
    0 0.000000 0.507828 0.000000 -0.045621 0.000000 -0.000016
    1 7.747556 5.726923 -6.642266 1.276003 -1.619030 -1.385045
    2 -0.071918 -8.498729 -0.104137 0.233264 0.229964 0.027316
    3 1.861052 -2.316011 1.422734 0.139416 0.201012 -3.172999
    4 1.111351 2.047762 0.000000 0.000000 0.000000 0.000000
    5 -2.197709 3.248277 -0.000006 0.000001 0.000000 3.141592
    6 -1.583559 9.693441 0.386643 1.570797 -1.570796 0.000000
    7 -0.609616 11.483512 -0.000014 0.000000 0.000001 1.570796
    8 0.249077 5.246643 -0.000014 -0.000001 0.000000 0.226893
    9 -1.309863 -7.033240 -10.273580 -2.110829 -5.190259 -1.381975
    10 0.096944 -8.450419 -0.009364 0.251904 -0.233694 0.292775
    11 5.284078 16.225037 55.362292 -2.676192 -1.216110 0.861362
    12 -2.196302 -3.238963 0.258082 0.072146 -0.010897 3.141198
    13 -1.583562 -10.474718 0.386644 -1.589286 1.570317 0.000000
    14 0.251131 -5.233087 0.375461 -0.072749 -0.005596 -0.226690
    15 -0.605067 -11.453402 0.834369 -0.010926 -0.072142 -1.570402
    16 1.112089 -2.042870 0.135495 -0.072147 0.010897 -0.000393
    17 1.257180 8.762585 -0.153713 -1.570562 0.002683 -1.566807
    18 -0.488518 -2.755602 -0.228260 -1.085960 -0.191560 -0.439285
    19 0.039887 -1.479790 0.029854 -0.928033 0.000000 0.000001
    20 0.028786 -1.075731 -0.023109 -1.481404 0.000000 0.000000
    21 0.250027 -2.820665 -0.238396 -0.892857 -0.160399 -0.409458
    22 -0.049759 -1.680544 0.100479 -1.289132 0.000000 -0.000002
    23 -0.034142 -1.148312 0.084782 -1.087270 0.000000 0.000000
    24 0.957766 -2.746780 -0.090302 -0.208375 -0.395425 -0.120125
    25 -0.033420 -1.397129 -0.011257 -0.691832 0.124808 -0.122316
    26 -0.022360 -0.957436 0.018784 -0.519754 0.000000 0.000000
    27 -1.180681 -2.507217 -0.193859 -0.873937 -0.068285 -0.359963
    28 -0.024967 -1.123934 0.017597 -1.152494 0.000000 0.000001
    29 -0.020057 -0.890968 0.010090 -0.933448 0.000000 0.000000
    30 0.583510 -1.197277 0.185379 0.316258 -1.087026 -0.583548
    31 1.535927 0.010246 0.005009 0.347010 -0.308555 -0.883745
    32 1.100771 0.004527 -0.010679 -0.011449 0.011491 -0.607443
    33 0.120153 -0.050270 -0.054489 0.287569 3.110905 1.561085
    34 0.447953 -2.798986 -0.200443 -1.299382 -0.126508 -0.047440
    35 -0.032909 -1.480204 0.004940 -1.413638 0.000000 0.000002
    36 -0.027022 -1.076920 -0.020210 -1.481391 0.000000 0.000000
    37 -0.249534 -2.846964 -0.174213 -1.195798 -0.135815 -0.084786
    38 0.043235 -1.683941 0.096012 -1.469808 0.002823 -0.000167
    39 0.031729 -1.160830 0.058838 -1.698243 0.000642 0.008372
    40 -0.963866 -2.785145 -0.085350 -1.189379 -0.085997 -0.167475
    41 0.028479 -1.403067 0.006271 -1.158128 0.000000 0.000000
    42 0.021413 -0.957781 0.020046 -1.216858 0.000000 0.000000
    43 1.164475 -2.543940 -0.170330 -0.983898 -0.306425 0.042666
    44 0.024032 -1.129042 0.017807 -1.373633 0.000000 0.000001
    45 0.014898 -0.883989 -0.019848 -1.314671 0.000000 0.000000
    46 -0.586770 -1.264477 0.200161 -0.276779 -0.716323 -2.528368
    47 1.522835 0.058681 0.016848 -0.058621 -0.277375 0.719630
    48 1.117947 0.048424 -0.005766 -0.016374 -0.019146 0.763702
    49 -0.139399 -0.111698 0.014397 0.285382 -0.030687 1.580508
    50 -1.393470 8.839177 -0.239433 1.580804 -0.005023 -1.566847
  time 6
    0 0.000000 0.363292 0.000000 -0.042066 0.000000 -0.000016
    1 7.747556 5.726923 -6.642266 1.276003 -1.619030 -1.385045
    2 -0.071918 -8.498729 -0.104137 0.233264 0.229964 0.027316
    3 1.861052 -2.316011 1.422734 0.139416 0.201012 -3.172999
    4 1.111351 2.047762 0.000000 0.000000 0.000000 0.000000
    5 -2.197709 3.248277 -0.000006 0.000001 0.000000 3.141592
    6 -1.583559 10.252052 0.386643 1.570797 -1.570796 0.000000
    7 -0.609616 11.483512 -0.000014 0.000000 0.000001 1.570796
    8 0.249077 5.246643 -0.000014 -0.000001 0.000000 0.226893
    9 -1.309863 -7.033240 -10.273580 -2.110829 -5.190259 -1.381975
    10 0.096944 -8.450419 -0.009364 0.241280 -0.233694 0.292775
    11 5.284078 16.225037 55.362292 -2.676192 -1.216110 0.861362
    12 -2.196302 -3.238963 0.258082 0.072146 -0.010897 3.141198
    13 -1.583562 -10.474718 0.386644 -1.589286 1.570796 0.000000
    14 0.251131 -5.233087 0.375461 -0.072749 -0.005596 -0.226690
    15 -0.605067 -11.453402 0.834369 -0.010926 -0.072142 -1.570402
    16 1.112089 -2.042870 0.135495 -0.072147 0.010897 -0.000393
    17 1.257180 8.762585 -0.153713 -1.570562 0.002683 -1.566807
    18 -0.488518 -2.755602 -0.228260 -1.085960 -0.191560 -0.439285
    19 0.039887 -1.479790 0.029854 -0.928033 0.000000 0.000001
    20 0.028786 -1.075731 -0.023109 -1.481404 0.000000 0.000000
    21 0.250027 -2.820665 -0.238396 -0.892857 -0.160399 -0.409458
    22 -0.049759 -1.680544 0.100479 -1.289132 0.000000 -0.000002
    23 -0.034142 -1.148312 0.084782 -1.087270 0.000000 0.000000
    24 0.957766 -2.746780 -0.090302 -0.208375 -0.395425 -0.120125
    25 -0.033420 -1.397129 -0.011257 -0.691832 0.124808 -0.122316
    26 -0.022360 -0.957436 0.018784 -0.519754 0.000000 0.000000
    27 -1.180681 -2.507217 -0.193859 -0.873937 -0.068285 -0.359963
    28 -0.024967 -1.123934 0.017597 -1.152494 0.000000 0.000001
    29 -0.020057 -0.890968 0.010090 -0.933448 0.000000 0.000000
    30 0.583510 -1.197277 0.185379 0.316258 -1.087026 -0.583548
    31 1.535927 0.010246 0.005009 0.347010 -0.308555 -0.883772
    32 1.100771 0.004527 -0.010679 -0.011449 0.011491 -0.607443
    33 0.120153 -0.050270 -0.054489 0.287569 3.110905 1.561085
    34 0.447953 -2.798986 -0.200443 -1.265313 -0.126508 -0.047440
    35 -0.032909 -1.480204 0.004940 -1.413638 0.000000 0.000002
    36 -0.027022 -1.076920 -0.020210 -1.481391 0.000000 0.000000
    37 -0.249534 -2.846964 -0.174213 -1.161706 -0.135815 -0.084786
    38 0.043235 -1.683941 0.096012 -1.469808 0.002823 -0.000167
    39 0.031729 -1.160830 0.058838 -1.698243 0.000642 0.008372
    40 -0.963866 -2.785145 -0.085350 -1.155276 -0.085997 -0.167475
    41 0.028479 -1.403067 0.006271 -1.158128 0.000000 0.000000
    42 0.021413 -0.957781 0.020046 -1.216858 0.000000 0.000000
    43 1.164475 -2.543940 -0.170330 -0.949811 -0.306425 0.042666
    44 0.024032 -1.129042 0.017807 -1.373633 0.000000 0.000001
    45 0.014898 -0.883989 -0.019848 -1.314671 0.000000 0.000000
    46 -0.586770 -1.264477 0.200161 -0.276779 -0.716323 -2.528368
    47 1.522835 0.058681 0.016848 -0.053396 -0.241781 0.702420
    48 1.117947 0.048424 -0.005766 -0.016374 -0.019146 0.763702
    49 -0.139399 -0.111698 0.014397 0.285382 -0.030687 1.580508
    50 -1.393470 8.839177 -0.239433 1.580804 -0.005023 -1.566847
  time 7
    0 0.000000 0.222663 0.000000 -0.032918 0.000000 -0.000016
    1 7.747556 5.726923 -6.642266 1.276003 -1.619030 -1.385045
    2 -0.071918 -8.498729 -0.104137 0.233264 0.229964 0.027316
    3 1.861052 -2.316011 1.422734 0.139416 0.201012 -3.172999
    4 1.111351 2.047762 0.000000 0.000000 0.000000 0.000000
    5 -2.197709 3.248277 -0.000006 0.000001 0.000000 3.141592
    6 -1.583559 10.474715 0.386643 1.570797 -1.570796 0.000000
    7 -0.609616 11.483512 -0.000014 0.000000 0.000001 1.570796
    8 0.249077 5.246643 -0.000014 -0.000001 0.000000 0.226893
    9 -1.309863 -7.033240 -10.273580 -2.110829 -5.190259 -1.381975
    10 0.096944 -8.450419 -0.009364 0.232353 -0.233694 0.292775
    11 5.284078 16.225037 55.362292 -2.676192 -1.216110 0.861362
    12 -2.196302 -3.238963 0.258082 0.072146 -0.010897 3.141198
    13 -1.583562 -10.474718 0.386644 -1.589286 1.570796 0.000000
    14 0.251131 -5.233087 0.375461 -0.072749 -0.005596 -0.226690
    15 -0.605067 -11.453402 0.834369 -0.010926 -0.072142 -1.570402
    16 1.112089 -2.042870 0.135495 -0.072147 0.010897 -0.000393
    17 1.257180 8.762585 -0.153713 -1.570562 0.002683 -1.566807
    18 -0.488518 -2.755602 -0.228260 -1.085960 -0.191560 -0.439285
    19 0.039887 -1.479790 0.029854 -0.928033 0.000000 0.000001
    20 0.028786 -1.075731 -0.023109 -1.481404 0.000000 0.000000
    21 0.250027 -2.820665 -0.238396 -0.892857 -0.160399 -0.409458
    22 -0.049759 -1.680544 0.100479 -1.289132 0.000000 -0.000002
    23 -0.034142 -1.148312 0.084782 -1.087312 0.000000 0.000000
    24 0.957766 -2.746780 -0.090302 -0.208375 -0.395425 -0.120125
    25 -0.033420 -1.397129 -0.011257 -0.691832 0.124808 -0.122316
    26 -0.022360 -0.957436 0.018784 -0.519754 0.000000 0.000000
    27 -1.180681 -2.507217 -0.193859 -0.873937 -0.068285 -0.359963
    28 -0.024967 -1.123934 0.017597 -1.152494 0.000000 0.000001
    29 -0.020057 -0.890968 0.010090 -0.933448 0.000000 0.000000
    30 0.583510 -1.197277 0.185379 0.316258 -1.087026 -0.583548
    31 1.535927 0.010246 0.005009 0.347010 -0.308555 -0.883745
    32 1.100771 0.004527 -0.010679 -0.011449 0.011491 -0.607443
    33 0.120153 -0.050270 -0.054489 0.287569 3.110905 1.561085
    34 0.447953 -2.798986 -0.200443 -1.228167 -0.126508 -0.047440
    35 -0.032909 -1.480204 0.004940 -1.413638 0.000000 0.000002
    36 -0.027022 -1.076920 -0.020210 -1.481391 0.000000 0.000000
    37 -0.249534 -2.846964 -0.174213 -1.124586 -0.135815 -0.084786
    38 0.043235 -1.683941 0.096012 -1.469808 0.002823 -0.000167
    39 0.031729 -1.160830 0.058838 -1.698243 0.000642 0.008372
    40 -0.963866 -2.785145 -0.085350 -1.118154 -0.085997 -0.167475
    41 0.028479 -1.403067 0.006271 -1.158128 0.000000 0.000000
    42 0.021413 -0.957781 0.020046 -1.216858 0.000000 0.000000
    43 1.164475 -2.543940 -0.170330 -0.912666 -0.306425 0.042666
    44 0.024032 -1.129042 0.017807 -1.373633 0.000000 0.000001
    45 0.014898 -0.883989 -0.019848 -1.314671 0.000000 0.000000
    46 -0.586770 -1.264477 0.200161 -0.276779 -0.716323 -2.528368
    47 1.522835 0.058681 0.016848 -0.047715 -0.202986 0.683666
    48 1.117947 0.048424 -0.005766 -0.016374 -0.019146 0.763702
    49 -0.139399 -0.111698 0.014397 0.285382 -0.030687 1.580508
    50 -1.393470 8.839177 -0.239433 1.580804 -0.005023 -1.566847
  time 8
    0 0.000000 0.109378 0.000000 -0.020414 0.000000 -0.000016
    1 7.747556 5.726923 -6.642266 1.276003 -1.619030 -1.385045
    2 -0.071918 -8.498729 -0.104137 0.233264 0.229964 0.027316
    3 1.861052 -2.316011 1.422734 0.139416 0.201012 -3.172999
    4 1.111351 2.047762 0.000000 0.000000 0.000000 0.000000
    5 -2.197709 3.248277 -0.000006 0.000001 0.000000 3.141592
    6 -1.583559 10.474715 0.386643 1.570797 -1.570796 0.000000
    7 -0.609616 11.483512 -0.000014 0.000000 0.000001 1.570796
    8 0.249077 5.246643 -0.000014 -0.000001 0.000000 0.226893
    9 -1.309863 -7.033240 -10.273580 -2.110829 -5.190259 -1.381975
    10 0.096944 -8.450419 -0.009364 0.228648 -0.233694 0.292775
    11 5.284078 16.225037 55.362292 -2.676192 -1.216110 0.861362
    12 -2.196302 -3.238963 0.258082 0.072146 -0.010897 3.141198
    13 -1.583562 -10.474718 0.386644 -1.589286 1.570796 0.000000
    14 0.251131 -5.233087 0.375461 -0.072749 -0.005596 -0.226690
    15 -0.605067 -11.453402 0.834369 -0.010926 -0.072142 -1.570402
    16 1.112089 -2.042870 0.135495 -0.072147 0.010897 -0.000393
    17 1.257180 8.762585 -0.153713 -1.570562 0.002683 -1.566807
    18 -0.488518 -2.755602 -0.228260 -1.085960 -0.191560 -0.439285
    19 0.039887 -1.479790 0.029854 -0.928033 0.000000 0.000001
    20 0.028786 -1.075731 -0.023109 -1.481404 0.000000 0.000000
    21 0.250027 -2.820665 -0.238396 -0.892857 -0.160399 -0.409458
    22 -0.049759 -1.680544 0.100479 -1.289132 0.000000 -0.000002
    23 -0.034142 -1.148312 0.084782 -1.087270 0.000000 0.000000
    24 0.957766 -2.746780 -0.090302 -0.208375 -0.395425 -0.120125
    25 -0.033420 -1.397129 -0.011257 -0.691832 0.124808 -0.122316
    26 -0.022360 -0.957436 0.018784 -0.519754 0.000000 0.000000
    27 -1.180681 -2.507217 -0.193859 -0.873937 -0.068285 -0.359963
    28 -0.024967 -1.123934 0.017597 -1.152494 0.000000 0.000001
    29 -0.020057 -0.890968 0.010090 -0.933448 0.000000 0.000000
    30 0.583510 -1.197277 0.185379 0.316258 -1.087026 -0.583548
    31 1.535927 0.010246 0.005009 0.347010 -0.308555 -0.883745
    32 1.100771 0.004527 -0.010679 -0.011449 0.011491 -0.607443
    33 0.120153 -0.050270 -0.054489 0.287569 3.110905 1.561085
    34 0.447953 -2.798986 -0.200443 -1.194054 -0.126508 -0.047440
    35 -0.032909 -1.480204 0.004940 -1.413638 0.000000 0.000002
    36 -0.027022 -1.076920 -0.020210 -1.481391 0.000000 0.000000
    37 -0.249534 -2.846964 -0.174213 -1.090495 -0.135815 -0.084786
    38 0.043235 -1.683941 0.096012 -1.469808 0.002823 -0.000167
    39 0.031729 -1.160830 0.058838 -1.698243 0.000642 0.008372
    40 -0.963866 -2.785145 -0.085350 -1.084052 -0.085997 -0.167475
    41 0.028479 -1.403067 0.006271 -1.158128 0.000000 0.000000
    42 0.021413 -0.957781 0.020046 -1.216858 0.000000 0.000000
    43 1.164475 -2.543940 -0.170330 -0.878579 -0.306425 0.042666
    44 0.024032 -1.129042 0.017807 -1.373633 0.000000 0.000001
    45 0.014898 -0.883989 -0.019848 -1.314671 0.000000 0.000000
    46 -0.586770 -1.264477 0.200161 -0.276779 -0.716323 -2.528368
    47 1.522835 0.058681 0.016848 -0.042490 -0.167380 0.666455
    48 1.117947 0.048424 -0.005766 -0.016374 -0.019146 0.763702
    49 -0.139399 -0.111698 0.014397 0.285382 -0.030687 1.580508
    50 -1.393470 8.839177 -0.239433 1.580804 -0.005023 -1.566847
  time 9
    0 0.000000 0.027345 0.000000 -0.006831 0.000000 -0.000016
    1 7.747556 5.726923 -6.642266 1.276003 -1.619030 -1.385045
    2 -0.071918 -8.498729 -0.104137 0.233264 0.229964 0.027316
    3 1.861052 -2.316011 1.422734 0.139416 0.201012 -3.172999
    4 1.111351 2.047762 0.000000 0.000000 0.000000 0.000000
    5 -2.197709 3.248277 -0.000006 0.000001 0.000000 3.141592
    6 -1.583559 10.474715 0.386643 1.570797 -1.570796 0.000000
    7 -0.609616 11.483512 -0.000014 0.000000 0.000001 1.570796
    8 0.249077 5.246643 -0.000014 -0.000001 0.000000 0.226893
    9 -1.309863 -7.033240 -10.273580 -2.110829 -5.190259 -1.381975
    10 0.096944 -8.450419 -0.009364 0.228648 -0.233694 0.292775
    11 5.284078 16.225037 55.362292 -2.676192 -1.216110 0.861362
    12 -2.196302 -3.238963 0.258082 0.072146 -0.010897 3.141198
    13 -1.583562 -10.474718 0.386644 -1.589286 1.570796 0.000000
    14 0.251131 -5.233087 0.375461 -0.072749 -0.005596 -0.226690
    15 -0.605067 -11.453402 0.834369 -0.010926 -0.072142 -1.570402
    16 1.112089 -2.042870 0.135495 -0.072147 0.010897 -0.000393
    17 1.257180 8.762585 -0.153713 -1.570562 0.002683 -1.566807
    18 -0.488518 -2.755602 -0.228260 -1.085960 -0.191560 -0.439285
    19 0.039887 -1.479790 0.029854 -0.928033 0.000000 0.000001
    20 0.028786 -1.075731 -0.023109 -1.481404 0.000000 0.000000
    21 0.250027 -2.820665 -0.238396 -0.892857 -0.160399 -0.409458
    22 -0.049759 -1.680544 0.100479 -1.289132 0.000000 -0.000002
    23 -0.034142 -1.148312 0.084782 -1.087270 0.000000 0.000000
    24 0.957766 -2.746780 -0.090302 -0.208375 -0.395425 -0.120125
    25 -0.033420 -1.397129 -0.011257 -0.691832 0.124808 -0.122316
    26 -0.022360 -0.957436 0.018784 -0.519754 0.000000 0.000000
    27 -1.180681 -2.507217 -0.193859 -0.873937 -0.068285 -0.359963
    28 -0.024967 -1.123934 0.017597 -1.152494 0.000000 0.000001
    29 -0.020057 -0.890968 0.010090 -0.933448 0.000000 0.000000
    30 0.583510 -1.197277 0.185379 0.316258 -1.087026 -0.583548
    31 1.535927 0.010246 0.005009 0.347010 -0.308555 -0.883772
    32 1.100771 0.004527 -0.010679 -0.011449 0.011491 -0.607443
    33 0.120153 -0.050270 -0.054489 0.287569 3.110905 1.561085
    34 0.447953 -2.798986 -0.200443 -1.169128 -0.126508 -0.047440
    35 -0.032909 -1.480204 0.004940 -1.413638 0.000000 0.000002
    36 -0.027022 -1.076920 -0.020210 -1.481391 0.000000 0.000000
    37 -0.249534 -2.846964 -0.174213 -1.065567 -0.135815 -0.084786
    38 0.043235 -1.683941 0.096012 -1.469808 0.002823 -0.000167
    39 0.031729 -1.160830 0.058838 -1.698243 0.000642 0.008372
    40 -0.963866 -2.785145 -0.085350 -1.059119 -0.085997 -0.167475
    41 0.028479 -1.403067 0.006271 -1.158128 0.000000 0.000000
    42 0.021413 -0.957781 0.020046 -1.216858 0.000000 0.000000
    43 1.164475 -2.543940 -0.170330 -0.853636 -0.306425 0.042666
    44 0.024032 -1.129042 0.017807 -1.373633 0.000000 0.000001
    45 0.014898 -0.883989 -0.019848 -1.314671 0.000000 0.000000
    46 -0.586770 -1.264477 0.200161 -0.276779 -0.716323 -2.528368
    47 1.522835 0.058681 0.016848 -0.038678 -0.141338 0.653873
    48 1.117947 0.048424 -0.005766 -0.016374 -0.019146 0.763702
    49 -0.139399 -0.111698 0.014397 0.285382 -0.030687 1.580508
    50 -1.393470 8.839177 -0.239433 1.580804 -0.005023 -1.566847
  time 10
    0 0.000000 0.000000 0.000000 0.005633 0.000000 -0.000016
    1 7.747556 5.726923 -6.642266 1.276003 -1.619030 -1.385045
    2 -0.071918 -8.498729 -0.104137 0.233264 0.229964 0.027316
    3 1.861052 -2.316011 1.422734 0.139416 0.201012 -3.172999
    4 1.111351 2.047762 0.000000 0.000000 0.000000 0.000000
    5 -2.197709 3.248277 -0.000006 0.000001 0.000000 3.141592
    6 -1.583559 10.474715 0.386643 1.570797 -1.570796 0.000000
    7 -0.609616 11.483512 -0.000014 0.000000 0.000001 1.570796
    8 0.249077 5.246643 -0.000014 -0.000001 0.000000 0.226893
    9 -1.309863 -7.033240 -10.273580 -2.110829 -5.190259 -1.381975
    10 0.096944 -8.450419 -0.009364 0.228648 -0.233694 0.292775
    11 5.284078 16.225037 55.362292 -2.676192 -1.216110 0.861362
    12 -2.196302 -3.238963 0.258082 0.072146 -0.010897 3.141198
    13 -1.583562 -10.474718 0.386644 -1.589286 1.570796 0.000000
    14 0.251131 -5.233087 0.375461 -0.072749 -0.005596 -0.226690
    15 -0.605067 -11.453402 0.834369 -0.010926 -0.072142 -1.570402
    16 1.112089 -2.042870 0.135495 -0.072147 0.010897 -0.000393
    17 1.257180 8.762585 -0.153713 -1.570562 0.002683 -1.566807
    18 -0.488518 -2.755602 -0.228260 -1.085960 -0.191560 -0.439285
    19 0.039887 -1.479790 0.029854 -0.928033 0.000000 0.000001
    20 0.028786 -1.075731 -0.023109 -1.481404 0.000000 0.000000
    21 0.250027 -2.820665 -0.238396 -0.892857 -0.160399 -0.409458
    22 -0.049759 -1.680544 0.100479 -1.289132 0.000000 -0.000002
    23 -0.034142 -1.148312 0.084782 -1.087312 0.000000 0.000000
    24 0.957766 -2.746780 -0.090302 -0.208375 -0.395425 -0.120125
    25 -0.033420 -1.397129 -0.011257 -0.691832 0.124808 -0.122316
    26 -0.022360 -0.957436 0.018784 -0.519754 0.000000 0.000000
    27 -1.180681 -2.507217 -0.193859 -0.873937 -0.068285 -0.359963
    28 -0.024967 -1.123934 0.017597 -1.152494 0.000000 0.000001
    29 -0.020057 -0.890968 0.010090 -0.933448 0.000000 0.000000
    30 0.583510 -1.197277 0.185379 0.316258 -1.087026 -0.583548
    31 1.535927 0.010246 0.005009 0.347010 -0.308555 -0.883745
    32 1.100771 0.004527 -0.010679 -0.011449 0.011491 -0.607443
    33 0.120153 -0.050270 -0.054489 0.287569 3.110905 1.561085
    34 0.447953 -2.798986 -0.200443 -1.159457 -0.126508 -0.047440
    35 -0.032909 -1.480204 0.004940 -1.413638 0.000000 0.000002
    36 -0.027022 -1.076920 -0.020210 -1.481391 0.000000 0.000000
    37 -0.249534 -2.846964 -0.174213 -1.055898 -0.135815 -0.084786
    38 0.043235 -1.683941 0.096012 -1.469808 0.002823 -0.000167
    39 0.031729 -1.160830 0.058838 -1.698243 0.000642 0.008372
    40 -0.963866 -2.785145 -0.085350 -1.049434 -0.085997 -0.167475
    41 0.028479 -1.403067 0.006271 -1.158128 0.000000 0.000000
    42 0.021413 -0.957781 0.020046 -1.216858 0.000000 0.000000
    43 1.164475 -2.543940 -0.170330 -0.843988 -0.306425 0.042666
    44 0.024032 -1.129042 0.017807 -1.373633 0.000000 0.000001
    45 0.014898 -0.883989 -0.019848 -1.314671 0.000000 0.000000
    46 -0.586770 -1.264477 0.200161 -0.276779 -0.716323 -2.528368
    47 1.522835 0.058681 0.016848 -0.037192 -0.131247 0.649005
    48 1.117947 0.048424 -0.005766 -0.016374 -0.019146 0.763702
    49 -0.139399 -0.111698 0.014397 0.285382 -0.030687 1.580508
    50 -1.393470 8.839177 -0.239433 1.580804 -0.005023 -1.566847
  time 11
    0 0.000000 0.000000 -0.003906 0.014781 0.000000 -0.000016
    1 7.747556 5.726923 -6.642266 1.276003 -1.619030 -1.385045
    2 -0.071918 -8.498729 -0.104137 0.233264 0.229964 0.027316
    3 1.861052 -2.316011 1.422734 0.139416 0.201012 -3.172999
    4 1.111351 2.047762 0.000000 0.000000 0.000000 0.000000
    5 -2.197709 3.248277 -0.000006 0.000001 0.000000 3.141592
    6 -1.583559 10.474715 0.386643 1.570797 -1.570796 0.000000
    7 -0.609616 11.483512 -0.000014 0.000000 0.000001 1.570796
    8 0.249077 5.246643 -0.000014 -0.000001 0.000000 0.226893
    9 -1.309863 -7.033240 -10.273580 -2.110829 -5.190259 -1.381975
    10 0.096944 -8.450419 -0.009364 0.228648 -0.233694 0.292775
    11 5.284078 16.225037 55.362292 -2.676192 -1.216110 0.861362
    12 -2.196302 -3.238963 0.258082 0.072146 -0.010897 3.141198
    13 -1.583562 -10.474718 0.386644 -1.589286 1.570796 0.000000
    14 0.251131 -5.233087 0.375461 -0.072749 -0.005596 -0.226690
    15 -0.605067 -11.453402 0.834369 -0.010926 -0.072142 -1.570402
    16 1.112089 -2.042870 0.135495 -0.072147 0.010897 -0.000393
    17 1.257180 8.762585 -0.153713 -1.570562 0.002683 -1.566807
    18 -0.488518 -2.755602 -0.228260 -1.085960 -0.191560 -0.439285
    19 0.039887 -1.479790 0.029854 -0.928033 0.000000 0.000001
    20 0.028786 -1.075731 -0.023109 -1.481404 0.000000 0.000000
    21 0.250027 -2.820665 -0.238396 -0.892857 -0.160399 -0.409458
    22 -0.049759 -1.680544 0.100479 -1.289132 0.000000 -0.000002
    23 -0.034142 -1.148312 0.084782 -1.087270 0.000000 0.000000
    24 0.957766 -2.746780 -0.090302 -0.208375 -0.395425 -0.120125
    25 -0.033420 -1.397129 -0.011257 -0.691832 0.124808 -0.122316
    26 -0.022360 -0.957436 0.018784 -0.519754 0.000000 0.000000
    27 -1.180681 -2.507217 -0.193859 -0.873937 -0.068285 -0.359963
    28 -0.024967 -1.123934 0.017597 -1.152494 0.000000 0.000001
    29 -0.020057 -0.890968 0.010090 -0.933448 0.000000 0.000000
    30 0.583510 -1.197277 0.185379 0.316258 -1.087026 -0.583548
    31 1.535927 0.010246 0.005009 0.347010 -0.308555 -0.883745
    32 1.100771 0.004527 -0.010679 -0.011449 0.011491 -0.607443
    33 0.120153 -0.050270 -0.054489 0.287569 3.110905 1.561085
    34 0.447953 -2.798986 -0.200443 -1.159457 -0.126508 -0.047440
    35 -0.032909 -1.480204 0.004940 -1.413638 0.000000 0.000002
    36 -0.027022 -1.076920 -0.020210 -1.481391 0.000000 0.000000
    37 -0.249534 -2.846964 -0.174213 -1.055898 -0.135815 -0.084786
    38 0.043235 -1.683941 0.096012 -1.469808 0.002823 -0.000167
    39 0.031729 -1.160830 0.058838 -1.698243 0.000642 0.008372
    40 -0.963866 -2.785145 -0.085350 -1.049434 -0.085997 -0.167475
    41 0.028479 -1.403067 0.006271 -1.158128 0.000000 0.000000
    42 0.021413 -0.957781 0.020046 -1.216858 0.000000 0.000000
    43 1.164475 -2.543940 -0.170330 -0.843988 -0.306425 0.042666
    44 0.024032 -1.129042 0.017807 -1.373633 0.000000 0.000001
    45 0.014898 -0.883989 -0.019848 -1.314671 0.000000 0.000000
    46 -0.586770 -1.264477 0.200161 -0.276779 -0.716323 -2.528368
    47 1.522835 0.058681 0.016848 -0.037192 -0.131247 0.649005
    48 1.117947 0.048424 -0.005766 -0.016374 -0.019146 0.763702
    49 -0.139399 -0.111698 0.014397 0.285382 -0.030687 1.580508
    50 -1.393470 8.839177 -0.239433 1.580804 -0.005023 -1.566847
  time 12
    0 0.000000 0.000000 -0.019532 0.018296 0.000000 -0.000016
    1 7.747556 5.726923 -6.642266 1.276003 -1.619030 -1.385045
    2 -0.071918 -8.498729 -0.104137 0.233264 0.229964 0.027316
    3 1.861052 -2.316011 1.422734 0.139416 0.201012 -3.172999
    4 1.111351 2.047762 0.000000 0.000000 0.000000 0.000000
    5 -2.197709 3.248277 -0.000006 0.000001 0.000000 3.141592
    6 -1.583559 10.474715 0.386643 1.570797 -1.570796 0.000000
    7 -0.609616 11.483512 -0.000014 0.000000 0.000001 1.570796
    8 0.249077 5.246643 -0.000014 -0.000001 0.000000 0.226893
    9 -1.309863 -7.033240 -10.273580 -2.110829 -5.190259 -1.381975
    10 0.096944 -8.450419 -0.009364 0.228648 -0.233694 0.292775
    11 5.284078 16.225037 55.362292 -2.676192 -1.216110 0.861362
    12 -2.196302 -3.238963 0.258082 0.072146 -0.010897 3.141198
    13 -1.583562 -10.474718 0.386644 -1.589286 1.570796 0.000000
    14 0.251131 -5.233087 0.375461 -0.072749 -0.005596 -0.226690
    15 -0.605067 -11.453402 0.834369 -0.010926 -0.072142 -1.570402
    16 1.112089 -2.042870 0.135495 -0.072147 0.010897 -0.000393
    17 1.257180 8.762585 -0.153713 -1.570562 0.002683 -1.566807
    18 -0.488518 -2.755602 -0.228260 -1.085960 -0.191560 -0.439285
    19 0.039887 -1.479790 0.029854 -0.928033 0.000000 0.000001
    20 0.028786 -1.075731 -0.023109 -1.481404 0.000000 0.000000
    21 0.250027 -2.820665 -0.238396 -0.892857 -0.160399 -0.409458
    22 -0.049759 -1.680544 0.100479 -1.289132 0.000000 -0.000002
    23 -0.034142 -1.148312 0.084782 -1.087270 0.000000 0.000000
    24 0.957766 -2.746780 -0.090302 -0.208375 -0.395425 -0.120125
    25 -0.033420 -1.397129 -0.011257 -0.691832 0.124808 -0.122316
    26 -0.022360 -0.957436 0.018784 -0.519754 0.000000 0.000000
    27 -1.180681 -2.507217 -0.193859 -0.873937 -0.068285 -0.359963
    28 -0.024967 -1.123934 0.017597 -1.152494 0.000000 0.000001
    29 -0.020057 -0.890968 0.010090 -0.933448 0.000000 0.000000
    30 0.583510 -1.197277 0.185379 0.316258 -1.087026 -0.583548
    31 1.535927 0.010246 0.005009 0.347010 -0.308555 -0.883772
    32 1.100771 0.004527 -0.010679 -0.011449 0.011491 -0.607443
    33 0.120153 -0.050270 -0.054489 0.287569 3.110905 1.561085
    34 0.447953 -2.798986 -0.200443 -1.159457 -0.126508 -0.047440
    35 -0.032909 -1.480204 0.004940 -1.413638 0.000000 0.000002
    36 -0.027022 -1.076920 -0.020210 -1.481391 0.000000 0.000000
    37 -0.249534 -2.846964 -0.174213 -1.055898 -0.135815 -0.084786
    38 0.043235 -1.683941 0.096012 -1.469808 0.002823 -0.000167
    39 0.031729 -1.160830 0.058838 -1.698243 0.000642 0.008372
    40 -0.963866 -2.785145 -0.085350 -1.049434 -0.085997 -0.167475
    41 0.028479 -1.403067 0.006271 -1.158128 0.000000 0.000000
    42 0.021413 -0.957781 0.020046 -1.216858 0.000000 0.000000
    43 1.164475 -2.543940 -0.170330 -0.843988 -0.306425 0.042666
    44 0.024032 -1.129042 0.017807 -1.373633 0.000000 0.000001
    45 0.014898 -0.883989 -0.019848 -1.314671 0.000000 0.000000
    46 -0.586770 -1.264477 0.200161 -0.276779 -0.716323 -2.528368
    47 1.522835 0.058681 0.016848 -0.037192 -0.131247 0.649005
    48 1.117947 0.048424 -0.005766 -0.016374 -0.019146 0.763702
    49 -0.139399 -0.111698 0.014397 0.285382 -0.030687 1.580508
    50 -1.393470 8.839177 -0.239433 1.580804 -0.005023 -1.566847
  time 13
    0 0.000000 0.000000 -0.042970 0.017338 0.000000 -0.000016
    1 7.747556 5.726923 -6.642266 1.276003 -1.619030 -1.385045
    2 -0.071918 -8.498729 -0.104137 0.233264 0.229964 0.027316
    3 1.861052 -2.316011 1.422734 0.139416 0.201012 -3.172999
    4 1.111351 2.047762 0.000000 0.000000 0.000000 0.000000
    5 -2.197709 3.248277 -0.000006 0.000001 0.000000 3.141592
    6 -1.583559 10.474715 0.386643 1.570797 -1.570796 0.000000
    7 -0.609616 11.483512 -0.000014 0.000000 0.000001 1.570796
    8 0.249077 5.246643 -0.000014 -0.000001 0.000000 0.226893
    9 -1.309863 -7.033240 -10.273580 -2.110829 -5.190259 -1.381975
    10 0.096944 -8.450419 -0.009364 0.228648 -0.233694 0.292775
    11 5.284078 16.225037 55.362292 -2.676192 -1.216110 0.861362
    12 -2.196302 -3.238963 0.258082 0.072146 -0.010897 3.141198
    13 -1.583562 -10.474718 0.386644 -1.589286 1.570796 0.000000
    14 0.251131 -5.233087 0.375461 -0.072749 -0.005596 -0.226690
    15 -0.605067 -11.453402 0.834369 -0.010926 -0.072142 -1.570402
    16 1.112089 -2.042870 0.135495 -0.072147 0.010897 -0.000393
    17 1.257180 8.762585 -0.153713 -1.570562 0.002683 -1.566807
    18 -0.488518 -2.755602 -0.228260 -1.085960 -0.191560 -0.439285
    19 0.039887 -1.479790 0.029854 -0.928033 0.000000 0.000001
    20 0.028786 -1.075731 -0.023109 -1.481404 0.000000 0.000000
    21 0.250027 -2.820665 -0.238396 -0.892857 -0.160399 -0.409458
    22 -0.049759 -1.680544 0.100479 -1.289132 0.000000 -0.000002
    23 -0.034142 -1.148312 0.084782 -1.087270 0.000000 0.000000
    24 0.957766 -2.746780 -0.090302 -0.208375 -0.395425 -0.120125
    25 -0.033420 -1.397129 -0.011257 -0.691832 0.124808 -0.122316
    26 -0.022360 -0.957436 0.018784 -0.519754 0.000000 0.000000
    27 -1.180681 -2.507217 -0.193859 -0.873937 -0.068285 -0.359963
    28 -0.024967 -1.123934 0.017597 -1.152494 0.000000 0.000001
    29 -0.020057 -0.890968 0.010090 -0.933448 0.000000 0.000000
    30 0.583510 -1.197277 0.185379 0.316258 -1.087026 -0.583548
    31 1.535927 0.010246 0.005009 0.347010 -0.308555 -0.883772
    32 1.100771 0.004527 -0.010679 -0.011449 0.011491 -0.607443
    33 0.120153 -0.050270 -0.054489 0.287569 3.110905 1.561085
    34 0.447953 -2.798986 -0.200443 -1.159457 -0.126508 -0.047440
    35 -0.032909 -1.480204 0.004940 -1.413638 0.000000 0.000002
    36 -0.027022 -1.076920 -0.020210 -1.481391 0.000000 0.000000
    37 -0.249534 -2.846964 -0.174213 -1.055898 -0.135815 -0.084786
    38 0.043235 -1.683941 0.096012 -1.469808 0.002823 -0.000167
    39 0.031729 -1.160830 0.058838 -1.698243 0.000642 0.008372
    40 -0.963866 -2.785145 -0.085350 -1.049434 -0.085997 -0.167475
    41 0.028479 -1.403067 0.006271 -1.158128 0.000000 0.000000
    42 0.021413 -0.957781 0.020046 -1.216858 0.000000 0.000000
    43 1.164475 -2.543940 -0.170330 -0.843988 -0.306425 0.042666
    44 0.024032 -1.129042 0.017807 -1.373633 0.000000 0.000001
    45 0.014898 -0.883989 -0.019848 -1.314671 0.000000 0.000000
    46 -0.586770 -1.264477 0.200161 -0.276779 -0.716323 -2.528368
    47 1.522835 0.058681 0.016848 -0.037192 -0.131247 0.649005
    48 1.117947 0.048424 -0.005766 -0.016374 -0.019146 0.763702
    49 -0.139399 -0.111698 0.014397 0.285382 -0.030687 1.580508
    50 -1.393470 8.839177 -0.239433 1.580804 -0.005023 -1.566847
  time 14
    0 0.000000 0.000000 -0.066408 0.014781 0.000000 -0.000016
    1 7.747556 5.726923 -6.642266 1.276003 -1.619030 -1.385045
    2 -0.071918 -8.498729 -0.104137 0.233264 0.229964 0.027316
    3 1.861052 -2.316011 1.422734 0.139416 0.201012 -3.172999
    4 1.111351 2.047762 0.000000 0.000000 0.000000 0.000000
    5 -2.197709 3.248277 -0.000006 0.000001 0.000000 3.141592
    6 -1.583559 10.474715 0.386643 1.570797 -1.570796 0.000000
    7 -0.609616 11.483512 -0.000014 0.000000 0.000001 1.570796
    8 0.249077 5.246643 -0.000014 -0.000001 0.000000 0.226893
    9 -1.309863 -7.033240 -10.273580 -2.110829 -5.190259 -1.381975
    10 0.096944 -8.450419 -0.009364 0.228648 -0.233694 0.292775
    11 5.284078 16.225037 55.362292 -2.676192 -1.216110 0.861362
    12 -2.196302 -3.238963 0.258082 0.072146 -0.010897 3.141198
    13 -1.583562 -10.474718 0.386644 -1.589286 1.570317 0.000000
    14 0.251131 -5.233087 0.375461 -0.072749 -0.005596 -0.226690
    15 -0.605067 -11.453402 0.834369 -0.010926 -0.072142 -1.570402
    16 1.112089 -2.042870 0.135495 -0.072147 0.010897 -0.000393
    17 1.257180 8.762585 -0.153713 -1.570562 0.002683 -1.566807
    18 -0.488518 -2.755602 -0.228260 -1.085960 -0.191560 -0.439285
    19 0.039887 -1.479790 0.029854 -0.928033 0.000000 0.000001
    20 0.028786 -1.075731 -0.023109 -1.481404 0.000000 0.000000
    21 0.250027 -2.820665 -0.238396 -0.892857 -0.160399 -0.409458
    22 -0.049759 -1.680544 0.100479 -1.289132 0.000000 -0.000002
    23 -0.034142 -1.148312 0.084782 -1.087270 0.000000 0.000000
    24 0.957766 -2.746780 -0.090302 -0.208375 -0.395425 -0.120125
    25 -0.033420 -1.397129 -0.011257 -0.691832 0.124808 -0.122316
    26 -0.022360 -0.957436 0.018784 -0.519754 0.000000 0.000000
    27 -1.180681 -2.507217 -0.193859 -0.873937 -0.068285 -0.359963
    28 -0.024967 -1.123934 0.017597 -1.152494 0.000000 0.000001
    29 -0.020057 -0.890968 0.010090 -0.933448 0.000000 0.000000
    30 0.583510 -1.197277 0.185379 0.316258 -1.087026 -0.583548
    31 1.535927 0.010246 0.005009 0.347010 -0.308555 -0.883745
    32 1.100771 0.004527 -0.010679 -0.011449 0.011491 -0.607443
    33 0.120153 -0.050270 -0.054489 0.287569 3.110905 1.561085
    34 0.447953 -2.798986 -0.200443 -1.159457 -0.126508 -0.047440
    35 -0.032909 -1.480204 0.004940 -1.413638 0.000000 0.000002
    36 -0.027022 -1.076920 -0.020210 -1.481391 0.000000 0.000000
    37 -0.249534 -2.846964 -0.174213 -1.055898 -0.135815 -0.084786
    38 0.043235 -1.683941 0.096012 -1.469808 0.002823 -0.000167
    39 0.031729 -1.160830 0.058838 -1.698243 0.000642 0.008372
    40 -0.963866 -2.785145 -0.085350 -1.049434 -0.085997 -0.167475
    41 0.028479 -1.403067 0.006271 -1.158128 0.000000 0.000000
    42 0.021413 -0.957781 0.020046 -1.216858 0.000000 0.000000
    43 1.164475 -2.543940 -0.170330 -0.843988 -0.306425 0.042666
    44 0.024032 -1.129042 0.017807 -1.373633 0.000000 0.000001
    45 0.014898 -0.883989 -0.019848 -1.314671 0.000000 0.000000
    46 -0.586770 -1.264477 0.200161 -0.276779 -0.716323 -2.528368
    47 1.522835 0.058681 0.016848 -0.037192 -0.131247 0.649005
    48 1.117947 0.048424 -0.005766 -0.016374 -0.019146 0.763702
    49 -0.139399 -0.111698 0.014397 0.285382 -0.030687 1.580508
    50 -1.393470 8.839177 -0.239433 1.580804 -0.005023 -1.566847
  time 15
    0 0.000000 0.000000 -0.089846 0.011106 0.000000 -0.000016
    1 7.747556 5.726923 -6.642266 1.276003 -1.619030 -1.385045
    2 -0.071918 -8.498729 -0.104137 0.233264 0.229964 0.027316
    3 1.861052 -2.316011 1.422734 0.139416 0.201012 -3.172999
    4 1.111351 2.047762 0.000000 0.000000 0.000000 0.000000
    5 -2.197709 3.248277 -0.000006 0.000001 0.000000 3.141592
    6 -1.583559 10.474715 0.386643 1.570797 -1.570796 0.000000
    7 -0.609616 11.483512 -0.000014 0.000000 0.000001 1.570796
    8 0.249077 5.246643 -0.000014 -0.000001 0.000000 0.226893
    9 -1.309863 -7.033240 -10.273580 -2.110829 -5.190259 -1.381975
    10 0.096944 -8.450419 -0.009364 0.228648 -0.233694 0.292775
    11 5.284078 16.225037 55.362292 -2.676192 -1.216110 0.861362
    12 -2.196302 -3.238963 0.258082 0.072146 -0.010897 3.141198
    13 -1.583562 -10.474718 0.386644 -1.589286 1.570796 0.000000
    14 0.251131 -5.233087 0.375461 -0.072749 -0.005596 -0.226690
    15 -0.605067 -11.453402 0.834369 -0.010926 -0.072142 -1.570402
    16 1.112089 -2.042870 0.135495 -0.072147 0.010897 -0.000393
    17 1.257180 8.762585 -0.153713 -1.570562 0.002683 -1.566807
    18 -0.488518 -2.755602 -0.228260 -1.085960 -0.191560 -0.439285
    19 0.039887 -1.479790 0.029854 -0.928033 0.000000 0.000001
    20 0.028786 -1.075731 -0.023109 -1.481404 0.000000 0.000000
    21 0.250027 -2.820665 -0.238396 -0.892857 -0.160399 -0.409458
    22 -0.049759 -1.680544 0.100479 -1.289132 0.000000 -0.000002
    23 -0.034142 -1.148312 0.084782 -1.087270 0.000000 0.000000
    24 0.957766 -2.746780 -0.090302 -0.208375 -0.395425 -0.120125
    25 -0.033420 -1.397129 -0.011257 -0.691832 0.124808 -0.122316
    26 -0.022360 -0.957436 0.018784 -0.519754 0.000000 0.000000
    27 -1.180681 -2.507217 -0.193859 -0.873937 -0.068285 -0.359963
    28 -0.024967 -1.123934 0.017597 -1.152494 0.000000 0.000001
    29 -0.020057 -0.890968 0.010090 -0.933448 0.000000 0.000000
    30 0.583510 -1.197277 0.185379 0.316258 -1.087026 -0.583548
    31 1.535927 0.010246 0.005009 0.347010 -0.308555 -0.883745
    32 1.100771 0.004527 -0.010679 -0.011449 0.011491 -0.607443
    33 0.120153 -0.050270 -0.054489 0.287569 3.110905 1.561085
    34 0.447953 -2.798986 -0.200443 -1.159457 -0.126508 -0.047440
    35 -0.032909 -1.480204 0.004940 -1.413638 0.000000 0.000002
    36 -0.027022 -1.076920 -0.020210 -1.481391 0.000000 0.000000
    37 -0.249534 -2.846964 -0.174213 -1.055898 -0.135815 -0.084786
    38 0.043235 -1.683941 0.096012 -1.469808 0.002823 -0.000167
    39 0.031729 -1.160830 0.058838 -1.698243 0.000642 0.008372
    40 -0.963866 -2.785145 -0.085350 -1.049434 -0.085997 -0.167475
    41 0.028479 -1.403067 0.006271 -1.158128 0.000000 0.000000
    42 0.021413 -0.957781 0.020046 -1.216858 0.000000 0.000000
    43 1.164475 -2.543940 -0.170330 -0.843988 -0.306425 0.042666
    44 0.024032 -1.129042 0.017807 -1.373633 0.000000 0.000001
    45 0.014898 -0.883989 -0.019848 -1.314671 0.000000 0.000000
    46 -0.586770 -1.264477 0.200161 -0.276779 -0.716323 -2.528368
    47 1.522835 0.058681 0.016848 -0.037192 -0.131247 0.649005
    48 1.117947 0.048424 -0.005766 -0.016374 -0.019146 0.763702
    49 -0.139399 -0.111698 0.014397 0.285382 -0.030687 1.580508
    50 -1.393470 8.839177 -0.239433 1.580804 -0.005023 -1.566847
  time 16
    0 0.000000 0.000000 -0.105472 0.006951 0.000000 -0.000016
    1 7.747556 5.726923 -6.642266 1.276003 -1.619030 -1.385045
    2 -0.071918 -8.498729 -0.104137 0.233264 0.229964 0.027316
    3 1.861052 -2.316011 1.422734 0.139416 0.201012 -3.172999
    4 1.111351 2.047762 0.000000 0.000000 0.000000 0.000000
    5 -2.197709 3.248277 -0.000006 0.000001 0.000000 3.141592
    6 -1.583559 10.474715 0.386643 1.570797 -1.570796 0.000000
    7 -0.609616 11.483512 -0.000014 0.000000 0.000001 1.570796
    8 0.249077 5.246643 -0.000014 -0.000001 0.000000 0.226893
    9 -1.309863 -7.033240 -10.273580 -2.110829 -5.190259 -1.381975
    10 0.096944 -8.450419 -0.009364 0.228648 -0.233694 0.292775
    11 5.284078 16.225037 55.362292 -2.676192 -1.216110 0.861362
    12 -2.196302 -3.238963 0.258082 0.072146 -0.010897 3.141198
    13 -1.583562 -10.474718 0.386644 -1.589286 1.570796 0.000000
    14 0.251131 -5.233087 0.375461 -0.072749 -0.005596 -0.226690
    15 -0.605067 -11.453402 0.834369 -0.010926 -0.072142 -1.570402
    16 1.112089 -2.042870 0.135495 -0.072147 0.010897 -0.000393
    17 1.257180 8.762585 -0.153713 -1.570562 0.002683 -1.566807
    18 -0.488518 -2.755602 -0.228260 -1.085960 -0.191560 -0.439285
    19 0.039887 -1.479790 0.029854 -0.928033 0.000000 0.000001
    20 0.028786 -1.075731 -0.023109 -1.481404 0.000000 0.000000
    21 0.250027 -2.820665 -0.238396 -0.892857 -0.160399 -0.409458
    22 -0.049759 -1.680544 0.100479 -1.289132 0.000000 -0.000002
    23 -0.034142 -1.148312 0.084782 -1.087270 0.000000 0.000000
    24 0.957766 -2.746780 -0.090302 -0.208375 -0.395425 -0.120125
    25 -0.033420 -1.397129 -0.011257 -0.691832 0.124808 -0.122316
    26 -0.022360 -0.957436 0.018784 -0.519754 0.000000 0.000000
    27 -1.180681 -2.507217 -0.193859 -0.873937 -0.068285 -0.359963
    28 -0.024967 -1.123934 0.017597 -1.152494 0.000000 0.000001
    29 -0.020057 -0.890968 0.010090 -0.933448 0.000000 0.000000
    30 0.583510 -1.197277 0.185379 0.316258 -1.087026 -0.583548
    31 1.535927 0.010246 0.005009 0.347010 -0.308555 -0.883745
    32 1.100771 0.004527 -0.010679 -0.011449 0.011491 -0.607443
    33 0.120153 -0.050270 -0.054489 0.287569 3.110905 1.561085
    34 0.447953 -2.798986 -0.200443 -1.159457 -0.126508 -0.047440
    35 -0.032909 -1.480204 0.004940 -1.413638 0.000000 0.000002
    36 -0.027022 -1.076920 -0.020210 -1.481391 0.000000 0.000000
    37 -0.249534 -2.846964 -0.174213 -1.055898 -0.135815 -0.084786
    38 0.043235 -1.683941 0.096012 -1.469808 0.002823 -0.000167
    39 0.031729 -1.160830 0.058838 -1.698243 0.000642 0.008372
    40 -0.963866 -2.785145 -0.085350 -1.049434 -0.085997 -0.167475
    41 0.028479 -1.403067 0.006271 -1.158128 0.000000 0.000000
    42 0.021413 -0.957781 0.020046 -1.216858 0.000000 0.000000
    43 1.164475 -2.543940 -0.170330 -0.843988 -0.306425 0.042666
    44 0.024032 -1.129042 0.017807 -1.373633 0.000000 0.000001
    45 0.014898 -0.883989 -0.019848 -1.314671 0.000000 0.000000
    46 -0.586770 -1.264477 0.200161 -0.276779 -0.716323 -2.528368
    47 1.522835 0.058681 0.016848 -0.037192 -0.131247 0.649005
    48 1.117947 0.048424 -0.005766 -0.016374 -0.019146 0.763702
    49 -0.139399 -0.111698 0.014397 0.285382 -0.030687 1.580508
    50 -1.393470 8.839177 -0.239433 1.580804 -0.005023 -1.566847
  time 17
    0 0.000000 0.000000 -0.109378 0.002796 0.000000 -0.000016
    1 7.747556 5.726923 -6.642266 1.276003 -1.619030 -1.385045
    2 -0.071918 -8.498729 -0.104137 0.233264 0.229964 0.027316
    3 1.861052 -2.316011 1.422734 0.139416 0.201012 -3.172999
    4 1.111351 2.047762 0.000000 0.000000 0.000000 0.000000
    5 -2.197709 3.248277 -0.000006 0.000001 0.000000 3.141592
    6 -1.583559 10.474715 0.386643 1.570797 -1.570796 0.000000
    7 -0.609616 11.483512 -0.000014 0.000000 0.000001 1.570796
    8 0.249077 5.246643 -0.000014 -0.000001 0.000000 0.226893
    9 -1.309863 -7.033240 -10.273580 -2.110829 -5.190259 -1.381975
    10 0.096944 -8.450419 -0.009364 0.228648 -0.233694 0.292775
    11 5.284078 16.225037 55.362292 -2.676192 -1.216110 0.861362
    12 -2.196302 -3.238963 0.258082 0.072146 -0.010897 3.141198
    13 -1.583562 -10.474718 0.386644 -1.589286 1.570796 0.000000
    14 0.251131 -5.233087 0.375461 -0.072749 -0.005596 -0.226690
    15 -0.605067 -11.453402 0.834369 -0.010926 -0.072142 -1.570402
    16 1.112089 -2.042870 0.135495 -0.072147 0.010897 -0.000393
    17 1.257180 8.762585 -0.153713 -1.570562 0.002683 -1.566807
    18 -0.488518 -2.755602 -0.228260 -1.085960 -0.191560 -0.439285
    19 0.039887 -1.479790 0.029854 -0.928033 0.000000 0.000001
    20 0.028786 -1.075731 -0.023109 -1.481404 0.000000 0.000000
    21 0.250027 -2.820665 -0.238396 -0.892857 -0.160399 -0.409458
    22 -0.049759 -1.680544 0.100479 -1.289132 0.000000 -0.000002
    23 -0.034142 -1.148312 0.084782 -1.087270 0.000000 0.000000
    24 0.957766 -2.746780 -0.090302 -0.208375 -0.395425 -0.120125
    25 -0.033420 -1.397129 -0.011257 -0.691832 0.124808 -0.122316
    26 -0.022360 -0.957436 0.018784 -0.519754 0.000000 0.000000
    27 -1.180681 -2.507217 -0.193859 -0.873937 -0.068285 -0.359963
    28 -0.024967 -1.123934 0.017597 -1.152494 0.000000 0.000001
    29 -0.020057 -0.890968 0.010090 -0.933448 0.000000 0.000000
    30 0.583510 -1.197277 0.185379 0.316258 -1.087026 -0.583548
    31 1.535927 0.010246 0.005009 0.347010 -0.308555 -0.883745
    32 1.100771 0.004527 -0.010679 -0.011449 0.011491 -0.607443
    33 0.120153 -0.050270 -0.054489 0.287569 3.110905 1.561085
    34 0.447953 -2.798986 -0.200443 -1.159457 -0.126508 -0.047440
    35 -0.032909 -1.480204 0.004940 -1.413638 0.000000 0.000002
    36 -0.027022 -1.076920 -0.020210 -1.481391 0.000000 0.000000
    37 -0.249534 -2.846964 -0.174213 -1.055898 -0.135815 -0.084786
    38 0.043235 -1.683941 0.096012 -1.469808 0.002823 -0.000167
    39 0.031729 -1.160830 0.058838 -1.698243 0.000642 0.008372
    40 -0.963866 -2.785145 -0.085350 -1.049434 -0.085997 -0.167475
    41 0.028479 -1.403067 0.006271 -1.158128 0.000000 0.000000
    42 0.021413 -0.957781 0.020046 -1.216858 0.000000 0.000000
    43 1.164475 -2.543940 -0.170330 -0.843988 -0.306425 0.042666
    44 0.024032 -1.129042 0.017807 -1.373633 0.000000 0.000001
    45 0.014898 -0.883989 -0.019848 -1.314671 0.000000 0.000000
    46 -0.586770 -1.264477 0.200161 -0.276779 -0.716323 -2.528368
    47 1.522835 0.058681 0.016848 -0.037192 -0.131247 0.649005
    48 1.117947 0.048424 -0.005766 -0.016374 -0.019146 0.763702
    49 -0.139399 -0.111698 0.014397 0.285382 -0.030687 1.580508
    50 -1.393470 8.839177 -0.239433 1.580804 -0.005023 -1.566847
  time 18
    0 0.000000 0.000000 -0.105472 -0.000799 0.000000 -0.000016
    1 7.747556 5.726923 -6.642266 1.276003 -1.619030 -1.385045
    2 -0.071918 -8.498729 -0.104137 0.233264 0.229964 0.027316
    3 1.861052 -2.316011 1.422734 0.139416 0.201012 -3.172999
    4 1.111351 2.047762 0.000000 0.000000 0.000000 0.000000
    5 -2.197709 3.248277 -0.000006 0.000001 0.000000 3.141592
    6 -1.583559 10.474715 0.386643 1.570797 -1.570796 0.000000
    7 -0.609616 11.483512 -0.000014 0.000000 0.000001 1.570796
    8 0.249077 5.246643 -0.000014 -0.000001 0.000000 0.226893
    9 -1.309863 -7.033240 -10.273580 -2.110829 -5.190259 -1.381975
    10 0.096944 -8.450419 -0.009364 0.228648 -0.233694 0.292775
    11 5.284078 16.225037 55.362292 -2.676192 -1.216110 0.861362
    12 -2.196302 -3.238963 0.258082 0.072146 -0.010897 3.141198
    13 -1.583562 -10.474718 0.386644 -1.589286 1.570796 0.000000
    14 0.251131 -5.233087 0.375461 -0.072749 -0.005596 -0.226690
    15 -0.605067 -11.453402 0.834369 -0.010926 -0.072142 -1.570402
    16 1.112089 -2.042870 0.135495 -0.072147 0.010897 -0.000393
    17 1.257180 8.762585 -0.153713 -1.570562 0.002683 -1.566807
    18 -0.488518 -2.755602 -0.228260 -1.085960 -0.191560 -0.439285
    19 0.039887 -1.479790 0.029854 -0.928033 0.000000 0.000001
    20 0.028786 -1.075731 -0.023109 -1.481404 0.000000 0.000000
    21 0.250027 -2.820665 -0.238396 -0.892857 -0.160399 -0.409458
    22 -0.049759 -1.680544 0.100479 -1.289132 0.000000 -0.000002
    23 -0.034142 -1.148312 0.084782 -1.087270 0.000000 0.000000
    24 0.957766 -2.746780 -0.090302 -0.208375 -0.395425 -0.120125
    25 -0.033420 -1.397129 -0.011257 -0.691832 0.124808 -0.122316
    26 -0.022360 -0.957436 0.018784 -0.519754 0.000000 0.000000
    27 -1.180681 -2.507217 -0.193859 -0.873937 -0.068285 -0.359963
    28 -0.024967 -1.123934 0.017597 -1.152494 0.000000 0.000001
    29 -0.020057 -0.890968 0.010090 -0.933448 0.000000 0.000000
    30 0.583510 -1.197277 0.185379 0.316258 -1.087026 -0.583548
    31 1.535927 0.010246 0.005009 0.347010 -0.308555 -0.883745
    32 1.100771 0.004527 -0.010679 -0.011449 0.011491 -0.607443
    33 0.120153 -0.050270 -0.054489 0.287569 3.110905 1.561085
    34 0.447953 -2.798986 -0.200443 -1.159457 -0.126508 -0.047440
    35 -0.032909 -1.480204 0.004940 -1.413638 0.000000 0.000002
    36 -0.027022 -1.076920 -0.020210 -1.481391 0.000000 0.000000
    37 -0.249534 -2.846964 -0.174213 -1.055898 -0.135815 -0.084786
    38 0.043235 -1.683941 0.096012 -1.469808 0.002823 -0.000167
    39 0.031729 -1.160830 0.058838 -1.698243 0.000642 0.008372
    40 -0.963866 -2.785145 -0.085350 -1.049434 -0.085997 -0.167475
    41 0.028479 -1.403067 0.006271 -1.158128 0.000000 0.000000
    42 0.021413 -0.957781 0.020046 -1.216858 0.000000 0.000000
    43 1.164475 -2.543940 -0.170330 -0.843988 -0.306425 0.042666
    44 0.024032 -1.129042 0.017807 -1.373633 0.000000 0.000001
    45 0.014898 -0.883989 -0.019848 -1.314671 0.000000 0.000000
    46 -0.586770 -1.264477 0.200161 -0.276779 -0.716323 -2.528368
    47 1.522835 0.058681 0.016848 -0.037192 -0.131247 0.649005
    48 1.117947 0.048424 -0.005766 -0.016374 -0.019146 0.763702
    49 -0.139399 -0.111698 0.014397 0.285382 -0.030687 1.580508
    50 -1.393470 8.839177 -0.239433 1.580804 -0.005023 -1.566847
  time 19
    0 0.000000 0.000000 -0.093753 -0.003396 0.000000 -0.000016
    1 7.747556 5.726923 -6.642266 1.276003 -1.619030 -1.385045
    2 -0.071918 -8.498729 -0.104137 0.233264 0.229964 0.027316
    3 1.861052 -2.316011 1.422734 0.139416 0.201012 -3.172999
    4 1.111351 2.047762 0.000000 0.000000 0.000000 0.000000
    5 -2.197709 3.248277 -0.000006 0.000001 0.000000 3.141592
    6 -1.583559 10.474715 0.386643 1.570797 -1.570796 0.000000
    7 -0.609616 11.483512 -0.000014 0.000000 0.000001 1.570796
    8 0.249077 5.246643 -0.000014 -0.000001 0.000000 0.226893
    9 -1.309863 -7.033240 -10.273580 -2.110829 -5.190259 -1.381975
    10 0.096944 -8.450419 -0.009364 0.228648 -0.233694 0.292775
    11 5.284078 16.225037 55.362292 -2.676192 -1.216110 0.861362
    12 -2.196302 -3.238963 0.258082 0.072146 -0.010897 3.141198
    13 -1.583562 -10.474718 0.386644 -1.589286 1.570796 0.000000
    14 0.251131 -5.233087 0.375461 -0.072749 -0.005596 -0.226690
    15 -0.605067 -11.453402 0.834369 -0.010926 -0.072142 -1.570402
    16 1.112089 -2.042870 0.135495 -0.072147 0.010897 -0.000393
    17 1.257180 8.762585 -0.153713 -1.570562 0.002683 -1.566807
    18 -0.488518 -2.755602 -0.228260 -1.085960 -0.191560 -0.439285
    19 0.039887 -1.479790 0.029854 -0.928033 0.000000 0.000001
    20 0.028786 -1.075731 -0.023109 -1.481404 0.000000 0.000000
    21 0.250027 -2.820665 -0.238396 -0.892857 -0.160399 -0.409458
    22 -0.049759 -1.680544 0.100479 -1.289132 0.000000 -0.000002
    23 -0.034142 -1.148312 0.084782 -1.087270 0.000000 0.000000
    24 0.957766 -2.746780 -0.090302 -0.208375 -0.395425 -0.120125
    25 -0.033420 -1.397129 -0.011257 -0.691832 0.124808 -0.122316
    26 -0.022360 -0.957436 0.018784 -0.519754 0.000000 0.000000
    27 -1.180681 -2.507217 -0.193859 -0.873937 -0.068285 -0.359963
    28 -0.024967 -1.123934 0.017597 -1.152494 0.000000 0.000001
    29 -0.020057 -0.890968 0.010090 -0.933448 0.000000 0.000000
    30 0.583510 -1.197277 0.185379 0.316258 -1.087026 -0.583548
    31 1.535927 0.010246 0.005009 0.347010 -0.308555 -0.883745
    32 1.100771 0.004527 -0.010679 -0.011449 0.011491 -0.607443
    33 0.120153 -0.050270 -0.054489 0.287569 3.110905 1.561085
    34 0.447953 -2.798986 -0.200443 -1.159457 -0.126508 -0.047440
    35 -0.032909 -1.480204 0.004940 -1.413638 0.000000 0.000002
    36 -0.027022 -1.076920 -0.020210 -1.481391 0.000000 0.000000
    37 -0.249534 -2.846964 -0.174213 -1.055898 -0.135815 -0.084786
    38 0.043235 -1.683941 0.096012 -1.469808 0.002823 -0.000167
    39 0.031729 -1.160830 0.058838 -1.698243 0.000642 0.008372
    40 -0.963866 -2.785145 -0.085350 -1.049434 -0.085997 -0.167475
    41 0.028479 -1.403067 0.006271 -1.158128 0.000000 0.000000
    42 0.021413 -0.957781 0.020046 -1.216858 0.000000 0.000000
    43 1.164475 -2.543940 -0.170330 -0.843988 -0.306425 0.042666
    44 0.024032 -1.129042 0.017807 -1.373633 0.000000 0.000001
    45 0.014898 -0.883989 -0.019848 -1.314671 0.000000 0.000000
    46 -0.586770 -1.264477 0.200161 -0.276779 -0.716323 -2.528368
    47 1.522835 0.058681 0.016848 -0.037192 -0.131247 0.649005
    48 1.117947 0.048424 -0.005766 -0.016374 -0.019146 0.763702
    49 -0.139399 -0.111698 0.014397 0.285382 -0.030687 1.580508
    50 -1.393470 8.839177 -0.239433 1.580804 -0.005023 -1.566847
  time 20
    0 0.000000 0.000000 -0.074221 -0.004354 0.000000 -0.000016
    1 7.747556 5.726923 -6.642266 1.276003 -1.619030 -1.385045
    2 -0.071918 -8.498729 -0.104137 0.233264 0.229964 0.027316
    3 1.861052 -2.316011 1.422734 0.139416 0.201012 -3.172999
    4 1.111351 2.047762 0.000000 0.000000 0.000000 0.000000
    5 -2.197709 3.248277 -0.000006 0.000001 0.000000 3.141592
    6 -1.583559 10.474715 0.386643 1.570797 -1.570796 0.000000
    7 -0.609616 11.483512 -0.000014 0.000000 0.000001 1.570796
    8 0.249077 5.246643 -0.000014 -0.000001 0.000000 0.226893
    9 -1.309863 -7.033240 -10.273580 -2.110829 -5.190259 -1.381975
    10 0.096944 -8.450419 -0.009364 0.228648 -0.233694 0.292775
    11 5.284078 16.225037 55.362292 -2.676192 -1.216110 0.861362
    12 -2.196302 -3.238963 0.258082 0.072146 -0.010897 3.141198
    13 -1.583562 -10.474718 0.386644 -1.589286 1.570796 0.000000
    14 0.251131 -5.233087 0.375461 -0.072749 -0.005596 -0.226690
    15 -0.605067 -11.453402 0.834369 -0.010926 -0.072142 -1.570402
    16 1.112089 -2.042870 0.135495 -0.072147 0.010897 -0.000393
    17 1.257180 8.762585 -0.153713 -1.570562 0.002683 -1.566807
    18 -0.488518 -2.755602 -0.228260 -1.085960 -0.191560 -0.439285
    19 0.039887 -1.479790 0.029854 -0.928033 0.000000 0.000001
    20 0.028786 -1.075731 -0.023109 -1.481404 0.000000 0.000000
    21 0.250027 -2.820665 -0.238396 -0.892857 -0.160399 -0.409458
    22 -0.049759 -1.680544 0.100479 -1.289132 0.000000 -0.000002
    23 -0.034142 -1.148312 0.084782 -1.087270 0.000000 0.000000
    24 0.957766 -2.746780 -0.090302 -0.208375 -0.395425 -0.120125
    25 -0.033420 -1.397129 -0.011257 -0.691832 0.124808 -0.122316
    26 -0.022360 -0.957436 0.018784 -0.519754 0.000000 0.000000
    27 -1.180681 -2.507217 -0.193859 -0.873937 -0.068285 -0.359963
    28 -0.024967 -1.123934 0.017597 -1.152494 0.000000 0.000001
    29 -0.020057 -0.890968 0.010090 -0.933448 0.000000 0.000000
    30 0.583510 -1.197277 0.185379 0.316258 -1.087026 -0.583548
    31 1.535927 0.010246 0.005009 0.347010 -0.308555 -0.883745
    32 1.100771 0.004527 -0.010679 -0.011449 0.011491 -0.607443
    33 0.120153 -0.050270 -0.054489 0.287569 3.110905 1.561085
    34 0.447953 -2.798986 -0.200443 -1.159457 -0.126508 -0.047440
    35 -0.032909 -1.480204 0.004940 -1.413638 0.000000 0.000002
    36 -0.027022 -1.076920 -0.020210 -1.481391 0.000000 0.000000
    37 -0.249534 -2.846964 -0.174213 -1.055898 -0.135815 -0.084786
    38 0.043235 -1.683941 0.096012 -1.469808 0.002823 -0.000167
    39 0.031729 -1.160830 0.058838 -1.698243 0.000642 0.008372
    40 -0.963866 -2.785145 -0.085350 -1.049434 -0.085997 -0.167475
    41 0.028479 -1.403067 0.006271 -1.158128 0.000000 0.000000
    42 0.021413 -0.957781 0.020046 -1.216858 0.000000 0.000000
    43 1.164475 -2.543940 -0.170330 -0.843988 -0.306425 0.042666
    44 0.024032 -1.129042 0.017807 -1.373633 0.000000 0.000001
    45 0.014898 -0.883989 -0.019848 -1.314671 0.000000 0.000000
    46 -0.586770 -1.264477 0.200161 -0.276779 -0.716323 -2.528368
    47 1.522835 0.058681 0.016848 -0.037192 -0.131247 0.649005
    48 1.117947 0.048424 -0.005766 -0.016374 -0.019146 0.763702
    49 -0.139399 -0.111698 0.014397 0.285382 -0.030687 1.580508
    50 -1.393470 8.839177 -0.239433 1.580804 -0.005023 -1.566847
  time 21
    0 0.000000 0.000000 -0.054689 -0.003915 0.000000 -0.000016
    1 7.747556 5.726923 -6.642266 1.276003 -1.619030 -1.385045
    2 -0.071918 -8.498729 -0.104137 0.233264 0.229964 0.027316
    3 1.861052 -2.316011 1.422734 0.139416 0.201012 -3.172999
    4 1.111351 2.047762 0.000000 0.000000 0.000000 0.000000
    5 -2.197709 3.248277 -0.000006 0.000001 0.000000 3.141592
    6 -1.583559 10.474715 0.386643 1.570797 -1.570796 0.000000
    7 -0.609616 11.483512 -0.000014 0.000000 0.000001 1.570796
    8 0.249077 5.246643 -0.000014 -0.000001 0.000000 0.226893
    9 -1.309863 -7.033240 -10.273580 -2.110829 -5.190259 -1.381975
    10 0.096944 -8.450419 -0.009364 0.228648 -0.233694 0.292775
    11 5.284078 16.225037 55.362292 -2.676192 -1.216110 0.861362
    12 -2.196302 -3.238963 0.258082 0.072146 -0.010897 3.141198
    13 -1.583562 -10.474718 0.386644 -1.589286 1.570796 0.000000
    14 0.251131 -5.233087 0.375461 -0.072749 -0.005596 -0.226690
    15 -0.605067 -11.453402 0.834369 -0.010926 -0.072142 -1.570402
    16 1.112089 -2.042870 0.135495 -0.072147 0.010897 -0.000393
    17 1.257180 8.762585 -0.153713 -1.570562 0.002683 -1.566807
    18 -0.488518 -2.755602 -0.228260 -1.085960 -0.191560 -0.439285
    19 0.039887 -1.479790 0.029854 -0.928033 0.000000 0.000001
    20 0.028786 -1.075731 -0.023109 -1.481404 0.000000 0.000000
    21 0.250027 -2.820665 -0.238396 -0.892857 -0.160399 -0.409458
    22 -0.049759 -1.680544 0.100479 -1.289132 0.000000 -0.000002
    23 -0.034142 -1.148312 0.084782 -1.087270 0.000000 0.000000
    24 0.957766 -2.746780 -0.090302 -0.208375 -0.395425 -0.120125
    25 -0.033420 -1.397129 -0.011257 -0.691832 0.124808 -0.122316
    26 -0.022360 -0.957436 0.018784 -0.519754 0.000000 0.000000
    27 -1.180681 -2.507217 -0.193859 -0.873937 -0.068285 -0.359963
    28 -0.024967 -1.123934 0.017597 -1.152494 0.000000 0.000001
    29 -0.020057 -0.890968 0.010090 -0.933448 0.000000 0.000000
    30 0.583510 -1.197277 0.185379 0.316258 -1.087026 -0.583548
    31 1.535927 0.010246 0.005009 0.347010 -0.308555 -0.883745
    32 1.100771 0.004527 -0.010679 -0.011449 0.011491 -0.607443
    33 0.120153 -0.050270 -0.054489 0.287569 3.110905 1.561085
    34 0.447953 -2.798986 -0.200443 -1.159457 -0.126508 -0.047440
    35 -0.032909 -1.480204 0.004940 -1.413638 0.000000 0.000002
    36 -0.027022 -1.076920 -0.020210 -1.481391 0.000000 0.000000
    37 -0.249534 -2.846964 -0.174213 -1.055898 -0.135815 -0.084786
    38 0.043235 -1.683941 0.096012 -1.469808 0.002823 -0.000167
    39 0.031729 -1.160830 0.058838 -1.698243 0.000642 0.008372
    40 -0.963866 -2.785145 -0.085350 -1.049434 -0.085997 -0.167475
    41 0.028479 -1.403067 0.006271 -1.158128 0.000000 0.000000
    42 0.021413 -0.957781 0.020046 -1.216858 0.000000 0.000000
    43 1.164475 -2.543940 -0.170330 -0.843988 -0.306425 0.042666
    44 0.024032 -1.129042 0.017807 -1.373633 0.000000 0.000001
    45 0.014898 -0.883989 -0.019848 -1.314671 0.000000 0.000000
    46 -0.586770 -1.264477 0.200161 -0.276779 -0.716323 -2.528368
    47 1.522835 0.058681 0.016848 -0.037192 -0.131247 0.649005
    48 1.117947 0.048424 -0.005766 -0.016374 -0.019146 0.763702
    49 -0.139399 -0.111698 0.014397 0.285382 -0.030687 1.580508
    50 -1.393470 8.839177 -0.239433 1.580804 -0.005023 -1.566847
  time 22
    0 0.000000 0.000000 -0.035157 -0.002836 0.000000 -0.000016
    1 7.747556 5.726923 -6.642266 1.276003 -1.619030 -1.385045
    2 -0.071918 -8.498729 -0.104137 0.233264 0.229964 0.027316
    3 1.861052 -2.316011 1.422734 0.139416 0.201012 -3.172999
    4 1.111351 2.047762 0.000000 0.000000 0.000000 0.000000
    5 -2.197709 3.248277 -0.000006 0.000001 0.000000 3.141592
    6 -1.583559 10.474715 0.386643 1.570797 -1.570796 0.000000
    7 -0.609616 11.483512 -0.000014 0.000000 0.000001 1.570796
    8 0.249077 5.246643 -0.000014 -0.000001 0.000000 0.226893
    9 -1.309863 -7.033240 -10.273580 -2.110829 -5.190259 -1.381975
    10 0.096944 -8.450419 -0.009364 0.228648 -0.233694 0.292775
    11 5.284078 16.225037 55.362292 -2.676192 -1.216110 0.861362
    12 -2.196302 -3.238963 0.258082 0.072146 -0.010897 3.141198
    13 -1.583562 -10.474718 0.386644 -1.589286 1.570317 0.000000
    14 0.251131 -5.233087 0.375461 -0.072749 -0.005596 -0.226690
    15 -0.605067 -11.453402 0.834369 -0.010926 -0.072142 -1.570402
    16 1.112089 -2.042870 0.135495 -0.072147 0.010897 -0.000393
    17 1.257180 8.762585 -0.153713 -1.570562 0.002683 -1.566807
    18 -0.488518 -2.755602 -0.228260 -1.085960 -0.191560 -0.439285
    19 0.039887 -1.479790 0.029854 -0.928033 0.000000 0.000001
    20 0.028786 -1.075731 -0.023109 -1.481404 0.000000 0.000000
    21 0.250027 -2.820665 -0.238396 -0.892857 -0.160399 -0.409458
    22 -0.049759 -1.680544 0.100479 -1.289132 0.000000 -0.000002
    23 -0.034142 -1.148312 0.084782 -1.087270 0.000000 0.000000
    24 0.957766 -2.746780 -0.090302 -0.208375 -0.395425 -0.120125
    25 -0.033420 -1.397129 -0.011257 -0.691832 0.124808 -0.122316
    26 -0.022360 -0.957436 0.018784 -0.519754 0.000000 0.000000
    27 -1.180681 -2.507217 -0.193859 -0.873937 -0.068285 -0.359963
    28 -0.024967 -1.123934 0.017597 -1.152494 0.000000 0.000001
    29 -0.020057 -0.890968 0.010090 -0.933448 0.000000 0.000000
    30 0.583510 -1.197277 0.185379 0.316258 -1.087026 -0.583548
    31 1.535927 0.010246 0.005009 0.347010 -0.308555 -0.883745
    32 1.100771 0.004527 -0.010679 -0.011449 0.011491 -0.607443
    33 0.120153 -0.050270 -0.054489 0.287569 3.110905 1.561085
    34 0.447953 -2.798986 -0.200443 -1.159457 -0.126508 -0.047440
    35 -0.032909 -1.480204 0.004940 -1.413638 0.000000 0.000002
    36 -0.027022 -1.076920 -0.020210 -1.481391 0.000000 0.000000
    37 -0.249534 -2.846964 -0.174213 -1.055898 -0.135815 -0.084786
    38 0.043235 -1.683941 0.096012 -1.469808 0.002823 -0.000167
    39 0.031729 -1.160830 0.058838 -1.698243 0.000642 0.008372
    40 -0.963866 -2.785145 -0.085350 -1.049434 -0.085997 -0.167475
    41 0.028479 -1.403067 0.006271 -1.158128 0.000000 0.000000
    42 0.021413 -0.957781 0.020046 -1.216858 0.000000 0.000000
    43 1.164475 -2.543940 -0.170330 -0.843988 -0.306425 0.042666
    44 0.024032 -1.129042 0.017807 -1.373633 0.000000 0.000001
    45 0.014898 -0.883989 -0.019848 -1.314671 0.000000 0.000000
    46 -0.586770 -1.264477 0.200161 -0.276779 -0.716323 -2.528368
    47 1.522835 0.058681 0.016848 -0.037192 -0.131247 0.649005
    48 1.117947 0.048424 -0.005766 -0.016374 -0.019146 0.763702
    49 -0.139399 -0.111698 0.014397 0.285382 -0.030687 1.580508
    50 -1.393470 8.839177 -0.239433 1.580804 -0.005023 -1.566847
  time 23
    0 0.000000 0.000000 -0.015625 -0.001518 0.000000 -0.000016
    1 7.747556 5.726923 -6.642266 1.276003 -1.619030 -1.385045
    2 -0.071918 -8.498729 -0.104137 0.233264 0.229964 0.027316
    3 1.861052 -2.316011 1.422734 0.139416 0.201012 -3.172999
    4 1.111351 2.047762 0.000000 0.000000 0.000000 0.000000
    5 -2.197709 3.248277 -0.000006 0.000001 0.000000 3.141592
    6 -1.583559 10.474715 0.386643 1.570797 -1.570796 0.000000
    7 -0.609616 11.483512 -0.000014 0.000000 0.000001 1.570796
    8 0.249077 5.246643 -0.000014 -0.000001 0.000000 0.226893
    9 -1.309863 -7.033240 -10.273580 -2.110829 -5.190259 -1.381975
    10 0.096944 -8.450419 -0.009364 0.228648 -0.233694 0.292775
    11 5.284078 16.225037 55.362292 -2.676192 -1.216110 0.861362
    12 -2.196302 -3.238963 0.258082 0.072146 -0.010897 3.141198
    13 -1.583562 -10.474718 0.386644 -1.589286 1.570796 0.000000
    14 0.251131 -5.233087 0.375461 -0.072749 -0.005596 -0.226690
    15 -0.605067 -11.453402 0.834369 -0.010926 -0.072142 -1.570402
    16 1.112089 -2.042870 0.135495 -0.072147 0.010897 -0.000393
    17 1.257180 8.762585 -0.153713 -1.570562 0.002683 -1.566807
    18 -0.488518 -2.755602 -0.228260 -1.085960 -0.191560 -0.439285
    19 0.039887 -1.479790 0.029854 -0.928033 0.000000 0.000001
    20 0.028786 -1.075731 -0.023109 -1.481404 0.000000 0.000000
    21 0.250027 -2.820665 -0.238396 -0.892857 -0.160399 -0.409458
    22 -0.049759 -1.680544 0.100479 -1.289132 0.000000 -0.000002
    23 -0.034142 -1.148312 0.084782 -1.087270 0.000000 0.000000
    24 0.957766 -2.746780 -0.090302 -0.208375 -0.395425 -0.120125
    25 -0.033420 -1.397129 -0.011257 -0.691832 0.124808 -0.122316
    26 -0.022360 -0.957436 0.018784 -0.519754 0.000000 0.000000
    27 -1.180681 -2.507217 -0.193859 -0.873937 -0.068285 -0.359963
    28 -0.024967 -1.123934 0.017597 -1.152494 0.000000 0.000001
    29 -0.020057 -0.890968 0.010090 -0.933448 0.000000 0.000000
    30 0.583510 -1.197277 0.185379 0.316258 -1.087026 -0.583548
    31 1.535927 0.010246 0.005009 0.347010 -0.308555 -0.883745
    32 1.100771 0.004527 -0.010679 -0.011449 0.011491 -0.607443
    33 0.120153 -0.050270 -0.054489 0.287569 3.110905 1.561085
    34 0.447953 -2.798986 -0.200443 -1.159457 -0.126508 -0.047440
    35 -0.032909 -1.480204 0.004940 -1.413638 0.000000 0.000002
    36 -0.027022 -1.076920 -0.020210 -1.481391 0.000000 0.000000
    37 -0.249534 -2.846964 -0.174213 -1.055898 -0.135815 -0.084786
    38 0.043235 -1.683941 0.096012 -1.469808 0.002823 -0.000167
    39 0.031729 -1.160830 0.058838 -1.698243 0.000642 0.008372
    40 -0.963866 -2.785145 -0.085350 -1.049434 -0.085997 -0.167475
    41 0.028479 -1.403067 0.006271 -1.158128 0.000000 0.000000
    42 0.021413 -0.957781 0.020046 -1.216858 0.000000 0.000000
    43 1.164475 -2.543940 -0.170330 -0.843988 -0.306425 0.042666
    44 0.024032 -1.129042 0.017807 -1.373633 0.000000 0.000001
    45 0.014898 -0.883989 -0.019848 -1.314671 0.000000 0.000000
    46 -0.586770 -1.264477 0.200161 -0.276779 -0.716323 -2.528368
    47 1.522835 0.058681 0.016848 -0.037192 -0.131247 0.649005
    48 1.117947 0.048424 -0.005766 -0.016374 -0.019146 0.763702
    49 -0.139399 -0.111698 0.014397 0.285382 -0.030687 1.580508
    50 -1.393470 8.839177 -0.239433 1.580804 -0.005023 -1.566847
  time 24
    0 0.000000 0.000000 -0.003906 -0.000439 0.000000 -0.000016
    1 7.747556 5.726923 -6.642266 1.276003 -1.619030 -1.385045
    2 -0.071918 -8.498729 -0.104137 0.233264 0.229964 0.027316
    3 1.861052 -2.316011 1.422734 0.139416 0.201012 -3.172999
    4 1.111351 2.047762 0.000000 0.000000 0.000000 0.000000
    5 -2.197709 3.248277 -0.000006 0.000001 0.000000 3.141592
    6 -1.583559 10.474715 0.386643 1.570797 -1.570796 0.000000
    7 -0.609616 11.483512 -0.000014 0.000000 0.000001 1.570796
    8 0.249077 5.246643 -0.000014 -0.000001 0.000000 0.226893
    9 -1.309863 -7.033240 -10.273580 -2.110829 -5.190259 -1.381975
    10 0.096944 -8.450419 -0.009364 0.228648 -0.233694 0.292775
    11 5.284078 16.225037 55.362292 -2.676192 -1.216110 0.861362
    12 -2.196302 -3.238963 0.258082 0.072146 -0.010897 3.141198
    13 -1.583562 -10.474718 0.386644 -1.589286 1.570796 0.000000
    14 0.251131 -5.233087 0.375461 -0.072749 -0.005596 -0.226690
    15 -0.605067 -11.453402 0.834369 -0.010926 -0.072142 -1.570402
    16 1.112089 -2.042870 0.135495 -0.072147 0.010897 -0.000393
    17 1.257180 8.762585 -0.153713 -1.570562 0.002683 -1.566807
    18 -0.488518 -2.755602 -0.228260 -1.085960 -0.191560 -0.439285
    19 0.039887 -1.479790 0.029854 -0.928033 0.000000 0.000001
    20 0.028786 -1.075731 -0.023109 -1.481404 0.000000 0.000000
    21 0.250027 -2.820665 -0.238396 -0.892857 -0.160399 -0.409458
    22 -0.049759 -1.680544 0.100479 -1.289132 0.000000 -0.000002
    23 -0.034142 -1.148312 0.084782 -1.087270 0.000000 0.000000
    24 0.957766 -2.746780 -0.090302 -0.208375 -0.395425 -0.120125
    25 -0.033420 -1.397129 -0.011257 -0.691832 0.124808 -0.122316
    26 -0.022360 -0.957436 0.018784 -0.519754 0.000000 0.000000
    27 -1.180681 -2.507217 -0.193859 -0.873937 -0.068285 -0.359963
    28 -0.024967 -1.123934 0.017597 -1.152494 0.000000 0.000001
    29 -0.020057 -0.890968 0.010090 -0.933448 0.000000 0.000000
    30 0.583510 -1.197277 0.185379 0.316258 -1.087026 -0.583548
    31 1.535927 0.010246 0.005009 0.347010 -0.308555 -0.883745
    32 1.100771 0.004527 -0.010679 -0.011449 0.011491 -0.607443
    33 0.120153 -0.050270 -0.054489 0.287569 3.110905 1.561085
    34 0.447953 -2.798986 -0.200443 -1.159457 -0.126508 -0.047440
    35 -0.032909 -1.480204 0.004940 -1.413638 0.000000 0.000002
    36 -0.027022 -1.076920 -0.020210 -1.481391 0.000000 0.000000
    37 -0.249534 -2.846964 -0.174213 -1.055898 -0.135815 -0.084786
    38 0.043235 -1.683941 0.096012 -1.469808 0.002823 -0.000167
    39 0.031729 -1.160830 0.058838 -1.698243 0.000642 0.008372
    40 -0.963866 -2.785145 -0.085350 -1.049434 -0.085997 -0.167475
    41 0.028479 -1.403067 0.006271 -1.158128 0.000000 0.000000
    42 0.021413 -0.957781 0.020046 -1.216858 0.000000 0.000000
    43 1.164475 -2.543940 -0.170330 -0.843988 -0.306425 0.042666
    44 0.024032 -1.129042 0.017807 -1.373633 0.000000 0.000001
    45 0.014898 -0.883989 -0.019848 -1.314671 0.000000 0.000000
    46 -0.586770 -1.264477 0.200161 -0.276779 -0.716323 -2.528368
    47 1.522835 0.058681 0.016848 -0.037192 -0.131247 0.649005
    48 1.117947 0.048424 -0.005766 -0.016374 -0.019146 0.763702
    49 -0.139399 -0.111698 0.014397 0.285382 -0.030687 1.580508
    50 -1.393470 8.839177 -0.239433 1.580804 -0.005023 -1.566847
  time 25
    0 0.000000 0.000000 0.000000 0.000000 0.000000 -0.000016
    1 7.747556 5.726923 -6.642266 1.276003 -1.619030 -1.385045
    2 -0.071918 -8.498729 -0.104137 0.233264 0.229964 0.027316
    3 1.861052 -2.316011 1.422734 0.139416 0.201012 -3.172999
    4 1.111351 2.047762 0.000000 0.000000 0.000000 0.000000
    5 -2.197709 3.248277 -0.000006 0.000001 0.000000 3.141592
    6 -1.583559 10.474715 0.386643 1.570797 -1.570796 0.000000
    7 -0.609616 11.483512 -0.000014 0.000000 0.000001 1.570796
    8 0.249077 5.246643 -0.000014 -0.000001 0.000000 0.226893
    9 -1.309863 -7.033240 -10.273580 -2.110829 -5.190259 -1.381975
    10 0.096944 -8.450419 -0.009364 0.228648 -0.233694 0.292775
    11 5.284078 16.225037 55.362292 -2.676192 -1.216110 0.861362
    12 -2.196302 -3.238963 0.258082 0.072146 -0.010897 3.141198
    13 -1.583562 -10.474718 0.386644 -1.589286 1.570796 0.000000
    14 0.251131 -5.233087 0.375461 -0.072749 -0.005596 -0.226690
    15 -0.605067 -11.453402 0.834369 -0.010926 -0.072142 -1.570402
    16 1.112089 -2.042870 0.135495 -0.072147 0.010897 -0.000393
    17 1.257180 8.762585 -0.153713 -1.570562 0.002683 -1.566807
    18 -0.488518 -2.755602 -0.228260 -1.085960 -0.191560 -0.439285
    19 0.039887 -1.479790 0.029854 -0.928033 0.000000 0.000001
    20 0.028786 -1.075731 -0.023109 -1.481404 0.000000 0.000000
    21 0.250027 -2.820665 -0.238396 -0.892857 -0.160399 -0.409458
    22 -0.049759 -1.680544 0.100479 -1.289132 0.000000 -0.000002
    23 -0.034142 -1.148312 0.084782 -1.087270 0.000000 0.000000
    24 0.957766 -2.746780 -0.090302 -0.208375 -0.395425 -0.120125
    25 -0.033420 -1.397129 -0.011257 -0.691832 0.124808 -0.122316
    26 -0.022360 -0.957436 0.018784 -0.519754 0.000000 0.000000
    27 -1.180681 -2.507217 -0.193859 -0.873937 -0.068285 -0.359963
    28 -0.024967 -1.123934 0.017597 -1.152494 0.000000 0.000001
    29 -0.020057 -0.890968 0.010090 -0.933448 0.000000 0.000000
    30 0.583510 -1.197277 0.185379 0.316258 -1.087026 -0.583548
    31 1.535927 0.010246 0.005009 0.347010 -0.308555 -0.883745
    32 1.100771 0.004527 -0.010679 -0.011449 0.011491 -0.607443
    33 0.120153 -0.050270 -0.054489 0.287569 3.110905 1.561085
    34 0.447953 -2.798986 -0.200443 -1.159457 -0.126508 -0.047440
    35 -0.032909 -1.480204 0.004940 -1.413638 0.000000 0.000002
    36 -0.027022 -1.076920 -0.020210 -1.481391 0.000000 0.000000
    37 -0.249534 -2.846964 -0.174213 -1.055898 -0.135815 -0.084786
    38 0.043235 -1.683941 0.096012 -1.469808 0.002823 -0.000167
    39 0.031729 -1.160830 0.058838 -1.698243 0.000642 0.008372
    40 -0.963866 -2.785145 -0.085350 -1.049434 -0.085997 -0.167475
    41 0.028479 -1.403067 0.006271 -1.158128 0.000000 0.000000
    42 0.021413 -0.957781 0.020046 -1.216858 0.000000 0.000000
    43 1.164475 -2.543940 -0.170330 -0.843988 -0.306425 0.042666
    44 0.024032 -1.129042 0.017807 -1.373633 0.000000 0.000001
    45 0.014898 -0.883989 -0.019848 -1.314671 0.000000 0.000000
    46 -0.586770 -1.264477 0.200161 -0.276779 -0.716323 -2.528368
    47 1.522835 0.058681 0.016848 -0.037192 -0.131247 0.649005
    48 1.117947 0.048424 -0.005766 -0.016374 -0.019146 0.763702
    49 -0.139399 -0.111698 0.014397 0.285382 -0.030687 1.580508
    50 -1.393470 8.839177 -0.239433 1.580804 -0.005023 -1.566847
end
