version 1
nodes
  0 "Bone01" -1
  1 "Bone_Lefthand" 0
  2 "Bone_SL8" 1
  3 "Bone_Magazine" 2
  4 "Bone_Bullet_HoTo" 3
  5 "Bone_Nori" 2
  6 "Bone_Nori_T" 5
  7 "Bone_Trigger" 2
  8 "Bone_bullet_Cover" 2
  9 "Bone_Magazine_Trigger" 2
  10 "Bone04" -1
  11 "Bone_Righthand" 10
  12 "Bone27" 11
  13 "Bone28" 12
  14 "Bone29" 13
  15 "Bone31" 11
  16 "Bone32" 15
  17 "Bone33" 16
  18 "Bone35" 11
  19 "Bone36" 18
  20 "Bone37" 19
  21 "Bone39" 11
  22 "Bone40" 21
  23 "Bone41" 22
  24 "Bone43" 11
  25 "Bone44" 24
  26 "Bone45" 25
  27 "Bone_Se_Hand-R" 11
  28 "Bone05" 1
  29 "Bone06" 28
  30 "Bone07" 29
  31 "Bone21" 1
  32 "Bone22" 31
  33 "Bone23" 32
  34 "Bone17" 1
  35 "Bone18" 34
  36 "Bone19" 35
  37 "Bone13" 1
  38 "Bone14" 37
  39 "Bone15" 38
  40 "Bone09" 1
  41 "Bone10" 40
  42 "Bone11" 41
  43 "Bone_Se_Hand-L" 1
end
skeleton
  time 0
    0 9.206475 3.448684 -4.246608 -0.866332 -2.070163 0.617346
    1 -0.071918 -8.498731 -0.104136 0.052181 0.330811 -0.460221
    2 1.231110 -1.646805 1.167199 0.283770 1.487099 0.248230
    3 -0.018918 -5.204151 1.209771 0.000000 0.000000 0.000000
    4 -0.106210 -0.041607 0.734739 0.000000 -1.570796 0.000000
    5 -0.006608 -7.116275 2.875793 0.000000 0.000000 0.000000
    6 0.000031 -0.420787 -0.134254 0.000000 0.000000 -1.234645
    7 -0.086616 -2.846228 0.453552 0.000000 0.000000 0.000000
    8 -0.086616 -6.239250 1.961809 0.000000 0.000000 0.000000
    9 -0.086616 -4.262175 -0.301127 0.000000 0.000000 0.000000
    10 0.184088 -2.204907 -5.912584 -0.438295 2.864892 0.060959
    11 0.096947 -8.450419 -0.009363 -0.491072 0.117957 0.462701
    12 -0.586768 -1.264477 0.200164 -0.240081 -0.506850 -2.402681
    13 1.522834 0.058679 0.016851 0.220910 -0.192977 0.703781
    14 1.117947 0.048425 -0.005765 0.225382 -0.008054 0.078707
    15 -0.963867 -2.785143 -0.085346 -0.348319 -0.069235 -0.027481
    16 0.028478 -1.403067 0.006271 -1.097937 0.000000 0.000000
    17 0.021414 -0.957781 0.020047 -1.007036 -0.248776 0.191909
    18 -0.249534 -2.846963 -0.174215 -0.881820 -0.052696 0.090280
    19 0.043234 -1.683940 0.096014 -1.837724 0.000000 0.000000
    20 0.031729 -1.160831 0.058836 -1.246304 0.000000 0.000000
    21 0.447952 -2.798983 -0.200441 -1.144028 0.037894 0.167993
    22 -0.032909 -1.480207 0.004936 -1.659992 0.000000 0.000000
    23 -0.027022 -1.076920 -0.020212 -0.972712 0.000000 0.000000
    24 1.164474 -2.543939 -0.170327 -1.340445 -0.035155 0.207255
    25 0.024032 -1.129040 0.017805 -1.441949 0.000000 0.000000
    26 0.014896 -0.883992 -0.019845 -0.763542 0.000000 0.000000
    27 -0.130622 -0.116383 -0.021176 0.289586 0.093244 1.456062
    28 0.583509 -1.197274 0.185379 -0.058240 -0.763815 -0.608621
    29 1.535926 0.010247 0.005008 -0.146242 -0.029973 -0.907744
    30 1.100770 0.004528 -0.010675 0.000000 0.000000 -0.948053
    31 0.957766 -2.746777 -0.090301 -0.334120 0.035355 0.063678
    32 -0.033419 -1.397127 -0.011256 -0.104320 0.000000 0.000000
    33 -0.022361 -0.957434 0.018783 -0.638045 0.000000 0.000000
    34 0.250029 -2.820664 -0.238397 -0.618475 0.127049 -0.341497
    35 -0.049759 -1.680544 0.100479 -1.815466 0.077876 -0.019415
    36 -0.034141 -1.148310 0.084779 -0.997595 -0.031376 -0.015448
    37 -0.488517 -2.755600 -0.228262 -0.877258 0.177036 -0.438099
    38 0.039889 -1.479791 0.029854 -1.520913 0.000000 0.000000
    39 0.028786 -1.075733 -0.023111 -1.058310 0.000000 0.000000
    40 -1.180679 -2.507216 -0.193861 -1.019141 0.319461 -0.426610
    41 -0.024967 -1.123934 0.017594 -0.936346 0.000000 0.000000
    42 -0.020058 -0.890964 0.010091 -1.193241 0.000000 0.000000
    43 0.092807 -0.054173 -0.097459 3.122270 6.118195 -1.569909
  time 1
    0 9.401793 3.319774 -4.289578 -0.814020 -2.034421 0.519738
    1 -0.071918 -8.498731 -0.104136 0.068864 0.296964 -0.410042
    2 1.231110 -1.646805 1.167199 0.283770 1.487099 0.248230
    3 -0.018918 -5.204151 1.209771 0.000000 0.000000 0.000000
    4 -0.106210 -0.041607 0.734739 0.000000 -1.570796 0.000000
    5 -0.006608 -7.116275 2.875793 0.000000 0.000000 0.000000
    6 0.000031 -0.420787 -0.134254 0.000000 0.000000 -1.234645
    7 -0.086616 -2.846228 0.453552 0.000000 0.000000 0.000000
    8 -0.086616 -6.239250 1.961809 0.000000 0.000000 0.000000
    9 -0.086616 -4.262175 -0.301127 0.000000 0.000000 0.000000
    10 0.359874 -2.294753 -5.686015 -0.376429 2.860004 0.053462
    11 0.096947 -8.450419 -0.009363 -0.358910 0.134452 0.445550
    12 -0.586768 -1.264477 0.200164 -0.239957 -0.506906 -2.402753
    13 1.522834 0.058679 0.016851 0.221413 -0.191824 0.699469
    14 1.117947 0.048425 -0.005765 0.225382 -0.008054 0.078707
    15 -0.963867 -2.785143 -0.085346 -0.349682 -0.069175 -0.027025
    16 0.028478 -1.403067 0.006271 -1.101504 0.000000 0.000000
    17 0.021414 -0.957781 0.020047 -1.007036 -0.248776 0.191909
    18 -0.249534 -2.846963 -0.174215 -0.881820 -0.052696 0.090280
    19 0.043234 -1.683940 0.096014 -1.837724 0.000000 0.000000
    20 0.031729 -1.160831 0.058836 -1.246304 0.000000 0.000000
    21 0.447952 -2.798983 -0.200441 -1.144028 0.037894 0.167993
    22 -0.032909 -1.480207 0.004936 -1.659992 0.000000 0.000000
    23 -0.027022 -1.076920 -0.020212 -0.972712 0.000000 0.000000
    24 1.164474 -2.543939 -0.170327 -1.340445 -0.035155 0.207255
    25 0.024032 -1.129040 0.017805 -1.441949 0.000000 0.000000
    26 0.014896 -0.883992 -0.019845 -0.763542 0.000000 0.000000
    27 -0.126716 -0.116383 -0.021176 0.281572 0.089708 1.457800
    28 0.583509 -1.197274 0.185379 -0.057507 -0.763504 -0.608999
    29 1.535926 0.010247 0.005008 -0.146074 -0.030549 -0.908102
    30 1.100770 0.004528 -0.010675 0.000000 0.000000 -0.945768
    31 0.957766 -2.746777 -0.090301 -0.334120 0.035355 0.063678
    32 -0.033419 -1.397127 -0.011256 -0.104320 0.000000 0.000000
    33 -0.022361 -0.957434 0.018783 -0.638045 0.000000 0.000000
    34 0.250029 -2.820664 -0.238397 -0.618475 0.127049 -0.341497
    35 -0.049759 -1.680544 0.100479 -1.815466 0.077876 -0.019415
    36 -0.034141 -1.148310 0.084779 -0.997595 -0.031376 -0.015448
    37 -0.488517 -2.755600 -0.228262 -0.877258 0.177036 -0.438099
    38 0.039889 -1.479791 0.029854 -1.520913 0.000000 0.000000
    39 0.028786 -1.075733 -0.023111 -1.058310 0.000000 0.000000
    40 -1.180679 -2.507216 -0.193861 -1.019141 0.319461 -0.426610
    41 -0.024967 -1.123934 0.017594 -0.936346 0.000000 0.000000
    42 -0.020058 -0.890964 0.010091 -1.193241 0.000000 0.000000
    43 0.092807 -0.054173 -0.097459 3.122270 6.118195 -1.569909
  time 2
    0 9.573673 3.214302 -4.336454 -0.758368 -1.999400 0.424887
    1 -0.071918 -8.498731 -0.104136 0.085621 0.263237 -0.360880
    2 1.231110 -1.646805 1.167199 0.283770 1.487099 0.248230
    3 -0.018918 -5.204151 1.209771 0.000000 0.000000 0.000000
    4 -0.106210 -0.041607 0.734739 0.000000 -1.570796 0.000000
    5 -0.006608 -7.116275 2.875793 0.000000 0.000000 0.000000
    6 0.000031 -0.420787 -0.134254 0.000000 0.000000 -1.234645
    7 -0.086616 -2.846228 0.453552 0.000000 0.000000 0.000000
    8 -0.086616 -6.239250 1.961809 0.000000 0.000000 0.000000
    9 -0.086616 -4.262175 -0.301127 0.000000 0.000000 0.000000
    10 0.492691 -2.372880 -5.521947 -0.306331 2.855500 0.051991
    11 0.096947 -8.450419 -0.009363 -0.247828 0.144294 0.429871
    12 -0.586768 -1.264477 0.200164 -0.239660 -0.507045 -2.403005
    13 1.522834 0.058679 0.016851 0.222780 -0.188673 0.687726
    14 1.117947 0.048425 -0.005765 0.225382 -0.008054 0.078707
    15 -0.963867 -2.785143 -0.085346 -0.353357 -0.069019 -0.025779
    16 0.028478 -1.403067 0.006271 -1.111077 0.000000 0.000000
    17 0.021414 -0.957781 0.020047 -1.007036 -0.248776 0.191909
    18 -0.249534 -2.846963 -0.174215 -0.881820 -0.052696 0.090280
    19 0.043234 -1.683940 0.096014 -1.837724 0.000000 0.000000
    20 0.031729 -1.160831 0.058836 -1.246304 0.000000 0.000000
    21 0.447952 -2.798983 -0.200441 -1.144028 0.037894 0.167993
    22 -0.032909 -1.480207 0.004936 -1.659992 0.000000 0.000000
    23 -0.027022 -1.076920 -0.020212 -0.972712 0.000000 0.000000
    24 1.164474 -2.543939 -0.170327 -1.340445 -0.035155 0.207255
    25 0.024032 -1.129040 0.017805 -1.441949 0.000000 0.000000
    26 0.014896 -0.883992 -0.019845 -0.763542 0.000000 0.000000
    27 -0.122810 -0.116383 -0.013364 0.260052 0.080235 1.462438
    28 0.583509 -1.197274 0.185379 -0.055381 -0.762605 -0.610130
    29 1.535926 0.010247 0.005008 -0.145618 -0.032215 -0.909158
    30 1.100770 0.004528 -0.010675 0.000000 0.000000 -0.939151
    31 0.957766 -2.746777 -0.090301 -0.334120 0.035355 0.063678
    32 -0.033419 -1.397127 -0.011256 -0.104320 0.000000 0.000000
    33 -0.022361 -0.957434 0.018783 -0.638045 0.000000 0.000000
    34 0.250029 -2.820664 -0.238397 -0.618475 0.127049 -0.341497
    35 -0.049759 -1.680544 0.100479 -1.815466 0.077876 -0.019415
    36 -0.034141 -1.148310 0.084779 -0.997595 -0.031376 -0.015448
    37 -0.488517 -2.755600 -0.228262 -0.877258 0.177036 -0.438099
    38 0.039889 -1.479791 0.029854 -1.520913 0.000000 0.000000
    39 0.028786 -1.075733 -0.023111 -1.058310 0.000000 0.000000
    40 -1.180679 -2.507216 -0.193861 -1.019141 0.319461 -0.426610
    41 -0.024967 -1.123934 0.017594 -0.936346 0.000000 0.000000
    42 -0.020058 -0.890964 0.010091 -1.193241 0.000000 0.000000
    43 0.092807 -0.054173 -0.097459 3.122270 6.118195 -1.569909
  time 3
    0 9.726022 3.140081 -4.387237 -0.691549 -1.962613 0.325648
    1 -0.071918 -8.498731 -0.104136 0.102441 0.229549 -0.312775
    2 1.231110 -1.646805 1.167199 0.283770 1.487099 0.248230
    3 -0.018918 -5.204151 1.209771 0.000000 0.000000 0.000000
    4 -0.106210 -0.041607 0.734739 0.000000 -1.570796 0.000000
    5 -0.006608 -7.116275 2.875793 0.000000 0.000000 0.000000
    6 0.000031 -0.420787 -0.134254 0.000000 0.000000 -1.234645
    7 -0.086616 -2.846228 0.453552 0.000000 0.000000 0.000000
    8 -0.086616 -6.239250 1.961809 0.000000 0.000000 0.000000
    9 -0.086616 -4.262175 -0.301127 0.000000 0.000000 0.000000
    10 0.578631 -2.439289 -5.428194 -0.223823 2.851091 0.057651
    11 0.096947 -8.450419 -0.009363 -0.157846 0.147483 0.415635
    12 -0.586768 -1.264477 0.200164 -0.239214 -0.507239 -2.403402
    13 1.522834 0.058679 0.016851 0.224805 -0.184045 0.670475
    14 1.117947 0.048425 -0.005765 0.225382 -0.008054 0.078707
    15 -0.963867 -2.785143 -0.085346 -0.358750 -0.068744 -0.023957
    16 0.028478 -1.403067 0.006271 -1.125235 0.000000 0.000000
    17 0.021414 -0.957781 0.020047 -1.007036 -0.248776 0.191909
    18 -0.249534 -2.846963 -0.174215 -0.881820 -0.052696 0.090280
    19 0.043234 -1.683940 0.096014 -1.837724 0.000000 0.000000
    20 0.031729 -1.160831 0.058836 -1.246304 0.000000 0.000000
    21 0.447952 -2.798983 -0.200441 -1.144028 0.037894 0.167993
    22 -0.032909 -1.480207 0.004936 -1.659992 0.000000 0.000000
    23 -0.027022 -1.076920 -0.020212 -0.972712 0.000000 0.000000
    24 1.164474 -2.543939 -0.170327 -1.340445 -0.035155 0.207255
    25 0.024032 -1.129040 0.017805 -1.441949 0.000000 0.000000
    26 0.014896 -0.883992 -0.019845 -0.763542 0.000000 0.000000
    27 -0.111091 -0.120290 -0.005551 0.228928 0.066505 1.469161
    28 0.583509 -1.197274 0.185379 -0.051936 -0.761155 -0.611958
    29 1.535926 0.010247 0.005008 -0.144863 -0.034899 -0.910875
    30 1.100770 0.004528 -0.010675 0.000000 0.000000 -0.928511
    31 0.957766 -2.746777 -0.090301 -0.334120 0.035355 0.063678
    32 -0.033419 -1.397127 -0.011256 -0.104320 0.000000 0.000000
    33 -0.022361 -0.957434 0.018783 -0.638045 0.000000 0.000000
    34 0.250029 -2.820664 -0.238397 -0.618475 0.127049 -0.341497
    35 -0.049759 -1.680544 0.100479 -1.815466 0.077876 -0.019415
    36 -0.034141 -1.148310 0.084779 -0.997595 -0.031376 -0.015448
    37 -0.488517 -2.755600 -0.228262 -0.877258 0.177036 -0.438099
    38 0.039889 -1.479791 0.029854 -1.520913 0.000000 0.000000
    39 0.028786 -1.075733 -0.023111 -1.058310 0.000000 0.000000
    40 -1.180679 -2.507216 -0.193861 -1.019141 0.319461 -0.426610
    41 -0.024967 -1.123934 0.017594 -0.936346 0.000000 0.000000
    42 -0.020058 -0.890964 0.010091 -1.193241 0.000000 0.000000
    43 0.092807 -0.054173 -0.097459 3.122270 6.118195 -1.569909
  time 4
    0 9.851026 3.089298 -4.441926 -0.616114 -1.924925 0.224429
    1 -0.071918 -8.498731 -0.104136 0.119349 0.195902 -0.265687
    2 1.231110 -1.646805 1.167199 0.283770 1.487099 0.248230
    3 -0.018918 -5.204151 1.209771 0.000000 0.000000 0.000000
    4 -0.106210 -0.041607 0.734739 0.000000 -1.570796 0.000000
    5 -0.006608 -7.116275 2.875793 0.000000 0.000000 0.000000
    6 0.000031 -0.420787 -0.134254 0.000000 0.000000 -1.234645
    7 -0.086616 -2.846228 0.453552 0.000000 0.000000 0.000000
    8 -0.086616 -6.239250 1.961809 0.000000 0.000000 0.000000
    9 -0.086616 -4.262175 -0.301127 0.000000 0.000000 0.000000
    10 0.625507 -2.493978 -5.400850 -0.130214 2.846682 0.070221
    11 0.096947 -8.450419 -0.009363 -0.088943 0.144020 0.402871
    12 -0.586768 -1.264477 0.200164 -0.238644 -0.507460 -2.403961
    13 1.522834 0.058679 0.016851 0.227250 -0.178426 0.649508
    14 1.117947 0.048425 -0.005765 0.225382 -0.008054 0.078707
    15 -0.963867 -2.785143 -0.085346 -0.365328 -0.068348 -0.021740
    16 0.028478 -1.403067 0.006271 -1.142450 0.000000 0.000000
    17 0.021414 -0.957781 0.020047 -1.007036 -0.248776 0.191909
    18 -0.249534 -2.846963 -0.174215 -0.881820 -0.052696 0.090280
    19 0.043234 -1.683940 0.096014 -1.837724 0.000000 0.000000
    20 0.031729 -1.160831 0.058836 -1.246304 0.000000 0.000000
    21 0.447952 -2.798983 -0.200441 -1.144028 0.037894 0.167993
    22 -0.032909 -1.480207 0.004936 -1.659992 0.000000 0.000000
    23 -0.027022 -1.076920 -0.020212 -0.972712 0.000000 0.000000
    24 1.164474 -2.543939 -0.170327 -1.340445 -0.035155 0.207255
    25 0.024032 -1.129040 0.017805 -1.441949 0.000000 0.000000
    26 0.014896 -0.883992 -0.019845 -0.763542 0.000000 0.000000
    27 -0.103278 -0.120290 0.006168 0.192080 0.050218 1.477131
    28 0.583509 -1.197274 0.185379 -0.047293 -0.759201 -0.614410
    29 1.535926 0.010247 0.005008 -0.143869 -0.038506 -0.913176
    30 1.100770 0.004528 -0.010675 0.000000 0.000000 -0.914128
    31 0.957766 -2.746777 -0.090301 -0.334120 0.035355 0.063678
    32 -0.033419 -1.397127 -0.011256 -0.104320 0.000000 0.000000
    33 -0.022361 -0.957434 0.018783 -0.638045 0.000000 0.000000
    34 0.250029 -2.820664 -0.238397 -0.618475 0.127049 -0.341497
    35 -0.049759 -1.680544 0.100479 -1.815466 0.077876 -0.019415
    36 -0.034141 -1.148310 0.084779 -0.997595 -0.031376 -0.015448
    37 -0.488517 -2.755600 -0.228262 -0.877258 0.177036 -0.438099
    38 0.039889 -1.479791 0.029854 -1.520913 0.000000 0.000000
    39 0.028786 -1.075733 -0.023111 -1.058310 0.000000 0.000000
    40 -1.180679 -2.507216 -0.193861 -1.019141 0.319461 -0.426610
    41 -0.024967 -1.123934 0.017594 -0.936346 0.000000 0.000000
    42 -0.020058 -0.890964 0.010091 -1.193241 0.000000 0.000000
    43 0.092807 -0.054173 -0.097459 3.122270 6.118195 -1.569909
  time 5
    0 9.960404 3.069767 -4.500522 -0.547713 -1.891272 0.135401
    1 -0.071918 -8.498731 -0.104136 0.136319 0.162373 -0.219655
    2 1.231110 -1.646805 1.167199 0.283770 1.487099 0.248230
    3 -0.018918 -5.204151 1.209771 0.000000 0.000000 0.000000
    4 -0.106210 -0.041607 0.734739 0.000000 -1.570796 0.000000
    5 -0.006608 -7.116275 2.875793 0.000000 0.000000 0.000000
    6 0.000031 -0.420787 -0.134254 0.000000 0.000000 -1.234645
    7 -0.086616 -2.846228 0.453552 0.000000 0.000000 0.000000
    8 -0.086616 -6.239250 1.961809 0.000000 0.000000 0.000000
    9 -0.086616 -4.262175 -0.301127 0.000000 0.000000 0.000000
    10 0.629414 -2.533042 -5.436007 -0.033985 2.843040 0.087201
    11 0.096947 -8.450419 -0.009363 -0.041140 0.133935 0.391551
    12 -0.586768 -1.264477 0.200164 -0.238049 -0.507710 -2.404700
    13 1.522834 0.058679 0.016851 0.229922 -0.172321 0.626663
    14 1.117947 0.048425 -0.005765 0.225382 -0.008054 0.078707
    15 -0.963867 -2.785143 -0.085346 -0.372500 -0.067845 -0.019331
    16 0.028478 -1.403067 0.006271 -1.161122 0.000000 0.000000
    17 0.021414 -0.957781 0.020047 -1.007036 -0.248776 0.191909
    18 -0.249534 -2.846963 -0.174215 -0.881820 -0.052696 0.090280
    19 0.043234 -1.683940 0.096014 -1.837724 0.000000 0.000000
    20 0.031729 -1.160831 0.058836 -1.246304 0.000000 0.000000
    21 0.447952 -2.798983 -0.200441 -1.144028 0.037894 0.168005
    22 -0.032909 -1.480207 0.004936 -1.659992 0.000000 0.000000
    23 -0.027022 -1.076920 -0.020212 -0.972712 0.000000 0.000000
    24 1.164474 -2.543939 -0.170327 -1.340445 -0.035155 0.207255
    25 0.024032 -1.129040 0.017805 -1.441949 0.000000 0.000000
    26 0.014896 -0.883992 -0.019845 -0.763542 0.000000 0.000000
    27 -0.091559 -0.120290 0.017887 0.153323 0.033090 1.485544
    28 0.583509 -1.197274 0.185379 -0.041551 -0.756792 -0.617457
    29 1.535926 0.010247 0.005008 -0.142622 -0.042989 -0.916024
    30 1.100770 0.004528 -0.010675 0.000000 0.000000 -0.896352
    31 0.957766 -2.746777 -0.090301 -0.334120 0.035355 0.063678
    32 -0.033419 -1.397127 -0.011256 -0.104320 0.000000 0.000000
    33 -0.022361 -0.957434 0.018783 -0.638045 0.000000 0.000000
    34 0.250029 -2.820664 -0.238397 -0.618475 0.127049 -0.341497
    35 -0.049759 -1.680544 0.100479 -1.815466 0.077876 -0.019415
    36 -0.034141 -1.148310 0.084779 -0.997595 -0.031376 -0.015448
    37 -0.488517 -2.755600 -0.228262 -0.877258 0.177036 -0.438099
    38 0.039889 -1.479791 0.029854 -1.520913 0.000000 0.000000
    39 0.028786 -1.075733 -0.023111 -1.058310 0.000000 0.000000
    40 -1.180679 -2.507216 -0.193861 -1.019141 0.319461 -0.426610
    41 -0.024967 -1.123934 0.017594 -0.936346 0.000000 0.000000
    42 -0.020058 -0.890964 0.010091 -1.193241 0.000000 0.000000
    43 0.092807 -0.054173 -0.097459 3.122270 6.118195 -1.569909
  time 6
    0 10.042438 3.081486 -4.563023 -0.501907 -1.866592 0.072775
    1 -0.071918 -8.498731 -0.104136 0.153364 0.128925 -0.174660
    2 1.231110 -1.646805 1.167199 0.283770 1.487099 0.248230
    3 -0.018918 -5.204151 1.209771 0.000000 0.000000 0.000000
    4 -0.106210 -0.041607 0.734739 0.000000 -1.570796 0.000000
    5 -0.006608 -7.116275 2.875793 0.000000 0.000000 0.000000
    6 0.000031 -0.420787 -0.134254 0.000000 0.000000 -1.234583
    7 -0.086616 -2.846228 0.453552 0.000000 0.000000 0.000000
    8 -0.086616 -6.239250 1.961809 0.000000 0.000000 0.000000
    9 -0.086616 -4.262175 -0.301127 0.000000 0.000000 0.000000
    10 0.590350 -2.564293 -5.541479 0.056506 2.840740 0.106239
    11 0.096947 -8.450419 -0.009363 -0.014416 0.117167 0.381702
    12 -0.586768 -1.264477 0.200164 -0.237454 -0.507960 -2.405601
    13 1.522834 0.058679 0.016851 0.232583 -0.166199 0.603861
    14 1.117947 0.048425 -0.005765 0.225382 -0.008054 0.078707
    15 -0.963867 -2.785143 -0.085346 -0.379671 -0.067198 -0.016922
    16 0.028478 -1.403067 0.006271 -1.179829 0.000000 0.000000
    17 0.021414 -0.957781 0.020047 -1.007036 -0.248776 0.191909
    18 -0.249534 -2.846963 -0.174215 -0.881820 -0.052696 0.090280
    19 0.043234 -1.683940 0.096014 -1.837724 0.000000 0.000000
    20 0.031729 -1.160831 0.058836 -1.246304 0.000000 0.000000
    21 0.447952 -2.798983 -0.200441 -1.144028 0.037894 0.167993
    22 -0.032909 -1.480207 0.004936 -1.659992 0.000000 0.000000
    23 -0.027022 -1.076920 -0.020212 -0.972712 0.000000 0.000000
    24 1.164474 -2.543939 -0.170327 -1.340445 -0.035155 0.207255
    25 0.024032 -1.129040 0.017805 -1.441949 0.000000 0.000000
    26 0.014896 -0.883992 -0.019845 -0.763542 0.000000 0.000000
    27 -0.079840 -0.120290 0.029606 0.116538 0.016820 1.493538
    28 0.583509 -1.197274 0.185379 -0.034807 -0.753952 -0.621025
    29 1.535926 0.010247 0.005008 -0.141160 -0.048238 -0.919363
    30 1.100770 0.004528 -0.010675 0.000000 0.000000 -0.875465
    31 0.957766 -2.746777 -0.090301 -0.334120 0.035355 0.063678
    32 -0.033419 -1.397127 -0.011256 -0.104320 0.000000 0.000000
    33 -0.022361 -0.957434 0.018783 -0.638045 0.000000 0.000000
    34 0.250029 -2.820664 -0.238397 -0.618475 0.127049 -0.341497
    35 -0.049759 -1.680544 0.100479 -1.815466 0.077876 -0.019415
    36 -0.034141 -1.148310 0.084779 -0.997595 -0.031376 -0.015448
    37 -0.488517 -2.755600 -0.228262 -0.877258 0.177036 -0.438099
    38 0.039889 -1.479791 0.029854 -1.520913 0.000000 0.000000
    39 0.028786 -1.075733 -0.023111 -1.058310 0.000000 0.000000
    40 -1.180679 -2.507216 -0.193861 -1.019141 0.319461 -0.426610
    41 -0.024967 -1.123934 0.017594 -0.936346 0.000000 0.000000
    42 -0.020058 -0.890964 0.010091 -1.193241 0.000000 0.000000
    43 0.092807 -0.054173 -0.097459 3.122270 6.118195 -1.569909
  time 7
    0 10.101033 3.132268 -4.613806 -0.488544 -1.853729 0.047228
    1 -0.071918 -8.498731 -0.104136 0.170459 0.095118 -0.134712
    2 1.231110 -1.646805 1.167199 0.283770 1.487099 0.248230
    3 -0.018918 -5.204151 1.209771 0.000000 0.000000 0.000000
    4 -0.106210 -0.041607 0.734739 0.000000 -1.570796 0.000000
    5 -0.006608 -7.167058 2.875793 0.000000 0.000000 0.000000
    6 0.000031 -0.420787 -0.134254 0.000000 0.000000 -1.226211
    7 -0.086616 -2.846228 0.453552 0.000000 0.000000 0.000000
    8 -0.086616 -6.239250 1.961809 0.000000 0.000000 0.000000
    9 -0.086616 -4.262175 -0.301127 0.000000 0.000000 0.000000
    10 0.504410 -2.658045 -5.654764 0.132341 2.840357 0.116971
    11 0.096947 -8.450419 -0.009363 -0.014396 0.087125 0.366837
    12 -0.586768 -1.264477 0.200164 -0.236908 -0.508181 -2.406682
    13 1.522834 0.058679 0.016851 0.235040 -0.160580 0.582895
    14 1.117947 0.048425 -0.005765 0.225382 -0.008054 0.078707
    15 -0.963867 -2.785143 -0.085346 -0.386190 -0.066431 -0.014705
    16 0.028478 -1.403067 0.006271 -1.197045 0.000000 0.000000
    17 0.021414 -0.957781 0.020047 -1.007036 -0.248776 0.191909
    18 -0.249534 -2.846963 -0.174215 -0.881820 -0.052696 0.090280
    19 0.043234 -1.683940 0.096014 -1.837724 0.000000 0.000000
    20 0.031729 -1.160831 0.058836 -1.246304 0.000000 0.000000
    21 0.447952 -2.798983 -0.200441 -1.144028 0.037894 0.167993
    22 -0.032909 -1.480207 0.004936 -1.659992 0.000000 0.000000
    23 -0.027022 -1.076920 -0.020212 -0.972712 0.000000 0.000000
    24 1.164474 -2.543939 -0.170327 -1.340445 -0.035155 0.207255
    25 0.024032 -1.129040 0.017805 -1.441949 0.000000 0.000000
    26 0.014896 -0.883992 -0.019845 -0.763542 0.000000 0.000000
    27 -0.068121 -0.120290 0.037419 0.085520 0.003091 1.500285
    28 0.583509 -1.197274 0.185379 -0.027160 -0.750740 -0.625088
    29 1.535926 0.010247 0.005008 -0.139506 -0.054194 -0.923154
    30 1.100770 0.004528 -0.010675 0.000000 0.000000 -0.851787
    31 0.957766 -2.746777 -0.090301 -0.334120 0.035355 0.063678
    32 -0.033419 -1.397127 -0.011256 -0.104320 0.000000 0.000000
    33 -0.022361 -0.957434 0.018783 -0.638045 0.000000 0.000000
    34 0.250029 -2.820664 -0.238397 -0.618475 0.127049 -0.341497
    35 -0.049759 -1.680544 0.100479 -1.815466 0.077876 -0.019415
    36 -0.034141 -1.148310 0.084779 -0.997595 -0.031376 -0.015448
    37 -0.488517 -2.755600 -0.228262 -0.877258 0.177036 -0.438099
    38 0.039889 -1.479791 0.029854 -1.520913 0.000000 0.000000
    39 0.028786 -1.075733 -0.023111 -1.058310 0.000000 0.000000
    40 -1.180679 -2.507216 -0.193861 -1.019141 0.319461 -0.426610
    41 -0.024967 -1.123934 0.017594 -0.936346 0.000000 0.000000
    42 -0.020058 -0.890964 0.010091 -1.193241 0.000000 0.000000
    43 0.092807 -0.054173 -0.097459 3.122270 6.118195 -1.569909
  time 8
    0 10.128378 3.218209 -4.664589 -0.497424 -1.849477 0.048858
    1 -0.071918 -8.498731 -0.104136 0.187617 0.060953 -0.099792
    2 1.231110 -1.646805 1.167199 0.283770 1.487099 0.248230
    3 -0.018918 -5.204151 1.209771 0.000000 0.000000 0.000000
    4 -0.106210 -0.041607 0.734739 0.000000 -1.570796 0.000000
    5 -0.006608 -7.276436 2.875793 0.000000 0.000000 0.000000
    6 0.000031 -0.420787 -0.134254 0.000000 0.000000 -1.207790
    7 -0.086616 -2.846228 0.453552 0.000000 0.000000 0.000000
    8 -0.086616 -6.239250 1.961809 0.000000 0.000000 0.000000
    9 -0.086616 -4.262175 -0.301127 0.000000 0.000000 0.000000
    10 0.371593 -2.794768 -5.791487 0.200194 2.841507 0.123881
    11 0.096947 -8.450419 -0.009363 -0.039245 0.045965 0.349108
    12 -0.586768 -1.264477 0.200164 -0.236462 -0.508376 -2.407926
    13 1.522834 0.058679 0.016851 0.237053 -0.155952 0.565601
    14 1.117947 0.048425 -0.005765 0.225382 -0.008054 0.078707
    15 -0.963867 -2.785143 -0.085346 -0.391643 -0.065532 -0.012883
    16 0.028478 -1.403067 0.006271 -1.211167 0.000000 0.000000
    17 0.021414 -0.957781 0.020047 -1.007036 -0.248776 0.191909
    18 -0.249534 -2.846963 -0.174215 -0.881820 -0.052696 0.090280
    19 0.043234 -1.683940 0.096014 -1.837724 0.000000 0.000000
    20 0.031729 -1.160831 0.058836 -1.246304 0.000000 0.000000
    21 0.447952 -2.798983 -0.200441 -1.144028 0.037894 0.167993
    22 -0.032909 -1.480207 0.004936 -1.659992 0.000000 0.000000
    23 -0.027022 -1.076920 -0.020212 -0.972712 0.000000 0.000000
    24 1.164474 -2.543939 -0.170327 -1.340445 -0.035155 0.207255
    25 0.024032 -1.129040 0.017805 -1.441949 0.000000 0.000000
    26 0.014896 -0.883992 -0.019845 -0.763542 0.000000 0.000000
    27 -0.056401 -0.120290 0.045232 0.064127 -0.006400 1.504947
    28 0.583509 -1.197274 0.185379 -0.018705 -0.747181 -0.629556
    29 1.535926 0.010247 0.005008 -0.137673 -0.060774 -0.927341
    30 1.100770 0.004528 -0.010675 0.000000 0.000000 -0.825629
    31 0.957766 -2.746777 -0.090301 -0.334120 0.035355 0.063678
    32 -0.033419 -1.397127 -0.011256 -0.104320 0.000000 0.000000
    33 -0.022361 -0.957434 0.018783 -0.638045 0.000000 0.000000
    34 0.250029 -2.820664 -0.238397 -0.618475 0.127049 -0.341497
    35 -0.049759 -1.680544 0.100479 -1.815466 0.077876 -0.019415
    36 -0.034141 -1.148310 0.084779 -0.997595 -0.031376 -0.015448
    37 -0.488517 -2.755600 -0.228262 -0.877258 0.177036 -0.438099
    38 0.039889 -1.479791 0.029854 -1.520913 0.000000 0.000000
    39 0.028786 -1.075733 -0.023111 -1.058310 0.000000 0.000000
    40 -1.180679 -2.507216 -0.193861 -1.019141 0.319461 -0.426610
    41 -0.024967 -1.123934 0.017594 -0.936346 0.000000 0.000000
    42 -0.020058 -0.890964 0.010091 -1.193241 0.000000 0.000000
    43 0.092807 -0.054173 -0.097459 3.122270 6.118195 -1.569909
  time 9
    0 10.147910 3.315868 -4.730997 -0.513864 -1.849982 0.061166
    1 -0.071918 -8.498731 -0.104136 0.204850 0.027067 -0.063894
    2 1.231110 -1.646805 1.167199 0.283770 1.487099 0.248230
    3 -0.018918 -5.204151 1.209771 0.000000 0.000000 0.000000
    4 -0.106210 -0.041607 0.734739 0.000000 -1.570796 0.000000
    5 -0.006608 -7.389721 2.875793 0.000000 0.000000 0.000000
    6 0.000031 -0.420787 -0.134254 0.000000 0.000000 -1.189370
    7 -0.086616 -2.846228 0.453552 0.000000 0.000000 0.000000
    8 -0.086616 -6.239250 1.961809 0.000000 0.000000 0.000000
    9 -0.086616 -4.262175 -0.301127 0.000000 0.000000 0.000000
    10 0.199713 -2.814300 -6.076651 0.275156 2.842944 0.146962
    11 0.096947 -8.450419 -0.009363 -0.077655 0.007053 0.341492
    12 -0.586768 -1.264477 0.200164 -0.236140 -0.508514 -2.409350
    13 1.522834 0.058679 0.016851 0.238419 -0.152819 0.553901
    14 1.117947 0.048425 -0.005765 0.225382 -0.008054 0.078707
    15 -0.963867 -2.785143 -0.085346 -0.395317 -0.064477 -0.011649
    16 0.028478 -1.403067 0.006271 -1.220775 0.000000 0.000000
    17 0.021414 -0.957781 0.020047 -1.007036 -0.248776 0.191909
    18 -0.249534 -2.846963 -0.174215 -0.881820 -0.052696 0.090280
    19 0.043234 -1.683940 0.096014 -1.837724 0.000000 0.000000
    20 0.031729 -1.160831 0.058836 -1.246304 0.000000 0.000000
    21 0.447952 -2.798983 -0.200441 -1.144028 0.037894 0.167993
    22 -0.032909 -1.480207 0.004936 -1.659992 0.000000 0.000000
    23 -0.027022 -1.076920 -0.020212 -0.972712 0.000000 0.000000
    24 1.164474 -2.543939 -0.170327 -1.340445 -0.035155 0.207255
    25 0.024032 -1.129040 0.017805 -1.441949 0.000000 0.000000
    26 0.014896 -0.883992 -0.019845 -0.763542 0.000000 0.000000
    27 -0.048589 -0.120290 0.049138 0.056134 -0.009936 1.506685
    28 0.583509 -1.197274 0.185379 -0.009567 -0.743334 -0.634401
    29 1.535926 0.010247 0.005008 -0.135695 -0.067905 -0.931868
    30 1.100770 0.004528 -0.010675 0.000000 0.000000 -0.797297
    31 0.957766 -2.746777 -0.090301 -0.334120 0.035355 0.063678
    32 -0.033419 -1.397127 -0.011256 -0.104320 0.000000 0.000000
    33 -0.022361 -0.957434 0.018783 -0.638045 0.000000 0.000000
    34 0.250029 -2.820664 -0.238397 -0.618475 0.127049 -0.341497
    35 -0.049759 -1.680544 0.100479 -1.815466 0.077876 -0.019415
    36 -0.034141 -1.148310 0.084779 -0.997595 -0.031376 -0.015448
    37 -0.488517 -2.755600 -0.228262 -0.877258 0.177036 -0.438099
    38 0.039889 -1.479791 0.029854 -1.520913 0.000000 0.000000
    39 0.028786 -1.075733 -0.023111 -1.058310 0.000000 0.000000
    40 -1.180679 -2.507216 -0.193861 -1.019141 0.319461 -0.426610
    41 -0.024967 -1.123934 0.017594 -0.936346 0.000000 0.000000
    42 -0.020058 -0.890964 0.010091 -1.193241 0.000000 0.000000
    43 0.092807 -0.054173 -0.097459 3.122270 6.118195 -1.569909
  time 10
    0 10.159629 3.393995 -4.848188 -0.523272 -1.851351 0.067766
    1 -0.071918 -8.498731 -0.104136 0.222195 -0.005865 -0.021051
    2 1.231110 -1.646805 1.167199 0.283770 1.487099 0.248230
    3 -0.018918 -5.204151 1.209771 0.000000 0.000000 0.000000
    4 -0.106210 -0.041607 0.734739 0.000000 -1.570796 0.000000
    5 -0.006608 -7.440503 2.875793 0.000000 0.000000 0.000000
    6 0.000031 -0.420787 -0.134254 0.000000 0.000000 -1.180997
    7 -0.086616 -2.846228 0.453552 0.000000 0.000000 0.000000
    8 -0.086616 -6.239250 1.961809 0.000000 0.000000 0.000000
    9 -0.086616 -4.262175 -0.301127 0.000000 0.000000 0.000000
    10 0.008301 -2.556480 -6.631356 0.372257 2.843519 0.206209
    11 0.096947 -8.450419 -0.009363 -0.118379 -0.016276 0.356935
    12 -0.586768 -1.264477 0.200164 -0.236041 -0.508570 -2.410954
    13 1.522834 0.058679 0.016851 0.238923 -0.151648 0.549588
    14 1.117947 0.048425 -0.005765 0.225382 -0.008054 0.078707
    15 -0.963867 -2.785143 -0.085346 -0.396680 -0.063291 -0.011194
    16 0.028478 -1.403067 0.006271 -1.224306 0.000000 0.000000
    17 0.021414 -0.957781 0.020047 -1.007036 -0.248776 0.191909
    18 -0.249534 -2.846963 -0.174215 -0.881820 -0.052696 0.090280
    19 0.043234 -1.683940 0.096014 -1.837724 0.000000 0.000000
    20 0.031729 -1.160831 0.058836 -1.246304 0.000000 0.000000
    21 0.447952 -2.798983 -0.200441 -1.144028 0.037894 0.167993
    22 -0.032909 -1.480207 0.004936 -1.659992 0.000000 0.000000
    23 -0.027022 -1.076920 -0.020212 -0.972712 0.000000 0.000000
    24 1.164474 -2.543939 -0.170327 -1.340445 -0.035155 0.207255
    25 0.024032 -1.129040 0.017805 -1.441949 0.000000 0.000000
    26 0.014896 -0.883992 -0.019845 -0.763542 0.000000 0.000000
    27 -0.040776 -0.104664 0.045232 0.062601 -0.004718 1.495347
    28 0.583509 -1.197274 0.185379 0.000182 -0.739235 -0.639566
    29 1.535926 0.010247 0.005008 -0.133586 -0.075503 -0.936716
    30 1.100770 0.004528 -0.010675 0.000000 0.000000 -0.767115
    31 0.957766 -2.746777 -0.090301 -0.334120 0.035355 0.063678
    32 -0.033419 -1.397127 -0.011256 -0.104320 0.000000 0.000000
    33 -0.022361 -0.957434 0.018783 -0.638045 0.000000 0.000000
    34 0.250029 -2.820664 -0.238397 -0.618475 0.127049 -0.341497
    35 -0.049759 -1.680544 0.100479 -1.815466 0.077876 -0.019415
    36 -0.034141 -1.148310 0.084779 -0.997595 -0.031376 -0.015448
    37 -0.488517 -2.755600 -0.228262 -0.877258 0.177036 -0.438099
    38 0.039889 -1.479791 0.029854 -1.520913 0.000000 0.000000
    39 0.028786 -1.075733 -0.023111 -1.058310 0.000000 0.000000
    40 -1.180679 -2.507216 -0.193861 -1.019141 0.319461 -0.426610
    41 -0.024967 -1.123934 0.017594 -0.936346 0.000000 0.000000
    42 -0.020058 -0.890964 0.010091 -1.193241 0.000000 0.000000
    43 0.092807 -0.054173 -0.097459 3.122270 6.118195 -1.569909
  time 11
    0 10.183067 3.456497 -5.023975 -0.527580 -1.853116 0.071183
    1 -0.071918 -8.498731 -0.104136 0.239691 -0.037206 0.034782
    2 1.231110 -1.646805 1.167199 0.283770 1.487099 0.248230
    3 -0.018918 -5.204151 1.209771 0.000000 0.000000 0.000000
    4 -0.106210 -0.041607 0.734739 0.000000 -1.570796 0.000000
    5 -0.006608 -6.545945 2.875793 0.000000 0.000000 0.000000
    6 0.000031 -0.420787 -0.134254 0.000000 0.000000 -1.304543
    7 -0.086616 -2.846228 0.453552 0.000000 0.000000 0.000000
    8 -0.086616 -5.993149 1.961809 0.000000 0.000000 0.000000
    9 -0.086616 -4.262175 -0.301127 0.000000 0.000000 0.000000
    10 -0.257332 -1.814270 -7.580604 0.503847 2.844669 0.319924
    11 0.096947 -8.450419 -0.009363 -0.174019 -0.021288 0.412589
    12 -0.586768 -1.264477 0.200164 -0.236041 -0.503190 -2.437576
    13 1.522834 0.058679 0.016851 0.209800 -0.171313 0.678630
    14 1.117947 0.048425 -0.005765 0.220996 -0.026234 0.153262
    15 -0.963867 -2.785143 -0.085346 -0.382397 -0.052073 -0.012500
    16 0.028478 -1.403067 0.006271 -1.168910 0.000000 0.000000
    17 0.021414 -0.957781 0.020047 -1.089693 -0.223369 0.153738
    18 -0.249534 -2.846963 -0.174215 -0.846112 -0.066083 0.097962
    19 0.043234 -1.683940 0.096014 -1.837047 0.000000 0.000000
    20 0.031729 -1.160831 0.058836 -1.312131 0.000000 0.000000
    21 0.447952 -2.798983 -0.200441 -1.115466 0.037894 0.167993
    22 -0.032909 -1.480207 0.004936 -1.671471 0.000000 0.000000
    23 -0.027022 -1.076920 -0.020212 -0.972712 0.000000 0.000000
    24 1.164474 -2.543939 -0.170327 -1.340445 -0.035155 0.207255
    25 0.024032 -1.129040 0.017805 -1.441949 0.000000 0.000000
    26 0.014896 -0.883992 -0.019845 -0.773725 0.000000 0.000000
    27 -0.032963 -0.065600 0.045232 0.078629 0.008943 1.467196
    28 0.583509 -1.197274 0.185379 0.010445 -0.734920 -0.644992
    29 1.535926 0.010247 0.005008 -0.131357 -0.083485 -0.941790
    30 1.100770 0.004528 -0.010675 0.000000 0.000000 -0.735377
    31 0.957766 -2.746777 -0.090301 -0.334120 0.035355 0.063678
    32 -0.033419 -1.397127 -0.011256 -0.104320 0.000000 0.000000
    33 -0.022361 -0.957434 0.018783 -0.638045 0.000000 0.000000
    34 0.250029 -2.820664 -0.238397 -0.618475 0.127049 -0.341497
    35 -0.049759 -1.680544 0.100479 -1.815466 0.077876 -0.019415
    36 -0.034141 -1.148310 0.084779 -0.997595 -0.031376 -0.015448
    37 -0.488517 -2.755600 -0.228262 -0.877258 0.177036 -0.438099
    38 0.039889 -1.479791 0.029854 -1.520913 0.000000 0.000000
    39 0.028786 -1.075733 -0.023111 -1.058310 0.000000 0.000000
    40 -1.180679 -2.507216 -0.193861 -1.019141 0.319461 -0.426610
    41 -0.024967 -1.123934 0.017594 -0.936346 0.000000 0.000000
    42 -0.020058 -0.890964 0.010091 -1.193241 0.000000 0.000000
    43 0.092807 -0.054173 -0.097459 3.122270 6.118195 -1.569909
  time 12
    0 10.202599 3.511186 -5.242732 -0.532767 -1.857224 0.077861
    1 -0.071918 -8.498731 -0.104136 0.257099 -0.068507 0.112936
    2 1.231110 -1.646805 1.167199 0.283770 1.487099 0.248230
    3 -0.018918 -5.204151 1.209771 0.000000 0.000000 0.000000
    4 -0.106210 -0.041607 0.734739 0.000000 -1.570796 0.000000
    5 -0.006608 -5.174809 2.875793 0.000000 0.000000 0.000000
    6 0.000031 -0.420787 -0.134254 0.000000 0.000000 -1.552253
    7 -0.086616 -2.846228 0.453552 0.000000 0.000000 0.000000
    8 -0.086616 -5.446257 1.961809 0.000000 0.000000 0.000000
    9 -0.086616 -4.262175 -0.301127 0.000000 0.000000 0.000000
    10 -0.554216 -0.853303 -8.760327 0.652586 2.845244 0.463188
    11 0.096947 -8.450419 -0.009363 -0.235723 -0.015213 0.486969
    12 -0.586768 -1.264477 0.200164 -0.236065 -0.491321 -2.493920
    13 1.522834 0.058679 0.016851 0.145731 -0.214533 0.962549
    14 1.117947 0.048425 -0.005765 0.210066 -0.067030 0.326923
    15 -0.963867 -2.785143 -0.085346 -0.347786 -0.029039 -0.016215
    16 0.028478 -1.403067 0.006271 -1.047019 0.000000 0.000000
    17 0.021414 -0.957781 0.020047 -1.271537 -0.167461 0.069499
    18 -0.249534 -2.846963 -0.174215 -0.767221 -0.095541 0.114872
    19 0.043234 -1.683940 0.096014 -1.834435 0.000000 0.000000
    20 0.031729 -1.160831 0.058836 -1.456950 0.000000 0.000000
    21 0.447952 -2.798983 -0.200441 -1.052662 0.037894 0.167993
    22 -0.032909 -1.480207 0.004936 -1.696636 0.000000 0.000000
    23 -0.027022 -1.076920 -0.020212 -0.972712 0.000000 0.000000
    24 1.164474 -2.543939 -0.170327 -1.340445 -0.035155 0.207255
    25 0.024032 -1.129040 0.017805 -1.441949 0.000000 0.000000
    26 0.014896 -0.883992 -0.019845 -0.800686 0.000000 0.000000
    27 -0.029057 -0.014818 0.037419 0.099110 0.028079 1.431002
    28 0.583509 -1.197274 0.185379 0.021086 -0.730438 -0.650635
    29 1.535926 0.010247 0.005008 -0.129056 -0.091778 -0.947071
    30 1.100770 0.004528 -0.010675 0.000000 0.000000 -0.702391
    31 0.957766 -2.746777 -0.090301 -0.334120 0.035355 0.063678
    32 -0.033419 -1.397127 -0.011256 -0.104320 0.000000 0.000000
    33 -0.022361 -0.957434 0.018783 -0.638045 0.000000 0.000000
    34 0.250029 -2.820664 -0.238397 -0.618475 0.127049 -0.341497
    35 -0.049759 -1.680544 0.100479 -1.815466 0.077876 -0.019415
    36 -0.034141 -1.148310 0.084779 -0.997595 -0.031376 -0.015448
    37 -0.488517 -2.755600 -0.228262 -0.877258 0.177036 -0.438099
    38 0.039889 -1.479791 0.029854 -1.520913 0.000000 0.000000
    39 0.028786 -1.075733 -0.023111 -1.058310 0.000000 0.000000
    40 -1.180679 -2.507216 -0.193861 -1.019141 0.319461 -0.426610
    41 -0.024967 -1.123934 0.017594 -0.936346 0.000000 0.000000
    42 -0.020058 -0.890964 0.010091 -1.193241 0.000000 0.000000
    43 0.092807 -0.054173 -0.097459 3.122270 6.118195 -1.569909
  time 13
    0 10.206505 3.554156 -5.484927 -0.529690 -1.863205 0.077201
    1 -0.071918 -8.498731 -0.104136 0.274633 -0.098615 0.200070
    2 1.231110 -1.646805 1.167199 0.283770 1.487099 0.248230
    3 -0.018918 -5.204151 1.209771 0.000000 0.000000 0.000000
    4 -0.106210 -0.041607 0.734739 0.000000 -1.570796 0.000000
    5 -0.006608 -4.639637 2.875793 0.000000 0.000000 0.000000
    6 0.000031 -0.420787 -0.134254 0.000000 0.000000 -1.739804
    7 -0.086616 -2.846228 0.453552 0.000000 0.000000 0.000000
    8 -0.086616 -4.899366 1.961809 0.000000 0.000000 0.000000
    9 -0.086616 -4.262175 -0.301127 0.000000 0.000000 0.000000
    10 -0.706565 -0.220471 -9.842391 0.789227 2.840740 0.590428
    11 0.096947 -8.450419 -0.009363 -0.260173 0.000370 0.535111
    12 -0.586768 -1.264477 0.200164 -0.236090 -0.479480 -2.549850
    13 1.522834 0.058679 0.016851 0.081661 -0.257770 1.246425
    14 1.117947 0.048425 -0.005765 0.195924 -0.109839 0.524736
    15 -0.963867 -2.785143 -0.085346 -0.304758 -0.006304 -0.021992
    16 0.028478 -1.403067 0.006271 -0.925127 0.000000 0.000000
    17 0.021414 -0.957781 0.020047 -1.453338 -0.111565 -0.015460
    18 -0.249534 -2.846963 -0.174215 -0.687527 -0.124987 0.131783
    19 0.043234 -1.683940 0.096014 -1.828922 0.000000 0.000000
    20 0.031729 -1.160831 0.058836 -1.601769 0.000000 0.000000
    21 0.447952 -2.798983 -0.200441 -0.989803 0.037894 0.167993
    22 -0.032909 -1.480207 0.004936 -1.721842 0.000000 0.000000
    23 -0.027022 -1.076920 -0.020212 -0.972712 0.000000 0.000000
    24 1.164474 -2.543939 -0.170327 -1.340445 -0.035155 0.207255
    25 0.024032 -1.129040 0.017805 -1.441949 0.000000 0.000000
    26 0.014896 -0.883992 -0.019845 -0.839081 0.000000 0.000000
    27 -0.025150 0.035965 0.029606 0.119273 0.049686 1.395540
    28 0.583509 -1.197274 0.185379 0.032044 -0.725824 -0.656438
    29 1.535926 0.010247 0.005008 -0.126683 -0.100311 -0.952504
    30 1.100770 0.004528 -0.010675 0.000000 0.000000 -0.668480
    31 0.957766 -2.746777 -0.090301 -0.334120 0.035355 0.063678
    32 -0.033419 -1.397127 -0.011256 -0.104320 0.000000 0.000000
    33 -0.022361 -0.957434 0.018783 -0.638045 0.000000 0.000000
    34 0.250029 -2.820664 -0.238397 -0.618475 0.127049 -0.341497
    35 -0.049759 -1.680544 0.100479 -1.815466 0.077876 -0.019415
    36 -0.034141 -1.148310 0.084779 -0.997595 -0.031376 -0.015448
    37 -0.488517 -2.755600 -0.228262 -0.877258 0.177036 -0.438099
    38 0.039889 -1.479791 0.029854 -1.520913 0.000000 0.000000
    39 0.028786 -1.075733 -0.023111 -1.058310 0.000000 0.000000
    40 -1.180679 -2.507216 -0.193861 -1.019141 0.319461 -0.426610
    41 -0.024967 -1.123934 0.017594 -0.936346 0.000000 0.000000
    42 -0.020058 -0.890964 0.010091 -1.193241 0.000000 0.000000
    43 0.092807 -0.054173 -0.097459 3.122270 6.118195 -1.569909
  time 14
    0 10.179161 3.577595 -5.723215 -0.509029 -1.870627 0.058526
    1 -0.071918 -8.498731 -0.104136 0.293017 -0.122995 0.268071
    2 1.231110 -1.646805 1.167199 0.283770 1.487099 0.248230
    3 -0.018918 -5.204151 1.209771 0.000000 0.000000 0.000000
    4 -0.106210 -0.041607 0.734739 0.000000 -1.570796 0.000000
    5 -0.006608 -4.428693 2.875793 0.000000 0.000000 0.000000
    6 0.000031 -0.420787 -0.134254 0.000000 0.000000 -1.768023
    7 -0.086616 -2.846228 0.453552 0.000000 0.000000 0.000000
    8 -0.086616 -4.649358 1.961809 0.000000 0.000000 0.000000
    9 -0.086616 -4.262175 -0.301127 0.000000 0.000000 0.000000
    10 -0.569842 -0.228284 -10.760388 0.896681 2.827993 0.666361
    11 0.096947 -8.450419 -0.009363 -0.212409 0.034938 0.528571
    12 -0.586768 -1.264477 0.200164 -0.236140 -0.474072 -2.575210
    13 1.522834 0.058679 0.016851 0.052538 -0.277417 1.375510
    14 1.117947 0.048425 -0.005765 0.181926 -0.134036 0.671812
    15 -0.963867 -2.785143 -0.085346 -0.265524 0.003955 -0.029494
    16 0.028478 -1.403067 0.006271 -0.869732 0.000000 0.000000
    17 0.021414 -0.957781 0.020047 -1.535994 -0.086157 -0.055776
    18 -0.249534 -2.846963 -0.174215 -0.649534 -0.138374 0.139465
    19 0.043234 -1.683940 0.096014 -1.819685 0.000000 0.000000
    20 0.031729 -1.160831 0.058836 -1.667596 0.000000 0.000000
    21 0.447952 -2.798983 -0.200441 -0.961297 0.037894 0.167993
    22 -0.032909 -1.480207 0.004936 -1.733281 0.000000 0.000000
    23 -0.027022 -1.076920 -0.020212 -0.972712 0.000000 0.000000
    24 1.164474 -2.543939 -0.170327 -1.340445 -0.035155 0.207255
    25 0.024032 -1.129040 0.017805 -1.441949 0.000000 0.000000
    26 0.014896 -0.883992 -0.019845 -0.883497 0.000000 0.000000
    27 -0.021244 0.078935 0.021794 0.134644 0.070744 1.369569
    28 0.583509 -1.197274 0.185379 0.043199 -0.721138 -0.662343
    29 1.535926 0.010247 0.005008 -0.124262 -0.109000 -0.958030
    30 1.100770 0.004528 -0.010675 0.000000 0.000000 -0.633939
    31 0.957766 -2.746777 -0.090301 -0.334120 0.035355 0.063678
    32 -0.033419 -1.397127 -0.011256 -0.104320 0.000000 0.000000
    33 -0.022361 -0.957434 0.018783 -0.638045 0.000000 0.000000
    34 0.250029 -2.820664 -0.238397 -0.618475 0.127049 -0.341497
    35 -0.049759 -1.680544 0.100479 -1.815466 0.077876 -0.019415
    36 -0.034141 -1.148310 0.084779 -0.997595 -0.031376 -0.015448
    37 -0.488517 -2.755600 -0.228262 -0.877258 0.177036 -0.438099
    38 0.039889 -1.479791 0.029854 -1.520913 0.000000 0.000000
    39 0.028786 -1.075733 -0.023111 -1.058310 0.000000 0.000000
    40 -1.180679 -2.507216 -0.193861 -1.019141 0.319461 -0.426610
    41 -0.024967 -1.123934 0.017594 -0.936346 0.000000 0.000000
    42 -0.020058 -0.890964 0.010091 -1.193241 0.000000 0.000000
    43 0.092807 -0.054173 -0.097459 3.122270 6.118195 -1.569909
  time 15
    0 10.116659 3.569782 -5.949785 -0.467004 -1.879490 0.017642
    1 -0.071918 -8.498731 -0.104136 0.313867 -0.143120 0.305124
    2 1.231110 -1.646805 1.167199 0.283770 1.487099 0.248230
    3 -0.018918 -5.204151 1.209771 0.000000 0.000000 0.000000
    4 -0.106210 -0.041607 0.734739 0.000000 -1.570796 0.000000
    5 -0.006608 -4.483382 2.875793 0.000000 0.000000 0.000000
    6 0.000031 -0.420787 -0.134254 0.000000 0.000000 -1.736020
    7 -0.086616 -2.846228 0.453552 0.000000 0.000000 0.000000
    8 -0.086616 -4.649358 1.961809 0.000000 0.000000 0.000000
    9 -0.086616 -4.262175 -0.301127 0.000000 0.000000 0.000000
    10 -0.194830 -0.689235 -11.627602 0.984615 2.808729 0.706054
    11 0.096947 -8.450419 -0.009363 -0.106872 0.089039 0.482373
    12 -0.586768 -1.264477 0.200164 -0.244692 -0.513728 -2.560268
    13 1.522834 0.058679 0.016851 0.060928 -0.268467 1.321024
    14 1.117947 0.048425 -0.005765 0.166730 -0.140963 0.766683
    15 -0.963867 -2.785143 -0.085346 -0.227357 0.001630 -0.038782
    16 0.028478 -1.403067 0.006271 -0.881961 0.000084 -0.000048
    17 0.021414 -0.957781 0.020047 -1.532593 -0.096931 -0.058305
    18 -0.249534 -2.846963 -0.174215 -0.646754 -0.138326 0.135582
    19 0.043234 -1.683940 0.096014 -1.810690 0.000000 0.000000
    20 0.031729 -1.160831 0.058836 -1.648437 0.000000 0.000000
    21 0.447952 -2.798983 -0.200441 -0.963321 0.037894 0.167993
    22 -0.032909 -1.480207 0.004936 -1.709721 0.000000 0.000000
    23 -0.027022 -1.076920 -0.020212 -0.963375 0.000000 0.000000
    24 1.164474 -2.543939 -0.170327 -1.336992 -0.035155 0.207255
    25 0.024032 -1.129040 0.017805 -1.427526 0.000000 0.000000
    26 0.014896 -0.883992 -0.019845 -0.942967 0.000000 0.000000
    27 -0.017338 0.094561 0.013981 0.140962 0.088318 1.361887
    28 0.583509 -1.197274 0.185379 0.054450 -0.716404 -0.668306
    29 1.535926 0.010247 0.005008 -0.121829 -0.117761 -0.963613
    30 1.100770 0.004528 -0.010675 0.000000 0.000000 -0.599102
    31 0.957766 -2.746777 -0.090301 -0.334120 0.035355 0.063678
    32 -0.033419 -1.397127 -0.011256 -0.104320 0.000000 0.000000
    33 -0.022361 -0.957434 0.018783 -0.638045 0.000000 0.000000
    34 0.250029 -2.820664 -0.238397 -0.618475 0.127049 -0.341497
    35 -0.049759 -1.680544 0.100479 -1.815466 0.077876 -0.019415
    36 -0.034141 -1.148310 0.084779 -0.997595 -0.031376 -0.015448
    37 -0.488517 -2.755600 -0.228262 -0.877258 0.177036 -0.438099
    38 0.039889 -1.479791 0.029854 -1.520913 0.000000 0.000000
    39 0.028786 -1.075733 -0.023111 -1.058310 0.000000 0.000000
    40 -1.180679 -2.507216 -0.193861 -1.019141 0.319461 -0.426610
    41 -0.024967 -1.123934 0.017594 -0.936346 0.000000 0.000000
    42 -0.020058 -0.890964 0.010091 -1.193241 0.000000 0.000000
    43 0.092807 -0.054173 -0.097459 3.122270 6.118195 -1.569909
  time 16
    0 10.022906 3.538531 -6.176354 -0.409065 -1.890011 -0.039393
    1 -0.071918 -8.498731 -0.104136 0.336468 -0.159547 0.321420
    2 1.231110 -1.646805 1.167199 0.283770 1.487099 0.248230
    3 -0.018918 -5.204151 1.209771 0.000000 0.000000 0.000000
    4 -0.106210 -0.041607 0.734739 0.000000 -1.570796 0.000000
    5 -0.006608 -4.624011 2.875793 0.000000 0.000000 0.000000
    6 0.000031 -0.420787 -0.134254 0.000000 0.000000 -1.756859
    7 -0.086616 -2.846228 0.453552 0.000000 0.000000 0.000000
    8 -0.086616 -4.649358 1.961809 0.000000 0.000000 0.000000
    9 -0.086616 -4.262175 -0.301127 0.000000 0.000000 0.000000
    10 0.270028 -1.423633 -12.385438 1.064192 2.784960 0.739941
    11 0.096947 -8.450419 -0.009363 0.025669 0.147605 0.416633
    12 -0.586768 -1.264477 0.200164 -0.265987 -0.612811 -2.522922
    13 1.522834 0.058679 0.016851 0.082871 -0.244930 1.179171
    14 1.117947 0.048425 -0.005765 0.148537 -0.145900 0.854760
    15 -0.963867 -2.785143 -0.085346 -0.183322 -0.004458 -0.049616
    16 0.028478 -1.403067 0.006271 -0.912534 0.000300 -0.000204
    17 0.021414 -0.957781 0.020047 -1.519162 -0.123849 -0.060211
    18 -0.249534 -2.846963 -0.174215 -0.644715 -0.138182 0.125395
    19 0.043234 -1.683940 0.096014 -1.804064 0.000000 0.000000
    20 0.031729 -1.160831 0.058836 -1.596503 0.000000 0.000000
    21 0.447952 -2.798983 -0.200441 -0.969056 0.037894 0.167993
    22 -0.032909 -1.480207 0.004936 -1.645141 0.000000 0.000000
    23 -0.027022 -1.076920 -0.020212 -0.937945 0.000000 0.000000
    24 1.164474 -2.543939 -0.170327 -1.327425 -0.035155 0.207255
    25 0.024032 -1.129040 0.017805 -1.388911 0.000000 0.000000
    26 0.014896 -0.883992 -0.019845 -1.018776 0.000000 0.000000
    27 -0.021244 0.090654 0.002262 0.135959 0.106407 1.367328
    28 0.583509 -1.197274 0.185379 0.065702 -0.711670 -0.674268
    29 1.535926 0.010247 0.005008 -0.119396 -0.126533 -0.969197
    30 1.100770 0.004528 -0.010675 0.000000 0.000000 -0.564252
    31 0.957766 -2.746777 -0.090301 -0.334120 0.035355 0.063678
    32 -0.033419 -1.397127 -0.011256 -0.104320 0.000000 0.000000
    33 -0.022361 -0.957434 0.018783 -0.638045 0.000000 0.000000
    34 0.250029 -2.820664 -0.238397 -0.618475 0.127049 -0.341497
    35 -0.049759 -1.680544 0.100479 -1.815466 0.077876 -0.019415
    36 -0.034141 -1.148310 0.084779 -0.997595 -0.031376 -0.015448
    37 -0.488517 -2.755600 -0.228262 -0.877258 0.177036 -0.438099
    38 0.039889 -1.479791 0.029854 -1.520913 0.000000 0.000000
    39 0.028786 -1.075733 -0.023111 -1.058310 0.000000 0.000000
    40 -1.180679 -2.507216 -0.193861 -1.019141 0.319461 -0.426610
    41 -0.024967 -1.123934 0.017594 -0.936346 0.000000 0.000000
    42 -0.020058 -0.890964 0.010091 -1.193241 0.000000 0.000000
    43 0.092807 -0.054173 -0.097459 3.122270 6.118195 -1.569909
  time 17
    0 9.905715 3.503374 -6.414642 -0.339697 -1.902046 -0.107571
    1 -0.071918 -8.498731 -0.104136 0.358119 -0.166109 0.321811
    2 1.231110 -1.646805 1.167199 0.283770 1.487099 0.248230
    3 -0.018918 -5.204151 1.209771 0.000000 0.000000 0.000000
    4 -0.106210 -0.041607 0.734739 0.000000 -1.570796 0.000000
    5 -0.006608 -4.788079 2.875793 0.000000 0.000000 0.000000
    6 0.000031 -0.420787 -0.134254 0.000959 0.001834 -1.927664
    7 -0.086616 -2.846228 0.453552 0.000000 0.000000 0.000000
    8 -0.086616 -4.649358 1.961809 0.000000 0.000000 0.000000
    9 -0.086616 -4.262175 -0.301127 0.000000 0.000000 0.000000
    10 0.684103 -2.247877 -12.971393 1.146701 2.758987 0.798085
    11 0.096947 -8.450419 -0.009363 0.154400 0.195539 0.351525
    12 -0.586768 -1.264477 0.200164 -0.293628 -0.741595 -2.474382
    13 1.522834 0.058679 0.016851 0.113504 -0.211795 0.982063
    14 1.117947 0.048425 -0.005765 0.129901 -0.149172 0.931391
    15 -0.963867 -2.785143 -0.085346 -0.139228 -0.013039 -0.061265
    16 0.028478 -1.403067 0.006271 -0.952279 0.000587 -0.000384
    17 0.021414 -0.957781 0.020047 -1.491007 -0.158832 -0.061553
    18 -0.249534 -2.846963 -0.174215 -0.643294 -0.137931 0.111049
    19 0.043234 -1.683940 0.096014 -1.795891 0.000000 0.000000
    20 0.031729 -1.160831 0.058836 -1.520005 0.000000 0.000000
    21 0.447952 -2.798983 -0.200441 -0.977939 0.037894 0.167993
    22 -0.032909 -1.480207 0.004936 -1.548573 0.000000 0.000000
    23 -0.027022 -1.076920 -0.020212 -0.899899 0.000000 0.000000
    24 1.164474 -2.543939 -0.170327 -1.313144 -0.035155 0.207255
    25 0.024032 -1.129040 0.017805 -1.333041 0.000000 0.000000
    26 0.014896 -0.883992 -0.019845 -1.093942 0.000000 0.000000
    27 -0.025150 0.078935 -0.009457 0.122178 0.129422 1.374435
    28 0.583509 -1.197274 0.185379 0.076857 -0.706972 -0.680173
    29 1.535926 0.010247 0.005008 -0.116975 -0.135222 -0.974723
    30 1.100770 0.004528 -0.010675 0.000000 0.000000 -0.529724
    31 0.957766 -2.746777 -0.090301 -0.334120 0.035355 0.063678
    32 -0.033419 -1.397127 -0.011256 -0.104320 0.000000 0.000000
    33 -0.022361 -0.957434 0.018783 -0.638045 0.000000 0.000000
    34 0.250029 -2.820664 -0.238397 -0.618475 0.127049 -0.341497
    35 -0.049759 -1.680544 0.100479 -1.815466 0.077876 -0.019415
    36 -0.034141 -1.148310 0.084779 -0.997595 -0.031376 -0.015448
    37 -0.488517 -2.755600 -0.228262 -0.877258 0.177036 -0.438099
    38 0.039889 -1.479791 0.029854 -1.520913 0.000000 0.000000
    39 0.028786 -1.075733 -0.023111 -1.058310 0.000000 0.000000
    40 -1.180679 -2.507216 -0.193861 -1.019141 0.319461 -0.426610
    41 -0.024967 -1.123934 0.017594 -0.936346 0.000000 0.000000
    42 -0.020058 -0.890964 0.010091 -1.193241 0.000000 0.000000
    43 0.092807 -0.054173 -0.097459 3.122270 6.118195 -1.569909
  time 18
    0 9.772898 3.479935 -6.672463 -0.263735 -1.915413 -0.181923
    1 -0.071918 -8.498731 -0.104136 0.376128 -0.156723 0.311188
    2 1.231110 -1.646805 1.167199 0.283770 1.487099 0.248230
    3 -0.018918 -5.204151 1.209771 0.000000 0.000000 0.000000
    4 -0.106210 -0.041607 0.734739 0.000000 -1.570796 0.000000
    5 -0.006608 -5.038086 2.875793 0.000000 0.000000 0.000000
    6 0.000031 -0.420787 -0.134254 0.000000 0.000000 -2.032293
    7 -0.086616 -2.846228 0.453552 0.000000 0.000000 0.000000
    8 -0.086616 -4.899366 1.961809 0.000000 0.000000 0.000000
    9 -0.086616 -4.262175 -0.301127 0.000000 0.000000 0.000000
    10 0.906766 -2.982274 -13.330779 1.243366 2.732918 0.910844
    11 0.096947 -8.450419 -0.009363 0.248631 0.217774 0.307165
    12 -0.586768 -1.264477 0.200164 -0.321269 -0.870406 -2.425842
    13 1.522834 0.058679 0.016851 0.147948 -0.174014 0.762025
    14 1.117947 0.048425 -0.005765 0.113410 -0.151114 0.991877
    15 -0.963867 -2.785143 -0.085346 -0.100646 -0.022819 -0.072998
    16 0.028478 -1.403067 0.006271 -0.992024 0.000875 -0.000575
    17 0.021414 -0.957781 0.020047 -1.443221 -0.193827 -0.062428
    18 -0.249534 -2.846963 -0.174215 -0.642368 -0.137571 0.094702
    19 0.043234 -1.683940 0.096014 -1.782253 0.000000 0.000000
    20 0.031729 -1.160831 0.058836 -1.427155 0.000000 0.000000
    21 0.447952 -2.798983 -0.200441 -0.989353 0.037894 0.167993
    22 -0.032909 -1.480207 0.004936 -1.429248 0.000000 0.000000
    23 -0.027022 -1.076920 -0.020212 -0.852863 0.000000 0.000000
    24 1.164474 -2.543939 -0.170327 -1.295457 -0.035155 0.207255
    25 0.024032 -1.129040 0.017805 -1.266794 0.000000 0.000000
    26 0.014896 -0.883992 -0.019845 -1.151484 0.000000 0.000000
    27 -0.032963 0.059403 -0.025083 0.102651 0.155079 1.382656
    28 0.583509 -1.197274 0.185379 0.087803 -0.702358 -0.685976
    29 1.535926 0.010247 0.005008 -0.114602 -0.143755 -0.980156
    30 1.100770 0.004528 -0.010675 0.000000 0.000000 -0.495813
    31 0.957766 -2.746777 -0.090301 -0.334120 0.035355 0.063678
    32 -0.033419 -1.397127 -0.011256 -0.104320 0.000000 0.000000
    33 -0.022361 -0.957434 0.018783 -0.638045 0.000000 0.000000
    34 0.250029 -2.820664 -0.238397 -0.618475 0.127049 -0.341497
    35 -0.049759 -1.680544 0.100479 -1.815466 0.077876 -0.019415
    36 -0.034141 -1.148310 0.084779 -0.997595 -0.031376 -0.015448
    37 -0.488517 -2.755600 -0.228262 -0.877258 0.177036 -0.438099
    38 0.039889 -1.479791 0.029854 -1.520913 0.000000 0.000000
    39 0.028786 -1.075733 -0.023111 -1.058310 0.000000 0.000000
    40 -1.180679 -2.507216 -0.193861 -1.019141 0.319461 -0.426610
    41 -0.024967 -1.123934 0.017594 -0.936346 0.000000 0.000000
    42 -0.020058 -0.890964 0.010091 -1.193241 0.000000 0.000000
    43 0.092807 -0.054173 -0.097459 3.122270 6.118195 -1.569909
  time 19
    0 9.616643 3.468216 -6.945909 -0.177838 -1.930726 -0.265515
    1 -0.071918 -8.498731 -0.104136 0.390670 -0.127609 0.288378
    2 1.231110 -1.646805 1.167199 0.283770 1.487099 0.248230
    3 -0.018918 -5.204151 1.209771 0.000000 0.000000 0.000000
    4 -0.106210 -0.041607 0.734739 0.000000 -1.570796 0.000000
    5 -0.006608 -5.393566 2.875793 0.000000 0.000000 0.000000
    6 0.000031 -0.420787 -0.134254 -0.009156 -0.017557 -1.833269
    7 -0.086616 -2.846228 0.453552 0.000000 0.000000 0.000000
    8 -0.086616 -5.446257 1.961809 0.000000 0.000000 0.000000
    9 -0.086616 -4.262175 -0.301127 0.000000 0.000000 0.000000
    10 0.895047 -3.716671 -13.381562 1.359239 2.701865 1.102109
    11 0.096947 -8.450419 -0.009363 0.306824 0.209998 0.288937
    12 -0.586768 -1.264477 0.200164 -0.342515 -0.969490 -2.388496
    13 1.522834 0.058679 0.016851 0.181325 -0.136557 0.551211
    14 1.117947 0.048425 -0.005765 0.101617 -0.152049 1.031608
    15 -0.963867 -2.785143 -0.085346 -0.073324 -0.032502 -0.084084
    16 0.028478 -1.403067 0.006271 -1.022597 0.001091 -0.000719
    17 0.021414 -0.957781 0.020047 -1.371155 -0.220744 -0.062895
    18 -0.249534 -2.846963 -0.174215 -0.641873 -0.137116 0.078523
    19 0.043234 -1.683940 0.096014 -1.759379 0.000000 0.000000
    20 0.031729 -1.160831 0.058836 -1.326197 0.000000 0.000000
    21 0.447952 -2.798983 -0.200441 -1.002622 0.037894 0.167993
    22 -0.032909 -1.480207 0.004936 -1.296236 0.000000 0.000000
    23 -0.027022 -1.076920 -0.020212 -0.800414 0.000000 0.000000
    24 1.164474 -2.543939 -0.170327 -1.275810 -0.035155 0.207255
    25 0.024032 -1.129040 0.017805 -1.197166 0.000000 0.000000
    26 0.014896 -0.883992 -0.019845 -1.174453 0.000000 0.000000
    27 -0.044682 0.039872 -0.040708 0.080347 0.181046 1.391429
    28 0.583509 -1.197274 0.185379 0.098456 -0.697888 -0.691619
    29 1.535926 0.010247 0.005008 -0.112301 -0.152049 -0.985437
    30 1.100770 0.004528 -0.010675 0.000000 0.000000 -0.462842
    31 0.957766 -2.746777 -0.090301 -0.334120 0.035355 0.063678
    32 -0.033419 -1.397127 -0.011256 -0.104320 0.000000 0.000000
    33 -0.022361 -0.957434 0.018783 -0.638045 0.000000 0.000000
    34 0.250029 -2.820664 -0.238397 -0.618475 0.127049 -0.341497
    35 -0.049759 -1.680544 0.100479 -1.815466 0.077876 -0.019415
    36 -0.034141 -1.148310 0.084779 -0.997595 -0.031376 -0.015448
    37 -0.488517 -2.755600 -0.228262 -0.877258 0.177036 -0.438099
    38 0.039889 -1.479791 0.029854 -1.520913 0.000000 0.000000
    39 0.028786 -1.075733 -0.023111 -1.058310 0.000000 0.000000
    40 -1.180679 -2.507216 -0.193861 -1.019141 0.319461 -0.426610
    41 -0.024967 -1.123934 0.017594 -0.936346 0.000000 0.000000
    42 -0.020058 -0.890964 0.010091 -1.193241 0.000000 0.000000
    43 0.092807 -0.054173 -0.097459 3.122270 6.118195 -1.569909
  time 20
    0 9.436950 3.460403 -7.242793 -0.078841 -1.948164 -0.361492
    1 -0.071918 -8.498731 -0.104136 0.402459 -0.084535 0.252929
    2 1.231110 -1.646805 1.167199 0.283770 1.487099 0.248230
    3 -0.018918 -5.204151 1.209771 0.000000 0.000000 0.000000
    4 -0.106210 -0.041607 0.734739 0.000000 -1.570796 0.000000
    5 -0.006608 -5.967802 2.875793 0.000000 0.000000 0.000000
    6 0.000031 -0.420787 -0.134254 -0.022148 -0.042473 -1.449051
    7 -0.086616 -2.846228 0.453552 0.000000 0.000000 0.000000
    8 -0.086616 -5.993149 1.961809 0.000000 0.000000 0.000000
    9 -0.086616 -4.262175 -0.301127 0.000000 0.000000 0.000000
    10 0.738792 -4.595605 -13.123742 1.488459 2.662570 1.359676
    11 0.096947 -8.450419 -0.009363 0.349043 0.180897 0.285208
    12 -0.586768 -1.264477 0.200164 -0.351018 -1.009117 -2.373554
    13 1.522834 0.058679 0.016851 0.208782 -0.104413 0.381902
    14 1.117947 0.048425 -0.005765 0.097123 -0.152288 1.045886
    15 -0.963867 -2.785143 -0.085346 -0.062952 -0.040784 -0.093791
    16 0.028478 -1.403067 0.006271 -1.034826 0.001174 -0.000779
    17 0.021414 -0.957781 0.020047 -1.269987 -0.231518 -0.063027
    18 -0.249534 -2.846963 -0.174215 -0.641688 -0.136552 0.064669
    19 0.043234 -1.683940 0.096014 -1.723301 0.000000 0.000000
    20 0.031729 -1.160831 0.058836 -1.225378 0.000000 0.000000
    21 0.447952 -2.798983 -0.200441 -1.017297 0.037894 0.167993
    22 -0.032909 -1.480207 0.004936 -1.158649 0.000000 0.000000
    23 -0.027022 -1.076920 -0.020212 -0.746176 0.000000 0.000000
    24 1.164474 -2.543939 -0.170327 -1.255463 -0.035155 0.207255
    25 0.024032 -1.129040 0.017805 -1.131093 0.000000 0.000000
    26 0.014896 -0.883992 -0.019845 -1.129631 0.000000 0.000000
    27 -0.052495 0.020340 -0.048521 0.058148 0.205021 1.400130
    28 0.583509 -1.197274 0.185379 0.108706 -0.693574 -0.697045
    29 1.535926 0.010247 0.005008 -0.110072 -0.160030 -0.990511
    30 1.100770 0.004528 -0.010675 0.000000 0.000000 -0.431104
    31 0.957766 -2.746777 -0.090301 -0.334120 0.035355 0.063678
    32 -0.033419 -1.397127 -0.011256 -0.104320 0.000000 0.000000
    33 -0.022361 -0.957434 0.018783 -0.638045 0.000000 0.000000
    34 0.250029 -2.820664 -0.238397 -0.618475 0.127049 -0.341497
    35 -0.049759 -1.680544 0.100479 -1.815466 0.077876 -0.019415
    36 -0.034141 -1.148310 0.084779 -0.997595 -0.031376 -0.015448
    37 -0.488517 -2.755600 -0.228262 -0.877258 0.177036 -0.438099
    38 0.039889 -1.479791 0.029854 -1.520913 0.000000 0.000000
    39 0.028786 -1.075733 -0.023111 -1.058310 0.000000 0.000000
    40 -1.180679 -2.507216 -0.193861 -1.019141 0.319461 -0.426610
    41 -0.024967 -1.123934 0.017594 -0.936346 0.000000 0.000000
    42 -0.020058 -0.890964 0.010091 -1.193241 0.000000 0.000000
    43 0.092807 -0.054173 -0.097459 3.122270 6.118195 -1.569909
  time 21
    0 9.233819 3.460403 -7.551396 0.028333 -1.967008 -0.465390
    1 -0.071918 -8.498731 -0.104136 0.409555 -0.035893 0.210654
    2 1.231110 -1.646805 1.167199 0.283770 1.487099 0.248230
    3 -0.018918 -5.204151 1.209771 0.000000 0.000000 0.000000
    4 -0.106210 -0.041607 0.734739 0.000000 -1.570796 0.000000
    5 -0.006608 -6.651417 2.875793 0.000000 0.000000 0.000000
    6 0.000031 -0.420787 -0.134254 -0.028751 -0.055129 -1.055964
    7 -0.086616 -2.846228 0.453552 0.000000 0.000000 0.000000
    8 -0.086616 -6.239250 1.961809 0.000000 0.000000 0.000000
    9 -0.086616 -4.262175 -0.301127 0.000000 0.000000 0.000000
    10 0.473159 -5.533133 -12.647164 -1.515393 0.521365 -1.481800
    11 0.096947 -8.450419 -0.009363 0.376724 0.134695 0.290592
    12 -0.586768 -1.264477 0.200164 -0.320550 -0.962806 -2.416902
    13 1.522834 0.058679 0.016851 0.232978 -0.072250 0.244234
    14 1.117947 0.048425 -0.005765 0.106843 -0.123369 0.875076
    15 -0.963867 -2.785143 -0.085346 -0.063545 -0.048909 -0.102756
    16 0.028478 -1.403067 0.006271 -0.977320 0.001055 -0.000707
    17 0.021414 -0.957781 0.020047 -1.088358 -0.230835 -0.058784
    18 -0.249534 -2.846963 -0.174215 -0.641935 -0.136073 0.051090
    19 0.043234 -1.683940 0.096014 -1.612167 0.000000 0.000000
    20 0.031729 -1.160831 0.058836 -1.096531 0.000000 0.000000
    21 0.447952 -2.798983 -0.200441 -1.032646 0.037894 0.167993
    22 -0.032909 -1.480207 0.004936 -1.025597 0.000000 0.000000
    23 -0.027022 -1.076920 -0.020212 -0.693727 0.000000 0.000000
    24 1.164474 -2.543939 -0.170327 -1.235769 -0.035155 0.207255
    25 0.024032 -1.129040 0.017805 -1.052793 0.000000 0.000000
    26 0.014896 -0.883992 -0.019845 -1.017592 0.000000 0.000000
    27 -0.064214 -0.003099 -0.060240 0.038855 0.224707 1.408147
    28 0.583509 -1.197274 0.185379 0.118456 -0.689463 -0.702210
    29 1.535926 0.010247 0.005008 -0.107963 -0.167628 -0.995358
    30 1.100770 0.004528 -0.010675 0.000000 0.000000 -0.400922
    31 0.957766 -2.746777 -0.090301 -0.334120 0.035355 0.063678
    32 -0.033419 -1.397127 -0.011256 -0.104320 0.000000 0.000000
    33 -0.022361 -0.957434 0.018783 -0.638045 0.000000 0.000000
    34 0.250029 -2.820664 -0.238397 -0.618475 0.127049 -0.341497
    35 -0.049759 -1.680544 0.100479 -1.815466 0.077876 -0.019415
    36 -0.034141 -1.148310 0.084779 -0.997595 -0.031376 -0.015448
    37 -0.488517 -2.755600 -0.228262 -0.877258 0.177036 -0.438099
    38 0.039889 -1.479791 0.029854 -1.520913 0.000000 0.000000
    39 0.028786 -1.075733 -0.023111 -1.058310 0.000000 0.000000
    40 -1.180679 -2.507216 -0.193861 -1.019141 0.319461 -0.426610
    41 -0.024967 -1.123934 0.017594 -0.936346 0.000000 0.000000
    42 -0.020058 -0.890964 0.010091 -1.193241 0.000000 0.000000
    43 0.092807 -0.054173 -0.097459 3.122270 6.118195 -1.569909
  time 22
    0 9.026782 3.472123 -7.871718 0.138759 -1.986501 -0.572550
    1 -0.071918 -8.498731 -0.104136 0.410043 0.017561 0.162313
    2 1.231110 -1.646805 1.167199 0.283770 1.487099 0.248230
    3 -0.018918 -5.204151 1.209771 0.000000 0.000000 0.000000
    4 -0.106210 -0.041607 0.734739 0.000000 -1.570796 0.000000
    5 -0.006608 -7.116275 2.875793 0.000000 0.000000 0.000000
    6 0.000031 -0.420787 -0.134254 -0.021297 -0.040832 -0.631618
    7 -0.086616 -2.846228 0.453552 0.000000 0.000000 0.000000
    8 -0.086616 -6.239250 1.961809 0.000000 0.000000 0.000000
    9 -0.086616 -4.262175 -0.301127 0.000000 0.000000 0.000000
    10 0.129398 -6.443317 -12.045584 -1.374512 0.562002 -1.163369
    11 0.096947 -8.450419 -0.009363 0.391382 0.075673 0.299758
    12 -0.586768 -1.264477 0.200164 -0.247890 -0.851438 -2.520254
    13 1.522834 0.058679 0.016851 0.256468 -0.037710 0.120615
    14 1.117947 0.048425 -0.005765 0.129517 -0.059779 0.499325
    15 -0.963867 -2.785143 -0.085346 -0.067694 -0.057922 -0.111433
    16 0.028478 -1.403067 0.006271 -0.840178 0.000755 -0.000503
    17 0.021414 -0.957781 0.020047 -0.824891 -0.229229 -0.047099
    18 -0.249534 -2.846963 -0.174215 -0.642738 -0.135642 0.036026
    19 0.043234 -1.683940 0.096014 -1.410694 0.000000 0.000000
    20 0.031729 -1.160831 0.058836 -0.930959 0.000000 0.000000
    21 0.447952 -2.798983 -0.200441 -1.048221 0.037894 0.167993
    22 -0.032909 -1.480207 0.004936 -0.906272 0.000000 0.000000
    23 -0.027022 -1.076920 -0.020212 -0.646691 0.000000 0.000000
    24 1.164474 -2.543939 -0.170327 -1.218129 -0.035155 0.207255
    25 0.024032 -1.129040 0.017805 -0.955764 0.000000 0.000000
    26 0.014896 -0.883992 -0.019845 -0.871962 0.000000 0.000000
    27 -0.075933 -0.022630 -0.068053 0.025265 0.237784 1.414835
    28 0.583509 -1.197274 0.185379 0.127606 -0.685616 -0.707070
    29 1.535926 0.010247 0.005008 -0.105985 -0.174759 -0.999885
    30 1.100770 0.004528 -0.010675 0.000000 0.000000 -0.372590
    31 0.957766 -2.746777 -0.090301 -0.334120 0.035355 0.063678
    32 -0.033419 -1.397127 -0.011256 -0.104320 0.000000 0.000000
    33 -0.022361 -0.957434 0.018783 -0.638045 0.000000 0.000000
    34 0.250029 -2.820664 -0.238397 -0.618475 0.127049 -0.341497
    35 -0.049759 -1.680544 0.100479 -1.815466 0.077876 -0.019415
    36 -0.034141 -1.148310 0.084779 -0.997595 -0.031376 -0.015448
    37 -0.488517 -2.755600 -0.228262 -0.877258 0.177036 -0.438099
    38 0.039889 -1.479791 0.029854 -1.520913 0.000000 0.000000
    39 0.028786 -1.075733 -0.023111 -1.058310 0.000000 0.000000
    40 -1.180679 -2.507216 -0.193861 -1.019141 0.319461 -0.426610
    41 -0.024967 -1.123934 0.017594 -0.936346 0.000000 0.000000
    42 -0.020058 -0.890964 0.010091 -1.193241 0.000000 0.000000
    43 0.092807 -0.054173 -0.097459 3.122270 6.118195 -1.569909
  time 23
    0 8.823650 3.507280 -8.207666 0.247691 -2.005885 -0.678505
    1 -0.071918 -8.498731 -0.104136 0.405851 0.076624 0.107165
    2 1.231110 -1.646805 1.167199 0.283770 1.487099 0.248230
    3 -0.018918 -5.204151 1.209771 0.000000 0.000000 0.000000
    4 -0.106210 -0.041607 0.734739 0.000000 -1.570796 0.000000
    5 -0.006608 -7.217840 2.875793 0.000000 0.000000 0.000000
    6 0.000031 -0.420787 -0.134254 -0.007454 -0.014286 -0.198466
    7 -0.086616 -2.846228 0.453552 0.000000 0.000000 0.000000
    8 -0.086616 -6.239250 1.961809 0.000000 0.000000 0.000000
    9 -0.086616 -4.262175 -0.301127 0.000000 0.000000 0.000000
    10 -0.249519 -7.236310 -11.401033 -1.235439 0.595834 -0.850524
    11 0.096947 -8.450419 -0.009363 0.394453 0.008177 0.307296
    12 -0.586768 -1.264477 0.200164 -0.161174 -0.716387 -2.643613
    13 1.522834 0.058679 0.016851 0.274229 -0.010140 0.031412
    14 1.117947 0.048425 -0.005765 0.155416 0.003811 0.123595
    15 -0.963867 -2.785143 -0.085346 -0.078895 -0.066287 -0.118863
    16 0.028478 -1.403067 0.006271 -0.676467 0.000407 -0.000276
    17 0.021414 -0.957781 0.020047 -0.549800 -0.227300 -0.029530
    18 -0.249534 -2.846963 -0.174215 -0.644530 -0.134958 0.022064
    19 0.043234 -1.683940 0.096014 -1.185041 0.000000 0.000000
    20 0.031729 -1.160831 0.058836 -0.766254 0.000000 0.000000
    21 0.447952 -2.798983 -0.200441 -1.063289 0.037894 0.167993
    22 -0.032909 -1.480207 0.004936 -0.809744 0.000000 0.000000
    23 -0.027022 -1.076920 -0.020212 -0.608645 0.000000 0.000000
    24 1.164474 -2.543939 -0.170327 -1.203848 -0.035155 0.207255
    25 0.024032 -1.129040 0.017805 -0.860787 0.000000 0.000000
    26 0.014896 -0.883992 -0.019845 -0.726331 0.000000 0.000000
    27 -0.083746 -0.038256 -0.071959 0.020134 0.241972 1.419533
    28 0.583509 -1.197274 0.185379 0.136061 -0.682068 -0.711538
    29 1.535926 0.010247 0.005008 -0.104152 -0.181339 -1.004073
    30 1.100770 0.004528 -0.010675 0.000000 0.000000 -0.346431
    31 0.957766 -2.746777 -0.090301 -0.334120 0.035355 0.063678
    32 -0.033419 -1.397127 -0.011256 -0.104320 0.000000 0.000000
    33 -0.022361 -0.957434 0.018783 -0.638045 0.000000 0.000000
    34 0.250029 -2.820664 -0.238397 -0.618475 0.127049 -0.341497
    35 -0.049759 -1.680544 0.100479 -1.815466 0.077876 -0.019415
    36 -0.034141 -1.148310 0.084779 -0.997595 -0.031376 -0.015448
    37 -0.488517 -2.755600 -0.228262 -0.877258 0.177036 -0.438099
    38 0.039889 -1.479791 0.029854 -1.520913 0.000000 0.000000
    39 0.028786 -1.075733 -0.023111 -1.058310 0.000000 0.000000
    40 -1.180679 -2.507216 -0.193861 -1.019141 0.319461 -0.426610
    41 -0.024967 -1.123934 0.017594 -0.936346 0.000000 0.000000
    42 -0.020058 -0.890964 0.010091 -1.193241 0.000000 0.000000
    43 0.092807 -0.054173 -0.097459 3.122270 6.118195 -1.569909
  time 24
    0 8.632238 3.569782 -8.547520 0.350205 -2.024405 -0.778637
    1 -0.071918 -8.498731 -0.104136 0.400845 0.135288 0.048789
    2 1.231110 -1.646805 1.167199 0.283770 1.487099 0.248230
    3 -0.018918 -5.204151 1.209771 0.000000 0.000000 0.000000
    4 -0.106210 -0.041607 0.734739 0.000000 -1.570796 0.000000
    5 -0.006608 -7.194402 2.875793 0.000000 0.000000 0.000000
    6 0.000031 -0.420787 -0.134254 0.000000 0.000000 0.000000
    7 -0.086616 -2.846228 0.453552 0.000000 0.000000 0.000000
    8 -0.086616 -6.239250 1.961809 0.000000 0.000000 0.000000
    9 -0.086616 -4.262175 -0.301127 0.000000 0.000000 0.000000
    10 -0.632344 -7.830078 -10.803358 -1.103288 0.617782 -0.567009
    11 0.096947 -8.450419 -0.009363 0.387413 -0.063542 0.307821
    12 -0.586768 -1.264477 0.200164 -0.088539 -0.599112 -2.746965
    13 1.522834 0.058679 0.016851 0.281264 0.001133 -0.002834
    14 1.117947 0.048425 -0.005765 0.174819 0.032718 -0.047214
    15 -0.963867 -2.785143 -0.085346 -0.100764 -0.072435 -0.124041
    16 0.028478 -1.403067 0.006271 -0.539326 0.000120 -0.000072
    17 0.021414 -0.957781 0.020047 -0.333301 -0.225682 -0.007646
    18 -0.249534 -2.846963 -0.174215 -0.647619 -0.133712 0.011793
    19 0.043234 -1.683940 0.096014 -1.001124 0.000000 0.000000
    20 0.031729 -1.160831 0.058836 -0.639866 0.000000 0.000000
    21 0.447952 -2.798983 -0.200441 -1.077345 0.037894 0.167993
    22 -0.032909 -1.480207 0.004936 -0.745124 0.000000 0.000000
    23 -0.027022 -1.076920 -0.020212 -0.583166 0.000000 0.000000
    24 1.164474 -2.543939 -0.170327 -1.194281 -0.035155 0.207255
    25 0.024032 -1.129040 0.017805 -0.788558 0.000000 0.000000
    26 0.014896 -0.883992 -0.019845 -0.614292 0.000000 0.000000
    27 -0.091559 -0.053881 -0.068053 0.034933 0.232979 1.424075
    28 0.583509 -1.197274 0.185379 0.143708 -0.678844 -0.715586
    29 1.535926 0.010247 0.005008 -0.102498 -0.187295 -1.007864
    30 1.100770 0.004528 -0.010675 0.000000 0.000000 -0.322754
    31 0.957766 -2.746777 -0.090301 -0.334120 0.035355 0.063678
    32 -0.033419 -1.397127 -0.011256 -0.104320 0.000000 0.000000
    33 -0.022361 -0.957434 0.018783 -0.638045 0.000000 0.000000
    34 0.250029 -2.820664 -0.238397 -0.618475 0.127049 -0.341497
    35 -0.049759 -1.680544 0.100479 -1.815466 0.077876 -0.019415
    36 -0.034141 -1.148310 0.084779 -0.997595 -0.031376 -0.015448
    37 -0.488517 -2.755600 -0.228262 -0.877258 0.177036 -0.438099
    38 0.039889 -1.479791 0.029854 -1.520913 0.000000 0.000000
    39 0.028786 -1.075733 -0.023111 -1.058310 0.000000 0.000000
    40 -1.180679 -2.507216 -0.193861 -1.019141 0.319461 -0.426610
    41 -0.024967 -1.123934 0.017594 -0.936346 0.000000 0.000000
    42 -0.020058 -0.890964 0.010091 -1.193241 0.000000 0.000000
    43 0.092807 -0.054173 -0.097459 3.122270 6.118195 -1.569909
  time 25
    0 8.429107 3.683066 -8.961595 0.459312 -2.044546 -0.886030
    1 -0.071918 -8.498731 -0.104136 0.395063 0.199123 -0.022420
    2 1.231110 -1.646805 1.167199 0.283770 1.487099 0.248230
    3 -0.018918 -5.204151 1.209771 0.000000 0.000000 0.000000
    4 -0.106210 -0.041607 0.734739 0.000000 -1.570796 0.000000
    5 -0.006608 -7.155339 2.875793 0.000000 0.000000 0.000000
    6 0.000031 -0.420787 -0.134254 0.000000 0.000000 0.000000
    7 -0.086616 -2.846228 0.453552 0.000000 0.000000 0.000000
    8 -0.086616 -6.239250 1.961809 0.000000 0.000000 0.000000
    9 -0.086616 -4.262175 -0.301127 0.000000 0.000000 0.000000
    10 -0.983917 -8.130869 -10.342407 -0.983049 0.623053 -0.336859
    11 0.096947 -8.450419 -0.009363 0.371778 -0.135200 0.296029
    12 -0.586768 -1.264477 0.200164 -0.058072 -0.540987 -2.790313
    13 1.522834 0.058679 0.016851 0.278100 -0.026455 0.092048
    14 1.117947 0.048425 -0.005765 0.184479 0.022747 -0.002599
    15 -0.963867 -2.785143 -0.085346 -0.136798 -0.074832 -0.125982
    16 0.028478 -1.403067 0.006271 -0.481819 0.000000 0.000000
    17 0.021414 -0.957781 0.020047 -0.245521 -0.225011 0.016970
    18 -0.249534 -2.846963 -0.174215 -0.652314 -0.131591 0.007790
    19 0.043234 -1.683940 0.096014 -0.925148 0.000000 0.000000
    20 0.031729 -1.160831 0.058836 -0.589422 0.000000 0.000000
    21 0.447952 -2.798983 -0.200441 -1.089771 0.037894 0.167993
    22 -0.032909 -1.480207 0.004936 -0.721564 0.000000 0.000000
    23 -0.027022 -1.076920 -0.020212 -0.573878 0.000000 0.000000
    24 1.164474 -2.543939 -0.170327 -1.190781 -0.035155 0.207255
    25 0.024032 -1.129040 0.017805 -0.759857 0.000000 0.000000
    26 0.014896 -0.883992 -0.019845 -0.569470 0.000000 0.000000
    27 -0.099371 -0.069507 -0.060240 0.073159 0.211457 1.430187
    28 0.583509 -1.197274 0.185379 0.150452 -0.676004 -0.719155
    29 1.535926 0.010247 0.005008 -0.101036 -0.192544 -1.011222
    30 1.100770 0.004528 -0.010675 0.000000 0.000000 -0.301866
    31 0.957766 -2.746777 -0.090301 -0.334120 0.035355 0.063678
    32 -0.033419 -1.397127 -0.011256 -0.104320 0.000000 0.000000
    33 -0.022361 -0.957434 0.018783 -0.638045 0.000000 0.000000
    34 0.250029 -2.820664 -0.238397 -0.618475 0.127049 -0.341497
    35 -0.049759 -1.680544 0.100479 -1.815466 0.077876 -0.019415
    36 -0.034141 -1.148310 0.084779 -0.997595 -0.031376 -0.015448
    37 -0.488517 -2.755600 -0.228262 -0.877258 0.177036 -0.438099
    38 0.039889 -1.479791 0.029854 -1.520913 0.000000 0.000000
    39 0.028786 -1.075733 -0.023111 -1.058310 0.000000 0.000000
    40 -1.180679 -2.507216 -0.193861 -1.019141 0.319461 -0.426610
    41 -0.024967 -1.123934 0.017594 -0.936346 0.000000 0.000000
    42 -0.020058 -0.890964 0.010091 -1.193241 0.000000 0.000000
    43 0.092807 -0.054173 -0.097459 3.122270 6.118195 -1.569909
  time 26
    0 8.198631 3.851040 -9.445985 0.581608 -2.067425 -1.006856
    1 -0.071918 -8.498731 -0.104136 0.386978 0.271629 -0.109847
    2 1.231110 -1.646805 1.167199 0.283770 1.487099 0.248230
    3 -0.018918 -5.204151 1.209771 0.000000 0.000000 0.000000
    4 -0.106210 -0.041607 0.734739 0.000000 -1.570796 0.000000
    5 -0.006608 -7.116275 2.875793 0.000000 0.000000 0.000000
    6 0.000031 -0.420787 -0.134254 0.000000 0.000000 0.000000
    7 -0.086616 -2.846228 0.453552 0.000000 0.000000 0.000000
    8 -0.086616 -6.239250 1.961809 0.000000 0.000000 0.000000
    9 -0.086616 -4.262175 -0.301127 0.000000 0.000000 0.000000
    10 -1.374554 -8.048835 -9.947863 -0.859318 0.604268 -0.138023
    11 0.096947 -8.450419 -0.009363 0.337496 -0.208924 0.271708
    12 -0.586768 -1.264477 0.200164 -0.075400 -0.528675 -2.753309
    13 1.522834 0.058679 0.016851 0.272216 -0.077670 0.268317
    14 1.117947 0.048425 -0.005765 0.189800 0.000827 0.095564
    15 -0.963867 -2.785143 -0.085346 -0.206554 -0.071860 -0.109204
    16 0.028478 -1.403067 0.006271 -0.596614 0.000000 0.000000
    17 0.021414 -0.957781 0.020047 -0.324734 -0.227480 0.051486
    18 -0.249534 -2.846963 -0.174215 -0.679743 -0.121668 0.016371
    19 0.043234 -1.683940 0.096014 -1.020081 0.000000 0.000000
    20 0.031729 -1.160831 0.058836 -0.657743 0.000000 0.000000
    21 0.447952 -2.798983 -0.200441 -1.102703 0.037894 0.168005
    22 -0.032909 -1.480207 0.004936 -0.819176 0.000000 0.000000
    23 -0.027022 -1.076920 -0.020212 -0.615350 0.000000 0.000000
    24 1.164474 -2.543939 -0.170327 -1.206368 -0.035155 0.207255
    25 0.024032 -1.129040 0.017805 -0.830815 0.000000 0.000000
    26 0.014896 -0.883992 -0.019845 -0.589665 0.000000 0.000000
    27 -0.107184 -0.085132 -0.052427 0.125570 0.182453 1.437126
    28 0.583509 -1.197274 0.185379 0.156194 -0.673595 -0.722201
    29 1.535926 0.010247 0.005008 -0.099789 -0.197027 -1.014070
    30 1.100770 0.004528 -0.010675 0.000000 0.000000 -0.284091
    31 0.957766 -2.746777 -0.090301 -0.334120 0.035355 0.063678
    32 -0.033419 -1.397127 -0.011256 -0.104320 0.000000 0.000000
    33 -0.022361 -0.957434 0.018783 -0.638045 0.000000 0.000000
    34 0.250029 -2.820664 -0.238397 -0.618475 0.127049 -0.341497
    35 -0.049759 -1.680544 0.100479 -1.815466 0.077876 -0.019415
    36 -0.034141 -1.148310 0.084779 -0.997595 -0.031376 -0.015448
    37 -0.488517 -2.755600 -0.228262 -0.877258 0.177036 -0.438099
    38 0.039889 -1.479791 0.029854 -1.520913 0.000000 0.000000
    39 0.028786 -1.075733 -0.023111 -1.058310 0.000000 0.000000
    40 -1.180679 -2.507216 -0.193861 -1.019141 0.319461 -0.426610
    41 -0.024967 -1.123934 0.017594 -0.936346 0.000000 0.000000
    42 -0.020058 -0.890964 0.010091 -1.193241 0.000000 0.000000
    43 0.092807 -0.054173 -0.097459 3.122270 6.118195 -1.569909
  time 27
    0 7.975968 4.038546 -9.949907 0.702321 -2.090196 -1.126478
    1 -0.071918 -8.498731 -0.104136 0.378080 0.343737 -0.200463
    2 1.231110 -1.646805 1.167199 0.283770 1.487099 0.248230
    3 -0.018918 -5.204151 1.209771 0.000000 0.000000 0.000000
    4 -0.106210 -0.041607 0.734739 0.000000 -1.570796 0.000000
    5 -0.006608 -7.116275 2.875793 0.000000 0.000000 0.000000
    6 0.000031 -0.420787 -0.134254 0.000000 0.000000 0.000000
    7 -0.086616 -2.846228 0.453552 0.000000 0.000000 0.000000
    8 -0.086616 -6.239250 1.961809 0.000000 0.000000 0.000000
    9 -0.086616 -4.262175 -0.301127 0.000000 0.000000 0.000000
    10 -1.847224 -7.673824 -9.522069 -0.726856 0.566410 0.053535
    11 0.096947 -8.450419 -0.009363 0.311670 -0.286931 0.246074
    12 -0.586768 -1.264477 0.200164 -0.116676 -0.520661 -2.665098
    13 1.522834 0.058679 0.016851 0.269040 -0.105259 0.363199
    14 1.117947 0.048425 -0.005765 0.194007 -0.021081 0.193726
    15 -0.963867 -2.785143 -0.085346 -0.308788 -0.064789 -0.069199
    16 0.028478 -1.403067 0.006271 -0.870278 0.000000 0.000000
    17 0.021414 -0.957781 0.020047 -0.513552 -0.233376 0.096907
    18 -0.249534 -2.846963 -0.174215 -0.737135 -0.101893 0.036817
    19 0.043234 -1.683940 0.096014 -1.246412 0.000000 0.000000
    20 0.031729 -1.160831 0.058836 -0.820647 0.000000 0.000000
    21 0.447952 -2.798983 -0.200441 -1.117096 0.037894 0.167993
    22 -0.032909 -1.480207 0.004936 -1.051886 0.000000 0.000000
    23 -0.027022 -1.076920 -0.020212 -0.714289 0.000000 0.000000
    24 1.164474 -2.543939 -0.170327 -1.243469 -0.035155 0.207255
    25 0.024032 -1.129040 0.017805 -0.999929 0.000000 0.000000
    26 0.014896 -0.883992 -0.019845 -0.637803 0.000000 0.000000
    27 -0.114997 -0.096851 -0.044615 0.182920 0.151046 1.444053
    28 0.583509 -1.197274 0.185379 0.160837 -0.671642 -0.724667
    29 1.535926 0.010247 0.005008 -0.098783 -0.200634 -1.016371
    30 1.100770 0.004528 -0.010675 0.000000 0.000000 -0.269708
    31 0.957766 -2.746777 -0.090301 -0.334120 0.035355 0.063678
    32 -0.033419 -1.397127 -0.011256 -0.104320 0.000000 0.000000
    33 -0.022361 -0.957434 0.018783 -0.638045 0.000000 0.000000
    34 0.250029 -2.820664 -0.238397 -0.618475 0.127049 -0.341497
    35 -0.049759 -1.680544 0.100479 -1.815466 0.077876 -0.019415
    36 -0.034141 -1.148310 0.084779 -0.997595 -0.031376 -0.015448
    37 -0.488517 -2.755600 -0.228262 -0.877258 0.177036 -0.438099
    38 0.039889 -1.479791 0.029854 -1.520913 0.000000 0.000000
    39 0.028786 -1.075733 -0.023111 -1.058310 0.000000 0.000000
    40 -1.180679 -2.507216 -0.193861 -1.019141 0.319461 -0.426610
    41 -0.024967 -1.123934 0.017594 -0.936346 0.000000 0.000000
    42 -0.020058 -0.890964 0.010091 -1.193241 0.000000 0.000000
    43 0.092807 -0.054173 -0.097459 3.122270 6.118195 -1.569909
  time 28
    0 7.780650 4.214333 -10.395233 0.806769 -2.110013 -1.230143
    1 -0.071918 -8.498731 -0.104136 0.369858 0.406419 -0.281317
    2 1.231110 -1.646805 1.167199 0.283770 1.487099 0.248230
    3 -0.018918 -5.204151 1.209771 0.000000 0.000000 0.000000
    4 -0.106210 -0.041607 0.734739 0.000000 -1.570796 0.000000
    5 -0.006608 -7.116275 2.875793 0.000000 0.000000 0.000000
    6 0.000031 -0.420787 -0.134254 0.000000 0.000000 0.000000
    7 -0.086616 -2.846228 0.453552 0.000000 0.000000 0.000000
    8 -0.086616 -6.239250 1.961809 0.000000 0.000000 0.000000
    9 -0.086616 -4.262175 -0.301127 0.000000 0.000000 0.000000
    10 -2.300363 -7.185527 -9.135339 -0.606617 0.522898 0.216573
    11 0.096947 -8.450419 -0.009363 0.340667 -0.386596 0.221833
    12 -0.586768 -1.264477 0.200164 -0.165909 -0.516057 -2.559781
    13 1.522834 0.058679 0.016851 0.274577 -0.086693 0.297311
    14 1.117947 0.048425 -0.005765 0.200310 -0.031040 0.238342
    15 -0.963867 -2.785143 -0.085346 -0.415942 -0.056352 -0.021440
    16 0.028478 -1.403067 0.006271 -1.196936 0.000000 0.000000
    17 0.021414 -0.957781 0.020047 -0.738963 -0.240411 0.142569
    18 -0.249534 -2.846963 -0.174215 -0.803732 -0.079182 0.061241
    19 0.043234 -1.683940 0.096014 -1.516509 0.000000 0.000000
    20 0.031729 -1.160831 0.058836 -1.015079 0.000000 0.000000
    21 0.447952 -2.798983 -0.200441 -1.130422 0.037894 0.167993
    22 -0.032909 -1.480207 0.004936 -1.329670 0.000000 0.000000
    23 -0.027022 -1.076920 -0.020212 -0.832301 0.000000 0.000000
    24 1.164474 -2.543939 -0.170327 -1.287757 -0.035155 0.207255
    25 0.024032 -1.129040 0.017805 -1.201848 0.000000 0.000000
    26 0.014896 -0.883992 -0.019845 -0.695243 0.000000 0.000000
    27 -0.122810 -0.108571 -0.032896 0.235776 0.122334 1.450117
    28 0.583509 -1.197274 0.185379 0.164270 -0.670192 -0.726481
    29 1.535926 0.010247 0.005008 -0.098040 -0.203319 -1.018069
    30 1.100770 0.004528 -0.010675 0.000000 0.000000 -0.259068
    31 0.957766 -2.746777 -0.090301 -0.334120 0.035355 0.063678
    32 -0.033419 -1.397127 -0.011256 -0.104320 0.000000 0.000000
    33 -0.022361 -0.957434 0.018783 -0.638045 0.000000 0.000000
    34 0.250029 -2.820664 -0.238397 -0.618475 0.127049 -0.341497
    35 -0.049759 -1.680544 0.100479 -1.815466 0.077876 -0.019415
    36 -0.034141 -1.148310 0.084779 -0.997595 -0.031376 -0.015448
    37 -0.488517 -2.755600 -0.228262 -0.877258 0.177036 -0.438099
    38 0.039889 -1.479791 0.029854 -1.520913 0.000000 0.000000
    39 0.028786 -1.075733 -0.023111 -1.058310 0.000000 0.000000
    40 -1.180679 -2.507216 -0.193861 -1.019141 0.319461 -0.426610
    41 -0.024967 -1.123934 0.017594 -0.936346 0.000000 0.000000
    42 -0.020058 -0.890964 0.010091 -1.193241 0.000000 0.000000
    43 0.092807 -0.054173 -0.097459 3.122270 6.118195 -1.569909
  time 29
    0 7.640021 4.347149 -10.711649 0.880181 -2.123957 -1.303136
    1 -0.071918 -8.498731 -0.104136 0.363826 0.450646 -0.339361
    2 1.231110 -1.646805 1.167199 0.283770 1.487099 0.248230
    3 -0.018918 -5.204151 1.209771 0.000000 0.000000 0.000000
    4 -0.106210 -0.041607 0.734739 0.000000 -1.570796 0.000000
    5 -0.006608 -7.116275 2.875793 0.000000 0.000000 0.000000
    6 0.000031 -0.420787 -0.134254 0.000000 0.000000 0.000000
    7 -0.086616 -2.846228 0.453552 0.000000 0.000000 0.000000
    8 -0.086616 -6.239250 1.961809 0.000000 0.000000 0.000000
    9 -0.086616 -4.262175 -0.301127 0.000000 0.000000 0.000000
    10 -2.640217 -6.763639 -8.857986 -0.519244 0.486958 0.329920
    11 0.096947 -8.450419 -0.009363 0.397185 -0.489238 0.200191
    12 -0.586768 -1.264477 0.200164 -0.207185 -0.513950 -2.471552
    13 1.522834 0.058679 0.016851 0.284872 -0.052207 0.174887
    14 1.117947 0.048425 -0.005765 0.214956 -0.019547 0.158524
    15 -0.963867 -2.785143 -0.085346 -0.500455 -0.049281 0.018564
    16 0.028478 -1.403067 0.006271 -1.470600 0.000000 0.000000
    17 0.021414 -0.957781 0.020047 -0.927867 -0.246295 0.177791
    18 -0.249534 -2.846963 -0.174215 -0.858900 -0.060474 0.081699
    19 0.043234 -1.683940 0.096014 -1.742839 0.000000 0.000000
    20 0.031729 -1.160831 0.058836 -1.177983 0.000000 0.000000
    21 0.447952 -2.798983 -0.200441 -1.140205 0.037894 0.167993
    22 -0.032909 -1.480207 0.004936 -1.562420 0.000000 0.000000
    23 -0.027022 -1.076920 -0.020212 -0.931190 0.000000 0.000000
    24 1.164474 -2.543939 -0.170327 -1.324905 -0.035155 0.207255
    25 0.024032 -1.129040 0.017805 -1.371020 0.000000 0.000000
    26 0.014896 -0.883992 -0.019845 -0.743381 0.000000 0.000000
    27 -0.126716 -0.116383 -0.025083 0.274533 0.101362 1.454432
    28 0.583509 -1.197274 0.185379 0.166408 -0.669293 -0.727612
    29 1.535926 0.010247 0.005008 -0.097584 -0.204984 -1.019125
    30 1.100770 0.004528 -0.010675 0.000000 0.000000 -0.252451
    31 0.957766 -2.746777 -0.090301 -0.334120 0.035355 0.063678
    32 -0.033419 -1.397127 -0.011256 -0.104320 0.000000 0.000000
    33 -0.022361 -0.957434 0.018783 -0.638045 0.000000 0.000000
    34 0.250029 -2.820664 -0.238397 -0.618475 0.127049 -0.341497
    35 -0.049759 -1.680544 0.100479 -1.815466 0.077876 -0.019415
    36 -0.034141 -1.148310 0.084779 -0.997595 -0.031376 -0.015448
    37 -0.488517 -2.755600 -0.228262 -0.877258 0.177036 -0.438099
    38 0.039889 -1.479791 0.029854 -1.520913 0.000000 0.000000
    39 0.028786 -1.075733 -0.023111 -1.058310 0.000000 0.000000
    40 -1.180679 -2.507216 -0.193861 -1.019141 0.319461 -0.426610
    41 -0.024967 -1.123934 0.017594 -0.936346 0.000000 0.000000
    42 -0.020058 -0.890964 0.010091 -1.193241 0.000000 0.000000
    43 0.092807 -0.054173 -0.097459 3.122270 6.118195 -1.569909
  time 30
    0 7.589238 4.397932 -10.832746 0.907964 -2.129253 -1.330741
    1 -0.071918 -8.498731 -0.104136 0.361485 0.467430 -0.361585
    2 1.231110 -1.646805 1.167199 0.283770 1.487099 0.248230
    3 -0.018918 -5.204151 1.209771 0.000000 0.000000 0.000000
    4 -0.106210 -0.041607 0.734739 0.000000 -1.570796 0.000000
    5 -0.006608 -7.116275 2.875793 0.000000 0.000000 0.000000
    6 0.000031 -0.420787 -0.134254 0.000000 0.000000 0.000000
    7 -0.086616 -2.846228 0.453552 0.000000 0.000000 0.000000
    8 -0.086616 -6.239250 1.961809 0.000000 0.000000 0.000000
    9 -0.086616 -4.262175 -0.301127 0.000000 0.000000 0.000000
    10 -2.773034 -6.580040 -8.748608 -0.485505 0.472102 0.372334
    11 0.096947 -8.450419 -0.009363 0.427877 -0.536382 0.190841
    12 -0.586768 -1.264477 0.200164 -0.224488 -0.513450 -2.434584
    13 1.522834 0.058679 0.016851 0.290409 -0.033622 0.109000
    14 1.117947 0.048425 -0.005765 0.225382 -0.008054 0.078707
    15 -0.963867 -2.785143 -0.085346 -0.534770 -0.046320 0.035343
    16 0.028478 -1.403067 0.006271 -1.585394 0.000000 0.000000
    17 0.021414 -0.957781 0.020047 -1.007036 -0.248776 0.191909
    18 -0.249534 -2.846963 -0.174215 -0.881820 -0.052696 0.090280
    19 0.043234 -1.683940 0.096014 -1.837724 0.000000 0.000000
    20 0.031729 -1.160831 0.058836 -1.246304 0.000000 0.000000
    21 0.447952 -2.798983 -0.200441 -1.144028 0.037894 0.167993
    22 -0.032909 -1.480207 0.004936 -1.659992 0.000000 0.000000
    23 -0.027022 -1.076920 -0.020212 -0.972712 0.000000 0.000000
    24 1.164474 -2.543939 -0.170327 -1.340445 -0.035155 0.207255
    25 0.024032 -1.129040 0.017805 -1.441949 0.000000 0.000000
    26 0.014896 -0.883992 -0.019845 -0.763542 0.000000 0.000000
    27 -0.130622 -0.116383 -0.021176 0.289586 0.093244 1.456062
    28 0.583509 -1.197274 0.185379 0.167141 -0.668981 -0.728004
    29 1.535926 0.010247 0.005008 -0.097416 -0.205560 -1.019483
    30 1.100770 0.004528 -0.010675 0.000000 0.000000 -0.250166
    31 0.957766 -2.746777 -0.090301 -0.334120 0.035355 0.063678
    32 -0.033419 -1.397127 -0.011256 -0.104320 0.000000 0.000000
    33 -0.022361 -0.957434 0.018783 -0.638045 0.000000 0.000000
    34 0.250029 -2.820664 -0.238397 -0.618475 0.127049 -0.341497
    35 -0.049759 -1.680544 0.100479 -1.815466 0.077876 -0.019415
    36 -0.034141 -1.148310 0.084779 -0.997595 -0.031376 -0.015448
    37 -0.488517 -2.755600 -0.228262 -0.877258 0.177036 -0.438099
    38 0.039889 -1.479791 0.029854 -1.520913 0.000000 0.000000
    39 0.028786 -1.075733 -0.023111 -1.058310 0.000000 0.000000
    40 -1.180679 -2.507216 -0.193861 -1.019141 0.319461 -0.426610
    41 -0.024967 -1.123934 0.017594 -0.936346 0.000000 0.000000
    42 -0.020058 -0.890964 0.010091 -1.193241 0.000000 0.000000
    43 0.092807 -0.054173 -0.097459 3.122270 6.118195 -1.569909
end
