// Created by Crowbar 0.49.0.0

$modelname "weapons/tfa_cso/c_tempest.mdl"

$Include "csonline_gmod.qci"

$bodygroup "weapon"
{
	studio "v_sfsmg_v_ref"
}

$CDMaterials "models\weapons\tfa_cso\tempest\"

$attachment 0 "Bone02" 16.5 0 0.8
//$attachment 1 "Bone02" 0 0 -1

$definebone "root" "" -0.947931 2.325353 0.541027 0.000000 0.000000 0.000000 0.000000 0.000000 0.000000 -0.000000 0.000000 0.000000
$definebone "Bone01" "root" 8.871383 -0.069257 -9.908420 -76.217481 70.092795 -90.018548 -0.000001 0.000000 0.000000 0.000000 0.000000 -0.000002
$definebone "Bone_Lefthand" "Bone01" -0.071918 -8.498730 -0.104136 5.156334 -13.330836 12.731982 0.000000 0.000000 0.000000 -0.000000 0.000001 0.000000
$definebone "Bone02" "Bone_Lefthand" 3.509751 -0.490461 0.743484 7.153607 -88.658992 -174.834977 0.000000 0.000000 -0.000000 0.000000 0.000001 -0.000001
$definebone "Bone03" "Bone02" -4.604834 1.953982 -0.000000 -0.000000 179.999966 0.000001 0.000000 0.000000 0.000000 -0.000000 0.000001 0.000001
$definebone "Dummy01" "Bone03" -1.491883 -2.192086 0.000001 0.000001 -89.999983 0.000000 0.000000 0.000000 0.000000 0.000001 -0.000001 0.000000
$definebone "Bone24" "Dummy01" 7.170206 0.000000 0.000000 0.000001 -0.000001 0.000000 0.000000 0.000000 0.000000 0.000001 -0.000001 0.000000
$definebone "Bone16" "Dummy01" 0.000000 0.000000 0.000000 0.000001 -0.000001 0.000000 0.000000 0.000000 0.000000 0.000001 -0.000001 0.000000
$definebone "Bone26" "Bone02" 0.500716 -0.717737 -0.772266 0.000001 89.999983 179.999966 0.000000 0.000000 0.000000 -0.000001 0.000001 0.000000
$definebone "Bone34" "Bone02" 0.531071 0.362873 -0.818099 89.999983 89.999983 0.000000 0.000000 0.000000 0.000000 -0.000001 -0.000000 -0.000001

$sequence "idle1" {
	"v_sfsmg_anims\idle1"
	fps 30
	loop
	activity "ACT_VM_IDLE" 1
	snap
}
$sequence "reload" {
	"v_sfsmg_anims\reload"
	{ event 5004 18 "Tempest.ClipOut" }
	{ event 5004 52 "Tempest.ClipIn1" }
	{ event 5004 69 "Tempest.ClipIn2" }
	fps 30
	activity "ACT_VM_RELOAD" 1
	snap
}
$sequence "draw" {
	"v_sfsmg_anims\draw"
	{ event 5004 10 "Tempest.Draw" }
	fps 30
	activity "ACT_VM_DRAW" 1
	snap
}
$sequence "shoot1" {
	"v_sfsmg_anims\shoot1"
	{ event 5001 0 "100117" }
	fps 30
	activity "ACT_VM_PRIMARYATTACK" 1
	snap
}
$sequence "shoot2" {
	"v_sfsmg_anims\shoot2"
	{ event 5001 0 "100117" }
	fps 30
	activity "ACT_VM_PRIMARYATTACK" 2
	snap
}
$sequence "shoot3" {
	"v_sfsmg_anims\shoot3"
	{ event 5001 0 "100117" }
	fps 30
	activity "ACT_VM_PRIMARYATTACK" 3
	snap
}
