// Created by Crowbar 0.34.0.0

$ModelName "weapons/tfa_cso/w_janus1.mdl"

$BodyGroup "studio"
{
	studio "v_janus1_v_refA"
}

$collisionmodel "v_janus1_v_refA.smd"
{
	$mass 9
}

$CDMaterials "models\weapons\tfa_cso\janus1\"

$attachment "0" "root" -0.10 -5.80 -0.40 rotate -0 0 0

$Sequence "idle" {
	"anims\idle.smd"
	fps 30
}