version 1
nodes
  0 "root" -1
  1 "Bone01" 0
  2 "Bone_Lefthand" 1
  3 "Bone02" 2
  4 "Dummy01" 3
  5 "Bone08" 4
  6 "Dummy02" 3
  7 "Bone26" 6
  8 "Bone16" 3
  9 "Bone34" 3
  10 "Bone24" 3
  11 "Bone_L_Upper" 1
  12 "Bone13" 2
  13 "Bone14" 12
  14 "Bone15" 13
  15 "Bone17" 2
  16 "Bone18" 15
  17 "Bone19" 16
  18 "Bone21" 2
  19 "Bone22" 18
  20 "Bone23" 19
  21 "Bone09" 2
  22 "Bone10" 21
  23 "Bone11" 22
  24 "Bone05" 2
  25 "Bone06" 24
  26 "Bone07" 25
  27 "Bone_Se_Hand-L" 2
  28 "Bone04" 0
  29 "Bone_Righthand" 28
  30 "Bone39" 29
  31 "Bone40" 30
  32 "Bone41" 31
  33 "Bone35" 29
  34 "Bone36" 33
  35 "Bone37" 34
  36 "Bone31" 29
  37 "Bone32" 36
  38 "Bone33" 37
  39 "Bone43" 29
  40 "Bone44" 39
  41 "Bone45" 40
  42 "Bone27" 29
  43 "Bone28" 42
  44 "Bone29" 43
  45 "Bone_Se_Hand-R" 29
  46 "Bone_R_Upper" 28
end
skeleton
  time 0
    0 -0.349399 1.166145 0.203512 0.000000 0.000000 0.000000
    1 9.874299 1.714329 -8.778432 -1.567989 -1.332284 1.220320
    2 -0.071918 -8.498730 -0.104136 0.221967 0.080481 -0.200353
    3 2.672261 -3.383448 0.696208 0.083503 0.128137 -1.585662
    4 8.674173 -0.128572 0.000000 0.000000 0.000000 0.000000
    5 0.000000 0.000000 0.000000 0.000000 0.000000 0.000000
    6 4.045845 -0.586976 0.000000 0.000000 0.000000 0.000000
    7 -46.466262 -28.532121 -0.367199 0.000000 0.000000 0.278050
    8 1.039971 -0.940679 0.000000 0.000000 0.000000 -1.570796
    9 4.782106 0.485510 0.407405 0.000000 0.000000 -1.570796
    10 5.548040 -0.183522 0.000000 1.570796 -1.570796 0.000000
    11 1.257180 8.762585 -0.153713 -1.570562 0.002683 -1.566807
    12 -0.488518 -2.755602 -0.228260 -0.518305 -0.074854 -0.310571
    13 0.039887 -1.479790 0.029854 -2.289231 0.000000 0.000001
    14 0.028786 -1.075731 -0.023109 -0.271941 0.000000 0.000000
    15 0.250027 -2.820665 -0.238396 -0.350825 -0.052441 -0.187301
    16 -0.049759 -1.680544 0.100479 -2.246572 0.000000 -0.000002
    17 -0.034142 -1.148312 0.084782 -0.535851 0.000000 0.000000
    18 0.957766 -2.746780 -0.090302 0.329289 -0.172344 0.119866
    19 -0.033420 -1.397129 -0.011257 -1.115580 0.000000 -0.000001
    20 -0.022360 -0.957436 0.018784 -1.148807 0.000000 0.000000
    21 -1.180681 -2.507217 -0.193859 -0.309305 0.033033 -0.314313
    22 -0.024967 -1.123934 0.017597 -2.040737 0.000000 0.000001
    23 -0.020057 -0.890968 0.010090 -0.646720 0.000000 0.000000
    24 0.583510 -1.197277 0.185379 0.371183 -0.693166 -0.903076
    25 1.535927 0.010246 0.005009 -0.002964 -0.012979 -0.682290
    26 1.100771 0.004527 -0.010679 -0.016147 -0.001453 -1.484153
    27 0.120153 -0.050270 -0.054489 0.287569 3.110905 1.561085
    28 -0.430930 -11.438480 -11.747736 -1.839794 -5.400462 -1.039113
    29 0.096944 -8.450418 -0.009365 0.075476 -1.267968 0.356845
    30 0.447953 -2.798986 -0.200443 -0.761407 0.042804 0.170619
    31 -0.032909 -1.480204 0.004940 -1.480139 0.000000 0.000002
    32 -0.027022 -1.076920 -0.020210 -0.375135 0.000000 0.000000
    33 -0.249534 -2.846964 -0.174213 -0.318562 0.002631 0.073866
    34 0.043235 -1.683941 0.096012 -1.876275 0.002823 -0.000167
    35 0.031729 -1.160830 0.058838 -0.099745 0.000642 0.008372
    36 -0.963866 -2.785145 -0.085350 0.076866 0.070929 0.053157
    37 0.028479 -1.403067 0.006271 -1.337909 0.000000 0.000000
    38 0.021413 -0.957781 0.020046 -1.052173 0.000000 0.000000
    39 1.164475 -2.543940 -0.170330 -1.221927 -0.015463 0.162804
    40 0.024032 -1.129042 0.017807 -0.900877 0.000000 0.000001
    41 0.014898 -0.883989 -0.019848 -0.928571 0.000000 0.000000
    42 -0.586770 -1.264477 0.200161 0.150010 0.013443 -2.613227
    43 1.522835 0.058681 0.016848 0.001410 0.008985 0.624684
    44 1.117947 0.048424 -0.005766 -0.002568 -0.011344 -0.141987
    45 -0.139399 -0.111698 0.014397 0.774181 0.191172 1.472862
    46 -6.260806 6.983652 -0.294122 1.580804 -0.005023 -0.912799
  time 1
    0 -0.349399 1.166145 0.203512 0.000000 0.000000 0.000000
    1 9.589134 1.929179 -8.680773 -1.548910 -1.328651 1.206195
    2 -0.071918 -8.498730 -0.104136 0.222923 0.082147 -0.199538
    3 2.672261 -3.383448 0.696208 0.083503 0.128137 -1.585662
    4 8.674173 -0.128572 0.000000 0.000000 0.000000 0.000000
    5 0.000000 0.000000 0.000000 0.000000 0.000000 0.000000
    6 4.045845 -0.586976 0.000000 0.000000 0.000000 0.000000
    7 -43.763054 -27.746940 -0.371105 -0.011865 0.002145 0.275132
    8 1.039971 -0.940679 0.000000 0.000000 0.000000 -1.570796
    9 4.782106 0.485510 0.407405 0.000000 0.000000 -1.570796
    10 5.548040 -0.183522 0.000000 1.570796 -1.570796 0.000000
    11 1.257180 8.762585 -0.153713 -1.570562 0.002683 -1.566807
    12 -0.488518 -2.755602 -0.228260 -0.518305 -0.074854 -0.310571
    13 0.039887 -1.479790 0.029854 -2.289231 0.000000 0.000001
    14 0.028786 -1.075731 -0.023109 -0.271941 0.000000 0.000000
    15 0.250027 -2.820665 -0.238396 -0.350825 -0.052441 -0.187301
    16 -0.049759 -1.680544 0.100479 -2.246572 0.000000 -0.000002
    17 -0.034142 -1.148312 0.084782 -0.535851 0.000000 0.000000
    18 0.957766 -2.746780 -0.090302 0.329289 -0.172344 0.119866
    19 -0.033420 -1.397129 -0.011257 -1.115580 0.000000 -0.000001
    20 -0.022360 -0.957436 0.018784 -1.148807 0.000000 0.000000
    21 -1.180681 -2.507217 -0.193859 -0.309305 0.033033 -0.314313
    22 -0.024967 -1.123934 0.017597 -2.040737 0.000000 0.000001
    23 -0.020057 -0.890968 0.010090 -0.646720 0.000000 0.000000
    24 0.583510 -1.197277 0.185379 0.371183 -0.693166 -0.903076
    25 1.535927 0.010246 0.005009 -0.002964 -0.012979 -0.682290
    26 1.100771 0.004527 -0.010679 -0.016147 -0.001453 -1.484153
    27 0.120153 -0.050270 -0.054489 0.287569 3.110905 1.561085
    28 -0.720001 -11.438480 -12.243844 -2.035141 -5.461027 -1.304076
    29 0.096944 -8.450418 -0.009365 0.075476 -1.267968 0.356845
    30 0.447953 -2.798986 -0.200443 -0.647353 0.042804 0.170619
    31 -0.032909 -1.480204 0.004940 -1.211734 0.000000 0.000002
    32 -0.027022 -1.076920 -0.020210 -0.436723 0.000000 0.000000
    33 -0.249534 -2.846964 -0.174213 -0.229447 0.002631 0.073866
    34 0.043235 -1.683941 0.096012 -1.517171 0.002823 -0.000167
    35 0.031729 -1.160830 0.058838 -0.152515 0.000642 0.008372
    36 -0.963866 -2.785145 -0.085350 0.157166 0.070929 0.053157
    37 0.028479 -1.403067 0.006271 -1.111441 0.000000 0.000000
    38 0.021413 -0.957781 0.020046 -0.825705 0.000000 0.000000
    39 1.164475 -2.543940 -0.170330 -1.085608 -0.015463 0.162804
    40 0.024032 -1.129042 0.017807 -0.823748 0.000000 0.000001
    41 0.014898 -0.883989 -0.019848 -0.851455 0.000000 0.000000
    42 -0.586770 -1.264477 0.200161 0.155771 -0.122787 -2.635793
    43 1.522835 0.058681 0.016848 0.001410 0.008985 0.521504
    44 1.117947 0.048424 -0.005766 -0.002568 -0.011344 -0.035287
    45 -0.139399 -0.111698 0.014397 0.774181 0.191172 1.472862
    46 -6.260806 6.983652 -0.294122 1.580804 -0.005023 -0.912799
  time 2
    0 -0.349399 1.166145 0.203512 0.000000 0.000000 0.000000
    1 9.303969 2.144030 -8.579207 -1.549743 -1.325198 1.211726
    2 -0.071918 -8.498730 -0.104136 0.225624 0.086833 -0.197261
    3 2.672261 -3.383448 0.696208 0.083503 0.128137 -1.585662
    4 8.674173 -0.128572 0.000000 0.000000 0.000000 0.000000
    5 0.000000 0.000000 0.000000 0.000000 0.000000 0.000000
    6 4.045845 -0.586976 0.000000 0.000000 0.000000 0.000000
    7 -41.063753 -26.961760 -0.378918 -0.023729 0.004470 0.273629
    8 1.039971 -0.940679 0.000000 0.000000 0.000000 -1.570796
    9 4.782106 0.485510 0.407405 0.000000 0.000000 -1.570796
    10 5.548040 -0.183522 0.000000 1.570796 -1.570796 0.000000
    11 1.257180 8.762585 -0.153713 -1.570562 0.002683 -1.566807
    12 -0.488518 -2.755602 -0.228260 -0.518305 -0.074854 -0.310571
    13 0.039887 -1.479790 0.029854 -2.289231 0.000000 0.000001
    14 0.028786 -1.075731 -0.023109 -0.271941 0.000000 0.000000
    15 0.250027 -2.820665 -0.238396 -0.350825 -0.052441 -0.187301
    16 -0.049759 -1.680544 0.100479 -2.246572 0.000000 -0.000002
    17 -0.034142 -1.148312 0.084782 -0.535851 0.000000 0.000000
    18 0.957766 -2.746780 -0.090302 0.329289 -0.172344 0.119866
    19 -0.033420 -1.397129 -0.011257 -1.115580 0.000000 -0.000001
    20 -0.022360 -0.957436 0.018784 -1.148807 0.000000 0.000000
    21 -1.180681 -2.507217 -0.193859 -0.309305 0.033033 -0.314313
    22 -0.024967 -1.123934 0.017597 -2.040737 0.000000 0.000001
    23 -0.020057 -0.890968 0.010090 -0.646720 0.000000 0.000000
    24 0.583510 -1.197277 0.185379 0.371183 -0.693166 -0.903076
    25 1.535927 0.010246 0.005009 -0.002964 -0.012979 -0.682290
    26 1.100771 0.004527 -0.010679 -0.016147 -0.001453 -1.484153
    27 0.120153 -0.050270 -0.054489 0.287569 3.110905 1.561085
    28 -1.141889 -11.438480 -12.853238 -2.189436 -5.551049 -1.530139
    29 0.096944 -8.450418 -0.009365 0.075476 -1.267968 0.356845
    30 0.447953 -2.798986 -0.200443 -0.435573 0.042804 0.170619
    31 -0.032909 -1.480204 0.004940 -0.713152 0.000000 0.000002
    32 -0.027022 -1.076920 -0.020210 -0.551088 0.000000 0.000000
    33 -0.249534 -2.846964 -0.174213 -0.063938 0.002631 0.073866
    34 0.043235 -1.683941 0.096012 -0.850229 0.002823 -0.000167
    35 0.031729 -1.160830 0.058838 -0.250563 0.000642 0.008372
    36 -0.963866 -2.785145 -0.085350 0.306285 0.070929 0.053157
    37 0.028479 -1.403067 0.006271 -0.690802 0.000000 0.000000
    38 0.021413 -0.957781 0.020046 -0.405126 0.000000 0.000000
    39 1.164475 -2.543940 -0.170330 -0.832404 -0.015463 0.162804
    40 0.024032 -1.129042 0.017807 -0.680608 0.000000 0.000001
    41 0.014898 -0.883989 -0.019848 -0.708292 0.000000 0.000000
    42 -0.586770 -1.264477 0.200161 0.166484 -0.375793 -2.677721
    43 1.522835 0.058681 0.016848 0.001410 0.008985 0.329846
    44 1.117947 0.048424 -0.005766 -0.002568 -0.011344 0.162906
    45 -0.139399 -0.111698 0.014397 0.774181 0.191172 1.472862
    46 -6.260806 6.983652 -0.294122 1.580804 -0.005023 -0.912799
  time 3
    0 -0.349399 1.166145 0.203512 0.000000 0.000000 0.000000
    1 9.022711 2.354974 -8.481548 -1.540911 -1.321601 1.207727
    2 -0.071918 -8.498730 -0.104136 0.229927 0.094083 -0.193785
    3 2.672261 -3.383448 0.696208 0.083503 0.128137 -1.585662
    4 8.674173 -0.128572 0.000000 0.000000 0.000000 0.000000
    5 0.000000 0.000000 0.000000 0.000000 0.000000 0.000000
    6 4.045845 -0.586976 0.000000 0.000000 0.000000 0.000000
    7 -38.364452 -26.180486 -0.386731 -0.035606 0.006951 0.273307
    8 1.039971 -0.940679 0.000000 0.000000 0.000000 -1.570796
    9 4.782106 0.485510 0.407405 0.000000 0.000000 -1.570796
    10 5.548040 -0.183522 0.000000 1.570796 -1.570796 0.000000
    11 1.257180 8.762585 -0.153713 -1.570562 0.002683 -1.566807
    12 -0.488518 -2.755602 -0.228260 -0.518305 -0.074854 -0.310571
    13 0.039887 -1.479790 0.029854 -2.289231 0.000000 0.000001
    14 0.028786 -1.075731 -0.023109 -0.271941 0.000000 0.000000
    15 0.250027 -2.820665 -0.238396 -0.350825 -0.052441 -0.187301
    16 -0.049759 -1.680544 0.100479 -2.246572 0.000000 -0.000002
    17 -0.034142 -1.148312 0.084782 -0.535851 0.000000 0.000000
    18 0.957766 -2.746780 -0.090302 0.329289 -0.172344 0.119866
    19 -0.033420 -1.397129 -0.011257 -1.115580 0.000000 -0.000001
    20 -0.022360 -0.957436 0.018784 -1.148807 0.000000 0.000000
    21 -1.180681 -2.507217 -0.193859 -0.309305 0.033033 -0.314313
    22 -0.024967 -1.123934 0.017597 -2.040737 0.000000 0.000001
    23 -0.020057 -0.890968 0.010090 -0.646720 0.000000 0.000000
    24 0.583510 -1.197277 0.185379 0.371183 -0.693166 -0.903076
    25 1.535927 0.010246 0.005009 -0.002964 -0.012979 -0.682290
    26 1.100771 0.004527 -0.010679 -0.016147 -0.001453 -1.484153
    27 0.120153 -0.050270 -0.054489 0.287569 3.110905 1.561085
    28 -1.813785 -11.438480 -13.697014 0.831240 -3.735656 1.424981
    29 0.096944 -8.450418 -0.009365 0.075476 -1.267968 0.356845
    30 0.447953 -2.798986 -0.200443 -0.321520 0.042804 0.170619
    31 -0.032909 -1.480204 0.004940 -0.444747 0.000000 0.000002
    32 -0.027022 -1.076920 -0.020210 -0.612649 0.000000 0.000000
    33 -0.249534 -2.846964 -0.174213 0.025200 0.002631 0.073866
    34 0.043235 -1.683941 0.096012 -0.491125 0.002823 -0.000167
    35 0.031729 -1.160830 0.058838 -0.303332 0.000642 0.008372
    36 -0.963866 -2.785145 -0.085350 0.386562 0.070929 0.053157
    37 0.028479 -1.403067 0.006271 -0.464334 0.000000 0.000000
    38 0.021413 -0.957781 0.020046 -0.178658 0.000000 0.000000
    39 1.164475 -2.543940 -0.170330 -0.696044 -0.015463 0.162804
    40 0.024032 -1.129042 0.017807 -0.603479 0.000000 0.000001
    41 0.014898 -0.883989 -0.019848 -0.631202 0.000000 0.000000
    42 -0.586770 -1.264477 0.200161 0.172267 -0.512009 -2.700302
    43 1.522835 0.058681 0.016848 0.001410 0.008985 0.226666
    44 1.117947 0.048424 -0.005766 -0.002568 -0.011344 0.269631
    45 -0.139399 -0.111698 0.014397 0.774181 0.191172 1.472862
    46 -6.260806 6.983652 -0.294122 1.580804 -0.005023 -0.912799
  time 4
    0 -0.349399 1.166145 0.203512 0.000000 0.000000 0.000000
    1 8.745358 2.562011 -8.379982 -1.494421 -1.317392 1.166630
    2 -0.071918 -8.498730 -0.104136 0.235592 0.103455 -0.189375
    3 2.672261 -3.383448 0.696208 0.083503 0.128137 -1.585662
    4 8.674173 -0.128572 0.000000 0.000000 0.000000 0.000000
    5 0.000000 0.000000 0.000000 0.000000 0.000000 0.000000
    6 4.045845 -0.586976 0.000000 0.000000 0.000000 0.000000
    7 -35.669057 -25.395306 -0.390637 -0.047495 0.009576 0.273897
    8 1.039971 -0.940679 0.000000 0.000000 0.000000 -1.570796
    9 4.782106 0.485510 0.407405 0.000000 0.000000 -1.570796
    10 5.548040 -0.183522 0.000000 1.570796 -1.570796 0.000000
    11 1.257180 8.762585 -0.153713 -1.570562 0.002683 -1.566807
    12 -0.488518 -2.755602 -0.228260 -0.518305 -0.074854 -0.310571
    13 0.039887 -1.479790 0.029854 -2.289231 0.000000 0.000001
    14 0.028786 -1.075731 -0.023109 -0.271941 0.000000 0.000000
    15 0.250027 -2.820665 -0.238396 -0.350825 -0.052441 -0.187301
    16 -0.049759 -1.680544 0.100479 -2.246572 0.000000 -0.000002
    17 -0.034142 -1.148312 0.084782 -0.535851 0.000000 0.000000
    18 0.957766 -2.746780 -0.090302 0.329289 -0.172344 0.119866
    19 -0.033420 -1.397129 -0.011257 -1.115580 0.000000 -0.000001
    20 -0.022360 -0.957436 0.018784 -1.148807 0.000000 0.000000
    21 -1.180681 -2.507217 -0.193859 -0.309305 0.033033 -0.314313
    22 -0.024967 -1.123934 0.017597 -2.040737 0.000000 0.000001
    23 -0.020057 -0.890968 0.010090 -0.646720 0.000000 0.000000
    24 0.583510 -1.197277 0.185379 0.371183 -0.693166 -0.903076
    25 1.535927 0.010246 0.005009 -0.002964 -0.012979 -0.682290
    26 1.100771 0.004527 -0.010679 -0.016147 -0.001453 -1.484153
    27 0.120153 -0.050270 -0.054489 0.287569 3.110905 1.561085
    28 -2.962257 -11.438480 -14.966584 0.740431 -3.506518 1.268425
    29 0.096944 -8.450418 -0.009365 0.075476 -1.267968 0.356845
    30 0.447953 -2.798986 -0.200443 -0.321520 0.042804 0.170619
    31 -0.032909 -1.480204 0.004940 -0.444747 0.000000 0.000002
    32 -0.027022 -1.076920 -0.020210 -0.612649 0.000000 0.000000
    33 -0.249534 -2.846964 -0.174213 0.025200 0.002631 0.073866
    34 0.043235 -1.683941 0.096012 -0.491125 0.002823 -0.000167
    35 0.031729 -1.160830 0.058838 -0.303332 0.000642 0.008372
    36 -0.963866 -2.785145 -0.085350 0.386562 0.070929 0.053157
    37 0.028479 -1.403067 0.006271 -0.464334 0.000000 0.000000
    38 0.021413 -0.957781 0.020046 -0.178658 0.000000 0.000000
    39 1.164475 -2.543940 -0.170330 -0.696044 -0.015463 0.162804
    40 0.024032 -1.129042 0.017807 -0.603479 0.000000 0.000001
    41 0.014898 -0.883989 -0.019848 -0.631202 0.000000 0.000000
    42 -0.586770 -1.264477 0.200161 0.172267 -0.512009 -2.700302
    43 1.522835 0.058681 0.016848 0.001410 0.008985 0.226666
    44 1.117947 0.048424 -0.005766 -0.002568 -0.011344 0.269631
    45 -0.139399 -0.111698 0.014397 0.774181 0.191172 1.472862
    46 -6.260806 6.983652 -0.294122 1.580804 -0.005023 -0.912799
  time 5
    0 -0.349399 1.166145 0.203512 0.000000 0.000000 0.000000
    1 8.475819 2.769049 -8.282323 -1.385359 -1.310090 1.064272
    2 -0.071918 -8.498730 -0.104136 0.242429 0.114493 -0.184306
    3 2.672261 -3.383448 0.696208 0.083503 0.128137 -1.585662
    4 8.674173 -0.128572 0.000000 0.000000 0.000000 0.000000
    5 0.000000 0.000000 0.000000 0.000000 0.000000 0.000000
    6 4.045845 -0.586976 0.000000 0.000000 0.000000 0.000000
    7 -32.977569 -24.614032 -0.398450 -0.059360 0.012320 0.275186
    8 1.039971 -0.940679 0.000000 0.000000 0.000000 -1.570796
    9 4.782106 0.485510 0.407405 0.000000 0.000000 -1.570796
    10 5.548040 -0.183522 0.000000 1.570796 -1.570796 0.000000
    11 1.257180 8.762585 -0.153713 -1.570562 0.002683 -1.566807
    12 -0.488518 -2.755602 -0.228260 -0.518305 -0.074854 -0.310571
    13 0.039887 -1.479790 0.029854 -2.289231 0.000000 0.000001
    14 0.028786 -1.075731 -0.023109 -0.271941 0.000000 0.000000
    15 0.250027 -2.820665 -0.238396 -0.350825 -0.052441 -0.187301
    16 -0.049759 -1.680544 0.100479 -2.246572 0.000000 -0.000002
    17 -0.034142 -1.148312 0.084782 -0.535851 0.000000 0.000000
    18 0.957766 -2.746780 -0.090302 0.329289 -0.172344 0.119866
    19 -0.033420 -1.397129 -0.011257 -1.115580 0.000000 -0.000001
    20 -0.022360 -0.957436 0.018784 -1.148807 0.000000 0.000000
    21 -1.180681 -2.507217 -0.193859 -0.309305 0.033033 -0.314313
    22 -0.024967 -1.123934 0.017597 -2.040737 0.000000 0.000001
    23 -0.020057 -0.890968 0.010090 -0.646720 0.000000 0.000000
    24 0.583510 -1.197277 0.185379 0.371183 -0.693166 -0.903076
    25 1.535927 0.010246 0.005009 -0.002964 -0.012979 -0.682269
    26 1.100771 0.004527 -0.010679 -0.016147 -0.001453 -1.484153
    27 0.120153 -0.050270 -0.054489 0.287569 3.110905 1.561085
    28 -4.360737 -11.438480 -16.470536 0.688731 -3.240858 1.149434
    29 0.096944 -8.450418 -0.009365 0.075476 -1.267968 0.356845
    30 0.447953 -2.798986 -0.200443 -0.321520 0.042804 0.170619
    31 -0.032909 -1.480204 0.004940 -0.444747 0.000000 0.000002
    32 -0.027022 -1.076920 -0.020210 -0.612649 0.000000 0.000000
    33 -0.249534 -2.846964 -0.174213 0.025200 0.002631 0.073866
    34 0.043235 -1.683941 0.096012 -0.491125 0.002823 -0.000167
    35 0.031729 -1.160830 0.058838 -0.303332 0.000642 0.008372
    36 -0.963866 -2.785145 -0.085350 0.386562 0.070929 0.053157
    37 0.028479 -1.403067 0.006271 -0.464334 0.000000 0.000000
    38 0.021413 -0.957781 0.020046 -0.178658 0.000000 0.000000
    39 1.164475 -2.543940 -0.170330 -0.696044 -0.015463 0.162804
    40 0.024032 -1.129042 0.017807 -0.603479 0.000000 0.000001
    41 0.014898 -0.883989 -0.019848 -0.631202 0.000000 0.000000
    42 -0.586770 -1.264477 0.200161 0.172267 -0.512009 -2.700302
    43 1.522835 0.058681 0.016848 0.001410 0.008985 0.226666
    44 1.117947 0.048424 -0.005766 -0.002568 -0.011344 0.269631
    45 -0.139399 -0.111698 0.014397 0.774181 0.191172 1.472862
    46 -6.260806 6.983652 -0.294122 1.580804 -0.005023 -0.912799
  time 6
    0 -0.349399 1.166145 0.203512 0.000000 0.000000 0.000000
    1 8.210186 2.968274 -8.184664 -1.219975 -1.294263 0.906948
    2 -0.071918 -8.498730 -0.104136 0.250246 0.126753 -0.178829
    3 2.672261 -3.383448 0.696208 0.083503 0.128137 -1.585662
    4 8.674173 -0.128572 0.000000 0.000000 0.000000 0.000000
    5 0.000000 0.000000 0.000000 0.000000 0.000000 0.000000
    6 4.045845 -0.586976 0.000000 0.000000 0.000000 0.000000
    7 -30.286080 -23.832759 -0.406262 -0.071236 0.015172 0.276922
    8 1.039971 -0.940679 0.000000 0.000000 0.000000 -1.570796
    9 4.782106 0.485510 0.407405 0.000000 0.000000 -1.570796
    10 5.548040 -0.183522 0.000000 1.570796 -1.570796 0.000000
    11 1.257180 8.762585 -0.153713 -1.570562 0.002683 -1.566807
    12 -0.488518 -2.755602 -0.228260 -0.518305 -0.074854 -0.310571
    13 0.039887 -1.479790 0.029854 -2.289231 0.000000 0.000001
    14 0.028786 -1.075731 -0.023109 -0.271941 0.000000 0.000000
    15 0.250027 -2.820665 -0.238396 -0.350825 -0.052441 -0.187301
    16 -0.049759 -1.680544 0.100479 -2.246572 0.000000 -0.000002
    17 -0.034142 -1.148312 0.084782 -0.535851 0.000000 0.000000
    18 0.957766 -2.746780 -0.090302 0.329289 -0.172344 0.119866
    19 -0.033420 -1.397129 -0.011257 -1.115580 0.000000 -0.000001
    20 -0.022360 -0.957436 0.018784 -1.148807 0.000000 0.000000
    21 -1.180681 -2.507217 -0.193859 -0.309305 0.033033 -0.314313
    22 -0.024967 -1.123934 0.017597 -2.040737 0.000000 0.000001
    23 -0.020057 -0.890968 0.010090 -0.646720 0.000000 0.000000
    24 0.583510 -1.197277 0.185379 0.371183 -0.693166 -0.903076
    25 1.535927 0.010246 0.005009 -0.002964 -0.012979 -0.682290
    26 1.100771 0.004527 -0.010679 -0.016147 -0.001453 -1.484153
    27 0.120153 -0.050270 -0.054489 0.287569 3.110905 1.561085
    28 -5.497491 -11.438480 -17.747919 0.657926 -3.067054 1.076591
    29 0.096944 -8.450418 -0.009365 0.075476 -1.267968 0.356845
    30 0.447953 -2.798986 -0.200443 -0.321520 0.042804 0.170619
    31 -0.032909 -1.480204 0.004940 -0.444747 0.000000 0.000002
    32 -0.027022 -1.076920 -0.020210 -0.612649 0.000000 0.000000
    33 -0.249534 -2.846964 -0.174213 0.025200 0.002631 0.073866
    34 0.043235 -1.683941 0.096012 -0.491125 0.002823 -0.000167
    35 0.031729 -1.160830 0.058838 -0.303332 0.000642 0.008372
    36 -0.963866 -2.785145 -0.085350 0.386562 0.070929 0.053157
    37 0.028479 -1.403067 0.006271 -0.464334 0.000000 0.000000
    38 0.021413 -0.957781 0.020046 -0.178658 0.000000 0.000000
    39 1.164475 -2.543940 -0.170330 -0.696044 -0.015463 0.162804
    40 0.024032 -1.129042 0.017807 -0.603479 0.000000 0.000001
    41 0.014898 -0.883989 -0.019848 -0.631202 0.000000 0.000000
    42 -0.586770 -1.264477 0.200161 0.172267 -0.512009 -2.700302
    43 1.522835 0.058681 0.016848 0.001410 0.008985 0.226666
    44 1.117947 0.048424 -0.005766 -0.002568 -0.011344 0.269631
    45 -0.139399 -0.111698 0.014397 0.774181 0.191172 1.472862
    46 -6.260806 6.983652 -0.294122 1.580804 -0.005023 -0.912799
  time 7
    0 -0.349399 1.166145 0.203512 0.000000 0.000000 0.000000
    1 7.952365 3.163592 -8.087005 -1.040761 -1.266242 0.736947
    2 -0.071918 -8.498730 -0.104136 0.258828 0.139781 -0.173232
    3 2.672261 -3.383448 0.696208 0.083503 0.128137 -1.585662
    4 8.674173 -0.128572 0.000000 0.000000 0.000000 0.000000
    5 0.000000 0.000000 0.000000 0.000000 0.000000 0.000000
    6 4.045845 -0.586976 0.000000 0.000000 0.000000 0.000000
    7 -27.602405 -23.051485 -0.410169 -0.083101 0.018073 0.278837
    8 1.039971 -0.940679 0.000000 0.000000 0.000000 -1.570796
    9 4.782106 0.485510 0.407405 0.000000 0.000000 -1.570796
    10 5.548040 -0.183522 0.000000 1.570796 -1.570796 0.000000
    11 1.257180 8.762585 -0.153713 -1.570562 0.002683 -1.566807
    12 -0.488518 -2.755602 -0.228260 -0.518305 -0.074854 -0.310571
    13 0.039887 -1.479790 0.029854 -2.289231 0.000000 0.000001
    14 0.028786 -1.075731 -0.023109 -0.271941 0.000000 0.000000
    15 0.250027 -2.820665 -0.238396 -0.350825 -0.052441 -0.187301
    16 -0.049759 -1.680544 0.100479 -2.246572 0.000000 -0.000002
    17 -0.034142 -1.148312 0.084782 -0.535851 0.000000 0.000000
    18 0.957766 -2.746780 -0.090302 0.329289 -0.172344 0.119866
    19 -0.033420 -1.397129 -0.011257 -1.115580 0.000000 -0.000001
    20 -0.022360 -0.957436 0.018784 -1.148807 0.000000 0.000000
    21 -1.180681 -2.507217 -0.193859 -0.309305 0.033033 -0.314313
    22 -0.024967 -1.123934 0.017597 -2.040737 0.000000 0.000001
    23 -0.020057 -0.890968 0.010090 -0.646720 0.000000 0.000000
    24 0.583510 -1.197277 0.185379 0.371183 -0.693166 -0.903076
    25 1.535927 0.010246 0.005009 -0.002964 -0.012979 -0.682290
    26 1.100771 0.004527 -0.010679 -0.016147 -0.001453 -1.484153
    27 0.120153 -0.050270 -0.054489 0.287569 3.110905 1.561085
    28 -6.321735 -11.438480 -18.783106 0.624642 -2.995294 1.035974
    29 0.096944 -8.450418 -0.009365 0.075476 -1.267968 0.356845
    30 0.447953 -2.798986 -0.200443 -0.321520 0.042804 0.170619
    31 -0.032909 -1.480204 0.004940 -0.444747 0.000000 0.000002
    32 -0.027022 -1.076920 -0.020210 -0.612649 0.000000 0.000000
    33 -0.249534 -2.846964 -0.174213 0.025200 0.002631 0.073866
    34 0.043235 -1.683941 0.096012 -0.491125 0.002823 -0.000167
    35 0.031729 -1.160830 0.058838 -0.303332 0.000642 0.008372
    36 -0.963866 -2.785145 -0.085350 0.386562 0.070929 0.053157
    37 0.028479 -1.403067 0.006271 -0.464334 0.000000 0.000000
    38 0.021413 -0.957781 0.020046 -0.178658 0.000000 0.000000
    39 1.164475 -2.543940 -0.170330 -0.696044 -0.015463 0.162804
    40 0.024032 -1.129042 0.017807 -0.603479 0.000000 0.000001
    41 0.014898 -0.883989 -0.019848 -0.631202 0.000000 0.000000
    42 -0.586770 -1.264477 0.200161 0.172267 -0.512009 -2.700302
    43 1.522835 0.058681 0.016848 0.001410 0.008985 0.226666
    44 1.117947 0.048424 -0.005766 -0.002568 -0.011344 0.269631
    45 -0.139399 -0.111698 0.014397 0.774181 0.191172 1.472862
    46 -6.260806 6.983652 -0.294122 1.580804 -0.005023 -0.912799
  time 8
    0 -0.349399 1.166145 0.203512 0.000000 0.000000 0.000000
    1 7.706264 3.355004 -7.993252 -0.876794 -1.225991 0.582857
    2 -0.071918 -8.498730 -0.104136 0.268008 0.153119 -0.167755
    3 2.672261 -3.383448 0.696208 0.083503 0.128137 -1.585662
    4 8.674173 -0.128572 0.000000 0.000000 0.000000 0.000000
    5 0.000000 0.000000 0.000000 0.000000 0.000000 0.000000
    6 4.045845 -0.586976 0.000000 0.000000 0.000000 0.000000
    7 -24.922636 -22.274117 -0.417982 -0.094966 0.020997 0.280735
    8 1.039971 -0.940679 0.000000 0.000000 0.000000 -1.570796
    9 4.782106 0.485510 0.407405 0.000000 0.000000 -1.570796
    10 5.548040 -0.183522 0.000000 1.570796 -1.570796 0.000000
    11 1.257180 8.762585 -0.153713 -1.570562 0.002683 -1.566807
    12 -0.488518 -2.755602 -0.228260 -0.518305 -0.074854 -0.310571
    13 0.039887 -1.479790 0.029854 -2.289231 0.000000 0.000001
    14 0.028786 -1.075731 -0.023109 -0.271941 0.000000 0.000000
    15 0.250027 -2.820665 -0.238396 -0.350825 -0.052441 -0.187301
    16 -0.049759 -1.680544 0.100479 -2.246572 0.000000 -0.000002
    17 -0.034142 -1.148312 0.084782 -0.535851 0.000000 0.000000
    18 0.957766 -2.746780 -0.090302 0.329289 -0.172344 0.119866
    19 -0.033420 -1.397129 -0.011257 -1.115580 0.000000 -0.000001
    20 -0.022360 -0.957436 0.018784 -1.148807 0.000000 0.000000
    21 -1.180681 -2.507217 -0.193859 -0.309305 0.033033 -0.314313
    22 -0.024967 -1.123934 0.017597 -2.040737 0.000000 0.000001
    23 -0.020057 -0.890968 0.010090 -0.646720 0.000000 0.000000
    24 0.583510 -1.197277 0.185379 0.371183 -0.693166 -0.903076
    25 1.535927 0.010246 0.005009 -0.002964 -0.012979 -0.682290
    26 1.100771 0.004527 -0.010679 -0.016147 -0.001453 -1.484153
    27 0.120153 -0.050270 -0.054489 0.287569 3.110905 1.561085
    28 -7.130353 -11.438480 -19.830013 0.586805 -2.947667 1.004319
    29 0.096944 -8.450418 -0.009365 0.075476 -1.267968 0.356845
    30 0.447953 -2.798986 -0.200443 -0.321520 0.042804 0.170619
    31 -0.032909 -1.480204 0.004940 -0.444747 0.000000 0.000002
    32 -0.027022 -1.076920 -0.020210 -0.612649 0.000000 0.000000
    33 -0.249534 -2.846964 -0.174213 0.025200 0.002631 0.073866
    34 0.043235 -1.683941 0.096012 -0.491125 0.002823 -0.000167
    35 0.031729 -1.160830 0.058838 -0.303332 0.000642 0.008372
    36 -0.963866 -2.785145 -0.085350 0.386562 0.070929 0.053157
    37 0.028479 -1.403067 0.006271 -0.464334 0.000000 0.000000
    38 0.021413 -0.957781 0.020046 -0.178658 0.000000 0.000000
    39 1.164475 -2.543940 -0.170330 -0.696044 -0.015463 0.162804
    40 0.024032 -1.129042 0.017807 -0.603479 0.000000 0.000001
    41 0.014898 -0.883989 -0.019848 -0.631202 0.000000 0.000000
    42 -0.586770 -1.264477 0.200161 0.172267 -0.512009 -2.700302
    43 1.522835 0.058681 0.016848 0.001410 0.008985 0.226666
    44 1.117947 0.048424 -0.005766 -0.002568 -0.011344 0.269631
    45 -0.139399 -0.111698 0.014397 0.774181 0.191172 1.472862
    46 -6.260806 6.983652 -0.294122 1.580804 -0.005023 -0.912799
  time 9
    0 -0.349399 1.166145 0.203512 0.000000 0.000000 0.000000
    1 7.471882 3.538604 -7.895593 -0.742237 -1.176783 0.458376
    2 -0.071918 -8.498730 -0.104136 0.277570 0.166326 -0.162685
    3 2.672261 -3.383448 0.696208 0.083503 0.128137 -1.585662
    4 8.674173 -0.128572 0.000000 0.000000 0.000000 0.000000
    5 0.000000 0.000000 0.000000 0.000000 0.000000 0.000000
    6 4.045845 -0.586976 0.000000 0.000000 0.000000 0.000000
    7 -22.250679 -21.496750 -0.421888 -0.106819 0.023909 0.282363
    8 1.039971 -0.940679 0.000000 0.000000 0.000000 -1.570796
    9 4.782106 0.485510 0.407405 0.000000 0.000000 -1.570796
    10 5.548040 -0.183522 0.000000 1.570796 -1.570796 0.000000
    11 1.257180 8.762585 -0.153713 -1.570562 0.002683 -1.566807
    12 -0.488518 -2.755602 -0.228260 -0.518305 -0.074854 -0.310571
    13 0.039887 -1.479790 0.029854 -2.289231 0.000000 0.000001
    14 0.028786 -1.075731 -0.023109 -0.271941 0.000000 0.000000
    15 0.250027 -2.820665 -0.238396 -0.350825 -0.052441 -0.187301
    16 -0.049759 -1.680544 0.100479 -2.246572 0.000000 -0.000002
    17 -0.034142 -1.148312 0.084782 -0.535851 0.000000 0.000000
    18 0.957766 -2.746780 -0.090302 0.329289 -0.172344 0.119866
    19 -0.033420 -1.397129 -0.011257 -1.115580 0.000000 -0.000001
    20 -0.022360 -0.957436 0.018784 -1.148807 0.000000 0.000000
    21 -1.180681 -2.507217 -0.193859 -0.309305 0.033033 -0.314313
    22 -0.024967 -1.123934 0.017597 -2.040737 0.000000 0.000001
    23 -0.020057 -0.890968 0.010090 -0.646720 0.000000 0.000000
    24 0.583510 -1.197277 0.185379 0.371183 -0.693166 -0.903076
    25 1.535927 0.010246 0.005009 -0.002964 -0.012979 -0.682290
    26 1.100771 0.004527 -0.010679 -0.016147 -0.001453 -1.484153
    27 0.120153 -0.050270 -0.054489 0.287569 3.110905 1.561085
    28 -7.896002 -11.438480 -20.849576 0.546222 -2.918853 0.980007
    29 0.096944 -8.450418 -0.009365 0.075476 -1.267968 0.356845
    30 0.447953 -2.798986 -0.200443 -0.321520 0.042804 0.170619
    31 -0.032909 -1.480204 0.004940 -0.444747 0.000000 0.000002
    32 -0.027022 -1.076920 -0.020210 -0.612649 0.000000 0.000000
    33 -0.249534 -2.846964 -0.174213 0.025200 0.002631 0.073866
    34 0.043235 -1.683941 0.096012 -0.491125 0.002823 -0.000167
    35 0.031729 -1.160830 0.058838 -0.303332 0.000642 0.008372
    36 -0.963866 -2.785145 -0.085350 0.386562 0.070929 0.053157
    37 0.028479 -1.403067 0.006271 -0.464334 0.000000 0.000000
    38 0.021413 -0.957781 0.020046 -0.178658 0.000000 0.000000
    39 1.164475 -2.543940 -0.170330 -0.696044 -0.015463 0.162804
    40 0.024032 -1.129042 0.017807 -0.603479 0.000000 0.000001
    41 0.014898 -0.883989 -0.019848 -0.631202 0.000000 0.000000
    42 -0.586770 -1.264477 0.200161 0.172267 -0.512009 -2.700302
    43 1.522835 0.058681 0.016848 0.001410 0.008985 0.226666
    44 1.117947 0.048424 -0.005766 -0.002568 -0.011344 0.269631
    45 -0.139399 -0.111698 0.014397 0.774181 0.191172 1.472862
    46 -6.260806 6.983652 -0.294122 1.580804 -0.005023 -0.912799
  time 10
    0 -0.349399 1.166145 0.203512 0.000000 0.000000 0.000000
    1 7.245313 3.714390 -7.801840 -0.638508 -1.123546 0.364611
    2 -0.071918 -8.498730 -0.104136 0.287299 0.178934 -0.158275
    3 2.672261 -3.383448 0.696208 0.083503 0.128137 -1.585662
    4 8.674173 -0.128572 0.000000 0.000000 0.000000 0.000000
    5 0.000000 0.000000 0.000000 0.000000 0.000000 0.000000
    6 4.045845 -0.586976 0.000000 0.000000 0.000000 0.000000
    7 -19.586535 -20.723289 -0.429701 -0.118683 0.026738 0.283491
    8 1.039971 -0.940679 0.000000 0.000000 0.000000 -1.570796
    9 4.782106 0.485510 0.407405 0.000000 0.000000 -1.570796
    10 5.548040 -0.183522 0.000000 1.570796 -1.570796 0.000000
    11 1.257180 8.762585 -0.153713 -1.570562 0.002683 -1.566807
    12 -0.488518 -2.755602 -0.228260 -0.518305 -0.074854 -0.310571
    13 0.039887 -1.479790 0.029854 -2.289231 0.000000 0.000001
    14 0.028786 -1.075731 -0.023109 -0.271941 0.000000 0.000000
    15 0.250027 -2.820665 -0.238396 -0.350825 -0.052441 -0.187301
    16 -0.049759 -1.680544 0.100479 -2.246572 0.000000 -0.000002
    17 -0.034142 -1.148312 0.084782 -0.535851 0.000000 0.000000
    18 0.957766 -2.746780 -0.090302 0.329289 -0.172344 0.119866
    19 -0.033420 -1.397129 -0.011257 -1.115580 0.000000 -0.000001
    20 -0.022360 -0.957436 0.018784 -1.148807 0.000000 0.000000
    21 -1.180681 -2.507217 -0.193859 -0.309305 0.033033 -0.314313
    22 -0.024967 -1.123934 0.017597 -2.040737 0.000000 0.000001
    23 -0.020057 -0.890968 0.010090 -0.646720 0.000000 0.000000
    24 0.583510 -1.197277 0.185379 0.371183 -0.693166 -0.903076
    25 1.535927 0.010246 0.005009 -0.002964 -0.012979 -0.682290
    26 1.100771 0.004527 -0.010679 -0.016147 -0.001453 -1.484153
    27 0.120153 -0.050270 -0.054489 0.287569 3.110905 1.561085
    28 -8.599148 -11.438480 -21.802730 0.505439 -2.903070 0.961224
    29 0.096944 -8.450418 -0.009365 0.075476 -1.267968 0.356845
    30 0.447953 -2.798986 -0.200443 -0.321520 0.042804 0.170619
    31 -0.032909 -1.480204 0.004940 -0.444747 0.000000 0.000002
    32 -0.027022 -1.076920 -0.020210 -0.612649 0.000000 0.000000
    33 -0.249534 -2.846964 -0.174213 0.025200 0.002631 0.073866
    34 0.043235 -1.683941 0.096012 -0.491125 0.002823 -0.000167
    35 0.031729 -1.160830 0.058838 -0.303332 0.000642 0.008372
    36 -0.963866 -2.785145 -0.085350 0.386562 0.070929 0.053157
    37 0.028479 -1.403067 0.006271 -0.464334 0.000000 0.000000
    38 0.021413 -0.957781 0.020046 -0.178658 0.000000 0.000000
    39 1.164475 -2.543940 -0.170330 -0.696044 -0.015463 0.162804
    40 0.024032 -1.129042 0.017807 -0.603479 0.000000 0.000001
    41 0.014898 -0.883989 -0.019848 -0.631202 0.000000 0.000000
    42 -0.586770 -1.264477 0.200161 0.172267 -0.512009 -2.700302
    43 1.522835 0.058681 0.016848 0.001410 0.008985 0.226666
    44 1.117947 0.048424 -0.005766 -0.002568 -0.011344 0.269631
    45 -0.139399 -0.111698 0.014397 0.774181 0.191172 1.472862
    46 -6.260806 6.983652 -0.294122 1.580804 -0.005023 -0.912799
  time 11
    0 -0.349399 1.166145 0.203512 0.000000 0.000000 0.000000
    1 7.038275 3.882364 -7.708087 -0.561773 -1.071568 0.297053
    2 -0.071918 -8.498730 -0.104136 0.297029 0.190511 -0.154788
    3 2.672261 -3.383448 0.696208 0.083503 0.128137 -1.585662
    4 8.674173 -0.128572 0.000000 0.000000 0.000000 0.000000
    5 0.000000 0.000000 0.000000 0.000000 0.000000 0.000000
    6 4.045845 -0.586976 0.000000 0.000000 0.000000 0.000000
    7 -16.930204 -19.953734 -0.433607 -0.130548 0.029446 0.283849
    8 1.039971 -0.940679 0.000000 0.000000 0.000000 -1.570796
    9 4.782106 0.485510 0.407405 0.000000 0.000000 -1.570796
    10 5.548040 -0.183522 0.000000 1.570796 -1.570796 0.000000
    11 1.257180 8.762585 -0.153713 -1.570562 0.002683 -1.566807
    12 -0.488518 -2.755602 -0.228260 -0.518305 -0.074854 -0.310571
    13 0.039887 -1.479790 0.029854 -2.289231 0.000000 0.000001
    14 0.028786 -1.075731 -0.023109 -0.271941 0.000000 0.000000
    15 0.250027 -2.820665 -0.238396 -0.350825 -0.052441 -0.187301
    16 -0.049759 -1.680544 0.100479 -2.246572 0.000000 -0.000002
    17 -0.034142 -1.148312 0.084782 -0.535851 0.000000 0.000000
    18 0.957766 -2.746780 -0.090302 0.329289 -0.172344 0.119866
    19 -0.033420 -1.397129 -0.011257 -1.115580 0.000000 -0.000001
    20 -0.022360 -0.957436 0.018784 -1.148807 0.000000 0.000000
    21 -1.180681 -2.507217 -0.193859 -0.309305 0.033033 -0.314313
    22 -0.024967 -1.123934 0.017597 -2.040737 0.000000 0.000001
    23 -0.020057 -0.890968 0.010090 -0.646720 0.000000 0.000000
    24 0.583510 -1.197277 0.185379 0.371183 -0.693166 -0.903076
    25 1.535927 0.010246 0.005009 -0.002964 -0.012979 -0.682290
    26 1.100771 0.004527 -0.010679 -0.016147 -0.001453 -1.484153
    27 0.120153 -0.050270 -0.054489 0.287569 3.110905 1.561085
    28 -9.212448 -11.438480 -22.646506 0.467602 -2.894811 0.946636
    29 0.096944 -8.450418 -0.009365 0.075476 -1.267968 0.356845
    30 0.447953 -2.798986 -0.200443 -0.321520 0.042804 0.170619
    31 -0.032909 -1.480204 0.004940 -0.444747 0.000000 0.000002
    32 -0.027022 -1.076920 -0.020210 -0.612649 0.000000 0.000000
    33 -0.249534 -2.846964 -0.174213 0.025200 0.002631 0.073866
    34 0.043235 -1.683941 0.096012 -0.491125 0.002823 -0.000167
    35 0.031729 -1.160830 0.058838 -0.303332 0.000642 0.008372
    36 -0.963866 -2.785145 -0.085350 0.386562 0.070929 0.053157
    37 0.028479 -1.403067 0.006271 -0.464334 0.000000 0.000000
    38 0.021413 -0.957781 0.020046 -0.178658 0.000000 0.000000
    39 1.164475 -2.543940 -0.170330 -0.696044 -0.015463 0.162804
    40 0.024032 -1.129042 0.017807 -0.603479 0.000000 0.000001
    41 0.014898 -0.883989 -0.019848 -0.631202 0.000000 0.000000
    42 -0.586770 -1.264477 0.200161 0.172267 -0.512009 -2.700302
    43 1.522835 0.058681 0.016848 0.001410 0.008985 0.226666
    44 1.117947 0.048424 -0.005766 -0.002568 -0.011344 0.269631
    45 -0.139399 -0.111698 0.014397 0.774181 0.191172 1.472862
    46 -6.260806 6.983652 -0.294122 1.580804 -0.005023 -0.912799
  time 12
    0 -0.349399 1.166145 0.203512 0.000000 0.000000 0.000000
    1 6.842957 4.042525 -7.618240 -0.507700 -1.026065 0.250852
    2 -0.071918 -8.498730 -0.104136 0.306519 0.200590 -0.152510
    3 2.672261 -3.383448 0.696208 0.083503 0.128137 -1.585662
    4 8.674173 -0.128572 0.000000 0.000000 0.000000 0.000000
    5 0.000000 0.000000 0.000000 0.000000 0.000000 0.000000
    6 4.045845 -0.586976 0.000000 0.000000 0.000000 0.000000
    7 -14.285592 -19.184179 -0.441420 -0.142437 0.031963 0.283240
    8 1.039971 -0.940679 0.000000 0.000000 0.000000 -1.570796
    9 4.782106 0.485510 0.407405 0.000000 0.000000 -1.570796
    10 5.548040 -0.183522 0.000000 1.570796 -1.570796 0.000000
    11 1.257180 8.762585 -0.153713 -1.570562 0.002683 -1.566807
    12 -0.488518 -2.755602 -0.228260 -0.518305 -0.074854 -0.310571
    13 0.039887 -1.479790 0.029854 -2.289231 0.000000 0.000001
    14 0.028786 -1.075731 -0.023109 -0.271941 0.000000 0.000000
    15 0.250027 -2.820665 -0.238396 -0.350825 -0.052441 -0.187301
    16 -0.049759 -1.680544 0.100479 -2.246572 0.000000 -0.000002
    17 -0.034142 -1.148312 0.084782 -0.535851 0.000000 0.000000
    18 0.957766 -2.746780 -0.090302 0.329289 -0.172344 0.119866
    19 -0.033420 -1.397129 -0.011257 -1.115580 0.000000 -0.000001
    20 -0.022360 -0.957436 0.018784 -1.148807 0.000000 0.000000
    21 -1.180681 -2.507217 -0.193859 -0.309305 0.033033 -0.314313
    22 -0.024967 -1.123934 0.017597 -2.040737 0.000000 0.000001
    23 -0.020057 -0.890968 0.010090 -0.646720 0.000000 0.000000
    24 0.583510 -1.197277 0.185379 0.371183 -0.693166 -0.903076
    25 1.535927 0.010246 0.005009 -0.002964 -0.012979 -0.682290
    26 1.100771 0.004527 -0.010679 -0.016147 -0.001453 -1.484153
    27 0.120153 -0.050270 -0.054489 0.287569 3.110905 1.561085
    28 -9.720276 -11.438480 -23.345746 0.436059 -2.888571 0.934908
    29 0.096944 -8.450418 -0.009365 0.075476 -1.267968 0.356845
    30 0.447953 -2.798986 -0.200443 -0.321520 0.042804 0.170619
    31 -0.032909 -1.480204 0.004940 -0.444747 0.000000 0.000002
    32 -0.027022 -1.076920 -0.020210 -0.612649 0.000000 0.000000
    33 -0.249534 -2.846964 -0.174213 0.025200 0.002631 0.073866
    34 0.043235 -1.683941 0.096012 -0.491125 0.002823 -0.000167
    35 0.031729 -1.160830 0.058838 -0.303332 0.000642 0.008372
    36 -0.963866 -2.785145 -0.085350 0.386562 0.070929 0.053157
    37 0.028479 -1.403067 0.006271 -0.464334 0.000000 0.000000
    38 0.021413 -0.957781 0.020046 -0.178658 0.000000 0.000000
    39 1.164475 -2.543940 -0.170330 -0.696044 -0.015463 0.162804
    40 0.024032 -1.129042 0.017807 -0.603479 0.000000 0.000001
    41 0.014898 -0.883989 -0.019848 -0.631202 0.000000 0.000000
    42 -0.586770 -1.264477 0.200161 0.172267 -0.512009 -2.700302
    43 1.522835 0.058681 0.016848 0.001410 0.008985 0.226666
    44 1.117947 0.048424 -0.005766 -0.002568 -0.011344 0.269631
    45 -0.139399 -0.111698 0.014397 0.774181 0.191172 1.472862
    46 -6.260806 6.983652 -0.294122 1.580804 -0.005023 -0.912799
  time 13
    0 -0.349399 1.166145 0.203512 0.000000 0.000000 0.000000
    1 6.667170 4.190967 -7.528394 -0.472957 -0.991821 0.222093
    2 -0.071918 -8.498730 -0.104136 0.315603 0.208728 -0.151696
    3 2.672261 -3.383448 0.696208 0.083503 0.128137 -1.585662
    4 8.674173 -0.128572 0.000000 0.000000 0.000000 0.000000
    5 0.000000 0.000000 0.000000 0.000000 0.000000 0.000000
    6 4.045845 -0.586976 0.000000 0.000000 0.000000 0.000000
    7 -11.644887 -18.418531 -0.449232 -0.154338 0.034228 0.281415
    8 1.039971 -0.940679 0.000000 0.000000 0.000000 -1.570796
    9 4.782106 0.485510 0.407405 0.000000 0.000000 -1.570796
    10 5.548040 -0.183522 0.000000 1.570796 -1.570796 0.000000
    11 1.257180 8.762585 -0.153713 -1.570562 0.002683 -1.566807
    12 -0.488518 -2.755602 -0.228260 -0.518305 -0.074854 -0.310571
    13 0.039887 -1.479790 0.029854 -2.289231 0.000000 0.000001
    14 0.028786 -1.075731 -0.023109 -0.271941 0.000000 0.000000
    15 0.250027 -2.820665 -0.238396 -0.350825 -0.052441 -0.187301
    16 -0.049759 -1.680544 0.100479 -2.246572 0.000000 -0.000002
    17 -0.034142 -1.148312 0.084782 -0.535851 0.000000 0.000000
    18 0.957766 -2.746780 -0.090302 0.329289 -0.172344 0.119866
    19 -0.033420 -1.397129 -0.011257 -1.115580 0.000000 -0.000001
    20 -0.022360 -0.957436 0.018784 -1.148807 0.000000 0.000000
    21 -1.180681 -2.507217 -0.193859 -0.309305 0.033033 -0.314313
    22 -0.024967 -1.123934 0.017597 -2.040737 0.000000 0.000001
    23 -0.020057 -0.890968 0.010090 -0.646720 0.000000 0.000000
    24 0.583510 -1.197277 0.185379 0.371183 -0.693166 -0.903076
    25 1.535927 0.010246 0.005009 -0.002964 -0.012979 -0.682290
    26 1.100771 0.004527 -0.010679 -0.016147 -0.001453 -1.484153
    27 0.120153 -0.050270 -0.054489 0.287569 3.110905 1.561085
    28 -10.099194 -11.438480 -23.861386 0.414429 -2.878568 0.925469
    29 0.096944 -8.450418 -0.009365 0.075476 -1.267968 0.356845
    30 0.447953 -2.798986 -0.200443 -0.321520 0.042804 0.170619
    31 -0.032909 -1.480204 0.004940 -0.444747 0.000000 0.000002
    32 -0.027022 -1.076920 -0.020210 -0.612649 0.000000 0.000000
    33 -0.249534 -2.846964 -0.174213 0.025200 0.002631 0.073866
    34 0.043235 -1.683941 0.096012 -0.491125 0.002823 -0.000167
    35 0.031729 -1.160830 0.058838 -0.303332 0.000642 0.008372
    36 -0.963866 -2.785145 -0.085350 0.386562 0.070929 0.053157
    37 0.028479 -1.403067 0.006271 -0.464334 0.000000 0.000000
    38 0.021413 -0.957781 0.020046 -0.178658 0.000000 0.000000
    39 1.164475 -2.543940 -0.170330 -0.696044 -0.015463 0.162804
    40 0.024032 -1.129042 0.017807 -0.603479 0.000000 0.000001
    41 0.014898 -0.883989 -0.019848 -0.631202 0.000000 0.000000
    42 -0.586770 -1.264477 0.200161 0.172267 -0.512009 -2.700302
    43 1.522835 0.058681 0.016848 0.001410 0.008985 0.226666
    44 1.117947 0.048424 -0.005766 -0.002568 -0.011344 0.269631
    45 -0.139399 -0.111698 0.014397 0.774181 0.191172 1.472862
    46 -6.260806 6.983652 -0.294122 1.580804 -0.005023 -0.912799
  time 14
    0 -0.349399 1.166145 0.203512 0.000000 0.000000 0.000000
    1 6.526541 4.319877 -7.438547 -0.453211 -0.970131 0.206267
    2 -0.071918 -8.498730 -0.104136 0.326289 0.214924 -0.156082
    3 2.672261 -3.383448 0.696208 0.083503 0.128137 -1.585662
    4 8.674173 -0.128572 0.000000 0.000000 0.000000 0.000000
    5 0.000000 0.000000 0.000000 0.000000 0.000000 0.000000
    6 4.045845 -0.586976 0.000000 0.000000 0.000000 0.000000
    7 -9.019807 -17.652882 -0.453139 -0.166274 0.036158 0.278139
    8 1.039971 -0.940679 0.000000 0.000000 0.000000 -1.570796
    9 4.782106 0.485510 0.407405 0.000000 0.000000 -1.570796
    10 5.548040 -0.183522 0.000000 1.570796 -1.570796 0.000000
    11 1.257180 8.762585 -0.153713 -1.570562 0.002683 -1.566807
    12 -0.488518 -2.755602 -0.228260 -0.518305 -0.074854 -0.310571
    13 0.039887 -1.479790 0.029854 -2.289231 0.000000 0.000001
    14 0.028786 -1.075731 -0.023109 -0.271941 0.000000 0.000000
    15 0.250027 -2.820665 -0.238396 -0.350825 -0.052441 -0.187301
    16 -0.049759 -1.680544 0.100479 -2.246572 0.000000 -0.000002
    17 -0.034142 -1.148312 0.084782 -0.535851 0.000000 0.000000
    18 0.957766 -2.746780 -0.090302 0.329289 -0.172344 0.119866
    19 -0.033420 -1.397129 -0.011257 -1.115580 0.000000 -0.000001
    20 -0.022360 -0.957436 0.018784 -1.148807 0.000000 0.000000
    21 -1.180681 -2.507217 -0.193859 -0.309305 0.033033 -0.314313
    22 -0.024967 -1.123934 0.017597 -2.040737 0.000000 0.000001
    23 -0.020057 -0.890968 0.010090 -0.646720 0.000000 0.000000
    24 0.583510 -1.197277 0.185379 0.371183 -0.693166 -0.903076
    25 1.535927 0.010246 0.005009 -0.002964 -0.012979 -0.682290
    26 1.100771 0.004527 -0.010679 -0.016147 -0.001453 -1.484153
    27 0.120153 -0.050270 -0.054489 0.287569 3.110905 1.561085
    28 -10.384359 -11.528327 -24.287181 0.402508 -2.868015 0.918795
    29 0.096944 -8.450418 -0.009365 0.075476 -1.267968 0.356845
    30 0.447953 -2.798986 -0.200443 -0.350259 0.042804 0.170619
    31 -0.032909 -1.480204 0.004940 -0.499013 0.000000 0.000002
    32 -0.027022 -1.076920 -0.020210 -0.612649 0.000000 0.000000
    33 -0.249534 -2.846964 -0.174213 -0.006136 0.002631 0.073866
    34 0.043235 -1.683941 0.096012 -0.545575 0.002823 -0.000167
    35 0.031729 -1.160830 0.058838 -0.324785 0.000642 0.008372
    36 -0.963866 -2.785145 -0.085350 0.354572 0.070929 0.053157
    37 0.028479 -1.403067 0.006271 -0.520339 0.000000 0.000000
    38 0.021413 -0.957781 0.020046 -0.195255 0.000000 0.000000
    39 1.164475 -2.543940 -0.170330 -0.717868 -0.015463 0.162804
    40 0.024032 -1.129042 0.017807 -0.654322 0.000000 0.000001
    41 0.014898 -0.883989 -0.019848 -0.631202 0.000000 0.000000
    42 -0.586770 -1.264477 0.200161 0.164137 -0.513108 -2.684234
    43 1.522835 0.058681 0.016848 0.001410 0.008985 0.226666
    44 1.117947 0.048424 -0.005766 -0.002568 -0.011344 0.255529
    45 -0.139399 -0.111698 0.014397 0.774181 0.191172 1.472862
    46 -6.260806 6.983652 -0.294122 1.580804 -0.005023 -0.912799
  time 15
    0 -0.349399 1.166145 0.203512 0.000000 0.000000 0.000000
    1 6.436694 4.421443 -7.352607 -0.442713 -0.957972 0.198013
    2 -0.071918 -8.498730 -0.104136 0.339843 0.219610 -0.167671
    3 2.672261 -3.383448 0.696208 0.083503 0.128137 -1.585662
    4 8.674173 -0.128572 0.000000 0.000000 0.000000 0.000000
    5 0.000000 0.000000 0.000000 0.000000 0.000000 0.000000
    6 4.045845 -0.586976 0.000000 0.000000 0.000000 0.000000
    7 -6.402539 -16.895047 -0.460952 -0.178235 0.037692 0.273199
    8 1.039971 -0.940679 0.000000 0.000000 0.000000 -1.570796
    9 4.782106 0.485510 0.407405 0.000000 0.000000 -1.570796
    10 5.548040 -0.183522 0.000000 1.570796 -1.570796 0.000000
    11 1.257180 8.762585 -0.153713 -1.570562 0.002683 -1.566807
    12 -0.488518 -2.755602 -0.228260 -0.518305 -0.074854 -0.310571
    13 0.039887 -1.479790 0.029854 -2.289231 0.000000 0.000001
    14 0.028786 -1.075731 -0.023109 -0.271941 0.000000 0.000000
    15 0.250027 -2.820665 -0.238396 -0.350825 -0.052441 -0.187301
    16 -0.049759 -1.680544 0.100479 -2.246572 0.000000 -0.000002
    17 -0.034142 -1.148312 0.084782 -0.535851 0.000000 0.000000
    18 0.957766 -2.746780 -0.090302 0.329289 -0.172344 0.119866
    19 -0.033420 -1.397129 -0.011257 -1.115580 0.000000 -0.000001
    20 -0.022360 -0.957436 0.018784 -1.148807 0.000000 0.000000
    21 -1.180681 -2.507217 -0.193859 -0.309305 0.033033 -0.314313
    22 -0.024967 -1.123934 0.017597 -2.040737 0.000000 0.000001
    23 -0.020057 -0.890968 0.010090 -0.646720 0.000000 0.000000
    24 0.583510 -1.197277 0.185379 0.371183 -0.693166 -0.903076
    25 1.535927 0.010246 0.005009 -0.002964 -0.012979 -0.682290
    26 1.100771 0.004527 -0.010679 -0.016147 -0.001453 -1.484153
    27 0.120153 -0.050270 -0.054489 0.287569 3.110905 1.561085
    28 -10.614835 -11.739271 -24.716881 0.396883 -2.863060 0.915744
    29 0.096944 -8.450418 -0.009365 0.075476 -1.267968 0.356845
    30 0.447953 -2.798986 -0.200443 -0.425938 0.042804 0.170619
    31 -0.032909 -1.480204 0.004940 -0.642092 0.000000 0.000002
    32 -0.027022 -1.076920 -0.020210 -0.612649 0.000000 0.000000
    33 -0.249534 -2.846964 -0.174213 -0.088697 0.002631 0.073866
    34 0.043235 -1.683941 0.096012 -0.689194 0.002823 -0.000167
    35 0.031729 -1.160830 0.058838 -0.381347 0.000642 0.008372
    36 -0.963866 -2.785145 -0.085350 0.270251 0.070929 0.053157
    37 0.028479 -1.403067 0.006271 -0.668020 0.000000 0.000000
    38 0.021413 -0.957781 0.020046 -0.239086 0.000000 0.000000
    39 1.164475 -2.543940 -0.170330 -0.775415 -0.015463 0.162804
    40 0.024032 -1.129042 0.017807 -0.788394 0.000000 0.000001
    41 0.014898 -0.883989 -0.019848 -0.631202 0.000000 0.000000
    42 -0.586770 -1.264477 0.200161 0.142733 -0.515998 -2.641874
    43 1.522835 0.058681 0.016848 0.001410 0.008985 0.226666
    44 1.117947 0.048424 -0.005766 -0.002568 -0.011344 0.218374
    45 -0.139399 -0.111698 0.014397 0.774181 0.191172 1.472862
    46 -6.260806 6.983652 -0.294122 1.580804 -0.005023 -0.912799
  time 16
    0 -0.349399 1.166145 0.203512 0.000000 0.000000 0.000000
    1 6.389818 4.499570 -7.270573 -0.438964 -0.953332 0.195120
    2 -0.071918 -8.498730 -0.104136 0.354903 0.223002 -0.184042
    3 2.672261 -3.383448 0.696208 0.083503 0.128137 -1.585662
    4 8.674173 -0.128572 0.000000 0.000000 0.000000 0.000000
    5 0.000000 0.000000 0.000000 0.000000 0.000000 0.000000
    6 4.045845 -0.586976 0.000000 0.000000 0.000000 0.000000
    7 -3.800897 -16.137211 -0.464858 -0.190243 0.038734 0.266362
    8 1.039971 -0.940679 0.000000 0.000000 0.000000 -1.570796
    9 4.782106 0.485510 0.407405 0.000000 0.000000 -1.570796
    10 5.548040 -0.183522 0.000000 1.570796 -1.570796 0.000000
    11 1.257180 8.762585 -0.153713 -1.570562 0.002683 -1.566807
    12 -0.488518 -2.755602 -0.228260 -0.518305 -0.074854 -0.310571
    13 0.039887 -1.479790 0.029854 -2.289231 0.000000 0.000001
    14 0.028786 -1.075731 -0.023109 -0.271941 0.000000 0.000000
    15 0.250027 -2.820665 -0.238396 -0.350825 -0.052441 -0.187301
    16 -0.049759 -1.680544 0.100479 -2.246572 0.000000 -0.000002
    17 -0.034142 -1.148312 0.084782 -0.535851 0.000000 0.000000
    18 0.957766 -2.746780 -0.090302 0.329289 -0.172344 0.119866
    19 -0.033420 -1.397129 -0.011257 -1.115580 0.000000 -0.000001
    20 -0.022360 -0.957436 0.018784 -1.148807 0.000000 0.000000
    21 -1.180681 -2.507217 -0.193859 -0.309305 0.033033 -0.314313
    22 -0.024967 -1.123934 0.017597 -2.040737 0.000000 0.000001
    23 -0.020057 -0.890968 0.010090 -0.646720 0.000000 0.000000
    24 0.583510 -1.197277 0.185379 0.371183 -0.693166 -0.903076
    25 1.535927 0.010246 0.005009 -0.002964 -0.012979 -0.682290
    26 1.100771 0.004527 -0.010679 -0.016147 -0.001453 -1.484153
    27 0.120153 -0.050270 -0.054489 0.287569 3.110905 1.561085
    28 -10.782808 -11.997091 -25.084080 0.396146 -2.862417 0.915363
    29 0.096944 -8.450418 -0.009365 0.075476 -1.267968 0.356845
    30 0.447953 -2.798986 -0.200443 -0.532999 0.042804 0.170619
    31 -0.032909 -1.480204 0.004940 -0.844429 0.000000 0.000002
    32 -0.027022 -1.076920 -0.020210 -0.612649 0.000000 0.000000
    33 -0.249534 -2.846964 -0.174213 -0.205461 0.002631 0.073866
    34 0.043235 -1.683941 0.096012 -0.892239 0.002823 -0.000167
    35 0.031729 -1.160830 0.058838 -0.461316 0.000642 0.008372
    36 -0.963866 -2.785145 -0.085350 0.151028 0.070929 0.053157
    37 0.028479 -1.403067 0.006271 -0.876762 0.000000 0.000000
    38 0.021413 -0.957781 0.020046 -0.301028 0.000000 0.000000
    39 1.164475 -2.543940 -0.170330 -0.856776 -0.015463 0.162804
    40 0.024032 -1.129042 0.017807 -0.977844 0.000000 0.000001
    41 0.014898 -0.883989 -0.019848 -0.631202 0.000000 0.000000
    42 -0.586770 -1.264477 0.200161 0.112474 -0.520086 -2.582001
    43 1.522835 0.058681 0.016848 0.001410 0.008985 0.226666
    44 1.117947 0.048424 -0.005766 -0.002568 -0.011344 0.165866
    45 -0.139399 -0.111698 0.014397 0.774181 0.191172 1.472862
    46 -6.260806 6.983652 -0.294122 1.580804 -0.005023 -0.912799
  time 17
    0 -0.349399 1.166145 0.203512 0.000000 0.000000 0.000000
    1 6.366379 4.562072 -7.192446 -0.439797 -0.954088 0.195801
    2 -0.071918 -8.498730 -0.104136 0.370203 0.225315 -0.202810
    3 2.672261 -3.383448 0.696208 0.083503 0.128137 -1.585662
    4 8.674173 -0.128572 0.000000 0.000000 0.000000 0.000000
    5 0.000000 0.000000 0.000000 0.000000 0.000000 0.000000
    6 4.045845 -0.586976 0.000000 0.000000 0.000000 0.000000
    7 -1.210974 -15.387188 -0.472671 -0.202276 0.039190 0.257377
    8 1.039971 -0.940679 0.000000 0.000000 0.000000 -1.570796
    9 4.782106 0.485510 0.407405 0.000000 0.000000 -1.570796
    10 5.548040 -0.183522 0.000000 1.570796 -1.570796 0.000000
    11 1.257180 8.762585 -0.153713 -1.570562 0.002683 -1.566807
    12 -0.488518 -2.755602 -0.228260 -0.518305 -0.074854 -0.310571
    13 0.039887 -1.479790 0.029854 -2.289231 0.000000 0.000001
    14 0.028786 -1.075731 -0.023109 -0.271941 0.000000 0.000000
    15 0.250027 -2.820665 -0.238396 -0.350825 -0.052441 -0.187301
    16 -0.049759 -1.680544 0.100479 -2.246572 0.000000 -0.000002
    17 -0.034142 -1.148312 0.084782 -0.535851 0.000000 0.000000
    18 0.957766 -2.746780 -0.090302 0.329289 -0.172344 0.119866
    19 -0.033420 -1.397129 -0.011257 -1.115580 0.000000 -0.000001
    20 -0.022360 -0.957436 0.018784 -1.148807 0.000000 0.000000
    21 -1.180681 -2.507217 -0.193859 -0.309305 0.033033 -0.314313
    22 -0.024967 -1.123934 0.017597 -2.040737 0.000000 0.000001
    23 -0.020057 -0.890968 0.010090 -0.646720 0.000000 0.000000
    24 0.583510 -1.197277 0.185379 0.371183 -0.693166 -0.903076
    25 1.535927 0.010246 0.005009 -0.002964 -0.012979 -0.682290
    26 1.100771 0.004527 -0.010679 -0.016147 -0.001453 -1.484153
    27 0.120153 -0.050270 -0.054489 0.287569 3.110905 1.561085
    28 -10.868749 -12.235380 -25.330181 0.398825 -2.864803 0.916888
    29 0.096944 -8.450418 -0.009365 0.075476 -1.267968 0.356845
    30 0.447953 -2.798986 -0.200443 -0.655684 0.042804 0.170619
    31 -0.032909 -1.480204 0.004940 -1.076371 0.000000 0.000002
    32 -0.027022 -1.076920 -0.020210 -0.612649 0.000000 0.000000
    33 -0.249534 -2.846964 -0.174213 -0.339293 0.002631 0.073866
    34 0.043235 -1.683941 0.096012 -1.124968 0.002823 -0.000167
    35 0.031729 -1.160830 0.058838 -0.552966 0.000642 0.008372
    36 -0.963866 -2.785145 -0.085350 0.014378 0.070929 0.053157
    37 0.028479 -1.403067 0.006271 -1.116063 0.000000 0.000000
    38 0.021413 -0.957781 0.020046 -0.372027 0.000000 0.000000
    39 1.164475 -2.543940 -0.170330 -0.950045 -0.015463 0.162804
    40 0.024032 -1.129042 0.017807 -1.195090 0.000000 0.000001
    41 0.014898 -0.883989 -0.019848 -0.631202 0.000000 0.000000
    42 -0.586770 -1.264477 0.200161 0.077776 -0.524766 -2.513364
    43 1.522835 0.058681 0.016848 0.001410 0.008985 0.226666
    44 1.117947 0.048424 -0.005766 -0.002568 -0.011344 0.105681
    45 -0.139399 -0.111698 0.014397 0.774181 0.191172 1.472862
    46 -6.260806 6.983652 -0.294122 1.580804 -0.005023 -0.912799
  time 18
    0 -0.349399 1.166145 0.203512 0.000000 0.000000 0.000000
    1 6.362473 4.608949 -7.114319 -0.443380 -0.958152 0.198779
    2 -0.071918 -8.498730 -0.104136 0.384378 0.226741 -0.221578
    3 2.672261 -3.383448 0.696208 0.083503 0.128137 -1.585662
    4 8.674173 -0.128572 0.000000 0.000000 0.000000 0.000000
    5 0.000000 0.000000 0.000000 0.000000 0.000000 0.000000
    6 4.045845 -0.586976 0.000000 0.000000 0.000000 0.000000
    7 1.363323 -14.637165 -0.476577 -0.214344 0.038974 0.246066
    8 1.039971 -0.940679 0.000000 0.000000 0.000000 -1.570796
    9 4.782106 0.485510 0.407405 0.000000 0.000000 -1.570796
    10 5.548040 -0.183522 0.000000 1.570796 -1.570796 0.000000
    11 1.257180 8.762585 -0.153713 -1.570562 0.002683 -1.566807
    12 -0.488518 -2.755602 -0.228260 -0.518305 -0.074854 -0.310571
    13 0.039887 -1.479790 0.029854 -2.289231 0.000000 0.000001
    14 0.028786 -1.075731 -0.023109 -0.271941 0.000000 0.000000
    15 0.250027 -2.820665 -0.238396 -0.350825 -0.052441 -0.187301
    16 -0.049759 -1.680544 0.100479 -2.246572 0.000000 -0.000002
    17 -0.034142 -1.148312 0.084782 -0.535851 0.000000 0.000000
    18 0.957766 -2.746780 -0.090302 0.329289 -0.172344 0.119866
    19 -0.033420 -1.397129 -0.011257 -1.115580 0.000000 -0.000001
    20 -0.022360 -0.957436 0.018784 -1.148807 0.000000 0.000000
    21 -1.180681 -2.507217 -0.193859 -0.309305 0.033033 -0.314313
    22 -0.024967 -1.123934 0.017597 -2.040737 0.000000 0.000001
    23 -0.020057 -0.890968 0.010090 -0.646720 0.000000 0.000000
    24 0.583510 -1.197277 0.185379 0.371183 -0.693166 -0.903076
    25 1.535927 0.010246 0.005009 -0.002964 -0.012979 -0.682290
    26 1.100771 0.004527 -0.010679 -0.016147 -0.001453 -1.484153
    27 0.120153 -0.050270 -0.054489 0.287569 3.110905 1.561085
    28 -10.857029 -12.368196 -25.392683 0.403446 -2.868933 0.919367
    29 0.096944 -8.450418 -0.009365 0.075476 -1.267968 0.356845
    30 0.447953 -2.798986 -0.200443 -0.778369 0.042804 0.170619
    31 -0.032909 -1.480204 0.004940 -1.308263 0.000000 0.000002
    32 -0.027022 -1.076920 -0.020210 -0.612649 0.000000 0.000000
    33 -0.249534 -2.846964 -0.174213 -0.473125 0.002631 0.073866
    34 0.043235 -1.683941 0.096012 -1.357697 0.002823 -0.000167
    35 0.031729 -1.160830 0.058838 -0.644615 0.000642 0.008372
    36 -0.963866 -2.785145 -0.085350 -0.122272 0.070929 0.053157
    37 0.028479 -1.403067 0.006271 -1.355363 0.000000 0.000000
    38 0.021413 -0.957781 0.020046 -0.443026 0.000000 0.000000
    39 1.164475 -2.543940 -0.170330 -1.043274 -0.015463 0.162804
    40 0.024032 -1.129042 0.017807 -1.412337 0.000000 0.000001
    41 0.014898 -0.883989 -0.019848 -0.631202 0.000000 0.000000
    42 -0.586770 -1.264477 0.200161 0.043078 -0.529460 -2.444727
    43 1.522835 0.058681 0.016848 0.001410 0.008985 0.226666
    44 1.117947 0.048424 -0.005766 -0.002568 -0.011344 0.045497
    45 -0.139399 -0.111698 0.014397 0.774181 0.191172 1.472862
    46 -6.260806 6.983652 -0.294122 1.580804 -0.005023 -0.912799
  time 19
    0 -0.349399 1.166145 0.203512 0.000000 0.000000 0.000000
    1 6.362473 4.651919 -7.040098 -0.448046 -0.963368 0.202608
    2 -0.071918 -8.498730 -0.104136 0.396164 0.227508 -0.237949
    3 2.672261 -3.383448 0.696208 0.083503 0.128137 -1.585662
    4 8.674173 -0.128572 0.000000 0.000000 0.000000 0.000000
    5 0.000000 0.000000 0.000000 0.000000 0.000000 0.000000
    6 4.045845 -0.586976 0.000000 0.000000 0.000000 0.000000
    7 3.921995 -13.894955 -0.484390 -0.226437 0.037979 0.232159
    8 1.039971 -0.940679 0.000000 0.000000 0.000000 -1.570796
    9 4.782106 0.485510 0.407405 0.000000 0.000000 -1.570796
    10 5.548040 -0.183522 0.000000 1.570796 -1.570796 0.000000
    11 1.257180 8.762585 -0.153713 -1.570562 0.002683 -1.566807
    12 -0.488518 -2.755602 -0.228260 -0.518305 -0.074854 -0.310571
    13 0.039887 -1.479790 0.029854 -2.289231 0.000000 0.000001
    14 0.028786 -1.075731 -0.023109 -0.271941 0.000000 0.000000
    15 0.250027 -2.820665 -0.238396 -0.350825 -0.052441 -0.187301
    16 -0.049759 -1.680544 0.100479 -2.246572 0.000000 -0.000002
    17 -0.034142 -1.148312 0.084782 -0.535851 0.000000 0.000000
    18 0.957766 -2.746780 -0.090302 0.329289 -0.172344 0.119866
    19 -0.033420 -1.397129 -0.011257 -1.115580 0.000000 -0.000001
    20 -0.022360 -0.957436 0.018784 -1.148807 0.000000 0.000000
    21 -1.180681 -2.507217 -0.193859 -0.309305 0.033033 -0.314313
    22 -0.024967 -1.123934 0.017597 -2.040737 0.000000 0.000001
    23 -0.020057 -0.890968 0.010090 -0.646720 0.000000 0.000000
    24 0.583510 -1.197277 0.185379 0.371183 -0.693166 -0.903076
    25 1.535927 0.010246 0.005009 -0.002964 -0.012979 -0.682290
    26 1.100771 0.004527 -0.010679 -0.016147 -0.001453 -1.484153
    27 0.120153 -0.050270 -0.054489 0.287569 3.110905 1.561085
    28 -10.732026 -12.333039 -25.209084 0.408535 -2.873429 0.922228
    29 0.096944 -8.450418 -0.009365 0.075476 -1.267968 0.356845
    30 0.447953 -2.798986 -0.200443 -0.885397 0.042804 0.170619
    31 -0.032909 -1.480204 0.004940 -1.510601 0.000000 0.000002
    32 -0.027022 -1.076920 -0.020210 -0.612649 0.000000 0.000000
    33 -0.249534 -2.846964 -0.174213 -0.589866 0.002631 0.073866
    34 0.043235 -1.683941 0.096012 -1.560742 0.002823 -0.000167
    35 0.031729 -1.160830 0.058838 -0.724584 0.000642 0.008372
    36 -0.963866 -2.785145 -0.085350 -0.241471 0.070929 0.053157
    37 0.028479 -1.403067 0.006271 -1.564106 0.000000 0.000000
    38 0.021413 -0.957781 0.020046 -0.504969 0.000000 0.000000
    39 1.164475 -2.543940 -0.170330 -1.124636 -0.015463 0.162804
    40 0.024032 -1.129042 0.017807 -1.601786 0.000000 0.000001
    41 0.014898 -0.883989 -0.019848 -0.631202 0.000000 0.000000
    42 -0.586770 -1.264477 0.200161 0.012819 -0.533548 -2.384854
    43 1.522835 0.058681 0.016848 0.001410 0.008985 0.226666
    44 1.117947 0.048424 -0.005766 -0.002568 -0.011344 -0.007011
    45 -0.139399 -0.111698 0.014397 0.774181 0.191172 1.472862
    46 -6.260806 6.983652 -0.294122 1.580804 -0.005023 -0.912799
  time 20
    0 -0.349399 1.166145 0.203512 0.000000 0.000000 0.000000
    1 6.358567 4.690982 -6.965877 -0.451795 -0.967649 0.205926
    2 -0.071918 -8.498730 -0.104136 0.404172 0.227807 -0.249538
    3 2.672261 -3.383448 0.696208 0.083503 0.128137 -1.585662
    4 8.674173 -0.128572 0.000000 0.000000 0.000000 0.000000
    5 0.000000 0.000000 0.000000 0.000000 0.000000 0.000000
    6 4.045845 -0.586976 0.000000 0.000000 0.000000 0.000000
    7 6.468947 -13.152745 -0.488296 -0.238529 0.036098 0.215477
    8 1.039971 -0.940679 0.000000 0.000000 0.000000 -1.570796
    9 4.782106 0.485510 0.407405 0.000000 0.000000 -1.570796
    10 5.548040 -0.183522 0.000000 1.570796 -1.570796 0.000000
    11 1.257180 8.762585 -0.153713 -1.570562 0.002683 -1.566807
    12 -0.488518 -2.755602 -0.228260 -0.518305 -0.074854 -0.310571
    13 0.039887 -1.479790 0.029854 -2.289231 0.000000 0.000001
    14 0.028786 -1.075731 -0.023109 -0.271941 0.000000 0.000000
    15 0.250027 -2.820665 -0.238396 -0.350825 -0.052441 -0.187301
    16 -0.049759 -1.680544 0.100479 -2.246572 0.000000 -0.000002
    17 -0.034142 -1.148312 0.084782 -0.535851 0.000000 0.000000
    18 0.957766 -2.746780 -0.090302 0.329289 -0.172344 0.119866
    19 -0.033420 -1.397129 -0.011257 -1.115580 0.000000 -0.000001
    20 -0.022360 -0.957436 0.018784 -1.148807 0.000000 0.000000
    21 -1.180681 -2.507217 -0.193859 -0.309305 0.033033 -0.314313
    22 -0.024967 -1.123934 0.017597 -2.040737 0.000000 0.000001
    23 -0.020057 -0.890968 0.010090 -0.646720 0.000000 0.000000
    24 0.583510 -1.197277 0.185379 0.371183 -0.693166 -0.903076
    25 1.535927 0.010246 0.005009 -0.002964 -0.012979 -0.682290
    26 1.100771 0.004527 -0.010679 -0.016147 -0.001453 -1.484153
    27 0.120153 -0.050270 -0.054489 0.287569 3.110905 1.561085
    28 -10.485924 -12.047874 -24.716881 0.412687 -2.877100 0.924516
    29 0.096944 -8.450418 -0.009365 0.075476 -1.267968 0.356845
    30 0.447953 -2.798986 -0.200443 -0.961109 0.042804 0.170619
    31 -0.032909 -1.480204 0.004940 -1.653680 0.000000 0.000002
    32 -0.027022 -1.076920 -0.020210 -0.612649 0.000000 0.000000
    33 -0.249534 -2.846964 -0.174213 -0.672450 0.002631 0.073866
    34 0.043235 -1.683941 0.096012 -1.704303 0.002823 -0.000167
    35 0.031729 -1.160830 0.058838 -0.781147 0.000642 0.008372
    36 -0.963866 -2.785145 -0.085350 -0.325815 0.070929 0.053157
    37 0.028479 -1.403067 0.006271 -1.711731 0.000000 0.000000
    38 0.021413 -0.957781 0.020046 -0.548767 0.000000 0.000000
    39 1.164475 -2.543940 -0.170330 -1.182182 -0.015463 0.162804
    40 0.024032 -1.129042 0.017807 -1.735858 0.000000 0.000001
    41 0.014898 -0.883989 -0.019848 -0.631202 0.000000 0.000000
    42 -0.586770 -1.264477 0.200161 -0.008606 -0.536438 -2.342494
    43 1.522835 0.058681 0.016848 0.001410 0.008985 0.226666
    44 1.117947 0.048424 -0.005766 -0.002568 -0.011344 -0.044166
    45 -0.139399 -0.111698 0.014397 0.774181 0.191172 1.472862
    46 -6.260806 6.983652 -0.294122 1.580804 -0.005023 -0.912799
end
