version 1
nodes
  0 "Bone52" -1
  1 "Bone53" 0
  2 "Bone54" 1
  3 "Bone57" 1
  4 "Bone02" 3
  5 "Bone03" 4
  6 "Bone25" 5
  7 "Bone47" 6
  8 "Bone48" 7
  9 "Bone49" 8
  10 "Bone50" 9
  11 "Bone51" 10
  12 "Bone_cover" 1
  13 "Bone_Norise" 1
  14 "Bone_pin" 1
  15 "root" -1
  16 "Bone01" 15
  17 "Bone_L_Upper" 16
  18 "Bone_Lefthand" 16
  19 "Bone13" 18
  20 "Bone14" 19
  21 "Bone15" 20
  22 "Bone17" 18
  23 "Bone18" 22
  24 "Bone19" 23
  25 "Bone21" 18
  26 "Bone22" 25
  27 "Bone23" 26
  28 "Bone09" 18
  29 "Bone10" 28
  30 "Bone11" 29
  31 "Bone05" 18
  32 "Bone06" 31
  33 "Bone07" 32
  34 "Bone_Se_Hand-L" 18
  35 "Bone04" 15
  36 "Bone_Righthand" 35
  37 "Bone39" 36
  38 "Bone40" 37
  39 "Bone41" 38
  40 "Bone35" 36
  41 "Bone36" 40
  42 "Bone37" 41
  43 "Bone31" 36
  44 "Bone32" 43
  45 "Bone33" 44
  46 "Bone43" 36
  47 "Bone44" 46
  48 "Bone45" 47
  49 "Bone27" 36
  50 "Bone28" 49
  51 "Bone29" 50
  52 "Bone_Se_Hand-R" 36
  53 "Bone_R_Upper" 35
end
skeleton
  time 0
    0 5.267676 -3.882417 -7.287185 0.006730 -0.058257 0.025709
    1 0.000001 0.701297 0.849854 0.000000 0.000000 0.000000
    2 -0.000001 -1.738945 1.116327 0.000000 0.000000 0.000000
    3 -0.297734 -5.341946 2.396937 0.000000 0.000000 0.000000
    4 -0.396064 -0.350996 0.431416 0.000000 0.293414 3.141592
    5 0.477511 0.000000 0.275377 0.000000 0.241839 0.000000
    6 0.541041 0.000002 0.044966 0.000000 0.362551 0.000000
    7 0.428258 0.000000 -0.270081 0.000000 0.436794 0.000000
    8 0.497090 -0.000002 0.046301 0.000000 0.245616 0.000000
    9 0.513723 0.000000 0.096828 0.000000 -0.228036 0.000000
    10 0.519992 0.000000 -0.110339 0.000000 0.177510 0.000000
    11 0.529985 -0.000004 -0.013396 0.000012 0.059262 0.000203
    12 0.012492 -7.011953 3.615968 1.570796 0.000001 -1.570796
    13 1.263050 0.374895 1.954941 0.000001 0.000000 0.000001
    14 0.027010 -21.283039 1.057788 1.249947 0.000001 -1.570796
    15 2.040279 -2.306023 -10.155941 0.000000 0.000000 0.518760
    16 7.892091 0.048205 -4.850692 5.549897 -2.527865 0.053090
    17 7.140172 4.528080 -0.306061 1.565348 -3.126019 0.652545
    18 -0.017232 -8.424515 -0.092415 -0.218094 0.524814 -0.124351
    19 -0.488518 -2.755602 -0.228260 0.106454 0.010332 -0.264490
    20 0.039887 -1.479790 0.029854 -0.055395 0.000000 0.000001
    21 0.028786 -1.075731 -0.023109 0.002099 0.000000 0.000000
    22 0.250027 -2.820665 -0.238396 0.041826 -0.002921 0.008443
    23 -0.049759 -1.680544 0.100479 0.019826 0.000000 -0.000002
    24 -0.034142 -1.148312 0.084782 -0.040115 0.000000 0.000000
    25 0.957766 -2.746780 -0.090302 -0.017221 -0.162277 0.191558
    26 -0.033420 -1.397129 -0.011257 0.013931 0.000000 -0.000001
    27 -0.022360 -0.957436 0.018784 0.003845 0.000000 0.000000
    28 -1.180681 -2.507217 -0.193859 0.082999 0.013294 -0.477915
    29 -0.024967 -1.123934 0.017597 -0.018065 0.000000 0.000001
    30 -0.020057 -0.890968 0.010090 -0.060797 0.000000 0.000000
    31 0.583510 -1.197277 0.185379 0.158049 -0.404973 -0.364290
    32 1.535927 0.010246 0.005009 -0.002964 -0.012979 0.000887
    33 1.100771 0.004527 -0.010679 -0.002796 0.015973 0.003458
    34 0.120153 -0.050270 -0.054489 0.287569 3.110905 1.561085
    35 -9.278856 -8.032127 -0.723962 0.224096 -3.492843 -0.255802
    36 0.112569 -8.477763 -0.017178 0.211662 -0.183207 0.023501
    37 0.447953 -2.798986 -0.200443 -1.193531 0.050462 0.255255
    38 -0.032909 -1.499736 0.036191 -1.634095 0.022855 -0.033375
    39 -0.027022 -1.127703 -0.020210 -1.225211 0.024245 -0.022112
    40 -0.249534 -2.846964 -0.174213 -0.984834 0.030124 0.067838
    41 0.043235 -1.656596 0.056948 -1.819831 -0.024825 0.014862
    42 0.031729 -1.141298 0.058838 -1.070711 -0.011858 0.005963
    43 -0.963866 -2.785145 -0.085350 -0.841152 0.100268 -0.130339
    44 0.028479 -1.418692 -0.032793 -1.568382 -0.051917 -0.038027
    45 0.021413 -0.942156 0.012233 -0.917743 -0.023454 -0.032694
    46 1.164475 -2.543940 -0.170330 -1.248507 -0.042261 0.361521
    47 0.024032 -1.156387 -0.009538 -1.603655 0.039309 0.069835
    48 0.014898 -0.907427 -0.008129 -1.436262 0.027121 0.066059
    49 -0.586770 -1.264477 0.200161 -0.178526 -0.743435 -2.481839
    50 1.550180 0.039149 0.016848 -0.010347 -0.003779 0.573393
    51 1.110134 0.040611 -0.005766 -0.038198 -0.031130 1.346756
    52 -0.139399 -0.111698 0.014397 0.074775 0.219084 1.592828
    53 -1.237215 8.862615 -0.235527 4.722171 -3.137038 1.555246
  time 1
    0 5.267676 -2.620659 -7.287185 -0.006166 -0.057119 0.025287
    1 0.000001 0.701297 0.849854 0.000000 0.000000 0.000000
    2 -0.000001 -1.738945 1.116327 0.000000 0.000000 0.000000
    3 -0.297734 -5.341946 2.396937 0.000000 0.000000 0.000000
    4 -0.087461 -0.350996 0.431416 0.000000 0.146685 3.141592
    5 0.477511 0.000000 0.275377 0.000000 0.107816 0.000000
    6 0.541041 0.050785 0.044966 0.000000 0.203092 0.000000
    7 0.428258 0.113285 -0.270081 0.000000 0.867893 0.000000
    8 0.497090 0.050781 0.046301 0.000000 0.245616 0.000000
    9 0.513723 -0.109378 0.096828 0.000000 -0.228036 0.000000
    10 0.519992 -0.046876 -0.110339 0.000000 0.177510 0.000000
    11 0.529985 -0.000004 -0.013396 0.000012 0.059262 0.000203
    12 0.012492 -7.011953 3.615968 1.570796 0.000001 -1.570796
    13 1.263050 0.374895 1.954941 0.000001 0.000000 0.000001
    14 0.027010 -21.283039 1.057788 1.179710 0.000385 -1.571563
    15 2.040279 -2.306023 -10.155941 0.000000 0.000000 0.518760
    16 7.892091 0.048205 -4.850692 5.549897 -2.527865 0.053090
    17 7.140172 4.528080 -0.306061 1.565348 -3.126019 0.652545
    18 -0.017232 -8.424515 -0.092415 -0.218094 0.524814 -0.124351
    19 -0.488518 -2.755602 -0.228260 0.106454 0.010332 -0.264490
    20 0.039887 -1.479790 0.029854 -0.055395 0.000000 0.000001
    21 0.028786 -1.075731 -0.023109 0.002099 0.000000 0.000000
    22 0.250027 -2.820665 -0.238396 0.041826 -0.002921 0.008443
    23 -0.049759 -1.680544 0.100479 0.019826 0.000000 -0.000002
    24 -0.034142 -1.148312 0.084782 -0.040115 0.000000 0.000000
    25 0.957766 -2.746780 -0.090302 -0.017221 -0.162277 0.191558
    26 -0.033420 -1.397129 -0.011257 0.013931 0.000000 -0.000001
    27 -0.022360 -0.957436 0.018784 0.003845 0.000000 0.000000
    28 -1.180681 -2.507217 -0.193859 0.082999 0.013294 -0.477915
    29 -0.024967 -1.123934 0.017597 -0.018065 0.000000 0.000001
    30 -0.020057 -0.890968 0.010090 -0.060797 0.000000 0.000000
    31 0.583510 -1.197277 0.185379 0.158049 -0.404973 -0.364290
    32 1.535927 0.010246 0.005009 -0.002964 -0.012979 0.000887
    33 1.100771 0.004527 -0.010679 -0.002796 0.015973 0.003458
    34 0.120153 -0.050270 -0.054489 0.287569 3.110905 1.561085
    35 -10.732026 -6.782088 -1.220070 0.369227 -3.406785 -0.008388
    36 0.108663 -8.423074 -0.032803 0.138362 -0.115024 0.269883
    37 0.447953 -2.798986 -0.200443 -1.193531 0.050462 0.255255
    38 -0.032909 -1.499736 0.036191 -1.634095 0.022855 -0.033375
    39 -0.027022 -1.127703 -0.020210 -1.225211 0.024245 -0.022112
    40 -0.249534 -2.846964 -0.174213 -0.984834 0.030124 0.067838
    41 0.043235 -1.656596 0.056948 -1.819831 -0.024825 0.014862
    42 0.031729 -1.141298 0.058838 -1.070711 -0.011858 0.005963
    43 -0.963866 -2.785145 -0.085350 -0.841152 0.100268 -0.130339
    44 0.028479 -1.418692 -0.032793 -1.568382 -0.051917 -0.038027
    45 0.021413 -0.942156 0.012233 -0.917743 -0.023454 -0.032694
    46 1.164475 -2.543940 -0.170330 -1.248507 -0.042261 0.361521
    47 0.024032 -1.156387 -0.009538 -1.603655 0.039309 0.069835
    48 0.014898 -0.907427 -0.008129 -1.436262 0.027121 0.066059
    49 -0.586770 -1.264477 0.200161 -0.178526 -0.743435 -2.481839
    50 1.550180 0.039149 0.016848 -0.010347 -0.003779 0.573393
    51 1.110134 0.040611 -0.005766 -0.038198 -0.031130 1.346756
    52 -0.139399 -0.111698 0.014397 0.074775 0.219084 1.592828
    53 -5.749072 6.624266 -0.364437 1.580325 -0.020818 -0.964349
  time 2
    0 5.271583 -2.175333 -7.294998 -0.021849 -0.055381 0.024549
    1 0.000001 0.701297 0.849854 0.000000 0.000000 0.000000
    2 -0.000001 -1.738945 1.116327 0.000000 0.000000 0.000000
    3 -0.297734 -5.341946 2.396937 0.000000 0.000000 0.000000
    4 0.221142 -0.350996 0.431416 0.000000 0.000000 3.141592
    5 0.477511 0.000000 0.275377 0.000000 -0.026181 0.000000
    6 0.541041 0.105474 0.044966 0.000000 0.043633 0.000000
    7 0.428258 0.226569 -0.270081 0.000000 1.298991 0.000000
    8 0.497090 0.105470 0.046301 0.000000 0.245616 0.000000
    9 0.513723 -0.222663 0.096828 0.000000 -0.228036 0.000000
    10 0.519992 -0.097659 -0.110339 0.000000 0.177510 0.000000
    11 0.529985 -0.000004 -0.013396 0.000012 0.059262 0.000203
    12 0.012492 -7.011953 3.615968 1.570796 0.000001 -1.570796
    13 1.263050 0.374895 1.954941 0.000001 0.000000 0.000001
    14 0.027010 -21.283039 1.057788 1.294921 -0.001054 -1.569262
    15 2.040279 -2.306023 -10.155941 0.000000 0.000000 0.518760
    16 7.892091 0.048205 -4.850692 5.549897 -2.527865 0.053090
    17 7.140172 4.528080 -0.306061 1.565348 -3.126019 0.652545
    18 -0.017232 -8.424515 -0.092415 -0.218094 0.524814 -0.124351
    19 -0.488518 -2.755602 -0.228260 0.106454 0.010332 -0.264490
    20 0.039887 -1.479790 0.029854 -0.055395 0.000000 0.000001
    21 0.028786 -1.075731 -0.023109 0.002099 0.000000 0.000000
    22 0.250027 -2.820665 -0.238396 0.041826 -0.002921 0.008443
    23 -0.049759 -1.680544 0.100479 0.019826 0.000000 -0.000002
    24 -0.034142 -1.148312 0.084782 -0.040115 0.000000 0.000000
    25 0.957766 -2.746780 -0.090302 -0.017221 -0.162277 0.191558
    26 -0.033420 -1.397129 -0.011257 0.013931 0.000000 -0.000001
    27 -0.022360 -0.957436 0.018784 0.003845 0.000000 0.000000
    28 -1.180681 -2.507217 -0.193859 0.082999 0.013294 -0.477915
    29 -0.024967 -1.123934 0.017597 -0.018065 0.000000 0.000001
    30 -0.020057 -0.890968 0.010090 -0.060797 0.000000 0.000000
    31 0.583510 -1.197277 0.185379 0.158049 -0.404973 -0.364290
    32 1.535927 0.010246 0.005009 -0.002964 -0.012979 0.000887
    33 1.100771 0.004527 -0.010679 -0.002796 0.015973 0.003458
    34 0.120153 -0.050270 -0.054489 0.287569 3.110905 1.561085
    35 -10.884374 -6.516455 -1.583363 0.358186 -3.391388 0.066064
    36 0.089131 -8.426980 -0.009365 0.209248 -0.220909 0.343562
    37 0.447953 -2.798986 -0.200443 -1.193531 0.050462 0.255255
    38 -0.032909 -1.499736 0.036191 -1.634095 0.022855 -0.033375
    39 -0.027022 -1.127703 -0.020210 -1.225211 0.024245 -0.022112
    40 -0.249534 -2.846964 -0.174213 -0.984834 0.030124 0.067838
    41 0.043235 -1.656596 0.056948 -1.819831 -0.024825 0.014862
    42 0.031729 -1.141298 0.058838 -1.070711 -0.011858 0.005963
    43 -0.963866 -2.785145 -0.085350 -0.841152 0.100268 -0.130339
    44 0.028479 -1.418692 -0.032793 -1.568382 -0.051917 -0.038027
    45 0.021413 -0.942156 0.012233 -0.917743 -0.023454 -0.032694
    46 1.164475 -2.543940 -0.170330 -1.248507 -0.042261 0.361521
    47 0.024032 -1.156387 -0.009538 -1.603655 0.039309 0.069835
    48 0.014898 -0.907427 -0.008129 -1.436262 0.027121 0.066059
    49 -0.586770 -1.264477 0.200161 -0.178526 -0.743435 -2.481839
    50 1.550180 0.039149 0.016848 -0.010347 -0.003779 0.573393
    51 1.110134 0.040611 -0.005766 -0.038198 -0.031130 1.346756
    52 -0.139399 -0.111698 0.014397 0.074775 0.219084 1.592828
    53 -6.581128 5.678924 -0.395688 1.578695 -0.024551 -0.811284
  time 3
    0 5.271583 -2.355026 -7.310624 -0.033843 -0.054961 0.024338
    1 0.000001 0.701297 0.849854 0.000000 0.000000 0.000000
    2 -0.000001 -1.738945 1.116327 0.000000 0.000000 0.000000
    3 -0.297734 -5.341946 2.396937 0.000000 0.000000 0.000000
    4 0.221142 -0.350996 0.431416 0.000000 0.000000 3.141592
    5 0.477511 0.000000 0.275377 0.000000 -0.026181 0.000000
    6 0.541041 -0.125002 0.044966 0.000000 0.043633 0.000000
    7 0.428258 -0.308603 -0.270081 0.000000 1.298991 0.000000
    8 0.497090 0.152346 0.046301 0.000000 0.245616 0.000000
    9 0.513723 0.238289 0.096828 0.000000 -0.228036 0.000000
    10 0.519992 0.000000 -0.110339 0.000000 0.177510 0.000000
    11 0.529985 -0.000004 -0.013396 0.000012 0.059262 0.000203
    12 0.012492 -7.011953 3.615968 1.570796 0.000001 -1.570796
    13 1.263050 0.374895 1.954941 0.000001 0.000000 0.000001
    14 0.027010 -21.283039 1.057788 1.461805 -0.003451 -1.566482
    15 2.040279 -2.306023 -10.155941 0.000000 0.000000 0.518760
    16 7.892091 0.048205 -4.850692 5.549897 -2.527865 0.053090
    17 7.140172 4.528080 -0.306061 1.565348 -3.126019 0.652545
    18 -0.017232 -8.424515 -0.092415 -0.218094 0.524814 -0.124351
    19 -0.488518 -2.755602 -0.228260 0.106454 0.010332 -0.264490
    20 0.039887 -1.479790 0.029854 -0.055395 0.000000 0.000001
    21 0.028786 -1.075731 -0.023109 0.002099 0.000000 0.000000
    22 0.250027 -2.820665 -0.238396 0.041826 -0.002921 0.008443
    23 -0.049759 -1.680544 0.100479 0.019826 0.000000 -0.000002
    24 -0.034142 -1.148312 0.084782 -0.040115 0.000000 0.000000
    25 0.957766 -2.746780 -0.090302 -0.017221 -0.162277 0.191558
    26 -0.033420 -1.397129 -0.011257 0.013931 0.000000 -0.000001
    27 -0.022360 -0.957436 0.018784 0.003845 0.000000 0.000000
    28 -1.180681 -2.507217 -0.193859 0.082999 0.013294 -0.477915
    29 -0.024967 -1.123934 0.017597 -0.018065 0.000000 0.000001
    30 -0.020057 -0.890968 0.010090 -0.060797 0.000000 0.000000
    31 0.583510 -1.197277 0.185379 0.158049 -0.404973 -0.364290
    32 1.535927 0.010246 0.005009 -0.002964 -0.012979 0.000887
    33 1.100771 0.004527 -0.010679 -0.002796 0.015973 0.003458
    34 0.120153 -0.050270 -0.054489 0.287569 3.110905 1.561085
    35 -10.587490 -6.860216 -1.809932 0.291849 -3.414117 0.076049
    36 0.065693 -8.454325 0.014073 0.334268 -0.380421 0.319672
    37 0.447953 -2.798986 -0.200443 -1.193531 0.050462 0.255255
    38 -0.032909 -1.499736 0.036191 -1.634095 0.022855 -0.033375
    39 -0.027022 -1.127703 -0.020210 -1.225211 0.024245 -0.022112
    40 -0.249534 -2.846964 -0.174213 -0.984834 0.030124 0.067838
    41 0.043235 -1.656596 0.056948 -1.819831 -0.024825 0.014862
    42 0.031729 -1.141298 0.058838 -1.070711 -0.011858 0.005963
    43 -0.963866 -2.785145 -0.085350 -0.841152 0.100268 -0.130339
    44 0.028479 -1.418692 -0.032793 -1.568382 -0.051917 -0.038027
    45 0.021413 -0.942156 0.012233 -0.917743 -0.023454 -0.032694
    46 1.164475 -2.543940 -0.170330 -1.248507 -0.042261 0.361521
    47 0.024032 -1.156387 -0.009538 -1.603655 0.039309 0.069835
    48 0.014898 -0.907427 -0.008129 -1.436262 0.027121 0.066059
    49 -0.586770 -1.264477 0.200161 -0.178526 -0.743435 -2.481839
    50 1.550180 0.039149 0.016848 -0.010347 -0.003779 0.573393
    51 1.110134 0.040611 -0.005766 -0.038198 -0.031130 1.346756
    52 -0.139399 -0.111698 0.014397 0.074775 0.219084 1.592828
    53 -6.292057 6.042217 -0.383969 1.579366 -0.023211 -0.867954
  time 4
    0 5.271583 -2.569877 -7.330155 -0.035728 -0.057742 0.025551
    1 0.000001 0.701297 0.849854 0.000000 0.000000 0.000000
    2 -0.000001 -1.738945 1.116327 0.000000 0.000000 0.000000
    3 -0.297734 -5.341946 2.396937 0.000000 0.000000 0.000000
    4 0.221142 -0.350996 0.431416 0.000000 0.000000 3.141592
    5 0.477511 0.000000 0.275377 0.000000 -0.026181 0.000000
    6 0.541041 -0.070313 0.044966 0.000000 0.043633 0.000000
    7 0.428258 -0.183599 -0.270081 0.000000 1.298991 0.000000
    8 0.497090 0.132815 0.046301 0.000000 0.245616 0.000000
    9 0.513723 0.089846 0.096828 0.000000 -0.228036 0.000000
    10 0.519992 0.000000 -0.110339 0.000000 0.177510 0.000000
    11 0.529985 -0.000004 -0.013396 0.000012 0.059262 0.000203
    12 0.012492 -7.011953 3.615968 1.570796 0.000001 -1.570796
    13 1.263050 0.374895 1.954941 0.000001 0.000000 0.000001
    14 0.027010 -21.283039 1.057788 1.448312 -0.003067 -1.566865
    15 2.040279 -2.306023 -10.155941 0.000000 0.000000 0.518760
    16 7.892091 0.048205 -4.850692 5.549897 -2.527865 0.053090
    17 7.140172 4.528080 -0.306061 1.565348 -3.126019 0.652545
    18 -0.017232 -8.424515 -0.092415 -0.218094 0.524814 -0.124351
    19 -0.488518 -2.755602 -0.228260 0.106454 0.010332 -0.264490
    20 0.039887 -1.479790 0.029854 -0.055395 0.000000 0.000001
    21 0.028786 -1.075731 -0.023109 0.002099 0.000000 0.000000
    22 0.250027 -2.820665 -0.238396 0.041826 -0.002921 0.008443
    23 -0.049759 -1.680544 0.100479 0.019826 0.000000 -0.000002
    24 -0.034142 -1.148312 0.084782 -0.040115 0.000000 0.000000
    25 0.957766 -2.746780 -0.090302 -0.017221 -0.162277 0.191558
    26 -0.033420 -1.397129 -0.011257 0.013931 0.000000 -0.000001
    27 -0.022360 -0.957436 0.018784 0.003845 0.000000 0.000000
    28 -1.180681 -2.507217 -0.193859 0.082999 0.013294 -0.477915
    29 -0.024967 -1.123934 0.017597 -0.018065 0.000000 0.000001
    30 -0.020057 -0.890968 0.010090 -0.060797 0.000000 0.000000
    31 0.583510 -1.197277 0.185379 0.158049 -0.404973 -0.364290
    32 1.535927 0.010246 0.005009 -0.002964 -0.012979 0.000887
    33 1.100771 0.004527 -0.010679 -0.002796 0.015973 0.003458
    34 0.120153 -0.050270 -0.054489 0.287569 3.110905 1.561085
    35 -10.470299 -7.028190 -1.692741 0.287036 -3.421816 0.045336
    36 0.069599 -8.458231 0.014073 0.328928 -0.369730 0.289158
    37 0.447953 -2.798986 -0.200443 -1.193531 0.050462 0.255255
    38 -0.032909 -1.499736 0.036191 -1.634095 0.022855 -0.033375
    39 -0.027022 -1.127703 -0.020210 -1.225211 0.024245 -0.022112
    40 -0.249534 -2.846964 -0.174213 -0.984834 0.030124 0.067838
    41 0.043235 -1.656596 0.056948 -1.819831 -0.024825 0.014862
    42 0.031729 -1.141298 0.058838 -1.070711 -0.011858 0.005963
    43 -0.963866 -2.785145 -0.085350 -0.841152 0.100268 -0.130339
    44 0.028479 -1.418692 -0.032793 -1.568382 -0.051917 -0.038027
    45 0.021413 -0.942156 0.012233 -0.917743 -0.023454 -0.032694
    46 1.164475 -2.543940 -0.170330 -1.248507 -0.042261 0.361521
    47 0.024032 -1.156387 -0.009538 -1.603655 0.039309 0.069835
    48 0.014898 -0.907427 -0.008129 -1.436262 0.027121 0.066059
    49 -0.586770 -1.264477 0.200161 -0.178526 -0.743435 -2.481839
    50 1.550180 0.039149 0.016848 -0.010347 -0.003779 0.573393
    51 1.110134 0.040611 -0.005766 -0.038198 -0.031130 1.346756
    52 -0.139399 -0.111698 0.014397 0.074775 0.219084 1.592828
    53 -5.881888 6.491449 -0.368343 1.580133 -0.021392 -0.941471
  time 5
    0 5.271583 -2.636285 -7.345781 -0.021499 -0.066586 0.028188
    1 0.000001 0.701297 0.849854 0.000000 0.000000 0.000000
    2 -0.000001 -1.738945 1.116327 0.000000 0.000000 0.000000
    3 -0.297734 -5.341946 2.396937 0.000000 0.000000 0.000000
    4 0.221142 -0.350996 0.431416 0.000000 0.000000 3.141592
    5 0.477511 0.000000 0.275377 0.000000 -0.026181 0.000000
    6 0.541041 -0.015623 0.044966 0.000000 0.043633 0.000000
    7 0.428258 -0.058596 -0.270081 0.000000 1.298991 0.000000
    8 0.497090 0.113283 0.046301 0.000000 0.245616 0.000000
    9 0.513723 -0.050783 0.096828 0.000000 -0.228036 0.000000
    10 0.519992 0.000000 -0.110339 0.000000 0.177510 0.000000
    11 0.529985 -0.000004 -0.013396 0.000012 0.059262 0.000203
    12 0.012492 -7.011953 3.615968 1.570796 0.000001 -1.570796
    13 1.263050 0.374895 1.954941 0.000001 0.000000 0.000001
    14 0.027010 -21.283039 1.057788 1.341809 -0.001341 -1.568878
    15 2.040279 -2.306023 -10.155941 0.000000 0.000000 0.518760
    16 7.892091 0.048205 -4.850692 5.549897 -2.527865 0.053090
    17 7.140172 4.528080 -0.306061 1.565348 -3.126019 0.652545
    18 -0.017232 -8.424515 -0.092415 -0.218094 0.524814 -0.124351
    19 -0.488518 -2.755602 -0.228260 0.106454 0.010332 -0.264490
    20 0.039887 -1.479790 0.029854 -0.055395 0.000000 0.000001
    21 0.028786 -1.075731 -0.023109 0.002099 0.000000 0.000000
    22 0.250027 -2.820665 -0.238396 0.041826 -0.002921 0.008443
    23 -0.049759 -1.680544 0.100479 0.019826 0.000000 -0.000002
    24 -0.034142 -1.148312 0.084782 -0.040115 0.000000 0.000000
    25 0.957766 -2.746780 -0.090302 -0.017221 -0.162277 0.191558
    26 -0.033420 -1.397129 -0.011257 0.013931 0.000000 -0.000001
    27 -0.022360 -0.957436 0.018784 0.003845 0.000000 0.000000
    28 -1.180681 -2.507217 -0.193859 0.082999 0.013294 -0.477915
    29 -0.024967 -1.123934 0.017597 -0.018065 0.000000 0.000001
    30 -0.020057 -0.890968 0.010090 -0.060797 0.000000 0.000000
    31 0.583510 -1.197277 0.185379 0.158049 -0.404973 -0.364290
    32 1.535927 0.010246 0.005009 -0.002964 -0.012979 0.000887
    33 1.100771 0.004527 -0.010679 -0.002796 0.015973 0.003458
    34 0.120153 -0.050270 -0.054489 0.287569 3.110905 1.561085
    35 -10.575771 -6.934437 -1.579456 0.307796 -3.420166 0.022040
    36 0.085225 -8.446512 -0.001552 0.262065 -0.277662 0.285311
    37 0.447953 -2.798986 -0.200443 -1.193531 0.050462 0.255255
    38 -0.032909 -1.499736 0.036191 -1.634095 0.022855 -0.033375
    39 -0.027022 -1.127703 -0.020210 -1.225211 0.024245 -0.022112
    40 -0.249534 -2.846964 -0.174213 -0.984834 0.030124 0.067838
    41 0.043235 -1.656596 0.056948 -1.819831 -0.024825 0.014862
    42 0.031729 -1.141298 0.058838 -1.070711 -0.011858 0.005963
    43 -0.963866 -2.785145 -0.085350 -0.841152 0.100268 -0.130339
    44 0.028479 -1.418692 -0.032793 -1.568382 -0.051917 -0.038027
    45 0.021413 -0.942156 0.012233 -0.917743 -0.023454 -0.032694
    46 1.164475 -2.543940 -0.170330 -1.248507 -0.042261 0.361521
    47 0.024032 -1.156387 -0.009538 -1.603655 0.039309 0.069835
    48 0.014898 -0.907427 -0.008129 -1.436262 0.027121 0.066059
    49 -0.586770 -1.264477 0.200161 -0.178526 -0.743435 -2.481839
    50 1.550180 0.039149 0.016848 -0.010347 -0.003779 0.573393
    51 1.110134 0.040611 -0.005766 -0.038198 -0.031130 1.346756
    52 -0.139399 -0.111698 0.014397 0.074775 0.219084 1.592828
    53 -5.838918 6.534419 -0.368343 1.580229 -0.021201 -0.949129
  time 6
    0 5.271583 -2.745663 -7.365313 0.004064 -0.080500 0.029243
    1 0.000001 0.701297 0.849854 0.000000 0.000000 0.000000
    2 -0.000001 -1.738945 1.116327 0.000000 0.000000 0.000000
    3 -0.297734 -5.341946 2.396937 0.000000 0.000000 0.000000
    4 0.221142 -0.350996 0.431416 0.000000 0.000000 3.141592
    5 0.477511 0.000000 0.275377 0.000000 -0.026181 0.000000
    6 0.541041 0.035159 0.044966 0.000000 0.043633 0.000000
    7 0.428258 0.058596 -0.270081 0.000000 1.298991 0.000000
    8 0.497090 0.093751 0.046301 0.000000 0.245616 0.000000
    9 0.513723 -0.199225 0.096828 0.000000 -0.228036 0.000000
    10 0.519992 0.000000 -0.110339 0.000000 0.177510 0.000000
    11 0.529985 -0.000004 -0.013396 0.000012 0.059262 0.000203
    12 0.012492 -7.011953 3.615968 1.570796 0.000001 -1.570796
    13 1.263050 0.374895 1.954941 0.000001 0.000000 0.000001
    14 0.027010 -21.283039 1.057788 1.249947 0.000001 -1.570796
    15 2.040279 -2.306023 -10.155941 0.000000 0.000000 0.518760
    16 7.892091 0.048205 -4.850692 5.549897 -2.527865 0.053090
    17 7.140172 4.528080 -0.306061 1.565348 -3.126019 0.652545
    18 -0.017232 -8.424515 -0.092415 -0.218094 0.524814 -0.124351
    19 -0.488518 -2.755602 -0.228260 0.106454 0.010332 -0.264490
    20 0.039887 -1.479790 0.029854 -0.055395 0.000000 0.000001
    21 0.028786 -1.075731 -0.023109 0.002099 0.000000 0.000000
    22 0.250027 -2.820665 -0.238396 0.041826 -0.002921 0.008443
    23 -0.049759 -1.680544 0.100479 0.019826 0.000000 -0.000002
    24 -0.034142 -1.148312 0.084782 -0.040115 0.000000 0.000000
    25 0.957766 -2.746780 -0.090302 -0.017221 -0.162277 0.191558
    26 -0.033420 -1.397129 -0.011257 0.013931 0.000000 -0.000001
    27 -0.022360 -0.957436 0.018784 0.003845 0.000000 0.000000
    28 -1.180681 -2.507217 -0.193859 0.082999 0.013294 -0.477915
    29 -0.024967 -1.123934 0.017597 -0.018065 0.000000 0.000001
    30 -0.020057 -0.890968 0.010090 -0.060797 0.000000 0.000000
    31 0.583510 -1.197277 0.185379 0.158049 -0.404973 -0.364290
    32 1.535927 0.010246 0.005009 -0.002964 -0.012979 0.000887
    33 1.100771 0.004527 -0.010679 -0.002796 0.015973 0.003458
    34 0.120153 -0.050270 -0.054489 0.287569 3.110905 1.561085
    35 -10.642179 -6.875841 -1.583363 0.306947 -3.425390 -0.000876
    36 0.096944 -8.438699 -0.013271 0.214442 -0.205840 0.273259
    37 0.447953 -2.798986 -0.200443 -1.193531 0.050462 0.255255
    38 -0.032909 -1.499736 0.036191 -1.634095 0.022855 -0.033375
    39 -0.027022 -1.127703 -0.020210 -1.225211 0.024245 -0.022112
    40 -0.249534 -2.846964 -0.174213 -0.984834 0.030124 0.067838
    41 0.043235 -1.656596 0.056948 -1.819831 -0.024825 0.014862
    42 0.031729 -1.141298 0.058838 -1.070711 -0.011858 0.005963
    43 -0.963866 -2.785145 -0.085350 -0.841152 0.100268 -0.130339
    44 0.028479 -1.418692 -0.032793 -1.568382 -0.051917 -0.038027
    45 0.021413 -0.942156 0.012233 -0.917743 -0.023454 -0.032694
    46 1.164475 -2.543940 -0.170330 -1.248507 -0.042261 0.361521
    47 0.024032 -1.156387 -0.009538 -1.603655 0.039309 0.069835
    48 0.014898 -0.907427 -0.008129 -1.436262 0.027121 0.066059
    49 -0.586770 -1.264477 0.200161 -0.178526 -0.743435 -2.481839
    50 1.550180 0.039149 0.016848 -0.010347 -0.003779 0.573393
    51 1.110134 0.040611 -0.005766 -0.038198 -0.031130 1.346756
    52 -0.139399 -0.111698 0.014397 0.074775 0.219084 1.592828
    53 -5.780323 6.593015 -0.368343 1.580325 -0.021010 -0.959276
  time 7
    0 5.271583 -2.874573 -7.380938 0.031351 -0.094726 0.026764
    1 0.000001 0.701297 0.849854 0.000000 0.000000 0.000000
    2 -0.000001 -1.738945 1.116327 0.000000 0.000000 0.000000
    3 -0.297734 -5.341946 2.396937 0.000000 0.000000 0.000000
    4 0.221142 -0.350996 0.431416 0.000000 0.000000 3.141592
    5 0.477511 0.000000 0.275377 0.000000 -0.026181 0.000000
    6 0.541041 0.093755 0.044966 0.000000 0.043633 0.000000
    7 0.428258 0.183599 -0.270081 0.000000 1.298991 0.000000
    8 0.497090 0.074219 0.046301 0.000000 0.245616 0.000000
    9 0.513723 -0.347667 0.096828 0.000000 -0.228036 0.000000
    10 0.519992 0.000000 -0.110339 0.000000 0.177510 0.000000
    11 0.529985 -0.000004 -0.013396 0.000012 0.059262 0.000203
    12 0.012492 -7.011953 3.615968 1.570796 0.000001 -1.570796
    13 1.263050 0.374895 1.954941 0.000001 0.000000 0.000001
    14 0.027010 -21.283039 1.057788 1.204015 0.000576 -1.571851
    15 2.040279 -2.306023 -10.155941 0.000000 0.000000 0.518760
    16 7.892091 0.048205 -4.850692 5.549897 -2.527865 0.053090
    17 7.140172 4.528080 -0.306061 1.565348 -3.126019 0.652545
    18 -0.017232 -8.424515 -0.092415 -0.218094 0.524814 -0.124351
    19 -0.488518 -2.755602 -0.228260 0.106454 0.010332 -0.264490
    20 0.039887 -1.479790 0.029854 -0.055395 0.000000 0.000001
    21 0.028786 -1.075731 -0.023109 0.002099 0.000000 0.000000
    22 0.250027 -2.820665 -0.238396 0.041826 -0.002921 0.008443
    23 -0.049759 -1.680544 0.100479 0.019826 0.000000 -0.000002
    24 -0.034142 -1.148312 0.084782 -0.040115 0.000000 0.000000
    25 0.957766 -2.746780 -0.090302 -0.017221 -0.162277 0.191558
    26 -0.033420 -1.397129 -0.011257 0.013931 0.000000 -0.000001
    27 -0.022360 -0.957436 0.018784 0.003845 0.000000 0.000000
    28 -1.180681 -2.507217 -0.193859 0.082999 0.013294 -0.477915
    29 -0.024967 -1.123934 0.017597 -0.018065 0.000000 0.000001
    30 -0.020057 -0.890968 0.010090 -0.060797 0.000000 0.000000
    31 0.583510 -1.197277 0.185379 0.158049 -0.404973 -0.364290
    32 1.535927 0.010246 0.005009 -0.002964 -0.012979 0.000887
    33 1.100771 0.004527 -0.010679 -0.002796 0.015973 0.003458
    34 0.120153 -0.050270 -0.054489 0.287569 3.110905 1.561085
    35 -10.685149 -6.836778 -1.716179 0.285338 -3.436021 -0.017611
    36 0.100850 -8.434793 -0.017178 0.200250 -0.177748 0.264113
    37 0.447953 -2.798986 -0.200443 -1.193531 0.050462 0.255255
    38 -0.032909 -1.499736 0.036191 -1.634095 0.022855 -0.033375
    39 -0.027022 -1.127703 -0.020210 -1.225211 0.024245 -0.022112
    40 -0.249534 -2.846964 -0.174213 -0.984834 0.030124 0.067838
    41 0.043235 -1.656596 0.056948 -1.819831 -0.024825 0.014862
    42 0.031729 -1.141298 0.058838 -1.070711 -0.011858 0.005963
    43 -0.963866 -2.785145 -0.085350 -0.841152 0.100268 -0.130339
    44 0.028479 -1.418692 -0.032793 -1.568382 -0.051917 -0.038027
    45 0.021413 -0.942156 0.012233 -0.917743 -0.023454 -0.032694
    46 1.164475 -2.543940 -0.170330 -1.248507 -0.042261 0.361521
    47 0.024032 -1.156387 -0.009538 -1.603655 0.039309 0.069835
    48 0.014898 -0.907427 -0.008129 -1.436262 0.027121 0.066059
    49 -0.586770 -1.264477 0.200161 -0.178526 -0.743435 -2.481839
    50 1.550180 0.039149 0.016848 -0.010347 -0.003779 0.573393
    51 1.110134 0.040611 -0.005766 -0.038198 -0.031130 1.346756
    52 -0.139399 -0.111698 0.014397 0.074775 0.219084 1.592828
    53 -5.768604 6.604734 -0.368343 1.580325 -0.020914 -0.960903
  time 8
    0 5.271583 -2.999577 -7.392657 0.050453 -0.103882 0.023230
    1 0.000001 0.701297 0.849854 0.000000 0.000000 0.000000
    2 -0.000001 -1.738945 1.116327 0.000000 0.000000 0.000000
    3 -0.297734 -5.341946 2.396937 0.000000 0.000000 0.000000
    4 0.221142 -0.350996 0.431416 0.000000 0.000000 3.141592
    5 0.477511 0.000000 0.275377 0.000000 -0.026181 0.000000
    6 0.541041 0.062504 0.044966 0.000000 0.043633 0.000000
    7 0.428258 0.121097 -0.270081 0.000000 1.298991 0.000000
    8 0.497090 0.050781 0.046301 0.000000 0.245616 0.000000
    9 0.513723 -0.230476 0.096828 0.000000 -0.228036 0.000000
    10 0.519992 0.000000 -0.110339 0.000000 0.177510 0.000000
    11 0.529985 -0.000004 -0.013396 0.000012 0.059262 0.000203
    12 0.012492 -7.011953 3.615968 1.570796 0.000001 -1.570796
    13 1.263050 0.374895 1.954941 0.000001 0.000000 0.000001
    14 0.027010 -21.283039 1.057788 1.170141 0.001056 -1.572618
    15 2.040279 -2.306023 -10.155941 0.000000 0.000000 0.518760
    16 7.892091 0.048205 -4.850692 5.549897 -2.527865 0.053090
    17 7.140172 4.528080 -0.306061 1.565348 -3.126019 0.652545
    18 -0.017232 -8.424515 -0.092415 -0.218094 0.524814 -0.124351
    19 -0.488518 -2.755602 -0.228260 0.106454 0.010332 -0.264490
    20 0.039887 -1.479790 0.029854 -0.055395 0.000000 0.000001
    21 0.028786 -1.075731 -0.023109 0.002099 0.000000 0.000000
    22 0.250027 -2.820665 -0.238396 0.041826 -0.002921 0.008443
    23 -0.049759 -1.680544 0.100479 0.019826 0.000000 -0.000002
    24 -0.034142 -1.148312 0.084782 -0.040115 0.000000 0.000000
    25 0.957766 -2.746780 -0.090302 -0.017221 -0.162277 0.191558
    26 -0.033420 -1.397129 -0.011257 0.013931 0.000000 -0.000001
    27 -0.022360 -0.957436 0.018784 0.003845 0.000000 0.000000
    28 -1.180681 -2.507217 -0.193859 0.082999 0.013294 -0.477915
    29 -0.024967 -1.123934 0.017597 -0.018065 0.000000 0.000001
    30 -0.020057 -0.890968 0.010090 -0.060797 0.000000 0.000000
    31 0.583510 -1.197277 0.185379 0.158049 -0.404973 -0.364290
    32 1.535927 0.010246 0.005009 -0.002964 -0.012979 0.000887
    33 1.100771 0.004527 -0.010679 -0.002796 0.015973 0.003458
    34 0.120153 -0.050270 -0.054489 0.287569 3.110905 1.561085
    35 -10.700775 -6.825058 -1.790400 0.270334 -3.444361 -0.035107
    36 0.104757 -8.434793 -0.021084 0.188399 -0.155228 0.253002
    37 0.447953 -2.798986 -0.200443 -1.193531 0.050462 0.255255
    38 -0.032909 -1.499736 0.036191 -1.634095 0.022855 -0.033375
    39 -0.027022 -1.127703 -0.020210 -1.225211 0.024245 -0.022112
    40 -0.249534 -2.846964 -0.174213 -0.984834 0.030124 0.067838
    41 0.043235 -1.656596 0.056948 -1.819831 -0.024825 0.014862
    42 0.031729 -1.141298 0.058838 -1.070711 -0.011858 0.005963
    43 -0.963866 -2.785145 -0.085350 -0.841152 0.100268 -0.130339
    44 0.028479 -1.418692 -0.032793 -1.568382 -0.051917 -0.038027
    45 0.021413 -0.942156 0.012233 -0.917743 -0.023454 -0.032694
    46 1.164475 -2.543940 -0.170330 -1.248507 -0.042261 0.361521
    47 0.024032 -1.156387 -0.009538 -1.603655 0.039309 0.069835
    48 0.014898 -0.907427 -0.008129 -1.436262 0.027121 0.066059
    49 -0.586770 -1.264477 0.200161 -0.178526 -0.743435 -2.481839
    50 1.550180 0.039149 0.016848 -0.010347 -0.003779 0.573393
    51 1.110134 0.040611 -0.005766 -0.038198 -0.031130 1.346756
    52 -0.139399 -0.111698 0.014397 0.074775 0.219084 1.592828
    53 -5.698289 6.671142 -0.364437 1.580420 -0.020627 -0.972869
  time 9
    0 5.271583 -3.116768 -7.392657 0.057197 -0.105752 0.022281
    1 0.000001 0.701297 0.849854 0.000000 0.000000 0.000000
    2 -0.000001 -1.738945 1.116327 0.000000 0.000000 0.000000
    3 -0.297734 -5.341946 2.396937 0.000000 0.000000 0.000000
    4 0.221142 -0.350996 0.431416 0.000000 0.000000 3.141592
    5 0.477511 0.000000 0.275377 0.000000 -0.026181 0.000000
    6 0.541041 0.031253 0.044966 0.000000 0.043633 0.000000
    7 0.428258 0.058596 -0.270081 0.000000 1.298991 0.000000
    8 0.497090 0.023436 0.046301 0.000000 0.245616 0.000000
    9 0.513723 -0.113285 0.096828 0.000000 -0.228036 0.000000
    10 0.519992 0.000000 -0.110339 0.000000 0.177510 0.000000
    11 0.529985 -0.000004 -0.013396 0.000012 0.059262 0.000203
    12 0.012492 -7.011953 3.615968 1.570796 0.000001 -1.570796
    13 1.263050 0.374895 1.954941 0.000001 0.000000 0.000001
    14 0.027010 -21.283039 1.057788 1.147845 0.001343 -1.573193
    15 2.040279 -2.306023 -10.155941 0.000000 0.000000 0.518760
    16 7.892091 0.048205 -4.850692 5.549897 -2.527865 0.053090
    17 7.140172 4.528080 -0.306061 1.565348 -3.126019 0.652545
    18 -0.017232 -8.424515 -0.092415 -0.218094 0.524814 -0.124351
    19 -0.488518 -2.755602 -0.228260 0.106454 0.010332 -0.264490
    20 0.039887 -1.479790 0.029854 -0.055395 0.000000 0.000001
    21 0.028786 -1.075731 -0.023109 0.002099 0.000000 0.000000
    22 0.250027 -2.820665 -0.238396 0.041826 -0.002921 0.008443
    23 -0.049759 -1.680544 0.100479 0.019826 0.000000 -0.000002
    24 -0.034142 -1.148312 0.084782 -0.040115 0.000000 0.000000
    25 0.957766 -2.746780 -0.090302 -0.017221 -0.162277 0.191558
    26 -0.033420 -1.397129 -0.011257 0.013931 0.000000 -0.000001
    27 -0.022360 -0.957436 0.018784 0.003845 0.000000 0.000000
    28 -1.180681 -2.507217 -0.193859 0.082999 0.013294 -0.477915
    29 -0.024967 -1.123934 0.017597 -0.018065 0.000000 0.000001
    30 -0.020057 -0.890968 0.010090 -0.060797 0.000000 0.000000
    31 0.583510 -1.197277 0.185379 0.158049 -0.404973 -0.364290
    32 1.535927 0.010246 0.005009 -0.002964 -0.012979 0.000887
    33 1.100771 0.004527 -0.010679 -0.002796 0.015973 0.003458
    34 0.120153 -0.050270 -0.054489 0.287569 3.110905 1.561085
    35 -10.657805 -6.895373 -1.739618 0.265899 -3.449127 -0.054409
    36 0.108663 -8.434793 -0.024990 0.176548 -0.136178 0.235607
    37 0.447953 -2.798986 -0.200443 -1.193531 0.050462 0.255255
    38 -0.032909 -1.499736 0.036191 -1.634095 0.022855 -0.033375
    39 -0.027022 -1.127703 -0.020210 -1.225211 0.024245 -0.022112
    40 -0.249534 -2.846964 -0.174213 -0.984834 0.030124 0.067838
    41 0.043235 -1.656596 0.056948 -1.819831 -0.024825 0.014862
    42 0.031729 -1.141298 0.058838 -1.070711 -0.011858 0.005963
    43 -0.963866 -2.785145 -0.085350 -0.841152 0.100268 -0.130339
    44 0.028479 -1.418692 -0.032793 -1.568382 -0.051917 -0.038027
    45 0.021413 -0.942156 0.012233 -0.917743 -0.023454 -0.032694
    46 1.164475 -2.543940 -0.170330 -1.248507 -0.042261 0.361521
    47 0.024032 -1.156387 -0.009538 -1.603655 0.039309 0.069835
    48 0.014898 -0.907427 -0.008129 -1.436262 0.027121 0.066059
    49 -0.586770 -1.264477 0.200161 -0.178526 -0.743435 -2.481839
    50 1.550180 0.039149 0.016848 -0.010347 -0.003779 0.573393
    51 1.110134 0.040611 -0.005766 -0.038198 -0.031130 1.346756
    52 -0.139399 -0.111698 0.014397 0.074775 0.219084 1.592828
    53 -5.475626 6.878180 -0.356624 1.580708 -0.019669 -1.010011
  time 10
    0 5.271583 -3.245679 -7.380938 0.055743 -0.102324 0.023916
    1 0.000001 0.701297 0.849854 0.000000 0.000000 0.000000
    2 -0.000001 -1.738945 1.116327 0.000000 0.000000 0.000000
    3 -0.297734 -5.341946 2.396937 0.000000 0.000000 0.000000
    4 0.221142 -0.350996 0.431416 0.000000 0.000000 3.141592
    5 0.477511 0.000000 0.275377 0.000000 -0.026181 0.000000
    6 0.541041 0.000002 0.044966 0.000000 0.043633 0.000000
    7 0.428258 0.000000 -0.270081 0.000000 1.298991 0.000000
    8 0.497090 -0.000002 0.046301 0.000000 0.245616 0.000000
    9 0.513723 0.000000 0.096828 0.000000 -0.228036 0.000000
    10 0.519992 0.000000 -0.110339 0.000000 0.177510 0.000000
    11 0.529985 -0.000004 -0.013396 0.000012 0.059262 0.000203
    12 0.012492 -7.011953 3.615968 1.570796 0.000001 -1.570796
    13 1.263050 0.374895 1.954941 0.000001 0.000000 0.000001
    14 0.027010 -21.283039 1.057788 1.136745 0.001439 -1.573481
    15 2.040279 -2.306023 -10.155941 0.000000 0.000000 0.518760
    16 7.892091 0.048205 -4.850692 5.549897 -2.527865 0.053090
    17 7.140172 4.528080 -0.306061 1.565348 -3.126019 0.652545
    18 -0.017232 -8.424515 -0.092415 -0.218094 0.524814 -0.124351
    19 -0.488518 -2.755602 -0.228260 0.106454 0.010332 -0.264490
    20 0.039887 -1.479790 0.029854 -0.055395 0.000000 0.000001
    21 0.028786 -1.075731 -0.023109 0.002099 0.000000 0.000000
    22 0.250027 -2.820665 -0.238396 0.041826 -0.002921 0.008443
    23 -0.049759 -1.680544 0.100479 0.019826 0.000000 -0.000002
    24 -0.034142 -1.148312 0.084782 -0.040115 0.000000 0.000000
    25 0.957766 -2.746780 -0.090302 -0.017221 -0.162277 0.191558
    26 -0.033420 -1.397129 -0.011257 0.013931 0.000000 -0.000001
    27 -0.022360 -0.957436 0.018784 0.003845 0.000000 0.000000
    28 -1.180681 -2.507217 -0.193859 0.082999 0.013294 -0.477915
    29 -0.024967 -1.123934 0.017597 -0.018065 0.000000 0.000001
    30 -0.020057 -0.890968 0.010090 -0.060797 0.000000 0.000000
    31 0.583510 -1.197277 0.185379 0.158049 -0.404973 -0.364290
    32 1.535927 0.010246 0.005009 -0.002964 -0.012979 0.000887
    33 1.100771 0.004527 -0.010679 -0.002796 0.015973 0.003458
    34 0.120153 -0.050270 -0.054489 0.287569 3.110905 1.561085
    35 -10.544520 -7.036002 -1.610707 0.265899 -3.452976 -0.077040
    36 0.112569 -8.438699 -0.028897 0.167184 -0.122587 0.211119
    37 0.447953 -2.798986 -0.200443 -1.193531 0.050462 0.255255
    38 -0.032909 -1.499736 0.036191 -1.634095 0.022855 -0.033375
    39 -0.027022 -1.127703 -0.020210 -1.225211 0.024245 -0.022112
    40 -0.249534 -2.846964 -0.174213 -0.984834 0.030124 0.067838
    41 0.043235 -1.656596 0.056948 -1.819831 -0.024825 0.014862
    42 0.031729 -1.141298 0.058838 -1.070711 -0.011858 0.005963
    43 -0.963866 -2.785145 -0.085350 -0.841152 0.100268 -0.130339
    44 0.028479 -1.418692 -0.032793 -1.568382 -0.051917 -0.038027
    45 0.021413 -0.942156 0.012233 -0.917743 -0.023454 -0.032694
    46 1.164475 -2.543940 -0.170330 -1.248507 -0.042261 0.361521
    47 0.024032 -1.156387 -0.009538 -1.603655 0.039309 0.069835
    48 0.014898 -0.907427 -0.008129 -1.436262 0.027121 0.066059
    49 -0.586770 -1.264477 0.200161 -0.178526 -0.743435 -2.481839
    50 1.550180 0.039149 0.016848 -0.010347 -0.003779 0.573393
    51 1.110134 0.040611 -0.005766 -0.038198 -0.031130 1.346756
    52 -0.139399 -0.111698 0.014397 0.074775 0.219084 1.592828
    53 -5.084989 7.206315 -0.344905 1.581092 -0.018042 -1.071754
  time 11
    0 5.271583 -3.374589 -7.365313 0.048434 -0.094966 0.026605
    1 0.000001 0.701297 0.849854 0.000000 0.000000 0.000000
    2 -0.000001 -1.738945 1.116327 0.000000 0.000000 0.000000
    3 -0.297734 -5.341946 2.396937 0.000000 0.000000 0.000000
    4 0.221142 -0.350996 0.431416 0.000000 0.000000 3.141592
    5 0.477511 0.000000 0.275377 0.000000 -0.026181 0.000000
    6 0.541041 0.000002 0.044966 0.000000 0.043633 0.000000
    7 0.428258 0.000000 -0.270081 0.000000 1.298991 0.000000
    8 0.497090 -0.000002 0.046301 0.000000 0.245616 0.000000
    9 0.513723 0.000000 0.096828 0.000000 -0.228036 0.000000
    10 0.519992 0.000000 -0.110339 0.000000 0.177510 0.000000
    11 0.529985 -0.000004 -0.013396 0.000012 0.059262 0.000203
    12 0.012492 -7.011953 3.615968 1.570796 0.000001 -1.570796
    13 1.263050 0.374895 1.954941 0.000001 0.000000 0.000001
    14 0.027010 -21.283039 1.057788 1.136745 0.001439 -1.573481
    15 2.040279 -2.306023 -10.155941 0.000000 0.000000 0.518760
    16 7.892091 0.048205 -4.850692 5.549897 -2.527865 0.053090
    17 7.140172 4.528080 -0.306061 1.565348 -3.126019 0.652545
    18 -0.017232 -8.424515 -0.092415 -0.218094 0.524814 -0.124351
    19 -0.488518 -2.755602 -0.228260 0.106454 0.010332 -0.264490
    20 0.039887 -1.479790 0.029854 -0.055395 0.000000 0.000001
    21 0.028786 -1.075731 -0.023109 0.002099 0.000000 0.000000
    22 0.250027 -2.820665 -0.238396 0.041826 -0.002921 0.008443
    23 -0.049759 -1.680544 0.100479 0.019826 0.000000 -0.000002
    24 -0.034142 -1.148312 0.084782 -0.040115 0.000000 0.000000
    25 0.957766 -2.746780 -0.090302 -0.017221 -0.162277 0.191558
    26 -0.033420 -1.397129 -0.011257 0.013931 0.000000 -0.000001
    27 -0.022360 -0.957436 0.018784 0.003845 0.000000 0.000000
    28 -1.180681 -2.507217 -0.193859 0.082999 0.013294 -0.477915
    29 -0.024967 -1.123934 0.017597 -0.018065 0.000000 0.000001
    30 -0.020057 -0.890968 0.010090 -0.060797 0.000000 0.000000
    31 0.583510 -1.197277 0.185379 0.158049 -0.404973 -0.364290
    32 1.535927 0.010246 0.005009 -0.002964 -0.012979 0.000887
    33 1.100771 0.004527 -0.010679 -0.002796 0.015973 0.003458
    34 0.120153 -0.050270 -0.054489 0.287569 3.110905 1.561085
    35 -10.376546 -7.227414 -1.423202 0.267220 -3.457375 -0.103664
    36 0.116476 -8.442606 -0.032803 0.161917 -0.115422 0.180647
    37 0.447953 -2.798986 -0.200443 -1.193531 0.050462 0.255255
    38 -0.032909 -1.499736 0.036191 -1.634095 0.022855 -0.033375
    39 -0.027022 -1.127703 -0.020210 -1.225211 0.024245 -0.022112
    40 -0.249534 -2.846964 -0.174213 -0.984834 0.030124 0.067838
    41 0.043235 -1.656596 0.056948 -1.819831 -0.024825 0.014862
    42 0.031729 -1.141298 0.058838 -1.070711 -0.011858 0.005963
    43 -0.963866 -2.785145 -0.085350 -0.841152 0.100268 -0.130339
    44 0.028479 -1.418692 -0.032793 -1.568382 -0.051917 -0.038027
    45 0.021413 -0.942156 0.012233 -0.917743 -0.023454 -0.032694
    46 1.164475 -2.543940 -0.170330 -1.248507 -0.042261 0.361521
    47 0.024032 -1.156387 -0.009538 -1.603655 0.039309 0.069835
    48 0.014898 -0.907427 -0.008129 -1.436262 0.027121 0.066059
    49 -0.586770 -1.264477 0.200161 -0.178526 -0.743435 -2.481839
    50 1.550180 0.039149 0.016848 -0.010347 -0.003779 0.573393
    51 1.110134 0.040611 -0.005766 -0.038198 -0.031130 1.346756
    52 -0.139399 -0.111698 0.014397 0.074775 0.219084 1.592828
    53 -4.538097 7.600858 -0.329279 1.581475 -0.015936 -1.153408
  time 12
    0 5.267676 -3.507405 -7.345781 0.037637 -0.085174 0.028768
    1 0.000001 0.701297 0.849854 0.000000 0.000000 0.000000
    2 -0.000001 -1.738945 1.116327 0.000000 0.000000 0.000000
    3 -0.297734 -5.341946 2.396937 0.000000 0.000000 0.000000
    4 0.221142 -0.350996 0.431416 0.000000 0.000000 3.141592
    5 0.477511 0.000000 0.275377 0.000000 -0.026181 0.000000
    6 0.541041 0.000002 0.044966 0.000000 0.043633 0.000000
    7 0.428258 0.000000 -0.270081 0.000000 1.298991 0.000000
    8 0.497090 -0.000002 0.046301 0.000000 0.245616 0.000000
    9 0.513723 0.000000 0.096828 0.000000 -0.228036 0.000000
    10 0.519992 0.000000 -0.110339 0.000000 0.177510 0.000000
    11 0.529985 -0.000004 -0.013396 0.000012 0.059262 0.000203
    12 0.012492 -7.011953 3.615968 1.570796 0.000001 -1.570796
    13 1.263050 0.374895 1.954941 0.000001 0.000000 0.000001
    14 0.027010 -21.283039 1.057788 1.147845 0.001343 -1.573193
    15 2.040279 -2.306023 -10.155941 0.000000 0.000000 0.518760
    16 7.892091 0.048205 -4.850692 5.549897 -2.527865 0.053090
    17 7.140172 4.528080 -0.306061 1.565348 -3.126019 0.652545
    18 -0.017232 -8.424515 -0.092415 -0.218094 0.524814 -0.124351
    19 -0.488518 -2.755602 -0.228260 0.106454 0.010332 -0.264490
    20 0.039887 -1.479790 0.029854 -0.055395 0.000000 0.000001
    21 0.028786 -1.075731 -0.023109 0.002099 0.000000 0.000000
    22 0.250027 -2.820665 -0.238396 0.041826 -0.002921 0.008443
    23 -0.049759 -1.680544 0.100479 0.019826 0.000000 -0.000002
    24 -0.034142 -1.148312 0.084782 -0.040115 0.000000 0.000000
    25 0.957766 -2.746780 -0.090302 -0.017221 -0.162277 0.191558
    26 -0.033420 -1.397129 -0.011257 0.013931 0.000000 -0.000001
    27 -0.022360 -0.957436 0.018784 0.003845 0.000000 0.000000
    28 -1.180681 -2.507217 -0.193859 0.082999 0.013294 -0.477915
    29 -0.024967 -1.123934 0.017597 -0.018065 0.000000 0.000001
    30 -0.020057 -0.890968 0.010090 -0.060797 0.000000 0.000000
    31 0.583510 -1.197277 0.185379 0.158049 -0.404973 -0.364290
    32 1.535927 0.010246 0.005009 -0.002964 -0.012979 0.000887
    33 1.100771 0.004527 -0.010679 -0.002796 0.015973 0.003458
    34 0.120153 -0.050270 -0.054489 0.287569 3.110905 1.561085
    35 -10.157789 -7.434452 -1.212258 0.267031 -3.463332 -0.134947
    36 0.116476 -8.450418 -0.028897 0.161990 -0.115934 0.145645
    37 0.447953 -2.798986 -0.200443 -1.193531 0.050462 0.255255
    38 -0.032909 -1.499736 0.036191 -1.634095 0.022855 -0.033375
    39 -0.027022 -1.127703 -0.020210 -1.225211 0.024245 -0.022112
    40 -0.249534 -2.846964 -0.174213 -0.984834 0.030124 0.067838
    41 0.043235 -1.656596 0.056948 -1.819831 -0.024825 0.014862
    42 0.031729 -1.141298 0.058838 -1.070711 -0.011858 0.005963
    43 -0.963866 -2.785145 -0.085350 -0.841152 0.100268 -0.130339
    44 0.028479 -1.418692 -0.032793 -1.568382 -0.051917 -0.038027
    45 0.021413 -0.942156 0.012233 -0.917743 -0.023454 -0.032694
    46 1.164475 -2.543940 -0.170330 -1.248507 -0.042261 0.361521
    47 0.024032 -1.156387 -0.009538 -1.603655 0.039309 0.069835
    48 0.014898 -0.907427 -0.008129 -1.436262 0.027121 0.066059
    49 -0.586770 -1.264477 0.200161 -0.178526 -0.743435 -2.481839
    50 1.550180 0.039149 0.016848 -0.010347 -0.003779 0.573393
    51 1.110134 0.040611 -0.005766 -0.038198 -0.031130 1.346756
    52 -0.139399 -0.111698 0.014397 0.074775 0.219084 1.592828
    53 -3.858389 8.003214 -0.305841 1.581667 -0.013351 -1.249421
  time 13
    0 5.267676 -3.636315 -7.322343 0.025630 -0.074676 0.029190
    1 0.000001 0.701297 0.849854 0.000000 0.000000 0.000000
    2 -0.000001 -1.738945 1.116327 0.000000 0.000000 0.000000
    3 -0.297734 -5.341946 2.396937 0.000000 0.000000 0.000000
    4 0.221142 -0.350996 0.431416 0.000000 0.000000 3.141592
    5 0.477511 0.000000 0.275377 0.000000 -0.026181 0.000000
    6 0.541041 0.000002 0.044966 0.000000 0.043633 0.000000
    7 0.428258 0.000000 -0.270081 0.000000 1.298991 0.000000
    8 0.497090 -0.000002 0.046301 0.000000 0.245616 0.000000
    9 0.513723 0.000000 0.096828 0.000000 -0.228036 0.000000
    10 0.519992 0.000000 -0.110339 0.000000 0.177510 0.000000
    11 0.529985 -0.000004 -0.013396 0.000012 0.059262 0.000203
    12 0.012492 -7.011953 3.615968 1.570796 0.000001 -1.570796
    13 1.263050 0.374895 1.954941 0.000001 0.000000 0.000001
    14 0.027010 -21.283039 1.057788 1.170141 0.001056 -1.572618
    15 2.040279 -2.306023 -10.155941 0.000000 0.000000 0.518760
    16 7.892091 0.048205 -4.850692 5.549897 -2.527865 0.053090
    17 7.140172 4.528080 -0.306061 1.565348 -3.126019 0.652545
    18 -0.017232 -8.424515 -0.092415 -0.218094 0.524814 -0.124351
    19 -0.488518 -2.755602 -0.228260 0.106454 0.010332 -0.264490
    20 0.039887 -1.479790 0.029854 -0.055395 0.000000 0.000001
    21 0.028786 -1.075731 -0.023109 0.002099 0.000000 0.000000
    22 0.250027 -2.820665 -0.238396 0.041826 -0.002921 0.008443
    23 -0.049759 -1.680544 0.100479 0.019826 0.000000 -0.000002
    24 -0.034142 -1.148312 0.084782 -0.040115 0.000000 0.000000
    25 0.957766 -2.746780 -0.090302 -0.017221 -0.162277 0.191558
    26 -0.033420 -1.397129 -0.011257 0.013931 0.000000 -0.000001
    27 -0.022360 -0.957436 0.018784 0.003845 0.000000 0.000000
    28 -1.180681 -2.507217 -0.193859 0.082999 0.013294 -0.477915
    29 -0.024967 -1.123934 0.017597 -0.018065 0.000000 0.000001
    30 -0.020057 -0.890968 0.010090 -0.060797 0.000000 0.000000
    31 0.583510 -1.197277 0.185379 0.158049 -0.404973 -0.364290
    32 1.535927 0.010246 0.005009 -0.002964 -0.012979 0.000887
    33 1.100771 0.004527 -0.010679 -0.002796 0.015973 0.003458
    34 0.120153 -0.050270 -0.054489 0.287569 3.110905 1.561085
    35 -9.903875 -7.637583 -1.009127 0.262124 -3.471489 -0.170700
    36 0.116476 -8.454325 -0.028897 0.169159 -0.125942 0.107694
    37 0.447953 -2.798986 -0.200443 -1.193531 0.050462 0.255255
    38 -0.032909 -1.499736 0.036191 -1.634095 0.022855 -0.033375
    39 -0.027022 -1.127703 -0.020210 -1.225211 0.024245 -0.022112
    40 -0.249534 -2.846964 -0.174213 -0.984834 0.030124 0.067838
    41 0.043235 -1.656596 0.056948 -1.819831 -0.024825 0.014862
    42 0.031729 -1.141298 0.058838 -1.070711 -0.011858 0.005963
    43 -0.963866 -2.785145 -0.085350 -0.841152 0.100268 -0.130339
    44 0.028479 -1.418692 -0.032793 -1.568382 -0.051917 -0.038027
    45 0.021413 -0.942156 0.012233 -0.917743 -0.023454 -0.032694
    46 1.164475 -2.543940 -0.170330 -1.248507 -0.042261 0.361521
    47 0.024032 -1.156387 -0.009538 -1.603655 0.039309 0.069835
    48 0.014898 -0.907427 -0.008129 -1.436262 0.027121 0.066059
    49 -0.586770 -1.264477 0.200161 -0.178526 -0.743435 -2.481839
    50 1.550180 0.039149 0.016848 -0.010347 -0.003779 0.573393
    51 1.110134 0.040611 -0.005766 -0.038198 -0.031130 1.346756
    52 -0.139399 -0.111698 0.014397 0.074775 0.219084 1.592828
    53 -3.073209 8.366506 -0.282403 1.581667 -0.010575 -1.354432
  time 14
    0 5.267676 -3.765226 -7.302811 0.014605 -0.065220 0.027871
    1 0.000001 0.701297 0.849854 0.000000 0.000000 0.000000
    2 -0.000001 -1.738945 1.116327 0.000000 0.000000 0.000000
    3 -0.297734 -5.341946 2.396937 0.000000 0.000000 0.000000
    4 0.221142 -0.350996 0.431416 0.000000 0.000000 3.141592
    5 0.477511 0.000000 0.275377 0.000000 -0.026181 0.000000
    6 0.541041 0.000002 0.044966 0.000000 0.043633 0.000000
    7 0.428258 0.000000 -0.270081 0.000000 1.298991 0.000000
    8 0.497090 -0.000002 0.046301 0.000000 0.245616 0.000000
    9 0.513723 0.000000 0.096828 0.000000 -0.228036 0.000000
    10 0.519992 0.000000 -0.110339 0.000000 0.177510 0.000000
    11 0.529985 -0.000004 -0.013396 0.000012 0.059262 0.000203
    12 0.012492 -7.011953 3.615968 1.570796 0.000001 -1.570796
    13 1.263050 0.374895 1.954941 0.000001 0.000000 0.000001
    14 0.027010 -21.283039 1.057788 1.204015 0.000576 -1.571851
    15 2.040279 -2.306023 -10.155941 0.000000 0.000000 0.518760
    16 7.892091 0.048205 -4.850692 5.549897 -2.527865 0.053090
    17 7.140172 4.528080 -0.306061 1.565348 -3.126019 0.652545
    18 -0.017232 -8.424515 -0.092415 -0.218094 0.524814 -0.124351
    19 -0.488518 -2.755602 -0.228260 0.106454 0.010332 -0.264490
    20 0.039887 -1.479790 0.029854 -0.055395 0.000000 0.000001
    21 0.028786 -1.075731 -0.023109 0.002099 0.000000 0.000000
    22 0.250027 -2.820665 -0.238396 0.041826 -0.002921 0.008443
    23 -0.049759 -1.680544 0.100479 0.019826 0.000000 -0.000002
    24 -0.034142 -1.148312 0.084782 -0.040115 0.000000 0.000000
    25 0.957766 -2.746780 -0.090302 -0.017221 -0.162277 0.191558
    26 -0.033420 -1.397129 -0.011257 0.013931 0.000000 -0.000001
    27 -0.022360 -0.957436 0.018784 0.003845 0.000000 0.000000
    28 -1.180681 -2.507217 -0.193859 0.082999 0.013294 -0.477915
    29 -0.024967 -1.123934 0.017597 -0.018065 0.000000 0.000001
    30 -0.020057 -0.890968 0.010090 -0.060797 0.000000 0.000000
    31 0.583510 -1.197277 0.185379 0.158049 -0.404973 -0.364290
    32 1.535927 0.010246 0.005009 -0.002964 -0.012979 0.000887
    33 1.100771 0.004527 -0.010679 -0.002796 0.015973 0.003458
    34 0.120153 -0.050270 -0.054489 0.287569 3.110905 1.561085
    35 -9.618710 -7.832902 -0.837246 0.249291 -3.481479 -0.210541
    36 0.116476 -8.466044 -0.024990 0.185180 -0.147608 0.067692
    37 0.447953 -2.798986 -0.200443 -1.193531 0.050462 0.255255
    38 -0.032909 -1.499736 0.036191 -1.634095 0.022855 -0.033375
    39 -0.027022 -1.127703 -0.020210 -1.225211 0.024245 -0.022112
    40 -0.249534 -2.846964 -0.174213 -0.984834 0.030124 0.067838
    41 0.043235 -1.656596 0.056948 -1.819831 -0.024825 0.014862
    42 0.031729 -1.141298 0.058838 -1.070711 -0.011858 0.005963
    43 -0.963866 -2.785145 -0.085350 -0.841152 0.100268 -0.130339
    44 0.028479 -1.418692 -0.032793 -1.568382 -0.051917 -0.038027
    45 0.021413 -0.942156 0.012233 -0.917743 -0.023454 -0.032694
    46 1.164475 -2.543940 -0.170330 -1.248507 -0.042261 0.361521
    47 0.024032 -1.156387 -0.009538 -1.603655 0.039309 0.069835
    48 0.014898 -0.907427 -0.008129 -1.436262 0.027121 0.066059
    49 -0.586770 -1.264477 0.200161 -0.178526 -0.743435 -2.481839
    50 1.550180 0.039149 0.016848 -0.010347 -0.003779 0.573393
    51 1.110134 0.040611 -0.005766 -0.038198 -0.031130 1.346756
    52 -0.139399 -0.111698 0.014397 0.074775 0.219084 1.592828
    53 -2.205995 8.659484 -0.258965 1.581379 -0.007608 -1.465378
  time 15
    0 5.267676 -3.882417 -7.287185 0.006730 -0.058257 0.025709
    1 0.000001 0.701297 0.849854 0.000000 0.000000 0.000000
    2 -0.000001 -1.738945 1.116327 0.000000 0.000000 0.000000
    3 -0.297734 -5.341946 2.396937 0.000000 0.000000 0.000000
    4 0.221142 -0.350996 0.431416 0.000000 0.000000 3.141592
    5 0.477511 0.000000 0.275377 0.000000 -0.026181 0.000000
    6 0.541041 0.000002 0.044966 0.000000 0.043633 0.000000
    7 0.428258 0.000000 -0.270081 0.000000 1.298991 0.000000
    8 0.497090 -0.000002 0.046301 0.000000 0.245616 0.000000
    9 0.513723 0.000000 0.096828 0.000000 -0.228036 0.000000
    10 0.519992 0.000000 -0.110339 0.000000 0.177510 0.000000
    11 0.529985 -0.000004 -0.013396 0.000012 0.059262 0.000203
    12 0.012492 -7.011953 3.615968 1.570796 0.000001 -1.570796
    13 1.263050 0.374895 1.954941 0.000001 0.000000 0.000001
    14 0.027010 -21.283039 1.057788 1.249947 0.000001 -1.570796
    15 2.040279 -2.306023 -10.155941 0.000000 0.000000 0.518760
    16 7.892091 0.048205 -4.850692 5.549897 -2.527865 0.053090
    17 7.140172 4.528080 -0.306061 1.565348 -3.126019 0.652545
    18 -0.017232 -8.424515 -0.092415 -0.218094 0.524814 -0.124351
    19 -0.488518 -2.755602 -0.228260 0.106454 0.010332 -0.264490
    20 0.039887 -1.479790 0.029854 -0.055395 0.000000 0.000001
    21 0.028786 -1.075731 -0.023109 0.002099 0.000000 0.000000
    22 0.250027 -2.820665 -0.238396 0.041826 -0.002921 0.008443
    23 -0.049759 -1.680544 0.100479 0.019826 0.000000 -0.000002
    24 -0.034142 -1.148312 0.084782 -0.040115 0.000000 0.000000
    25 0.957766 -2.746780 -0.090302 -0.017221 -0.162277 0.191558
    26 -0.033420 -1.397129 -0.011257 0.013931 0.000000 -0.000001
    27 -0.022360 -0.957436 0.018784 0.003845 0.000000 0.000000
    28 -1.180681 -2.507217 -0.193859 0.082999 0.013294 -0.477915
    29 -0.024967 -1.123934 0.017597 -0.018065 0.000000 0.000001
    30 -0.020057 -0.890968 0.010090 -0.060797 0.000000 0.000000
    31 0.583510 -1.197277 0.185379 0.158049 -0.404973 -0.364290
    32 1.535927 0.010246 0.005009 -0.002964 -0.012979 0.000887
    33 1.100771 0.004527 -0.010679 -0.002796 0.015973 0.003458
    34 0.120153 -0.050270 -0.054489 0.287569 3.110905 1.561085
    35 -9.278856 -8.032127 -0.723962 0.224096 -3.492843 -0.255802
    36 0.112569 -8.477763 -0.017178 0.211662 -0.183207 0.023501
    37 0.447953 -2.798986 -0.200443 -1.193531 0.050462 0.255255
    38 -0.032909 -1.499736 0.036191 -1.634095 0.022855 -0.033375
    39 -0.027022 -1.127703 -0.020210 -1.225211 0.024245 -0.022112
    40 -0.249534 -2.846964 -0.174213 -0.984834 0.030124 0.067838
    41 0.043235 -1.656596 0.056948 -1.819831 -0.024825 0.014862
    42 0.031729 -1.141298 0.058838 -1.070711 -0.011858 0.005963
    43 -0.963866 -2.785145 -0.085350 -0.841152 0.100268 -0.130339
    44 0.028479 -1.418692 -0.032793 -1.568382 -0.051917 -0.038027
    45 0.021413 -0.942156 0.012233 -0.917743 -0.023454 -0.032694
    46 1.164475 -2.543940 -0.170330 -1.248507 -0.042261 0.361521
    47 0.024032 -1.156387 -0.009538 -1.603655 0.039309 0.069835
    48 0.014898 -0.907427 -0.008129 -1.436262 0.027121 0.066059
    49 -0.586770 -1.264477 0.200161 -0.178526 -0.743435 -2.481839
    50 1.550180 0.039149 0.016848 -0.010347 -0.003779 0.573393
    51 1.110134 0.040611 -0.005766 -0.038198 -0.031130 1.346756
    52 -0.139399 -0.111698 0.014397 0.074775 0.219084 1.592828
    53 -1.237215 8.862615 -0.235527 4.722171 -3.137038 1.555246
end
