// Created by Crowbar 0.62

$modelname "weapons/tfa_cso/c_crowbarcraft.mdl"

$Include "csonline_gmod.qci"

$bodygroup "weapon"
{
	studio "v_crowbarcraft_v_ref"
}

$CDMaterials "models\weapons\tfa_cso\crowbarcraft\"

$definebone "root" "" -0.349714 5.598619 0.203512 0.000000 0.000000 0.000000 0.000000 0.000000 0.000000 -0.000000 0.000000 0.000000
$definebone "Bone04" "root" -9.310107 0.236514 -0.105302 -0.574537 90.226281 -179.714451 0.000000 0.000000 0.000000 0.000000 -0.000000 0.000000
$definebone "Bone_Righthand" "Bone04" 0.096944 -8.450418 -0.009364 -17.068815 -0.267170 -1.888755 0.000000 0.000000 0.000000 -0.000001 0.000000 0.000000
$definebone "root_crowbarcraft" "Bone_Righthand" -4.211529 17.847435 7.539201 73.424575 174.636656 -96.174501 0.000000 0.000000 0.000000 -0.000000 0.000002 -0.000000
$definebone "crowbar_butten" "root_crowbarcraft" 3.693952 0.798150 0.000000 0.000000 90.065416 -0.000000 0.000000 0.000000 0.000000 0.000000 -0.000002 -0.000000
$definebone "effect_root" "root_crowbarcraft" 8.228470 -2.574620 -0.000001 -0.000000 -89.991903 0.000000 0.000000 0.000000 0.000000 -0.000000 -0.000002 0.000000
$definebone "effect_Bone65" "effect_root" 0.389965 -0.741066 0.000000 -89.937473 -24.284253 -155.711827 0.000000 0.000000 0.000000 -0.000000 -0.000000 0.000003
$definebone "effect_Bone46" "effect_root" -0.392909 0.741779 -0.000000 -89.937473 -24.284253 -155.711827 0.000000 0.000000 0.000000 -0.000000 -0.000000 0.000003
$definebone "effect_Bone48" "effect_root" -0.392910 0.247234 -0.000000 -89.937473 -24.284253 -155.711827 0.000000 0.000000 0.000000 -0.000000 -0.000000 0.000003
$definebone "effect_Bone50" "effect_root" -0.392910 -0.248229 -0.000000 -89.937473 -24.284253 -155.711827 0.000000 0.000000 0.000000 -0.000000 -0.000000 0.000003
$definebone "effect_Bone52" "effect_root" -0.392909 -0.741066 -0.000000 -89.937473 -24.284253 -155.711827 0.000000 0.000000 0.000000 -0.000000 -0.000000 0.000003
$definebone "effect_Bone64" "effect_root" 0.389965 -0.248228 0.000000 -89.937473 -24.284253 -155.711827 -0.000000 0.000000 0.000000 -0.000000 -0.000000 0.000003
$definebone "effect_Bone63" "effect_root" 0.389965 0.247233 0.000000 -89.937473 -24.284253 -155.711827 0.000000 0.000000 0.000000 -0.000000 -0.000000 0.000003
$definebone "effect_Bone56" "effect_root" -0.001472 0.741779 0.000000 -89.937473 -24.284253 -155.711827 0.000000 0.000000 0.000000 -0.000000 -0.000000 0.000003
$definebone "effect_Bone57" "effect_root" -0.001472 0.247234 0.000000 -89.937473 -24.284253 -155.711827 -0.000000 0.000000 0.000000 -0.000000 -0.000000 0.000003
$definebone "effect_Bone58" "effect_root" -0.001472 -0.248229 -0.000000 -89.937473 -24.284253 -155.711827 0.000000 0.000000 0.000000 -0.000000 -0.000000 0.000003
$definebone "effect_Bone59" "effect_root" -0.001472 -0.741066 -0.000000 -89.937473 -24.284253 -155.711827 0.000000 0.000000 0.000000 -0.000000 -0.000000 0.000003
$definebone "effect_Bone62" "effect_root" 0.389965 0.741779 0.000000 -89.937473 -24.284253 -155.711827 -0.000000 0.000000 0.000000 -0.000000 -0.000000 0.000003
$definebone "effect_Bone60" "effect_root" -0.001472 -1.236118 -0.000000 -89.937473 -24.284253 -155.711827 -0.000000 0.000000 0.000000 -0.000000 -0.000000 0.000003
$definebone "effect_Bone55" "effect_root" -0.001472 1.236709 0.000000 -89.937473 -24.284253 -155.711827 0.000000 0.000000 0.000000 -0.000000 -0.000000 0.000003
$definebone "effect_Bone54" "effect_root" -0.392910 -1.236118 -0.000000 -89.937473 -24.284253 -155.711827 0.000000 0.000000 0.000000 -0.000000 -0.000000 0.000003
$definebone "effect_Bone02" "effect_root" -0.392910 1.236709 0.000000 -89.937473 -24.284253 -155.711827 -0.000000 0.000000 0.000000 -0.000000 -0.000000 0.000003
$definebone "effect_Bone66" "effect_root" 0.389965 -1.236118 -0.000000 -89.937473 -24.284253 -155.711827 0.000000 0.000000 0.000000 -0.000000 -0.000000 0.000003
$definebone "effect_Bone61" "effect_root" 0.389965 1.236709 0.000000 -89.937473 -24.284253 -155.711827 0.000000 0.000000 0.000000 -0.000000 -0.000000 0.000003

$sequence "idle" {
	"v_crowbarcraft_anims\idle"
	fps 30
	loop
	activity "ACT_VM_IDLE" 1
	snap
}
$sequence "slash1" {
	"v_crowbarcraft_anims\slash1"
	{ event 5004 1 "CrowbarCraft.Slash1" }
	fps 30
	activity "ACT_VM_HITLEFT" 1
	snap
}
$sequence "slash2" {
	"v_crowbarcraft_anims\slash2"
	{ event 5004 1 "CrowbarCraft.Slash2" }
	fps 30
	activity "ACT_VM_HITRIGHT" 1
	snap
}
$sequence "draw" {
	"v_crowbarcraft_anims\draw"
	{ event 5004 8 "CrowbarCraft.Draw" }
	fps 32
	activity "ACT_VM_DRAW" 1
	snap
}
$sequence "stab" {
	"v_crowbarcraft_anims\stab"
	{ event 5004 1 "CrowbarCraft.Stab" }
	fps 30
	activity "ACT_VM_MISSLEFT" 1
	snap
}
$sequence "stab_miss" {
	"v_crowbarcraft_anims\stab_miss"
	fps 30
}
$sequence "midslash1" {
	"v_crowbarcraft_anims\midslash1"
	fps 30
}
$sequence "midslash2" {
	"v_crowbarcraft_anims\midslash2"
	fps 30
}
