version 1
nodes
  0 "bouncer_root" -1
  1 "pump" 0
  2 "trigger" 0
  3 "bone_bullet1" 0
  4 "magazine1" 0
  5 "magazine2" 0
  6 "root" -1
  7 "Bone01" 6
  8 "Bone_L_Upper" 7
  9 "Bone_Lefthand" 7
  10 "Bone13" 9
  11 "Bone14" 10
  12 "Bone15" 11
  13 "Bone17" 9
  14 "Bone18" 13
  15 "Bone19" 14
  16 "Bone21" 9
  17 "Bone22" 16
  18 "Bone23" 17
  19 "Bone09" 9
  20 "Bone10" 19
  21 "Bone11" 20
  22 "Bone05" 9
  23 "Bone06" 22
  24 "Bone07" 23
  25 "Bone_Se_Hand-L" 9
  26 "Bone04" 6
  27 "Bone_Righthand" 26
  28 "Bone39" 27
  29 "Bone40" 28
  30 "Bone41" 29
  31 "Bone35" 27
  32 "Bone36" 31
  33 "Bone37" 32
  34 "Bone31" 27
  35 "Bone32" 34
  36 "Bone33" 35
  37 "Bone43" 27
  38 "Bone44" 37
  39 "Bone45" 38
  40 "Bone27" 27
  41 "Bone28" 40
  42 "Bone29" 41
  43 "Bone_Se_Hand-R" 27
  44 "Bone_R_Upper" 26
end
skeleton
  time 0
    0 5.013602 -9.941612 -7.162235 6.271898 1.014339 -3.628610
    1 1.310229 6.579789 -0.000740 1.570788 0.000000 1.570797
    2 0.772819 1.987386 0.000108 0.000000 0.000000 0.000000
    3 7.305022 3.181353 -1.566427 1.553173 0.281796 1.250405
    4 -1.428618 -0.139622 0.882533 2.482826 0.000001 1.570796
    5 -1.573682 1.878316 0.000661 0.000000 0.000001 1.570796
    6 -1.155131 -0.813790 -4.073724 0.000000 0.000000 0.000000
    7 8.692897 1.016985 -6.667154 0.333133 -2.154607 -0.505993
    8 5.597156 6.450014 -0.188870 1.566383 -3.131587 0.971982
    9 0.162461 -8.401077 -0.104134 -0.822073 1.069197 -0.916492
    10 -0.488518 -2.755602 -0.228260 -1.141808 -0.249290 -0.364717
    11 0.039887 -1.534479 0.014229 -1.583297 -0.011050 0.035439
    12 0.028786 -1.185109 -0.128581 -1.207611 -0.015077 0.026522
    13 0.250027 -2.820665 -0.238396 -0.956857 -0.243991 -0.301299
    14 -0.049759 -1.598510 0.041883 -1.451333 0.002325 -0.039431
    15 -0.034142 -1.179563 0.045718 -1.341014 0.004422 -0.035367
    16 0.957766 -2.746780 -0.090302 -0.240003 -0.077414 0.109044
    17 -0.033420 -1.393223 -0.022976 -0.801679 0.007071 -0.039442
    18 -0.022360 -0.957436 0.014878 -0.202134 0.004686 -0.009264
    19 -1.180681 -2.507217 -0.193859 -0.985954 -0.078376 -0.407098
    20 -0.024967 -1.127840 0.017597 -1.392783 -0.006040 -0.057597
    21 -0.020057 -0.906594 0.029622 -1.007262 0.005285 -0.041263
    22 0.618667 -1.205090 0.189285 0.731941 -1.193061 -0.979927
    23 1.457800 -0.239762 0.075324 0.065336 -0.234382 -0.861621
    24 1.030456 -0.163447 0.036197 0.059188 -0.214730 -0.888940
    25 0.120153 -0.050270 -0.054489 -2.345120 6.152178 -1.527299
    26 -5.356862 -2.274138 -5.888182 -0.818655 -4.058139 -0.171832
    27 0.120382 -8.462138 -0.028897 0.003158 -0.159253 -0.052997
    28 0.447953 -2.798986 -0.200443 -0.803125 -0.246413 0.117432
    29 -0.032909 -1.499736 0.020565 -1.140712 0.022052 -0.019485
    30 -0.027022 -1.123796 -0.024116 -1.160041 0.023789 -0.020302
    31 -0.249534 -2.846964 -0.174213 -0.311879 -0.275950 0.266183
    32 0.043235 -1.656596 0.072574 -1.351124 -0.021350 0.006353
    33 0.031729 -1.145205 0.058838 -1.033424 -0.011403 0.005819
    34 -0.963866 -2.785145 -0.085350 -0.162022 0.102638 0.197845
    35 0.028479 -1.403067 -0.013261 -0.669058 -0.014238 -0.026750
    36 0.021413 -0.953875 0.020046 -0.201374 -0.002409 -0.008941
    37 1.164475 -2.543940 -0.170330 -1.028516 -0.398371 0.181070
    38 0.024032 -1.132948 0.002182 -0.722685 0.002792 0.038699
    39 0.014898 -0.899614 -0.015942 -0.908403 0.005789 0.045877
    40 -0.586770 -1.264477 0.200161 -0.338133 -0.745473 -2.535794
    41 1.546273 0.039149 0.016848 -0.008333 -0.002520 0.490033
    42 1.117947 0.048424 -0.005766 -0.006619 -0.030232 0.319102
    43 -0.002676 -0.002320 0.002678 0.132447 0.009569 1.382762
    44 -6.053769 6.510981 -0.442564 1.589121 -0.028669 -0.919049
  time 1
    0 5.025321 -9.929893 -7.170048 6.276497 1.014940 -3.627172
    1 1.310229 6.579789 -0.000740 1.570788 0.000000 1.570797
    2 0.772819 1.987386 0.000108 0.000000 0.000000 0.000000
    3 3.140833 1.771154 0.089873 -1.154990 3.015451 -1.445127
    4 -1.428618 -0.139622 0.882533 2.482826 0.000001 1.570796
    5 -1.573682 1.878316 0.000661 0.000000 0.000001 1.570796
    6 -1.155131 -0.813790 -4.073724 0.000000 0.000000 0.000000
    7 8.677272 1.028704 -6.678873 0.332558 -2.154964 -0.502090
    8 5.604969 6.442201 -0.188870 1.566383 -3.131587 0.971052
    9 0.162461 -8.401077 -0.104134 -0.828871 1.067351 -0.917165
    10 -0.488518 -2.755602 -0.228260 -1.141808 -0.249290 -0.364717
    11 0.039887 -1.534479 0.014229 -1.583344 -0.011050 0.035439
    12 0.028786 -1.185109 -0.128581 -1.207611 -0.015077 0.026522
    13 0.250027 -2.820665 -0.238396 -0.956857 -0.243991 -0.301299
    14 -0.049759 -1.598510 0.041883 -1.451333 0.002325 -0.039431
    15 -0.034142 -1.179563 0.045718 -1.341014 0.004422 -0.035367
    16 0.957766 -2.746780 -0.090302 -0.240003 -0.077414 0.109044
    17 -0.033420 -1.393223 -0.022976 -0.801679 0.007071 -0.039442
    18 -0.022360 -0.957436 0.014878 -0.202134 0.004686 -0.009264
    19 -1.180681 -2.507217 -0.193859 -0.985954 -0.078376 -0.407098
    20 -0.024967 -1.127840 0.017597 -1.392783 -0.006040 -0.057597
    21 -0.020057 -0.906594 0.029622 -1.007262 0.005285 -0.041263
    22 0.618667 -1.205090 0.189285 0.731941 -1.193061 -0.979927
    23 1.457800 -0.239762 0.075324 0.065336 -0.234382 -0.861621
    24 1.030456 -0.163447 0.036197 0.059188 -0.214730 -0.888940
    25 0.120153 -0.050270 -0.054489 -2.345120 6.152178 -1.527299
    26 -1.462211 0.792361 -8.274973 0.170783 -3.003130 0.113093
    27 -0.172595 -8.884025 0.072669 -0.180347 -1.093325 -0.003445
    28 0.447953 -2.798986 -0.200443 -0.835591 -0.244058 0.088369
    29 -0.032909 -1.499736 0.024472 -1.310232 0.023094 -0.024183
    30 -0.027022 -1.131609 -0.020210 -1.329535 0.024736 -0.025036
    31 -0.249534 -2.846964 -0.174213 -0.584134 -0.238774 0.258812
    32 0.043235 -1.656596 0.068667 -1.458745 -0.022500 0.008150
    33 0.031729 -1.141298 0.054932 -1.141015 -0.012709 0.006287
    34 -0.963866 -2.785145 -0.085350 -0.396571 -0.319544 -0.041430
    35 0.028479 -1.403067 -0.009354 -0.578670 -0.011337 -0.023861
    36 0.021413 -0.953875 0.020046 -0.310933 -0.004434 -0.013459
    37 1.164475 -2.543940 -0.170330 -1.034322 -0.423852 0.151833
    38 0.024032 -1.140761 -0.005631 -0.970860 0.010055 0.050588
    39 0.014898 -0.903521 -0.012035 -1.156544 0.014477 0.056771
    40 -0.586770 -1.264477 0.200161 -0.151830 -0.606770 -2.717749
    41 1.526741 0.050868 0.016848 -0.001059 0.004683 0.127995
    42 1.114041 0.048424 -0.005766 -0.011544 -0.032652 0.490172
    43 -0.002676 -0.002320 0.002678 0.132447 0.009569 1.382762
    44 -6.053769 6.510981 -0.442564 1.589121 -0.028669 -0.919049
  time 2
    0 5.048759 -9.898642 -7.189579 0.005058 1.016504 -3.623337
    1 1.310229 6.579789 -0.000740 1.570788 0.000000 1.570797
    2 0.772819 1.987386 0.000108 0.000000 0.000000 0.000000
    3 -0.628814 -0.506259 2.265721 -0.999781 2.854215 -1.173313
    4 -1.428618 -0.139622 0.882533 2.482826 0.000001 1.570796
    5 -1.573682 1.878316 0.000661 0.000000 0.000001 1.570796
    6 -1.155131 -0.813790 -4.073724 0.000000 0.000000 0.000000
    7 8.642114 1.059955 -6.710124 0.331599 -2.155963 -0.492433
    8 5.616688 6.430482 -0.188870 1.566383 -3.131491 0.968817
    9 0.158555 -8.397171 -0.104134 -0.846269 1.062725 -0.919094
    10 -0.488518 -2.755602 -0.228260 -1.141808 -0.249290 -0.364717
    11 0.039887 -1.534479 0.014229 -1.583297 -0.011050 0.035439
    12 0.028786 -1.185109 -0.128581 -1.207611 -0.015077 0.026522
    13 0.250027 -2.820665 -0.238396 -0.956857 -0.243991 -0.301299
    14 -0.049759 -1.598510 0.041883 -1.451333 0.002325 -0.039431
    15 -0.034142 -1.179563 0.045718 -1.341014 0.004422 -0.035367
    16 0.957766 -2.746780 -0.090302 -0.240003 -0.077414 0.109044
    17 -0.033420 -1.393223 -0.022976 -0.801679 0.007071 -0.039442
    18 -0.022360 -0.957436 0.014878 -0.202134 0.004686 -0.009264
    19 -1.180681 -2.507217 -0.193859 -0.985954 -0.078376 -0.407098
    20 -0.024967 -1.127840 0.017597 -1.392783 -0.006040 -0.057597
    21 -0.020057 -0.906594 0.029622 -1.007262 0.005285 -0.041263
    22 0.618667 -1.205090 0.189285 0.731941 -1.193061 -0.979927
    23 1.457800 -0.239762 0.075324 0.065336 -0.234382 -0.861621
    24 1.030456 -0.163447 0.036197 0.059188 -0.214730 -0.888940
    25 0.120153 -0.050270 -0.054489 -2.345120 6.152178 -1.527299
    26 -0.540308 -0.860033 -10.134405 0.778181 -3.100442 0.256604
    27 -0.078843 -8.856681 0.045324 -0.221050 -0.600267 0.258953
    28 0.447953 -2.798986 -0.200443 -0.865433 -0.239743 0.063573
    29 -0.032909 -1.499736 0.028378 -1.476759 0.023346 -0.028917
    30 -0.027022 -1.135516 -0.020210 -1.496103 0.024880 -0.029770
    31 -0.249534 -2.846964 -0.174213 -0.787724 -0.194755 0.179498
    32 0.043235 -1.656596 0.064761 -1.564432 -0.023423 0.010020
    33 0.031729 -1.141298 0.054932 -1.246728 -0.013943 0.006874
    34 -0.963866 -2.785145 -0.085350 -0.302459 -0.731255 -0.289697
    35 0.028479 -1.403067 -0.009354 -0.588759 -0.011649 -0.024197
    36 0.021413 -0.949968 0.020046 -0.550632 -0.010510 -0.022411
    37 1.164475 -2.543940 -0.170330 -0.985063 -0.439314 0.111286
    38 0.024032 -1.144668 -0.005631 -1.214689 0.019823 0.060176
    39 0.014898 -0.907427 -0.008129 -1.400351 0.025359 0.065064
    40 -0.586770 -1.264477 0.200161 -0.036491 -0.289624 -2.815384
    41 1.518929 0.066494 0.016848 0.003076 0.013575 -0.219122
    42 1.114041 0.048424 -0.005766 -0.015475 -0.033899 0.618672
    43 -0.002676 -0.002320 0.002678 0.132447 0.009569 1.382762
    44 -6.053769 6.510981 -0.442564 1.589121 -0.028669 -0.919049
  time 3
    0 5.080010 -9.859578 -7.216924 0.021060 1.018477 -3.617873
    1 1.310229 6.579789 -0.000740 1.570788 0.000000 1.570797
    2 0.772819 1.987386 0.000108 0.000000 0.000000 0.000000
    3 -1.777286 0.411738 1.339912 -1.310200 2.773505 -1.564986
    4 -1.428618 -0.139622 0.882533 2.482826 0.000001 1.570796
    5 -1.573682 1.878316 0.000661 0.000000 0.000001 1.570796
    6 -1.155131 -0.813790 -4.073724 0.000000 0.000000 0.000000
    7 8.587425 1.091206 -6.753094 0.331216 -2.157533 -0.480263
    8 5.632313 6.414857 -0.188870 1.566383 -3.131491 0.965932
    9 0.158555 -8.393264 -0.104134 -0.869855 1.056621 -0.922248
    10 -0.488518 -2.755602 -0.228260 -1.141808 -0.249290 -0.364717
    11 0.039887 -1.534479 0.014229 -1.583344 -0.011050 0.035439
    12 0.028786 -1.185109 -0.128581 -1.207611 -0.015077 0.026522
    13 0.250027 -2.820665 -0.238396 -0.956857 -0.243991 -0.301299
    14 -0.049759 -1.598510 0.041883 -1.451333 0.002325 -0.039431
    15 -0.034142 -1.179563 0.045718 -1.341014 0.004422 -0.035367
    16 0.957766 -2.746780 -0.090302 -0.240003 -0.077414 0.109044
    17 -0.033420 -1.393223 -0.022976 -0.801679 0.007071 -0.039442
    18 -0.022360 -0.957436 0.014878 -0.202134 0.004686 -0.009264
    19 -1.180681 -2.507217 -0.193859 -0.985954 -0.078376 -0.407098
    20 -0.024967 -1.127840 0.017597 -1.392783 -0.006040 -0.057597
    21 -0.020057 -0.906594 0.029622 -1.007262 0.005285 -0.041263
    22 0.618667 -1.205090 0.189285 0.731941 -1.193061 -0.979927
    23 1.457800 -0.239762 0.075324 0.065336 -0.234382 -0.861621
    24 1.030456 -0.163447 0.036197 0.059188 -0.214730 -0.888940
    25 0.120153 -0.050270 -0.054489 -2.345120 6.152178 -1.527299
    26 0.897236 -2.074914 -10.114873 0.811624 -3.103822 0.261217
    27 -0.035873 -8.841055 0.010167 -0.182224 -0.332571 0.309017
    28 0.447953 -2.798986 -0.200443 -0.870442 -0.064884 0.197992
    29 -0.032909 -1.499736 0.028378 -1.459104 0.023358 -0.028413
    30 -0.027022 -1.135516 -0.020210 -1.478454 0.024904 -0.029266
    31 -0.249534 -2.846964 -0.174213 -0.423991 0.038609 0.072368
    32 0.043235 -1.656596 0.064761 -1.553215 -0.023339 0.009816
    33 0.031729 -1.141298 0.054932 -1.235498 -0.013811 0.006802
    34 -0.963866 -2.785145 -0.085350 0.282234 -0.406506 -0.248111
    35 0.028479 -1.410880 -0.024980 -1.192038 -0.035007 -0.037536
    36 0.021413 -0.946062 0.016140 -0.733017 -0.016467 -0.028116
    37 1.164475 -2.543940 -0.170330 -0.697988 -0.144863 0.134854
    38 0.024032 -1.144668 -0.005631 -1.188798 0.018672 0.059277
    39 0.014898 -0.907427 -0.008129 -1.374433 0.024113 0.064309
    40 -0.586770 -1.264477 0.200161 -0.066101 -0.010032 -2.805740
    41 1.522835 0.062587 0.016848 0.002752 0.012485 -0.179232
    42 1.114041 0.044518 -0.005766 -0.024536 -0.034822 0.902656
    43 -0.002676 -0.002320 0.002678 0.132447 0.009569 1.382762
    44 -6.053769 6.510981 -0.442564 1.589121 -0.028669 -0.919049
  time 4
    0 5.107355 -9.816608 -7.236456 0.038595 1.020450 -3.611450
    1 1.310229 6.579789 -0.000740 1.570788 0.000000 1.570797
    2 0.772819 1.987386 0.000108 0.000000 0.000000 0.000000
    3 -1.765567 0.474240 1.011777 -1.297621 2.911549 -1.568723
    4 -1.428618 -0.139622 0.882533 2.482826 0.000001 1.570796
    5 -1.573682 1.878316 0.000661 0.000000 0.000001 1.570796
    6 -1.155131 -0.813790 -4.073724 0.000000 0.000000 0.000000
    7 8.532736 1.122457 -6.803877 0.332270 -2.159603 -0.468952
    8 5.647939 6.399231 -0.192777 1.566287 -3.131395 0.963139
    9 0.158555 -8.389358 -0.108040 -0.895077 1.050371 -0.926596
    10 -0.488518 -2.755602 -0.228260 -1.141808 -0.249290 -0.364717
    11 0.039887 -1.534479 0.014229 -1.583297 -0.011050 0.035439
    12 0.028786 -1.185109 -0.128581 -1.207611 -0.015077 0.026522
    13 0.250027 -2.820665 -0.238396 -0.956857 -0.243991 -0.301299
    14 -0.049759 -1.598510 0.041883 -1.451333 0.002325 -0.039431
    15 -0.034142 -1.179563 0.045718 -1.341014 0.004422 -0.035367
    16 0.957766 -2.746780 -0.090302 -0.240003 -0.077414 0.109044
    17 -0.033420 -1.393223 -0.022976 -0.801679 0.007071 -0.039442
    18 -0.022360 -0.957436 0.014878 -0.202134 0.004686 -0.009264
    19 -1.180681 -2.507217 -0.193859 -0.985954 -0.078376 -0.407098
    20 -0.024967 -1.127840 0.017597 -1.392783 -0.006040 -0.057597
    21 -0.020057 -0.906594 0.029622 -1.007262 0.005285 -0.041263
    22 0.618667 -1.205090 0.189285 0.731941 -1.193061 -0.979927
    23 1.457800 -0.239762 0.075324 0.065336 -0.234382 -0.861621
    24 1.030456 -0.163447 0.036197 0.059188 -0.214730 -0.888940
    25 0.120153 -0.050270 -0.054489 -2.345120 6.152178 -1.527299
    26 0.932393 -2.043663 -9.454697 0.827083 -3.268379 0.355828
    27 0.038348 -8.872306 -0.040616 -0.218905 -0.055407 0.052931
    28 0.447953 -2.798986 -0.200443 -0.833474 -0.160001 0.222812
    29 -0.032909 -1.499736 0.028378 -1.459104 0.023358 -0.028413
    30 -0.027022 -1.135516 -0.020210 -1.478454 0.024904 -0.029266
    31 -0.249534 -2.846964 -0.174213 -0.535268 -0.060875 0.066544
    32 0.043235 -1.656596 0.064761 -1.553215 -0.023339 0.009816
    33 0.031729 -1.141298 0.054932 -1.235498 -0.013811 0.006802
    34 -0.963866 -2.785145 -0.085350 0.112852 -0.335006 -0.213213
    35 0.028479 -1.410880 -0.024980 -1.272957 -0.038602 -0.038171
    36 0.021413 -0.942156 0.016140 -0.863309 -0.021309 -0.031484
    37 1.164475 -2.543940 -0.170330 -0.710970 -0.238899 0.160533
    38 0.024032 -1.144668 -0.005631 -1.188798 0.018672 0.059277
    39 0.014898 -0.907427 -0.008129 -1.374433 0.024113 0.064309
    40 -0.586770 -1.264477 0.200161 -0.073071 -0.094529 -2.755655
    41 1.522835 0.062587 0.016848 0.002752 0.012485 -0.179020
    42 1.114041 0.044518 -0.005766 -0.023877 -0.034834 0.882164
    43 -0.002676 -0.002320 0.002678 0.132447 0.009569 1.382762
    44 -6.053769 6.510981 -0.442564 1.589121 -0.028669 -0.919049
  time 5
    0 5.126887 -9.789264 -7.248175 0.054693 1.021942 -3.604931
    1 1.310229 6.579789 -0.000740 1.570788 0.000000 1.570797
    2 0.772819 1.987386 0.000108 0.000000 0.000000 0.000000
    3 -1.734316 0.485959 0.550825 1.864957 0.000001 1.570795
    4 -1.428618 -0.139622 0.882533 2.482826 0.000001 1.570796
    5 -1.573682 1.878316 0.000661 0.000000 0.000001 1.570796
    6 -1.155131 -0.813790 -4.073724 0.000000 0.000000 0.000000
    7 8.478047 1.138083 -6.858566 0.335913 -2.162101 -0.461809
    8 5.663564 6.383606 -0.192777 1.566287 -3.131395 0.960812
    9 0.158555 -8.385452 -0.108040 -0.917442 1.045202 -0.932199
    10 -0.488518 -2.755602 -0.228260 -1.141808 -0.249290 -0.364717
    11 0.039887 -1.534479 0.014229 -1.583297 -0.011050 0.035439
    12 0.028786 -1.185109 -0.128581 -1.207611 -0.015077 0.026522
    13 0.250027 -2.820665 -0.238396 -0.956857 -0.243991 -0.301299
    14 -0.049759 -1.598510 0.041883 -1.451333 0.002325 -0.039431
    15 -0.034142 -1.179563 0.045718 -1.341014 0.004422 -0.035367
    16 0.957766 -2.746780 -0.090302 -0.240003 -0.077414 0.109044
    17 -0.033420 -1.393223 -0.022976 -0.801679 0.007071 -0.039442
    18 -0.022360 -0.957436 0.014878 -0.202134 0.004686 -0.009264
    19 -1.180681 -2.507217 -0.193859 -0.985954 -0.078376 -0.407098
    20 -0.024967 -1.127840 0.017597 -1.392783 -0.006040 -0.057597
    21 -0.020057 -0.906594 0.029622 -1.007262 0.005285 -0.041263
    22 0.618667 -1.205090 0.189285 0.731941 -1.193061 -0.979927
    23 1.457800 -0.239762 0.075324 0.065336 -0.234382 -0.861621
    24 1.030456 -0.163447 0.036197 0.059188 -0.214730 -0.888940
    25 0.120153 -0.050270 -0.054489 -2.345120 6.152178 -1.527299
    26 0.897236 -1.863970 -8.110906 0.832749 -3.455116 0.521231
    27 0.085225 -8.907464 -0.122650 -0.302849 0.281956 -0.153269
    28 0.447953 -2.798986 -0.200443 -0.746839 -0.257956 0.240765
    29 -0.032909 -1.499736 0.028378 -1.459104 0.023358 -0.028413
    30 -0.027022 -1.135516 -0.020210 -1.478454 0.024904 -0.029266
    31 -0.249534 -2.846964 -0.174213 -0.649558 -0.160407 0.072116
    32 0.043235 -1.656596 0.064761 -1.553215 -0.023339 0.009816
    33 0.031729 -1.141298 0.054932 -1.235498 -0.013811 0.006802
    34 -0.963866 -2.785145 -0.085350 -0.094560 -0.207195 -0.173544
    35 0.028479 -1.410880 -0.028886 -1.340935 -0.041670 -0.038495
    36 0.021413 -0.942156 0.012233 -0.996686 -0.026678 -0.034240
    37 1.164475 -2.543940 -0.170330 -0.704083 -0.333730 0.184885
    38 0.024032 -1.144668 -0.005631 -1.188798 0.018672 0.059277
    39 0.014898 -0.907427 -0.008129 -1.374433 0.024113 0.064309
    40 -0.586770 -1.264477 0.200161 -0.072708 -0.276948 -2.723008
    41 1.522835 0.062587 0.016848 0.002752 0.012485 -0.178838
    42 1.114041 0.044518 -0.005766 -0.020545 -0.034738 0.778474
    43 -0.002676 -0.002320 0.002678 0.132447 0.009569 1.382762
    44 -6.053769 6.510981 -0.442564 1.589121 -0.028669 -0.919049
  time 6
    0 5.122980 -9.777545 -7.244269 0.065330 1.022519 -3.599659
    1 1.310229 6.579789 -0.000740 1.570788 0.000000 1.570797
    2 0.772819 1.987386 0.000108 0.000000 0.000000 0.000000
    3 -1.734316 0.626588 0.550825 1.864957 0.000001 1.570795
    4 -1.428618 -0.139622 0.882533 2.482826 0.000001 1.570796
    5 -1.573682 1.878316 0.000661 0.000000 0.000001 1.570796
    6 -1.155131 -0.813790 -4.073724 0.000000 0.000000 0.000000
    7 8.438983 1.138083 -6.897630 0.341951 -2.164528 -0.461809
    8 5.671377 6.375793 -0.192777 1.566287 -3.131299 0.959323
    9 0.158555 -8.385452 -0.108040 -0.931094 1.042545 -0.938262
    10 -0.488518 -2.755602 -0.228260 -1.141808 -0.249290 -0.364717
    11 0.039887 -1.534479 0.014229 -1.583344 -0.011050 0.035439
    12 0.028786 -1.185109 -0.128581 -1.207611 -0.015077 0.026522
    13 0.250027 -2.820665 -0.238396 -0.956857 -0.243991 -0.301299
    14 -0.049759 -1.598510 0.041883 -1.451333 0.002325 -0.039431
    15 -0.034142 -1.179563 0.045718 -1.341014 0.004422 -0.035367
    16 0.957766 -2.746780 -0.090302 -0.240003 -0.077414 0.109044
    17 -0.033420 -1.393223 -0.022976 -0.801679 0.007071 -0.039442
    18 -0.022360 -0.957436 0.014878 -0.202134 0.004686 -0.009264
    19 -1.180681 -2.507217 -0.193859 -0.985954 -0.078376 -0.407098
    20 -0.024967 -1.127840 0.017597 -1.392783 -0.006040 -0.057597
    21 -0.020057 -0.906594 0.029622 -1.007262 0.005285 -0.041263
    22 0.618667 -1.205090 0.189285 0.731941 -1.193061 -0.979927
    23 1.457800 -0.239762 0.075324 0.065336 -0.234382 -0.861621
    24 1.030456 -0.163447 0.036197 0.059188 -0.214730 -0.888940
    25 0.120153 -0.050270 -0.054489 -2.345120 6.152178 -1.527299
    26 0.748793 -1.617868 -7.927306 0.817044 -3.465890 0.590176
    27 0.069599 -8.872306 -0.107024 -0.060981 0.291059 0.116964
    28 0.447953 -2.798986 -0.200443 -0.610775 -0.182304 0.219337
    29 -0.032909 -1.499736 0.028378 -1.459104 0.023358 -0.028413
    30 -0.027022 -1.135516 -0.020210 -1.478454 0.024904 -0.029266
    31 -0.249534 -2.846964 -0.174213 -0.576437 -0.077857 0.068054
    32 0.043235 -1.656596 0.064761 -1.553215 -0.023339 0.009816
    33 0.031729 -1.141298 0.054932 -1.235498 -0.013811 0.006802
    34 -0.963866 -2.785145 -0.085350 -0.118314 -0.104444 -0.126759
    35 0.028479 -1.410880 -0.024980 -1.244592 -0.037332 -0.037979
    36 0.021413 -0.942156 0.012233 -0.914760 -0.023334 -0.032634
    37 1.164475 -2.543940 -0.170330 -0.622190 -0.257753 0.155134
    38 0.024032 -1.144668 -0.005631 -1.188798 0.018672 0.059277
    39 0.014898 -0.907427 -0.008129 -1.374433 0.024113 0.064309
    40 -0.586770 -1.264477 0.200161 -0.003758 -0.523756 -2.837207
    41 1.522835 0.062587 0.016848 0.002752 0.012485 -0.178990
    42 1.114041 0.048424 -0.005766 -0.012887 -0.033144 0.534581
    43 -0.002676 -0.002320 0.002678 0.132447 0.009569 1.382762
    44 -6.053769 6.510981 -0.442564 1.589121 -0.028669 -0.919049
  time 7
    0 5.119074 -9.777545 -7.240362 0.068204 1.022519 -3.597837
    1 1.310229 6.579789 -0.000740 1.570788 0.000000 1.570797
    2 0.772819 1.987386 0.000108 0.000000 0.000000 0.000000
    3 -1.734316 0.997693 0.550825 1.864957 0.000001 1.570795
    4 -1.428618 -0.139622 0.882533 2.482826 0.000001 1.570796
    5 -1.573682 1.878316 0.000661 0.000000 0.000001 1.570796
    6 -1.155131 -0.813790 -4.073724 0.000000 0.000000 0.000000
    7 8.427264 1.130270 -6.913255 0.345402 -2.165527 -0.464058
    8 5.671377 6.375793 -0.192777 1.566287 -3.131299 0.958951
    9 0.158555 -8.381545 -0.108040 -0.934257 1.042175 -0.941048
    10 -0.488518 -2.755602 -0.228260 -1.141808 -0.249290 -0.364717
    11 0.039887 -1.534479 0.014229 -1.583297 -0.011050 0.035439
    12 0.028786 -1.185109 -0.128581 -1.207611 -0.015077 0.026522
    13 0.250027 -2.820665 -0.238396 -0.956857 -0.243991 -0.301299
    14 -0.049759 -1.598510 0.041883 -1.451333 0.002325 -0.039431
    15 -0.034142 -1.179563 0.045718 -1.341014 0.004422 -0.035367
    16 0.957766 -2.746780 -0.090302 -0.240003 -0.077414 0.109044
    17 -0.033420 -1.393223 -0.022976 -0.801679 0.007071 -0.039442
    18 -0.022360 -0.957436 0.014878 -0.202134 0.004686 -0.009264
    19 -1.180681 -2.507217 -0.193859 -0.985954 -0.078376 -0.407098
    20 -0.024967 -1.127840 0.017597 -1.392783 -0.006040 -0.057597
    21 -0.020057 -0.906594 0.029622 -1.007262 0.005285 -0.041263
    22 0.618667 -1.205090 0.189285 0.731941 -1.193061 -0.979927
    23 1.457800 -0.239762 0.075324 0.065336 -0.234382 -0.861621
    24 1.030456 -0.163447 0.036197 0.059188 -0.214730 -0.888940
    25 0.120153 -0.050270 -0.054489 -2.345120 6.152178 -1.527299
    26 0.877704 -1.590524 -8.013247 0.802632 -3.443780 0.607371
    27 0.030536 -8.844962 -0.052335 0.198175 0.111138 0.427793
    28 0.447953 -2.798986 -0.200443 -0.468330 -0.072410 0.206573
    29 -0.032909 -1.499736 0.028378 -1.459104 0.023358 -0.028413
    30 -0.027022 -1.135516 -0.020210 -1.478454 0.024904 -0.029266
    31 -0.249534 -2.846964 -0.174213 -0.442474 0.038262 0.072416
    32 0.043235 -1.656596 0.064761 -1.553215 -0.023339 0.009816
    33 0.031729 -1.141298 0.054932 -1.235498 -0.013811 0.006802
    34 -0.963866 -2.785145 -0.085350 -0.075094 -0.001830 -0.070257
    35 0.028479 -1.406973 -0.021074 -1.088376 -0.030477 -0.036277
    36 0.021413 -0.946062 0.016140 -0.758025 -0.017366 -0.028811
    37 1.164475 -2.543940 -0.170330 -0.522375 -0.148041 0.125492
    38 0.024032 -1.144668 -0.005631 -1.188798 0.018672 0.059277
    39 0.014898 -0.907427 -0.008129 -1.374433 0.024113 0.064309
    40 -0.586770 -1.264477 0.200161 0.154808 -0.771100 -3.053630
    41 1.522835 0.062587 0.016848 0.002752 0.012485 -0.179232
    42 1.117947 0.048424 -0.005766 -0.004414 -0.028781 0.237157
    43 -0.002676 -0.002320 0.002678 0.132447 0.009569 1.382762
    44 -6.053769 6.510981 -0.442564 1.589121 -0.028669 -0.919049
  time 8
    0 5.037040 -9.840047 -7.158328 0.067629 1.020017 -3.592277
    1 1.310229 6.579789 -0.000740 1.570788 0.000000 1.570797
    2 0.772819 1.987386 0.000108 0.000000 0.000000 0.000000
    3 -1.734316 1.536772 0.550825 1.864957 0.000001 1.570795
    4 -1.428618 -0.139622 0.882533 2.482826 0.000001 1.570796
    5 -1.573682 1.878316 0.000661 0.000000 0.000001 1.570796
    6 -1.155131 -0.813790 -4.073724 0.000000 0.000000 0.000000
    7 8.423358 1.032611 -6.960132 0.370995 -2.170952 -0.497129
    8 5.675284 6.375793 -0.192777 1.566287 -3.131299 0.958857
    9 0.162461 -8.385452 -0.108040 -0.925961 1.047294 -0.957368
    10 -0.488518 -2.755602 -0.228260 -1.141808 -0.249290 -0.364717
    11 0.039887 -1.534479 0.014229 -1.583297 -0.011050 0.035439
    12 0.028786 -1.185109 -0.128581 -1.207611 -0.015077 0.026522
    13 0.250027 -2.820665 -0.238396 -0.956857 -0.243991 -0.301299
    14 -0.049759 -1.598510 0.041883 -1.451333 0.002325 -0.039431
    15 -0.034142 -1.179563 0.045718 -1.341014 0.004422 -0.035367
    16 0.957766 -2.746780 -0.090302 -0.240003 -0.077414 0.109044
    17 -0.033420 -1.393223 -0.022976 -0.801679 0.007071 -0.039442
    18 -0.022360 -0.957436 0.014878 -0.202134 0.004686 -0.009264
    19 -1.180681 -2.507217 -0.193859 -0.985954 -0.078376 -0.407098
    20 -0.024967 -1.127840 0.017597 -1.392783 -0.006040 -0.057597
    21 -0.020057 -0.906594 0.029622 -1.007262 0.005285 -0.041263
    22 0.618667 -1.205090 0.189285 0.731941 -1.193037 -0.979927
    23 1.457800 -0.239762 0.075324 0.065336 -0.234382 -0.861621
    24 1.030456 -0.163447 0.036197 0.059188 -0.214730 -0.888940
    25 0.120153 -0.050270 -0.054489 -2.345120 6.152178 -1.527299
    26 1.307404 -1.910846 -7.907775 0.791915 -3.460397 0.532386
    27 0.003191 -8.848868 -0.013271 0.219259 -0.068418 0.481445
    28 0.447953 -2.798986 -0.200443 -0.381188 -0.074456 0.207999
    29 -0.032909 -1.499736 0.028378 -1.459104 0.023358 -0.028413
    30 -0.027022 -1.135516 -0.020210 -1.478454 0.024904 -0.029266
    31 -0.249534 -2.846964 -0.174213 -0.295244 0.040994 0.072188
    32 0.043235 -1.656596 0.064761 -1.553215 -0.023339 0.009816
    33 0.031729 -1.141298 0.054932 -1.235498 -0.013811 0.006802
    34 -0.963866 -2.785145 -0.085350 0.035194 0.107192 -0.017293
    35 0.028479 -1.403067 -0.017167 -0.904043 -0.022855 -0.032934
    36 0.021413 -0.949968 0.020046 -0.566632 -0.010990 -0.022962
    37 1.164475 -2.543940 -0.170330 -0.434533 -0.148990 0.120635
    38 0.024032 -1.144668 -0.005631 -1.188798 0.018672 0.059277
    39 0.014898 -0.907427 -0.008129 -1.374433 0.024113 0.064309
    40 -0.586770 -1.264477 0.200161 0.356339 -0.911561 -3.292182
    41 1.522835 0.062587 0.016848 0.002752 0.012485 -0.179232
    42 1.117947 0.048424 -0.005766 0.002034 -0.022609 -0.041922
    43 -0.002676 -0.002320 0.002678 0.132447 0.009569 1.382762
    44 -6.053769 6.510981 -0.442564 1.589121 -0.028669 -0.919049
  time 9
    0 4.900317 -9.949425 -7.029418 0.058622 1.015518 -3.587005
    1 1.310229 6.579789 -0.000740 1.570788 0.000000 1.570797
    2 0.772819 1.987386 0.000108 0.000000 0.000000 0.000000
    3 -1.734316 2.091476 0.550825 1.864957 0.000001 1.570795
    4 -1.428618 -0.139622 0.882533 2.482826 0.000001 1.570796
    5 -1.573682 1.878316 0.000661 0.000000 0.000001 1.570796
    6 -1.155131 -0.813790 -4.073724 0.000000 0.000000 0.000000
    7 8.442889 0.864637 -7.007008 0.407610 -2.178803 -0.550706
    8 5.663564 6.387512 -0.192777 1.566287 -3.131395 0.960812
    9 0.166368 -8.393264 -0.108040 -0.901515 1.058024 -0.979291
    10 -0.488518 -2.755602 -0.228260 -1.141808 -0.249290 -0.364717
    11 0.039887 -1.534479 0.014229 -1.583344 -0.011050 0.035439
    12 0.028786 -1.185109 -0.128581 -1.207611 -0.015077 0.026522
    13 0.250027 -2.820665 -0.238396 -0.956857 -0.243991 -0.301299
    14 -0.049759 -1.598510 0.041883 -1.451333 0.002325 -0.039431
    15 -0.034142 -1.179563 0.045718 -1.341014 0.004422 -0.035367
    16 0.957766 -2.746780 -0.090302 -0.240003 -0.077414 0.109044
    17 -0.033420 -1.393223 -0.022976 -0.801679 0.007071 -0.039442
    18 -0.022360 -0.957436 0.014878 -0.202134 0.004686 -0.009264
    19 -1.180681 -2.507217 -0.193859 -0.985954 -0.078376 -0.407098
    20 -0.024967 -1.127840 0.017597 -1.392783 -0.006040 -0.057597
    21 -0.020057 -0.906594 0.029622 -1.007262 0.005285 -0.041263
    22 0.618667 -1.205090 0.189285 0.731941 -1.193061 -0.979927
    23 1.457800 -0.239762 0.075324 0.065336 -0.234382 -0.861621
    24 1.030456 -0.163447 0.036197 0.059188 -0.214730 -0.888940
    25 0.120153 -0.050270 -0.054489 -2.345120 6.152178 -1.527299
    26 1.096460 -1.906940 -7.911681 0.724044 -3.508349 0.358596
    27 -0.016341 -8.852775 0.006260 0.183982 -0.184037 0.483112
    28 0.447953 -2.798986 -0.200443 -0.322606 -0.061438 0.187326
    29 -0.032909 -1.495829 0.012753 -0.843575 0.018360 -0.011899
    30 -0.027022 -1.104265 -0.028023 -0.662715 0.016671 -0.008221
    31 -0.249534 -2.846964 -0.174213 -0.138571 -0.025185 0.079475
    32 0.043235 -1.660503 0.084293 -0.971213 -0.015933 0.001211
    33 0.031729 -1.149111 0.058838 -0.682853 -0.006920 0.005316
    34 -0.963866 -2.785145 -0.085350 0.132735 0.221914 0.006053
    35 0.028479 -1.403067 -0.009354 -0.630273 -0.012955 -0.025539
    36 0.021413 -0.953875 0.020046 -0.348064 -0.005237 -0.014945
    37 1.164475 -2.543940 -0.170330 -0.339983 -0.108745 0.125316
    38 0.024032 -1.136855 -0.001725 -0.816207 0.005177 0.043385
    39 0.014898 -0.895708 -0.019848 -0.661612 0.000072 0.033269
    40 -0.586770 -1.264477 0.200161 0.467972 -0.569048 -3.221629
    41 1.518929 0.062587 0.016848 0.002884 0.012916 -0.195031
    42 1.117947 0.048424 -0.005766 0.004934 -0.018247 -0.205301
    43 -0.002676 -0.002320 0.002678 0.132447 0.009569 1.382762
    44 -6.053769 6.510981 -0.442564 1.589121 -0.028669 -0.919049
  time 10
    0 4.818283 -10.019740 -6.959104 0.047507 1.012607 -3.586717
    1 1.310229 6.579789 -0.000740 1.570788 0.000000 1.570797
    2 0.772819 1.987386 0.000108 0.000000 0.000000 0.000000
    3 -1.734316 2.575866 0.550825 1.864957 0.000001 1.570795
    4 -1.428618 -0.139622 0.882533 2.482826 0.000001 1.570796
    5 -1.573682 1.878316 0.000661 0.000000 0.000001 1.570796
    6 -1.155131 -0.813790 -4.073724 0.000000 0.000000 0.000000
    7 8.470234 0.766977 -7.010914 0.425151 -2.182515 -0.581463
    8 5.647939 6.399231 -0.192777 1.566287 -3.131395 0.963419
    9 0.166368 -8.401077 -0.104134 -0.879677 1.065924 -0.988415
    10 -0.488518 -2.755602 -0.228260 -1.141808 -0.249290 -0.364717
    11 0.039887 -1.534479 0.014229 -1.583297 -0.011050 0.035439
    12 0.028786 -1.185109 -0.128581 -1.207611 -0.015077 0.026522
    13 0.250027 -2.820665 -0.238396 -0.956857 -0.243991 -0.301299
    14 -0.049759 -1.598510 0.041883 -1.451333 0.002325 -0.039431
    15 -0.034142 -1.179563 0.045718 -1.341014 0.004422 -0.035367
    16 0.957766 -2.746780 -0.090302 -0.240003 -0.077414 0.109044
    17 -0.033420 -1.393223 -0.022976 -0.801679 0.007071 -0.039442
    18 -0.022360 -0.957436 0.014878 -0.202134 0.004686 -0.009264
    19 -1.180681 -2.507217 -0.193859 -0.985954 -0.078376 -0.407098
    20 -0.024967 -1.127840 0.017597 -1.392783 -0.006040 -0.057597
    21 -0.020057 -0.906594 0.029622 -1.007262 0.005285 -0.041263
    22 0.618667 -1.205090 0.189285 0.731941 -1.193061 -0.979927
    23 1.457800 -0.239762 0.075324 0.065336 -0.234382 -0.861621
    24 1.030456 -0.163447 0.036197 0.059188 -0.214730 -0.888940
    25 0.120153 -0.050270 -0.054489 -2.345120 6.152178 -1.527299
    26 1.033958 -1.778029 -7.825741 0.654078 -3.531304 0.253920
    27 -0.031966 -8.852775 0.014073 0.133747 -0.255427 0.484585
    28 0.447953 -2.798986 -0.200443 -0.304838 -0.048495 0.169265
    29 -0.032909 -1.484110 0.004940 -0.307557 0.006831 -0.002155
    30 -0.027022 -1.076920 -0.020210 0.031905 -0.000839 0.000084
    31 -0.249534 -2.846964 -0.174213 -0.038586 -0.084185 0.078624
    32 0.043235 -1.672222 0.092106 -0.464536 -0.006513 -0.001857
    33 0.031729 -1.160830 0.058838 -0.218136 -0.001228 0.007054
    34 -0.963866 -2.785145 -0.085350 0.197717 0.304867 0.023395
    35 0.028479 -1.403067 -0.005448 -0.403764 -0.006544 -0.017581
    36 0.021413 -0.957781 0.020046 -0.180946 -0.002085 -0.008078
    37 1.164475 -2.543940 -0.170330 -0.282503 -0.073847 0.133420
    38 0.024032 -1.129042 0.006088 -0.492513 -0.001127 0.026403
    39 0.014898 -0.883989 -0.019848 -0.056427 0.000072 -0.000228
    40 -0.586770 -1.264477 0.200161 0.507936 -0.264517 -3.092833
    41 1.522835 0.062587 0.016848 0.002752 0.012485 -0.179232
    42 1.117947 0.048424 -0.005766 0.005605 -0.016965 -0.250323
    43 -0.002676 -0.002320 0.002678 0.132447 0.009569 1.382762
    44 -6.053769 6.510981 -0.442564 1.589121 -0.028669 -0.919049
  time 11
    0 4.830003 -10.027552 -6.974729 0.035146 1.012222 -3.593523
    1 1.310229 6.579789 -0.000740 1.570788 0.000000 1.570797
    2 0.772819 1.987386 0.000108 0.000000 0.000000 0.000000
    3 -1.734316 2.575866 0.550825 1.864957 0.000001 1.570795
    4 -1.428618 -0.139622 0.882533 2.482826 0.000001 1.570796
    5 -1.573682 1.878316 0.000661 0.000000 0.000001 1.570796
    6 -1.155131 -0.813790 -4.073724 0.000000 0.000000 0.000000
    7 8.517110 0.782603 -6.956225 0.415182 -2.178660 -0.577626
    8 5.640126 6.410950 -0.188870 1.566287 -3.131491 0.965001
    9 0.166368 -8.401077 -0.104134 -0.864555 1.068582 -0.978893
    10 -0.488518 -2.755602 -0.228260 -1.141808 -0.249290 -0.364717
    11 0.039887 -1.534479 0.014229 -1.583297 -0.011050 0.035439
    12 0.028786 -1.185109 -0.128581 -1.207611 -0.015077 0.026522
    13 0.250027 -2.820665 -0.238396 -0.956857 -0.243991 -0.301299
    14 -0.049759 -1.598510 0.041883 -1.451333 0.002325 -0.039431
    15 -0.034142 -1.179563 0.045718 -1.341014 0.004422 -0.035367
    16 0.957766 -2.746780 -0.090302 -0.240003 -0.077414 0.109044
    17 -0.033420 -1.393223 -0.022976 -0.801679 0.007071 -0.039442
    18 -0.022360 -0.957436 0.014878 -0.202134 0.004686 -0.009264
    19 -1.180681 -2.507217 -0.193859 -0.985954 -0.078376 -0.407098
    20 -0.024967 -1.127840 0.017597 -1.392783 -0.006040 -0.057597
    21 -0.020057 -0.906594 0.029622 -1.007262 0.005285 -0.041263
    22 0.618667 -1.205090 0.189285 0.731941 -1.193061 -0.979927
    23 1.457800 -0.239762 0.075324 0.065336 -0.234382 -0.861621
    24 1.030456 -0.163447 0.036197 0.059188 -0.214730 -0.888940
    25 0.120153 -0.050270 -0.054489 -2.345120 6.152178 -1.527299
    26 -0.130140 -2.180385 -8.419509 0.620758 -3.615519 0.252494
    27 -0.094468 -8.446512 -0.103118 0.097892 -0.227318 0.348556
    28 0.447953 -2.798986 -0.200443 -0.361571 -0.044577 0.164951
    29 -0.032909 -1.484110 0.004940 -0.213124 0.004338 -0.001149
    30 -0.027022 -1.076920 -0.020210 0.105245 -0.002924 0.000216
    31 -0.249534 -2.846964 -0.174213 -0.061246 -0.096170 0.077689
    32 0.043235 -1.672222 0.096012 -0.375674 -0.004751 -0.001893
    33 0.031729 -1.160830 0.058838 -0.188606 -0.000904 0.007245
    34 -0.963866 -2.785145 -0.085350 0.196280 0.322155 0.027817
    35 0.028479 -1.403067 -0.001542 -0.306140 -0.004362 -0.013734
    36 0.021413 -0.957781 0.020046 -0.128060 -0.001342 -0.005801
    37 1.164475 -2.543940 -0.170330 -0.306050 -0.067201 0.137073
    38 0.024032 -1.129042 0.006088 -0.438503 -0.001630 0.023407
    39 0.014898 -0.883989 -0.019848 -0.000013 0.001103 -0.003224
    40 -0.586770 -1.264477 0.200161 0.383170 -0.224363 -3.022353
    41 1.522835 0.058681 0.016848 0.001853 0.010004 -0.086225
    42 1.117947 0.048424 -0.005766 0.003041 -0.021267 -0.094380
    43 -0.002676 -0.002320 0.002678 0.132447 0.009569 1.382762
    44 -6.053769 6.510981 -0.442564 1.589121 -0.028669 -0.919049
  time 12
    0 4.876879 -10.008021 -7.025512 0.019814 1.012631 -3.604164
    1 1.310229 6.579789 -0.000740 1.570788 0.000000 1.570797
    2 0.772819 1.987386 0.000108 0.000000 0.000000 0.000000
    3 -1.734316 2.575866 0.550825 1.864957 0.000001 1.570795
    4 -1.428618 -0.139622 0.882533 2.482826 0.000001 1.570796
    5 -1.573682 1.878316 0.000661 0.000000 0.000001 1.570796
    6 -1.155131 -0.813790 -4.073724 0.000000 0.000000 0.000000
    7 8.575706 0.845105 -6.866379 0.392849 -2.171309 -0.560098
    8 5.628407 6.418763 -0.188870 1.566383 -3.131491 0.966863
    9 0.166368 -8.401077 -0.104134 -0.849072 1.069738 -0.960797
    10 -0.488518 -2.755602 -0.228260 -1.141808 -0.249290 -0.364717
    11 0.039887 -1.534479 0.014229 -1.583344 -0.011050 0.035439
    12 0.028786 -1.185109 -0.128581 -1.207611 -0.015077 0.026522
    13 0.250027 -2.820665 -0.238396 -0.956857 -0.243991 -0.301299
    14 -0.049759 -1.598510 0.041883 -1.451333 0.002325 -0.039431
    15 -0.034142 -1.179563 0.045718 -1.341014 0.004422 -0.035367
    16 0.957766 -2.746780 -0.090302 -0.240003 -0.077414 0.109044
    17 -0.033420 -1.393223 -0.022976 -0.801679 0.007071 -0.039442
    18 -0.022360 -0.957436 0.014878 -0.202134 0.004686 -0.009264
    19 -1.180681 -2.507217 -0.193859 -0.985954 -0.078376 -0.407098
    20 -0.024967 -1.127840 0.017597 -1.392783 -0.006040 -0.057597
    21 -0.020057 -0.906594 0.029622 -1.007262 0.005285 -0.041263
    22 0.618667 -1.205090 0.189285 0.731941 -1.193061 -0.979927
    23 1.457800 -0.239762 0.075324 0.065336 -0.234382 -0.861621
    24 1.030456 -0.163447 0.036197 0.059188 -0.214730 -0.888940
    25 0.120153 -0.050270 -0.054489 -2.345120 6.152178 -1.527299
    26 -2.384115 -2.992910 -9.646109 0.694973 -3.661076 0.527857
    27 0.108663 -8.161347 0.037511 0.086917 -0.100873 0.370151
    28 0.447953 -2.798986 -0.200443 -0.446955 -0.043883 0.165310
    29 -0.032909 -1.484110 0.004940 -0.274504 0.005968 -0.001784
    30 -0.027022 -1.076920 -0.020210 -0.040474 0.001198 -0.000168
    31 -0.249534 -2.846964 -0.174213 -0.131557 -0.091687 0.078061
    32 0.043235 -1.672222 0.096012 -0.434222 -0.005914 -0.001881
    33 0.031729 -1.156924 0.058838 -0.312508 -0.002306 0.006490
    34 -0.963866 -2.785145 -0.085350 0.167034 0.313593 0.024065
    35 0.028479 -1.403067 -0.001542 -0.260243 -0.003464 -0.011865
    36 0.021413 -0.957781 0.020046 -0.121159 -0.001246 -0.005501
    37 1.164475 -2.543940 -0.170330 -0.360754 -0.070320 0.138886
    38 0.024032 -1.129042 0.006088 -0.479622 -0.001258 0.025684
    39 0.014898 -0.883989 -0.019848 -0.137165 -0.001103 0.004147
    40 -0.586770 -1.264477 0.200161 0.184418 -0.263278 -2.960030
    41 1.522835 0.058681 0.016848 0.000355 0.006924 0.034837
    42 1.117947 0.048424 -0.005766 -0.001993 -0.026864 0.140902
    43 -0.002676 -0.002320 0.002678 0.132447 0.009569 1.382762
    44 -6.053769 6.510981 -0.442564 1.589121 -0.028669 -0.919049
  time 13
    0 4.939381 -9.980676 -7.088014 0.004866 1.013376 -3.615572
    1 1.310229 6.579789 -0.000740 1.570788 0.000000 1.570797
    2 0.772819 1.987386 0.000108 0.000000 0.000000 0.000000
    3 -1.734316 2.575866 0.550825 1.864957 0.000001 1.570795
    4 -1.428618 -0.139622 0.882533 2.482826 0.000001 1.570796
    5 -1.573682 1.878316 0.000661 0.000000 0.000001 1.570796
    6 -1.155131 -0.813790 -4.073724 0.000000 0.000000 0.000000
    7 8.630395 0.923232 -6.772626 0.365914 -2.163315 -0.536353
    8 5.616688 6.434389 -0.188870 1.566383 -3.131491 0.969097
    9 0.162461 -8.401077 -0.104134 -0.835420 1.069861 -0.940282
    10 -0.488518 -2.755602 -0.228260 -1.141808 -0.249290 -0.364717
    11 0.039887 -1.534479 0.014229 -1.583297 -0.011050 0.035439
    12 0.028786 -1.185109 -0.128581 -1.207611 -0.015077 0.026522
    13 0.250027 -2.820665 -0.238396 -0.956857 -0.243991 -0.301299
    14 -0.049759 -1.598510 0.041883 -1.451333 0.002325 -0.039431
    15 -0.034142 -1.179563 0.045718 -1.341014 0.004422 -0.035367
    16 0.957766 -2.746780 -0.090302 -0.240003 -0.077414 0.109044
    17 -0.033420 -1.393223 -0.022976 -0.801679 0.007071 -0.039442
    18 -0.022360 -0.957436 0.014878 -0.202134 0.004686 -0.009264
    19 -1.180681 -2.507217 -0.193859 -0.985954 -0.078376 -0.407098
    20 -0.024967 -1.127840 0.017597 -1.392783 -0.006040 -0.057597
    21 -0.020057 -0.906594 0.029622 -1.007262 0.005285 -0.041263
    22 0.618667 -1.205090 0.189285 0.731941 -1.193061 -0.979927
    23 1.457800 -0.239762 0.075324 0.065336 -0.234382 -0.861621
    24 1.030456 -0.163447 0.036197 0.059188 -0.214730 -0.888940
    25 0.120153 -0.050270 -0.054489 -2.345120 6.152178 -1.527299
    26 -4.634183 -2.824936 -10.193001 0.515008 -3.623053 0.582292
    27 0.190697 -8.438699 -0.142182 0.093972 -0.250621 0.352048
    28 0.447953 -2.798986 -0.200443 -0.513794 -0.043560 0.165957
    29 -0.032909 -1.484110 0.004940 -0.333541 0.007490 -0.002479
    30 -0.027022 -1.080826 -0.024116 -0.168452 0.004746 -0.001007
    31 -0.249534 -2.846964 -0.174213 -0.188500 -0.086929 0.078145
    32 0.043235 -1.672222 0.092106 -0.490498 -0.007016 -0.001821
    33 0.031729 -1.156924 0.058838 -0.418626 -0.003577 0.005975
    34 -0.963866 -2.785145 -0.085350 0.142793 0.304921 0.020821
    35 0.028479 -1.403067 0.002365 -0.235516 -0.003020 -0.010834
    36 0.021413 -0.957781 0.020046 -0.119724 -0.001234 -0.005441
    37 1.164475 -2.543940 -0.170330 -0.404639 -0.073401 0.140266
    38 0.024032 -1.129042 0.006088 -0.518441 -0.000827 0.027829
    39 0.014898 -0.887895 -0.019848 -0.256574 -0.002181 0.010762
    40 -0.586770 -1.264477 0.200161 0.017613 -0.291536 -2.905954
    41 1.526741 0.050868 0.016848 -0.001203 0.004479 0.136863
    42 1.117947 0.048424 -0.005766 -0.006894 -0.030399 0.329348
    43 -0.002676 -0.002320 0.002678 0.132447 0.009569 1.382762
    44 -6.053769 6.510981 -0.442564 1.589121 -0.028669 -0.919049
  time 14
    0 4.994070 -9.953331 -7.138797 6.276497 1.014026 -3.624775
    1 1.310229 6.579789 -0.000740 1.570788 0.000000 1.570797
    2 0.772819 1.987386 0.000108 0.000000 0.000000 0.000000
    3 -1.734316 2.575866 0.550825 1.864957 0.000001 1.570795
    4 -1.428618 -0.139622 0.882533 2.482826 0.000001 1.570796
    5 -1.573682 1.878316 0.000661 0.000000 0.000001 1.570796
    6 -1.155131 -0.813790 -4.073724 0.000000 0.000000 0.000000
    7 8.673365 0.989640 -6.698405 0.342910 -2.157105 -0.515187
    8 5.604969 6.442201 -0.188870 1.566383 -3.131587 0.971052
    9 0.162461 -8.401077 -0.104134 -0.825736 1.069468 -0.923442
    10 -0.488518 -2.755602 -0.228260 -1.141808 -0.249290 -0.364717
    11 0.039887 -1.534479 0.014229 -1.583297 -0.011050 0.035439
    12 0.028786 -1.185109 -0.128581 -1.207611 -0.015077 0.026522
    13 0.250027 -2.820665 -0.238396 -0.956857 -0.243991 -0.301299
    14 -0.049759 -1.598510 0.041883 -1.451333 0.002325 -0.039431
    15 -0.034142 -1.179563 0.045718 -1.341014 0.004422 -0.035367
    16 0.957766 -2.746780 -0.090302 -0.240003 -0.077414 0.109044
    17 -0.033420 -1.393223 -0.022976 -0.801679 0.007071 -0.039442
    18 -0.022360 -0.957436 0.014878 -0.202134 0.004686 -0.009264
    19 -1.180681 -2.507217 -0.193859 -0.985954 -0.078376 -0.407098
    20 -0.024967 -1.127840 0.017597 -1.392783 -0.006040 -0.057597
    21 -0.020057 -0.906594 0.029622 -1.007262 0.005285 -0.041263
    22 0.618667 -1.205090 0.189285 0.731941 -1.193061 -0.979927
    23 1.457800 -0.239762 0.075324 0.065336 -0.234382 -0.861621
    24 1.030456 -0.163447 0.036197 0.059188 -0.214730 -0.888940
    25 0.120153 -0.050270 -0.054489 -2.345120 6.152178 -1.527299
    26 -6.118604 -1.754591 -8.892180 0.063925 -3.917523 0.316155
    27 -0.336663 -8.438699 -0.216403 0.025026 -0.334003 0.154148
    28 0.447953 -2.798986 -0.200443 -0.534216 -0.040696 0.166365
    29 -0.032909 -1.484110 0.004940 -0.332499 0.007466 -0.002467
    30 -0.027022 -1.080826 -0.024116 -0.179380 0.005034 -0.001103
    31 -0.249534 -2.846964 -0.174213 -0.204653 -0.081596 0.077869
    32 0.043235 -1.668316 0.092106 -0.497992 -0.007172 -0.001809
    33 0.031729 -1.153017 0.058838 -0.434349 -0.003768 0.005915
    34 -0.963866 -2.785145 -0.085350 0.119271 0.316456 0.011588
    35 0.028479 -1.403067 0.002365 -0.247549 -0.003236 -0.011337
    36 0.021413 -0.957781 0.020046 -0.116059 -0.001186 -0.005285
    37 1.164475 -2.543940 -0.170330 -0.408389 -0.062763 0.139346
    38 0.024032 -1.129042 0.006088 -0.522494 -0.000779 0.028045
    39 0.014898 -0.887895 -0.019848 -0.271659 -0.002265 0.011613
    40 -0.586770 -1.264477 0.200161 -0.031838 -0.295404 -2.891750
    41 1.530648 0.050868 0.016848 -0.002018 0.003400 0.184259
    42 1.117947 0.048424 -0.005766 -0.008740 -0.031406 0.394684
    43 -0.002676 -0.002320 0.002678 0.132447 0.009569 1.382762
    44 -6.053769 6.510981 -0.442564 1.589121 -0.028669 -0.919049
  time 15
    0 5.013602 -9.941612 -7.162235 6.271898 1.014339 -3.628610
    1 1.310229 6.579789 -0.000740 1.570788 0.000000 1.570797
    2 0.772819 1.987386 0.000108 0.000000 0.000000 0.000000
    3 7.305022 3.181353 -1.566427 1.553173 0.281796 1.250405
    4 -1.428618 -0.139622 0.882533 2.482826 0.000001 1.570796
    5 -1.573682 1.878316 0.000661 0.000000 0.000001 1.570796
    6 -1.155131 -0.813790 -4.073724 0.000000 0.000000 0.000000
    7 8.692897 1.016985 -6.667154 0.333133 -2.154607 -0.505993
    8 5.597156 6.450014 -0.188870 1.566383 -3.131587 0.971982
    9 0.162461 -8.401077 -0.104134 -0.822073 1.069197 -0.916492
    10 -0.488518 -2.755602 -0.228260 -1.141808 -0.249290 -0.364717
    11 0.039887 -1.534479 0.014229 -1.583297 -0.011050 0.035439
    12 0.028786 -1.185109 -0.128581 -1.207611 -0.015077 0.026522
    13 0.250027 -2.820665 -0.238396 -0.956857 -0.243991 -0.301299
    14 -0.049759 -1.598510 0.041883 -1.451333 0.002325 -0.039431
    15 -0.034142 -1.179563 0.045718 -1.341014 0.004422 -0.035367
    16 0.957766 -2.746780 -0.090302 -0.240003 -0.077414 0.109044
    17 -0.033420 -1.393223 -0.022976 -0.801679 0.007071 -0.039442
    18 -0.022360 -0.957436 0.014878 -0.202134 0.004686 -0.009264
    19 -1.180681 -2.507217 -0.193859 -0.985954 -0.078376 -0.407098
    20 -0.024967 -1.127840 0.017597 -1.392783 -0.006040 -0.057597
    21 -0.020057 -0.906594 0.029622 -1.007262 0.005285 -0.041263
    22 0.618667 -1.205090 0.189285 0.731941 -1.193061 -0.979927
    23 1.457800 -0.239762 0.075324 0.065336 -0.234382 -0.861621
    24 1.030456 -0.163447 0.036197 0.059188 -0.214730 -0.888940
    25 0.120153 -0.050270 -0.054489 -2.345120 6.152178 -1.527299
    26 -5.356862 -2.274138 -5.888182 -0.818655 -4.058139 -0.171832
    27 0.120382 -8.462138 -0.028897 0.003158 -0.159253 -0.052997
    28 0.447953 -2.798986 -0.200443 -0.803125 -0.246413 0.117432
    29 -0.032909 -1.499736 0.020565 -1.140712 0.022052 -0.019485
    30 -0.027022 -1.123796 -0.024116 -1.160041 0.023789 -0.020302
    31 -0.249534 -2.846964 -0.174213 -0.311879 -0.275950 0.266183
    32 0.043235 -1.656596 0.072574 -1.351124 -0.021350 0.006353
    33 0.031729 -1.145205 0.058838 -1.033424 -0.011403 0.005819
    34 -0.963866 -2.785145 -0.085350 -0.162022 0.102638 0.197845
    35 0.028479 -1.403067 -0.013261 -0.669058 -0.014238 -0.026750
    36 0.021413 -0.953875 0.020046 -0.201374 -0.002409 -0.008941
    37 1.164475 -2.543940 -0.170330 -1.028516 -0.398371 0.181070
    38 0.024032 -1.132948 0.002182 -0.722685 0.002792 0.038699
    39 0.014898 -0.899614 -0.015942 -0.908403 0.005789 0.045877
    40 -0.586770 -1.264477 0.200161 -0.338133 -0.745473 -2.535794
    41 1.546273 0.039149 0.016848 -0.008333 -0.002520 0.490033
    42 1.117947 0.048424 -0.005766 -0.006619 -0.030232 0.319102
    43 -0.002676 -0.002320 0.002678 0.132447 0.009569 1.382762
    44 -6.053769 6.510981 -0.442564 1.589121 -0.028669 -0.919049
end
