version 1
nodes
  0 "throwing knife-1_p" -1
end
skeleton
  time 0
    0 0.002042 -0.029968 1.290080 0.000000 0.000000 0.000000
  time 1
    0 0.002042 -0.029968 1.290080 0.000000 0.000000 0.000000
end
