version 1
nodes
  0 "Bone01" -1
  1 "Bone_Lefthand" 0
  2 "Bone02" 1
  3 "Bone03" 2
  4 "Bone25" 3
  5 "Bone54" 3
  6 "Bone48" 3
  7 "Bone50" 3
  8 "Bone52" 3
  9 "Bone56" 3
  10 "Bone04" -1
  11 "Bone_Righthand" 10
  12 "Bone27" 11
  13 "Bone28" 12
  14 "Bone29" 13
  15 "Bone31" 11
  16 "Bone32" 15
  17 "Bone33" 16
  18 "Bone35" 11
  19 "Bone36" 18
  20 "Bone37" 19
  21 "Bone39" 11
  22 "Bone40" 21
  23 "Bone41" 22
  24 "Bone43" 11
  25 "Bone44" 24
  26 "Bone45" 25
  27 "Bone_Se_Hand-R" 11
  28 "Bone05" 1
  29 "Bone06" 28
  30 "Bone07" 29
  31 "Bone21" 1
  32 "Bone22" 31
  33 "Bone23" 32
  34 "Bone17" 1
  35 "Bone18" 34
  36 "Bone19" 35
  37 "Bone13" 1
  38 "Bone14" 37
  39 "Bone15" 38
  40 "Bone09" 1
  41 "Bone10" 40
  42 "Bone11" 41
  43 "Bone_Se_Hand-L" 1
end
skeleton
  time 0
    0 8.579237 3.427383 -7.944051 -0.673577 -1.336205 0.440628
    1 -0.069508 -8.500780 -0.100988 0.347495 -0.147547 -0.160923
    2 -0.549791 -3.387297 1.031815 0.764876 1.739162 0.794019
    3 0.011719 1.872863 1.001565 0.016323 -0.000096 -0.007299
    4 -0.013948 -2.720513 1.100493 0.000000 0.000000 0.000000
    5 -0.013949 -4.784638 0.650334 0.000000 0.000000 0.000000
    6 0.107148 -16.982784 2.765371 0.000000 0.000000 0.000000
    7 -0.013948 -3.609847 2.626636 0.000000 0.000000 0.000000
    8 -0.645044 -1.684246 2.571740 0.000000 0.000000 0.223890
    9 -0.666020 -4.704160 1.993688 0.000000 0.251327 0.000000
    10 -0.592568 -9.567248 -11.197469 -0.813144 0.476986 -5.810768
    11 0.096945 -8.450418 -0.009364 0.559921 -0.609127 0.060085
    12 -0.586769 -1.264478 0.200163 0.034697 -0.642603 -2.846401
    13 1.522835 0.058679 0.016850 -0.012194 0.029127 0.327997
    14 1.117947 0.048424 -0.005765 0.000010 -0.000008 0.511925
    15 -0.963866 -2.785143 -0.085346 -0.602204 0.000011 -0.000011
    16 0.028478 -1.403068 0.006272 -0.597214 -0.049199 -0.002686
    17 0.021413 -0.957782 0.020047 -0.748230 -0.033049 -0.015235
    18 -0.249534 -2.846964 -0.174215 -0.933584 -0.052390 0.079214
    19 0.043234 -1.683939 0.096015 -0.872920 0.000000 0.000000
    20 0.031730 -1.160831 0.058835 -0.944957 0.000000 0.000000
    21 0.447951 -2.798984 -0.200441 -1.237830 0.026301 0.158092
    22 -0.032910 -1.480206 0.004935 -0.568462 0.000000 0.000000
    23 -0.027023 -1.076921 -0.020213 -0.721168 0.000000 0.000000
    24 1.164475 -2.543939 -0.170327 -0.757746 0.016745 0.044583
    25 0.024032 -1.129041 0.017806 -1.945875 0.000000 0.000000
    26 0.014897 -0.883991 -0.019846 -1.031482 0.000000 0.000000
    27 -0.107771 -0.126440 -0.040150 0.399233 0.113823 1.444525
    28 0.583509 -1.197274 0.185379 0.377240 -0.745790 -1.043325
    29 1.535926 0.010246 0.005008 -0.290366 -0.063218 -0.837487
    30 1.100770 0.004528 -0.010676 0.000000 0.000000 -0.577697
    31 0.957766 -2.746777 -0.090301 -0.201708 0.016522 0.045809
    32 -0.033419 -1.397128 -0.011256 -0.763563 0.000000 0.000000
    33 -0.022361 -0.957434 0.018782 -0.593413 0.000000 0.000000
    34 0.250028 -2.820664 -0.238396 -0.872213 -0.049317 -0.238813
    35 -0.049759 -1.680544 0.100480 -1.454734 0.000000 0.000000
    36 -0.034141 -1.148311 0.084780 -1.567302 0.000000 0.000000
    37 -0.488517 -2.755600 -0.228262 -1.098183 -0.095997 -0.264898
    38 0.039888 -1.479791 0.029853 -1.354097 0.000000 0.000000
    39 0.028786 -1.075732 -0.023110 -1.435190 0.000000 0.000000
    40 -1.180679 -2.507216 -0.193861 -1.163687 -0.049460 -0.281009
    41 -0.024968 -1.123935 0.017594 -0.883862 0.000000 0.000000
    42 -0.020057 -0.890964 0.010091 -1.435318 0.000000 0.000000
    43 0.120152 -0.050267 -0.062301 0.012091 3.295480 1.512559
  time 1
    0 8.579237 3.427383 -7.944051 -0.673577 -1.336205 0.440628
    1 -0.069508 -8.500780 -0.100988 0.347495 -0.147547 -0.160923
    2 -0.549791 -3.387297 1.031815 0.764876 1.739162 0.794019
    3 0.011719 1.872863 1.001565 0.016323 -0.000096 -0.007299
    4 -0.013948 -2.720513 1.100493 0.000000 0.000000 0.000000
    5 -0.013949 -4.784638 0.650334 0.000000 0.000000 0.000000
    6 0.107148 -16.982784 2.765371 0.000000 0.000000 0.000000
    7 -0.013948 -3.609847 2.626636 0.000000 0.000000 0.000000
    8 -0.645044 -1.684246 2.571740 0.000000 0.000000 0.223890
    9 -0.666020 -4.704160 1.993688 0.000000 0.251327 0.000000
    10 -0.592568 -9.567248 -11.197469 -0.813144 0.476986 -5.810768
    11 0.096945 -8.450418 -0.009364 0.559921 -0.609127 0.060085
    12 -0.586769 -1.264478 0.200163 0.034697 -0.642603 -2.846401
    13 1.522835 0.058679 0.016850 -0.012194 0.029127 0.327997
    14 1.117947 0.048424 -0.005765 0.000010 -0.000008 0.511925
    15 -0.963866 -2.785143 -0.085346 -0.602204 0.000011 -0.000011
    16 0.028478 -1.403068 0.006272 -0.597214 -0.049199 -0.002686
    17 0.021413 -0.957782 0.020047 -0.748230 -0.033049 -0.015235
    18 -0.249534 -2.846964 -0.174215 -0.933584 -0.052390 0.079214
    19 0.043234 -1.683939 0.096015 -0.872920 0.000000 0.000000
    20 0.031730 -1.160831 0.058835 -0.944957 0.000000 0.000000
    21 0.447951 -2.798984 -0.200441 -1.237830 0.026301 0.158092
    22 -0.032910 -1.480206 0.004935 -0.568462 0.000000 0.000000
    23 -0.027023 -1.076921 -0.020213 -0.721168 0.000000 0.000000
    24 1.164475 -2.543939 -0.170327 -0.757746 0.016745 0.044583
    25 0.024032 -1.129041 0.017806 -1.945875 0.000000 0.000000
    26 0.014897 -0.883991 -0.019846 -1.031482 0.000000 0.000000
    27 -0.107771 -0.126440 -0.040150 0.399233 0.113823 1.444525
    28 0.583509 -1.197274 0.185379 0.377240 -0.745790 -1.043325
    29 1.535926 0.010246 0.005008 -0.290366 -0.063218 -0.837487
    30 1.100770 0.004528 -0.010676 0.000000 0.000000 -0.577697
    31 0.957766 -2.746777 -0.090301 -0.201708 0.016522 0.045809
    32 -0.033419 -1.397128 -0.011256 -0.763563 0.000000 0.000000
    33 -0.022361 -0.957434 0.018782 -0.593413 0.000000 0.000000
    34 0.250028 -2.820664 -0.238396 -0.872213 -0.049317 -0.238813
    35 -0.049759 -1.680544 0.100480 -1.454734 0.000000 0.000000
    36 -0.034141 -1.148311 0.084780 -1.567302 0.000000 0.000000
    37 -0.488517 -2.755600 -0.228262 -1.098183 -0.095997 -0.264898
    38 0.039888 -1.479791 0.029853 -1.354097 0.000000 0.000000
    39 0.028786 -1.075732 -0.023110 -1.435190 0.000000 0.000000
    40 -1.180679 -2.507216 -0.193861 -1.163687 -0.049460 -0.281009
    41 -0.024968 -1.123935 0.017594 -0.883862 0.000000 0.000000
    42 -0.020057 -0.890964 0.010091 -1.435318 0.000000 0.000000
    43 0.120152 -0.050267 -0.062301 0.012091 3.295480 1.512559
end
