version 1
nodes
  0 "Bone01" -1
  1 "Bone02" 0
  2 "Bone02_R" 1
  3 "Bone03_R" 2
  4 "Bone52_R" 3
  5 "Bone48_R" 3
  6 "Bone25_R" 3
  7 "Bone50_R" 3
  8 "Bone54_R" 3
  9 "Bone24" -1
  10 "Bone25" 9
  11 "Bone02_L" 10
  12 "Bone03_L" 11
  13 "Bone52_L" 12
  14 "Bone48_L" 12
  15 "Bone25_L" 12
  16 "Bone50_L" 12
  17 "Bone54_L" 12
  18 "Bone03" 1
  19 "Bone04" 18
  20 "Bone05" 19
  21 "Bone06" 20
  22 "Bone07" 18
  23 "Bone08" 22
  24 "Bone09" 23
  25 "Bone11" 18
  26 "Bone12" 25
  27 "Bone13" 26
  28 "Bone15" 18
  29 "Bone16" 28
  30 "Bone17" 29
  31 "Bone19" 18
  32 "Bone20" 31
  33 "Bone21" 32
  34 "Bone26" 10
  35 "Bone27" 34
  36 "Bone28" 35
  37 "Bone29" 36
  38 "Bone31" 34
  39 "Bone32" 38
  40 "Bone33" 39
  41 "Bone35" 34
  42 "Bone36" 41
  43 "Bone37" 42
  44 "Bone39" 34
  45 "Bone40" 44
  46 "Bone41" 45
  47 "Bone43" 34
  48 "Bone44" 47
  49 "Bone45" 48
end
skeleton
  time 0
    0 -10.222968 3.344507 -6.351756 0.763603 1.855546 1.150187
    1 0.026864 -9.077099 -0.000001 0.128685 -0.361210 0.326614
    2 -0.085530 -4.065333 0.539714 0.023093 -1.497266 -0.094576
    3 0.000000 2.637149 0.668922 0.000000 0.000000 0.000000
    4 0.000000 -1.667184 2.293658 0.000000 0.000000 0.000000
    5 0.000000 -1.808678 1.337844 0.000000 0.000000 0.000000
    6 0.000000 -2.905986 1.479337 0.357764 0.000000 0.000000
    7 0.000000 -0.782117 1.785742 -0.680679 0.000000 0.000000
    8 0.000000 -1.610587 0.584026 0.000000 0.000000 0.000000
    9 10.133122 3.247818 -5.945494 -1.880663 -1.326362 -4.787462
    10 -0.244754 -8.933564 0.000000 0.237170 0.319826 -0.240401
    11 -0.192862 -4.009873 0.577517 0.359939 1.511626 0.436878
    12 0.000001 2.617617 0.665016 0.000000 0.000000 0.000000
    13 0.000001 -1.655466 2.278033 0.000000 0.000000 0.000000
    14 0.000000 -1.796960 1.330032 0.000000 0.000000 0.000000
    15 0.000000 -2.886455 1.471524 0.000000 0.000000 0.000000
    16 0.000001 -0.778212 1.774024 -0.680679 0.000000 0.000000
    17 0.000000 -1.598869 0.580119 0.000000 0.000000 0.000000
    18 0.000000 -0.456721 -0.000001 0.004814 -0.002855 -0.000196
    19 -0.421911 0.233313 0.477534 -0.212797 -0.375551 -2.091539
    20 1.827485 -0.104694 0.000000 0.000000 0.000000 0.523599
    21 1.069448 0.056463 0.000000 0.000000 0.000000 0.848230
    22 -1.090122 -1.829639 -0.122574 0.014902 -0.141118 -1.831688
    23 1.390342 -0.000583 0.000000 0.001091 -0.714622 0.001629
    24 0.964940 -0.010943 -0.000001 0.000000 -1.010225 0.000000
    25 -0.348493 -1.994086 -0.122574 -0.078961 -0.260133 -1.437435
    26 1.546317 0.004627 0.000000 -0.000001 -1.623155 0.000000
    27 1.135737 0.008475 0.000000 0.000000 -1.110029 0.020944
    28 0.310263 -1.738959 -0.122574 -0.056428 -0.182688 -1.438565
    29 1.569655 0.049779 0.000001 0.000000 -1.497495 -0.010472
    30 1.096338 0.003406 0.000000 0.000000 -1.214749 0.005236
    31 0.956485 -1.335291 -0.122574 0.000000 -0.267035 -1.445133
    32 1.346260 0.018204 -0.000001 -0.002744 -0.612611 -0.000922
    33 0.874448 -0.001050 0.000000 0.000000 -1.392772 0.000000
    34 -0.017482 -0.437063 0.000000 0.000000 0.000000 0.000000
    35 0.472028 0.192308 0.472822 0.297069 -0.493084 -1.048320
    36 1.857548 0.010603 0.000000 0.000000 0.000000 -0.455531
    37 0.996041 -0.010017 0.000000 0.000000 0.000000 -0.858702
    38 1.137759 -1.867485 -0.137079 0.000000 -0.052360 -1.523672
    39 1.365644 0.014869 0.000000 -0.000683 -0.377004 -0.002803
    40 0.938014 -0.005664 0.000002 0.000000 -0.612611 0.010472
    41 0.409682 -2.071858 -0.137080 0.068179 -0.280440 -1.750247
    42 1.470907 0.007359 0.000000 0.000000 -1.617923 0.010472
    43 1.152099 0.010338 -0.000001 0.000000 -1.099558 0.005236
    44 -0.292848 -1.816393 -0.137080 0.017968 -0.224442 -1.724665
    45 1.511618 -0.004263 0.000000 0.000012 -1.544617 0.036640
    46 1.099636 -0.010806 0.000000 0.000000 -1.130973 0.010472
    47 -0.957059 -1.356554 -0.137080 0.000000 -0.235619 -1.685988
    48 1.351391 -0.010799 -0.000001 0.000000 -0.753982 0.005229
    49 0.859052 0.017735 -0.000001 0.000000 -1.371829 -0.010472
  time 1
    0 -10.222968 3.344507 -6.351756 0.828428 1.875687 1.218018
    1 0.026864 -9.077099 -0.000001 0.186874 -0.246519 0.099872
    2 -0.085530 -4.065333 0.539714 0.023093 -1.497266 -0.094576
    3 0.000000 2.637149 0.668922 0.000000 0.000000 0.000000
    4 0.000000 -0.850753 2.293658 0.000000 0.000000 0.000000
    5 0.000000 -1.808678 1.337844 0.000000 0.000000 0.000000
    6 0.000000 -2.905986 1.479337 0.357764 0.000000 0.000000
    7 0.000000 -0.782117 1.785742 -0.680679 0.000000 0.000000
    8 0.000000 -1.610587 0.584026 0.000000 0.000000 0.000000
    9 10.105777 3.169690 -5.984558 -1.896265 -1.327922 -4.771784
    10 -0.244754 -8.933564 0.000000 0.226967 0.317690 -0.256481
    11 -0.192862 -4.009873 0.577517 0.359939 1.511626 0.436878
    12 0.000001 2.617617 0.665016 0.000000 0.000000 0.000000
    13 0.000001 -1.655466 2.278033 0.000000 0.000000 0.000000
    14 0.000000 -1.796960 1.330032 0.000000 0.000000 0.000000
    15 0.000000 -2.886455 1.471524 0.000000 0.000000 0.000000
    16 0.000001 -0.778212 1.774024 -0.680679 0.000000 0.000000
    17 0.000000 -1.598869 0.580119 0.000000 0.000000 0.000000
    18 0.000000 -0.456721 -0.000001 0.004790 -0.002843 -0.000196
    19 -0.421911 0.233313 0.477534 -0.212797 -0.375551 -2.091539
    20 1.827485 -0.104694 0.000000 0.000000 0.000000 0.523599
    21 1.069448 0.056463 0.000000 0.000000 0.000000 0.848230
    22 -1.090122 -1.829639 -0.122574 0.014902 -0.141118 -1.831688
    23 1.390342 -0.000583 0.000000 0.001091 -0.714622 0.001629
    24 0.964940 -0.010943 -0.000001 0.000000 -1.010225 0.000000
    25 -0.348493 -1.994086 -0.122574 -0.078961 -0.260133 -1.437435
    26 1.546317 0.004627 0.000000 -0.000001 -1.623155 0.000000
    27 1.135737 0.008475 0.000000 0.000000 -1.110029 0.020944
    28 0.310263 -1.738959 -0.122574 -0.056428 -0.182688 -1.438565
    29 1.569655 0.049779 0.000001 0.000000 -1.497495 -0.010472
    30 1.096338 0.003406 0.000000 0.000000 -1.214749 0.005236
    31 0.956485 -1.335291 -0.122574 0.000000 -0.267035 -1.445133
    32 1.346260 0.018204 -0.000001 -0.002744 -0.612611 -0.000922
    33 0.874448 -0.001050 0.000000 0.000000 -1.392772 0.000000
    34 -0.017482 -0.437063 0.000000 0.000000 0.000000 0.000000
    35 0.472028 0.192308 0.472822 0.297069 -0.493084 -1.048320
    36 1.857548 0.010603 0.000000 0.000000 0.000000 -0.455531
    37 0.996041 -0.010017 0.000000 0.000000 0.000000 -0.858702
    38 1.137759 -1.867485 -0.137079 0.000000 -0.052360 -1.523672
    39 1.365644 0.014869 0.000000 -0.000683 -0.377004 -0.002803
    40 0.938014 -0.005664 0.000002 0.000000 -0.612611 0.010472
    41 0.409682 -2.071858 -0.137080 0.068179 -0.280440 -1.750247
    42 1.470907 0.007359 0.000000 0.000000 -1.617923 0.010472
    43 1.152099 0.010338 -0.000001 0.000000 -1.099558 0.005236
    44 -0.292848 -1.816393 -0.137080 0.017968 -0.224442 -1.724665
    45 1.511618 -0.004263 0.000000 0.000012 -1.544617 0.036640
    46 1.099636 -0.010806 0.000000 0.000000 -1.130973 0.010472
    47 -0.957059 -1.356554 -0.137080 0.000000 -0.235619 -1.685988
    48 1.351391 -0.010799 -0.000001 0.000000 -0.753982 0.005229
    49 0.859052 0.017735 -0.000001 0.000000 -1.371829 -0.010472
  time 2
    0 -10.222968 3.344507 -6.351756 0.894447 1.900918 1.287469
    1 0.026864 -9.077099 -0.000001 0.245063 -0.131828 -0.126908
    2 -0.085530 -4.065333 0.539714 0.023093 -1.497266 -0.094576
    3 0.000000 2.637149 0.668922 0.000000 0.000000 0.000000
    4 0.000000 -0.030415 2.293658 0.000000 0.000000 0.000000
    5 0.000000 -1.808678 1.337844 0.000000 0.000000 0.000000
    6 0.000000 -2.905986 1.479337 0.357764 0.000000 0.000000
    7 0.000000 -0.782117 1.785742 -0.680679 0.000000 0.000000
    8 0.000000 -1.610587 0.584026 0.000000 0.000000 0.000000
    9 10.078433 3.099375 -6.019715 -1.918741 -1.329928 -4.749127
    10 -0.244754 -8.933564 0.000000 0.219781 0.315603 -0.266664
    11 -0.192862 -4.009873 0.577517 0.359939 1.511626 0.436878
    12 0.000001 2.617617 0.665016 0.000000 0.000000 0.000000
    13 0.000001 -1.655466 2.278033 0.000000 0.000000 0.000000
    14 0.000000 -1.796960 1.330032 0.000000 0.000000 0.000000
    15 0.000000 -2.886455 1.471524 0.000000 0.000000 0.000000
    16 0.000001 -0.778212 1.774024 -0.680679 0.000000 0.000000
    17 0.000000 -1.598869 0.580119 0.000000 0.000000 0.000000
    18 0.000000 -0.456721 -0.000001 0.004718 -0.002795 -0.000196
    19 -0.421911 0.233313 0.477534 -0.212797 -0.375551 -2.091539
    20 1.827485 -0.104694 0.000000 0.000000 0.000000 0.523599
    21 1.069448 0.056463 0.000000 0.000000 0.000000 0.848230
    22 -1.090122 -1.829639 -0.122574 0.014902 -0.141118 -1.831688
    23 1.390342 -0.000583 0.000000 0.001091 -0.714622 0.001629
    24 0.964940 -0.010943 -0.000001 0.000000 -1.010225 0.000000
    25 -0.348493 -1.994086 -0.122574 -0.078961 -0.260133 -1.437435
    26 1.546317 0.004627 0.000000 -0.000001 -1.623155 0.000000
    27 1.135737 0.008475 0.000000 0.000000 -1.110029 0.020944
    28 0.310263 -1.738959 -0.122574 -0.056428 -0.182688 -1.438565
    29 1.569655 0.049779 0.000001 0.000000 -1.497495 -0.010472
    30 1.096338 0.003406 0.000000 0.000000 -1.214749 0.005236
    31 0.956485 -1.335291 -0.122574 0.000000 -0.267035 -1.445133
    32 1.346260 0.018204 -0.000001 -0.002744 -0.612611 -0.000922
    33 0.874448 -0.001050 0.000000 0.000000 -1.392772 0.000000
    34 -0.017482 -0.437063 0.000000 0.000000 0.000000 0.000000
    35 0.472028 0.192308 0.472822 0.297069 -0.493084 -1.048320
    36 1.857548 0.010603 0.000000 0.000000 0.000000 -0.455531
    37 0.996041 -0.010017 0.000000 0.000000 0.000000 -0.858702
    38 1.137759 -1.867485 -0.137079 0.000000 -0.052360 -1.523672
    39 1.365644 0.014869 0.000000 -0.000683 -0.377004 -0.002803
    40 0.938014 -0.005664 0.000002 0.000000 -0.612611 0.010472
    41 0.409682 -2.071858 -0.137080 0.068179 -0.280440 -1.750247
    42 1.470907 0.007359 0.000000 0.000000 -1.617923 0.010472
    43 1.152099 0.010338 -0.000001 0.000000 -1.099558 0.005236
    44 -0.292848 -1.816393 -0.137080 0.017968 -0.224442 -1.724665
    45 1.511618 -0.004263 0.000000 0.000012 -1.544617 0.036640
    46 1.099636 -0.010806 0.000000 0.000000 -1.130973 0.010472
    47 -0.957059 -1.356554 -0.137080 0.000000 -0.235619 -1.685988
    48 1.351391 -0.010799 -0.000001 0.000000 -0.753982 0.005229
    49 0.859052 0.017735 -0.000001 0.000000 -1.371829 -0.010472
  time 3
    0 -10.203436 3.813272 -6.281442 0.945910 1.925009 1.342107
    1 0.026864 -9.077099 -0.000001 0.239263 -0.142587 -0.083313
    2 -0.085530 -4.065333 0.539714 0.023093 -1.497266 -0.094576
    3 0.000000 2.637149 0.668922 0.000000 0.000000 0.000000
    4 0.000000 -0.850753 2.293658 0.000000 0.000000 0.000000
    5 0.000000 -1.808678 1.337844 0.000000 0.000000 0.000000
    6 0.000000 -2.905986 1.479337 0.357764 0.000000 0.000000
    7 0.000000 -0.782117 1.785742 -0.680679 0.000000 0.000000
    8 0.000000 -1.610587 0.584026 0.000000 0.000000 0.000000
    9 10.058901 3.032967 -6.054872 -1.939895 -1.331533 -4.727904
    10 -0.244754 -8.933564 0.000000 0.215146 0.313664 -0.271856
    11 -0.192862 -4.009873 0.577517 0.359939 1.511626 0.436878
    12 0.000001 2.617617 0.665016 0.000000 0.000000 0.000000
    13 0.000001 -1.655466 2.278033 0.000000 0.000000 0.000000
    14 0.000000 -1.796960 1.330032 0.000000 0.000000 0.000000
    15 0.000000 -2.886455 1.471524 0.000000 0.000000 0.000000
    16 0.000001 -0.778212 1.774024 -0.680679 0.000000 0.000000
    17 0.000000 -1.598869 0.580119 0.000000 0.000000 0.000000
    18 0.000000 -0.456721 -0.000001 0.004598 -0.002723 -0.000196
    19 -0.421911 0.233313 0.477534 -0.212797 -0.375551 -2.091539
    20 1.827485 -0.104694 0.000000 0.000000 0.000000 0.523599
    21 1.069448 0.056463 0.000000 0.000000 0.000000 0.848230
    22 -1.090122 -1.829639 -0.122574 0.014902 -0.141118 -1.831688
    23 1.390342 -0.000583 0.000000 0.001091 -0.714622 0.001629
    24 0.964940 -0.010943 -0.000001 0.000000 -1.010225 0.000000
    25 -0.348493 -1.994086 -0.122574 -0.078961 -0.260133 -1.437435
    26 1.546317 0.004627 0.000000 -0.000001 -1.623155 0.000000
    27 1.135737 0.008475 0.000000 0.000000 -1.110029 0.020944
    28 0.310263 -1.738959 -0.122574 -0.056428 -0.182688 -1.438565
    29 1.569655 0.049779 0.000001 0.000000 -1.497495 -0.010472
    30 1.096338 0.003406 0.000000 0.000000 -1.214749 0.005236
    31 0.956485 -1.335291 -0.122574 0.000000 -0.267035 -1.445133
    32 1.346260 0.018204 -0.000001 -0.002744 -0.612611 -0.000922
    33 0.874448 -0.001050 0.000000 0.000000 -1.392772 0.000000
    34 -0.017482 -0.437063 0.000000 0.000000 0.000000 0.000000
    35 0.472028 0.192308 0.472822 0.297069 -0.493084 -1.048320
    36 1.857548 0.010603 0.000000 0.000000 0.000000 -0.455531
    37 0.996041 -0.010017 0.000000 0.000000 0.000000 -0.858702
    38 1.137759 -1.867485 -0.137079 0.000000 -0.052360 -1.523672
    39 1.365644 0.014869 0.000000 -0.000683 -0.377004 -0.002803
    40 0.938014 -0.005664 0.000002 0.000000 -0.612611 0.010472
    41 0.409682 -2.071858 -0.137080 0.068179 -0.280440 -1.750247
    42 1.470907 0.007359 0.000000 0.000000 -1.617923 0.010472
    43 1.152099 0.010338 -0.000001 0.000000 -1.099558 0.005236
    44 -0.292848 -1.816393 -0.137080 0.017968 -0.224442 -1.724665
    45 1.511618 -0.004263 0.000000 0.000012 -1.544617 0.036640
    46 1.099636 -0.010806 0.000000 0.000000 -1.130973 0.010472
    47 -0.957059 -1.356554 -0.137080 0.000000 -0.235619 -1.685988
    48 1.351391 -0.010799 -0.000001 0.000000 -0.753982 0.005229
    49 0.859052 0.017735 -0.000001 0.000000 -1.371829 -0.010472
  time 4
    0 -10.191717 4.149220 -6.230659 0.993475 1.951776 1.393102
    1 0.026864 -9.077099 -0.000001 0.224736 -0.169872 0.021746
    2 -0.085530 -4.065333 0.539714 0.023093 -1.497266 -0.094576
    3 0.000000 2.637149 0.668922 0.000000 0.000000 0.000000
    4 0.000000 -1.667184 2.293658 0.000000 0.000000 0.000000
    5 0.000000 -1.808678 1.337844 0.000000 0.000000 0.000000
    6 0.000000 -2.905986 1.479337 0.357764 0.000000 0.000000
    7 0.000000 -0.782117 1.785742 -0.680679 0.000000 0.000000
    8 0.000000 -1.610587 0.584026 0.000000 0.000000 0.000000
    9 10.039369 2.978278 -6.082217 1.182617 -1.808862 -1.567235
    10 -0.244754 -8.933564 0.000000 0.212559 0.311896 -0.273041
    11 -0.192862 -4.009873 0.577517 0.359939 1.511626 0.436878
    12 0.000001 2.617617 0.665016 0.000000 0.000000 0.000000
    13 0.000001 -1.655466 2.278033 0.000000 0.000000 0.000000
    14 0.000000 -1.796960 1.330032 0.000000 0.000000 0.000000
    15 0.000000 -2.886455 1.471524 0.000000 0.000000 0.000000
    16 0.000001 -0.778212 1.774024 -0.680679 0.000000 0.000000
    17 0.000000 -1.598869 0.580119 0.000000 0.000000 0.000000
    18 0.000000 -0.456721 -0.000001 0.004430 -0.002627 -0.000184
    19 -0.421911 0.233313 0.477534 -0.212797 -0.375551 -2.091539
    20 1.827485 -0.104694 0.000000 0.000000 0.000000 0.523599
    21 1.069448 0.056463 0.000000 0.000000 0.000000 0.848230
    22 -1.090122 -1.829639 -0.122574 0.014902 -0.141118 -1.831688
    23 1.390342 -0.000583 0.000000 0.001091 -0.714622 0.001629
    24 0.964940 -0.010943 -0.000001 0.000000 -1.010225 0.000000
    25 -0.348493 -1.994086 -0.122574 -0.078961 -0.260133 -1.437435
    26 1.546317 0.004627 0.000000 -0.000001 -1.623155 0.000000
    27 1.135737 0.008475 0.000000 0.000000 -1.110029 0.020944
    28 0.310263 -1.738959 -0.122574 -0.056428 -0.182688 -1.438565
    29 1.569655 0.049779 0.000001 0.000000 -1.497495 -0.010472
    30 1.096338 0.003406 0.000000 0.000000 -1.214749 0.005236
    31 0.956485 -1.335291 -0.122574 0.000000 -0.267035 -1.445133
    32 1.346260 0.018204 -0.000001 -0.002744 -0.612611 -0.000922
    33 0.874448 -0.001050 0.000000 0.000000 -1.392772 0.000000
    34 -0.017482 -0.437063 0.000000 0.000000 0.000000 0.000000
    35 0.472028 0.192308 0.472822 0.297069 -0.493084 -1.048320
    36 1.857548 0.010603 0.000000 0.000000 0.000000 -0.455531
    37 0.996041 -0.010017 0.000000 0.000000 0.000000 -0.858702
    38 1.137759 -1.867485 -0.137079 0.000000 -0.052360 -1.523672
    39 1.365644 0.014869 0.000000 -0.000683 -0.377004 -0.002803
    40 0.938014 -0.005664 0.000002 0.000000 -0.612611 0.010472
    41 0.409682 -2.071858 -0.137080 0.068179 -0.280440 -1.750247
    42 1.470907 0.007359 0.000000 0.000000 -1.617923 0.010472
    43 1.152099 0.010338 -0.000001 0.000000 -1.099558 0.005236
    44 -0.292848 -1.816393 -0.137080 0.017968 -0.224442 -1.724665
    45 1.511618 -0.004263 0.000000 0.000012 -1.544617 0.036640
    46 1.099636 -0.010806 0.000000 0.000000 -1.130973 0.010472
    47 -0.957059 -1.356554 -0.137080 0.000000 -0.235619 -1.685988
    48 1.351391 -0.010799 -0.000001 0.000000 -0.753982 0.005229
    49 0.859052 0.017735 -0.000001 0.000000 -1.371829 -0.010472
  time 5
    0 -10.183905 4.348444 -6.199408 1.029587 1.975646 1.432117
    1 0.026864 -9.077099 -0.000001 0.205671 -0.206211 0.149704
    2 -0.085530 -4.065333 0.539714 0.023093 -1.497266 -0.094576
    3 0.000000 2.637149 0.668922 0.000000 0.000000 0.000000
    4 0.000000 -1.667184 2.293658 0.000000 0.000000 0.000000
    5 0.000000 -1.808678 1.337844 0.000000 0.000000 0.000000
    6 0.000000 -2.905986 1.479337 0.357764 0.000000 0.000000
    7 0.000000 -0.782117 1.785742 -0.680679 0.000000 0.000000
    8 0.000000 -1.610587 0.584026 0.000000 0.000000 0.000000
    9 10.019837 2.931402 -6.109561 1.165518 -1.808015 -1.549932
    10 -0.244754 -8.933564 0.000000 0.211589 0.310251 -0.271125
    11 -0.192862 -4.009873 0.577517 0.359939 1.511626 0.436878
    12 0.000001 2.617617 0.665016 0.000000 0.000000 0.000000
    13 0.000001 -1.655466 2.278033 0.000000 0.000000 0.000000
    14 0.000000 -1.796960 1.330032 0.000000 0.000000 0.000000
    15 0.000000 -2.886455 1.471524 0.000000 0.000000 0.000000
    16 0.000001 -0.778212 1.774024 -0.680679 0.000000 0.000000
    17 0.000000 -1.598869 0.580119 0.000000 0.000000 0.000000
    18 0.000000 -0.456721 -0.000001 0.004239 -0.002519 -0.000184
    19 -0.421911 0.233313 0.477534 -0.212797 -0.375551 -2.091539
    20 1.827485 -0.104694 0.000000 0.000000 0.000000 0.523599
    21 1.069448 0.056463 0.000000 0.000000 0.000000 0.848230
    22 -1.090122 -1.829639 -0.122574 0.014902 -0.141118 -1.831688
    23 1.390342 -0.000583 0.000000 0.001091 -0.714622 0.001629
    24 0.964940 -0.010943 -0.000001 0.000000 -1.010225 0.000000
    25 -0.348493 -1.994086 -0.122574 -0.078961 -0.260133 -1.437435
    26 1.546317 0.004627 0.000000 -0.000001 -1.623155 0.000000
    27 1.135737 0.008475 0.000000 0.000000 -1.110029 0.020944
    28 0.310263 -1.738959 -0.122574 -0.056428 -0.182688 -1.438565
    29 1.569655 0.049779 0.000001 0.000000 -1.497495 -0.010472
    30 1.096338 0.003406 0.000000 0.000000 -1.214749 0.005236
    31 0.956485 -1.335291 -0.122574 0.000000 -0.267035 -1.445133
    32 1.346260 0.018204 -0.000001 -0.002744 -0.612611 -0.000922
    33 0.874448 -0.001050 0.000000 0.000000 -1.392772 0.000000
    34 -0.017482 -0.437063 0.000000 0.000000 0.000000 0.000000
    35 0.472028 0.192308 0.472822 0.297069 -0.493084 -1.048320
    36 1.857548 0.010603 0.000000 0.000000 0.000000 -0.455531
    37 0.996041 -0.010017 0.000000 0.000000 0.000000 -0.858702
    38 1.137759 -1.867485 -0.137079 0.000000 -0.052360 -1.523672
    39 1.365644 0.014869 0.000000 -0.000683 -0.377004 -0.002803
    40 0.938014 -0.005664 0.000002 0.000000 -0.612611 0.010472
    41 0.409682 -2.071858 -0.137080 0.068179 -0.280440 -1.750247
    42 1.470907 0.007359 0.000000 0.000000 -1.617923 0.010472
    43 1.152099 0.010338 -0.000001 0.000000 -1.099558 0.005236
    44 -0.292848 -1.816393 -0.137080 0.017968 -0.224442 -1.724665
    45 1.511618 -0.004263 0.000000 0.000012 -1.544617 0.036640
    46 1.099636 -0.010806 0.000000 0.000000 -1.130973 0.010472
    47 -0.957059 -1.356554 -0.137080 0.000000 -0.235619 -1.685988
    48 1.351391 -0.010799 -0.000001 0.000000 -0.753982 0.005229
    49 0.859052 0.017735 -0.000001 0.000000 -1.371829 -0.010472
  time 6
    0 -10.179998 4.418759 -6.191595 1.035393 1.979859 1.438512
    1 0.026864 -9.077099 -0.000001 0.186310 -0.244162 0.261993
    2 -0.085530 -4.065333 0.539714 0.023093 -1.497266 -0.094576
    3 0.000000 2.637149 0.668922 0.000000 0.000000 0.000000
    4 0.000000 -1.667184 2.293658 0.000000 0.000000 0.000000
    5 0.000000 -1.808678 1.337844 0.000000 0.000000 0.000000
    6 0.000000 -2.905986 1.479337 0.357764 0.000000 0.000000
    7 0.000000 -0.782117 1.785742 -0.680679 0.000000 0.000000
    8 0.000000 -1.610587 0.584026 0.000000 0.000000 0.000000
    9 10.008118 2.888432 -6.133000 1.150269 -1.807435 -1.534350
    10 -0.244754 -8.933564 0.000000 0.211661 0.308704 -0.267067
    11 -0.192862 -4.009873 0.577517 0.359939 1.511626 0.436878
    12 0.000001 2.617617 0.665016 0.000000 0.000000 0.000000
    13 0.000001 -1.655466 2.278033 0.000000 0.000000 0.000000
    14 0.000000 -1.796960 1.330032 0.000000 0.000000 0.000000
    15 0.000000 -2.886455 1.471524 0.000000 0.000000 0.000000
    16 0.000001 -0.778212 1.774024 -0.680679 0.000000 0.000000
    17 0.000000 -1.598869 0.580119 0.000000 0.000000 0.000000
    18 0.000000 -0.456721 -0.000001 0.004011 -0.002376 -0.000172
    19 -0.421911 0.233313 0.477534 -0.212797 -0.375551 -2.091539
    20 1.827485 -0.104694 0.000000 0.000000 0.000000 0.523599
    21 1.069448 0.056463 0.000000 0.000000 0.000000 0.848230
    22 -1.090122 -1.829639 -0.122574 0.012577 -0.119100 -1.815197
    23 1.390342 -0.000583 0.000000 0.001091 -0.670214 0.001629
    24 0.964940 -0.010943 -0.000001 0.000000 -0.940883 0.000000
    25 -0.348493 -1.994086 -0.122574 -0.078961 -0.260133 -1.437435
    26 1.546317 0.004627 0.000000 -0.000001 -1.623155 0.000000
    27 1.135737 0.008475 0.000000 0.000000 -1.110029 0.020944
    28 0.310263 -1.738959 -0.122574 -0.056428 -0.182688 -1.438565
    29 1.569655 0.049779 0.000001 0.000000 -1.497495 -0.010472
    30 1.096338 0.003406 0.000000 0.000000 -1.214749 0.005236
    31 0.956485 -1.335291 -0.122574 0.000000 -0.267035 -1.445133
    32 1.346260 0.018204 -0.000001 -0.002744 -0.612611 -0.000922
    33 0.874448 -0.001050 0.000000 0.000000 -1.392772 0.000000
    34 -0.017482 -0.437063 0.000000 0.000000 0.000000 0.000000
    35 0.472028 0.192308 0.472822 0.297069 -0.493084 -1.048320
    36 1.857548 0.010603 0.000000 0.000000 0.000000 -0.455531
    37 0.996041 -0.010017 0.000000 0.000000 0.000000 -0.858702
    38 1.137759 -1.867485 -0.137079 0.000000 -0.052360 -1.523672
    39 1.365644 0.014869 0.000000 -0.000683 -0.377004 -0.002803
    40 0.938014 -0.005664 0.000002 0.000000 -0.612611 0.010472
    41 0.409682 -2.071858 -0.137080 0.068179 -0.280440 -1.750247
    42 1.470907 0.007359 0.000000 0.000000 -1.617923 0.010472
    43 1.152099 0.010338 -0.000001 0.000000 -1.099558 0.005236
    44 -0.292848 -1.816393 -0.137080 0.017968 -0.224442 -1.724665
    45 1.511618 -0.004263 0.000000 0.000012 -1.544617 0.036640
    46 1.099636 -0.010806 0.000000 0.000000 -1.130973 0.010472
    47 -0.957059 -1.356554 -0.137080 0.000000 -0.235619 -1.685988
    48 1.351391 -0.010799 -0.000001 0.000000 -0.753982 0.005229
    49 0.859052 0.017735 -0.000001 0.000000 -1.371829 -0.010472
  time 7
    0 -10.179998 4.395321 -6.211127 1.031575 1.977051 1.434303
    1 0.026864 -9.077099 -0.000001 0.170897 -0.276192 0.319936
    2 -0.085530 -4.065333 0.539714 0.023093 -1.497266 -0.094576
    3 0.000000 2.637149 0.668922 0.000000 0.000000 0.000000
    4 0.000000 -1.667184 2.293658 0.000000 0.000000 0.000000
    5 0.000000 -1.808678 1.337844 0.000000 0.000000 0.000000
    6 0.000000 -2.905986 1.479337 0.299795 0.000000 0.000000
    7 0.000000 -0.782117 1.785742 -0.680679 0.000000 0.000000
    8 0.000000 -1.610587 0.584026 0.000000 0.000000 0.000000
    9 9.992492 2.853274 -6.156438 1.136519 -1.807079 -1.520392
    10 -0.244754 -8.933564 0.000000 0.212415 0.307206 -0.261799
    11 -0.192862 -4.009873 0.577517 0.359939 1.511626 0.436878
    12 0.000001 2.617617 0.665016 0.000000 0.000000 0.000000
    13 0.000001 -1.655466 2.278033 0.000000 0.000000 0.000000
    14 0.000000 -1.796960 1.330032 0.000000 0.000000 0.000000
    15 0.000000 -2.886455 1.471524 0.000000 0.000000 0.000000
    16 0.000001 -0.778212 1.774024 -0.680679 0.000000 0.000000
    17 0.000000 -1.598869 0.580119 0.000000 0.000000 0.000000
    18 0.000000 -0.456721 -0.000001 0.003759 -0.002232 -0.000160
    19 -0.421911 0.233313 0.477534 -0.212797 -0.375551 -2.091539
    20 1.827485 -0.104694 0.000000 0.000000 0.000000 0.523599
    21 1.069448 0.056463 0.000000 0.000000 0.000000 0.848230
    22 -1.090122 -1.829639 -0.122574 0.007460 -0.070562 -1.778908
    23 1.390342 -0.000583 0.000000 0.001091 -0.572505 0.001617
    24 0.964940 -0.010943 -0.000001 0.000000 -0.788284 0.000000
    25 -0.348493 -1.994086 -0.122574 -0.078961 -0.260133 -1.437435
    26 1.546317 0.004627 0.000000 -0.000001 -1.623155 0.000000
    27 1.135737 0.008475 0.000000 0.000000 -1.110029 0.020944
    28 0.310263 -1.738959 -0.122574 -0.056428 -0.182688 -1.438565
    29 1.569655 0.049779 0.000001 0.000000 -1.497495 -0.010472
    30 1.096338 0.003406 0.000000 0.000000 -1.214749 0.005236
    31 0.956485 -1.335291 -0.122574 0.000000 -0.267035 -1.445133
    32 1.346260 0.018204 -0.000001 -0.002744 -0.612611 -0.000922
    33 0.874448 -0.001050 0.000000 0.000000 -1.392772 0.000000
    34 -0.017482 -0.437063 0.000000 0.000000 0.000000 0.000000
    35 0.472028 0.192308 0.472822 0.297069 -0.493084 -1.048320
    36 1.857548 0.010603 0.000000 0.000000 0.000000 -0.455531
    37 0.996041 -0.010017 0.000000 0.000000 0.000000 -0.858702
    38 1.137759 -1.867485 -0.137079 0.000000 -0.052360 -1.523672
    39 1.365644 0.014869 0.000000 -0.000683 -0.377004 -0.002803
    40 0.938014 -0.005664 0.000002 0.000000 -0.612611 0.010472
    41 0.409682 -2.071858 -0.137080 0.068179 -0.280440 -1.750247
    42 1.470907 0.007359 0.000000 0.000000 -1.617923 0.010472
    43 1.152099 0.010338 -0.000001 0.000000 -1.099558 0.005236
    44 -0.292848 -1.816393 -0.137080 0.017968 -0.224442 -1.724665
    45 1.511618 -0.004263 0.000000 0.000012 -1.544617 0.036640
    46 1.099636 -0.010806 0.000000 0.000000 -1.130973 0.010472
    47 -0.957059 -1.356554 -0.137080 0.000000 -0.235619 -1.685988
    48 1.351391 -0.010799 -0.000001 0.000000 -0.753982 0.005229
    49 0.859052 0.017735 -0.000001 0.000000 -1.371829 -0.010472
  time 8
    0 -10.179998 4.340632 -6.273629 1.015428 1.965861 1.416819
    1 0.026864 -9.077099 -0.000001 0.158250 -0.305647 0.335421
    2 -0.085530 -4.065333 0.539714 0.023093 -1.497266 -0.094576
    3 0.000000 2.637149 0.668922 0.000000 0.000000 0.000000
    4 0.000000 -1.667184 2.293658 0.000000 0.000000 0.000000
    5 0.000000 -1.808678 1.337844 0.000000 0.000000 0.000000
    6 0.000000 -2.905986 1.479337 0.172290 0.000000 0.000000
    7 0.000000 -0.782117 1.785742 -0.680679 0.000000 0.000000
    8 0.000000 -1.610587 0.584026 0.000000 0.000000 0.000000
    9 9.984680 2.825930 -6.172063 1.124179 -1.806990 -1.507773
    10 -0.244754 -8.933564 0.000000 0.213314 0.305758 -0.256229
    11 -0.192862 -4.009873 0.577517 0.359939 1.511626 0.436878
    12 0.000001 2.617617 0.665016 0.000000 0.000000 0.000000
    13 0.000001 -1.655466 2.278033 0.000000 0.000000 0.000000
    14 0.000000 -1.796960 1.330032 0.000000 0.000000 0.000000
    15 0.000000 -2.886455 1.471524 0.000000 0.000000 0.000000
    16 0.000001 -0.778212 1.774024 -0.680679 0.000000 0.000000
    17 0.000000 -1.598869 0.580119 0.000000 0.000000 0.000000
    18 0.000000 -0.456721 -0.000001 0.003484 -0.002064 -0.000148
    19 -0.421911 0.233313 0.477534 -0.212797 -0.375551 -2.091539
    20 1.827485 -0.104694 0.000000 0.000000 0.000000 0.523599
    21 1.069448 0.056463 0.000000 0.000000 0.000000 0.848230
    22 -1.090122 -1.829639 -0.122574 0.002330 -0.022062 -1.742630
    23 1.390342 -0.000583 0.000000 0.001103 -0.474814 0.001605
    24 0.964940 -0.010943 -0.000001 0.000000 -0.635686 0.000000
    25 -0.348493 -1.994086 -0.122574 -0.078961 -0.260133 -1.437435
    26 1.546317 0.004627 0.000000 -0.000001 -1.623155 0.000000
    27 1.135737 0.008475 0.000000 0.000000 -1.110029 0.020944
    28 0.310263 -1.738959 -0.122574 -0.056428 -0.182688 -1.438565
    29 1.569655 0.049779 0.000001 0.000000 -1.497495 -0.010472
    30 1.096338 0.003406 0.000000 0.000000 -1.214749 0.005236
    31 0.956485 -1.335291 -0.122574 0.000000 -0.267035 -1.445133
    32 1.346260 0.018204 -0.000001 -0.002744 -0.612611 -0.000922
    33 0.874448 -0.001050 0.000000 0.000000 -1.392772 0.000000
    34 -0.017482 -0.437063 0.000000 0.000000 0.000000 0.000000
    35 0.472028 0.192308 0.472822 0.297069 -0.493084 -1.048320
    36 1.857548 0.010603 0.000000 0.000000 0.000000 -0.455531
    37 0.996041 -0.010017 0.000000 0.000000 0.000000 -0.858702
    38 1.137759 -1.867485 -0.137079 0.000000 -0.052360 -1.523672
    39 1.365644 0.014869 0.000000 -0.000683 -0.377004 -0.002803
    40 0.938014 -0.005664 0.000002 0.000000 -0.612611 0.010472
    41 0.409682 -2.071858 -0.137080 0.068179 -0.280440 -1.750247
    42 1.470907 0.007359 0.000000 0.000000 -1.617923 0.010472
    43 1.152099 0.010338 -0.000001 0.000000 -1.099558 0.005236
    44 -0.292848 -1.816393 -0.137080 0.017968 -0.224442 -1.724665
    45 1.511618 -0.004263 0.000000 0.000012 -1.544617 0.036640
    46 1.099636 -0.010806 0.000000 0.000000 -1.130973 0.010472
    47 -0.957059 -1.356554 -0.137080 0.000000 -0.235619 -1.685988
    48 1.351391 -0.010799 -0.000001 0.000000 -0.753982 0.005229
    49 0.859052 0.017735 -0.000001 0.000000 -1.371829 -0.010472
  time 9
    0 -10.179998 4.258598 -6.359569 0.986873 1.947739 1.385979
    1 0.026864 -9.077099 -0.000001 0.145119 -0.338266 0.346393
    2 -0.085530 -4.065333 0.539714 0.023093 -1.497266 -0.094576
    3 0.000000 2.637149 0.668922 0.000000 0.000000 0.000000
    4 0.000000 -1.667184 2.293658 0.000000 0.000000 0.000000
    5 0.000000 -1.808678 1.337844 0.000000 0.000000 0.000000
    6 0.000000 -2.905986 1.479337 0.044774 0.000000 0.000000
    7 0.000000 -0.782117 1.785742 -0.680679 0.000000 0.000000
    8 0.000000 -1.610587 0.584026 0.000000 0.000000 0.000000
    9 9.976867 2.806398 -6.187689 1.112985 -1.807079 -1.496206
    10 -0.244754 -8.933564 0.000000 0.213888 0.304284 -0.251339
    11 -0.192862 -4.009873 0.577517 0.359939 1.511626 0.436878
    12 0.000001 2.617617 0.665016 0.000000 0.000000 0.000000
    13 0.000001 -1.655466 2.278033 0.000000 0.000000 0.000000
    14 0.000000 -1.796960 1.330032 0.000000 0.000000 0.000000
    15 0.000000 -2.886455 1.471524 0.000000 0.000000 0.000000
    16 0.000001 -0.778212 1.774024 -0.680679 0.000000 0.000000
    17 0.000000 -1.598869 0.580119 0.000000 0.000000 0.000000
    18 0.000000 -0.456721 -0.000001 0.003184 -0.001896 -0.000136
    19 -0.421911 0.233313 0.477534 -0.212797 -0.375551 -2.091539
    20 1.827485 -0.104694 0.000000 0.000000 0.000000 0.523599
    21 1.069448 0.056463 0.000000 0.000000 0.000000 0.848230
    22 -1.090122 -1.829639 -0.122574 0.000005 -0.000006 -1.726140
    23 1.390342 -0.000583 0.000000 0.001103 -0.430389 0.001605
    24 0.964940 -0.010943 -0.000001 0.000000 -0.566344 0.000000
    25 -0.348493 -1.994086 -0.122574 -0.078961 -0.260133 -1.437435
    26 1.546317 0.004627 0.000000 -0.000001 -1.623155 0.000000
    27 1.135737 0.008475 0.000000 0.000000 -1.110029 0.020944
    28 0.310263 -1.738959 -0.122574 -0.056428 -0.182688 -1.438565
    29 1.569655 0.049779 0.000001 0.000000 -1.497495 -0.010472
    30 1.096338 0.003406 0.000000 0.000000 -1.214749 0.005236
    31 0.956485 -1.335291 -0.122574 0.000000 -0.267035 -1.445133
    32 1.346260 0.018204 -0.000001 -0.002744 -0.612611 -0.000922
    33 0.874448 -0.001050 0.000000 0.000000 -1.392772 0.000000
    34 -0.017482 -0.437063 0.000000 0.000000 0.000000 0.000000
    35 0.472028 0.192308 0.472822 0.297069 -0.493084 -1.048320
    36 1.857548 0.010603 0.000000 0.000000 0.000000 -0.455531
    37 0.996041 -0.010017 0.000000 0.000000 0.000000 -0.858702
    38 1.137759 -1.867485 -0.137079 0.000000 -0.052360 -1.523672
    39 1.365644 0.014869 0.000000 -0.000683 -0.377004 -0.002803
    40 0.938014 -0.005664 0.000002 0.000000 -0.612611 0.010472
    41 0.409682 -2.071858 -0.137080 0.068179 -0.280440 -1.750247
    42 1.470907 0.007359 0.000000 0.000000 -1.617923 0.010472
    43 1.152099 0.010338 -0.000001 0.000000 -1.099558 0.005236
    44 -0.292848 -1.816393 -0.137080 0.017968 -0.224442 -1.724665
    45 1.511618 -0.004263 0.000000 0.000012 -1.544617 0.036640
    46 1.099636 -0.010806 0.000000 0.000000 -1.130973 0.010472
    47 -0.957059 -1.356554 -0.137080 0.000000 -0.235619 -1.685988
    48 1.351391 -0.010799 -0.000001 0.000000 -0.753982 0.005229
    49 0.859052 0.017735 -0.000001 0.000000 -1.371829 -0.010472
  time 10
    0 -10.183905 4.164845 -6.461135 0.948853 1.926544 1.345263
    1 0.026864 -9.077099 -0.000001 0.132794 -0.370233 0.353659
    2 -0.085530 -4.065333 0.539714 0.023093 -1.497266 -0.094576
    3 0.000000 2.637149 0.668922 0.000000 0.000000 0.000000
    4 0.000000 -1.667184 2.293658 0.000000 0.000000 0.000000
    5 0.000000 -1.808678 1.337844 0.000000 0.000000 0.000000
    6 0.000000 -2.905986 1.479337 -0.013171 0.000000 0.000000
    7 0.000000 -0.782117 1.785742 -0.680679 0.000000 0.000000
    8 0.000000 -1.610587 0.584026 0.000000 0.000000 0.000000
    9 9.972961 2.794679 -6.199408 1.102673 -1.807302 -1.485499
    10 -0.244754 -8.933564 0.000000 0.213673 0.302787 -0.248012
    11 -0.192862 -4.009873 0.577517 0.359939 1.511626 0.436878
    12 0.000001 2.617617 0.665016 0.000000 0.000000 0.000000
    13 0.000001 -1.655466 2.278033 0.000000 0.000000 0.000000
    14 0.000000 -1.796960 1.330032 0.000000 0.000000 0.000000
    15 0.000000 -2.886455 1.471524 0.000000 0.000000 0.000000
    16 0.000001 -0.778212 1.774024 -0.680679 0.000000 0.000000
    17 0.000000 -1.598869 0.580119 0.000000 0.000000 0.000000
    18 0.000000 -0.456721 -0.000001 0.002884 -0.001716 -0.000124
    19 -0.421911 0.233313 0.477534 -0.212797 -0.375551 -2.091539
    20 1.827485 -0.104694 0.000000 0.000000 0.000000 0.523599
    21 1.069448 0.056463 0.000000 0.000000 0.000000 0.848230
    22 -1.090122 -1.829639 -0.122574 0.000005 -0.000006 -1.726140
    23 1.390342 -0.000583 0.000000 0.001103 -0.438416 0.001605
    24 0.964940 -0.010943 -0.000001 0.000000 -0.582583 0.000000
    25 -0.348493 -1.994086 -0.122574 -0.078961 -0.260133 -1.437435
    26 1.546317 0.004627 0.000000 -0.000001 -1.623155 0.000000
    27 1.135737 0.008475 0.000000 0.000000 -1.110029 0.020944
    28 0.310263 -1.738959 -0.122574 -0.056428 -0.182688 -1.438565
    29 1.569655 0.049779 0.000001 0.000000 -1.497495 -0.010472
    30 1.096338 0.003406 0.000000 0.000000 -1.214749 0.005236
    31 0.956485 -1.335291 -0.122574 0.000000 -0.267035 -1.445133
    32 1.346260 0.018204 -0.000001 -0.002744 -0.612611 -0.000922
    33 0.874448 -0.001050 0.000000 0.000000 -1.392772 0.000000
    34 -0.017482 -0.437063 0.000000 0.000000 0.000000 0.000000
    35 0.472028 0.192308 0.472822 0.297069 -0.493084 -1.048320
    36 1.857548 0.010603 0.000000 0.000000 0.000000 -0.455531
    37 0.996041 -0.010017 0.000000 0.000000 0.000000 -0.858702
    38 1.137759 -1.867485 -0.137079 0.000000 -0.052360 -1.523672
    39 1.365644 0.014869 0.000000 -0.000683 -0.377004 -0.002803
    40 0.938014 -0.005664 0.000002 0.000000 -0.612611 0.010472
    41 0.409682 -2.071858 -0.137080 0.068179 -0.280440 -1.750247
    42 1.470907 0.007359 0.000000 0.000000 -1.617923 0.010472
    43 1.152099 0.010338 -0.000001 0.000000 -1.099558 0.005236
    44 -0.292848 -1.816393 -0.137080 0.017968 -0.224442 -1.724665
    45 1.511618 -0.004263 0.000000 0.000012 -1.544617 0.036640
    46 1.099636 -0.010806 0.000000 0.000000 -1.130973 0.010472
    47 -0.957059 -1.356554 -0.137080 0.000000 -0.235619 -1.685988
    48 1.351391 -0.010799 -0.000001 0.000000 -0.753982 0.005229
    49 0.859052 0.017735 -0.000001 0.000000 -1.371829 -0.010472
  time 11
    0 -10.183905 4.063279 -6.570513 0.902481 1.904429 1.295968
    1 0.026864 -9.077099 -0.000001 0.122455 -0.397797 0.357916
    2 -0.085530 -4.065333 0.539714 0.023093 -1.497266 -0.094576
    3 0.000000 2.637149 0.668922 0.000000 0.000000 0.000000
    4 0.000000 -1.667184 2.293658 0.000000 0.000000 0.000000
    5 0.000000 -1.808678 1.337844 0.000000 0.000000 0.000000
    6 0.000000 -2.905986 1.479337 -0.011122 0.000000 0.000000
    7 0.000000 -0.782117 1.785742 -0.680679 0.000000 0.000000
    8 0.000000 -1.610587 0.584026 0.000000 0.000000 0.000000
    9 9.972961 2.790772 -6.207221 1.092977 -1.807658 -1.475461
    10 -0.244754 -8.933564 0.000000 0.212236 0.301215 -0.247181
    11 -0.192862 -4.009873 0.577517 0.359939 1.511626 0.436878
    12 0.000001 2.617617 0.665016 0.000000 0.000000 0.000000
    13 0.000001 -1.655466 2.278033 0.000000 0.000000 0.000000
    14 0.000000 -1.796960 1.330032 0.000000 0.000000 0.000000
    15 0.000000 -2.886455 1.471524 0.000000 0.000000 0.000000
    16 0.000001 -0.778212 1.774024 -0.680679 0.000000 0.000000
    17 0.000000 -1.598869 0.580119 0.000000 0.000000 0.000000
    18 0.000000 -0.456721 -0.000001 0.002573 -0.001525 -0.000112
    19 -0.421911 0.233313 0.477534 -0.212797 -0.375551 -2.091539
    20 1.827485 -0.104694 0.000000 0.000000 0.000000 0.523599
    21 1.069448 0.056463 0.000000 0.000000 0.000000 0.848230
    22 -1.090122 -1.829639 -0.122574 0.000005 -0.000006 -1.726140
    23 1.390342 -0.000583 0.000000 0.001103 -0.456061 0.001605
    24 0.964940 -0.010943 -0.000001 0.000000 -0.618303 0.000000
    25 -0.348493 -1.994086 -0.122574 -0.078961 -0.260133 -1.437435
    26 1.546317 0.004627 0.000000 -0.000001 -1.623155 0.000000
    27 1.135737 0.008475 0.000000 0.000000 -1.110029 0.020944
    28 0.310263 -1.738959 -0.122574 -0.056428 -0.182688 -1.438565
    29 1.569655 0.049779 0.000001 0.000000 -1.497495 -0.010472
    30 1.096338 0.003406 0.000000 0.000000 -1.214749 0.005236
    31 0.956485 -1.335291 -0.122574 0.000000 -0.267035 -1.445133
    32 1.346260 0.018204 -0.000001 -0.002744 -0.612611 -0.000922
    33 0.874448 -0.001050 0.000000 0.000000 -1.392772 0.000000
    34 -0.017482 -0.437063 0.000000 0.000000 0.000000 0.000000
    35 0.472028 0.192308 0.472822 0.297069 -0.493084 -1.048320
    36 1.857548 0.010603 0.000000 0.000000 0.000000 -0.455531
    37 0.996041 -0.010017 0.000000 0.000000 0.000000 -0.858702
    38 1.137759 -1.867485 -0.137079 0.000000 -0.052360 -1.523672
    39 1.365644 0.014869 0.000000 -0.000683 -0.377004 -0.002803
    40 0.938014 -0.005664 0.000002 0.000000 -0.612611 0.010472
    41 0.409682 -2.071858 -0.137080 0.068179 -0.280440 -1.750247
    42 1.470907 0.007359 0.000000 0.000000 -1.617923 0.010472
    43 1.152099 0.010338 -0.000001 0.000000 -1.099558 0.005236
    44 -0.292848 -1.816393 -0.137080 0.017968 -0.224442 -1.724665
    45 1.511618 -0.004263 0.000000 0.000012 -1.544617 0.036640
    46 1.099636 -0.010806 0.000000 0.000000 -1.130973 0.010472
    47 -0.957059 -1.356554 -0.137080 0.000000 -0.235619 -1.685988
    48 1.351391 -0.010799 -0.000001 0.000000 -0.753982 0.005229
    49 0.859052 0.017735 -0.000001 0.000000 -1.371829 -0.010472
  time 12
    0 -10.183905 3.969527 -6.672079 0.849745 1.883279 1.240359
    1 0.026864 -9.077099 -0.000001 0.115366 -0.417083 0.359934
    2 -0.085530 -4.065333 0.539714 0.023093 -1.497266 -0.094576
    3 0.000000 2.637149 0.668922 0.000000 0.000000 0.000000
    4 0.000000 -1.667184 2.293658 0.000000 0.000000 0.000000
    5 0.000000 -1.808678 1.337844 0.000000 0.000000 0.000000
    6 0.000000 -2.905986 1.479337 -0.006580 0.000000 0.000000
    7 0.000000 -0.782117 1.785742 -0.680679 0.000000 0.000000
    8 0.000000 -1.610587 0.584026 0.000000 0.000000 0.000000
    9 9.972961 2.794679 -6.211127 1.083722 -1.808149 -1.465806
    10 -0.244754 -8.933564 0.000000 0.209146 0.299570 -0.249777
    11 -0.192862 -4.009873 0.577517 0.359939 1.511626 0.436878
    12 0.000001 2.617617 0.665016 0.000000 0.000000 0.000000
    13 0.000001 -1.655466 2.278033 0.000000 0.000000 0.000000
    14 0.000000 -1.796960 1.330032 0.000000 0.000000 0.000000
    15 0.000000 -2.886455 1.471524 0.000000 0.000000 0.000000
    16 0.000001 -0.778212 1.774024 -0.680679 0.000000 0.000000
    17 0.000000 -1.598869 0.580119 0.000000 0.000000 0.000000
    18 0.000000 -0.456721 -0.000001 0.002261 -0.001345 -0.000100
    19 -0.421911 0.233313 0.477534 -0.212797 -0.375551 -2.091539
    20 1.827485 -0.104694 0.000000 0.000000 0.000000 0.523599
    21 1.069448 0.056463 0.000000 0.000000 0.000000 0.848230
    22 -1.090122 -1.829639 -0.122574 0.000005 -0.000006 -1.726140
    23 1.390342 -0.000583 0.000000 0.001103 -0.473707 0.001605
    24 0.964940 -0.010943 -0.000001 0.000000 -0.653984 0.000000
    25 -0.348493 -1.994086 -0.122574 -0.078961 -0.260133 -1.437435
    26 1.546317 0.004627 0.000000 -0.000001 -1.623155 0.000000
    27 1.135737 0.008475 0.000000 0.000000 -1.110029 0.020944
    28 0.310263 -1.738959 -0.122574 -0.056428 -0.182688 -1.438565
    29 1.569655 0.049779 0.000001 0.000000 -1.497495 -0.010472
    30 1.096338 0.003406 0.000000 0.000000 -1.214749 0.005236
    31 0.956485 -1.335291 -0.122574 0.000000 -0.267035 -1.445133
    32 1.346260 0.018204 -0.000001 -0.002744 -0.612611 -0.000922
    33 0.874448 -0.001050 0.000000 0.000000 -1.392772 0.000000
    34 -0.017482 -0.437063 0.000000 0.000000 0.000000 0.000000
    35 0.472028 0.192308 0.472822 0.297069 -0.493084 -1.048320
    36 1.857548 0.010603 0.000000 0.000000 0.000000 -0.455531
    37 0.996041 -0.010017 0.000000 0.000000 0.000000 -0.858702
    38 1.137759 -1.867485 -0.137079 0.000000 -0.052360 -1.523672
    39 1.365644 0.014869 0.000000 -0.000683 -0.377004 -0.002803
    40 0.938014 -0.005664 0.000002 0.000000 -0.612611 0.010472
    41 0.409682 -2.071858 -0.137080 0.068179 -0.280440 -1.750247
    42 1.470907 0.007359 0.000000 0.000000 -1.617923 0.010472
    43 1.152099 0.010338 -0.000001 0.000000 -1.099558 0.005236
    44 -0.292848 -1.816393 -0.137080 0.017968 -0.224442 -1.724665
    45 1.511618 -0.004263 0.000000 0.000012 -1.544617 0.036640
    46 1.099636 -0.010806 0.000000 0.000000 -1.130973 0.010472
    47 -0.957059 -1.356554 -0.137080 0.000000 -0.235619 -1.685988
    48 1.351391 -0.010799 -0.000001 0.000000 -0.753982 0.005229
    49 0.859052 0.017735 -0.000001 0.000000 -1.371829 -0.010472
  time 13
    0 -10.183905 3.887493 -6.758019 0.794703 1.864717 1.182726
    1 0.026864 -9.077099 -0.000001 0.112735 -0.424369 0.360411
    2 -0.085530 -4.065333 0.539714 0.023093 -1.497266 -0.094576
    3 0.000000 2.637149 0.668922 0.000000 0.000000 0.000000
    4 0.000000 -1.667184 2.293658 0.000000 0.000000 0.000000
    5 0.000000 -1.808678 1.337844 0.000000 0.000000 0.000000
    6 0.000000 -2.905986 1.479337 -0.002049 0.000000 0.000000
    7 0.000000 -0.782117 1.785742 -0.680679 0.000000 0.000000
    8 0.000000 -1.610587 0.584026 0.000000 0.000000 0.000000
    9 9.976867 2.802491 -6.215033 1.074644 -1.808683 -1.456246
    10 -0.244754 -8.933564 0.000000 0.207457 0.298858 -0.251667
    11 -0.192862 -4.009873 0.577517 0.359939 1.511626 0.436878
    12 0.000001 2.617617 0.665016 0.000000 0.000000 0.000000
    13 0.000001 -1.655466 2.278033 0.000000 0.000000 0.000000
    14 0.000000 -1.796960 1.330032 0.000000 0.000000 0.000000
    15 0.000000 -2.886455 1.471524 0.000000 0.000000 0.000000
    16 0.000001 -0.778212 1.774024 -0.680679 0.000000 0.000000
    17 0.000000 -1.598869 0.580119 0.000000 0.000000 0.000000
    18 0.000000 -0.456721 -0.000001 0.001950 -0.001153 -0.000088
    19 -0.421911 0.233313 0.477534 -0.212797 -0.375551 -2.091539
    20 1.827485 -0.104694 0.000000 0.000000 0.000000 0.523599
    21 1.069448 0.056463 0.000000 0.000000 0.000000 0.848230
    22 -1.090122 -1.829639 -0.122574 0.000005 -0.000006 -1.726140
    23 1.390342 -0.000583 0.000000 0.001103 -0.481734 0.001605
    24 0.964940 -0.010943 -0.000001 0.000000 -0.670224 0.000000
    25 -0.348493 -1.994086 -0.122574 -0.078961 -0.260133 -1.437435
    26 1.546317 0.004627 0.000000 -0.000001 -1.623155 0.000000
    27 1.135737 0.008475 0.000000 0.000000 -1.110029 0.020944
    28 0.310263 -1.738959 -0.122574 -0.056428 -0.182688 -1.438565
    29 1.569655 0.049779 0.000001 0.000000 -1.497495 -0.010472
    30 1.096338 0.003406 0.000000 0.000000 -1.214749 0.005236
    31 0.956485 -1.335291 -0.122574 0.000000 -0.267035 -1.445133
    32 1.346260 0.018204 -0.000001 -0.002744 -0.612611 -0.000922
    33 0.874448 -0.001050 0.000000 0.000000 -1.392772 0.000000
    34 -0.017482 -0.437063 0.000000 0.000000 0.000000 0.000000
    35 0.472028 0.192308 0.472822 0.297069 -0.493084 -1.048320
    36 1.857548 0.010603 0.000000 0.000000 0.000000 -0.455531
    37 0.996041 -0.010017 0.000000 0.000000 0.000000 -0.858702
    38 1.137759 -1.867485 -0.137079 0.000000 -0.052360 -1.523672
    39 1.365644 0.014869 0.000000 -0.000683 -0.377004 -0.002803
    40 0.938014 -0.005664 0.000002 0.000000 -0.612611 0.010472
    41 0.409682 -2.071858 -0.137080 0.068179 -0.280440 -1.750247
    42 1.470907 0.007359 0.000000 0.000000 -1.617923 0.010472
    43 1.152099 0.010338 -0.000001 0.000000 -1.099558 0.005236
    44 -0.292848 -1.816393 -0.137080 0.017968 -0.224442 -1.724665
    45 1.511618 -0.004263 0.000000 0.000012 -1.544617 0.036640
    46 1.099636 -0.010806 0.000000 0.000000 -1.130973 0.010472
    47 -0.957059 -1.356554 -0.137080 0.000000 -0.235619 -1.685988
    48 1.351391 -0.010799 -0.000001 0.000000 -0.753982 0.005229
    49 0.859052 0.017735 -0.000001 0.000000 -1.371829 -0.010472
  time 14
    0 -10.187811 3.832804 -6.816614 0.743956 1.850193 1.129708
    1 0.026864 -9.077099 -0.000001 0.113245 -0.422478 0.359457
    2 -0.085530 -4.065333 0.539714 0.023093 -1.497266 -0.094576
    3 0.000000 2.637149 0.668922 0.000000 0.000000 0.000000
    4 0.000000 -1.667184 2.293658 0.000000 0.000000 0.000000
    5 0.000000 -1.808678 1.337844 0.000000 0.000000 0.000000
    6 0.000000 -2.905986 1.479337 0.000000 0.000000 0.000000
    7 0.000000 -0.782117 1.785742 -0.680679 0.000000 0.000000
    8 0.000000 -1.610587 0.584026 0.000000 0.000000 0.000000
    9 9.984680 2.818117 -6.211127 1.065477 -1.809307 -1.446590
    10 -0.244754 -8.933564 0.000000 0.204727 0.297704 -0.254692
    11 -0.192862 -4.009873 0.577517 0.359939 1.511626 0.436878
    12 0.000001 2.617617 0.665016 0.000000 0.000000 0.000000
    13 0.000001 -1.655466 2.278033 0.000000 0.000000 0.000000
    14 0.000000 -1.796960 1.330032 0.000000 0.000000 0.000000
    15 0.000000 -2.886455 1.471524 0.000000 0.000000 0.000000
    16 0.000001 -0.778212 1.774024 -0.680679 0.000000 0.000000
    17 0.000000 -1.598869 0.580119 0.000000 0.000000 0.000000
    18 0.000000 -0.456721 -0.000001 0.001638 -0.000973 -0.000076
    19 -0.421911 0.233313 0.477534 -0.212797 -0.375551 -2.091539
    20 1.827485 -0.104694 0.000000 0.000000 0.000000 0.523599
    21 1.069448 0.056463 0.000000 0.000000 0.000000 0.848230
    22 -1.090122 -1.829639 -0.122574 0.000005 -0.000006 -1.726140
    23 1.390342 -0.000583 0.000000 0.001103 -0.481734 0.001605
    24 0.964940 -0.010943 -0.000001 0.000000 -0.670224 0.000000
    25 -0.348493 -1.994086 -0.122574 -0.078961 -0.260133 -1.437435
    26 1.546317 0.004627 0.000000 -0.000001 -1.623155 0.000000
    27 1.135737 0.008475 0.000000 0.000000 -1.110029 0.020944
    28 0.310263 -1.738959 -0.122574 -0.056428 -0.182688 -1.438565
    29 1.569655 0.049779 0.000001 0.000000 -1.497495 -0.010472
    30 1.096338 0.003406 0.000000 0.000000 -1.214749 0.005236
    31 0.956485 -1.335291 -0.122574 0.000000 -0.267035 -1.445133
    32 1.346260 0.018204 -0.000001 -0.002744 -0.612611 -0.000922
    33 0.874448 -0.001050 0.000000 0.000000 -1.392772 0.000000
    34 -0.017482 -0.437063 0.000000 0.000000 0.000000 0.000000
    35 0.472028 0.192308 0.472822 0.297069 -0.493084 -1.048320
    36 1.857548 0.010603 0.000000 0.000000 0.000000 -0.455531
    37 0.996041 -0.010017 0.000000 0.000000 0.000000 -0.858702
    38 1.137759 -1.867485 -0.137079 0.000000 -0.052360 -1.523672
    39 1.365644 0.014869 0.000000 -0.000683 -0.377004 -0.002803
    40 0.938014 -0.005664 0.000002 0.000000 -0.612611 0.010472
    41 0.409682 -2.071858 -0.137080 0.068179 -0.280440 -1.750247
    42 1.470907 0.007359 0.000000 0.000000 -1.617923 0.010472
    43 1.152099 0.010338 -0.000001 0.000000 -1.099558 0.005236
    44 -0.292848 -1.816393 -0.137080 0.017968 -0.224442 -1.724665
    45 1.511618 -0.004263 0.000000 0.000012 -1.544617 0.036640
    46 1.099636 -0.010806 0.000000 0.000000 -1.130973 0.010472
    47 -0.957059 -1.356554 -0.137080 0.000000 -0.235619 -1.685988
    48 1.351391 -0.010799 -0.000001 0.000000 -0.753982 0.005229
    49 0.859052 0.017735 -0.000001 0.000000 -1.371829 -0.010472
  time 15
    0 -10.187811 3.813272 -6.840052 0.706015 1.840715 1.090288
    1 0.026864 -9.077099 -0.000001 0.114695 -0.417362 0.356888
    2 -0.085530 -4.065333 0.539714 0.023093 -1.497266 -0.094576
    3 0.000000 2.637149 0.668922 0.000000 0.000000 0.000000
    4 0.000000 -1.667184 2.293658 0.000000 0.000000 0.000000
    5 0.000000 -1.808678 1.337844 0.000000 0.000000 0.000000
    6 0.000000 -2.905986 1.479337 0.000000 0.000000 0.000000
    7 0.000000 -0.782117 1.785742 -0.680679 0.000000 0.000000
    8 0.000000 -1.610587 0.584026 0.000000 0.000000 0.000000
    9 9.992492 2.841555 -6.207221 1.055869 -1.810021 -1.436457
    10 -0.244754 -8.933564 0.000000 0.203254 0.297066 -0.256355
    11 -0.192862 -4.009873 0.577517 0.359939 1.511626 0.436878
    12 0.000001 2.617617 0.665016 0.000000 0.000000 0.000000
    13 0.000001 -1.655466 2.278033 0.000000 0.000000 0.000000
    14 0.000000 -1.796960 1.330032 0.000000 0.000000 0.000000
    15 0.000000 -2.886455 1.471524 0.000000 0.000000 0.000000
    16 0.000001 -0.778212 1.774024 -0.680679 0.000000 0.000000
    17 0.000000 -1.598869 0.580119 0.000000 0.000000 0.000000
    18 0.000000 -0.456721 -0.000001 0.001350 -0.000806 -0.000064
    19 -0.421911 0.233313 0.477534 -0.212797 -0.375551 -2.091539
    20 1.827485 -0.104694 0.000000 0.000000 0.000000 0.523599
    21 1.069448 0.056463 0.000000 0.000000 0.000000 0.848230
    22 -1.090122 -1.829639 -0.122574 0.000005 -0.000006 -1.726140
    23 1.390342 -0.000583 0.000000 0.001103 -0.481734 0.001605
    24 0.964940 -0.010943 -0.000001 0.000000 -0.670224 0.000000
    25 -0.348493 -1.994086 -0.122574 -0.078961 -0.260133 -1.437435
    26 1.546317 0.004627 0.000000 -0.000001 -1.623155 0.000000
    27 1.135737 0.008475 0.000000 0.000000 -1.110029 0.020944
    28 0.310263 -1.738959 -0.122574 -0.056428 -0.182688 -1.438565
    29 1.569655 0.049779 0.000001 0.000000 -1.497495 -0.010472
    30 1.096338 0.003406 0.000000 0.000000 -1.214749 0.005236
    31 0.956485 -1.335291 -0.122574 0.000000 -0.267035 -1.445133
    32 1.346260 0.018204 -0.000001 -0.002744 -0.612611 -0.000922
    33 0.874448 -0.001050 0.000000 0.000000 -1.392772 0.000000
    34 -0.017482 -0.437063 0.000000 0.000000 0.000000 0.000000
    35 0.472028 0.192308 0.472822 0.297069 -0.493084 -1.048320
    36 1.857548 0.010603 0.000000 0.000000 0.000000 -0.455531
    37 0.996041 -0.010017 0.000000 0.000000 0.000000 -0.858702
    38 1.137759 -1.867485 -0.137079 0.000000 -0.052360 -1.523672
    39 1.365644 0.014869 0.000000 -0.000683 -0.377004 -0.002803
    40 0.938014 -0.005664 0.000002 0.000000 -0.612611 0.010472
    41 0.409682 -2.071858 -0.137080 0.068179 -0.280440 -1.750247
    42 1.470907 0.007359 0.000000 0.000000 -1.617923 0.010472
    43 1.152099 0.010338 -0.000001 0.000000 -1.099558 0.005236
    44 -0.292848 -1.816393 -0.137080 0.017968 -0.224442 -1.724665
    45 1.511618 -0.004263 0.000000 0.000012 -1.544617 0.036640
    46 1.099636 -0.010806 0.000000 0.000000 -1.130973 0.010472
    47 -0.957059 -1.356554 -0.137080 0.000000 -0.235619 -1.685988
    48 1.351391 -0.010799 -0.000001 0.000000 -0.753982 0.005229
    49 0.859052 0.017735 -0.000001 0.000000 -1.371829 -0.010472
  time 16
    0 -10.195624 3.703893 -6.726768 0.687960 1.836590 1.071589
    1 0.026864 -9.077099 -0.000001 0.116816 -0.409859 0.353072
    2 -0.085530 -4.065333 0.539714 0.023093 -1.497266 -0.094576
    3 0.000000 2.637149 0.668922 0.000000 0.000000 0.000000
    4 0.000000 -1.667184 2.293658 0.000000 0.000000 0.000000
    5 0.000000 -1.808678 1.337844 0.000000 0.000000 0.000000
    6 0.000000 -2.905986 1.479337 0.000000 0.000000 0.000000
    7 0.000000 -0.782117 1.785742 -0.680679 0.000000 0.000000
    8 0.000000 -1.610587 0.584026 0.000000 0.000000 0.000000
    9 10.004212 2.872806 -6.199408 1.045733 -1.810734 -1.425750
    10 -0.244754 -8.933564 0.000000 0.202786 0.296869 -0.256859
    11 -0.192862 -4.009873 0.577517 0.359939 1.511626 0.436878
    12 0.000001 2.617617 0.665016 0.000000 0.000000 0.000000
    13 0.000001 -1.655466 2.278033 0.000000 0.000000 0.000000
    14 0.000000 -1.796960 1.330032 0.000000 0.000000 0.000000
    15 0.000000 -2.886455 1.471524 0.000000 0.000000 0.000000
    16 0.000001 -0.778212 1.774024 -0.680679 0.000000 0.000000
    17 0.000000 -1.598869 0.580119 0.000000 0.000000 0.000000
    18 0.000000 -0.456721 -0.000001 0.001075 -0.000638 -0.000064
    19 -0.421911 0.233313 0.477534 -0.212797 -0.375551 -2.091539
    20 1.827485 -0.104694 0.000000 0.000000 0.000000 0.523599
    21 1.069448 0.056463 0.000000 0.000000 0.000000 0.848230
    22 -1.090122 -1.829639 -0.122574 0.000005 -0.000006 -1.726140
    23 1.390342 -0.000583 0.000000 0.001103 -0.481734 0.001605
    24 0.964940 -0.010943 -0.000001 0.000000 -0.670224 0.000000
    25 -0.348493 -1.994086 -0.122574 -0.078961 -0.260133 -1.437435
    26 1.546317 0.004627 0.000000 -0.000001 -1.623155 0.000000
    27 1.135737 0.008475 0.000000 0.000000 -1.110029 0.020944
    28 0.310263 -1.738959 -0.122574 -0.056428 -0.182688 -1.438565
    29 1.569655 0.049779 0.000001 0.000000 -1.497495 -0.010472
    30 1.096338 0.003406 0.000000 0.000000 -1.214749 0.005236
    31 0.956485 -1.335291 -0.122574 0.000000 -0.267035 -1.445133
    32 1.346260 0.018204 -0.000001 -0.002744 -0.612611 -0.000922
    33 0.874448 -0.001050 0.000000 0.000000 -1.392772 0.000000
    34 -0.017482 -0.437063 0.000000 0.000000 0.000000 0.000000
    35 0.472028 0.192308 0.472822 0.297069 -0.493084 -1.048320
    36 1.857548 0.010603 0.000000 0.000000 0.000000 -0.455531
    37 0.996041 -0.010017 0.000000 0.000000 0.000000 -0.858702
    38 1.137759 -1.867485 -0.137079 0.000000 -0.052360 -1.523672
    39 1.365644 0.014869 0.000000 -0.000683 -0.377004 -0.002803
    40 0.938014 -0.005664 0.000002 0.000000 -0.612611 0.010472
    41 0.409682 -2.071858 -0.137080 0.068179 -0.280440 -1.750247
    42 1.470907 0.007359 0.000000 0.000000 -1.617923 0.010472
    43 1.152099 0.010338 -0.000001 0.000000 -1.099558 0.005236
    44 -0.292848 -1.816393 -0.137080 0.017968 -0.224442 -1.724665
    45 1.511618 -0.004263 0.000000 0.000012 -1.544617 0.036640
    46 1.099636 -0.010806 0.000000 0.000000 -1.130973 0.010472
    47 -0.957059 -1.356554 -0.137080 0.000000 -0.235619 -1.685988
    48 1.351391 -0.010799 -0.000001 0.000000 -0.753982 0.005229
    49 0.859052 0.017735 -0.000001 0.000000 -1.371829 -0.010472
  time 17
    0 -10.203436 3.606234 -6.625202 0.683426 1.835581 1.066895
    1 0.026864 -9.077099 -0.000001 0.119394 -0.400712 0.348448
    2 -0.085530 -4.065333 0.539714 0.023093 -1.497266 -0.094576
    3 0.000000 2.637149 0.668922 0.000000 0.000000 0.000000
    4 0.000000 -1.667184 2.293658 0.000000 0.000000 0.000000
    5 0.000000 -1.808678 1.337844 0.000000 0.000000 0.000000
    6 0.000000 -2.905986 1.479337 0.000000 0.000000 0.000000
    7 0.000000 -0.782117 1.785742 -0.680679 0.000000 0.000000
    8 0.000000 -1.610587 0.584026 0.000000 0.000000 0.000000
    9 10.019837 2.911870 -6.187689 1.034627 -1.811492 -1.414183
    10 -0.244754 -8.933564 0.000000 0.203146 0.297017 -0.256481
    11 -0.192862 -4.009873 0.577517 0.359939 1.511626 0.436878
    12 0.000001 2.617617 0.665016 0.000000 0.000000 0.000000
    13 0.000001 -1.655466 2.278033 0.000000 0.000000 0.000000
    14 0.000000 -1.796960 1.330032 0.000000 0.000000 0.000000
    15 0.000000 -2.886455 1.471524 0.000000 0.000000 0.000000
    16 0.000001 -0.778212 1.774024 -0.680679 0.000000 0.000000
    17 0.000000 -1.598869 0.580119 0.000000 0.000000 0.000000
    18 0.000000 -0.456721 -0.000001 0.000811 -0.000482 -0.000052
    19 -0.421911 0.233313 0.477534 -0.212797 -0.375551 -2.091539
    20 1.827485 -0.104694 0.000000 0.000000 0.000000 0.523599
    21 1.069448 0.056463 0.000000 0.000000 0.000000 0.848230
    22 -1.090122 -1.829639 -0.122574 0.000005 -0.000006 -1.726128
    23 1.390342 -0.000583 0.000000 0.001103 -0.481734 0.001605
    24 0.964940 -0.010943 -0.000001 0.000000 -0.670224 0.000000
    25 -0.348493 -1.994086 -0.122574 -0.078961 -0.260133 -1.437435
    26 1.546317 0.004627 0.000000 -0.000001 -1.623155 0.000000
    27 1.135737 0.008475 0.000000 0.000000 -1.110029 0.020944
    28 0.310263 -1.738959 -0.122574 -0.056428 -0.182688 -1.438565
    29 1.569655 0.049779 0.000001 0.000000 -1.497495 -0.010472
    30 1.096338 0.003406 0.000000 0.000000 -1.214749 0.005236
    31 0.956485 -1.335291 -0.122574 0.000000 -0.267035 -1.445133
    32 1.346260 0.018204 -0.000001 -0.002744 -0.612611 -0.000922
    33 0.874448 -0.001050 0.000000 0.000000 -1.392772 0.000000
    34 -0.017482 -0.437063 0.000000 0.000000 0.000000 0.000000
    35 0.472028 0.192308 0.472822 0.297069 -0.493084 -1.048320
    36 1.857548 0.010603 0.000000 0.000000 0.000000 -0.455531
    37 0.996041 -0.010017 0.000000 0.000000 0.000000 -0.858702
    38 1.137759 -1.867485 -0.137079 0.000000 -0.052360 -1.523672
    39 1.365644 0.014869 0.000000 -0.000683 -0.377004 -0.002803
    40 0.938014 -0.005664 0.000002 0.000000 -0.612611 0.010472
    41 0.409682 -2.071858 -0.137080 0.068179 -0.280440 -1.750247
    42 1.470907 0.007359 0.000000 0.000000 -1.617923 0.010472
    43 1.152099 0.010338 -0.000001 0.000000 -1.099558 0.005236
    44 -0.292848 -1.816393 -0.137080 0.017968 -0.224442 -1.724665
    45 1.511618 -0.004263 0.000000 0.000012 -1.544617 0.036640
    46 1.099636 -0.010806 0.000000 0.000000 -1.130973 0.010472
    47 -0.957059 -1.356554 -0.137080 0.000000 -0.235619 -1.685988
    48 1.351391 -0.010799 -0.000001 0.000000 -0.753982 0.005229
    49 0.859052 0.017735 -0.000001 0.000000 -1.371829 -0.010472
  time 18
    0 -10.207343 3.528107 -6.543168 0.689630 1.836941 1.073289
    1 0.026864 -9.077099 -0.000001 0.122214 -0.390759 0.343421
    2 -0.085530 -4.065333 0.539714 0.023093 -1.497266 -0.094576
    3 0.000000 2.637149 0.668922 0.000000 0.000000 0.000000
    4 0.000000 -1.667184 2.293658 0.000000 0.000000 0.000000
    5 0.000000 -1.808678 1.337844 0.000000 0.000000 0.000000
    6 0.000000 -2.905986 1.479337 0.000000 0.000000 0.000000
    7 0.000000 -0.782117 1.785742 -0.680679 0.000000 0.000000
    8 0.000000 -1.610587 0.584026 0.000000 0.000000 0.000000
    9 10.035462 2.958746 -6.175970 1.022552 -1.812294 -1.401468
    10 -0.244754 -8.933564 0.000000 0.204044 0.297410 -0.255473
    11 -0.192862 -4.009873 0.577517 0.359939 1.511626 0.436878
    12 0.000001 2.617617 0.665016 0.000000 0.000000 0.000000
    13 0.000001 -1.655466 2.278033 0.000000 0.000000 0.000000
    14 0.000000 -1.796960 1.330032 0.000000 0.000000 0.000000
    15 0.000000 -2.886455 1.471524 0.000000 0.000000 0.000000
    16 0.000001 -0.778212 1.774024 -0.680679 0.000000 0.000000
    17 0.000000 -1.598869 0.580119 0.000000 0.000000 0.000000
    18 0.000000 -0.456721 -0.000001 0.000583 -0.000350 -0.000040
    19 -0.421911 0.233313 0.477534 -0.212797 -0.375551 -2.091539
    20 1.827485 -0.104694 0.000000 0.000000 0.000000 0.523599
    21 1.069448 0.056463 0.000000 0.000000 0.000000 0.848230
    22 -1.090122 -1.829639 -0.122574 0.000005 -0.000006 -1.726128
    23 1.390342 -0.000583 0.000000 0.001103 -0.481734 0.001605
    24 0.964940 -0.010943 -0.000001 0.000000 -0.670224 0.000000
    25 -0.348493 -1.994086 -0.122574 -0.078961 -0.260133 -1.437435
    26 1.546317 0.004627 0.000000 -0.000001 -1.623155 0.000000
    27 1.135737 0.008475 0.000000 0.000000 -1.110029 0.020944
    28 0.310263 -1.738959 -0.122574 -0.056428 -0.182688 -1.438565
    29 1.569655 0.049779 0.000001 0.000000 -1.497495 -0.010472
    30 1.096338 0.003406 0.000000 0.000000 -1.214749 0.005236
    31 0.956485 -1.335291 -0.122574 0.000000 -0.267035 -1.445133
    32 1.346260 0.018204 -0.000001 -0.002744 -0.612611 -0.000922
    33 0.874448 -0.001050 0.000000 0.000000 -1.392772 0.000000
    34 -0.017482 -0.437063 0.000000 0.000000 0.000000 0.000000
    35 0.472028 0.192308 0.472822 0.297069 -0.493084 -1.048320
    36 1.857548 0.010603 0.000000 0.000000 0.000000 -0.455531
    37 0.996041 -0.010017 0.000000 0.000000 0.000000 -0.858702
    38 1.137759 -1.867485 -0.137079 0.000000 -0.052360 -1.523672
    39 1.365644 0.014869 0.000000 -0.000683 -0.377004 -0.002803
    40 0.938014 -0.005664 0.000002 0.000000 -0.612611 0.010472
    41 0.409682 -2.071858 -0.137080 0.068179 -0.280440 -1.750247
    42 1.470907 0.007359 0.000000 0.000000 -1.617923 0.010472
    43 1.152099 0.010338 -0.000001 0.000000 -1.099558 0.005236
    44 -0.292848 -1.816393 -0.137080 0.017968 -0.224442 -1.724665
    45 1.511618 -0.004263 0.000000 0.000012 -1.544617 0.036640
    46 1.099636 -0.010806 0.000000 0.000000 -1.130973 0.010472
    47 -0.957059 -1.356554 -0.137080 0.000000 -0.235619 -1.685988
    48 1.351391 -0.010799 -0.000001 0.000000 -0.753982 0.005229
    49 0.859052 0.017735 -0.000001 0.000000 -1.371829 -0.010472
  time 19
    0 -10.215155 3.461699 -6.472854 0.702993 1.840013 1.087212
    1 0.026864 -9.077099 -0.000001 0.125006 -0.380806 0.338394
    2 -0.085530 -4.065333 0.539714 0.023093 -1.497266 -0.094576
    3 0.000000 2.637149 0.668922 0.000000 0.000000 0.000000
    4 0.000000 -1.667184 2.293658 0.000000 0.000000 0.000000
    5 0.000000 -1.808678 1.337844 0.000000 0.000000 0.000000
    6 0.000000 -2.905986 1.479337 0.000000 0.000000 0.000000
    7 0.000000 -0.782117 1.785742 -0.680679 0.000000 0.000000
    8 0.000000 -1.610587 0.584026 0.000000 0.000000 0.000000
    9 10.054994 3.013435 -6.156438 1.008978 -1.813096 -1.387415
    10 -0.244754 -8.933564 0.000000 0.205266 0.297925 -0.254087
    11 -0.192862 -4.009873 0.577517 0.359939 1.511626 0.436878
    12 0.000001 2.617617 0.665016 0.000000 0.000000 0.000000
    13 0.000001 -1.655466 2.278033 0.000000 0.000000 0.000000
    14 0.000000 -1.796960 1.330032 0.000000 0.000000 0.000000
    15 0.000000 -2.886455 1.471524 0.000000 0.000000 0.000000
    16 0.000001 -0.778212 1.774024 -0.680679 0.000000 0.000000
    17 0.000000 -1.598869 0.580119 0.000000 0.000000 0.000000
    18 0.000000 -0.456721 -0.000001 0.000392 -0.000230 -0.000028
    19 -0.421911 0.233313 0.477534 -0.212797 -0.375551 -2.091539
    20 1.827485 -0.104694 0.000000 0.000000 0.000000 0.523599
    21 1.069448 0.056463 0.000000 0.000000 0.000000 0.848230
    22 -1.090122 -1.829639 -0.122574 0.000005 -0.000006 -1.726128
    23 1.390342 -0.000583 0.000000 0.001103 -0.481734 0.001605
    24 0.964940 -0.010943 -0.000001 0.000000 -0.670224 0.000000
    25 -0.348493 -1.994086 -0.122574 -0.078961 -0.260133 -1.437435
    26 1.546317 0.004627 0.000000 -0.000001 -1.623155 0.000000
    27 1.135737 0.008475 0.000000 0.000000 -1.110029 0.020944
    28 0.310263 -1.738959 -0.122574 -0.056428 -0.182688 -1.438565
    29 1.569655 0.049779 0.000001 0.000000 -1.497495 -0.010472
    30 1.096338 0.003406 0.000000 0.000000 -1.214749 0.005236
    31 0.956485 -1.335291 -0.122574 0.000000 -0.267035 -1.445133
    32 1.346260 0.018204 -0.000001 -0.002744 -0.612611 -0.000922
    33 0.874448 -0.001050 0.000000 0.000000 -1.392772 0.000000
    34 -0.017482 -0.437063 0.000000 0.000000 0.000000 0.000000
    35 0.472028 0.192308 0.472822 0.297069 -0.493084 -1.048320
    36 1.857548 0.010603 0.000000 0.000000 0.000000 -0.455531
    37 0.996041 -0.010017 0.000000 0.000000 0.000000 -0.858702
    38 1.137759 -1.867485 -0.137079 0.000000 -0.052360 -1.523672
    39 1.365644 0.014869 0.000000 -0.000683 -0.377004 -0.002803
    40 0.938014 -0.005664 0.000002 0.000000 -0.612611 0.010472
    41 0.409682 -2.071858 -0.137080 0.068179 -0.280440 -1.750247
    42 1.470907 0.007359 0.000000 0.000000 -1.617923 0.010472
    43 1.152099 0.010338 -0.000001 0.000000 -1.099558 0.005236
    44 -0.292848 -1.816393 -0.137080 0.017968 -0.224442 -1.724665
    45 1.511618 -0.004263 0.000000 0.000012 -1.544617 0.036640
    46 1.099636 -0.010806 0.000000 0.000000 -1.130973 0.010472
    47 -0.957059 -1.356554 -0.137080 0.000000 -0.235619 -1.685988
    48 1.351391 -0.010799 -0.000001 0.000000 -0.753982 0.005229
    49 0.859052 0.017735 -0.000001 0.000000 -1.371829 -0.010472
  time 20
    0 -10.219062 3.410916 -6.422071 0.720094 1.844137 1.104939
    1 0.026864 -9.077099 -0.000001 0.127584 -0.371659 0.333770
    2 -0.085530 -4.065333 0.539714 0.023093 -1.497266 -0.094576
    3 0.000000 2.637149 0.668922 0.000000 0.000000 0.000000
    4 0.000000 -1.667184 2.293658 0.000000 0.000000 0.000000
    5 0.000000 -1.808678 1.337844 0.000000 0.000000 0.000000
    6 0.000000 -2.905986 1.479337 0.000000 0.000000 0.000000
    7 0.000000 -0.782117 1.785742 -0.680679 0.000000 0.000000
    8 0.000000 -1.610587 0.584026 0.000000 0.000000 0.000000
    9 10.078433 3.072031 -6.136906 0.993906 -1.813898 -1.371737
    10 -0.244754 -8.933564 0.000000 0.206631 0.298514 -0.252574
    11 -0.192862 -4.009873 0.577517 0.359939 1.511626 0.436878
    12 0.000001 2.617617 0.665016 0.000000 0.000000 0.000000
    13 0.000001 -1.655466 2.278033 0.000000 0.000000 0.000000
    14 0.000000 -1.796960 1.330032 0.000000 0.000000 0.000000
    15 0.000000 -2.886455 1.471524 0.000000 0.000000 0.000000
    16 0.000001 -0.778212 1.774024 -0.680679 0.000000 0.000000
    17 0.000000 -1.598869 0.580119 0.000000 0.000000 0.000000
    18 0.000000 -0.456721 -0.000001 0.000224 -0.000134 -0.000028
    19 -0.421911 0.233313 0.477534 -0.212797 -0.375551 -2.091539
    20 1.827485 -0.104694 0.000000 0.000000 0.000000 0.523599
    21 1.069448 0.056463 0.000000 0.000000 0.000000 0.848230
    22 -1.090122 -1.829639 -0.122574 0.000005 -0.000006 -1.726128
    23 1.390342 -0.000583 0.000000 0.001103 -0.481734 0.001605
    24 0.964940 -0.010943 -0.000001 0.000000 -0.670224 0.000000
    25 -0.348493 -1.994086 -0.122574 -0.078961 -0.260133 -1.437435
    26 1.546317 0.004627 0.000000 -0.000001 -1.623155 0.000000
    27 1.135737 0.008475 0.000000 0.000000 -1.110029 0.020944
    28 0.310263 -1.738959 -0.122574 -0.056428 -0.182688 -1.438565
    29 1.569655 0.049779 0.000001 0.000000 -1.497495 -0.010472
    30 1.096338 0.003406 0.000000 0.000000 -1.214749 0.005236
    31 0.956485 -1.335291 -0.122574 0.000000 -0.267035 -1.445133
    32 1.346260 0.018204 -0.000001 -0.002744 -0.612611 -0.000922
    33 0.874448 -0.001050 0.000000 0.000000 -1.392772 0.000000
    34 -0.017482 -0.437063 0.000000 0.000000 0.000000 0.000000
    35 0.472028 0.192308 0.472822 0.297069 -0.493084 -1.048320
    36 1.857548 0.010603 0.000000 0.000000 0.000000 -0.455531
    37 0.996041 -0.010017 0.000000 0.000000 0.000000 -0.858702
    38 1.137759 -1.867485 -0.137079 0.000000 -0.052360 -1.523672
    39 1.365644 0.014869 0.000000 -0.000683 -0.377004 -0.002803
    40 0.938014 -0.005664 0.000002 0.000000 -0.612611 0.010472
    41 0.409682 -2.071858 -0.137080 0.068179 -0.280440 -1.750247
    42 1.470907 0.007359 0.000000 0.000000 -1.617923 0.010472
    43 1.152099 0.010338 -0.000001 0.000000 -1.099558 0.005236
    44 -0.292848 -1.816393 -0.137080 0.017968 -0.224442 -1.724665
    45 1.511618 -0.004263 0.000000 0.000012 -1.544617 0.036640
    46 1.099636 -0.010806 0.000000 0.000000 -1.130973 0.010472
    47 -0.957059 -1.356554 -0.137080 0.000000 -0.235619 -1.685988
    48 1.351391 -0.010799 -0.000001 0.000000 -0.753982 0.005229
    49 0.859052 0.017735 -0.000001 0.000000 -1.371829 -0.010472
  time 21
    0 -10.219062 3.371852 -6.383007 0.737672 1.848569 1.123232
    1 0.026864 -9.077099 -0.000001 0.129706 -0.364125 0.329954
    2 -0.085530 -4.065333 0.539714 0.023093 -1.497266 -0.094576
    3 0.000000 2.637149 0.668922 0.000000 0.000000 0.000000
    4 0.000000 -1.667184 2.293658 0.000000 0.000000 0.000000
    5 0.000000 -1.808678 1.337844 0.000000 0.000000 0.000000
    6 0.000000 -2.905986 1.479337 0.000000 0.000000 0.000000
    7 0.000000 -0.782117 1.785742 -0.680679 0.000000 0.000000
    8 0.000000 -1.610587 0.584026 0.000000 0.000000 0.000000
    9 10.101871 3.138439 -6.113468 0.976894 -1.814745 -1.354147
    10 -0.244754 -8.933564 0.000000 0.207852 0.299030 -0.251163
    11 -0.192862 -4.009873 0.577517 0.359939 1.511626 0.436878
    12 0.000001 2.617617 0.665016 0.000000 0.000000 0.000000
    13 0.000001 -1.655466 2.278033 0.000000 0.000000 0.000000
    14 0.000000 -1.796960 1.330032 0.000000 0.000000 0.000000
    15 0.000000 -2.886455 1.471524 0.000000 0.000000 0.000000
    16 0.000001 -0.778212 1.774024 -0.680679 0.000000 0.000000
    17 0.000000 -1.598869 0.580119 0.000000 0.000000 0.000000
    18 0.000000 -0.456721 -0.000001 0.000104 -0.000063 -0.000016
    19 -0.421911 0.233313 0.477534 -0.212797 -0.375551 -2.091539
    20 1.827485 -0.104694 0.000000 0.000000 0.000000 0.523599
    21 1.069448 0.056463 0.000000 0.000000 0.000000 0.848230
    22 -1.090122 -1.829639 -0.122574 0.000005 -0.000006 -1.726128
    23 1.390342 -0.000583 0.000000 0.001103 -0.481734 0.001605
    24 0.964940 -0.010943 -0.000001 0.000000 -0.670224 0.000000
    25 -0.348493 -1.994086 -0.122574 -0.078961 -0.260133 -1.437435
    26 1.546317 0.004627 0.000000 -0.000001 -1.623155 0.000000
    27 1.135737 0.008475 0.000000 0.000000 -1.110029 0.020944
    28 0.310263 -1.738959 -0.122574 -0.056428 -0.182688 -1.438565
    29 1.569655 0.049779 0.000001 0.000000 -1.497495 -0.010472
    30 1.096338 0.003406 0.000000 0.000000 -1.214749 0.005236
    31 0.956485 -1.335291 -0.122574 0.000000 -0.267035 -1.445133
    32 1.346260 0.018204 -0.000001 -0.002744 -0.612611 -0.000922
    33 0.874448 -0.001050 0.000000 0.000000 -1.392772 0.000000
    34 -0.017482 -0.437063 0.000000 0.000000 0.000000 0.000000
    35 0.472028 0.192308 0.472822 0.297069 -0.493084 -1.048320
    36 1.857548 0.010603 0.000000 0.000000 0.000000 -0.455531
    37 0.996041 -0.010017 0.000000 0.000000 0.000000 -0.858702
    38 1.137759 -1.867485 -0.137079 0.000000 -0.052360 -1.523672
    39 1.365644 0.014869 0.000000 -0.000683 -0.377004 -0.002803
    40 0.938014 -0.005664 0.000002 0.000000 -0.612611 0.010472
    41 0.409682 -2.071858 -0.137080 0.068179 -0.280440 -1.750247
    42 1.470907 0.007359 0.000000 0.000000 -1.617923 0.010472
    43 1.152099 0.010338 -0.000001 0.000000 -1.099558 0.005236
    44 -0.292848 -1.816393 -0.137080 0.017968 -0.224442 -1.724665
    45 1.511618 -0.004263 0.000000 0.000012 -1.544617 0.036640
    46 1.099636 -0.010806 0.000000 0.000000 -1.130973 0.010472
    47 -0.957059 -1.356554 -0.137080 0.000000 -0.235619 -1.685988
    48 1.351391 -0.010799 -0.000001 0.000000 -0.753982 0.005229
    49 0.859052 0.017735 -0.000001 0.000000 -1.371829 -0.010472
  time 22
    0 -10.222968 3.352320 -6.359569 0.752785 1.852562 1.138935
    1 0.026864 -9.077099 -0.000001 0.131156 -0.359009 0.327385
    2 -0.085530 -4.065333 0.539714 0.023093 -1.497266 -0.094576
    3 0.000000 2.637149 0.668922 0.000000 0.000000 0.000000
    4 0.000000 -1.667184 2.293658 0.000000 0.000000 0.000000
    5 0.000000 -1.808678 1.337844 0.000000 0.000000 0.000000
    6 0.000000 -2.905986 1.479337 0.000000 0.000000 0.000000
    7 0.000000 -0.782117 1.785742 -0.680679 0.000000 0.000000
    8 0.000000 -1.610587 0.584026 0.000000 0.000000 0.000000
    9 10.129215 3.212660 -6.090030 0.957767 -1.815637 -1.334358
    10 -0.244754 -8.933564 0.000000 0.208787 0.299423 -0.250155
    11 -0.192862 -4.009873 0.577517 0.359939 1.511626 0.436878
    12 0.000001 2.617617 0.665016 0.000000 0.000000 0.000000
    13 0.000001 -1.655466 2.278033 0.000000 0.000000 0.000000
    14 0.000000 -1.796960 1.330032 0.000000 0.000000 0.000000
    15 0.000000 -2.886455 1.471524 0.000000 0.000000 0.000000
    16 0.000001 -0.778212 1.774024 -0.680679 0.000000 0.000000
    17 0.000000 -1.598869 0.580119 0.000000 0.000000 0.000000
    18 0.000000 -0.456721 -0.000001 0.000032 -0.000015 -0.000016
    19 -0.421911 0.233313 0.477534 -0.212797 -0.375551 -2.091539
    20 1.827485 -0.104694 0.000000 0.000000 0.000000 0.523599
    21 1.069448 0.056463 0.000000 0.000000 0.000000 0.848230
    22 -1.090122 -1.829639 -0.122574 0.000005 -0.000006 -1.726128
    23 1.390342 -0.000583 0.000000 0.001103 -0.481734 0.001605
    24 0.964940 -0.010943 -0.000001 0.000000 -0.670224 0.000000
    25 -0.348493 -1.994086 -0.122574 -0.078961 -0.260133 -1.437435
    26 1.546317 0.004627 0.000000 -0.000001 -1.623155 0.000000
    27 1.135737 0.008475 0.000000 0.000000 -1.110029 0.020944
    28 0.310263 -1.738959 -0.122574 -0.056428 -0.182688 -1.438565
    29 1.569655 0.049779 0.000001 0.000000 -1.497495 -0.010472
    30 1.096338 0.003406 0.000000 0.000000 -1.214749 0.005236
    31 0.956485 -1.335291 -0.122574 0.000000 -0.267035 -1.445133
    32 1.346260 0.018204 -0.000001 -0.002744 -0.612611 -0.000922
    33 0.874448 -0.001050 0.000000 0.000000 -1.392772 0.000000
    34 -0.017482 -0.437063 0.000000 0.000000 0.000000 0.000000
    35 0.472028 0.192308 0.472822 0.297069 -0.493084 -1.048320
    36 1.857548 0.010603 0.000000 0.000000 0.000000 -0.455531
    37 0.996041 -0.010017 0.000000 0.000000 0.000000 -0.858702
    38 1.137759 -1.867485 -0.137079 0.000000 -0.052360 -1.523672
    39 1.365644 0.014869 0.000000 -0.000683 -0.377004 -0.002803
    40 0.938014 -0.005664 0.000002 0.000000 -0.612611 0.010472
    41 0.409682 -2.071858 -0.137080 0.068179 -0.280440 -1.750247
    42 1.470907 0.007359 0.000000 0.000000 -1.617923 0.010472
    43 1.152099 0.010338 -0.000001 0.000000 -1.099558 0.005236
    44 -0.292848 -1.816393 -0.137080 0.017968 -0.224442 -1.724665
    45 1.511618 -0.004263 0.000000 0.000012 -1.544617 0.036640
    46 1.099636 -0.010806 0.000000 0.000000 -1.130973 0.010472
    47 -0.957059 -1.356554 -0.137080 0.000000 -0.235619 -1.685988
    48 1.351391 -0.010799 -0.000001 0.000000 -0.753982 0.005229
    49 0.859052 0.017735 -0.000001 0.000000 -1.371829 -0.010472
  time 23
    0 -10.222968 3.344507 -6.351756 0.762887 1.855371 1.149458
    1 0.026864 -9.077099 -0.000001 0.131693 -0.357148 0.326431
    2 -0.085530 -4.065333 0.539714 0.023093 -1.497266 -0.094576
    3 0.000000 2.637149 0.668922 0.000000 0.000000 0.000000
    4 0.000000 -1.667184 2.293658 0.000000 0.000000 0.000000
    5 0.000000 -1.808678 1.337844 0.000000 0.000000 0.000000
    6 0.000000 -2.905986 1.479337 0.000000 0.000000 0.000000
    7 0.000000 -0.782117 1.785742 -0.680679 0.000000 0.000000
    8 0.000000 -1.610587 0.584026 0.000000 0.000000 0.000000
    9 10.160466 3.294694 -6.058779 0.936349 -1.816573 -1.312371
    10 -0.244754 -8.933564 0.000000 0.209146 0.299570 -0.249777
    11 -0.192862 -4.009873 0.577517 0.359939 1.511626 0.436878
    12 0.000001 2.617617 0.665016 0.000000 0.000000 0.000000
    13 0.000001 -1.655466 2.278033 0.000000 0.000000 0.000000
    14 0.000000 -1.796960 1.330032 0.000000 0.000000 0.000000
    15 0.000000 -2.886455 1.471524 0.000000 0.000000 0.000000
    16 0.000001 -0.778212 1.774024 -0.680679 0.000000 0.000000
    17 0.000000 -1.598869 0.580119 0.000000 0.000000 0.000000
    18 0.000000 -0.456721 -0.000001 0.000008 -0.000003 -0.000016
    19 -0.421911 0.233313 0.477534 -0.212797 -0.375551 -2.091539
    20 1.827485 -0.104694 0.000000 0.000000 0.000000 0.523599
    21 1.069448 0.056463 0.000000 0.000000 0.000000 0.848230
    22 -1.090122 -1.829639 -0.122574 0.000005 -0.000006 -1.726128
    23 1.390342 -0.000583 0.000000 0.001103 -0.481734 0.001605
    24 0.964940 -0.010943 -0.000001 0.000000 -0.670224 0.000000
    25 -0.348493 -1.994086 -0.122574 -0.078961 -0.260133 -1.437435
    26 1.546317 0.004627 0.000000 -0.000001 -1.623155 0.000000
    27 1.135737 0.008475 0.000000 0.000000 -1.110029 0.020944
    28 0.310263 -1.738959 -0.122574 -0.056428 -0.182688 -1.438565
    29 1.569655 0.049779 0.000001 0.000000 -1.497495 -0.010472
    30 1.096338 0.003406 0.000000 0.000000 -1.214749 0.005236
    31 0.956485 -1.335291 -0.122574 0.000000 -0.267035 -1.445133
    32 1.346260 0.018204 -0.000001 -0.002744 -0.612611 -0.000922
    33 0.874448 -0.001050 0.000000 0.000000 -1.392772 0.000000
    34 -0.017482 -0.437063 0.000000 0.000000 0.000000 0.000000
    35 0.472028 0.192308 0.472822 0.297069 -0.493084 -1.048320
    36 1.857548 0.010603 0.000000 0.000000 0.000000 -0.455531
    37 0.996041 -0.010017 0.000000 0.000000 0.000000 -0.858702
    38 1.137759 -1.867485 -0.137079 0.000000 -0.052360 -1.523672
    39 1.365644 0.014869 0.000000 -0.000683 -0.377004 -0.002803
    40 0.938014 -0.005664 0.000002 0.000000 -0.612611 0.010472
    41 0.409682 -2.071858 -0.137080 0.068179 -0.280440 -1.750247
    42 1.470907 0.007359 0.000000 0.000000 -1.617923 0.010472
    43 1.152099 0.010338 -0.000001 0.000000 -1.099558 0.005236
    44 -0.292848 -1.816393 -0.137080 0.017968 -0.224442 -1.724665
    45 1.511618 -0.004263 0.000000 0.000012 -1.544617 0.036640
    46 1.099636 -0.010806 0.000000 0.000000 -1.130973 0.010472
    47 -0.957059 -1.356554 -0.137080 0.000000 -0.235619 -1.685988
    48 1.351391 -0.010799 -0.000001 0.000000 -0.753982 0.005229
    49 0.859052 0.017735 -0.000001 0.000000 -1.371829 -0.010472
end
