version 1
nodes
  0 "6_4bossknife_R" -1
  1 "6_4bossknife_L" -1
  2 "Dummy03" -1
  3 "Dummy06" 2
  4 "Dummy04" -1
  5 "Dummy05" 4
  6 "root" -1
  7 "Bone01" 6
  8 "Bone_L_Upper" 7
  9 "Bone_Lefthand" 7
  10 "Bone13" 9
  11 "Bone14" 10
  12 "Bone15" 11
  13 "Bone17" 9
  14 "Bone18" 13
  15 "Bone19" 14
  16 "Bone21" 9
  17 "Bone22" 16
  18 "Bone23" 17
  19 "Bone09" 9
  20 "Bone10" 19
  21 "Bone11" 20
  22 "Bone05" 9
  23 "Bone06" 22
  24 "Bone07" 23
  25 "Bone_Se_Hand-L" 9
  26 "Bone04" 6
  27 "Bone_Righthand" 26
  28 "Bone39" 27
  29 "Bone40" 28
  30 "Bone41" 29
  31 "Bone35" 27
  32 "Bone36" 31
  33 "Bone37" 32
  34 "Bone31" 27
  35 "Bone32" 34
  36 "Bone33" 35
  37 "Bone43" 27
  38 "Bone44" 37
  39 "Bone45" 38
  40 "Bone27" 27
  41 "Bone28" 40
  42 "Bone29" 41
  43 "Bone_Se_Hand-R" 27
  44 "Bone_R_Upper" 26
end
skeleton
  time 0
    0 -10.164374 -6.713216 -8.836978 1.162211 -0.960952 -1.473311
    1 10.426097 -14.201532 -8.809565 -0.673469 -0.321438 -2.544347
    2 24.790014 29.805915 34.626179 1.570796 -0.479834 -3.141626
    3 0.000008 48.388664 -0.000004 0.000000 0.000000 0.000000
    4 -26.854916 28.498404 35.712706 1.570796 0.634327 -3.141640
    5 0.000008 51.240402 -0.000004 0.000000 0.000000 0.000000
    6 -0.002752 2.073017 -2.354921 0.000000 0.000000 0.000000
    7 10.009344 -5.776191 -3.510808 6.053032 -2.469551 0.212623
    8 5.526842 6.649239 -0.251372 1.565324 -3.133039 0.981247
    9 -0.103172 -8.424515 -0.151010 -0.207847 0.087790 -0.061627
    10 -0.488518 -2.755602 -0.228260 -0.285136 -0.110772 -0.076140
    11 0.039887 -1.546198 0.025948 -1.932863 -0.005501 0.042942
    12 0.028786 -1.212454 -0.132487 -1.403837 -0.014106 0.031687
    13 0.250027 -2.820665 -0.238396 -0.392731 -0.140252 -0.033120
    14 -0.049759 -1.598510 0.014539 -1.781252 -0.004866 -0.045867
    15 -0.034142 -1.171750 0.045718 -1.135810 0.006891 -0.029866
    16 0.957766 -2.746780 -0.090302 -0.401913 -0.220762 -0.007230
    17 -0.033420 -1.397129 -0.030789 -1.214983 -0.001690 -0.058234
    18 -0.022360 -0.969155 -0.012467 -1.327548 -0.005872 -0.062128
    19 -1.180681 -2.507217 -0.193859 -0.168820 0.131989 -0.088729
    20 -0.024967 -1.127840 0.017597 -1.419678 -0.006927 -0.058448
    21 -0.020057 -0.902687 0.053060 -1.700088 -0.014477 -0.065124
    22 0.630386 -1.193371 0.185379 0.720505 -1.006041 -0.620461
    23 1.449987 -0.247574 0.079230 0.073725 -0.243119 -0.906161
    24 1.061707 -0.132196 0.028385 0.026746 -0.168638 -0.682153
    25 0.120153 -0.050270 -0.054489 0.287569 3.110905 1.561085
    26 -8.056163 1.886145 -5.286601 -0.174687 -4.281096 -0.411537
    27 0.096944 -8.454325 -0.009365 -0.023869 -0.301598 -0.038767
    28 0.447953 -2.798986 -0.200443 -0.644526 0.033180 0.187002
    29 -0.032909 -1.499736 0.040097 -1.806320 0.021524 -0.038085
    30 -0.027022 -1.127703 -0.020210 -1.241734 0.024341 -0.022567
    31 -0.249534 -2.846964 -0.174213 -0.532657 0.082892 0.106992
    32 0.043235 -1.656596 0.060855 -1.670355 -0.024154 0.011985
    33 0.031729 -1.137392 0.051025 -1.511058 -0.016688 0.008875
    34 -0.963866 -2.785145 -0.085350 -0.515749 0.249320 0.002570
    35 0.028479 -1.406973 -0.024980 -1.149446 -0.033125 -0.037080
    36 0.021413 -0.938249 0.004421 -1.366207 -0.042881 -0.037931
    37 1.164475 -2.543940 -0.170330 -0.386115 -0.158284 0.151095
    38 0.024032 -1.148574 -0.009538 -1.294914 0.023514 0.062776
    39 0.014898 -0.907427 -0.008129 -1.452208 0.027912 0.066479
    40 -0.586770 -1.264477 0.200161 -0.394791 -0.851503 -2.391248
    41 1.561899 0.035243 0.016848 -0.015812 -0.006164 0.783567
    42 1.114041 0.044518 -0.005766 -0.022666 -0.034834 0.844478
    43 -0.139399 -0.111698 0.014397 0.285382 -0.030687 1.580508
    44 -8.190552 -0.196255 -0.477722 1.563739 -0.037429 -0.053690
  time 1
    0 -21.516283 6.111394 -4.500908 0.330510 -0.687740 -2.138158
    1 -4.668113 -6.767712 -11.372143 -0.843874 0.477581 -4.456907
    2 24.790014 29.805915 34.626179 1.570796 -0.479834 -3.141626
    3 0.000008 54.748233 -0.000004 0.000000 0.000000 0.000000
    4 -26.854916 28.498404 35.712706 1.570796 0.634327 -3.141640
    5 0.000008 51.240402 -0.000004 0.000000 0.000000 0.000000
    6 -0.002752 2.073017 -2.354921 0.000000 0.000000 0.000000
    7 2.786467 -4.209737 -2.620155 5.741784 2.855938 -1.156009
    8 2.409559 8.489139 -0.173245 1.568967 3.141281 1.428948
    9 -0.126610 -8.502643 -0.154917 -0.252303 0.074537 0.386345
    10 -0.488518 -2.755602 -0.228260 -0.285136 -0.110772 -0.076140
    11 0.039887 -1.546198 0.025948 -1.932863 -0.005501 0.042942
    12 0.028786 -1.212454 -0.132487 -1.403837 -0.014106 0.031687
    13 0.250027 -2.820665 -0.238396 -0.392731 -0.140252 -0.033120
    14 -0.049759 -1.598510 0.014539 -1.781252 -0.004866 -0.045867
    15 -0.034142 -1.171750 0.045718 -1.135810 0.006891 -0.029866
    16 0.957766 -2.746780 -0.090302 -0.401913 -0.220762 -0.007230
    17 -0.033420 -1.397129 -0.030789 -1.214983 -0.001690 -0.058234
    18 -0.022360 -0.969155 -0.012467 -1.327548 -0.005872 -0.062128
    19 -1.180681 -2.507217 -0.193859 -0.168820 0.131989 -0.088729
    20 -0.024967 -1.127840 0.017597 -1.419678 -0.006927 -0.058448
    21 -0.020057 -0.902687 0.053060 -1.700088 -0.014477 -0.065124
    22 0.630386 -1.193371 0.185379 0.720505 -1.006041 -0.620461
    23 1.449987 -0.247574 0.079230 0.073725 -0.243119 -0.906161
    24 1.061707 -0.132196 0.028385 0.026746 -0.168638 -0.682153
    25 0.120153 -0.050270 -0.054489 0.287569 3.110905 1.561085
    26 -10.579677 4.558101 -2.302135 0.089813 -3.690848 -1.501839
    27 0.096944 -8.454325 -0.009365 -0.023869 -0.301598 -0.039013
    28 0.447953 -2.798986 -0.200443 -0.644526 0.033180 0.187002
    29 -0.032909 -1.499736 0.040097 -1.806320 0.021524 -0.038085
    30 -0.027022 -1.127703 -0.020210 -1.241734 0.024341 -0.022567
    31 -0.249534 -2.846964 -0.174213 -0.532657 0.082880 0.106992
    32 0.043235 -1.656596 0.060855 -1.670355 -0.024154 0.011985
    33 0.031729 -1.137392 0.051025 -1.511058 -0.016688 0.008875
    34 -0.963866 -2.785145 -0.085350 -0.515749 0.249320 0.002570
    35 0.028479 -1.406973 -0.024980 -1.149446 -0.033125 -0.037080
    36 0.021413 -0.938249 0.004421 -1.366207 -0.042881 -0.037943
    37 1.164475 -2.543940 -0.170330 -0.386115 -0.158284 0.151095
    38 0.024032 -1.148574 -0.009538 -1.294914 0.023514 0.062776
    39 0.014898 -0.907427 -0.008129 -1.452208 0.027912 0.066479
    40 -0.586770 -1.264477 0.200161 -0.394791 -0.851503 -2.391248
    41 1.561899 0.035243 0.016848 -0.015812 -0.006164 0.783567
    42 1.114041 0.044518 -0.005766 -0.022666 -0.034834 0.844478
    43 -0.139399 -0.111698 0.014397 0.285382 -0.030687 1.580508
    44 -6.405342 5.905494 -0.387875 1.579174 -0.023759 -0.846070
  time 2
    0 -21.457687 7.095799 -4.121990 0.340931 -0.757856 -2.224102
    1 -2.984468 -11.365508 -6.254799 -0.111230 0.863885 -3.553012
    2 -2.081900 -23.801190 -6.903230 -1.570796 0.663830 -6.283151
    3 0.000008 61.111709 -0.000004 0.000000 0.000000 0.000000
    4 -26.854916 28.498404 35.712706 1.570796 0.634327 -3.141640
    5 0.000008 51.240402 -0.000004 0.000000 0.000000 0.000000
    6 -0.002752 2.073017 -2.354921 0.000000 0.000000 0.000000
    7 3.309920 -4.932415 -0.674783 5.963817 2.554139 -0.875660
    8 1.929075 8.625862 -0.165432 1.569830 3.140226 1.490193
    9 -0.114891 -8.459673 -0.151010 -0.075906 0.040551 0.023491
    10 -0.488518 -2.755602 -0.228260 -0.285136 -0.110772 -0.076140
    11 0.039887 -1.546198 0.025948 -1.932863 -0.005501 0.042942
    12 0.028786 -1.212454 -0.132487 -1.403837 -0.014106 0.031687
    13 0.250027 -2.820665 -0.238396 -0.392731 -0.140252 -0.033120
    14 -0.049759 -1.598510 0.014539 -1.781252 -0.004866 -0.045867
    15 -0.034142 -1.171750 0.045718 -1.135810 0.006891 -0.029866
    16 0.957766 -2.746780 -0.090302 -0.401913 -0.220762 -0.007230
    17 -0.033420 -1.397129 -0.030789 -1.214983 -0.001690 -0.058234
    18 -0.022360 -0.969155 -0.012467 -1.327548 -0.005872 -0.062128
    19 -1.180681 -2.507217 -0.193859 -0.168820 0.131989 -0.088729
    20 -0.024967 -1.127840 0.017597 -1.419678 -0.006927 -0.058448
    21 -0.020057 -0.902687 0.053060 -1.700088 -0.014477 -0.065124
    22 0.630386 -1.193371 0.185379 0.720505 -1.006041 -0.620461
    23 1.449987 -0.247574 0.079230 0.073725 -0.243119 -0.906161
    24 1.061707 -0.132196 0.028385 0.026746 -0.168638 -0.682153
    25 0.120153 -0.050270 -0.054489 0.287569 3.110905 1.561085
    26 -10.524988 4.655761 -2.302135 0.134130 -3.753352 -1.556507
    27 0.096944 -8.454325 -0.009365 -0.024506 -0.299611 -0.038521
    28 0.447953 -2.798986 -0.200443 -0.644526 0.033180 0.187002
    29 -0.032909 -1.499736 0.040097 -1.806320 0.021524 -0.038085
    30 -0.027022 -1.127703 -0.020210 -1.241734 0.024341 -0.022567
    31 -0.249534 -2.846964 -0.174213 -0.532657 0.082880 0.106992
    32 0.043235 -1.656596 0.060855 -1.670355 -0.024154 0.011985
    33 0.031729 -1.137392 0.051025 -1.511058 -0.016688 0.008875
    34 -0.963866 -2.785145 -0.085350 -0.515749 0.249320 0.002570
    35 0.028479 -1.406973 -0.024980 -1.149446 -0.033125 -0.037080
    36 0.021413 -0.938249 0.004421 -1.366207 -0.042881 -0.037943
    37 1.164475 -2.543940 -0.170330 -0.386115 -0.158284 0.151095
    38 0.024032 -1.148574 -0.009538 -1.294914 0.023514 0.062776
    39 0.014898 -0.907427 -0.008129 -1.452208 0.027912 0.066479
    40 -0.586770 -1.264477 0.200161 -0.394791 -0.851503 -2.391248
    41 1.561899 0.035243 0.016848 -0.015812 -0.006164 0.783567
    42 1.114041 0.044518 -0.005766 -0.022666 -0.034834 0.844478
    43 -0.139399 -0.111698 0.014397 0.285382 -0.030687 1.580508
    44 -6.210023 6.139876 -0.380062 1.579558 -0.022899 -0.883296
  time 3
    0 -21.410811 7.025485 -4.235275 0.383280 -0.815790 -2.255293
    1 5.664233 -14.017933 2.147801 0.627540 0.338299 -2.326099
    2 15.395196 -23.801190 12.533691 -1.570796 0.876082 -6.283151
    3 0.000008 67.471278 -0.000004 0.000000 0.000000 0.000000
    4 -26.854916 28.498404 35.712706 1.570796 0.634327 -3.141640
    5 0.000008 51.240402 -0.000004 0.000000 0.000000 0.000000
    6 -0.002752 2.073017 -2.354921 0.000000 0.000000 0.000000
    7 6.524862 -5.491026 2.235462 0.196325 2.577819 -0.093151
    8 2.112675 8.575079 -0.169338 1.569447 3.140610 1.467024
    9 -0.083640 -8.412796 -0.139291 0.074322 0.069681 -0.389924
    10 -0.488518 -2.755602 -0.228260 -0.285136 -0.110772 -0.076140
    11 0.039887 -1.546198 0.025948 -1.932863 -0.005501 0.042942
    12 0.028786 -1.212454 -0.132487 -1.403837 -0.014106 0.031687
    13 0.250027 -2.820665 -0.238396 -0.392731 -0.140252 -0.033120
    14 -0.049759 -1.598510 0.014539 -1.781252 -0.004866 -0.045867
    15 -0.034142 -1.171750 0.045718 -1.135810 0.006891 -0.029866
    16 0.957766 -2.746780 -0.090302 -0.401913 -0.220762 -0.007230
    17 -0.033420 -1.397129 -0.030789 -1.214983 -0.001690 -0.058234
    18 -0.022360 -0.969155 -0.012467 -1.327548 -0.005872 -0.062128
    19 -1.180681 -2.507217 -0.193859 -0.168820 0.131989 -0.088729
    20 -0.024967 -1.127840 0.017597 -1.419678 -0.006927 -0.058448
    21 -0.020057 -0.902687 0.053060 -1.700088 -0.014477 -0.065124
    22 0.630386 -1.193371 0.185379 0.720505 -1.006041 -0.620461
    23 1.449987 -0.247574 0.079230 0.073725 -0.243119 -0.906161
    24 1.061707 -0.132196 0.028385 0.026746 -0.168638 -0.682153
    25 0.120153 -0.050270 -0.054489 0.287569 3.110905 1.561085
    26 -10.489831 4.534663 -2.536517 0.153300 -3.821685 -1.546071
    27 0.096944 -8.454325 -0.009365 -0.025983 -0.295068 -0.037735
    28 0.447953 -2.798986 -0.200443 -0.644526 0.033180 0.187002
    29 -0.032909 -1.499736 0.040097 -1.806320 0.021524 -0.038085
    30 -0.027022 -1.127703 -0.020210 -1.241734 0.024341 -0.022567
    31 -0.249534 -2.846964 -0.174213 -0.532657 0.082892 0.106992
    32 0.043235 -1.656596 0.060855 -1.670355 -0.024154 0.011985
    33 0.031729 -1.137392 0.051025 -1.511058 -0.016688 0.008875
    34 -0.963866 -2.785145 -0.085350 -0.515749 0.249320 0.002570
    35 0.028479 -1.406973 -0.024980 -1.149446 -0.033125 -0.037080
    36 0.021413 -0.938249 0.004421 -1.366207 -0.042881 -0.037943
    37 1.164475 -2.543940 -0.170330 -0.386115 -0.158284 0.151095
    38 0.024032 -1.148574 -0.009538 -1.294914 0.023514 0.062776
    39 0.014898 -0.907427 -0.008129 -1.452208 0.027912 0.066479
    40 -0.586770 -1.264477 0.200161 -0.394791 -0.851503 -2.391248
    41 1.561899 0.035243 0.016848 -0.015812 -0.006164 0.783567
    42 1.114041 0.044518 -0.005766 -0.022666 -0.034834 0.844478
    43 -0.139399 -0.111698 0.014397 0.285382 -0.030687 1.580508
    44 -6.288151 6.046123 -0.383969 1.579366 -0.023185 -0.868672
  time 4
    0 -21.391279 6.181709 -4.622006 0.443220 -0.863589 -2.246041
    1 15.746572 -7.095847 8.616748 0.693596 -0.122776 -1.538074
    2 42.614777 -23.801190 29.863422 -1.570796 0.926112 -6.283151
    3 0.000008 44.982310 -0.000004 0.000000 0.000000 0.000000
    4 -26.854916 28.498404 35.712706 1.570796 0.634327 -3.141640
    5 0.000008 51.240402 -0.000004 0.000000 0.000000 0.000000
    6 -0.002752 2.073017 -2.354921 0.000000 0.000000 0.000000
    7 10.114815 -2.608126 4.630066 0.653903 2.819604 0.764307
    8 2.335338 8.512577 -0.173245 1.569159 3.141089 1.438634
    9 -0.079734 -8.385452 -0.151010 0.027815 0.008578 -0.486373
    10 -0.488518 -2.755602 -0.228260 -0.285136 -0.110772 -0.076140
    11 0.039887 -1.546198 0.025948 -1.932863 -0.005501 0.042942
    12 0.028786 -1.212454 -0.132487 -1.403837 -0.014106 0.031687
    13 0.250027 -2.820665 -0.238396 -0.392731 -0.140252 -0.033120
    14 -0.049759 -1.598510 0.014539 -1.781252 -0.004866 -0.045867
    15 -0.034142 -1.171750 0.045718 -1.135810 0.006891 -0.029866
    16 0.957766 -2.746780 -0.090302 -0.401913 -0.220762 -0.007230
    17 -0.033420 -1.397129 -0.030789 -1.214983 -0.001690 -0.058234
    18 -0.022360 -0.969155 -0.012467 -1.327548 -0.005872 -0.062128
    19 -1.180681 -2.507217 -0.193859 -0.168820 0.131989 -0.088729
    20 -0.024967 -1.127840 0.017597 -1.419678 -0.006927 -0.058448
    21 -0.020057 -0.902687 0.053060 -1.700088 -0.014477 -0.065124
    22 0.630386 -1.193371 0.185379 0.720505 -1.006041 -0.620461
    23 1.449987 -0.247574 0.079230 0.073725 -0.243119 -0.906161
    24 1.061707 -0.132196 0.028385 0.026746 -0.168638 -0.682153
    25 0.120153 -0.050270 -0.054489 0.287569 3.110905 1.561085
    26 -10.462486 4.233873 -2.915435 0.158733 -3.889158 -1.488626
    27 0.096944 -8.454325 -0.009365 -0.027664 -0.289799 -0.036899
    28 0.447953 -2.798986 -0.200443 -0.644526 0.033180 0.187002
    29 -0.032909 -1.499736 0.040097 -1.806320 0.021524 -0.038085
    30 -0.027022 -1.127703 -0.020210 -1.241734 0.024341 -0.022567
    31 -0.249534 -2.846964 -0.174213 -0.532657 0.082880 0.106992
    32 0.043235 -1.656596 0.060855 -1.670355 -0.024154 0.011985
    33 0.031729 -1.137392 0.051025 -1.511058 -0.016688 0.008875
    34 -0.963866 -2.785145 -0.085350 -0.515749 0.249320 0.002570
    35 0.028479 -1.406973 -0.024980 -1.149446 -0.033125 -0.037080
    36 0.021413 -0.938249 0.004421 -1.366207 -0.042881 -0.037931
    37 1.164475 -2.543940 -0.170330 -0.386115 -0.158284 0.151095
    38 0.024032 -1.148574 -0.009538 -1.294914 0.023514 0.062776
    39 0.014898 -0.907427 -0.008129 -1.452208 0.027912 0.066479
    40 -0.586770 -1.264477 0.200161 -0.394791 -0.851503 -2.391248
    41 1.561899 0.035243 0.016848 -0.015812 -0.006164 0.783567
    42 1.114041 0.044518 -0.005766 -0.022666 -0.034834 0.844478
    43 -0.139399 -0.111698 0.014397 0.285382 -0.030687 1.580508
    44 -6.545971 5.729707 -0.391781 1.578791 -0.024428 -0.818910
  time 5
    0 -21.289713 4.845731 -5.125927 0.515301 -0.906458 -2.214468
    1 19.332619 2.177874 9.335520 0.437415 -0.367327 -1.038429
    2 56.912088 -23.801190 40.607551 -1.570796 0.926112 -6.283151
    3 0.000008 22.493343 -0.000004 0.000000 0.000000 0.000000
    4 -26.854916 28.498404 35.712706 1.570796 0.634327 -3.141640
    5 0.000008 51.240402 -0.000004 0.000000 0.000000 0.000000
    6 -0.002752 2.073017 -2.354921 0.000000 0.000000 0.000000
    7 11.228131 1.036517 4.758976 0.775221 -3.092514 1.231270
    8 2.616596 8.418824 -0.177151 1.568680 3.141760 1.402267
    9 -0.083640 -8.377639 -0.162730 -0.058969 -0.035512 -0.449574
    10 -0.488518 -2.755602 -0.228260 -0.285136 -0.110772 -0.076140
    11 0.039887 -1.546198 0.025948 -1.932863 -0.005501 0.042942
    12 0.028786 -1.212454 -0.132487 -1.403837 -0.014106 0.031687
    13 0.250027 -2.820665 -0.238396 -0.392731 -0.140252 -0.033120
    14 -0.049759 -1.598510 0.014539 -1.781252 -0.004866 -0.045867
    15 -0.034142 -1.171750 0.045718 -1.135810 0.006891 -0.029866
    16 0.957766 -2.746780 -0.090302 -0.401913 -0.220762 -0.007230
    17 -0.033420 -1.397129 -0.030789 -1.214983 -0.001690 -0.058234
    18 -0.022360 -0.969155 -0.012467 -1.327548 -0.005872 -0.062128
    19 -1.180681 -2.507217 -0.193859 -0.168820 0.131989 -0.088729
    20 -0.024967 -1.127840 0.017597 -1.419678 -0.006927 -0.058448
    21 -0.020057 -0.902687 0.053060 -1.700088 -0.014477 -0.065124
    22 0.630386 -1.193371 0.185379 0.720505 -1.006041 -0.620461
    23 1.449987 -0.247574 0.079230 0.073725 -0.243119 -0.906161
    24 1.061707 -0.132196 0.028385 0.026746 -0.168638 -0.682153
    25 0.120153 -0.050270 -0.054489 0.287569 3.110905 1.561085
    26 -10.407797 3.804172 -3.352948 0.158034 -3.955580 -1.401885
    27 0.100850 -8.454325 -0.009365 -0.028909 -0.285855 -0.036162
    28 0.447953 -2.798986 -0.200443 -0.644526 0.033180 0.187002
    29 -0.032909 -1.499736 0.040097 -1.806320 0.021524 -0.038085
    30 -0.027022 -1.127703 -0.020210 -1.241734 0.024341 -0.022567
    31 -0.249534 -2.846964 -0.174213 -0.532657 0.082892 0.106992
    32 0.043235 -1.656596 0.060855 -1.670355 -0.024154 0.011985
    33 0.031729 -1.137392 0.051025 -1.511058 -0.016688 0.008875
    34 -0.963866 -2.785145 -0.085350 -0.515749 0.249320 0.002570
    35 0.028479 -1.406973 -0.024980 -1.149446 -0.033125 -0.037080
    36 0.021413 -0.938249 0.004421 -1.366207 -0.042881 -0.037931
    37 1.164475 -2.543940 -0.170330 -0.386115 -0.158284 0.151095
    38 0.024032 -1.148574 -0.009538 -1.294914 0.023514 0.062776
    39 0.014898 -0.907427 -0.008129 -1.452208 0.027912 0.066479
    40 -0.586770 -1.264477 0.200161 -0.394791 -0.851503 -2.391248
    41 1.561899 0.035243 0.016848 -0.015812 -0.006164 0.783567
    42 1.114041 0.044518 -0.005766 -0.022666 -0.034834 0.844478
    43 -0.139399 -0.111698 0.014397 0.285382 -0.030687 1.580508
    44 -6.870200 5.272662 -0.403501 1.577928 -0.025958 -0.750821
  time 6
    0 -21.031893 3.306621 -5.649381 0.599618 -0.945794 -2.181654
    1 19.621691 3.978710 8.956602 0.314494 -0.540432 -1.080624
    2 56.912088 -23.801190 40.607551 -1.570796 0.926112 -6.283151
    3 0.000008 0.000469 -0.000004 0.000000 0.000000 0.000000
    4 -26.854916 28.498404 35.712706 1.570796 0.634327 -3.141640
    5 0.000008 51.240402 -0.000004 0.000000 0.000000 0.000000
    6 -0.002752 2.073017 -2.354921 0.000000 0.000000 0.000000
    7 11.349228 1.770914 4.430841 0.828693 -2.899624 1.211252
    8 2.772851 8.364135 -0.181058 1.568392 3.142144 1.381852
    9 -0.083640 -8.385452 -0.154917 -0.090191 0.019294 -0.393940
    10 -0.488518 -2.755602 -0.228260 -0.285136 -0.110772 -0.076140
    11 0.039887 -1.546198 0.025948 -1.932863 -0.005501 0.042942
    12 0.028786 -1.212454 -0.132487 -1.403837 -0.014106 0.031687
    13 0.250027 -2.820665 -0.238396 -0.392731 -0.140252 -0.033120
    14 -0.049759 -1.598510 0.014539 -1.781252 -0.004866 -0.045867
    15 -0.034142 -1.171750 0.045718 -1.135810 0.006891 -0.029866
    16 0.957766 -2.746780 -0.090302 -0.401913 -0.220762 -0.007230
    17 -0.033420 -1.397129 -0.030789 -1.214983 -0.001690 -0.058234
    18 -0.022360 -0.969155 -0.012467 -1.327548 -0.005872 -0.062128
    19 -1.180681 -2.507217 -0.193859 -0.168820 0.131989 -0.088729
    20 -0.024967 -1.127840 0.017597 -1.419678 -0.006927 -0.058448
    21 -0.020057 -0.902687 0.053060 -1.700088 -0.014477 -0.065124
    22 0.630386 -1.193371 0.185379 0.720505 -1.006041 -0.620461
    23 1.449987 -0.247574 0.079230 0.073725 -0.243119 -0.906161
    24 1.061707 -0.132196 0.028385 0.026746 -0.168638 -0.682153
    25 0.120153 -0.050270 -0.054489 0.287569 3.110905 1.561085
    26 -10.298419 3.319782 -3.782649 0.152213 -4.020187 -1.305761
    27 0.100850 -8.454325 -0.009365 -0.029141 -0.285193 -0.035769
    28 0.447953 -2.798986 -0.200443 -0.644526 0.033180 0.187002
    29 -0.032909 -1.499736 0.040097 -1.806320 0.021524 -0.038085
    30 -0.027022 -1.127703 -0.020210 -1.241734 0.024341 -0.022567
    31 -0.249534 -2.846964 -0.174213 -0.532657 0.082892 0.106992
    32 0.043235 -1.656596 0.060855 -1.670355 -0.024154 0.011985
    33 0.031729 -1.137392 0.051025 -1.511058 -0.016688 0.008875
    34 -0.963866 -2.785145 -0.085350 -0.515749 0.249320 0.002570
    35 0.028479 -1.406973 -0.024980 -1.149446 -0.033125 -0.037080
    36 0.021413 -0.938249 0.004421 -1.366207 -0.042881 -0.037931
    37 1.164475 -2.543940 -0.170330 -0.386115 -0.158284 0.151095
    38 0.024032 -1.148574 -0.009538 -1.294914 0.023514 0.062776
    39 0.014898 -0.907427 -0.008129 -1.452208 0.027912 0.066479
    40 -0.586770 -1.264477 0.200161 -0.394791 -0.851503 -2.391248
    41 1.561899 0.035243 0.016848 -0.015812 -0.006164 0.783567
    42 1.114041 0.044518 -0.005766 -0.022666 -0.034834 0.844478
    43 -0.139399 -0.111698 0.014397 0.285382 -0.030687 1.580508
    44 -7.170990 4.784366 -0.415220 1.576873 -0.027583 -0.681118
  time 7
    0 -20.649069 1.853452 -6.180647 0.697988 -0.976388 -2.167919
    1 19.461529 4.216998 9.183172 0.314111 -0.738524 -1.280980
    2 56.912088 -23.801190 40.607551 -1.570796 0.926112 -6.283151
    3 0.000008 0.000469 -0.000004 0.000000 0.000000 0.000000
    4 -26.854916 28.498404 35.712706 1.570796 0.634327 -3.141640
    5 0.000008 51.240402 -0.000004 0.000000 0.000000 0.000000
    6 -0.002752 2.073017 -2.354921 0.000000 0.000000 0.000000
    7 11.415636 1.880293 4.286305 0.939278 -2.760420 1.075774
    8 2.901761 8.313352 -0.184964 1.568200 3.142431 1.364571
    9 -0.075827 -8.397171 -0.143198 -0.111956 0.096406 -0.325572
    10 -0.488518 -2.755602 -0.228260 -0.285136 -0.110772 -0.076140
    11 0.039887 -1.546198 0.025948 -1.932863 -0.005501 0.042942
    12 0.028786 -1.212454 -0.132487 -1.403837 -0.014106 0.031687
    13 0.250027 -2.820665 -0.238396 -0.392731 -0.140252 -0.033120
    14 -0.049759 -1.598510 0.014539 -1.781252 -0.004866 -0.045867
    15 -0.034142 -1.171750 0.045718 -1.135810 0.006891 -0.029866
    16 0.957766 -2.746780 -0.090302 -0.401913 -0.220762 -0.007230
    17 -0.033420 -1.397129 -0.030789 -1.214983 -0.001690 -0.058234
    18 -0.022360 -0.969155 -0.012467 -1.327548 -0.005872 -0.062128
    19 -1.180681 -2.507217 -0.193859 -0.168820 0.131989 -0.088729
    20 -0.024967 -1.127840 0.017597 -1.419678 -0.006927 -0.058448
    21 -0.020057 -0.902687 0.053060 -1.700088 -0.014477 -0.065124
    22 0.630386 -1.193371 0.185379 0.720505 -1.006041 -0.620461
    23 1.449987 -0.247574 0.079230 0.073725 -0.243119 -0.906161
    24 1.061707 -0.132196 0.028385 0.026746 -0.168638 -0.682153
    25 0.120153 -0.050270 -0.054489 0.287569 3.110905 1.561085
    26 -10.146070 2.854924 -4.153754 0.133354 -4.078772 -1.225529
    27 0.096944 -8.454325 -0.009365 -0.027722 -0.289799 -0.036015
    28 0.447953 -2.798986 -0.200443 -0.644526 0.033180 0.187002
    29 -0.032909 -1.499736 0.040097 -1.806320 0.021524 -0.038085
    30 -0.027022 -1.127703 -0.020210 -1.241734 0.024341 -0.022567
    31 -0.249534 -2.846964 -0.174213 -0.532657 0.082892 0.106992
    32 0.043235 -1.656596 0.060855 -1.670355 -0.024154 0.011985
    33 0.031729 -1.137392 0.051025 -1.511058 -0.016688 0.008875
    34 -0.963866 -2.785145 -0.085350 -0.515749 0.249320 0.002570
    35 0.028479 -1.406973 -0.024980 -1.149446 -0.033125 -0.037080
    36 0.021413 -0.938249 0.004421 -1.366207 -0.042881 -0.037943
    37 1.164475 -2.543940 -0.170330 -0.386115 -0.158284 0.151095
    38 0.024032 -1.148574 -0.009538 -1.294914 0.023514 0.062776
    39 0.014898 -0.907427 -0.008129 -1.452208 0.027912 0.066479
    40 -0.586770 -1.264477 0.200161 -0.394791 -0.851503 -2.391248
    41 1.561899 0.035243 0.016848 -0.015812 -0.006164 0.783567
    42 1.114041 0.044518 -0.005766 -0.022666 -0.034834 0.844478
    43 -0.139399 -0.111698 0.014397 0.285382 -0.030687 1.580508
    44 -7.381934 4.385916 -0.423032 1.576010 -0.028730 -0.626513
  time 8
    0 -20.246713 0.728417 -6.782228 0.808213 -0.986618 -2.187759
    1 19.074799 3.615417 9.757408 0.462305 -0.916664 -1.644279
    2 56.912088 -23.801190 40.607551 -1.570796 0.926112 -6.283151
    3 0.000008 0.000469 -0.000004 0.000000 0.000000 0.000000
    4 -26.854916 28.498404 35.712706 1.570796 0.634327 -3.141640
    5 0.000008 51.240402 -0.000004 0.000000 0.000000 0.000000
    6 -0.002752 2.073017 -2.354921 0.000000 0.000000 0.000000
    7 11.505483 1.610753 4.258961 1.083115 -2.672028 0.862595
    8 3.026765 8.262569 -0.184964 1.568009 3.142719 1.348334
    9 -0.071921 -8.408890 -0.127572 -0.123214 0.185197 -0.249763
    10 -0.488518 -2.755602 -0.228260 -0.285136 -0.110772 -0.076140
    11 0.039887 -1.546198 0.025948 -1.932863 -0.005501 0.042942
    12 0.028786 -1.212454 -0.132487 -1.403837 -0.014106 0.031687
    13 0.250027 -2.820665 -0.238396 -0.392731 -0.140252 -0.033120
    14 -0.049759 -1.598510 0.014539 -1.781252 -0.004866 -0.045867
    15 -0.034142 -1.171750 0.045718 -1.135810 0.006891 -0.029866
    16 0.957766 -2.746780 -0.090302 -0.401913 -0.220762 -0.007230
    17 -0.033420 -1.397129 -0.030789 -1.214983 -0.001690 -0.058234
    18 -0.022360 -0.969155 -0.012467 -1.327548 -0.005872 -0.062128
    19 -1.180681 -2.507217 -0.193859 -0.168820 0.131989 -0.088729
    20 -0.024967 -1.127840 0.017597 -1.419678 -0.006927 -0.058448
    21 -0.020057 -0.902687 0.053060 -1.700088 -0.014477 -0.065124
    22 0.630386 -1.193371 0.185379 0.720505 -1.006041 -0.620461
    23 1.449987 -0.247574 0.079230 0.073725 -0.243119 -0.906161
    24 1.061707 -0.132196 0.028385 0.026746 -0.168638 -0.682153
    25 0.120153 -0.050270 -0.054489 0.287569 3.110905 1.561085
    26 -9.993722 2.491632 -4.427200 0.082518 -4.123117 -1.193647
    27 0.096944 -8.454325 -0.009365 -0.023985 -0.301567 -0.037096
    28 0.447953 -2.798986 -0.200443 -0.644526 0.033180 0.187002
    29 -0.032909 -1.499736 0.040097 -1.806320 0.021524 -0.038085
    30 -0.027022 -1.127703 -0.020210 -1.241734 0.024341 -0.022567
    31 -0.249534 -2.846964 -0.174213 -0.532657 0.082892 0.106992
    32 0.043235 -1.656596 0.060855 -1.670355 -0.024154 0.011985
    33 0.031729 -1.137392 0.051025 -1.511058 -0.016688 0.008875
    34 -0.963866 -2.785145 -0.085350 -0.515749 0.249320 0.002570
    35 0.028479 -1.406973 -0.024980 -1.149446 -0.033125 -0.037080
    36 0.021413 -0.938249 0.004421 -1.366207 -0.042881 -0.037931
    37 1.164475 -2.543940 -0.170330 -0.386115 -0.158284 0.151095
    38 0.024032 -1.148574 -0.009538 -1.294914 0.023514 0.062776
    39 0.014898 -0.907427 -0.008129 -1.452208 0.027912 0.066479
    40 -0.586770 -1.264477 0.200161 -0.394791 -0.851503 -2.391248
    41 1.561899 0.035243 0.016848 -0.015812 -0.006164 0.783567
    42 1.114041 0.044518 -0.005766 -0.022666 -0.034834 0.844478
    43 -0.139399 -0.111698 0.014397 0.285382 -0.030687 1.580508
    44 -7.463968 4.217942 -0.426939 1.575627 -0.029208 -0.603817
  time 9
    0 -19.824825 -0.189579 -7.571314 0.933732 -0.971739 -2.234976
    1 18.746664 2.720859 10.183202 0.737442 -1.030104 -2.138565
    2 56.912088 -23.801190 40.607551 -1.570796 0.926112 -6.283151
    3 0.000008 0.000469 -0.000004 0.000000 0.000000 0.000000
    4 -26.854916 28.498404 35.712706 1.570796 0.634327 -3.141640
    5 0.000008 51.240402 -0.000004 0.000000 0.000000 0.000000
    6 -0.002752 2.073017 -2.354921 0.000000 0.000000 0.000000
    7 11.665644 1.141989 4.176927 1.221012 -2.612397 0.621429
    8 3.155675 8.207880 -0.188870 1.567817 3.143007 1.331242
    9 -0.064108 -8.424515 -0.111947 -0.125090 0.274732 -0.171246
    10 -0.488518 -2.755602 -0.228260 -0.285136 -0.110772 -0.076140
    11 0.039887 -1.546198 0.025948 -1.932863 -0.005501 0.042942
    12 0.028786 -1.212454 -0.132487 -1.403837 -0.014106 0.031687
    13 0.250027 -2.820665 -0.238396 -0.392731 -0.140252 -0.033120
    14 -0.049759 -1.598510 0.014539 -1.781252 -0.004866 -0.045867
    15 -0.034142 -1.171750 0.045718 -1.135810 0.006891 -0.029866
    16 0.957766 -2.746780 -0.090302 -0.401913 -0.220762 -0.007230
    17 -0.033420 -1.397129 -0.030789 -1.214983 -0.001690 -0.058234
    18 -0.022360 -0.969155 -0.012467 -1.327548 -0.005872 -0.062128
    19 -1.180681 -2.507217 -0.193859 -0.168820 0.131989 -0.088729
    20 -0.024967 -1.127840 0.017597 -1.419678 -0.006927 -0.058448
    21 -0.020057 -0.902687 0.053060 -1.700088 -0.014477 -0.065124
    22 0.630386 -1.193371 0.185379 0.720505 -1.006041 -0.620461
    23 1.449987 -0.247574 0.079230 0.073725 -0.243119 -0.906161
    24 1.061707 -0.132196 0.028385 0.026746 -0.168638 -0.682153
    25 0.120153 -0.050270 -0.054489 0.287569 3.110905 1.561085
    26 -9.841373 2.202561 -4.657675 -0.016126 -4.154177 -1.215477
    27 0.096944 -8.454325 -0.005459 -0.017582 -0.321537 -0.039258
    28 0.447953 -2.798986 -0.200443 -0.644526 0.033180 0.187002
    29 -0.032909 -1.499736 0.040097 -1.806320 0.021524 -0.038085
    30 -0.027022 -1.127703 -0.020210 -1.241734 0.024341 -0.022567
    31 -0.249534 -2.846964 -0.174213 -0.532657 0.082892 0.106992
    32 0.043235 -1.656596 0.060855 -1.670355 -0.024154 0.011985
    33 0.031729 -1.137392 0.051025 -1.511058 -0.016688 0.008875
    34 -0.963866 -2.785145 -0.085350 -0.515749 0.249320 0.002570
    35 0.028479 -1.406973 -0.024980 -1.149446 -0.033125 -0.037080
    36 0.021413 -0.938249 0.004421 -1.366207 -0.042881 -0.037931
    37 1.164475 -2.543940 -0.170330 -0.386115 -0.158284 0.151095
    38 0.024032 -1.148574 -0.009538 -1.294914 0.023514 0.062776
    39 0.014898 -0.907427 -0.008129 -1.452208 0.027912 0.066479
    40 -0.586770 -1.264477 0.200161 -0.394791 -0.851503 -2.391248
    41 1.561899 0.035243 0.016848 -0.015812 -0.006164 0.783567
    42 1.114041 0.044518 -0.005766 -0.022666 -0.034834 0.844478
    43 -0.139399 -0.111698 0.014397 0.285382 -0.030687 1.580508
    44 -7.440530 4.268725 -0.426939 1.575819 -0.029017 -0.610559
  time 10
    0 -19.238869 -1.142733 -8.555719 1.072732 -0.936030 -2.288202
    1 18.988859 1.791143 9.898037 1.025406 -1.096040 -2.635148
    2 56.912088 -23.801190 40.607551 -1.570796 0.926112 -6.283151
    3 0.000008 0.000469 -0.000004 0.000000 0.000000 0.000000
    4 -26.854916 28.498404 35.712706 1.570796 0.634327 -3.141640
    5 0.000008 51.240402 -0.000004 0.000000 0.000000 0.000000
    6 -0.002752 2.073017 -2.354921 0.000000 0.000000 0.000000
    7 11.978154 0.563846 3.805822 1.324410 -2.534646 0.395632
    8 3.304117 8.141472 -0.192777 1.567625 3.143390 1.311112
    9 -0.056296 -8.436234 -0.104134 -0.121137 0.354425 -0.095313
    10 -0.488518 -2.755602 -0.228260 -0.285136 -0.110772 -0.076140
    11 0.039887 -1.546198 0.025948 -1.932863 -0.005501 0.042942
    12 0.028786 -1.212454 -0.132487 -1.403837 -0.014106 0.031687
    13 0.250027 -2.820665 -0.238396 -0.392731 -0.140252 -0.033120
    14 -0.049759 -1.598510 0.014539 -1.781252 -0.004866 -0.045867
    15 -0.034142 -1.171750 0.045718 -1.135810 0.006891 -0.029866
    16 0.957766 -2.746780 -0.090302 -0.401913 -0.220762 -0.007230
    17 -0.033420 -1.397129 -0.030789 -1.214983 -0.001690 -0.058234
    18 -0.022360 -0.969155 -0.012467 -1.327548 -0.005872 -0.062128
    19 -1.180681 -2.507217 -0.193859 -0.168820 0.131989 -0.088729
    20 -0.024967 -1.127840 0.017597 -1.419678 -0.006927 -0.058448
    21 -0.020057 -0.902687 0.053060 -1.700088 -0.014477 -0.065124
    22 0.630386 -1.193371 0.185379 0.720505 -1.006041 -0.620461
    23 1.449987 -0.247574 0.079230 0.073725 -0.243119 -0.906161
    24 1.061707 -0.132196 0.028385 0.026746 -0.168638 -0.682153
    25 0.120153 -0.050270 -0.054489 0.287569 3.110905 1.561085
    26 -9.642149 1.909583 -4.895964 -0.159397 -4.177115 -1.270623
    27 0.089131 -8.458231 -0.001552 -0.008892 -0.348196 -0.042354
    28 0.447953 -2.798986 -0.200443 -0.644526 0.033180 0.187002
    29 -0.032909 -1.499736 0.040097 -1.806320 0.021524 -0.038085
    30 -0.027022 -1.127703 -0.020210 -1.241734 0.024341 -0.022567
    31 -0.249534 -2.846964 -0.174213 -0.532657 0.082880 0.106992
    32 0.043235 -1.656596 0.060855 -1.670355 -0.024154 0.011985
    33 0.031729 -1.137392 0.051025 -1.511058 -0.016688 0.008875
    34 -0.963866 -2.785145 -0.085350 -0.515749 0.249320 0.002570
    35 0.028479 -1.406973 -0.024980 -1.149446 -0.033125 -0.037080
    36 0.021413 -0.938249 0.004421 -1.366207 -0.042881 -0.037931
    37 1.164475 -2.543940 -0.170330 -0.386115 -0.158284 0.151095
    38 0.024032 -1.148574 -0.009538 -1.294914 0.023514 0.062776
    39 0.014898 -0.907427 -0.008129 -1.452208 0.027912 0.066479
    40 -0.586770 -1.264477 0.200161 -0.394791 -0.851503 -2.391248
    41 1.561899 0.035243 0.016848 -0.015812 -0.006164 0.783567
    42 1.114041 0.044518 -0.005766 -0.022666 -0.034834 0.844478
    43 -0.139399 -0.111698 0.014397 0.285382 -0.030687 1.580508
    44 -7.366309 4.417167 -0.423032 1.576106 -0.028634 -0.630977
  time 11
    0 -18.445876 -2.084168 -9.669035 1.207524 -0.880141 -2.332461
    1 20.266241 0.806738 8.214392 1.270099 -1.199504 -3.052315
    2 56.912088 -23.801190 40.607551 -1.570796 0.926112 -6.283151
    3 0.000008 0.000469 -0.000004 0.000000 0.000000 0.000000
    4 -26.854916 28.498404 35.712706 1.570796 0.634327 -3.141640
    5 0.000008 51.240402 -0.000004 0.000000 0.000000 0.000000
    6 -0.002752 2.073017 -2.354921 0.000000 0.000000 0.000000
    7 12.485982 -0.072892 2.848762 1.387177 -2.380583 0.213951
    8 3.491623 8.055532 -0.196683 1.567434 3.143869 1.286045
    9 -0.048483 -8.447954 -0.100228 -0.117735 0.414435 -0.029249
    10 -0.488518 -2.755602 -0.228260 -0.285136 -0.110772 -0.076140
    11 0.039887 -1.546198 0.025948 -1.932863 -0.005501 0.042942
    12 0.028786 -1.212454 -0.132487 -1.403837 -0.014106 0.031687
    13 0.250027 -2.820665 -0.238396 -0.392731 -0.140252 -0.033120
    14 -0.049759 -1.598510 0.014539 -1.781252 -0.004866 -0.045867
    15 -0.034142 -1.171750 0.045718 -1.135810 0.006891 -0.029866
    16 0.957766 -2.746780 -0.090302 -0.401913 -0.220762 -0.007230
    17 -0.033420 -1.397129 -0.030789 -1.214983 -0.001690 -0.058234
    18 -0.022360 -0.969155 -0.012467 -1.327548 -0.005872 -0.062128
    19 -1.180681 -2.507217 -0.193859 -0.168820 0.131989 -0.088729
    20 -0.024967 -1.127840 0.017597 -1.419678 -0.006927 -0.058448
    21 -0.020057 -0.902687 0.053060 -1.700088 -0.014477 -0.065124
    22 0.630386 -1.193371 0.185379 0.720505 -1.006041 -0.620461
    23 1.449987 -0.247574 0.079230 0.073725 -0.243119 -0.906161
    24 1.061707 -0.132196 0.028385 0.026746 -0.168638 -0.682153
    25 0.120153 -0.050270 -0.054489 0.287569 3.110905 1.561085
    26 -9.396047 1.632231 -5.134252 -0.336274 -4.185812 -1.350089
    27 0.085225 -8.458231 0.002354 0.001595 -0.379683 -0.046482
    28 0.447953 -2.798986 -0.200443 -0.644526 0.033180 0.187002
    29 -0.032909 -1.499736 0.040097 -1.806320 0.021524 -0.038085
    30 -0.027022 -1.127703 -0.020210 -1.241734 0.024341 -0.022567
    31 -0.249534 -2.846964 -0.174213 -0.532657 0.082892 0.106992
    32 0.043235 -1.656596 0.060855 -1.670355 -0.024154 0.011985
    33 0.031729 -1.137392 0.051025 -1.511058 -0.016688 0.008875
    34 -0.963866 -2.785145 -0.085350 -0.515749 0.249320 0.002570
    35 0.028479 -1.406973 -0.024980 -1.149446 -0.033125 -0.037080
    36 0.021413 -0.938249 0.004421 -1.366207 -0.042881 -0.037943
    37 1.164475 -2.543940 -0.170330 -0.386115 -0.158284 0.151095
    38 0.024032 -1.148574 -0.009538 -1.294914 0.023514 0.062776
    39 0.014898 -0.907427 -0.008129 -1.452208 0.027912 0.066479
    40 -0.586770 -1.264477 0.200161 -0.394791 -0.851503 -2.391248
    41 1.561899 0.035243 0.016848 -0.015812 -0.006164 0.783567
    42 1.114041 0.044518 -0.005766 -0.022666 -0.034834 0.844478
    43 -0.139399 -0.111698 0.014397 0.285382 -0.030687 1.580508
    44 -7.249117 4.639830 -0.419126 1.576586 -0.027965 -0.661270
  time 12
    0 -17.445846 -2.947476 -10.837039 1.326448 -0.808072 -2.358311
    1 22.731160 -2.396485 -4.782098 4.621610 -1.175372 -0.332402
    2 56.912088 -23.801190 40.607551 -1.570796 0.926112 -6.283151
    3 0.000008 0.000469 -0.000004 0.000000 0.000000 0.000000
    4 -26.854916 28.498404 35.712706 1.570796 0.634327 -3.141640
    5 0.000008 51.240402 -0.000004 0.000000 0.000000 0.000000
    6 -0.002752 2.073017 -2.354921 0.000000 0.000000 0.000000
    7 12.200817 -1.248709 -2.342803 6.273245 -1.732022 1.361340
    8 3.815852 7.887558 -0.204496 1.566954 -3.138312 1.241322
    9 -0.052389 -8.447954 -0.100228 -0.131820 0.401313 -0.000513
    10 -0.488518 -2.755602 -0.228260 -0.285136 -0.110772 -0.076140
    11 0.039887 -1.546198 0.025948 -1.932863 -0.005501 0.042942
    12 0.028786 -1.212454 -0.132487 -1.403837 -0.014106 0.031687
    13 0.250027 -2.820665 -0.238396 -0.392731 -0.140252 -0.033120
    14 -0.049759 -1.598510 0.014539 -1.781252 -0.004866 -0.045867
    15 -0.034142 -1.171750 0.045718 -1.135810 0.006891 -0.029866
    16 0.957766 -2.746780 -0.090302 -0.401913 -0.220762 -0.007230
    17 -0.033420 -1.397129 -0.030789 -1.214983 -0.001690 -0.058234
    18 -0.022360 -0.969155 -0.012467 -1.327548 -0.005872 -0.062128
    19 -1.180681 -2.507217 -0.193859 -0.168820 0.131989 -0.088729
    20 -0.024967 -1.127840 0.017597 -1.419678 -0.006927 -0.058448
    21 -0.020057 -0.902687 0.053060 -1.700088 -0.014477 -0.065124
    22 0.630386 -1.193371 0.185379 0.720505 -1.006041 -0.620461
    23 1.449987 -0.247574 0.079230 0.073725 -0.243119 -0.906161
    24 1.061707 -0.132196 0.028385 0.026746 -0.168638 -0.682153
    25 0.120153 -0.050270 -0.054489 0.287569 3.110905 1.561085
    26 -9.110882 1.386130 -5.364728 -0.527664 -4.176350 -1.437022
    27 0.077412 -8.462138 0.010167 0.013444 -0.414166 -0.051494
    28 0.447953 -2.798986 -0.200443 -0.644526 0.033180 0.187002
    29 -0.032909 -1.499736 0.040097 -1.806320 0.021524 -0.038085
    30 -0.027022 -1.127703 -0.020210 -1.241734 0.024341 -0.022567
    31 -0.249534 -2.846964 -0.174213 -0.532657 0.082892 0.106992
    32 0.043235 -1.656596 0.060855 -1.670355 -0.024154 0.011985
    33 0.031729 -1.137392 0.051025 -1.511058 -0.016688 0.008875
    34 -0.963866 -2.785145 -0.085350 -0.515749 0.249320 0.002570
    35 0.028479 -1.406973 -0.024980 -1.149446 -0.033125 -0.037080
    36 0.021413 -0.938249 0.004421 -1.366207 -0.042881 -0.037931
    37 1.164475 -2.543940 -0.170330 -0.386115 -0.158284 0.151095
    38 0.024032 -1.148574 -0.009538 -1.294914 0.023514 0.062776
    39 0.014898 -0.907427 -0.008129 -1.452208 0.027912 0.066479
    40 -0.586770 -1.264477 0.200161 -0.394791 -0.851503 -2.391248
    41 1.561899 0.035243 0.016848 -0.015812 -0.006164 0.783567
    42 1.114041 0.044518 -0.005766 -0.022666 -0.034834 0.844478
    43 -0.139399 -0.111698 0.014397 0.285382 -0.030687 1.580508
    44 -7.100675 4.901557 -0.411313 1.577161 -0.027200 -0.697831
  time 13
    0 -16.250497 -3.677967 -11.989418 1.425296 -0.725495 -2.363653
    1 15.566879 -3.666055 -15.122257 4.545598 -0.468796 -0.552180
    2 56.912088 -23.801190 40.607551 -1.570796 0.926112 -6.283151
    3 0.000008 0.000469 -0.000004 0.000000 0.000000 0.000000
    4 -26.854916 28.498404 35.712706 1.570796 0.634327 -3.141640
    5 0.000008 51.240402 -0.000004 0.000000 0.000000 0.000000
    6 -0.002752 2.073017 -2.354921 0.000000 0.000000 0.000000
    7 8.630395 -1.252615 -5.534307 1.712608 -0.849441 -0.652235
    8 4.272897 7.621925 -0.216215 1.566475 -3.137065 1.176185
    9 -0.064108 -8.444047 -0.108040 -0.156236 0.335792 -0.003097
    10 -0.488518 -2.755602 -0.228260 -0.285136 -0.110772 -0.076140
    11 0.039887 -1.546198 0.025948 -1.932863 -0.005501 0.042942
    12 0.028786 -1.212454 -0.132487 -1.403837 -0.014106 0.031687
    13 0.250027 -2.820665 -0.238396 -0.392731 -0.140252 -0.033120
    14 -0.049759 -1.598510 0.014539 -1.781252 -0.004866 -0.045867
    15 -0.034142 -1.171750 0.045718 -1.135810 0.006891 -0.029866
    16 0.957766 -2.746780 -0.090302 -0.401913 -0.220762 -0.007230
    17 -0.033420 -1.397129 -0.030789 -1.214983 -0.001690 -0.058234
    18 -0.022360 -0.969155 -0.012467 -1.327548 -0.005872 -0.062128
    19 -1.180681 -2.507217 -0.193859 -0.168820 0.131989 -0.088729
    20 -0.024967 -1.127840 0.017597 -1.419678 -0.006927 -0.058448
    21 -0.020057 -0.902687 0.053060 -1.700088 -0.014477 -0.065124
    22 0.630386 -1.193371 0.185379 0.720505 -1.006041 -0.620461
    23 1.449987 -0.247574 0.079230 0.073725 -0.243119 -0.906161
    24 1.061707 -0.132196 0.028385 0.026746 -0.168638 -0.682153
    25 0.120153 -0.050270 -0.054489 0.287569 3.110905 1.561085
    26 -8.786654 1.186905 -5.571766 -0.712225 -4.149590 -1.512083
    27 0.069599 -8.462138 0.014073 0.026132 -0.449848 -0.057244
    28 0.447953 -2.798986 -0.200443 -0.644526 0.033180 0.187002
    29 -0.032909 -1.499736 0.040097 -1.806320 0.021524 -0.038085
    30 -0.027022 -1.127703 -0.020210 -1.241734 0.024341 -0.022567
    31 -0.249534 -2.846964 -0.174213 -0.532657 0.082892 0.106992
    32 0.043235 -1.656596 0.060855 -1.670355 -0.024154 0.011985
    33 0.031729 -1.137392 0.051025 -1.511058 -0.016688 0.008875
    34 -0.963866 -2.785145 -0.085350 -0.515749 0.249320 0.002570
    35 0.028479 -1.406973 -0.024980 -1.149446 -0.033125 -0.037080
    36 0.021413 -0.938249 0.004421 -1.366207 -0.042881 -0.037931
    37 1.164475 -2.543940 -0.170330 -0.386115 -0.158284 0.151095
    38 0.024032 -1.148574 -0.009538 -1.294914 0.023514 0.062776
    39 0.014898 -0.907427 -0.008129 -1.452208 0.027912 0.066479
    40 -0.586770 -1.264477 0.200161 -0.394791 -0.851503 -2.391248
    41 1.561899 0.035243 0.016848 -0.015812 -0.006164 0.783567
    42 1.114041 0.044518 -0.005766 -0.022666 -0.034834 0.844478
    43 -0.139399 -0.111698 0.014397 0.285382 -0.030687 1.580508
    44 -6.932702 5.178909 -0.407407 1.577736 -0.026340 -0.737146
  time 14
    0 -14.918425 -4.236578 -13.055857 1.504834 -0.639105 -2.350489
    1 14.582474 -4.759838 -15.212104 4.642384 -0.466991 -0.848503
    2 56.912088 -23.801190 40.607551 -1.570796 0.926112 -6.283151
    3 0.000008 0.000469 -0.000004 0.000000 0.000000 0.000000
    4 -26.854916 28.498404 35.712706 1.570796 0.634327 -3.141640
    5 0.000008 51.240402 -0.000004 0.000000 0.000000 0.000000
    6 -0.002752 2.073017 -2.354921 0.000000 0.000000 0.000000
    7 8.427264 -1.330743 -5.651498 1.791570 -0.852126 -0.906778
    8 4.788538 7.266445 -0.227934 1.565900 -3.135436 1.099273
    9 -0.075827 -8.440141 -0.115853 -0.177601 0.271320 -0.009199
    10 -0.488518 -2.755602 -0.228260 -0.285136 -0.110772 -0.076140
    11 0.039887 -1.546198 0.025948 -1.932863 -0.005501 0.042942
    12 0.028786 -1.212454 -0.132487 -1.403837 -0.014106 0.031687
    13 0.250027 -2.820665 -0.238396 -0.392731 -0.140252 -0.033120
    14 -0.049759 -1.598510 0.014539 -1.781252 -0.004866 -0.045867
    15 -0.034142 -1.171750 0.045718 -1.135810 0.006891 -0.029866
    16 0.957766 -2.746780 -0.090302 -0.401913 -0.220762 -0.007230
    17 -0.033420 -1.397129 -0.030789 -1.214983 -0.001690 -0.058234
    18 -0.022360 -0.969155 -0.012467 -1.327548 -0.005872 -0.062128
    19 -1.180681 -2.507217 -0.193859 -0.168820 0.131989 -0.088729
    20 -0.024967 -1.127840 0.017597 -1.419678 -0.006927 -0.058448
    21 -0.020057 -0.902687 0.053060 -1.700088 -0.014477 -0.065124
    22 0.630386 -1.193371 0.185379 0.720505 -1.006041 -0.620461
    23 1.449987 -0.247574 0.079230 0.073725 -0.243119 -0.906161
    24 1.061707 -0.132196 0.028385 0.026746 -0.168638 -0.682153
    25 0.120153 -0.050270 -0.054489 0.287569 3.110905 1.561085
    26 -8.438987 1.038463 -5.751459 -0.874821 -4.110310 -1.563017
    27 0.061787 -8.466044 0.017980 0.039053 -0.484899 -0.063534
    28 0.447953 -2.798986 -0.200443 -0.644526 0.033180 0.187002
    29 -0.032909 -1.499736 0.040097 -1.806320 0.021524 -0.038085
    30 -0.027022 -1.127703 -0.020210 -1.241734 0.024341 -0.022567
    31 -0.249534 -2.846964 -0.174213 -0.532657 0.082892 0.106992
    32 0.043235 -1.656596 0.060855 -1.670355 -0.024154 0.011985
    33 0.031729 -1.137392 0.051025 -1.511058 -0.016688 0.008875
    34 -0.963866 -2.785145 -0.085350 -0.515749 0.249320 0.002570
    35 0.028479 -1.406973 -0.024980 -1.149446 -0.033125 -0.037080
    36 0.021413 -0.938249 0.004421 -1.366207 -0.042881 -0.037931
    37 1.164475 -2.543940 -0.170330 -0.386115 -0.158284 0.151095
    38 0.024032 -1.148574 -0.009538 -1.294914 0.023514 0.062776
    39 0.014898 -0.907427 -0.008129 -1.452208 0.027912 0.066479
    40 -0.586770 -1.264477 0.200161 -0.394791 -0.851503 -2.391248
    41 1.561899 0.035243 0.016848 -0.015812 -0.006164 0.783567
    42 1.114041 0.044518 -0.005766 -0.022666 -0.034834 0.844478
    43 -0.139399 -0.111698 0.014397 0.285382 -0.030687 1.580508
    44 -6.756915 5.440636 -0.399594 1.578311 -0.025480 -0.775417
  time 15
    0 -13.523851 -4.615496 -13.977760 1.568119 -0.555598 -2.323018
    1 14.363718 -6.228633 -14.465987 -1.466233 -0.507369 -1.217161
    2 56.912088 -23.801190 40.607551 -1.570796 0.926112 -6.283151
    3 0.000008 0.000469 -0.000004 0.000000 0.000000 0.000000
    4 -26.854916 28.498404 35.712706 1.570796 0.634327 -3.141640
    5 0.000008 51.240402 -0.000004 0.000000 0.000000 0.000000
    6 -0.002752 2.073017 -2.354921 0.000000 0.000000 0.000000
    7 8.771024 -1.549500 -5.581183 1.975751 -0.908210 -1.273556
    8 5.343242 6.817213 -0.243559 1.565420 -3.133614 1.011347
    9 -0.087546 -8.436234 -0.131479 -0.200367 0.197313 -0.016484
    10 -0.488518 -2.755602 -0.228260 -0.285136 -0.110772 -0.076140
    11 0.039887 -1.546198 0.025948 -1.932863 -0.005501 0.042942
    12 0.028786 -1.212454 -0.132487 -1.403837 -0.014106 0.031687
    13 0.250027 -2.820665 -0.238396 -0.392731 -0.140252 -0.033120
    14 -0.049759 -1.598510 0.014539 -1.781252 -0.004866 -0.045867
    15 -0.034142 -1.171750 0.045718 -1.135810 0.006891 -0.029866
    16 0.957766 -2.746780 -0.090302 -0.401913 -0.220762 -0.007230
    17 -0.033420 -1.397129 -0.030789 -1.214983 -0.001690 -0.058234
    18 -0.022360 -0.969155 -0.012467 -1.327548 -0.005872 -0.062128
    19 -1.180681 -2.507217 -0.193859 -0.168820 0.131989 -0.088729
    20 -0.024967 -1.127840 0.017597 -1.419678 -0.006927 -0.058448
    21 -0.020057 -0.902687 0.053060 -1.700088 -0.014477 -0.065124
    22 0.630386 -1.193371 0.185379 0.720505 -1.006041 -0.620461
    23 1.449987 -0.247574 0.079230 0.073725 -0.243119 -0.906161
    24 1.061707 -0.132196 0.028385 0.026746 -0.168638 -0.682153
    25 0.120153 -0.050270 -0.054489 0.287569 3.110905 1.561085
    26 -8.091320 0.948616 -5.899901 2.131542 -5.358662 1.554701
    27 0.053974 -8.466044 0.025792 0.051596 -0.517521 -0.070020
    28 0.447953 -2.798986 -0.200443 -0.644526 0.033180 0.187002
    29 -0.032909 -1.499736 0.040097 -1.806320 0.021524 -0.038085
    30 -0.027022 -1.127703 -0.020210 -1.241734 0.024341 -0.022567
    31 -0.249534 -2.846964 -0.174213 -0.532657 0.082892 0.106992
    32 0.043235 -1.656596 0.060855 -1.670355 -0.024154 0.011985
    33 0.031729 -1.137392 0.051025 -1.511058 -0.016688 0.008875
    34 -0.963866 -2.785145 -0.085350 -0.515749 0.249320 0.002570
    35 0.028479 -1.406973 -0.024980 -1.149446 -0.033125 -0.037080
    36 0.021413 -0.938249 0.004421 -1.366207 -0.042881 -0.037931
    37 1.164475 -2.543940 -0.170330 -0.386115 -0.158284 0.151095
    38 0.024032 -1.148574 -0.009538 -1.294914 0.023514 0.062776
    39 0.014898 -0.907427 -0.008129 -1.452208 0.027912 0.066479
    40 -0.586770 -1.264477 0.200161 -0.394791 -0.851503 -2.391248
    41 1.561899 0.035243 0.016848 -0.015812 -0.006164 0.783567
    42 1.114041 0.044518 -0.005766 -0.022666 -0.034834 0.844478
    43 -0.139399 -0.111698 0.014397 0.285382 -0.030687 1.580508
    44 -6.592847 5.663299 -0.395688 1.578695 -0.024619 -0.809034
  time 16
    0 -12.152716 -4.834252 -14.716064 -1.522844 -2.660388 0.855753
    1 14.238714 -8.084158 -13.106571 -1.216657 -0.520575 -1.641217
    2 56.912088 -23.801190 40.607551 -1.570796 0.926112 -6.283151
    3 0.000008 0.000469 -0.000004 0.000000 0.000000 0.000000
    4 -26.854916 28.498404 35.712706 1.570796 0.634327 -3.141640
    5 0.000008 51.240402 -0.000004 0.000000 0.000000 0.000000
    6 -0.002752 2.073017 -2.354921 0.000000 0.000000 0.000000
    7 9.407763 -2.029983 -5.307737 5.418940 -2.194787 1.382212
    8 5.878415 6.297666 -0.259185 1.565133 -3.131697 0.919717
    9 -0.099266 -8.432328 -0.143198 -0.222682 0.119588 -0.023676
    10 -0.488518 -2.755602 -0.228260 -0.285136 -0.110772 -0.076140
    11 0.039887 -1.546198 0.025948 -1.932863 -0.005501 0.042942
    12 0.028786 -1.212454 -0.132487 -1.403837 -0.014106 0.031687
    13 0.250027 -2.820665 -0.238396 -0.392731 -0.140252 -0.033120
    14 -0.049759 -1.598510 0.014539 -1.781252 -0.004866 -0.045867
    15 -0.034142 -1.171750 0.045718 -1.135810 0.006891 -0.029866
    16 0.957766 -2.746780 -0.090302 -0.401913 -0.220762 -0.007230
    17 -0.033420 -1.397129 -0.030789 -1.214983 -0.001690 -0.058234
    18 -0.022360 -0.969155 -0.012467 -1.327548 -0.005872 -0.062128
    19 -1.180681 -2.507217 -0.193859 -0.168820 0.131989 -0.088729
    20 -0.024967 -1.127840 0.017597 -1.419678 -0.006927 -0.058448
    21 -0.020057 -0.902687 0.053060 -1.700088 -0.014477 -0.065124
    22 0.630386 -1.193371 0.185379 0.720505 -1.006041 -0.620461
    23 1.449987 -0.247574 0.079230 0.073725 -0.243119 -0.906161
    24 1.061707 -0.132196 0.028385 0.026746 -0.168638 -0.682153
    25 0.120153 -0.050270 -0.054489 0.287569 3.110905 1.561085
    26 -7.755372 0.909553 -6.013186 2.023274 -5.400426 1.553648
    27 0.046161 -8.469950 0.029699 0.062952 -0.545978 -0.076212
    28 0.447953 -2.798986 -0.200443 -0.644526 0.033180 0.187002
    29 -0.032909 -1.499736 0.040097 -1.806320 0.021524 -0.038085
    30 -0.027022 -1.127703 -0.020210 -1.241734 0.024341 -0.022567
    31 -0.249534 -2.846964 -0.174213 -0.532657 0.082892 0.106992
    32 0.043235 -1.656596 0.060855 -1.670355 -0.024154 0.011985
    33 0.031729 -1.137392 0.051025 -1.511058 -0.016688 0.008875
    34 -0.963866 -2.785145 -0.085350 -0.515749 0.249320 0.002570
    35 0.028479 -1.406973 -0.024980 -1.149446 -0.033125 -0.037080
    36 0.021413 -0.938249 0.004421 -1.366207 -0.042881 -0.037931
    37 1.164475 -2.543940 -0.170330 -0.386115 -0.158284 0.151095
    38 0.024032 -1.148574 -0.009538 -1.294914 0.023514 0.062776
    39 0.014898 -0.907427 -0.008129 -1.452208 0.027912 0.066479
    40 -0.586770 -1.264477 0.200161 -0.394791 -0.851503 -2.391248
    41 1.561899 0.035243 0.016848 -0.015812 -0.006164 0.783567
    42 1.114041 0.044518 -0.005766 -0.022666 -0.034834 0.844478
    43 -0.139399 -0.111698 0.014397 0.285382 -0.030687 1.580508
    44 -6.467844 5.827366 -0.391781 1.578982 -0.024046 -0.834295
  time 17
    0 -10.883146 -4.939724 -15.243423 -1.481545 -2.720089 0.898867
    1 13.652758 -10.056875 -11.422926 -0.947456 -0.457110 -2.064795
    2 56.912088 -23.801190 40.607551 -1.570796 0.926112 -6.283151
    3 0.000008 0.000469 -0.000004 0.000000 0.000000 0.000000
    4 -26.854916 28.498404 35.712706 1.570796 0.634327 -3.141640
    5 0.000008 51.240402 -0.000004 0.000000 0.000000 0.000000
    6 -0.002752 2.073017 -2.354921 0.000000 0.000000 0.000000
    7 10.064033 -2.768287 -4.835067 5.755104 -2.236299 0.860508
    8 6.343273 5.754680 -0.274810 1.565037 -3.129780 0.831981
    9 -0.110985 -8.428422 -0.158823 -0.243046 0.044094 -0.030089
    10 -0.488518 -2.755602 -0.228260 -0.285136 -0.110772 -0.076140
    11 0.039887 -1.546198 0.025948 -1.932863 -0.005501 0.042942
    12 0.028786 -1.212454 -0.132487 -1.403837 -0.014106 0.031687
    13 0.250027 -2.820665 -0.238396 -0.392731 -0.140252 -0.033120
    14 -0.049759 -1.598510 0.014539 -1.781252 -0.004866 -0.045867
    15 -0.034142 -1.171750 0.045718 -1.135810 0.006891 -0.029866
    16 0.957766 -2.746780 -0.090302 -0.401913 -0.220762 -0.007230
    17 -0.033420 -1.397129 -0.030789 -1.214983 -0.001690 -0.058234
    18 -0.022360 -0.969155 -0.012467 -1.327548 -0.005872 -0.062128
    19 -1.180681 -2.507217 -0.193859 -0.168820 0.131989 -0.088729
    20 -0.024967 -1.127840 0.017597 -1.419678 -0.006927 -0.058448
    21 -0.020057 -0.902687 0.053060 -1.700088 -0.014477 -0.065124
    22 0.630386 -1.193371 0.185379 0.720505 -1.006041 -0.620461
    23 1.449987 -0.247574 0.079230 0.073725 -0.243119 -0.906161
    24 1.061707 -0.132196 0.028385 0.026746 -0.168638 -0.682153
    25 0.120153 -0.050270 -0.054489 0.287569 3.110905 1.561085
    26 -7.458488 0.913459 -6.091313 1.939143 -5.432634 1.568871
    27 0.042255 -8.469950 0.029699 0.072223 -0.568473 -0.081470
    28 0.447953 -2.798986 -0.200443 -0.644526 0.033180 0.187002
    29 -0.032909 -1.499736 0.040097 -1.806320 0.021524 -0.038085
    30 -0.027022 -1.127703 -0.020210 -1.241734 0.024341 -0.022567
    31 -0.249534 -2.846964 -0.174213 -0.532657 0.082892 0.106992
    32 0.043235 -1.656596 0.060855 -1.670355 -0.024154 0.011985
    33 0.031729 -1.137392 0.051025 -1.511058 -0.016688 0.008875
    34 -0.963866 -2.785145 -0.085350 -0.515749 0.249320 0.002570
    35 0.028479 -1.406973 -0.024980 -1.149446 -0.033125 -0.037080
    36 0.021413 -0.938249 0.004421 -1.366207 -0.042881 -0.037931
    37 1.164475 -2.543940 -0.170330 -0.386115 -0.158284 0.151095
    38 0.024032 -1.148574 -0.009538 -1.294914 0.023514 0.062776
    39 0.014898 -0.907427 -0.008129 -1.452208 0.027912 0.066479
    40 -0.586770 -1.264477 0.200161 -0.394791 -0.851503 -2.391248
    41 1.561899 0.035243 0.016848 -0.015812 -0.006164 0.783567
    42 1.114041 0.044518 -0.005766 -0.022666 -0.034834 0.844478
    43 -0.139399 -0.111698 0.014397 0.285382 -0.030687 1.580508
    44 -6.397529 5.913307 -0.387875 1.579174 -0.023759 -0.847590
  time 18
    0 -9.789362 -5.006133 -15.544214 -1.446843 -2.759611 0.943986
    1 12.441784 -11.752239 -9.829127 -0.731196 -0.323148 -2.420249
    2 56.912088 -23.801190 40.607551 -1.570796 0.926112 -6.283151
    3 0.000008 0.000469 -0.000004 0.000000 0.000000 0.000000
    4 -26.854916 28.498404 35.712706 1.570796 0.634327 -3.141640
    5 0.000008 51.240402 -0.000004 0.000000 0.000000 0.000000
    6 -0.002752 2.073017 -2.354921 0.000000 0.000000 0.000000
    7 10.505452 -3.643313 -4.233486 5.992853 -2.352205 0.437756
    8 6.710471 5.246852 -0.290436 1.565037 -3.128150 0.755354
    9 -0.118797 -8.424515 -0.174449 -0.260183 -0.023221 -0.035444
    10 -0.488518 -2.755602 -0.228260 -0.285136 -0.110772 -0.076140
    11 0.039887 -1.546198 0.025948 -1.932863 -0.005501 0.042942
    12 0.028786 -1.212454 -0.132487 -1.403837 -0.014106 0.031687
    13 0.250027 -2.820665 -0.238396 -0.392731 -0.140252 -0.033120
    14 -0.049759 -1.598510 0.014539 -1.781252 -0.004866 -0.045867
    15 -0.034142 -1.171750 0.045718 -1.135810 0.006891 -0.029866
    16 0.957766 -2.746780 -0.090302 -0.401913 -0.220762 -0.007230
    17 -0.033420 -1.397129 -0.030789 -1.214983 -0.001690 -0.058234
    18 -0.022360 -0.969155 -0.012467 -1.327548 -0.005872 -0.062128
    19 -1.180681 -2.507217 -0.193859 -0.168820 0.131989 -0.088729
    20 -0.024967 -1.127840 0.017597 -1.419678 -0.006927 -0.058448
    21 -0.020057 -0.902687 0.053060 -1.700088 -0.014477 -0.065124
    22 0.630386 -1.193371 0.185379 0.720505 -1.006041 -0.620461
    23 1.449987 -0.247574 0.079230 0.073725 -0.243119 -0.906161
    24 1.061707 -0.132196 0.028385 0.026746 -0.168638 -0.682153
    25 0.120153 -0.050270 -0.054489 0.287569 3.110905 1.561085
    26 -7.208481 0.952523 -6.134283 -1.264742 -3.974981 -1.548082
    27 0.038348 -8.469950 0.033605 0.078509 -0.583238 -0.085156
    28 0.447953 -2.798986 -0.200443 -0.644526 0.033180 0.187002
    29 -0.032909 -1.499736 0.040097 -1.806320 0.021524 -0.038085
    30 -0.027022 -1.127703 -0.020210 -1.241734 0.024341 -0.022567
    31 -0.249534 -2.846964 -0.174213 -0.532657 0.082880 0.106992
    32 0.043235 -1.656596 0.060855 -1.670355 -0.024154 0.011985
    33 0.031729 -1.137392 0.051025 -1.511058 -0.016688 0.008875
    34 -0.963866 -2.785145 -0.085350 -0.515749 0.249320 0.002570
    35 0.028479 -1.406973 -0.024980 -1.149446 -0.033125 -0.037080
    36 0.021413 -0.938249 0.004421 -1.366207 -0.042881 -0.037931
    37 1.164475 -2.543940 -0.170330 -0.386115 -0.158284 0.151095
    38 0.024032 -1.148574 -0.009538 -1.294914 0.023514 0.062776
    39 0.014898 -0.907427 -0.008129 -1.452208 0.027912 0.066479
    40 -0.586770 -1.264477 0.200161 -0.394791 -0.851503 -2.391248
    41 1.561899 0.035243 0.016848 -0.015812 -0.006164 0.783567
    42 1.114041 0.044518 -0.005766 -0.022666 -0.034834 0.844478
    43 -0.139399 -0.111698 0.014397 0.285382 -0.030687 1.580508
    44 -6.409248 5.901587 -0.387875 1.579174 -0.023759 -0.845405
  time 19
    0 -8.926055 -5.107698 -15.602809 -1.417399 -2.774025 0.987959
    1 10.875330 -12.900712 -8.719718 -0.599085 -0.169710 -2.681361
    2 56.912088 -23.801190 40.607551 -1.570796 0.926112 -6.283151
    3 0.000008 0.000469 -0.000004 0.000000 0.000000 0.000000
    4 -26.854916 28.498404 35.712706 1.570796 0.634327 -3.141640
    5 0.000008 51.240402 -0.000004 0.000000 0.000000 0.000000
    6 -0.002752 2.073017 -2.354921 0.000000 0.000000 0.000000
    7 10.649988 -4.475370 -3.674875 6.104588 -2.484027 0.149912
    8 6.960479 4.848403 -0.298249 1.565133 -3.126903 0.697528
    9 -0.126610 -8.420609 -0.186168 -0.272767 -0.076364 -0.039834
    10 -0.488518 -2.755602 -0.228260 -0.285136 -0.110772 -0.076140
    11 0.039887 -1.546198 0.025948 -1.932863 -0.005501 0.042942
    12 0.028786 -1.212454 -0.132487 -1.403837 -0.014106 0.031687
    13 0.250027 -2.820665 -0.238396 -0.392731 -0.140252 -0.033120
    14 -0.049759 -1.598510 0.014539 -1.781252 -0.004866 -0.045867
    15 -0.034142 -1.171750 0.045718 -1.135810 0.006891 -0.029866
    16 0.957766 -2.746780 -0.090302 -0.401913 -0.220762 -0.007230
    17 -0.033420 -1.397129 -0.030789 -1.214983 -0.001690 -0.058234
    18 -0.022360 -0.969155 -0.012467 -1.327548 -0.005872 -0.062128
    19 -1.180681 -2.507217 -0.193859 -0.168820 0.131989 -0.088729
    20 -0.024967 -1.127840 0.017597 -1.419678 -0.006927 -0.058448
    21 -0.020057 -0.902687 0.053060 -1.700088 -0.014477 -0.065124
    22 0.630386 -1.193371 0.185379 0.720505 -1.006041 -0.620461
    23 1.449987 -0.247574 0.079230 0.073725 -0.243119 -0.906161
    24 1.061707 -0.132196 0.028385 0.026746 -0.168638 -0.682153
    25 0.120153 -0.050270 -0.054489 0.287569 3.110905 1.561085
    26 -7.020975 1.003305 -6.153815 -1.306031 -3.978231 -1.519455
    27 0.038348 -8.473857 0.033605 0.080797 -0.588538 -0.086581
    28 0.447953 -2.798986 -0.200443 -0.644526 0.033180 0.187002
    29 -0.032909 -1.499736 0.040097 -1.806320 0.021524 -0.038085
    30 -0.027022 -1.127703 -0.020210 -1.241734 0.024341 -0.022567
    31 -0.249534 -2.846964 -0.174213 -0.532657 0.082892 0.106992
    32 0.043235 -1.656596 0.060855 -1.670413 -0.024154 0.011985
    33 0.031729 -1.137392 0.051025 -1.511058 -0.016688 0.008875
    34 -0.963866 -2.785145 -0.085350 -0.515749 0.249320 0.002570
    35 0.028479 -1.406973 -0.024980 -1.149446 -0.033125 -0.037080
    36 0.021413 -0.938249 0.004421 -1.366207 -0.042881 -0.037943
    37 1.164475 -2.543940 -0.170330 -0.386115 -0.158284 0.151095
    38 0.024032 -1.148574 -0.009538 -1.294914 0.023514 0.062776
    39 0.014898 -0.907427 -0.008129 -1.452208 0.027912 0.066479
    40 -0.586770 -1.264477 0.200161 -0.394791 -0.851503 -2.391248
    41 1.561899 0.035243 0.016848 -0.015812 -0.006164 0.783567
    42 1.114041 0.044518 -0.005766 -0.022666 -0.034834 0.844478
    43 -0.139399 -0.111698 0.014397 0.285382 -0.030687 1.580508
    44 -6.518626 5.760958 -0.391781 1.578887 -0.024333 -0.823849
  time 20
    0 -8.613545 -5.400676 -15.165296 -1.408700 -2.728552 1.038419
    1 9.418254 -13.451510 -8.348613 -0.549782 -0.054465 -2.850238
    2 56.912088 -23.801190 40.607551 -1.570796 0.926112 -6.283151
    3 0.000008 0.000469 -0.000004 0.000000 0.000000 0.000000
    4 -26.854916 28.498404 35.712706 1.570796 0.634327 -3.141640
    5 0.000008 51.240402 -0.000004 0.000000 0.000000 0.000000
    6 -0.002752 2.073017 -2.354921 0.000000 0.000000 0.000000
    7 10.552329 -5.084764 -3.354553 6.125862 -2.575775 -0.019910
    8 7.089389 4.621833 -0.302155 1.565229 -3.126232 0.665719
    9 -0.130517 -8.416703 -0.193980 -0.279546 -0.109300 -0.043414
    10 -0.488518 -2.755602 -0.228260 -0.285136 -0.110772 -0.076140
    11 0.039887 -1.546198 0.025948 -1.932863 -0.005501 0.042942
    12 0.028786 -1.212454 -0.132487 -1.403837 -0.014106 0.031687
    13 0.250027 -2.820665 -0.238396 -0.392731 -0.140252 -0.033120
    14 -0.049759 -1.598510 0.014539 -1.781252 -0.004866 -0.045867
    15 -0.034142 -1.171750 0.045718 -1.135810 0.006891 -0.029866
    16 0.957766 -2.746780 -0.090302 -0.401913 -0.220762 -0.007230
    17 -0.033420 -1.397129 -0.030789 -1.214983 -0.001690 -0.058234
    18 -0.022360 -0.969155 -0.012467 -1.327548 -0.005872 -0.062128
    19 -1.180681 -2.507217 -0.193859 -0.168820 0.131989 -0.088729
    20 -0.024967 -1.127840 0.017597 -1.419678 -0.006927 -0.058448
    21 -0.020057 -0.902687 0.053060 -1.700088 -0.014477 -0.065124
    22 0.630386 -1.193371 0.185379 0.720505 -1.006041 -0.620461
    23 1.449987 -0.247574 0.079230 0.073725 -0.243119 -0.906161
    24 1.061707 -0.132196 0.028385 0.026746 -0.168638 -0.682153
    25 0.120153 -0.050270 -0.054489 0.287569 3.110905 1.561085
    26 -6.993630 1.089246 -6.114751 -1.290974 -4.025061 -1.470053
    27 0.042255 -8.469950 0.029699 0.072889 -0.569956 -0.081962
    28 0.447953 -2.798986 -0.200443 -0.644526 0.033180 0.187002
    29 -0.032909 -1.499736 0.040097 -1.806320 0.021524 -0.038085
    30 -0.027022 -1.127703 -0.020210 -1.241734 0.024341 -0.022567
    31 -0.249534 -2.846964 -0.174213 -0.532657 0.082892 0.106992
    32 0.043235 -1.656596 0.060855 -1.670413 -0.024154 0.011985
    33 0.031729 -1.137392 0.051025 -1.511058 -0.016688 0.008875
    34 -0.963866 -2.785145 -0.085350 -0.515749 0.249320 0.002570
    35 0.028479 -1.406973 -0.024980 -1.149446 -0.033125 -0.037080
    36 0.021413 -0.938249 0.004421 -1.366207 -0.042881 -0.037931
    37 1.164475 -2.543940 -0.170330 -0.386115 -0.158284 0.151095
    38 0.024032 -1.148574 -0.009538 -1.294914 0.023514 0.062776
    39 0.014898 -0.907427 -0.008129 -1.452208 0.027912 0.066479
    40 -0.586770 -1.264477 0.200161 -0.394791 -0.851503 -2.391248
    41 1.561899 0.035243 0.016848 -0.015812 -0.006164 0.783567
    42 1.114041 0.044518 -0.005766 -0.022666 -0.034834 0.844478
    43 -0.139399 -0.111698 0.014397 0.285382 -0.030687 1.580508
    44 -6.870200 5.272662 -0.403501 1.577928 -0.025958 -0.750916
  time 21
    0 -8.898710 -5.881159 -14.122295 -1.440247 -2.614264 1.107670
    1 8.719014 -13.701517 -8.407209 -0.550165 -0.029383 -2.902479
    2 56.912088 -23.801190 40.607551 -1.570796 0.926112 -6.283151
    3 0.000008 0.000469 -0.000004 0.000000 0.000000 0.000000
    4 -26.854916 28.498404 35.712706 1.570796 0.634327 -3.141640
    5 0.000008 51.240402 -0.000004 0.000000 0.000000 0.000000
    6 -0.002752 2.073017 -2.354921 0.000000 0.000000 0.000000
    7 10.380449 -5.432431 -3.288144 6.114266 -2.603385 -0.072564
    8 7.015168 4.754650 -0.302155 1.565229 -3.126616 0.684235
    9 -0.130517 -8.416703 -0.190074 -0.274843 -0.104532 -0.047804
    10 -0.488518 -2.755602 -0.228260 -0.285136 -0.110772 -0.076140
    11 0.039887 -1.546198 0.025948 -1.932863 -0.005501 0.042942
    12 0.028786 -1.212454 -0.132487 -1.403837 -0.014106 0.031687
    13 0.250027 -2.820665 -0.238396 -0.392731 -0.140252 -0.033120
    14 -0.049759 -1.598510 0.014539 -1.781252 -0.004866 -0.045867
    15 -0.034142 -1.171750 0.045718 -1.135810 0.006891 -0.029866
    16 0.957766 -2.746780 -0.090302 -0.401913 -0.220762 -0.007230
    17 -0.033420 -1.397129 -0.030789 -1.214983 -0.001690 -0.058234
    18 -0.022360 -0.969155 -0.012467 -1.327548 -0.005872 -0.062128
    19 -1.180681 -2.507217 -0.193859 -0.168820 0.131989 -0.088729
    20 -0.024967 -1.127840 0.017597 -1.419678 -0.006927 -0.058448
    21 -0.020057 -0.902687 0.053060 -1.700088 -0.014477 -0.065124
    22 0.630386 -1.193371 0.185379 0.720505 -1.006041 -0.620461
    23 1.449987 -0.247574 0.079230 0.073725 -0.243119 -0.906161
    24 1.061707 -0.132196 0.028385 0.026746 -0.168638 -0.682153
    25 0.120153 -0.050270 -0.054489 0.287569 3.110905 1.561085
    26 -7.165511 1.229875 -6.001466 -1.186276 -4.115758 -1.368758
    27 0.053974 -8.466044 0.025792 0.053566 -0.522569 -0.071102
    28 0.447953 -2.798986 -0.200443 -0.644526 0.033180 0.187002
    29 -0.032909 -1.499736 0.040097 -1.806320 0.021524 -0.038085
    30 -0.027022 -1.127703 -0.020210 -1.241734 0.024341 -0.022567
    31 -0.249534 -2.846964 -0.174213 -0.532657 0.082892 0.106992
    32 0.043235 -1.656596 0.060855 -1.670355 -0.024154 0.011985
    33 0.031729 -1.137392 0.051025 -1.511058 -0.016688 0.008875
    34 -0.963866 -2.785145 -0.085350 -0.515749 0.249320 0.002570
    35 0.028479 -1.406973 -0.024980 -1.149446 -0.033125 -0.037080
    36 0.021413 -0.938249 0.004421 -1.366207 -0.042881 -0.037931
    37 1.164475 -2.543940 -0.170330 -0.386115 -0.158284 0.151095
    38 0.024032 -1.148574 -0.009538 -1.294914 0.023514 0.062776
    39 0.014898 -0.907427 -0.008129 -1.452208 0.027912 0.066479
    40 -0.586770 -1.264477 0.200161 -0.394791 -0.851503 -2.391248
    41 1.561899 0.035243 0.016848 -0.015812 -0.006164 0.783567
    42 1.114041 0.044518 -0.005766 -0.022666 -0.034834 0.844478
    43 -0.139399 -0.111698 0.014397 0.285382 -0.030687 1.580508
    44 -7.417091 4.311695 -0.426939 1.575915 -0.028921 -0.616542
  time 22
    0 -9.429976 -6.334298 -12.665220 -1.523800 -2.467057 1.209161
    1 8.867456 -13.947618 -8.450179 -0.564525 -0.085343 -2.847272
    2 56.912088 -23.801190 40.607551 -1.570796 0.926112 -6.283151
    3 0.000008 0.000469 -0.000004 0.000000 0.000000 0.000000
    4 -26.854916 28.498404 35.712706 1.570796 0.634327 -3.141640
    5 0.000008 51.240402 -0.000004 0.000000 0.000000 0.000000
    6 -0.002752 2.073017 -2.354921 0.000000 0.000000 0.000000
    7 10.243726 -5.619936 -3.319395 6.107463 -2.586224 -0.033666
    8 6.718284 5.235133 -0.290436 1.565037 -3.128150 0.753360
    9 -0.122704 -8.420609 -0.182261 -0.258607 -0.061974 -0.053252
    10 -0.488518 -2.755602 -0.228260 -0.285136 -0.110772 -0.076140
    11 0.039887 -1.546198 0.025948 -1.932863 -0.005501 0.042942
    12 0.028786 -1.212454 -0.132487 -1.403837 -0.014106 0.031687
    13 0.250027 -2.820665 -0.238396 -0.392731 -0.140252 -0.033120
    14 -0.049759 -1.598510 0.014539 -1.781252 -0.004866 -0.045867
    15 -0.034142 -1.171750 0.045718 -1.135810 0.006891 -0.029866
    16 0.957766 -2.746780 -0.090302 -0.401913 -0.220762 -0.007230
    17 -0.033420 -1.397129 -0.030789 -1.214983 -0.001690 -0.058234
    18 -0.022360 -0.969155 -0.012467 -1.327548 -0.005872 -0.062128
    19 -1.180681 -2.507217 -0.193859 -0.168820 0.131989 -0.088729
    20 -0.024967 -1.127840 0.017597 -1.419678 -0.006927 -0.058448
    21 -0.020057 -0.902687 0.053060 -1.700088 -0.014477 -0.065124
    22 0.630386 -1.193371 0.185379 0.720505 -1.006041 -0.620461
    23 1.449987 -0.247574 0.079230 0.073725 -0.243119 -0.906161
    24 1.061707 -0.132196 0.028385 0.026746 -0.168638 -0.682153
    25 0.120153 -0.050270 -0.054489 0.287569 3.110905 1.561085
    26 -7.438956 1.405661 -5.825680 -0.977501 -4.214196 -1.180244
    27 0.065693 -8.462138 0.017980 0.029464 -0.459092 -0.058767
    28 0.447953 -2.798986 -0.200443 -0.644526 0.033180 0.187002
    29 -0.032909 -1.499736 0.040097 -1.806320 0.021524 -0.038085
    30 -0.027022 -1.127703 -0.020210 -1.241734 0.024341 -0.022567
    31 -0.249534 -2.846964 -0.174213 -0.532657 0.082892 0.106992
    32 0.043235 -1.656596 0.060855 -1.670355 -0.024154 0.011985
    33 0.031729 -1.137392 0.051025 -1.511058 -0.016688 0.008875
    34 -0.963866 -2.785145 -0.085350 -0.515749 0.249320 0.002570
    35 0.028479 -1.406973 -0.024980 -1.149446 -0.033125 -0.037080
    36 0.021413 -0.938249 0.004421 -1.366207 -0.042881 -0.037931
    37 1.164475 -2.543940 -0.170330 -0.386115 -0.158284 0.151095
    38 0.024032 -1.148574 -0.009538 -1.294914 0.023514 0.062776
    39 0.014898 -0.907427 -0.008129 -1.452208 0.027912 0.066479
    40 -0.586770 -1.264477 0.200161 -0.394791 -0.851503 -2.391248
    41 1.561899 0.035243 0.016848 -0.015812 -0.006164 0.783567
    42 1.114041 0.044518 -0.005766 -0.022666 -0.034834 0.844478
    43 -0.139399 -0.111698 0.014397 0.285382 -0.030687 1.580508
    44 -7.909294 3.034312 -0.446471 1.572847 -0.032171 -0.450070
  time 23
    0 -9.898741 -6.611650 -11.063608 1.474625 -0.815047 -1.785226
    1 9.461224 -14.127311 -8.532212 -0.595925 -0.180636 -2.734751
    2 56.912088 -23.801190 40.607551 -1.570796 0.926112 -6.283151
    3 0.000008 0.000469 -0.000004 0.000000 0.000000 0.000000
    4 -26.854916 28.498404 35.712706 1.570796 0.634327 -3.141640
    5 0.000008 51.240402 -0.000004 0.000000 0.000000 0.000000
    6 -0.002752 2.073017 -2.354921 0.000000 0.000000 0.000000
    7 10.142160 -5.705876 -3.393616 6.095484 -2.542987 0.055989
    8 6.280771 5.836714 -0.274810 1.565037 -3.130067 0.844895
    9 -0.114891 -8.420609 -0.166636 -0.237743 -0.002051 -0.057735
    10 -0.488518 -2.755602 -0.228260 -0.285136 -0.110772 -0.076140
    11 0.039887 -1.546198 0.025948 -1.932863 -0.005501 0.042942
    12 0.028786 -1.212454 -0.132487 -1.403837 -0.014106 0.031687
    13 0.250027 -2.820665 -0.238396 -0.392731 -0.140252 -0.033120
    14 -0.049759 -1.598510 0.014539 -1.781252 -0.004866 -0.045867
    15 -0.034142 -1.171750 0.045718 -1.135810 0.006891 -0.029866
    16 0.957766 -2.746780 -0.090302 -0.401913 -0.220762 -0.007230
    17 -0.033420 -1.397129 -0.030789 -1.214983 -0.001690 -0.058234
    18 -0.022360 -0.969155 -0.012467 -1.327548 -0.005872 -0.062128
    19 -1.180681 -2.507217 -0.193859 -0.168820 0.131989 -0.088729
    20 -0.024967 -1.127840 0.017597 -1.419678 -0.006927 -0.058448
    21 -0.020057 -0.902687 0.053060 -1.700088 -0.014477 -0.065124
    22 0.630386 -1.193371 0.185379 0.720505 -1.006041 -0.620461
    23 1.449987 -0.247574 0.079230 0.073725 -0.243119 -0.906161
    24 1.061707 -0.132196 0.028385 0.026746 -0.168638 -0.682153
    25 0.120153 -0.050270 -0.054489 0.287569 3.110905 1.561085
    26 -7.720215 1.600980 -5.614736 -0.668141 -4.279662 -0.891584
    27 0.081319 -8.458231 0.006260 0.005912 -0.392365 -0.048251
    28 0.447953 -2.798986 -0.200443 -0.644526 0.033180 0.187002
    29 -0.032909 -1.499736 0.040097 -1.806320 0.021524 -0.038085
    30 -0.027022 -1.127703 -0.020210 -1.241734 0.024341 -0.022567
    31 -0.249534 -2.846964 -0.174213 -0.532657 0.082892 0.106992
    32 0.043235 -1.656596 0.060855 -1.670355 -0.024154 0.011985
    33 0.031729 -1.137392 0.051025 -1.511058 -0.016688 0.008875
    34 -0.963866 -2.785145 -0.085350 -0.515749 0.249320 0.002570
    35 0.028479 -1.406973 -0.024980 -1.149446 -0.033125 -0.037080
    36 0.021413 -0.938249 0.004421 -1.366207 -0.042881 -0.037931
    37 1.164475 -2.543940 -0.170330 -0.386115 -0.158284 0.151095
    38 0.024032 -1.148574 -0.009538 -1.294914 0.023514 0.062776
    39 0.014898 -0.907427 -0.008129 -1.452208 0.027912 0.066479
    40 -0.586770 -1.264477 0.200161 -0.394791 -0.851503 -2.391248
    41 1.561899 0.035243 0.016848 -0.015812 -0.006164 0.783567
    42 1.114041 0.044518 -0.005766 -0.022666 -0.034834 0.844478
    43 -0.139399 -0.111698 0.014397 0.285382 -0.030687 1.580508
    44 -8.186646 1.670990 -0.466002 1.569204 -0.034848 -0.281129
  time 24
    0 -10.140935 -6.709310 -9.669035 1.295666 -0.914548 -1.607902
    1 10.101869 -14.189813 -8.680655 -0.640537 -0.272414 -2.614863
    2 56.912088 -23.801190 40.607551 -1.570796 0.926112 -6.283151
    3 0.000008 0.000469 -0.000004 0.000000 0.000000 0.000000
    4 -26.854916 28.498404 35.712706 1.570796 0.634327 -3.141640
    5 0.000008 51.240402 -0.000004 0.000000 0.000000 0.000000
    6 -0.002752 2.073017 -2.354921 0.000000 0.000000 0.000000
    7 10.064033 -5.741034 -3.471744 6.073060 -2.495627 0.154466
    8 5.819819 6.356261 -0.259185 1.565133 -3.131889 0.930257
    9 -0.107078 -8.424515 -0.154917 -0.218729 0.054766 -0.060350
    10 -0.488518 -2.755602 -0.228260 -0.285136 -0.110772 -0.076140
    11 0.039887 -1.546198 0.025948 -1.932863 -0.005501 0.042942
    12 0.028786 -1.212454 -0.132487 -1.403837 -0.014106 0.031687
    13 0.250027 -2.820665 -0.238396 -0.392731 -0.140252 -0.033120
    14 -0.049759 -1.598510 0.014539 -1.781252 -0.004866 -0.045867
    15 -0.034142 -1.171750 0.045718 -1.135810 0.006891 -0.029866
    16 0.957766 -2.746780 -0.090302 -0.401913 -0.220762 -0.007230
    17 -0.033420 -1.397129 -0.030789 -1.214983 -0.001690 -0.058234
    18 -0.022360 -0.969155 -0.012467 -1.327548 -0.005872 -0.062128
    19 -1.180681 -2.507217 -0.193859 -0.168820 0.131989 -0.088729
    20 -0.024967 -1.127840 0.017597 -1.419678 -0.006927 -0.058448
    21 -0.020057 -0.902687 0.053060 -1.700088 -0.014477 -0.065124
    22 0.630386 -1.193371 0.185379 0.720505 -1.006041 -0.620461
    23 1.449987 -0.247574 0.079230 0.073725 -0.243119 -0.906161
    24 1.061707 -0.132196 0.028385 0.026746 -0.168638 -0.682153
    25 0.120153 -0.050270 -0.054489 0.287569 3.110905 1.561085
    26 -7.942878 1.772860 -5.411605 -0.356065 -4.292660 -0.591626
    27 0.093038 -8.458231 -0.005459 -0.013034 -0.335482 -0.041371
    28 0.447953 -2.798986 -0.200443 -0.644526 0.033180 0.187002
    29 -0.032909 -1.499736 0.040097 -1.806320 0.021524 -0.038085
    30 -0.027022 -1.127703 -0.020210 -1.241734 0.024341 -0.022567
    31 -0.249534 -2.846964 -0.174213 -0.532657 0.082892 0.106992
    32 0.043235 -1.656596 0.060855 -1.670355 -0.024154 0.011985
    33 0.031729 -1.137392 0.051025 -1.511058 -0.016688 0.008875
    34 -0.963866 -2.785145 -0.085350 -0.515749 0.249320 0.002570
    35 0.028479 -1.406973 -0.024980 -1.149446 -0.033125 -0.037080
    36 0.021413 -0.938249 0.004421 -1.366207 -0.042881 -0.037931
    37 1.164475 -2.543940 -0.170330 -0.386115 -0.158284 0.151095
    38 0.024032 -1.148574 -0.009538 -1.294914 0.023514 0.062776
    39 0.014898 -0.907427 -0.008129 -1.452208 0.027912 0.066479
    40 -0.586770 -1.264477 0.200161 -0.394791 -0.851503 -2.391248
    41 1.561899 0.035243 0.016848 -0.015812 -0.006164 0.783567
    42 1.114041 0.044518 -0.005766 -0.022666 -0.034834 0.844478
    43 -0.139399 -0.111698 0.014397 0.285382 -0.030687 1.580508
    44 -8.237429 0.502985 -0.473815 1.565848 -0.036568 -0.139158
  time 25
    0 -10.164374 -6.713216 -8.836978 1.162211 -0.960952 -1.473311
    1 10.426097 -14.201532 -8.809565 -0.673469 -0.321438 -2.544347
    2 56.912088 -23.801190 40.607551 -1.570796 0.926112 -6.283151
    3 0.000008 0.000469 -0.000004 0.000000 0.000000 0.000000
    4 -26.854916 28.498404 35.712706 1.570796 0.634327 -3.141640
    5 0.000008 51.240402 -0.000004 0.000000 0.000000 0.000000
    6 -0.002752 2.073017 -2.354921 0.000000 0.000000 0.000000
    7 10.009344 -5.776191 -3.510808 6.053032 -2.469551 0.212623
    8 5.526842 6.649239 -0.251372 1.565324 -3.133039 0.981247
    9 -0.103172 -8.424515 -0.151010 -0.207847 0.087790 -0.061627
    10 -0.488518 -2.755602 -0.228260 -0.285136 -0.110772 -0.076140
    11 0.039887 -1.546198 0.025948 -1.932863 -0.005501 0.042942
    12 0.028786 -1.212454 -0.132487 -1.403837 -0.014106 0.031687
    13 0.250027 -2.820665 -0.238396 -0.392731 -0.140252 -0.033120
    14 -0.049759 -1.598510 0.014539 -1.781252 -0.004866 -0.045867
    15 -0.034142 -1.171750 0.045718 -1.135810 0.006891 -0.029866
    16 0.957766 -2.746780 -0.090302 -0.401913 -0.220762 -0.007230
    17 -0.033420 -1.397129 -0.030789 -1.214983 -0.001690 -0.058234
    18 -0.022360 -0.969155 -0.012467 -1.327548 -0.005872 -0.062128
    19 -1.180681 -2.507217 -0.193859 -0.168820 0.131989 -0.088729
    20 -0.024967 -1.127840 0.017597 -1.419678 -0.006927 -0.058448
    21 -0.020057 -0.902687 0.053060 -1.700088 -0.014477 -0.065124
    22 0.630386 -1.193371 0.185379 0.720505 -1.006041 -0.620461
    23 1.449987 -0.247574 0.079230 0.073725 -0.243119 -0.906161
    24 1.061707 -0.132196 0.028385 0.026746 -0.168638 -0.682153
    25 0.120153 -0.050270 -0.054489 0.287569 3.110905 1.561085
    26 -8.056163 1.886145 -5.286601 -0.174687 -4.281096 -0.411537
    27 0.096944 -8.454325 -0.009365 -0.023869 -0.301598 -0.038767
    28 0.447953 -2.798986 -0.200443 -0.644526 0.033180 0.187002
    29 -0.032909 -1.499736 0.040097 -1.806320 0.021524 -0.038085
    30 -0.027022 -1.127703 -0.020210 -1.241734 0.024341 -0.022567
    31 -0.249534 -2.846964 -0.174213 -0.532657 0.082892 0.106992
    32 0.043235 -1.656596 0.060855 -1.670355 -0.024154 0.011985
    33 0.031729 -1.137392 0.051025 -1.511058 -0.016688 0.008875
    34 -0.963866 -2.785145 -0.085350 -0.515749 0.249320 0.002570
    35 0.028479 -1.406973 -0.024980 -1.149446 -0.033125 -0.037080
    36 0.021413 -0.938249 0.004421 -1.366207 -0.042881 -0.037931
    37 1.164475 -2.543940 -0.170330 -0.386115 -0.158284 0.151095
    38 0.024032 -1.148574 -0.009538 -1.294914 0.023514 0.062776
    39 0.014898 -0.907427 -0.008129 -1.452208 0.027912 0.066479
    40 -0.586770 -1.264477 0.200161 -0.394791 -0.851503 -2.391248
    41 1.561899 0.035243 0.016848 -0.015812 -0.006164 0.783567
    42 1.114041 0.044518 -0.005766 -0.022666 -0.034834 0.844478
    43 -0.139399 -0.111698 0.014397 0.285382 -0.030687 1.580508
    44 -8.190552 -0.196255 -0.477722 1.563739 -0.037429 -0.053690
end
