version 1
nodes
  0 "6_4bossknife_R" -1
  1 "6_4bossknife_L" -1
  2 "Dummy03" -1
  3 "Dummy06" 2
  4 "Dummy04" -1
  5 "Dummy05" 4
  6 "root" -1
  7 "Bone01" 6
  8 "Bone_L_Upper" 7
  9 "Bone_Lefthand" 7
  10 "Bone13" 9
  11 "Bone14" 10
  12 "Bone15" 11
  13 "Bone17" 9
  14 "Bone18" 13
  15 "Bone19" 14
  16 "Bone21" 9
  17 "Bone22" 16
  18 "Bone23" 17
  19 "Bone09" 9
  20 "Bone10" 19
  21 "Bone11" 20
  22 "Bone05" 9
  23 "Bone06" 22
  24 "Bone07" 23
  25 "Bone_Se_Hand-L" 9
  26 "Bone04" 6
  27 "Bone_Righthand" 26
  28 "Bone39" 27
  29 "Bone40" 28
  30 "Bone41" 29
  31 "Bone35" 27
  32 "Bone36" 31
  33 "Bone37" 32
  34 "Bone31" 27
  35 "Bone32" 34
  36 "Bone33" 35
  37 "Bone43" 27
  38 "Bone44" 37
  39 "Bone45" 38
  40 "Bone27" 27
  41 "Bone28" 40
  42 "Bone29" 41
  43 "Bone_Se_Hand-R" 27
  44 "Bone_R_Upper" 26
end
skeleton
  time 0
    0 -10.164374 -6.713216 -8.836978 1.162211 -0.960952 -1.473311
    1 10.426097 -14.201532 -8.809565 -0.673469 -0.321438 -2.544347
    2 24.790014 45.540770 34.626179 1.570796 -0.479834 -3.141626
    3 0.000008 48.388664 -0.000004 0.000000 0.000000 0.000000
    4 -26.854916 44.233259 35.712706 1.570796 0.634327 -3.141640
    5 0.000008 51.240402 -0.000004 0.000000 0.000000 0.000000
    6 -0.002752 2.073017 -2.354921 0.000000 0.000000 0.000000
    7 10.009344 -5.776191 -3.510808 6.053032 -2.469551 0.212623
    8 5.526842 6.649239 -0.251372 1.565324 -3.133039 0.981247
    9 -0.103172 -8.424515 -0.151010 -0.207847 0.087790 -0.061627
    10 -0.488518 -2.755602 -0.228260 -0.285136 -0.110772 -0.076140
    11 0.039887 -1.546198 0.025948 -1.932863 -0.005501 0.042942
    12 0.028786 -1.212454 -0.132487 -1.403837 -0.014106 0.031687
    13 0.250027 -2.820665 -0.238396 -0.392731 -0.140252 -0.033120
    14 -0.049759 -1.598510 0.014539 -1.781252 -0.004866 -0.045867
    15 -0.034142 -1.171750 0.045718 -1.135810 0.006891 -0.029866
    16 0.957766 -2.746780 -0.090302 -0.401913 -0.220762 -0.007230
    17 -0.033420 -1.397129 -0.030789 -1.214983 -0.001690 -0.058234
    18 -0.022360 -0.969155 -0.012467 -1.327548 -0.005872 -0.062128
    19 -1.180681 -2.507217 -0.193859 -0.168820 0.131989 -0.088729
    20 -0.024967 -1.127840 0.017597 -1.419678 -0.006927 -0.058448
    21 -0.020057 -0.902687 0.053060 -1.700088 -0.014477 -0.065124
    22 0.630386 -1.193371 0.185379 0.720505 -1.006041 -0.620461
    23 1.449987 -0.247574 0.079230 0.073725 -0.243119 -0.906161
    24 1.061707 -0.132196 0.028385 0.026746 -0.168638 -0.682153
    25 0.120153 -0.050270 -0.054489 0.287569 3.110905 1.561085
    26 -8.056163 1.886145 -5.286601 -0.174687 -4.281096 -0.411537
    27 0.096944 -8.454325 -0.009365 -0.023869 -0.301598 -0.038767
    28 0.447953 -2.798986 -0.200443 -0.644526 0.033180 0.187002
    29 -0.032909 -1.499736 0.040097 -1.806320 0.021524 -0.038085
    30 -0.027022 -1.127703 -0.020210 -1.241734 0.024341 -0.022567
    31 -0.249534 -2.846964 -0.174213 -0.532657 0.082892 0.106992
    32 0.043235 -1.656596 0.060855 -1.670355 -0.024154 0.011985
    33 0.031729 -1.137392 0.051025 -1.511058 -0.016688 0.008875
    34 -0.963866 -2.785145 -0.085350 -0.515749 0.249320 0.002570
    35 0.028479 -1.406973 -0.024980 -1.149446 -0.033125 -0.037080
    36 0.021413 -0.938249 0.004421 -1.366207 -0.042881 -0.037931
    37 1.164475 -2.543940 -0.170330 -0.386115 -0.158284 0.151095
    38 0.024032 -1.148574 -0.009538 -1.294914 0.023514 0.062776
    39 0.014898 -0.907427 -0.008129 -1.452208 0.027912 0.066479
    40 -0.586770 -1.264477 0.200161 -0.394791 -0.851503 -2.391248
    41 1.561899 0.035243 0.016848 -0.015812 -0.006164 0.783567
    42 1.114041 0.044518 -0.005766 -0.022666 -0.034834 0.844478
    43 -0.139399 -0.111698 0.014397 0.285382 -0.030687 1.580508
    44 -8.190552 -0.196255 -0.477722 1.563739 -0.037429 -0.053690
  time 1
    0 -13.199623 -7.170261 -7.801790 0.690245 -0.560619 -1.155958
    1 14.074646 -12.861648 -4.770379 -0.432031 -0.111660 -2.308590
    2 24.790014 35.786566 34.626179 1.570796 -0.572494 -3.141626
    3 0.000008 48.388664 -0.000004 0.000000 0.000000 0.000000
    4 -26.854916 34.580621 35.712706 1.570796 0.716776 -3.141640
    5 0.000008 51.240402 -0.000004 0.000000 0.000000 0.000000
    6 -0.002752 2.073017 -2.354921 0.000000 0.000000 0.000000
    7 11.536734 -4.498808 -1.061514 6.265578 -2.786401 0.202946
    8 6.144048 6.000782 -0.266998 1.565037 -3.130642 0.870912
    9 -0.075827 -8.397171 -0.139291 -0.190335 0.132098 -0.260379
    10 -0.488518 -2.755602 -0.228260 -0.285136 -0.110772 -0.076140
    11 0.039887 -1.546198 0.025948 -1.932863 -0.005501 0.042942
    12 0.028786 -1.212454 -0.132487 -1.403837 -0.014106 0.031687
    13 0.250027 -2.820665 -0.238396 -0.392731 -0.140252 -0.033120
    14 -0.049759 -1.598510 0.014539 -1.781252 -0.004866 -0.045867
    15 -0.034142 -1.171750 0.045718 -1.135810 0.006891 -0.029866
    16 0.957766 -2.746780 -0.090302 -0.401913 -0.220762 -0.007230
    17 -0.033420 -1.397129 -0.030789 -1.214983 -0.001690 -0.058234
    18 -0.022360 -0.969155 -0.012467 -1.327548 -0.005872 -0.062128
    19 -1.180681 -2.507217 -0.193859 -0.168820 0.131989 -0.088729
    20 -0.024967 -1.127840 0.017597 -1.419678 -0.006927 -0.058448
    21 -0.020057 -0.902687 0.053060 -1.700088 -0.014477 -0.065124
    22 0.630386 -1.193371 0.185379 0.720505 -1.006041 -0.620461
    23 1.449987 -0.247574 0.079230 0.073725 -0.243119 -0.906161
    24 1.061707 -0.132196 0.028385 0.026746 -0.168638 -0.682153
    25 0.120153 -0.050270 -0.054489 0.287569 3.110905 1.561085
    26 -10.427329 1.046275 -3.352948 -0.139451 -3.832485 -0.371039
    27 0.096944 -8.426980 -0.017178 -0.078621 -0.257903 0.101580
    28 0.447953 -2.798986 -0.200443 -0.644526 0.033180 0.187002
    29 -0.032909 -1.499736 0.040097 -1.806320 0.021524 -0.038085
    30 -0.027022 -1.127703 -0.020210 -1.241734 0.024341 -0.022567
    31 -0.249534 -2.846964 -0.174213 -0.532657 0.082892 0.106992
    32 0.043235 -1.656596 0.060855 -1.670355 -0.024154 0.011985
    33 0.031729 -1.137392 0.051025 -1.511058 -0.016688 0.008875
    34 -0.963866 -2.785145 -0.085350 -0.515749 0.249320 0.002570
    35 0.028479 -1.406973 -0.024980 -1.149446 -0.033125 -0.037080
    36 0.021413 -0.938249 0.004421 -1.366207 -0.042881 -0.037931
    37 1.164475 -2.543940 -0.170330 -0.386115 -0.158284 0.151095
    38 0.024032 -1.148574 -0.009538 -1.294914 0.023514 0.062776
    39 0.014898 -0.907427 -0.008129 -1.452208 0.027912 0.066479
    40 -0.586770 -1.264477 0.200161 -0.394791 -0.851503 -2.391248
    41 1.561899 0.035243 0.016848 -0.015812 -0.006164 0.783567
    42 1.114041 0.044518 -0.005766 -0.022666 -0.034834 0.844478
    43 -0.139399 -0.111698 0.014397 0.285382 -0.030687 1.580508
    44 -8.135863 2.030376 -0.462096 1.570162 -0.034179 -0.325192
  time 2
    0 -17.293497 -7.779655 0.323458 0.020105 -0.085614 -1.295510
    1 16.016112 -8.978717 3.358775 0.097659 -0.002020 -1.837554
    2 24.790014 26.032362 34.626179 1.570796 -0.665242 -3.141626
    3 0.000008 48.388664 -0.000004 0.000000 0.000000 0.000000
    4 -26.854916 24.927983 35.712706 1.570796 0.799224 -3.141640
    5 0.000008 51.240402 -0.000004 0.000000 0.000000 0.000000
    6 -0.002752 2.073017 -2.354921 0.000000 0.000000 0.000000
    7 11.650019 -1.690129 3.704256 0.257559 2.918733 0.334345
    8 7.054232 4.688242 -0.302155 1.565229 -3.126424 0.674645
    9 -0.025045 -8.362013 -0.127572 -0.181354 0.212359 -0.606765
    10 -0.488518 -2.755602 -0.228260 -0.285136 -0.110772 -0.076140
    11 0.039887 -1.546198 0.025948 -1.932863 -0.005501 0.042942
    12 0.028786 -1.212454 -0.132487 -1.403837 -0.014106 0.031687
    13 0.250027 -2.820665 -0.238396 -0.392731 -0.140252 -0.033120
    14 -0.049759 -1.598510 0.014539 -1.781252 -0.004866 -0.045867
    15 -0.034142 -1.171750 0.045718 -1.135810 0.006891 -0.029866
    16 0.957766 -2.746780 -0.090302 -0.401913 -0.220762 -0.007230
    17 -0.033420 -1.397129 -0.030789 -1.214983 -0.001690 -0.058234
    18 -0.022360 -0.969155 -0.012467 -1.327548 -0.005872 -0.062128
    19 -1.180681 -2.507217 -0.193859 -0.168820 0.131989 -0.088729
    20 -0.024967 -1.127840 0.017597 -1.419678 -0.006927 -0.058448
    21 -0.020057 -0.902687 0.053060 -1.700088 -0.014477 -0.065124
    22 0.630386 -1.193371 0.185379 0.720505 -1.006041 -0.620461
    23 1.449987 -0.247574 0.079230 0.073725 -0.243119 -0.906161
    24 1.061707 -0.132196 0.028385 0.026746 -0.168638 -0.682153
    25 0.120153 -0.050270 -0.054489 0.287569 3.110905 1.561085
    26 -11.810184 -0.754561 2.155033 0.141115 -3.119141 -0.448110
    27 0.085225 -8.376197 -0.040616 -0.155853 -0.166441 0.335884
    28 0.447953 -2.798986 -0.200443 -0.644526 0.033180 0.187002
    29 -0.032909 -1.499736 0.040097 -1.806320 0.021524 -0.038085
    30 -0.027022 -1.127703 -0.020210 -1.241734 0.024341 -0.022567
    31 -0.249534 -2.846964 -0.174213 -0.532657 0.082892 0.106992
    32 0.043235 -1.656596 0.060855 -1.670355 -0.024154 0.011985
    33 0.031729 -1.137392 0.051025 -1.511058 -0.016688 0.008875
    34 -0.963866 -2.785145 -0.085350 -0.515749 0.249320 0.002570
    35 0.028479 -1.406973 -0.024980 -1.149446 -0.033125 -0.037080
    36 0.021413 -0.938249 0.004421 -1.366207 -0.042881 -0.037931
    37 1.164475 -2.543940 -0.170330 -0.386115 -0.158284 0.151095
    38 0.024032 -1.148574 -0.009538 -1.294914 0.023514 0.062776
    39 0.014898 -0.907427 -0.008129 -1.452208 0.027912 0.066479
    40 -0.586770 -1.264477 0.200161 -0.394791 -0.851503 -2.391248
    41 1.561899 0.035243 0.016848 -0.015812 -0.006164 0.783567
    42 1.114041 0.044518 -0.005766 -0.022666 -0.034834 0.844478
    43 -0.139399 -0.111698 0.014397 0.285382 -0.030687 1.580508
    44 -6.706132 5.510951 -0.399594 1.578407 -0.025193 -0.785768
  time 3
    0 -15.344219 -6.935879 8.819811 -0.495072 -0.176840 -1.522817
    1 14.133242 -5.814558 8.405804 0.489015 -0.134557 -1.544101
    2 24.790014 16.278158 34.626179 1.570796 -0.757991 -3.141626
    3 0.000008 48.388664 -0.000004 0.000000 0.000000 0.000000
    4 -26.854916 15.271438 35.712706 1.570796 0.881717 -3.141640
    5 0.000008 51.240402 -0.000004 0.000000 0.000000 0.000000
    6 -0.002752 2.073017 -2.354921 0.000000 0.000000 0.000000
    7 9.767149 0.352902 6.622314 0.484575 2.520776 0.564126
    8 7.612843 3.449923 -0.329500 1.565995 -3.122973 0.508098
    9 0.021832 -8.350294 -0.119759 -0.192361 0.268652 -0.856202
    10 -0.488518 -2.755602 -0.228260 -0.285136 -0.110772 -0.076140
    11 0.039887 -1.546198 0.025948 -1.932863 -0.005501 0.042942
    12 0.028786 -1.212454 -0.132487 -1.403837 -0.014106 0.031687
    13 0.250027 -2.820665 -0.238396 -0.392731 -0.140252 -0.033120
    14 -0.049759 -1.598510 0.014539 -1.781252 -0.004866 -0.045867
    15 -0.034142 -1.171750 0.045718 -1.135810 0.006891 -0.029866
    16 0.957766 -2.746780 -0.090302 -0.401913 -0.220762 -0.007230
    17 -0.033420 -1.397129 -0.030789 -1.214983 -0.001690 -0.058234
    18 -0.022360 -0.969155 -0.012467 -1.327548 -0.005872 -0.062128
    19 -1.180681 -2.507217 -0.193859 -0.168820 0.131989 -0.088729
    20 -0.024967 -1.127840 0.017597 -1.419678 -0.006927 -0.058448
    21 -0.020057 -0.902687 0.053060 -1.700088 -0.014477 -0.065124
    22 0.630386 -1.193371 0.185379 0.720505 -1.006041 -0.620461
    23 1.449987 -0.247574 0.079230 0.073725 -0.243119 -0.906161
    24 1.061707 -0.132196 0.028385 0.026746 -0.168638 -0.682153
    25 0.120153 -0.050270 -0.054489 0.287569 3.110905 1.561085
    26 -10.114819 -1.496771 6.217656 0.583811 -2.779481 -0.652805
    27 0.069599 -8.344947 -0.056241 -0.196062 -0.092269 0.495690
    28 0.447953 -2.798986 -0.200443 -0.644526 0.033180 0.187002
    29 -0.032909 -1.499736 0.040097 -1.806320 0.021524 -0.038085
    30 -0.027022 -1.127703 -0.020210 -1.241734 0.024341 -0.022567
    31 -0.249534 -2.846964 -0.174213 -0.532657 0.082892 0.106992
    32 0.043235 -1.656596 0.060855 -1.670355 -0.024154 0.011985
    33 0.031729 -1.137392 0.051025 -1.511058 -0.016688 0.008875
    34 -0.963866 -2.785145 -0.085350 -0.515749 0.249320 0.002570
    35 0.028479 -1.406973 -0.024980 -1.149446 -0.033125 -0.037080
    36 0.021413 -0.938249 0.004421 -1.366207 -0.042881 -0.037931
    37 1.164475 -2.543940 -0.170330 -0.386115 -0.158284 0.151095
    38 0.024032 -1.148574 -0.009538 -1.294914 0.023514 0.062776
    39 0.014898 -0.907427 -0.008129 -1.452208 0.027912 0.066479
    40 -0.586770 -1.264477 0.200161 -0.394791 -0.851503 -2.391248
    41 1.561899 0.035243 0.016848 -0.015812 -0.006164 0.783567
    42 1.114041 0.044518 -0.005766 -0.022666 -0.034834 0.844478
    43 -0.139399 -0.111698 0.014397 0.285382 -0.030687 1.580508
    44 -5.077176 7.210221 -0.344905 1.581092 -0.018024 -1.072464
  time 4
    0 -14.039492 -3.697499 11.144101 -0.644204 -0.263694 -1.565932
    1 13.258215 -2.224604 9.558183 0.599491 -0.209518 -1.449186
    2 24.790014 6.523955 34.626179 -1.570796 -2.290843 -6.283151
    3 0.000008 48.388664 -0.000004 0.000000 0.000000 0.000000
    4 -26.854916 5.614893 35.712706 1.570796 0.964166 -3.141640
    5 0.000008 51.240402 -0.000004 0.000000 0.000000 0.000000
    6 -0.002752 3.909011 -2.354921 0.000000 0.000000 0.000000
    7 8.841339 1.587315 7.134049 0.592477 2.423660 0.705391
    8 7.929259 2.293637 -0.352938 1.567146 -3.120001 0.360636
    9 0.037457 -8.350294 -0.115853 -0.198190 0.278756 -0.926718
    10 -0.488518 -2.755602 -0.228260 -0.285136 -0.110772 -0.076140
    11 0.039887 -1.546198 0.025948 -1.932863 -0.005501 0.042942
    12 0.028786 -1.212454 -0.132487 -1.403837 -0.014106 0.031687
    13 0.250027 -2.820665 -0.238396 -0.392731 -0.140252 -0.033120
    14 -0.049759 -1.598510 0.014539 -1.781252 -0.004866 -0.045867
    15 -0.034142 -1.171750 0.045718 -1.135810 0.006891 -0.029866
    16 0.957766 -2.746780 -0.090302 -0.401913 -0.220762 -0.007230
    17 -0.033420 -1.397129 -0.030789 -1.214983 -0.001690 -0.058234
    18 -0.022360 -0.969155 -0.012467 -1.327548 -0.005872 -0.062128
    19 -1.180681 -2.507217 -0.193859 -0.168820 0.131989 -0.088729
    20 -0.024967 -1.127840 0.017597 -1.419678 -0.006927 -0.058448
    21 -0.020057 -0.902687 0.053060 -1.700088 -0.014477 -0.065124
    22 0.630386 -1.193371 0.185379 0.720505 -1.006041 -0.620461
    23 1.449987 -0.247574 0.079230 0.073725 -0.243119 -0.906161
    24 1.061707 -0.132196 0.028385 0.026746 -0.168638 -0.682153
    25 0.120153 -0.050270 -0.054489 0.287569 3.110905 1.561085
    26 -9.411673 -0.817063 7.209874 0.759679 -2.713919 -0.752472
    27 0.065693 -8.337134 -0.060148 -0.204579 -0.071794 0.537018
    28 0.447953 -2.798986 -0.200443 -0.644526 0.033180 0.187002
    29 -0.032909 -1.499736 0.040097 -1.806320 0.021524 -0.038085
    30 -0.027022 -1.127703 -0.020210 -1.241734 0.024341 -0.022567
    31 -0.249534 -2.846964 -0.174213 -0.532657 0.082892 0.106992
    32 0.043235 -1.656596 0.060855 -1.670413 -0.024154 0.011985
    33 0.031729 -1.137392 0.051025 -1.511058 -0.016688 0.008875
    34 -0.963866 -2.785145 -0.085350 -0.515749 0.249320 0.002570
    35 0.028479 -1.406973 -0.024980 -1.149446 -0.033125 -0.037080
    36 0.021413 -0.938249 0.004421 -1.366207 -0.042881 -0.037931
    37 1.164475 -2.543940 -0.170330 -0.386115 -0.158284 0.151095
    38 0.024032 -1.148574 -0.009538 -1.294914 0.023514 0.062776
    39 0.014898 -0.907427 -0.008129 -1.452208 0.027912 0.066479
    40 -0.586770 -1.264477 0.200161 -0.394791 -0.851503 -2.391248
    41 1.561899 0.035243 0.016848 -0.015812 -0.006164 0.783567
    42 1.114041 0.044518 -0.005766 -0.022666 -0.034834 0.844478
    43 -0.139399 -0.111698 0.014397 0.285382 -0.030687 1.580508
    44 -5.350622 6.991464 -0.352718 1.580804 -0.019171 -1.030205
  time 5
    0 -14.121526 -0.427868 11.269104 -0.673171 -0.268995 -1.586726
    1 13.176181 1.115341 9.460524 0.604756 -0.234885 -1.397040
    2 24.790014 -3.230249 34.626179 1.570796 -0.943399 -3.141626
    3 0.000008 48.388664 -0.000004 0.000000 0.000000 0.000000
    4 -26.854916 -4.041651 35.712706 1.570796 1.046659 -3.141640
    5 0.000008 51.240402 -0.000004 0.000000 0.000000 0.000000
    6 -0.002752 5.745004 -2.354921 0.000000 0.000000 0.000000
    7 8.450702 2.727975 6.782475 0.627646 2.436698 0.774554
    8 8.073794 1.008442 -0.372470 1.568872 -3.117029 0.201401
    9 0.033551 -8.346388 -0.119759 -0.198441 0.270533 -0.928025
    10 -0.488518 -2.755602 -0.228260 -0.285136 -0.110772 -0.076140
    11 0.039887 -1.546198 0.025948 -1.932863 -0.005501 0.042942
    12 0.028786 -1.212454 -0.132487 -1.403837 -0.014106 0.031687
    13 0.250027 -2.820665 -0.238396 -0.392731 -0.140252 -0.033120
    14 -0.049759 -1.598510 0.014539 -1.781252 -0.004866 -0.045867
    15 -0.034142 -1.171750 0.045718 -1.135810 0.006891 -0.029866
    16 0.957766 -2.746780 -0.090302 -0.401913 -0.220762 -0.007230
    17 -0.033420 -1.397129 -0.030789 -1.214983 -0.001690 -0.058234
    18 -0.022360 -0.969155 -0.012467 -1.327548 -0.005872 -0.062128
    19 -1.180681 -2.507217 -0.193859 -0.168820 0.131989 -0.088729
    20 -0.024967 -1.127840 0.017597 -1.419678 -0.006927 -0.058448
    21 -0.020057 -0.902687 0.053060 -1.700088 -0.014477 -0.065124
    22 0.630386 -1.193371 0.185379 0.720505 -1.006041 -0.620461
    23 1.449987 -0.247574 0.079230 0.073725 -0.243119 -0.906161
    24 1.061707 -0.132196 0.028385 0.026746 -0.168638 -0.682153
    25 0.120153 -0.050270 -0.054489 0.287569 3.110905 1.561085
    26 -9.454643 0.436882 7.166904 0.785369 -2.699010 -0.795364
    27 0.065693 -8.337134 -0.060148 -0.203884 -0.073529 0.533529
    28 0.447953 -2.798986 -0.200443 -0.644526 0.033180 0.187002
    29 -0.032909 -1.499736 0.040097 -1.806320 0.021524 -0.038085
    30 -0.027022 -1.127703 -0.020210 -1.241734 0.024341 -0.022567
    31 -0.249534 -2.846964 -0.174213 -0.532657 0.082892 0.106992
    32 0.043235 -1.656596 0.060855 -1.670355 -0.024154 0.011985
    33 0.031729 -1.137392 0.051025 -1.511058 -0.016688 0.008875
    34 -0.963866 -2.785145 -0.085350 -0.515749 0.249320 0.002570
    35 0.028479 -1.406973 -0.024980 -1.149446 -0.033125 -0.037080
    36 0.021413 -0.938249 0.004421 -1.366207 -0.042881 -0.037931
    37 1.164475 -2.543940 -0.170330 -0.386115 -0.158284 0.151095
    38 0.024032 -1.148574 -0.009538 -1.294914 0.023514 0.062776
    39 0.014898 -0.907427 -0.008129 -1.452208 0.027912 0.066479
    40 -0.586770 -1.264477 0.200161 -0.394791 -0.851503 -2.391248
    41 1.561899 0.035243 0.016848 -0.015812 -0.006164 0.783567
    42 1.114041 0.044518 -0.005766 -0.022666 -0.034834 0.844478
    43 -0.139399 -0.111698 0.014397 0.285382 -0.030687 1.580508
    44 -6.428780 5.878149 -0.387875 1.579078 -0.023855 -0.841987
  time 6
    0 -14.785608 2.076115 10.147976 -0.621070 -0.234495 -1.569747
    1 13.551193 3.552916 8.874569 0.555262 -0.232985 -1.405843
    2 24.790014 -12.984453 34.626179 1.570796 -1.036148 -3.141626
    3 0.000008 48.388664 -0.000004 0.000000 0.000000 0.000000
    4 -26.854916 -13.698196 35.712706 1.570796 1.129108 -3.141640
    5 0.000008 51.240402 -0.000004 0.000000 0.000000 0.000000
    6 -0.002752 7.577091 -2.354921 0.000000 0.000000 0.000000
    7 8.606957 3.235803 6.169175 0.614901 2.501315 0.760892
    8 8.069888 0.309202 -0.384189 1.570022 -3.115591 0.115754
    9 0.029645 -8.346388 -0.119759 -0.195789 0.261479 -0.893468
    10 -0.488518 -2.755602 -0.228260 -0.285136 -0.110772 -0.076140
    11 0.039887 -1.546198 0.025948 -1.932863 -0.005501 0.042942
    12 0.028786 -1.212454 -0.132487 -1.403837 -0.014106 0.031687
    13 0.250027 -2.820665 -0.238396 -0.392731 -0.140252 -0.033120
    14 -0.049759 -1.598510 0.014539 -1.781252 -0.004866 -0.045867
    15 -0.034142 -1.171750 0.045718 -1.135810 0.006891 -0.029866
    16 0.957766 -2.746780 -0.090302 -0.401913 -0.220762 -0.007230
    17 -0.033420 -1.397129 -0.030789 -1.214983 -0.001690 -0.058234
    18 -0.022360 -0.969155 -0.012467 -1.327548 -0.005872 -0.062128
    19 -1.180681 -2.507217 -0.193859 -0.168820 0.131989 -0.088729
    20 -0.024967 -1.127840 0.017597 -1.419678 -0.006927 -0.058448
    21 -0.020057 -0.902687 0.053060 -1.700088 -0.014477 -0.065124
    22 0.630386 -1.193371 0.185379 0.720505 -1.006041 -0.620461
    23 1.449987 -0.247574 0.079230 0.073725 -0.243119 -0.906161
    24 1.061707 -0.132196 0.028385 0.026746 -0.168638 -0.682153
    25 0.120153 -0.050270 -0.054489 0.287569 3.110905 1.561085
    26 -9.825748 1.370504 6.491102 0.719632 -2.720895 -0.760897
    27 0.069599 -8.341040 -0.060148 -0.199336 -0.084666 0.511170
    28 0.447953 -2.798986 -0.200443 -0.644526 0.033180 0.187002
    29 -0.032909 -1.499736 0.040097 -1.806320 0.021524 -0.038085
    30 -0.027022 -1.127703 -0.020210 -1.241734 0.024341 -0.022567
    31 -0.249534 -2.846964 -0.174213 -0.532657 0.082892 0.106992
    32 0.043235 -1.656596 0.060855 -1.670355 -0.024154 0.011985
    33 0.031729 -1.137392 0.051025 -1.511058 -0.016688 0.008875
    34 -0.963866 -2.785145 -0.085350 -0.515749 0.249320 0.002570
    35 0.028479 -1.406973 -0.024980 -1.149446 -0.033125 -0.037080
    36 0.021413 -0.938249 0.004421 -1.366207 -0.042881 -0.037931
    37 1.164475 -2.543940 -0.170330 -0.386115 -0.158284 0.151095
    38 0.024032 -1.148574 -0.009538 -1.294914 0.023514 0.062776
    39 0.014898 -0.907427 -0.008129 -1.452208 0.027912 0.066479
    40 -0.586770 -1.264477 0.200161 -0.394791 -0.851503 -2.391248
    41 1.561899 0.035243 0.016848 -0.015812 -0.006164 0.783567
    42 1.114041 0.044518 -0.005766 -0.022666 -0.034834 0.844478
    43 -0.139399 -0.111698 0.014397 0.285382 -0.030687 1.580508
    44 -7.284275 4.577328 -0.419126 1.576490 -0.028156 -0.652533
  time 7
    0 -15.312968 3.142554 8.968253 -0.546599 -0.209294 -1.503072
    1 14.156680 4.502163 8.491745 0.498109 -0.224245 -1.480665
    2 11.438044 -13.355558 18.966967 1.570796 -1.128897 -3.141626
    3 0.000008 48.388664 -0.000004 0.000000 0.000000 0.000000
    4 -12.717766 -13.698196 19.823715 1.570796 1.211601 -3.141640
    5 0.000008 51.240402 -0.000004 0.000000 0.000000 0.000000
    6 -0.002752 9.413085 -2.354921 0.000000 0.000000 0.000000
    7 9.341354 2.630316 5.938700 0.582224 2.561330 0.684330
    8 8.077701 0.906876 -0.372470 1.569063 -3.116837 0.189057
    9 0.021832 -8.350294 -0.119759 -0.192361 0.268652 -0.856202
    10 -0.488518 -2.755602 -0.228260 -0.285136 -0.110772 -0.076140
    11 0.039887 -1.546198 0.025948 -1.932863 -0.005501 0.042942
    12 0.028786 -1.212454 -0.132487 -1.403837 -0.014106 0.031687
    13 0.250027 -2.820665 -0.238396 -0.392731 -0.140252 -0.033120
    14 -0.049759 -1.598510 0.014539 -1.781252 -0.004866 -0.045867
    15 -0.034142 -1.171750 0.045718 -1.135810 0.006891 -0.029866
    16 0.957766 -2.746780 -0.090302 -0.401913 -0.220762 -0.007230
    17 -0.033420 -1.397129 -0.030789 -1.214983 -0.001690 -0.058234
    18 -0.022360 -0.969155 -0.012467 -1.327548 -0.005872 -0.062128
    19 -1.180681 -2.507217 -0.193859 -0.168820 0.131989 -0.088729
    20 -0.024967 -1.127840 0.017597 -1.419678 -0.006927 -0.058448
    21 -0.020057 -0.902687 0.053060 -1.700088 -0.014477 -0.065124
    22 0.630386 -1.193371 0.185379 0.720505 -1.006041 -0.620461
    23 1.449987 -0.247574 0.079230 0.073725 -0.243119 -0.906161
    24 1.061707 -0.132196 0.028385 0.026746 -0.168638 -0.682153
    25 0.120153 -0.050270 -0.054489 0.287569 3.110905 1.561085
    26 -10.407797 1.108777 5.854364 0.645745 -2.762660 -0.665443
    27 0.069599 -8.344947 -0.056241 -0.196062 -0.092269 0.495690
    28 0.447953 -2.798986 -0.200443 -0.644526 0.033180 0.187002
    29 -0.032909 -1.499736 0.040097 -1.806320 0.021524 -0.038085
    30 -0.027022 -1.127703 -0.020210 -1.241734 0.024341 -0.022567
    31 -0.249534 -2.846964 -0.174213 -0.532657 0.082892 0.106992
    32 0.043235 -1.656596 0.060855 -1.670355 -0.024154 0.011985
    33 0.031729 -1.137392 0.051025 -1.511058 -0.016688 0.008875
    34 -0.963866 -2.785145 -0.085350 -0.515749 0.249320 0.002570
    35 0.028479 -1.406973 -0.024980 -1.149446 -0.033125 -0.037080
    36 0.021413 -0.938249 0.004421 -1.366207 -0.042881 -0.037931
    37 1.164475 -2.543940 -0.170330 -0.386115 -0.158284 0.151095
    38 0.024032 -1.148574 -0.009538 -1.294914 0.023514 0.062776
    39 0.014898 -0.907427 -0.008129 -1.452208 0.027912 0.066479
    40 -0.586770 -1.264477 0.200161 -0.394791 -0.851503 -2.391248
    41 1.561899 0.035243 0.016848 -0.015812 -0.006164 0.783567
    42 1.114041 0.044518 -0.005766 -0.022666 -0.034834 0.844478
    43 -0.139399 -0.111698 0.014397 0.285382 -0.030687 1.580508
    44 -7.452249 4.241381 -0.426939 1.575723 -0.029112 -0.606951
  time 8
    0 -14.773889 -7.240576 5.425176 -0.306266 -0.123927 -1.281774
    1 14.152774 -6.841933 6.222144 0.311143 -0.122491 -1.770769
    2 -1.913926 -13.726663 3.312832 1.570796 -1.221557 -3.141626
    3 0.000008 36.294545 -0.000004 0.000000 0.000000 0.000000
    4 1.419384 -13.698196 3.934724 1.570796 1.294049 -3.141640
    5 0.000008 38.431418 -0.000004 0.000000 0.000000 0.000000
    6 -0.002752 5.745004 -2.354921 0.000000 0.000000 0.000000
    7 10.513265 -3.397212 5.391808 0.363353 2.667266 0.354173
    8 5.987793 6.176568 -0.263091 1.565133 -3.131313 0.899777
    9 0.017925 -8.365920 -0.108040 -0.178877 0.331855 -0.772361
    10 -0.488518 -2.755602 -0.228260 -0.285136 -0.110772 -0.076140
    11 0.039887 -1.546198 0.025948 -1.932863 -0.005501 0.042942
    12 0.028786 -1.212454 -0.132487 -1.403837 -0.014106 0.031687
    13 0.250027 -2.820665 -0.238396 -0.392731 -0.140252 -0.033120
    14 -0.049759 -1.598510 0.014539 -1.781252 -0.004866 -0.045867
    15 -0.034142 -1.171750 0.045718 -1.135810 0.006891 -0.029866
    16 0.957766 -2.746780 -0.090302 -0.401913 -0.220762 -0.007230
    17 -0.033420 -1.397129 -0.030789 -1.214983 -0.001690 -0.058234
    18 -0.022360 -0.969155 -0.012467 -1.327548 -0.005872 -0.062128
    19 -1.180681 -2.507217 -0.193859 -0.168820 0.131989 -0.088729
    20 -0.024967 -1.127840 0.017597 -1.419678 -0.006927 -0.058448
    21 -0.020057 -0.902687 0.053060 -1.700088 -0.014477 -0.065124
    22 0.630386 -1.193371 0.185379 0.720505 -1.006041 -0.620461
    23 1.449987 -0.247574 0.079230 0.073725 -0.243119 -0.906161
    24 1.061707 -0.132196 0.028385 0.026746 -0.168638 -0.682153
    25 0.120153 -0.050270 -0.054489 0.287569 3.110905 1.561085
    26 -10.958595 -3.918720 4.323067 0.418654 -2.896364 -0.344710
    27 0.073506 -8.348853 -0.056241 -0.193803 -0.096402 0.485518
    28 0.447953 -2.798986 -0.200443 -0.644526 0.033180 0.187002
    29 -0.032909 -1.499736 0.040097 -1.806320 0.021524 -0.038085
    30 -0.027022 -1.127703 -0.020210 -1.241734 0.024341 -0.022567
    31 -0.249534 -2.846964 -0.174213 -0.532657 0.082892 0.106992
    32 0.043235 -1.656596 0.060855 -1.670355 -0.024154 0.011985
    33 0.031729 -1.137392 0.051025 -1.511058 -0.016688 0.008875
    34 -0.963866 -2.785145 -0.085350 -0.515749 0.249320 0.002570
    35 0.028479 -1.406973 -0.024980 -1.149446 -0.033125 -0.037080
    36 0.021413 -0.938249 0.004421 -1.366207 -0.042881 -0.037931
    37 1.164475 -2.543940 -0.170330 -0.386115 -0.158284 0.151095
    38 0.024032 -1.148574 -0.009538 -1.294914 0.023514 0.062776
    39 0.014898 -0.907427 -0.008129 -1.452208 0.027912 0.066479
    40 -0.586770 -1.264477 0.200161 -0.394791 -0.851503 -2.391248
    41 1.561899 0.035243 0.016848 -0.015812 -0.006164 0.783567
    42 1.114041 0.044518 -0.005766 -0.022666 -0.034834 0.844478
    43 -0.139399 -0.111698 0.014397 0.285382 -0.030687 1.580508
    44 -5.163116 7.143813 -0.348811 1.580996 -0.018406 -1.059359
  time 9
    0 -11.019869 -16.100221 -0.399220 -0.036489 0.034625 -1.096055
    1 10.281562 -16.115653 -0.043672 0.067695 0.047859 -1.995714
    2 -15.535435 -26.895034 -5.151470 -1.570796 -1.866874 -6.283151
    3 0.000008 24.196520 -0.000004 0.000000 0.000000 0.000000
    4 14.525253 -27.909567 -3.804184 1.570796 1.429535 -3.141640
    5 0.000008 25.622433 -0.000004 0.000000 0.000000 0.000000
    6 -0.002752 2.073017 -2.354921 0.000000 0.000000 0.000000
    7 7.817870 -7.936413 2.133896 0.051817 2.774641 0.093179
    8 1.097019 8.786023 -0.153713 -1.570274 0.002971 -1.546677
    9 0.014019 -8.381545 -0.104134 -0.159464 0.392653 -0.684939
    10 -0.488518 -2.755602 -0.228260 -0.285136 -0.110772 -0.076140
    11 0.039887 -1.546198 0.025948 -1.932863 -0.005501 0.042942
    12 0.028786 -1.212454 -0.132487 -1.403837 -0.014106 0.031687
    13 0.250027 -2.820665 -0.238396 -0.392731 -0.140252 -0.033120
    14 -0.049759 -1.598510 0.014539 -1.781252 -0.004866 -0.045867
    15 -0.034142 -1.171750 0.045718 -1.135810 0.006891 -0.029866
    16 0.957766 -2.746780 -0.090302 -0.401913 -0.220762 -0.007230
    17 -0.033420 -1.397129 -0.030789 -1.214983 -0.001690 -0.058234
    18 -0.022360 -0.969155 -0.012467 -1.327548 -0.005872 -0.062128
    19 -1.180681 -2.507217 -0.193859 -0.168820 0.131989 -0.088729
    20 -0.024967 -1.127840 0.017597 -1.419678 -0.006927 -0.058448
    21 -0.020057 -0.902687 0.053060 -1.700088 -0.014477 -0.065124
    22 0.630386 -1.193371 0.185379 0.720505 -1.006041 -0.620461
    23 1.449987 -0.247574 0.079230 0.073725 -0.243119 -0.906161
    24 1.061707 -0.132196 0.028385 0.026746 -0.168638 -0.682153
    25 0.120153 -0.050270 -0.054489 0.287569 3.110905 1.561085
    26 -8.657744 -8.012595 1.526107 0.128154 -3.027679 -0.105356
    27 0.073506 -8.348853 -0.056241 -0.191601 -0.102050 0.475837
    28 0.447953 -2.798986 -0.200443 -0.644526 0.033180 0.187002
    29 -0.032909 -1.499736 0.040097 -1.806320 0.021524 -0.038085
    30 -0.027022 -1.127703 -0.020210 -1.241734 0.024341 -0.022567
    31 -0.249534 -2.846964 -0.174213 -0.532657 0.082892 0.106992
    32 0.043235 -1.656596 0.060855 -1.670355 -0.024154 0.011985
    33 0.031729 -1.137392 0.051025 -1.511058 -0.016688 0.008875
    34 -0.963866 -2.785145 -0.085350 -0.515749 0.249320 0.002570
    35 0.028479 -1.406973 -0.024980 -1.149446 -0.033125 -0.037080
    36 0.021413 -0.938249 0.004421 -1.366207 -0.042881 -0.037931
    37 1.164475 -2.543940 -0.170330 -0.386115 -0.158284 0.151095
    38 0.024032 -1.148574 -0.009538 -1.294914 0.023514 0.062776
    39 0.014898 -0.907427 -0.008129 -1.452208 0.027912 0.066479
    40 -0.586770 -1.264477 0.200161 -0.394791 -0.851503 -2.391248
    41 1.561899 0.035243 0.016848 -0.015812 -0.006164 0.783567
    42 1.114041 0.044518 -0.005766 -0.022666 -0.034834 0.844478
    43 -0.139399 -0.111698 0.014397 0.285382 -0.030687 1.580508
    44 -1.772388 8.768862 -0.247246 1.581092 -0.006170 -1.520030
  time 10
    0 -10.140935 -16.643206 -1.825045 0.045342 0.057222 -1.060858
    1 9.410441 -16.545354 -1.754662 -0.032059 0.074176 -2.045564
    2 -5.781231 -26.895034 -4.532007 1.570796 -1.327772 -3.141626
    3 0.000008 12.098494 -0.000004 0.000000 0.000000 0.000000
    4 3.438977 -27.909567 -4.318153 1.570796 1.429535 -3.141640
    5 0.000008 12.813448 -0.000004 0.000000 0.000000 0.000000
    6 -0.002752 2.073017 -2.354921 0.000000 0.000000 0.000000
    7 7.286604 -8.287986 1.352622 6.251971 2.841366 0.038153
    8 0.514970 8.848525 -0.141994 -1.569220 0.004025 -1.474798
    9 0.014019 -8.381545 -0.100228 -0.154860 0.405294 -0.670245
    10 -0.488518 -2.755602 -0.228260 -0.285136 -0.110772 -0.076140
    11 0.039887 -1.546198 0.025948 -1.932863 -0.005501 0.042942
    12 0.028786 -1.212454 -0.132487 -1.403837 -0.014106 0.031687
    13 0.250027 -2.820665 -0.238396 -0.392731 -0.140252 -0.033120
    14 -0.049759 -1.598510 0.014539 -1.781252 -0.004866 -0.045867
    15 -0.034142 -1.171750 0.045718 -1.135810 0.006891 -0.029866
    16 0.957766 -2.746780 -0.090302 -0.401913 -0.220762 -0.007230
    17 -0.033420 -1.397129 -0.030789 -1.214983 -0.001690 -0.058234
    18 -0.022360 -0.969155 -0.012467 -1.327548 -0.005872 -0.062128
    19 -1.180681 -2.507217 -0.193859 -0.168820 0.131989 -0.088729
    20 -0.024967 -1.127840 0.017597 -1.419678 -0.006927 -0.058448
    21 -0.020057 -0.902687 0.053060 -1.700088 -0.014477 -0.065124
    22 0.630386 -1.193371 0.185379 0.720505 -1.006041 -0.620461
    23 1.449987 -0.247574 0.079230 0.073725 -0.243119 -0.906161
    24 1.061707 -0.132196 0.028385 0.026746 -0.168638 -0.682153
    25 0.120153 -0.050270 -0.054489 0.287569 3.110905 1.561085
    26 -8.185073 -8.477453 0.862024 0.061097 -3.085786 -0.057294
    27 0.069599 -8.348853 -0.056241 -0.187980 -0.100788 0.486452
    28 0.447953 -2.798986 -0.200443 -0.644526 0.033180 0.187002
    29 -0.032909 -1.499736 0.040097 -1.806320 0.021524 -0.038085
    30 -0.027022 -1.127703 -0.020210 -1.241734 0.024341 -0.022567
    31 -0.249534 -2.846964 -0.174213 -0.532657 0.082892 0.106992
    32 0.043235 -1.656596 0.060855 -1.670413 -0.024154 0.011985
    33 0.031729 -1.137392 0.051025 -1.511058 -0.016688 0.008875
    34 -0.963866 -2.785145 -0.085350 -0.515749 0.249320 0.002570
    35 0.028479 -1.406973 -0.024980 -1.149446 -0.033125 -0.037080
    36 0.021413 -0.938249 0.004421 -1.366207 -0.042881 -0.037931
    37 1.164475 -2.543940 -0.170330 -0.386115 -0.158284 0.151095
    38 0.024032 -1.148574 -0.009538 -1.294914 0.023514 0.062776
    39 0.014898 -0.907427 -0.008129 -1.452208 0.027912 0.066479
    40 -0.586770 -1.264477 0.200161 -0.394791 -0.851503 -2.391248
    41 1.561899 0.035243 0.016848 -0.015812 -0.006164 0.783567
    42 1.114041 0.044518 -0.005766 -0.022666 -0.034834 0.844478
    43 -0.139399 -0.111698 0.014397 0.285382 -0.030687 1.580508
    44 -1.455972 8.831364 -0.239433 1.580804 -0.005214 -1.559060
  time 11
    0 -10.066714 -16.678364 -2.196150 0.090082 0.043181 -1.063433
    1 9.328408 -16.537541 -2.313273 -0.108741 0.057360 -2.061638
    2 -5.781231 -26.895034 -4.532007 1.570796 -1.327772 -3.141626
    3 0.000008 0.000469 -0.000004 0.000000 0.000000 0.000000
    4 3.438977 -27.909567 -4.318153 1.570796 1.429535 -3.141640
    5 0.000008 0.000557 -0.000004 0.000000 0.000000 0.000000
    6 -0.002752 2.073017 -2.354921 0.000000 0.000000 0.000000
    7 7.438953 -8.280174 1.196367 6.223989 2.913748 0.014245
    8 0.925139 8.809461 -0.149807 -1.569987 0.003258 -1.525313
    9 0.014019 -8.381545 -0.100228 -0.154410 0.409230 -0.676502
    10 -0.488518 -2.755602 -0.228260 -0.285136 -0.110772 -0.076140
    11 0.039887 -1.546198 0.025948 -1.932863 -0.005501 0.042942
    12 0.028786 -1.212454 -0.132487 -1.403837 -0.014106 0.031687
    13 0.250027 -2.820665 -0.238396 -0.392731 -0.140252 -0.033120
    14 -0.049759 -1.598510 0.014539 -1.781252 -0.004866 -0.045867
    15 -0.034142 -1.171750 0.045718 -1.135810 0.006891 -0.029866
    16 0.957766 -2.746780 -0.090302 -0.401913 -0.220762 -0.007230
    17 -0.033420 -1.397129 -0.030789 -1.214983 -0.001690 -0.058234
    18 -0.022360 -0.969155 -0.012467 -1.327548 -0.005872 -0.062128
    19 -1.180681 -2.507217 -0.193859 -0.168820 0.131989 -0.088729
    20 -0.024967 -1.127840 0.017597 -1.419678 -0.006927 -0.058448
    21 -0.020057 -0.902687 0.053060 -1.700088 -0.014477 -0.065124
    22 0.630386 -1.193371 0.185379 0.720505 -1.006041 -0.620461
    23 1.449987 -0.247574 0.079230 0.073725 -0.243119 -0.906161
    24 1.061707 -0.132196 0.028385 0.026746 -0.168638 -0.682153
    25 0.120153 -0.050270 -0.054489 0.287569 3.110905 1.561085
    26 -8.286638 -8.512610 0.697957 0.046273 -3.139211 -0.036519
    27 0.069599 -8.344947 -0.056241 -0.181317 -0.093626 0.510482
    28 0.447953 -2.798986 -0.200443 -0.644526 0.033180 0.187002
    29 -0.032909 -1.499736 0.040097 -1.806320 0.021524 -0.038085
    30 -0.027022 -1.127703 -0.020210 -1.241734 0.024341 -0.022567
    31 -0.249534 -2.846964 -0.174213 -0.532657 0.082892 0.106992
    32 0.043235 -1.656596 0.060855 -1.670413 -0.024154 0.011985
    33 0.031729 -1.137392 0.051025 -1.511058 -0.016688 0.008875
    34 -0.963866 -2.785145 -0.085350 -0.515749 0.249320 0.002570
    35 0.028479 -1.406973 -0.024980 -1.149446 -0.033125 -0.037080
    36 0.021413 -0.938249 0.004421 -1.366207 -0.042881 -0.037931
    37 1.164475 -2.543940 -0.170330 -0.386115 -0.158284 0.151095
    38 0.024032 -1.148574 -0.009538 -1.294914 0.023514 0.062776
    39 0.014898 -0.907427 -0.008129 -1.452208 0.027912 0.066479
    40 -0.586770 -1.264477 0.200161 -0.394791 -0.851503 -2.391248
    41 1.561899 0.035243 0.016848 -0.015812 -0.006164 0.783567
    42 1.114041 0.044518 -0.005766 -0.022666 -0.034834 0.844478
    43 -0.139399 -0.111698 0.014397 0.285382 -0.030687 1.580508
    44 -1.799732 8.761050 -0.247246 1.581092 -0.006266 -1.516516
  time 12
    0 -10.555011 -16.416637 -2.024270 0.117519 0.007007 -1.081366
    1 9.812797 -16.307065 -2.207801 -0.168861 0.014891 -2.059724
    2 -5.781231 -26.895034 -4.532007 1.570796 -1.327772 -3.141626
    3 0.000008 0.000469 -0.000004 0.000000 0.000000 0.000000
    4 3.438977 -27.909567 -4.318153 1.570796 1.429535 -3.141640
    5 0.000008 0.000557 -0.000004 0.000000 0.000000 0.000000
    6 -0.002752 2.073017 -2.354921 0.000000 0.000000 0.000000
    7 8.048346 -8.041885 1.336997 6.232709 2.988143 0.010545
    8 1.897825 8.633675 -0.165432 1.569830 3.140131 1.494276
    9 0.014019 -8.381545 -0.100228 -0.155686 0.407349 -0.686278
    10 -0.488518 -2.755602 -0.228260 -0.285136 -0.110772 -0.076140
    11 0.039887 -1.546198 0.025948 -1.932863 -0.005501 0.042942
    12 0.028786 -1.212454 -0.132487 -1.403837 -0.014106 0.031687
    13 0.250027 -2.820665 -0.238396 -0.392731 -0.140252 -0.033120
    14 -0.049759 -1.598510 0.014539 -1.781252 -0.004866 -0.045867
    15 -0.034142 -1.171750 0.045718 -1.135810 0.006891 -0.029866
    16 0.957766 -2.746780 -0.090302 -0.401913 -0.220762 -0.007230
    17 -0.033420 -1.397129 -0.030789 -1.214983 -0.001690 -0.058234
    18 -0.022360 -0.969155 -0.012467 -1.327548 -0.005872 -0.062128
    19 -1.180681 -2.507217 -0.193859 -0.168820 0.131989 -0.088729
    20 -0.024967 -1.127840 0.017597 -1.419678 -0.006927 -0.058448
    21 -0.020057 -0.902687 0.053060 -1.700088 -0.014477 -0.065124
    22 0.630386 -1.193371 0.185379 0.720505 -1.006041 -0.620461
    23 1.449987 -0.247574 0.079230 0.073725 -0.243119 -0.906161
    24 1.061707 -0.132196 0.028385 0.026746 -0.168638 -0.682153
    25 0.120153 -0.050270 -0.054489 0.287569 3.110905 1.561085
    26 -8.774935 -8.270415 0.768271 0.061796 -3.186136 -0.034891
    27 0.065693 -8.341040 -0.056241 -0.176479 -0.089525 0.529745
    28 0.447953 -2.798986 -0.200443 -0.644526 0.033180 0.187002
    29 -0.032909 -1.499736 0.040097 -1.806320 0.021524 -0.038085
    30 -0.027022 -1.127703 -0.020210 -1.241734 0.024341 -0.022567
    31 -0.249534 -2.846964 -0.174213 -0.532657 0.082892 0.106992
    32 0.043235 -1.656596 0.060855 -1.670355 -0.024154 0.011985
    33 0.031729 -1.137392 0.051025 -1.511058 -0.016688 0.008875
    34 -0.963866 -2.785145 -0.085350 -0.515749 0.249320 0.002570
    35 0.028479 -1.406973 -0.024980 -1.149446 -0.033125 -0.037080
    36 0.021413 -0.938249 0.004421 -1.366207 -0.042881 -0.037931
    37 1.164475 -2.543940 -0.170330 -0.386115 -0.158284 0.151095
    38 0.024032 -1.148574 -0.009538 -1.294914 0.023514 0.062776
    39 0.014898 -0.907427 -0.008129 -1.452208 0.027912 0.066479
    40 -0.586770 -1.264477 0.200161 -0.394791 -0.851503 -2.391248
    41 1.561899 0.035243 0.016848 -0.015812 -0.006164 0.783567
    42 1.114041 0.044518 -0.005766 -0.022666 -0.034834 0.844478
    43 -0.139399 -0.111698 0.014397 0.285382 -0.030687 1.580508
    44 -2.510692 8.569638 -0.266778 1.581475 -0.008655 -1.427155
  time 13
    0 -11.289408 -15.986936 -1.836764 0.147250 -0.036049 -1.090618
    1 10.566727 -15.912522 -1.981231 -0.221706 -0.033848 -2.057237
    2 -5.781231 -26.895034 -4.532007 1.570796 -1.327772 -3.141626
    3 0.000008 0.000469 -0.000004 0.000000 0.000000 0.000000
    4 3.438977 -27.909567 -4.318153 1.570796 1.429535 -3.141640
    5 0.000008 0.000557 -0.000004 0.000000 0.000000 0.000000
    6 -0.002752 2.073017 -2.354921 0.000000 0.000000 0.000000
    7 8.825714 -7.631716 1.462000 6.253983 3.061292 0.019178
    8 2.999421 8.274289 -0.184964 1.568105 3.142623 1.351752
    9 0.014019 -8.381545 -0.100228 -0.156061 0.402451 -0.681982
    10 -0.488518 -2.755602 -0.228260 -0.285136 -0.110772 -0.076140
    11 0.039887 -1.546198 0.025948 -1.932863 -0.005501 0.042942
    12 0.028786 -1.212454 -0.132487 -1.403837 -0.014106 0.031687
    13 0.250027 -2.820665 -0.238396 -0.392731 -0.140252 -0.033120
    14 -0.049759 -1.598510 0.014539 -1.781252 -0.004866 -0.045867
    15 -0.034142 -1.171750 0.045718 -1.135810 0.006891 -0.029866
    16 0.957766 -2.746780 -0.090302 -0.401913 -0.220762 -0.007230
    17 -0.033420 -1.397129 -0.030789 -1.214983 -0.001690 -0.058234
    18 -0.022360 -0.969155 -0.012467 -1.327548 -0.005872 -0.062128
    19 -1.180681 -2.507217 -0.193859 -0.168820 0.131989 -0.088729
    20 -0.024967 -1.127840 0.017597 -1.419678 -0.006927 -0.058448
    21 -0.020057 -0.902687 0.053060 -1.700088 -0.014477 -0.065124
    22 0.630386 -1.193371 0.185379 0.720505 -1.006041 -0.620461
    23 1.449987 -0.247574 0.079230 0.073725 -0.243119 -0.906161
    24 1.061707 -0.132196 0.028385 0.026746 -0.168638 -0.682153
    25 0.120153 -0.050270 -0.054489 0.287569 3.110905 1.561085
    26 -9.396047 -7.848527 0.811242 0.081897 -3.226085 -0.046954
    27 0.065693 -8.344947 -0.056241 -0.178652 -0.097065 0.525715
    28 0.447953 -2.798986 -0.200443 -0.644526 0.033180 0.187002
    29 -0.032909 -1.499736 0.040097 -1.806320 0.021524 -0.038085
    30 -0.027022 -1.127703 -0.020210 -1.241734 0.024341 -0.022567
    31 -0.249534 -2.846964 -0.174213 -0.532657 0.082892 0.106992
    32 0.043235 -1.656596 0.060855 -1.670355 -0.024154 0.011985
    33 0.031729 -1.137392 0.051025 -1.511058 -0.016688 0.008875
    34 -0.963866 -2.785145 -0.085350 -0.515749 0.249320 0.002570
    35 0.028479 -1.406973 -0.024980 -1.149446 -0.033125 -0.037080
    36 0.021413 -0.938249 0.004421 -1.366207 -0.042881 -0.037931
    37 1.164475 -2.543940 -0.170330 -0.386115 -0.158284 0.151095
    38 0.024032 -1.148574 -0.009538 -1.294914 0.023514 0.062776
    39 0.014898 -0.907427 -0.008129 -1.452208 0.027912 0.066479
    40 -0.586770 -1.264477 0.200161 -0.394791 -0.851503 -2.391248
    41 1.561899 0.035243 0.016848 -0.015812 -0.006164 0.783567
    42 1.114041 0.044518 -0.005766 -0.022666 -0.034834 0.844478
    43 -0.139399 -0.111698 0.014397 0.285382 -0.030687 1.580508
    44 -3.291965 8.272754 -0.290216 1.581763 -0.011332 -1.325638
  time 14
    0 -11.914427 -15.584580 -2.149274 0.201262 -0.073339 -1.066772
    1 11.254248 -15.529698 -2.211707 -0.283071 -0.070426 -2.071493
    2 -5.781231 -26.895034 -4.532007 1.570796 -1.327772 -3.141626
    3 0.000008 0.000469 -0.000004 0.000000 0.000000 0.000000
    4 3.438977 -27.909567 -4.318153 1.570796 1.429535 -3.141640
    5 0.000008 0.000557 -0.000004 0.000000 0.000000 0.000000
    6 -0.002752 2.073017 -2.354921 0.000000 0.000000 0.000000
    7 9.474171 -7.221548 1.305746 6.257721 3.137413 0.036635
    8 3.827571 7.883652 -0.204496 1.566954 -3.138312 1.239613
    9 0.010113 -8.385452 -0.104134 -0.153184 0.397333 -0.646241
    10 -0.488518 -2.755602 -0.228260 -0.285136 -0.110772 -0.076140
    11 0.039887 -1.546198 0.025948 -1.932863 -0.005501 0.042942
    12 0.028786 -1.212454 -0.132487 -1.403837 -0.014106 0.031687
    13 0.250027 -2.820665 -0.238396 -0.392731 -0.140252 -0.033120
    14 -0.049759 -1.598510 0.014539 -1.781252 -0.004866 -0.045867
    15 -0.034142 -1.171750 0.045718 -1.135810 0.006891 -0.029866
    16 0.957766 -2.746780 -0.090302 -0.401913 -0.220762 -0.007230
    17 -0.033420 -1.397129 -0.030789 -1.214983 -0.001690 -0.058234
    18 -0.022360 -0.969155 -0.012467 -1.327548 -0.005872 -0.062128
    19 -1.180681 -2.507217 -0.193859 -0.168820 0.131989 -0.088729
    20 -0.024967 -1.127840 0.017597 -1.419678 -0.006927 -0.058448
    21 -0.020057 -0.902687 0.053060 -1.700088 -0.014477 -0.065124
    22 0.630386 -1.193371 0.185379 0.720505 -1.006041 -0.620461
    23 1.449987 -0.247574 0.079230 0.073725 -0.243119 -0.906161
    24 1.061707 -0.132196 0.028385 0.026746 -0.168638 -0.682153
    25 0.120153 -0.050270 -0.054489 0.287569 3.110905 1.561085
    26 -9.931220 -7.411014 0.608110 0.078560 -3.264218 -0.069358
    27 0.069599 -8.348853 -0.048429 -0.192151 -0.125333 0.480309
    28 0.447953 -2.798986 -0.200443 -0.644526 0.033180 0.187002
    29 -0.032909 -1.499736 0.040097 -1.806320 0.021524 -0.038085
    30 -0.027022 -1.127703 -0.020210 -1.241734 0.024341 -0.022567
    31 -0.249534 -2.846964 -0.174213 -0.532657 0.082892 0.106992
    32 0.043235 -1.656596 0.060855 -1.670355 -0.024154 0.011985
    33 0.031729 -1.137392 0.051025 -1.511058 -0.016688 0.008875
    34 -0.963866 -2.785145 -0.085350 -0.515749 0.249320 0.002570
    35 0.028479 -1.406973 -0.024980 -1.149446 -0.033125 -0.037080
    36 0.021413 -0.938249 0.004421 -1.366207 -0.042881 -0.037931
    37 1.164475 -2.543940 -0.170330 -0.386115 -0.158284 0.151095
    38 0.024032 -1.148574 -0.009538 -1.294914 0.023514 0.062776
    39 0.014898 -0.907427 -0.008129 -1.452208 0.027912 0.066479
    40 -0.586770 -1.264477 0.200161 -0.394791 -0.851503 -2.391248
    41 1.561899 0.035243 0.016848 -0.015812 -0.006164 0.783567
    42 1.114041 0.044518 -0.005766 -0.022666 -0.034834 0.844478
    43 -0.139399 -0.111698 0.014397 0.285382 -0.030687 1.580508
    44 -3.877921 7.991495 -0.305841 1.581667 -0.013435 -1.246628
  time 15
    0 -12.746484 -15.092378 -3.172743 0.300397 -0.127182 -0.966997
    1 11.914424 -15.150780 -2.914854 -0.358699 -0.104059 -2.101345
    2 -5.781231 -26.895034 -4.532007 1.570796 -1.327772 -3.141626
    3 0.000008 0.000469 -0.000004 0.000000 0.000000 0.000000
    4 3.438977 -27.909567 -4.318153 1.570796 1.429535 -3.141640
    5 0.000008 0.000557 -0.000004 0.000000 0.000000 0.000000
    6 -0.002752 2.073017 -2.354921 0.000000 0.000000 0.000000
    7 10.036688 -6.807472 0.879951 6.239801 -3.060590 0.069555
    8 4.448684 7.508640 -0.220121 1.566283 -3.136490 1.150262
    9 -0.001606 -8.389358 -0.104134 -0.146805 0.394271 -0.575133
    10 -0.488518 -2.755602 -0.228260 -0.285136 -0.110772 -0.076140
    11 0.039887 -1.546198 0.025948 -1.932863 -0.005501 0.042942
    12 0.028786 -1.212454 -0.132487 -1.403837 -0.014106 0.031687
    13 0.250027 -2.820665 -0.238396 -0.392731 -0.140252 -0.033120
    14 -0.049759 -1.598510 0.014539 -1.781252 -0.004866 -0.045867
    15 -0.034142 -1.171750 0.045718 -1.135810 0.006891 -0.029866
    16 0.957766 -2.746780 -0.090302 -0.401913 -0.220762 -0.007230
    17 -0.033420 -1.397129 -0.030789 -1.214983 -0.001690 -0.058234
    18 -0.022360 -0.969155 -0.012467 -1.327548 -0.005872 -0.062128
    19 -1.180681 -2.507217 -0.193859 -0.168820 0.131989 -0.088729
    20 -0.024967 -1.127840 0.017597 -1.419678 -0.006927 -0.058448
    21 -0.020057 -0.902687 0.053060 -1.700088 -0.014477 -0.065124
    22 0.630386 -1.193371 0.185379 0.720505 -1.006041 -0.620461
    23 1.449987 -0.247574 0.079230 0.073725 -0.243119 -0.906161
    24 1.061707 -0.132196 0.028385 0.026746 -0.168638 -0.682153
    25 0.120153 -0.050270 -0.054489 0.287569 3.110905 1.561085
    26 -10.489831 -6.832871 0.115908 0.032536 -3.281803 -0.148249
    27 0.081319 -8.376197 -0.036710 -0.229782 -0.222000 0.307824
    28 0.447953 -2.798986 -0.200443 -0.644526 0.033180 0.187002
    29 -0.032909 -1.499736 0.040097 -1.806320 0.021524 -0.038085
    30 -0.027022 -1.127703 -0.020210 -1.241734 0.024341 -0.022567
    31 -0.249534 -2.846964 -0.174213 -0.532657 0.082892 0.106992
    32 0.043235 -1.656596 0.060855 -1.670413 -0.024154 0.011985
    33 0.031729 -1.137392 0.051025 -1.511058 -0.016688 0.008875
    34 -0.963866 -2.785145 -0.085350 -0.515749 0.249320 0.002570
    35 0.028479 -1.406973 -0.024980 -1.149446 -0.033125 -0.037080
    36 0.021413 -0.938249 0.004421 -1.366207 -0.042881 -0.037931
    37 1.164475 -2.543940 -0.170330 -0.386115 -0.158284 0.151095
    38 0.024032 -1.148574 -0.009538 -1.294914 0.023514 0.062776
    39 0.014898 -0.907427 -0.008129 -1.452208 0.027912 0.066479
    40 -0.586770 -1.264477 0.200161 -0.394791 -0.851503 -2.391248
    41 1.561899 0.035243 0.016848 -0.015812 -0.006164 0.783567
    42 1.114041 0.044518 -0.005766 -0.022666 -0.034834 0.844478
    43 -0.139399 -0.111698 0.014397 0.285382 -0.030687 1.580508
    44 -4.077146 7.882117 -0.313654 1.581667 -0.014200 -1.219279
  time 16
    0 -13.766046 -14.096254 -4.559504 0.423145 -0.224917 -0.834791
    1 12.695698 -14.572638 -3.688315 -0.433467 -0.156409 -2.131676
    2 -5.781231 -26.895034 -4.532007 1.570796 -1.327772 -3.141626
    3 0.000008 0.000469 -0.000004 0.000000 0.000000 0.000000
    4 3.438977 -27.909567 -4.318153 1.570796 1.429535 -3.141640
    5 0.000008 0.000557 -0.000004 0.000000 0.000000 0.000000
    6 -0.002752 2.073017 -2.354921 0.000000 0.000000 0.000000
    7 10.626550 -6.205892 0.364311 6.220348 -2.969034 0.120692
    8 5.120579 7.008625 -0.239653 1.565612 -3.134381 1.047904
    9 -0.013325 -8.397171 -0.100228 -0.138674 0.392259 -0.482170
    10 -0.488518 -2.755602 -0.228260 -0.285136 -0.110772 -0.076140
    11 0.039887 -1.546198 0.025948 -1.932863 -0.005501 0.042942
    12 0.028786 -1.212454 -0.132487 -1.403837 -0.014106 0.031687
    13 0.250027 -2.820665 -0.238396 -0.392731 -0.140252 -0.033120
    14 -0.049759 -1.598510 0.014539 -1.781252 -0.004866 -0.045867
    15 -0.034142 -1.171750 0.045718 -1.135810 0.006891 -0.029866
    16 0.957766 -2.746780 -0.090302 -0.401913 -0.220762 -0.007230
    17 -0.033420 -1.397129 -0.030789 -1.214983 -0.001690 -0.058234
    18 -0.022360 -0.969155 -0.012467 -1.327548 -0.005872 -0.062128
    19 -1.180681 -2.507217 -0.193859 -0.168820 0.131989 -0.088729
    20 -0.024967 -1.127840 0.017597 -1.419678 -0.006927 -0.058448
    21 -0.020057 -0.902687 0.053060 -1.700088 -0.014477 -0.065124
    22 0.630386 -1.193371 0.185379 0.720505 -1.006041 -0.620461
    23 1.449987 -0.247574 0.079230 0.073725 -0.243119 -0.906161
    24 1.061707 -0.132196 0.028385 0.026746 -0.168638 -0.682153
    25 0.120153 -0.050270 -0.054489 0.287569 3.110905 1.561085
    26 -11.157820 -5.887530 -0.555988 -0.038789 -3.283428 -0.264287
    27 0.085225 -8.415261 -0.013271 -0.254841 -0.370028 0.051947
    28 0.447953 -2.798986 -0.200443 -0.644526 0.033180 0.187002
    29 -0.032909 -1.499736 0.040097 -1.806320 0.021524 -0.038085
    30 -0.027022 -1.127703 -0.020210 -1.241734 0.024341 -0.022567
    31 -0.249534 -2.846964 -0.174213 -0.532657 0.082892 0.106992
    32 0.043235 -1.656596 0.060855 -1.670355 -0.024154 0.011985
    33 0.031729 -1.137392 0.051025 -1.511058 -0.016688 0.008875
    34 -0.963866 -2.785145 -0.085350 -0.515749 0.249320 0.002570
    35 0.028479 -1.406973 -0.024980 -1.149446 -0.033125 -0.037080
    36 0.021413 -0.938249 0.004421 -1.366207 -0.042881 -0.037931
    37 1.164475 -2.543940 -0.170330 -0.386115 -0.158284 0.151095
    38 0.024032 -1.148574 -0.009538 -1.294914 0.023514 0.062776
    39 0.014898 -0.907427 -0.008129 -1.452208 0.027912 0.066479
    40 -0.586770 -1.264477 0.200161 -0.394791 -0.851503 -2.391248
    41 1.561899 0.035243 0.016848 -0.015812 -0.006164 0.783567
    42 1.114041 0.044518 -0.005766 -0.022666 -0.034834 0.844478
    43 -0.139399 -0.111698 0.014397 0.285382 -0.030687 1.580508
    44 -4.280277 7.761019 -0.321467 1.581571 -0.014965 -1.190220
  time 17
    0 -14.176215 -12.787620 -6.043924 0.542546 -0.335764 -0.763346
    1 13.437908 -13.826521 -4.465682 -0.499235 -0.226050 -2.159137
    2 -5.781231 -26.895034 -4.532007 1.570796 -1.327772 -3.141626
    3 0.000008 0.000469 -0.000004 0.000000 0.000000 0.000000
    4 3.438977 -27.909567 -4.318153 1.570796 1.429535 -3.141640
    5 0.000008 0.000557 -0.000004 0.000000 0.000000 0.000000
    6 -0.002752 2.073017 -2.354921 0.000000 0.000000 0.000000
    7 11.122659 -5.455869 -0.213832 6.200703 -2.875273 0.183877
    8 5.761224 6.418763 -0.255279 1.565229 -3.132176 0.940892
    9 -0.025045 -8.404984 -0.100228 -0.129818 0.388891 -0.376350
    10 -0.488518 -2.755602 -0.228260 -0.285136 -0.110772 -0.076140
    11 0.039887 -1.546198 0.025948 -1.932863 -0.005501 0.042942
    12 0.028786 -1.212454 -0.132487 -1.403837 -0.014106 0.031687
    13 0.250027 -2.820665 -0.238396 -0.392731 -0.140252 -0.033120
    14 -0.049759 -1.598510 0.014539 -1.781252 -0.004866 -0.045867
    15 -0.034142 -1.171750 0.045718 -1.135810 0.006891 -0.029866
    16 0.957766 -2.746780 -0.090302 -0.401913 -0.220762 -0.007230
    17 -0.033420 -1.397129 -0.030789 -1.214983 -0.001690 -0.058234
    18 -0.022360 -0.969155 -0.012467 -1.327548 -0.005872 -0.062128
    19 -1.180681 -2.507217 -0.193859 -0.168820 0.131989 -0.088729
    20 -0.024967 -1.127840 0.017597 -1.419678 -0.006927 -0.058448
    21 -0.020057 -0.902687 0.053060 -1.700088 -0.014477 -0.065124
    22 0.630386 -1.193371 0.185379 0.720505 -1.006041 -0.620461
    23 1.449987 -0.247574 0.079230 0.073725 -0.243119 -0.906161
    24 1.061707 -0.132196 0.028385 0.026746 -0.168638 -0.682153
    25 0.120153 -0.050270 -0.054489 0.287569 3.110905 1.561085
    26 -11.681273 -4.692181 -1.403670 -0.110657 -3.329111 -0.322498
    27 0.081319 -8.438699 -0.001552 -0.253219 -0.465275 -0.108744
    28 0.447953 -2.798986 -0.200443 -0.644526 0.033180 0.187002
    29 -0.032909 -1.499736 0.040097 -1.806320 0.021524 -0.038085
    30 -0.027022 -1.127703 -0.020210 -1.241734 0.024341 -0.022567
    31 -0.249534 -2.846964 -0.174213 -0.532657 0.082892 0.106992
    32 0.043235 -1.656596 0.060855 -1.670355 -0.024154 0.011985
    33 0.031729 -1.137392 0.051025 -1.511058 -0.016688 0.008875
    34 -0.963866 -2.785145 -0.085350 -0.515749 0.249320 0.002570
    35 0.028479 -1.406973 -0.024980 -1.149446 -0.033125 -0.037080
    36 0.021413 -0.938249 0.004421 -1.366207 -0.042881 -0.037931
    37 1.164475 -2.543940 -0.170330 -0.386115 -0.158284 0.151095
    38 0.024032 -1.148574 -0.009538 -1.294914 0.023514 0.062776
    39 0.014898 -0.907427 -0.008129 -1.452208 0.027912 0.066479
    40 -0.586770 -1.264477 0.200161 -0.394791 -0.851503 -2.391248
    41 1.561899 0.035243 0.016848 -0.015812 -0.006164 0.783567
    42 1.114041 0.044518 -0.005766 -0.022666 -0.034834 0.844478
    43 -0.139399 -0.111698 0.014397 0.285382 -0.030687 1.580508
    44 -5.088895 7.202408 -0.344905 1.581092 -0.018119 -1.070660
  time 18
    0 -13.574634 -11.334451 -7.415060 0.662713 -0.434801 -0.772694
    1 14.031676 -12.998371 -5.192267 -0.550165 -0.306902 -2.183152
    2 -5.781231 -26.895034 -4.532007 1.570796 -1.327772 -3.141626
    3 0.000008 0.000469 -0.000004 0.000000 0.000000 0.000000
    4 3.438977 -27.909567 -4.318153 1.570796 1.429535 -3.141640
    5 0.000008 0.000557 -0.000004 0.000000 0.000000 0.000000
    6 -0.002752 2.073017 -2.354921 0.000000 0.000000 0.000000
    7 11.439075 -4.643344 -0.815413 6.181537 -2.783621 0.252754
    8 6.315928 5.789838 -0.274810 1.565037 -3.129971 0.837678
    9 -0.036764 -8.416703 -0.104134 -0.121738 0.382112 -0.266762
    10 -0.488518 -2.755602 -0.228260 -0.285136 -0.110772 -0.076140
    11 0.039887 -1.546198 0.025948 -1.932863 -0.005501 0.042942
    12 0.028786 -1.212454 -0.132487 -1.403837 -0.014106 0.031687
    13 0.250027 -2.820665 -0.238396 -0.392731 -0.140252 -0.033120
    14 -0.049759 -1.598510 0.014539 -1.781252 -0.004866 -0.045867
    15 -0.034142 -1.171750 0.045718 -1.135810 0.006891 -0.029866
    16 0.957766 -2.746780 -0.090302 -0.401913 -0.220762 -0.007230
    17 -0.033420 -1.397129 -0.030789 -1.214983 -0.001690 -0.058234
    18 -0.022360 -0.969155 -0.012467 -1.327548 -0.005872 -0.062128
    19 -1.180681 -2.507217 -0.193859 -0.168820 0.131989 -0.088729
    20 -0.024967 -1.127840 0.017597 -1.419678 -0.006927 -0.058448
    21 -0.020057 -0.902687 0.053060 -1.700088 -0.014477 -0.065124
    22 0.630386 -1.193371 0.185379 0.720505 -1.006041 -0.620461
    23 1.449987 -0.247574 0.079230 0.073725 -0.243119 -0.906161
    24 1.061707 -0.132196 0.028385 0.026746 -0.168638 -0.682153
    25 0.120153 -0.050270 -0.054489 0.287569 3.110905 1.561085
    26 -11.876592 -3.153071 -2.501360 -0.149696 -3.464822 -0.286978
    27 0.081319 -8.434793 -0.001552 -0.269094 -0.470986 -0.088448
    28 0.447953 -2.798986 -0.200443 -0.644526 0.033180 0.187002
    29 -0.032909 -1.499736 0.040097 -1.806320 0.021524 -0.038085
    30 -0.027022 -1.127703 -0.020210 -1.241734 0.024341 -0.022567
    31 -0.249534 -2.846964 -0.174213 -0.532657 0.082892 0.106992
    32 0.043235 -1.656596 0.060855 -1.670413 -0.024154 0.011985
    33 0.031729 -1.137392 0.051025 -1.511058 -0.016688 0.008875
    34 -0.963866 -2.785145 -0.085350 -0.515749 0.249320 0.002570
    35 0.028479 -1.406973 -0.024980 -1.149446 -0.033125 -0.037080
    36 0.021413 -0.938249 0.004421 -1.366207 -0.042881 -0.037931
    37 1.164475 -2.543940 -0.170330 -0.386115 -0.158284 0.151095
    38 0.024032 -1.148574 -0.009538 -1.294914 0.023514 0.062776
    39 0.014898 -0.907427 -0.008129 -1.452208 0.027912 0.066479
    40 -0.586770 -1.264477 0.200161 -0.394791 -0.851503 -2.391248
    41 1.561899 0.035243 0.016848 -0.015812 -0.006164 0.783567
    42 1.114041 0.044518 -0.005766 -0.022666 -0.034834 0.844478
    43 -0.139399 -0.111698 0.014397 0.285382 -0.030687 1.580508
    44 -6.639724 5.604703 -0.395688 1.578599 -0.024906 -0.800013
  time 19
    0 -12.301158 -9.721120 -8.106487 0.765958 -0.542207 -0.820101
    1 14.410594 -12.205378 -5.832911 -0.584055 -0.389369 -2.205350
    2 -5.781231 -26.895034 -4.532007 1.570796 -1.327772 -3.141626
    3 0.000008 0.000469 -0.000004 0.000000 0.000000 0.000000
    4 3.438977 -27.909567 -4.318153 1.570796 1.429535 -3.141640
    5 0.000008 0.000557 -0.000004 0.000000 0.000000 0.000000
    6 -0.002752 2.073017 -2.354921 0.000000 0.000000 0.000000
    7 11.560172 -3.877696 -1.397462 6.163139 -2.697625 0.319924
    8 6.749535 5.188257 -0.290436 1.565037 -3.127958 0.746809
    9 -0.048483 -8.428422 -0.104134 -0.116259 0.370390 -0.162653
    10 -0.488518 -2.755602 -0.228260 -0.285136 -0.110772 -0.076140
    11 0.039887 -1.546198 0.025948 -1.932863 -0.005501 0.042942
    12 0.028786 -1.212454 -0.132487 -1.403837 -0.014106 0.031687
    13 0.250027 -2.820665 -0.238396 -0.392731 -0.140252 -0.033120
    14 -0.049759 -1.598510 0.014539 -1.781252 -0.004866 -0.045867
    15 -0.034142 -1.171750 0.045718 -1.135810 0.006891 -0.029866
    16 0.957766 -2.746780 -0.090302 -0.401913 -0.220762 -0.007230
    17 -0.033420 -1.397129 -0.030789 -1.214983 -0.001690 -0.058234
    18 -0.022360 -0.969155 -0.012467 -1.327548 -0.005872 -0.062128
    19 -1.180681 -2.507217 -0.193859 -0.168820 0.131989 -0.088729
    20 -0.024967 -1.127840 0.017597 -1.419678 -0.006927 -0.058448
    21 -0.020057 -0.902687 0.053060 -1.700088 -0.014477 -0.065124
    22 0.630386 -1.193371 0.185379 0.720505 -1.006041 -0.620461
    23 1.449987 -0.247574 0.079230 0.073725 -0.243119 -0.906161
    24 1.061707 -0.132196 0.028385 0.026746 -0.168638 -0.682153
    25 0.120153 -0.050270 -0.054489 0.287569 3.110905 1.561085
    26 -11.548457 -1.344422 -3.645926 -0.112054 -3.652333 -0.201576
    27 0.077412 -8.419168 -0.009365 -0.296209 -0.435304 0.014502
    28 0.447953 -2.798986 -0.200443 -0.644526 0.033180 0.187002
    29 -0.032909 -1.499736 0.040097 -1.806320 0.021524 -0.038085
    30 -0.027022 -1.127703 -0.020210 -1.241734 0.024341 -0.022567
    31 -0.249534 -2.846964 -0.174213 -0.532657 0.082892 0.106992
    32 0.043235 -1.656596 0.060855 -1.670355 -0.024154 0.011985
    33 0.031729 -1.137392 0.051025 -1.511058 -0.016688 0.008875
    34 -0.963866 -2.785145 -0.085350 -0.515749 0.249320 0.002570
    35 0.028479 -1.406973 -0.024980 -1.149446 -0.033125 -0.037080
    36 0.021413 -0.938249 0.004421 -1.366207 -0.042881 -0.037931
    37 1.164475 -2.543940 -0.170330 -0.386115 -0.158284 0.151095
    38 0.024032 -1.148574 -0.009538 -1.294914 0.023514 0.062776
    39 0.014898 -0.907427 -0.008129 -1.452208 0.027912 0.066479
    40 -0.586770 -1.264477 0.200161 -0.394791 -0.851503 -2.391248
    41 1.561899 0.035243 0.016848 -0.015812 -0.006164 0.783567
    42 1.114041 0.044518 -0.005766 -0.022666 -0.034834 0.844478
    43 -0.139399 -0.111698 0.014397 0.285382 -0.030687 1.580508
    44 -7.921013 2.987436 -0.446471 1.572655 -0.032267 -0.444372
  time 20
    0 -11.004243 -8.240606 -7.911168 0.828862 -0.653147 -0.891069
    1 14.559036 -11.580359 -6.379803 -0.603010 -0.463000 -2.229366
    2 -5.781231 -26.895034 -4.532007 1.570796 -1.327772 -3.141626
    3 0.000008 0.000469 -0.000004 0.000000 0.000000 0.000000
    4 3.438977 -27.909567 -4.318153 1.570796 1.429535 -3.141640
    5 0.000008 0.000557 -0.000004 0.000000 0.000000 0.000000
    6 -0.002752 2.073017 -2.354921 0.000000 0.000000 0.000000
    7 11.517202 -3.280021 -1.932634 6.145698 -2.620162 0.377132
    8 7.046419 4.699961 -0.302155 1.565229 -3.126520 0.676639
    9 -0.056296 -8.440141 -0.104134 -0.115258 0.352544 -0.073239
    10 -0.488518 -2.755602 -0.228260 -0.285136 -0.110772 -0.076140
    11 0.039887 -1.546198 0.025948 -1.932863 -0.005501 0.042942
    12 0.028786 -1.212454 -0.132487 -1.403837 -0.014106 0.031687
    13 0.250027 -2.820665 -0.238396 -0.392731 -0.140252 -0.033120
    14 -0.049759 -1.598510 0.014539 -1.781252 -0.004866 -0.045867
    15 -0.034142 -1.171750 0.045718 -1.135810 0.006891 -0.029866
    16 0.957766 -2.746780 -0.090302 -0.401913 -0.220762 -0.007230
    17 -0.033420 -1.397129 -0.030789 -1.214983 -0.001690 -0.058234
    18 -0.022360 -0.969155 -0.012467 -1.327548 -0.005872 -0.062128
    19 -1.180681 -2.507217 -0.193859 -0.168820 0.131989 -0.088729
    20 -0.024967 -1.127840 0.017597 -1.419678 -0.006927 -0.058448
    21 -0.020057 -0.902687 0.053060 -1.700088 -0.014477 -0.065124
    22 0.630386 -1.193371 0.185379 0.720505 -1.006041 -0.620461
    23 1.449987 -0.247574 0.079230 0.073725 -0.243119 -0.906161
    24 1.061707 -0.132196 0.028385 0.026746 -0.168638 -0.682153
    25 0.120153 -0.050270 -0.054489 0.287569 3.110905 1.561085
    26 -10.716400 0.292346 -4.536578 0.014220 -3.826368 -0.087644
    27 0.077412 -8.399636 -0.013271 -0.308695 -0.384005 0.126740
    28 0.447953 -2.798986 -0.200443 -0.644526 0.033180 0.187002
    29 -0.032909 -1.499736 0.040097 -1.806320 0.021524 -0.038085
    30 -0.027022 -1.127703 -0.020210 -1.241734 0.024341 -0.022567
    31 -0.249534 -2.846964 -0.174213 -0.532657 0.082892 0.106992
    32 0.043235 -1.656596 0.060855 -1.670355 -0.024154 0.011985
    33 0.031729 -1.137392 0.051025 -1.511058 -0.016688 0.008875
    34 -0.963866 -2.785145 -0.085350 -0.515749 0.249320 0.002570
    35 0.028479 -1.406973 -0.024980 -1.149446 -0.033125 -0.037080
    36 0.021413 -0.938249 0.004421 -1.366207 -0.042881 -0.037943
    37 1.164475 -2.543940 -0.170330 -0.386115 -0.158284 0.151095
    38 0.024032 -1.148574 -0.009538 -1.294914 0.023514 0.062776
    39 0.014898 -0.907427 -0.008129 -1.452208 0.027912 0.066479
    40 -0.586770 -1.264477 0.200161 -0.394791 -0.851503 -2.391248
    41 1.561899 0.035243 0.016848 -0.015812 -0.006164 0.783567
    42 1.114041 0.044518 -0.005766 -0.022666 -0.034834 0.844478
    43 -0.139399 -0.111698 0.014397 0.285382 -0.030687 1.580508
    44 -8.225710 0.229539 -0.477722 1.564985 -0.036951 -0.105541
  time 21
    0 -10.242501 -7.189793 -7.454123 0.868344 -0.756554 -0.976154
    1 14.484815 -11.248317 -6.852474 -0.612870 -0.517630 -2.257975
    2 -5.781231 -26.895034 -4.532007 1.570796 -1.327772 -3.141626
    3 0.000008 0.000469 -0.000004 0.000000 0.000000 0.000000
    4 3.438977 -27.909567 -4.318153 1.570796 1.429535 -3.141640
    5 0.000008 0.000557 -0.000004 0.000000 0.000000 0.000000
    6 -0.002752 2.073017 -2.354921 0.000000 0.000000 0.000000
    7 11.392198 -2.959699 -2.405305 6.129790 -2.553437 0.414892
    8 7.202674 4.406983 -0.309968 1.565324 -3.125657 0.635714
    9 -0.068015 -8.447954 -0.104134 -0.120162 0.327744 -0.007424
    10 -0.488518 -2.755602 -0.228260 -0.285136 -0.110772 -0.076140
    11 0.039887 -1.546198 0.025948 -1.932863 -0.005501 0.042942
    12 0.028786 -1.212454 -0.132487 -1.403837 -0.014106 0.031687
    13 0.250027 -2.820665 -0.238396 -0.392731 -0.140252 -0.033120
    14 -0.049759 -1.598510 0.014539 -1.781252 -0.004866 -0.045867
    15 -0.034142 -1.171750 0.045718 -1.135810 0.006891 -0.029866
    16 0.957766 -2.746780 -0.090302 -0.401913 -0.220762 -0.007230
    17 -0.033420 -1.397129 -0.030789 -1.214983 -0.001690 -0.058234
    18 -0.022360 -0.969155 -0.012467 -1.327548 -0.005872 -0.062128
    19 -1.180681 -2.507217 -0.193859 -0.168820 0.131989 -0.088729
    20 -0.024967 -1.127840 0.017597 -1.419678 -0.006927 -0.058448
    21 -0.020057 -0.902687 0.053060 -1.700088 -0.014477 -0.065124
    22 0.630386 -1.193371 0.185379 0.720505 -1.006041 -0.620461
    23 1.449987 -0.247574 0.079230 0.073725 -0.243119 -0.906161
    24 1.061707 -0.132196 0.028385 0.026746 -0.168638 -0.682153
    25 0.120153 -0.050270 -0.054489 0.287569 3.110905 1.561085
    26 -9.798403 1.386130 -5.036593 0.147945 -3.947648 -0.002818
    27 0.077412 -8.391823 -0.017178 -0.292878 -0.348386 0.182515
    28 0.447953 -2.798986 -0.200443 -0.644526 0.033180 0.187002
    29 -0.032909 -1.499736 0.040097 -1.806320 0.021524 -0.038085
    30 -0.027022 -1.127703 -0.020210 -1.241734 0.024341 -0.022567
    31 -0.249534 -2.846964 -0.174213 -0.532657 0.082892 0.106992
    32 0.043235 -1.656596 0.060855 -1.670355 -0.024154 0.011985
    33 0.031729 -1.137392 0.051025 -1.511058 -0.016688 0.008875
    34 -0.963866 -2.785145 -0.085350 -0.515749 0.249320 0.002570
    35 0.028479 -1.406973 -0.024980 -1.149446 -0.033125 -0.037080
    36 0.021413 -0.938249 0.004421 -1.366207 -0.042881 -0.037943
    37 1.164475 -2.543940 -0.170330 -0.386115 -0.158284 0.151095
    38 0.024032 -1.148574 -0.009538 -1.294914 0.023514 0.062776
    39 0.014898 -0.907427 -0.008129 -1.452208 0.027912 0.066479
    40 -0.586770 -1.264477 0.200161 -0.394791 -0.851503 -2.391248
    41 1.561899 0.035243 0.016848 -0.015812 -0.006164 0.783567
    42 1.114041 0.044518 -0.005766 -0.022666 -0.034834 0.844478
    43 -0.139399 -0.111698 0.014397 0.285382 -0.030687 1.580508
    44 -7.921013 -1.555671 -0.481628 1.559329 -0.038480 0.114871
  time 22
    0 -10.101872 -6.732748 -7.434591 0.925798 -0.848524 -1.092431
    1 13.902766 -11.674112 -7.418897 -0.627517 -0.516870 -2.313278
    2 -5.781231 -26.895034 -4.532007 1.570796 -1.327772 -3.141626
    3 0.000008 0.000469 -0.000004 0.000000 0.000000 0.000000
    4 3.438977 -27.909567 -4.318153 1.570796 1.429535 -3.141640
    5 0.000008 0.000557 -0.000004 0.000000 0.000000 0.000000
    6 -0.002752 2.073017 -2.354921 0.000000 0.000000 0.000000
    7 11.216412 -3.315178 -2.842818 6.109954 -2.503201 0.401040
    8 7.065951 4.660897 -0.302155 1.565229 -3.126328 0.671226
    9 -0.071921 -8.447954 -0.111947 -0.139075 0.277706 0.012189
    10 -0.488518 -2.755602 -0.228260 -0.285136 -0.110772 -0.076140
    11 0.039887 -1.546198 0.025948 -1.932863 -0.005501 0.042942
    12 0.028786 -1.212454 -0.132487 -1.403837 -0.014106 0.031687
    13 0.250027 -2.820665 -0.238396 -0.392731 -0.140252 -0.033120
    14 -0.049759 -1.598510 0.014539 -1.781252 -0.004866 -0.045867
    15 -0.034142 -1.171750 0.045718 -1.135810 0.006891 -0.029866
    16 0.957766 -2.746780 -0.090302 -0.401913 -0.220762 -0.007230
    17 -0.033420 -1.397129 -0.030789 -1.214983 -0.001690 -0.058234
    18 -0.022360 -0.969155 -0.012467 -1.327548 -0.005872 -0.062128
    19 -1.180681 -2.507217 -0.193859 -0.168820 0.131989 -0.088729
    20 -0.024967 -1.127840 0.017597 -1.419678 -0.006927 -0.058448
    21 -0.020057 -0.902687 0.053060 -1.700088 -0.014477 -0.065124
    22 0.630386 -1.193371 0.185379 0.720505 -1.006041 -0.620461
    23 1.449987 -0.247574 0.079230 0.073725 -0.243119 -0.906161
    24 1.061707 -0.132196 0.028385 0.026746 -0.168638 -0.682153
    25 0.120153 -0.050270 -0.054489 0.287569 3.110905 1.561085
    26 -9.126508 1.866613 -5.247537 0.179688 -4.052872 -0.018711
    27 0.081319 -8.403542 -0.017178 -0.235953 -0.335167 0.154554
    28 0.447953 -2.798986 -0.200443 -0.644526 0.033180 0.187002
    29 -0.032909 -1.499736 0.040097 -1.806320 0.021524 -0.038085
    30 -0.027022 -1.127703 -0.020210 -1.241734 0.024341 -0.022567
    31 -0.249534 -2.846964 -0.174213 -0.532657 0.082892 0.106992
    32 0.043235 -1.656596 0.060855 -1.670355 -0.024154 0.011985
    33 0.031729 -1.137392 0.051025 -1.511058 -0.016688 0.008875
    34 -0.963866 -2.785145 -0.085350 -0.515749 0.249320 0.002570
    35 0.028479 -1.406973 -0.024980 -1.149446 -0.033125 -0.037080
    36 0.021413 -0.938249 0.004421 -1.366207 -0.042881 -0.037931
    37 1.164475 -2.543940 -0.170330 -0.386115 -0.158284 0.151095
    38 0.024032 -1.148574 -0.009538 -1.294914 0.023514 0.062776
    39 0.014898 -0.907427 -0.008129 -1.452208 0.027912 0.066479
    40 -0.586770 -1.264477 0.200161 -0.394791 -0.851503 -2.391248
    41 1.561899 0.035243 0.016848 -0.015812 -0.006164 0.783567
    42 1.114041 0.044518 -0.005766 -0.022666 -0.034834 0.844478
    43 -0.139399 -0.111698 0.014397 0.285382 -0.030687 1.580508
    44 -7.803822 -1.930683 -0.481628 1.558083 -0.038671 0.162448
  time 23
    0 -10.191718 -6.650714 -7.856479 1.016042 -0.916501 -1.246671
    1 12.703511 -12.736644 -8.059542 -0.648866 -0.454734 -2.401017
    2 -5.781231 -26.895034 -4.532007 1.570796 -1.327772 -3.141626
    3 0.000008 0.000469 -0.000004 0.000000 0.000000 0.000000
    4 3.438977 -27.909567 -4.318153 1.570796 1.429535 -3.141640
    5 0.000008 0.000557 -0.000004 0.000000 0.000000 0.000000
    6 -0.002752 2.073017 -2.354921 0.000000 0.000000 0.000000
    7 10.892183 -4.280052 -3.210017 6.085518 -2.475782 0.335009
    8 6.585468 5.430452 -0.282623 1.565037 -3.128725 0.782606
    9 -0.087546 -8.440141 -0.127572 -0.168495 0.202474 -0.009604
    10 -0.488518 -2.755602 -0.228260 -0.285136 -0.110772 -0.076140
    11 0.039887 -1.546198 0.025948 -1.932863 -0.005501 0.042942
    12 0.028786 -1.212454 -0.132487 -1.403837 -0.014106 0.031687
    13 0.250027 -2.820665 -0.238396 -0.392731 -0.140252 -0.033120
    14 -0.049759 -1.598510 0.014539 -1.781252 -0.004866 -0.045867
    15 -0.034142 -1.171750 0.045718 -1.135810 0.006891 -0.029866
    16 0.957766 -2.746780 -0.090302 -0.401913 -0.220762 -0.007230
    17 -0.033420 -1.397129 -0.030789 -1.214983 -0.001690 -0.058234
    18 -0.022360 -0.969155 -0.012467 -1.327548 -0.005872 -0.062128
    19 -1.180681 -2.507217 -0.193859 -0.168820 0.131989 -0.088729
    20 -0.024967 -1.127840 0.017597 -1.419678 -0.006927 -0.058448
    21 -0.020057 -0.902687 0.053060 -1.700088 -0.014477 -0.065124
    22 0.630386 -1.193371 0.185379 0.720505 -1.006041 -0.620461
    23 1.449987 -0.247574 0.079230 0.073725 -0.243119 -0.906161
    24 1.061707 -0.132196 0.028385 0.026746 -0.168638 -0.682153
    25 0.120153 -0.050270 -0.054489 0.287569 3.110905 1.561085
    26 -8.634305 1.979898 -5.310039 0.102542 -4.161154 -0.125175
    27 0.089131 -8.423074 -0.009365 -0.150870 -0.324345 0.083004
    28 0.447953 -2.798986 -0.200443 -0.644526 0.033180 0.187002
    29 -0.032909 -1.499736 0.040097 -1.806320 0.021524 -0.038085
    30 -0.027022 -1.127703 -0.020210 -1.241734 0.024341 -0.022567
    31 -0.249534 -2.846964 -0.174213 -0.532657 0.082892 0.106992
    32 0.043235 -1.656596 0.060855 -1.670355 -0.024154 0.011985
    33 0.031729 -1.137392 0.051025 -1.511058 -0.016688 0.008875
    34 -0.963866 -2.785145 -0.085350 -0.515749 0.249320 0.002570
    35 0.028479 -1.406973 -0.024980 -1.149446 -0.033125 -0.037080
    36 0.021413 -0.938249 0.004421 -1.366207 -0.042881 -0.037943
    37 1.164475 -2.543940 -0.170330 -0.386115 -0.158284 0.151095
    38 0.024032 -1.148574 -0.009538 -1.294914 0.023514 0.062776
    39 0.014898 -0.907427 -0.008129 -1.452208 0.027912 0.066479
    40 -0.586770 -1.264477 0.200161 -0.394791 -0.851503 -2.391248
    41 1.561899 0.035243 0.016848 -0.015812 -0.006164 0.783567
    42 1.114041 0.044518 -0.005766 -0.022666 -0.034834 0.844478
    43 -0.139399 -0.111698 0.014397 0.285382 -0.030687 1.580508
    44 -7.952264 -1.442387 -0.481628 1.559713 -0.038480 0.100626
  time 24
    0 -10.219063 -6.697590 -8.461967 1.107816 -0.949607 -1.390229
    1 11.305030 -13.724955 -8.551744 -0.664949 -0.372172 -2.491435
    2 -5.781231 -26.895034 -4.532007 1.570796 -1.327772 -3.141626
    3 0.000008 0.000469 -0.000004 0.000000 0.000000 0.000000
    4 3.438977 -27.909567 -4.318153 1.570796 1.429535 -3.141640
    5 0.000008 0.000557 -0.000004 0.000000 0.000000 0.000000
    6 -0.002752 2.073017 -2.354921 0.000000 0.000000 0.000000
    7 10.392168 -5.260550 -3.420961 6.065298 -2.469359 0.257118
    8 5.948729 6.219538 -0.263091 1.565133 -3.131409 0.906994
    9 -0.095359 -8.432328 -0.139291 -0.194238 0.129517 -0.042854
    10 -0.488518 -2.755602 -0.228260 -0.285136 -0.110772 -0.076140
    11 0.039887 -1.546198 0.025948 -1.932863 -0.005501 0.042942
    12 0.028786 -1.212454 -0.132487 -1.403837 -0.014106 0.031687
    13 0.250027 -2.820665 -0.238396 -0.392731 -0.140252 -0.033120
    14 -0.049759 -1.598510 0.014539 -1.781252 -0.004866 -0.045867
    15 -0.034142 -1.171750 0.045718 -1.135810 0.006891 -0.029866
    16 0.957766 -2.746780 -0.090302 -0.401913 -0.220762 -0.007230
    17 -0.033420 -1.397129 -0.030789 -1.214983 -0.001690 -0.058234
    18 -0.022360 -0.969155 -0.012467 -1.327548 -0.005872 -0.062128
    19 -1.180681 -2.507217 -0.193859 -0.168820 0.131989 -0.088729
    20 -0.024967 -1.127840 0.017597 -1.419678 -0.006927 -0.058448
    21 -0.020057 -0.902687 0.053060 -1.700088 -0.014477 -0.065124
    22 0.630386 -1.193371 0.185379 0.720505 -1.006041 -0.620461
    23 1.449987 -0.247574 0.079230 0.073725 -0.243119 -0.906161
    24 1.061707 -0.132196 0.028385 0.026746 -0.168638 -0.682153
    25 0.120153 -0.050270 -0.054489 0.287569 3.110905 1.561085
    26 -8.278826 1.925209 -5.306133 -0.053846 -4.242294 -0.289946
    27 0.096944 -8.446512 -0.009365 -0.069872 -0.311505 0.006099
    28 0.447953 -2.798986 -0.200443 -0.644526 0.033180 0.187002
    29 -0.032909 -1.499736 0.040097 -1.806320 0.021524 -0.038085
    30 -0.027022 -1.127703 -0.020210 -1.241734 0.024341 -0.022567
    31 -0.249534 -2.846964 -0.174213 -0.532657 0.082892 0.106992
    32 0.043235 -1.656596 0.060855 -1.670355 -0.024154 0.011985
    33 0.031729 -1.137392 0.051025 -1.511058 -0.016688 0.008875
    34 -0.963866 -2.785145 -0.085350 -0.515749 0.249320 0.002570
    35 0.028479 -1.406973 -0.024980 -1.149446 -0.033125 -0.037080
    36 0.021413 -0.938249 0.004421 -1.366207 -0.042881 -0.037931
    37 1.164475 -2.543940 -0.170330 -0.386115 -0.158284 0.151095
    38 0.024032 -1.148574 -0.009538 -1.294914 0.023514 0.062776
    39 0.014898 -0.907427 -0.008129 -1.452208 0.027912 0.066479
    40 -0.586770 -1.264477 0.200161 -0.394791 -0.851503 -2.391248
    41 1.561899 0.035243 0.016848 -0.015812 -0.006164 0.783567
    42 1.114041 0.044518 -0.005766 -0.022666 -0.034834 0.844478
    43 -0.139399 -0.111698 0.014397 0.285382 -0.030687 1.580508
    44 -8.124144 -0.665019 -0.481628 1.562205 -0.037907 0.003763
  time 25
    0 -10.164374 -6.713216 -8.836978 1.162211 -0.960952 -1.473311
    1 10.426097 -14.201532 -8.809565 -0.673469 -0.321438 -2.544347
    2 -5.781231 -26.895034 -4.532007 1.570796 -1.327772 -3.141626
    3 0.000008 0.000469 -0.000004 0.000000 0.000000 0.000000
    4 3.438977 -27.909567 -4.318153 1.570796 1.429535 -3.141640
    5 0.000008 0.000557 -0.000004 0.000000 0.000000 0.000000
    6 -0.002752 2.073017 -2.354921 0.000000 0.000000 0.000000
    7 10.009344 -5.776191 -3.510808 6.053032 -2.469551 0.212623
    8 5.526842 6.649239 -0.251372 1.565324 -3.133039 0.981247
    9 -0.103172 -8.424515 -0.151010 -0.207847 0.087790 -0.061627
    10 -0.488518 -2.755602 -0.228260 -0.285136 -0.110772 -0.076140
    11 0.039887 -1.546198 0.025948 -1.932863 -0.005501 0.042942
    12 0.028786 -1.212454 -0.132487 -1.403837 -0.014106 0.031687
    13 0.250027 -2.820665 -0.238396 -0.392731 -0.140252 -0.033120
    14 -0.049759 -1.598510 0.014539 -1.781252 -0.004866 -0.045867
    15 -0.034142 -1.171750 0.045718 -1.135810 0.006891 -0.029866
    16 0.957766 -2.746780 -0.090302 -0.401913 -0.220762 -0.007230
    17 -0.033420 -1.397129 -0.030789 -1.214983 -0.001690 -0.058234
    18 -0.022360 -0.969155 -0.012467 -1.327548 -0.005872 -0.062128
    19 -1.180681 -2.507217 -0.193859 -0.168820 0.131989 -0.088729
    20 -0.024967 -1.127840 0.017597 -1.419678 -0.006927 -0.058448
    21 -0.020057 -0.902687 0.053060 -1.700088 -0.014477 -0.065124
    22 0.630386 -1.193371 0.185379 0.720505 -1.006041 -0.620461
    23 1.449987 -0.247574 0.079230 0.073725 -0.243119 -0.906161
    24 1.061707 -0.132196 0.028385 0.026746 -0.168638 -0.682153
    25 0.120153 -0.050270 -0.054489 0.287569 3.110905 1.561085
    26 -8.056163 1.886145 -5.286601 -0.174687 -4.281096 -0.411537
    27 0.096944 -8.454325 -0.009365 -0.023869 -0.301598 -0.038767
    28 0.447953 -2.798986 -0.200443 -0.644526 0.033180 0.187002
    29 -0.032909 -1.499736 0.040097 -1.806320 0.021524 -0.038085
    30 -0.027022 -1.127703 -0.020210 -1.241734 0.024341 -0.022567
    31 -0.249534 -2.846964 -0.174213 -0.532657 0.082892 0.106992
    32 0.043235 -1.656596 0.060855 -1.670355 -0.024154 0.011985
    33 0.031729 -1.137392 0.051025 -1.511058 -0.016688 0.008875
    34 -0.963866 -2.785145 -0.085350 -0.515749 0.249320 0.002570
    35 0.028479 -1.406973 -0.024980 -1.149446 -0.033125 -0.037080
    36 0.021413 -0.938249 0.004421 -1.366207 -0.042881 -0.037931
    37 1.164475 -2.543940 -0.170330 -0.386115 -0.158284 0.151095
    38 0.024032 -1.148574 -0.009538 -1.294914 0.023514 0.062776
    39 0.014898 -0.907427 -0.008129 -1.452208 0.027912 0.066479
    40 -0.586770 -1.264477 0.200161 -0.394791 -0.851503 -2.391248
    41 1.561899 0.035243 0.016848 -0.015812 -0.006164 0.783567
    42 1.114041 0.044518 -0.005766 -0.022666 -0.034834 0.844478
    43 -0.139399 -0.111698 0.014397 0.285382 -0.030687 1.580508
    44 -8.190552 -0.196255 -0.477722 1.563739 -0.037429 -0.053690
end
