version 1
nodes
  0 "Bone01" -1
  1 "Bone_Lefthand" 0
  2 "Bone_MP7A1" 1
  3 "Bone_EyeonSite_Front" 2
  4 "Bone_Rflex_Site" 2
  5 "Bone_EyeonSite_Back" 2
  6 "Bone_Magazine" 2
  7 "Bone_Trigger" 2
  8 "Bone_Hand_Grib" 2
  9 "Bone_Hand_GribLock" 8
  10 "Bone_SlidingStock" 2
  11 "Bone_ChargeHandle" 2
  12 "Bone4" 1
  13 "Bone13" 12
  14 "Bone14" 13
  15 "Bone15" 14
  16 "Bone17" 12
  17 "Bone18" 16
  18 "Bone19" 17
  19 "Bone21" 12
  20 "Bone22" 19
  21 "Bone23" 20
  22 "Bone05" 12
  23 "Bone06" 22
  24 "Bone07" 23
  25 "Bone09" 12
  26 "Bone10" 25
  27 "Bone11" 26
  28 "Bone04" -1
  29 "Bone_Righthand" 28
  30 "Bone26" 29
  31 "Bone35" 30
  32 "Bone36" 31
  33 "Bone37" 32
  34 "Bone31" 30
  35 "Bone32" 34
  36 "Bone33" 35
  37 "Bone39" 30
  38 "Bone40" 37
  39 "Bone41" 38
  40 "Bone43" 30
  41 "Bone44" 40
  42 "Bone45" 41
  43 "Bone27" 30
  44 "Bone28" 43
  45 "Bone29" 44
end
skeleton
  time 0
    0 10.587197 -1.541846 -7.596356 0.243082 -2.099433 -0.681800
    1 -0.021281 -8.563255 -0.000750 0.584747 0.661319 0.023380
    2 -0.005281 -2.772777 0.290953 -0.487113 1.355451 -0.462442
    3 0.000000 -5.680969 4.733543 1.570750 0.000000 0.000000
    4 0.000000 24.051206 -0.926984 -0.000032 0.000000 0.000000
    5 0.000000 2.240247 4.862545 -1.570796 0.000000 0.000000
    6 0.000000 -0.030802 -0.185497 0.000000 0.000000 0.000000
    7 0.000000 -1.489114 1.895752 0.087266 0.000000 0.000000
    8 0.000001 -6.270583 1.350242 1.570796 0.000000 0.000000
    9 -0.000001 0.355522 -2.253108 -1.570796 -3.141592 1.570796
    10 -0.000001 5.118230 2.564909 0.000000 0.000000 0.000000
    11 0.000001 4.784919 4.090397 -1.570796 -3.141592 -0.000001
    12 -0.003480 -0.404827 0.000000 -0.000001 0.000000 0.000000
    13 -0.519309 -2.501154 -0.278957 -0.333390 -0.016368 -0.023019
    14 -0.010598 -1.208184 -0.000001 -1.461281 -0.173311 -0.018970
    15 -0.000001 -0.763066 0.000000 -1.215486 0.000000 0.000000
    16 0.105982 -2.607132 -0.278958 -0.365419 -0.133623 0.026200
    17 0.000000 -1.250579 0.000001 -1.223467 0.000000 0.000000
    18 -0.000001 -0.932635 0.000001 -1.567302 0.000000 0.000000
    19 0.763065 -2.490555 -0.278958 -0.236142 0.006936 0.427537
    20 -0.012322 -1.280917 0.000000 0.151329 -0.100646 0.039194
    21 -0.001695 -0.738091 0.129482 -1.218877 0.010997 0.011408
    22 0.354567 0.016267 0.318133 0.332129 -0.490594 -1.265610
    23 1.887164 0.012878 0.000000 0.115100 0.249903 -0.404337
    24 1.001873 -0.000270 0.000000 0.000000 0.000000 -0.531447
    25 -1.123359 -2.195092 -0.278957 0.101144 -0.086003 -0.042849
    26 0.010771 -0.963791 0.000001 -0.991150 0.000000 0.000000
    27 -0.010412 -0.631916 0.000000 -1.243280 0.000000 0.000000
    28 -0.697956 -5.994844 -10.532032 -0.199683 0.683001 -5.624777
    29 0.089929 -8.543166 0.000003 -0.419929 -0.578133 0.361962
    30 0.000000 -0.359713 0.000000 0.000000 0.000000 0.000000
    31 -0.170478 -2.636148 -0.277655 -0.758065 -0.004691 0.044748
    32 0.010599 -1.261177 0.000002 -0.566298 0.000000 0.000000
    33 -0.000002 -0.943233 0.000000 -0.544730 0.000000 0.000000
    34 -0.827562 -2.508972 -0.277656 -0.779505 0.113114 -0.086702
    35 0.000001 -1.292972 0.000000 -0.599442 0.000000 0.000000
    36 -0.000002 -0.752466 -0.000002 -0.620186 -0.009049 0.017023
    37 0.444213 -2.561962 -0.277655 -1.010177 0.037889 0.167995
    38 0.021022 -1.208187 0.000001 -0.051134 0.000000 0.000000
    39 0.010597 -0.741867 -0.000002 -0.337239 0.000000 0.000000
    40 1.047446 -2.222822 -0.277655 -1.075696 0.105687 -0.002598
    41 0.000000 -0.996224 -0.000001 0.025429 0.000000 0.000000
    42 0.000000 -0.614691 0.000000 -0.509154 0.000000 0.000000
    43 -0.308256 -0.007814 0.307165 -0.481457 -0.447279 -2.363455
    44 1.978378 0.019544 0.000000 0.562197 -0.311122 0.626068
    45 0.980611 0.058421 -0.012628 0.022298 0.013879 0.485045
  time 1
    0 10.587197 -1.541846 -7.596356 0.243082 -2.099433 -0.681800
    1 -0.021281 -8.563255 -0.000750 0.584747 0.661319 0.023380
    2 -0.005281 -2.772777 0.290953 -0.487113 1.355451 -0.462442
    3 0.000000 -5.680969 4.733543 1.570750 0.000000 0.000000
    4 0.000000 24.051206 -0.926984 -0.000032 0.000000 0.000000
    5 0.000000 2.240247 4.862545 -1.570796 0.000000 0.000000
    6 0.000000 -0.030802 -0.185497 0.000000 0.000000 0.000000
    7 0.000000 -1.489114 1.895752 0.087266 0.000000 0.000000
    8 0.000001 -6.270583 1.350242 1.570796 0.000000 0.000000
    9 -0.000001 0.355522 -2.253108 -1.570796 -3.141592 1.570796
    10 -0.000001 5.118230 2.564909 0.000000 0.000000 0.000000
    11 0.000001 4.784919 4.090397 -1.570796 -3.141592 -0.000001
    12 -0.003480 -0.404827 0.000000 -0.000001 0.000000 0.000000
    13 -0.519309 -2.501154 -0.278957 -0.333390 -0.016368 -0.023019
    14 -0.010598 -1.208184 -0.000001 -1.461281 -0.173311 -0.018970
    15 -0.000001 -0.763066 0.000000 -1.215486 0.000000 0.000000
    16 0.105982 -2.607132 -0.278958 -0.365419 -0.133623 0.026200
    17 0.000000 -1.250579 0.000001 -1.223467 0.000000 0.000000
    18 -0.000001 -0.932635 0.000001 -1.567302 0.000000 0.000000
    19 0.763065 -2.490555 -0.278958 -0.236142 0.006936 0.427537
    20 -0.012322 -1.280917 0.000000 0.151329 -0.100646 0.039194
    21 -0.001695 -0.738091 0.129482 -1.218877 0.010997 0.011408
    22 0.354567 0.016267 0.318133 0.332129 -0.490594 -1.265610
    23 1.887164 0.012878 0.000000 0.115100 0.249903 -0.404337
    24 1.001873 -0.000270 0.000000 0.000000 0.000000 -0.531447
    25 -1.123359 -2.195092 -0.278957 0.101144 -0.086003 -0.042849
    26 0.010771 -0.963791 0.000001 -0.991150 0.000000 0.000000
    27 -0.010412 -0.631916 0.000000 -1.243280 0.000000 0.000000
    28 -0.697956 -5.994844 -10.532032 -0.199683 0.683001 -5.624777
    29 0.089929 -8.543166 0.000003 -0.419929 -0.578133 0.361962
    30 0.000000 -0.359713 0.000000 0.000000 0.000000 0.000000
    31 -0.170478 -2.636148 -0.277655 -0.758065 -0.004691 0.044748
    32 0.010599 -1.261177 0.000002 -0.566298 0.000000 0.000000
    33 -0.000002 -0.943233 0.000000 -0.544730 0.000000 0.000000
    34 -0.827562 -2.508972 -0.277656 -0.779505 0.113114 -0.086702
    35 0.000001 -1.292972 0.000000 -0.599442 0.000000 0.000000
    36 -0.000002 -0.752466 -0.000002 -0.620186 -0.009049 0.017023
    37 0.444213 -2.561962 -0.277655 -1.010177 0.037889 0.167995
    38 0.021022 -1.208187 0.000001 -0.051134 0.000000 0.000000
    39 0.010597 -0.741867 -0.000002 -0.337239 0.000000 0.000000
    40 1.047446 -2.222822 -0.277655 -1.075696 0.105687 -0.002598
    41 0.000000 -0.996224 -0.000001 0.025429 0.000000 0.000000
    42 0.000000 -0.614691 0.000000 -0.509154 0.000000 0.000000
    43 -0.308256 -0.007814 0.307165 -0.481457 -0.447279 -2.363455
    44 1.978378 0.019544 0.000000 0.562197 -0.311122 0.626068
    45 0.980611 0.058421 -0.012628 0.022298 0.013879 0.485045
end
