// Created by Crowbar 0.58

$modelname "weapons/tfa_cso/c_mastercombatknife.mdl"

$Include "csonline_gmod.qci"

$bodygroup "weapon"
{
	studio "v_mastercombatknife_nexon_CSO_combat_master_REF"
}

$CDMaterials "models\weapons\tfa_cso\mastercombatknife"

$definebone "Bone04" "" -1.665304 -2.472881 -8.587757 -16.583723 -135.604938 -135.269658 -0.000000 0.000000 0.000000 -0.000001 -0.000002 0.000001
$definebone "Bone_Righthand" "Bone04" 0.096946 -8.450418 -0.009363 -6.247478 18.863258 -16.975539 0.000000 0.000000 0.000000 -0.000003 -0.000003 -0.000002
$definebone "Pyramid01" "Bone_Righthand" 1.904301 -1.336502 0.930052 2.626437 -62.433428 90.000038 0.000000 0.000000 0.000000 0.000004 0.000002 -0.000002
$definebone "new_kal" "Pyramid01" -0.003538 -0.087752 -4.566493 -89.999983 -0.000002 0.000000 0.000000 0.000000 0.000000 -0.000004 -0.000002 -0.000002

$sequence "Nexon_CSO_idle" {
	"v_mastercombatknife_anims\Nexon_CSO_idle"
	fps 8
	activity "ACT_VM_IDLE" 1
	snap
	loop
}
$sequence "Nexon_CSO_slash1" {
	"v_mastercombatknife_anims\Nexon_CSO_slash1"
	{ event 5004 1 "Mastercombat.Slash" }
	fps 30
	activity "ACT_VM_HITLEFT" 1
	snap
}
$sequence "Nexon_CSO_slash2" {
	"v_mastercombatknife_anims\Nexon_CSO_slash2"
	fps 30
}
$sequence "Nexon_CSO_draw" {
	"v_mastercombatknife_anims\Nexon_CSO_draw"
	{ event 5004 1 "Mastercombat.Draw" }
	fps 30
	activity "ACT_VM_DRAW" 1
	snap
}
$sequence "Nexon_CSO_stab" {
	"v_mastercombatknife_anims\Nexon_CSO_stab"
	{ event 5004 1 "Mastercombat.Slash" }
	fps 30
	activity "ACT_VM_MISSRIGHT" 1
	snap
}
$sequence "Nexon_CSO_stab_miss" {
	"v_mastercombatknife_anims\Nexon_CSO_stab_miss"
	fps 30
}
$sequence "Nexon_CSO_midslash1" {
	"v_mastercombatknife_anims\Nexon_CSO_midslash1"
	fps 30
}
$sequence "Nexon_CSO_midslash2" {
	"v_mastercombatknife_anims\Nexon_CSO_midslash2"
	fps 30
}
