// Created by Crowbar 0.49.0.0

$modelname "weapons/tfa_cso/c_stunrifleb.mdl"

$Include "csonline_gmod.qci"

$bodygroup "weapon"
{
	studio "v_stunrifle01"
}
$bodygroup "weapon"
{
	studio "v_stunrifle02"
}
$bodygroup "ef"
{
	studio "v_stunrifle_ef"
}

$CDMaterials "models\weapons\tfa_cso\stunrifle\"

$attachment 0 "electricgun_root" 20.5 0 0
//$attachment 1 "electricgun_root" -0.5 2.5 0
//$attachment 2 "electricgun_root" 1.2 2.5 0
//$attachment 3 "electricgun_root" 3 2.5 0

$definebone "electricgun_root" "" 4.463674 -7.752295 -2.872774 0.000000 -89.999983 89.999983 0.000000 0.000000 0.000000 -0.000000 0.000000 0.000000
$definebone "magagine_Dummy" "electricgun_root" 2.253325 -2.891481 -0.000384 -0.000000 -89.999983 -0.000057 0.000000 0.000000 0.000000 -0.000000 -0.000000 0.000000
$definebone "magagine" "magagine_Dummy" 0.000000 0.000000 0.000000 -0.000000 -0.000000 -0.000115 0.000000 0.000000 0.000000 -0.000000 -0.000000 0.000000
$definebone "in01" "electricgun_root" -0.531210 1.569363 -0.000632 -0.000000 90.000038 -0.000172 0.000000 0.000000 0.000000 0.000000 -0.000000 0.000000
$definebone "cover_R" "electricgun_root" 1.281442 -0.624720 0.701769 -0.371735 90.003822 -0.003782 0.000000 0.000000 -0.000000 -0.000000 -0.000000 0.000000
$definebone "triger" "electricgun_root" 0.670842 -2.044817 0.000094 -0.000000 -89.999983 0.000000 0.000000 0.000000 -0.000000 -0.000000 -0.000000 0.000000
$definebone "cover_L" "electricgun_root" 1.281441 -0.624720 -0.710621 -0.371735 90.003822 -0.003782 0.000000 0.000000 0.000000 -0.000000 -0.000000 0.000000
$definebone "in02" "electricgun_root" 1.179756 1.569363 -0.000633 -0.000000 90.000038 -0.000172 0.000000 0.000000 0.000000 0.000000 -0.000000 0.000000
$definebone "in03" "electricgun_root" 2.908829 1.569364 -0.000634 -0.000000 90.000038 -0.000172 0.000000 0.000000 0.000000 0.000000 -0.000000 0.000000
$definebone "spark_root" "electricgun_root" 1.221742 1.526585 -0.197968 -0.000057 -90.000038 89.902120 0.000000 0.000000 0.000000 -0.000000 0.000000 0.000000
$definebone "spark_bone8" "spark_root" -0.683051 0.257170 1.681918 -0.242705 179.500980 -5.993310 -0.000000 -0.000000 0.000000 0.000000 0.000000 0.000000
$definebone "spark_bone7" "spark_bone8" -0.108393 0.489316 -0.301641 16.106701 15.046214 -30.422172 0.000000 0.000000 0.000000 0.000002 -0.000001 -0.000002
$definebone "spark_bone6" "spark_bone8" -1.455810 0.760003 -0.892103 4.620447 14.521845 -82.022745 0.000000 0.000000 0.000000 0.000002 0.000000 -0.000001
$definebone "spark_bone9" "spark_bone8" -0.300202 -0.228168 -0.705379 42.684154 45.881482 60.454954 0.000000 0.000000 0.000000 0.000002 -0.000003 0.000002
$definebone "spark_bone10" "spark_bone8" -0.783185 -0.372496 -1.235494 11.805854 -52.958603 -22.185100 0.000000 0.000000 0.000000 -0.000002 0.000002 -0.000001
$definebone "spark_bone13" "spark_root" 20.119053 -7.305360 2.080635 1.566123 -0.639249 34.849586 0.000000 0.000000 0.000000 -0.000000 0.000000 0.000000
$definebone "spark_bone12" "spark_bone13" 0.532988 0.587001 0.015561 21.759159 -57.350442 24.897595 0.000000 0.000000 0.000000 -0.000003 0.000003 -0.000003
$definebone "spark_bone11" "spark_bone13" 0.373613 0.828135 0.321812 27.647623 -18.767634 -56.753415 -0.000002 0.000000 0.000000 0.000004 -0.000001 0.000000
$definebone "spark_bone14" "spark_bone13" 0.200947 -0.475907 0.266841 2.272639 29.406605 0.416997 0.000000 0.000000 0.000000 0.000001 0.000002 -0.000002
$definebone "spark_bone15" "spark_bone13" 0.610170 -0.755898 -0.002488 0.000002 33.005810 -0.000002 0.000000 0.000000 0.000000 0.000002 0.000002 -0.000002
$definebone "spark_bone18" "spark_root" 31.179005 -6.157307 -0.176834 -0.602064 -27.930380 -42.225333 0.000000 -0.000001 0.000000 0.000002 -0.000003 0.000007
$definebone "spark_bone17" "spark_bone18" 0.978626 0.663825 -0.216766 -57.918359 -20.150295 -47.672433 0.000000 0.000000 -0.000000 0.000001 0.000003 -0.000003
$definebone "spark_bone16" "spark_bone18" 2.093693 0.900227 -1.348749 14.781337 -19.644089 -38.978715 -0.000002 0.000000 0.000000 -0.000000 -0.000001 0.000003
$definebone "spark_bone19" "spark_bone18" 0.199688 0.073170 -0.762090 -18.355903 1.154222 82.801865 0.000000 0.000000 0.000000 -0.000001 -0.000005 -0.000009
$definebone "spark_bone20" "spark_bone18" 0.773727 0.170065 -1.465589 -35.367820 13.263860 4.767128 0.000000 -0.000000 0.000002 -0.000001 -0.000001 0.000003
$definebone "spark_bone3" "spark_root" -0.204957 0.002390 -1.320718 -1.283712 -179.646108 34.796816 0.000000 0.000000 0.000000 -0.000000 0.000000 0.000003
$definebone "spark_bone4" "spark_bone3" -0.061852 -0.425495 0.137837 20.648767 -50.805198 0.929857 0.000000 0.000000 0.000000 -0.000000 0.000002 0.000005
$definebone "spark_bone5" "spark_bone3" -0.914616 -0.972939 0.075356 65.000001 -50.000035 0.000004 0.000000 0.000000 0.000000 -0.000005 -0.000004 0.000000
$definebone "spark_bone2" "spark_bone3" -0.348612 0.033555 -0.357500 52.249964 -22.707756 -92.010552 0.000001 0.000000 0.000000 0.000003 -0.000006 -0.000003
$definebone "spark_bone1" "spark_bone3" -0.650077 0.367615 -0.030729 -2.363165 31.794750 -99.375743 -0.000000 0.000001 0.000000 -0.000003 0.000001 -0.000002
$definebone "laserB_point" "electricgun_root" 5.631845 1.658378 -0.045050 -0.000000 0.000000 -90.000038 0.000000 0.000000 0.000000 -0.000000 0.000000 0.000000
$definebone "sflaser_laserB01_bone01" "laserB_point" -41.669029 -2.205496 -12.346519 -0.001261 0.001375 -0.000802 0.000000 0.000000 0.000000 0.000000 0.000000 -0.000000
$definebone "sflaser_laserB01_bone02" "laserB_point" -41.660767 -2.205605 -12.346609 -0.001261 0.001375 -0.000802 0.000000 -0.000000 0.000000 0.000000 0.000000 -0.000000
$definebone "sflaser_laserB01_bone03" "laserB_point" -41.677158 2.442304 -12.346551 -0.001261 0.001261 -0.000745 0.000000 0.000000 0.000001 -0.000000 0.000000 0.000000
$definebone "sflaser_laserB01_bone04" "laserB_point" -41.668900 2.442208 -12.346637 -0.001261 0.001261 -0.000745 0.000000 -0.000000 0.000001 -0.000000 0.000000 0.000000
$definebone "sflaser_laserB02_bone01" "laserB_point" 8.871284 -1.688341 0.000126 -0.001261 0.001375 -0.000802 0.000000 0.000000 0.000000 0.000000 0.000000 -0.000000
$definebone "sflaser_laseB02_bone02" "laserB_point" 8.871875 -1.688348 0.000119 -0.001261 0.001375 -0.000802 0.000000 0.000000 0.000000 0.000000 0.000000 -0.000000
$definebone "sflaser_laserB02_bone03" "laserB_point" 8.863193 1.331769 0.000112 -0.001261 0.001261 -0.000745 0.000000 -0.000000 0.000000 -0.000000 0.000000 0.000000
$definebone "sflaser_laserB02_bone04" "laserB_point" 8.863784 1.331810 0.000106 -0.001261 0.001261 -0.000745 0.000000 -0.000000 0.000000 -0.000000 0.000000 0.000000
$definebone "spark_root001" "electricgun_root" -21.238874 -21.066559 -0.197981 -0.000057 -90.000038 89.902120 0.000002 0.000000 0.000000 -0.000000 0.000000 0.000000
$definebone "spark_bone031" "spark_root001" 1.203545 -6.181170 -0.664752 -0.602064 -27.930380 -42.225333 0.000000 -0.000000 0.000000 0.000002 -0.000003 0.000007
$definebone "spark_bone032" "spark_bone031" 0.337040 0.719777 -0.205904 -57.918359 -20.150295 -47.672433 0.000000 0.000000 0.000001 0.000001 0.000003 -0.000003
$definebone "spark_bone033" "spark_bone031" 1.093132 0.987486 -1.331807 14.781337 -19.644089 -38.978715 0.000000 0.000000 0.000000 -0.000000 -0.000001 0.000003
$definebone "spark_bone034" "spark_bone031" -0.800871 0.160429 -0.745148 -18.355903 1.154222 82.801865 -0.000002 -0.000000 0.000000 -0.000001 -0.000005 -0.000009
$definebone "spark_bone035" "spark_bone031" 0.132145 0.226017 -1.454726 -35.367820 13.263860 4.767128 0.000000 -0.000001 0.000000 -0.000001 -0.000001 0.000003
$definebone "spark_bone036" "spark_root001" 0.777464 -0.022464 -1.247424 -1.283712 -179.646108 34.796816 0.000000 0.000000 0.000000 -0.000000 0.000000 0.000003
$definebone "spark_bone037" "spark_bone036" 0.578918 -0.445486 0.075489 20.648767 -50.805198 0.929857 0.000000 0.000000 -0.000000 -0.000000 0.000002 0.000005
$definebone "spark_bone038" "spark_bone036" 0.084681 -1.004115 -0.021873 65.000001 -50.000035 0.000004 0.000000 0.000000 0.000000 -0.000005 -0.000004 0.000000
$definebone "spark_bone039" "spark_bone036" 0.650684 0.002379 -0.454730 52.249964 -22.707756 -92.010552 -0.000002 0.000000 -0.000000 0.000003 -0.000006 -0.000003
$definebone "spark_bone040" "spark_bone036" -0.009308 0.347624 -0.093075 -2.363165 31.794750 -99.375743 0.000001 -0.000001 0.000000 -0.000003 0.000001 -0.000002
$definebone "electric_light01" "electricgun_root" 5.654166 1.546718 -0.030145 -0.000000 75.000006 44.999992 0.000000 0.000000 -0.000000 0.000000 0.000001 -0.000002
$definebone "electric_light002" "electricgun_root" 5.654172 -30.465214 -0.030153 -0.000000 75.000006 44.999992 0.000002 0.000000 0.000000 0.000000 0.000001 -0.000002
$definebone "electric_light003" "electricgun_root" -2.675675 1.355737 -0.030148 -0.000000 179.999911 89.902120 0.000000 0.000000 0.000000 -0.000000 0.000000 0.000000
$definebone "electric_light004" "electricgun_root" -2.675669 -30.753300 -0.030156 -0.000000 179.999911 89.902120 0.000000 0.000000 0.000000 -0.000000 0.000000 0.000000
$definebone "electric_point01" "electricgun_root" 0.932707 2.123333 0.246343 -80.000012 -90.000017 -90.000017 -0.000000 0.000000 0.000000 -0.000000 0.000000 -0.000000
$definebone "electric_bone001" "electric_point01" -0.698260 -0.088351 0.033760 -0.001261 0.001375 -0.000802 0.000000 0.000000 0.000000 0.000000 0.000000 -0.000000
$definebone "electric_bone002" "electric_point01" -0.698262 -0.088350 0.033760 -0.001261 0.001375 -0.000802 -0.000000 0.000000 0.000000 0.000000 0.000000 -0.000000
$definebone "electric_bone003" "electric_point01" -0.698261 -0.088350 0.033759 -0.001261 0.001260 -0.000745 0.000000 0.000000 0.000000 -0.000000 0.000000 0.000000
$definebone "electric_bone004" "electric_point01" -0.698260 -0.088351 0.033759 -0.001261 0.001260 -0.000745 0.000000 0.000000 0.000000 -0.000000 0.000000 0.000000
$definebone "electric_point002" "electricgun_root" 0.932706 2.123334 0.246343 -80.000012 -90.000017 -90.000017 0.000000 0.000000 0.000000 -0.000000 0.000000 -0.000000
$definebone "electric_bone005" "electric_point002" 0.000000 0.000000 0.000000 -0.001261 0.001375 -0.000802 0.000000 0.000000 0.000000 0.000000 0.000000 -0.000000
$definebone "electric_bone006" "electric_point002" 0.000000 0.000000 0.000000 -0.001261 0.001375 -0.000802 0.000000 0.000000 0.000000 0.000000 0.000000 -0.000000
$definebone "electric_bone007" "electric_point002" 0.000000 0.000000 0.000000 -0.001261 0.001260 -0.000745 0.000000 0.000000 0.000000 -0.000000 0.000000 0.000000
$definebone "electric_bone008" "electric_point002" 0.000000 0.000000 0.000000 -0.001261 0.001260 -0.000745 0.000000 0.000000 0.000000 -0.000000 0.000000 0.000000
$definebone "electric_point003" "electricgun_root" 0.932705 2.123339 0.246344 -79.999978 -89.999983 -89.999983 0.000000 0.000000 0.000000 -0.000000 0.000000 0.000000
$definebone "electric_bone009" "electric_point003" 0.000000 0.000000 0.000000 -0.001261 0.001375 -0.000802 0.000000 0.000000 0.000000 -0.000000 0.000000 -0.000000
$definebone "electric_bone010" "electric_point003" 0.000000 0.000000 0.000000 -0.001261 0.001375 -0.000802 0.000000 0.000000 0.000000 -0.000000 0.000000 -0.000000
$definebone "electric_bone011" "electric_point003" 0.000000 0.000000 0.000000 -0.001261 0.001260 -0.000745 0.000000 0.000000 0.000000 -0.000000 0.000000 -0.000000
$definebone "electric_bone012" "electric_point003" 0.000000 0.000000 0.000000 -0.001261 0.001260 -0.000745 0.000000 0.000000 0.000000 -0.000000 0.000000 -0.000000
$definebone "electric_point004" "electricgun_root" 0.932706 2.123339 0.246343 -79.999978 -89.999983 -89.999983 0.000000 0.000000 0.000000 -0.000000 0.000000 0.000000
$definebone "electric_bone013" "electric_point004" 0.000000 0.000000 0.000001 -0.001261 0.001375 -0.000802 0.000000 0.000000 0.000000 -0.000000 0.000000 -0.000000
$definebone "electric_bone014" "electric_point004" 0.000000 0.000000 0.000000 -0.001261 0.001375 -0.000802 0.000000 0.000000 0.000000 -0.000000 0.000000 -0.000000
$definebone "electric_bone015" "electric_point004" 0.000000 -0.000001 0.000000 -0.001261 0.001260 -0.000745 0.000000 0.000000 0.000000 -0.000000 0.000000 -0.000000
$definebone "electric_bone016" "electric_point004" 0.000000 -0.000001 0.000001 -0.001261 0.001260 -0.000745 0.000000 0.000000 0.000000 -0.000000 0.000000 -0.000000

$sequence "idleA" {
	"v_stunrifle_anims\idleA"
	{ event 5004 1 "Stunrifle.IdleA" }
	fps 30
	loop
}
$sequence "idleB" {
	"v_stunrifle_anims\idleB"
	{ event 5004 1 "Stunrifle.IdleB" }
	fps 30
	loop
	activity "ACT_VM_IDLE" 1
	snap
}
$sequence "idleC" {
	"v_stunrifle_anims\idleC"
	{ event 5004 1 "Stunrifle.IdleC" }
	fps 30
	loop
}
$sequence "shootA" {
	"v_stunrifle_anims\shootA"
	{ event 5001 0 "#I67 S0.065 R2 F0 P30 T999 A1 L0 O0 X0" }
	{ event 5004 1 "Stunrifle.ShootA" }
	fps 30
}
$sequence "shootB" {
	"v_stunrifle_anims\shootB"
	{ event 5001 0 "#I67 S0.065 R2 F0 P30 T999 A1 L0 O0 X0" }
	{ event 5004 1 "Stunrifle.ShootB" }
	fps 30
	activity "ACT_VM_PRIMARYATTACK" 1
	snap
}
$sequence "shootC" {
	"v_stunrifle_anims\shootC"
	{ event 5001 0 "#I67 S0.065 R2 F0 P30 T999 A1 L0 O0 X0" }
	{ event 5004 1 "Stunrifle.ShootC" }
	fps 30
}
$sequence "reloadA" {
	"v_stunrifle_anims\reloadA"
	{ event 5004 1 "Stunrifle.ReloadA" }
	fps 30
}
$sequence "reloadB" {
	"v_stunrifle_anims\reloadB"
	{ event 5004 1 "Stunrifle.ReloadB" }
	fps 30
	activity "ACT_VM_RELOAD" 1
	snap
}
$sequence "reloadC" {
	"v_stunrifle_anims\reloadC"
	{ event 5004 1 "Stunrifle.ReloadC" }
	fps 30
}
$sequence "drawA" {
	"v_stunrifle_anims\drawA"
	{ event 5004 1 "Stunrifle.DrawA" }
	fps 30
}
$sequence "drawB" {
	"v_stunrifle_anims\drawB"
	{ event 5004 1 "Stunrifle.DrawB" }
	fps 30
	activity "ACT_VM_DRAW" 1
	snap
}
$sequence "drawC" {
	"v_stunrifle_anims\drawC"
	{ event 5004 1 "Stunrifle.DrawC" }
	fps 30
}
