// Created by Crowbar 0.58

$modelname "weapons/tfa_cso/c_m134.mdl"

$bodygroup "hands"
{
	studio "v_m134_NEXON_hand_High_512"
}

$bodygroup "weapon"
{
	studio "v_m134_NEXON_CSO_M134_REF"
}

$CDMaterials "models\weapons\tfa_cso\m134\"

$attachment 0 "Bone_Handle_Front" 0 -18.186001 -4.662
//$attachment 1 "Bone_Handle_Front" -5.085 8.638 -5.55
//$attachment 2 "Bone_Handle_Front" -1.22 10.257 -8.935
//$attachment 3 "Bone_Handle_Front" 0 -35.186001 -4.662

$definebone "Bone01" "" 9.441009 7.368491 -6.482952 -60.647518 -172.952399 161.126705 0.000000 0.000000 -0.000000 0.000002 0.000001 -0.000002
$definebone "Bone_Lefthand" "Bone01" -0.071918 -8.498734 -0.104134 16.477753 0.853592 -1.435032 0.000000 0.000000 0.000000 0.000003 0.000001 -0.000001
$definebone "Bone_M134" "Bone_Lefthand" 5.503458 -7.180856 1.309811 72.875230 138.543641 157.805403 -0.000000 0.000000 0.000000 0.000000 0.000001 0.000002
$definebone "Bone_Handle_Front" "Bone_M134" -0.000001 -12.629974 7.375443 -0.000000 0.000003 -26.799931 0.000000 0.000000 0.000000 0.000000 0.000001 -0.000002
$definebone "Bone_Barrel" "Bone_Handle_Front" 0.000000 -6.940910 -4.748857 -0.000001 0.000002 -0.000004 -0.000000 0.000000 0.000000 0.000000 0.000001 -0.000002
$definebone "Bone_Swich" "Bone_Handle_Front" -0.000002 14.232135 1.630650 -0.000001 0.000002 -53.112737 0.000000 0.000000 0.000000 -0.000001 0.000000 -0.000003
$definebone "Bone_Magazine_Pin" "Bone_Handle_Front" -3.961861 10.013000 -7.304514 -0.000001 0.000059 90.000038 0.000000 0.000000 0.000000 0.000001 -0.000000 0.000002
$definebone "Bone_Magazine_Ring" "Bone_Magazine_Pin" -0.001366 0.001476 3.589090 0.000002 0.000001 0.000004 0.000000 0.000000 0.000000 0.000001 -0.000000 0.000002
$definebone "Bone_Bullet00" "Bone_M134" -3.772527 -8.158152 -1.854877 -39.887766 155.028152 -144.012300 -0.000000 0.000000 0.000000 0.000003 -0.000004 0.000000
$definebone "Bone_Bullet01" "Bone_Bullet00" 0.062479 0.000002 1.425782 -20.323903 -0.000007 0.000005 0.000000 0.000000 0.000000 0.000003 -0.000003 0.000002
$definebone "Bone_Bullet02" "Bone_Bullet01" -0.026257 -0.000001 1.400207 -10.696554 -0.000005 0.000008 -0.000000 0.000000 0.000001 0.000004 -0.000003 0.000002
$definebone "Bone_Bullet03" "Bone_Bullet02" -0.023174 0.000002 1.707047 -0.000003 -0.000005 0.000009 -0.000000 0.000000 0.000000 0.000004 -0.000003 0.000002
$definebone "Bone_Bullet04" "Bone_Bullet03" -0.043764 0.000001 1.936483 -6.753397 -0.000004 0.000009 0.000000 0.000000 0.000000 0.000003 -0.000003 0.000003
$definebone "Bone_Bullet05" "Bone_Bullet04" -0.159953 0.000001 2.091294 -4.647091 -0.000002 0.000010 0.000000 0.000000 0.000000 0.000003 -0.000002 0.000003
$definebone "Bone_R_Upper" "" -0.511378 -1.170994 0.000000 -85.554343 82.507525 89.999928 0.000000 0.000000 0.000000 -0.000000 0.000000 0.000001
$definebone "Bone04" "Bone_R_Upper" -0.085749 -0.255579 -8.907137 7.718430 -84.974569 90.363527 0.000000 0.000000 0.000000 -0.000000 -0.000001 -0.000000
$definebone "Bone_Righthand" "Bone04" 0.096946 -8.450421 -0.009364 -17.068757 -0.267171 -1.888755 0.000000 0.000002 0.000000 -0.000001 -0.000001 0.000001
$definebone "Bone27" "Bone_Righthand" -0.591284 -1.257740 0.232708 -24.472399 -160.578241 1.001530 0.000000 -0.000002 0.000000 0.000006 -0.000003 0.000000
$definebone "Bone28" "Bone27" 1.522835 0.058680 0.016851 0.514808 -2.686087 0.080843 -0.000000 0.000000 -0.000000 0.000005 -0.000004 -0.000001
$definebone "Bone29" "Bone28" 1.117948 0.048424 -0.005765 -1.443677 3.748399 -0.013923 -0.000001 0.000000 0.000000 0.000005 -0.000003 -0.000002
$definebone "Bone31" "Bone_Righthand" -0.963867 -2.785141 -0.085346 9.297728 -10.975348 -0.987034 0.000000 0.000000 0.000000 -0.000001 0.000001 0.000001
$definebone "Bone32" "Bone31" 0.028478 -1.403069 0.006271 -0.000001 0.000001 0.798704 0.000000 0.000000 0.000000 -0.000001 0.000000 0.000001
$definebone "Bone33" "Bone32" 0.021414 -0.957783 0.020047 -0.000001 0.000000 0.220647 0.000000 0.000000 0.000000 -0.000001 -0.000001 0.000001
$definebone "Bone35" "Bone_Righthand" -0.249534 -2.846962 -0.174215 -0.007163 -0.481056 2.400808 0.000000 0.000000 0.000000 -0.000001 -0.000001 0.000000
$definebone "Bone36" "Bone35" 0.043234 -1.683941 0.096014 0.161746 -0.009569 1.131993 0.000000 0.000002 0.000000 -0.000000 -0.000001 -0.000000
$definebone "Bone37" "Bone36" 0.031729 -1.160830 0.058836 0.036785 0.479680 -2.302202 0.000000 0.000000 -0.000000 -0.000002 -0.000000 0.000000
$definebone "Bone39" "Bone_Righthand" 0.447952 -2.798983 -0.200441 -0.595703 15.188708 6.099423 0.000000 0.000000 0.000000 0.000002 -0.000002 0.000000
$definebone "Bone40" "Bone39" -0.032910 -1.480206 0.004936 0.000002 0.000113 -3.174358 0.000000 0.000000 0.000000 0.000000 -0.000001 0.000000
$definebone "Bone41" "Bone40" -0.027021 -1.076920 -0.020212 0.000000 -0.000001 0.119921 0.000000 0.000000 0.000000 0.000002 -0.000001 0.000000
$definebone "Bone43" "Bone_Righthand" 1.164475 -2.543938 -0.170327 -0.761691 27.382454 4.755722 0.000000 0.000000 0.000000 0.000001 0.000002 -0.000001
$definebone "Bone44" "Bone43" 0.024033 -1.129040 0.017806 0.000001 0.000002 -1.035565 0.000000 0.000000 0.000000 0.000001 0.000002 0.000000
$definebone "Bone45" "Bone44" 0.014896 -0.883989 -0.019845 0.000001 0.000002 -3.483640 0.000000 0.000000 0.000000 0.000001 0.000000 0.000001
$definebone "Bone_Se_Hand-R" "Bone_Righthand" -0.139399 -0.111698 0.014397 -2.326037 90.311098 16.359891 0.000000 0.000000 0.000000 -0.000000 0.000001 -0.000005
$definebone "Bone05" "Bone_Lefthand" 0.583508 -1.197273 0.185380 -23.203183 -20.872288 -0.944577 0.000000 0.000000 0.000000 0.000005 -0.000008 0.000001
$definebone "Bone06" "Bone05" 1.535924 0.010247 0.005009 -0.743637 0.050816 -0.169767 0.000000 0.000000 0.000000 0.000007 -0.000006 -0.000000
$definebone "Bone07" "Bone06" 1.100770 0.004527 -0.010675 0.915190 0.198123 -0.160142 0.000000 0.000000 0.000000 0.000005 -0.000005 0.000001
$definebone "Bone21" "Bone_Lefthand" 0.957766 -2.746778 -0.090301 -9.297788 10.975465 -0.986687 0.000000 0.000000 0.000000 0.000005 0.000001 0.000004
$definebone "Bone22" "Bone21" -0.033420 -1.397130 -0.011256 0.000005 -0.000056 0.798192 0.000000 0.000000 -0.000000 0.000003 0.000001 0.000003
$definebone "Bone23" "Bone22" -0.022362 -0.957434 0.018782 0.000003 0.000001 0.220306 0.000000 0.000000 0.000000 0.000003 0.000002 0.000003
$definebone "Bone17" "Bone_Lefthand" 0.250028 -2.820664 -0.238397 -0.167360 0.483688 2.396511 0.000000 0.000000 0.000000 0.000005 -0.000003 -0.000002
$definebone "Bone18" "Bone17" -0.049759 -1.680546 0.100479 0.000006 -0.000118 1.135944 0.000000 0.000000 0.000000 0.000006 -0.000004 -0.000003
$definebone "Bone19" "Bone18" -0.034142 -1.148309 0.084778 0.000006 -0.000004 -2.298422 0.000000 0.000000 -0.000000 0.000007 -0.000003 -0.000001
$definebone "Bone13" "Bone_Lefthand" -0.488518 -2.755600 -0.228261 0.591981 -15.154223 6.099425 0.000000 0.000000 -0.000000 0.000005 -0.000011 -0.000002
$definebone "Bone14" "Bone13" 0.039889 -1.479791 0.029852 0.000005 0.000047 -3.173902 0.000000 0.000000 0.000000 0.000005 -0.000011 -0.000001
$definebone "Bone15" "Bone14" 0.028787 -1.075733 -0.023111 0.000005 -0.000011 0.120263 0.000000 0.000001 0.000000 0.000006 -0.000011 -0.000000
$definebone "Bone09" "Bone_Lefthand" -1.180679 -2.507215 -0.193861 0.761693 -27.382575 4.755551 0.000000 0.000000 0.000000 0.000005 -0.000008 -0.000004
$definebone "Bone10" "Bone09" -0.024966 -1.123935 0.017594 0.000005 0.000048 -1.034996 0.000000 -0.000001 -0.000000 0.000005 -0.000007 -0.000004
$definebone "Bone11" "Bone10" -0.020058 -0.890967 0.010091 0.000005 -0.000007 -3.483414 0.000000 0.000000 0.000000 0.000007 -0.000007 -0.000003
$definebone "Bone_Se_Hand-L" "Bone_Lefthand" 0.120152 -0.050267 -0.054487 1.758278 -90.556418 -163.523514 -0.000000 0.000000 0.000000 -0.000003 -0.000002 -0.000005

$sequence "idle" {
	"v_m134_anims\idle"
	fps 30
	loop
	activity "ACT_VM_IDLE" 1
	snap
}
$sequence "draw" {
	"v_m134_anims\draw"
	fps 30
	activity "ACT_VM_DRAW" 1
	snap
}
$sequence "reload" {
	"v_m134_anims\reload"
	{ event 5007 32 "M134.PinPull" }
	{ event 5007 54 "M134.ClipOff" }
	{ event 5007 94 "M134.ClipOn" }
	fps 30
	activity "ACT_VM_RELOAD" 1
	snap
}
$sequence "fire_ready" {
	"v_m134_anims\fire_ready"
	{ event 5007 1 "M134.Spinup" }
	fps 30
}
$sequence "shoot" {
	"v_m134_anims\shoot"
	{ event 5001 0 "136" }
	{ event 5001 3 "136" }
	{ event 5001 6 "136" }
	{ event 5001 9 "136" }
	{ event 5001 12 "136" }
	{ event 5001 15 "136" }
	{ event 5001 18 "136" }
	{ event 5001 21 "136" }
	{ event 5001 24 "136" }
	{ event 5001 27 "136" }
	{ event 5001 30 "136" }
	{ event 5031 0 "127" }
	{ event 5031 3 "127" }
	{ event 5031 6 "127" }
	{ event 5031 9 "127" }
	{ event 5031 12 "127" }
	{ event 5031 15 "127" }
	{ event 5031 18 "127" }
	{ event 5031 21 "127" }
	{ event 5031 24 "127" }
	{ event 5031 27 "127" }
	{ event 5031 30 "127" }
	fps 30
}
$sequence "fire_after" {
	"v_m134_anims\fire_after"
	fps 30
}
$sequence "fire_change" {
	"v_m134_anims\fire_change"
	{ event 5007 1 "M134.Spinup" }
	fps 30
}
$sequence "idle_change" {
	"v_m134_anims\idle_change"
	{ event 5001 0 "#I77 S0.06 R2 F0 P30 T0.1 A1 L0 O0 X0" }
	{ event 5007 1 "M134.Spindown" }
	fps 30
	activity "ACT_VM_PRIMARYATTACK" 1
	snap
}
