// Created by Crowbar 0.49.0.0

$modelname "weapons/tfa_cso/c_cyclone.mdl"

$Include "csonline_gmod.qci"

$bodygroup "weapon"
{
	studio "v_sfpistol_v_ref"
}

$CDMaterials "models\weapons\tfa_cso\cyclone"

$attachment 0 "sfpistol_front_root" 4 0 0

$definebone "root" "" -0.210473 8.571821 -5.575703 0.000000 0.000000 0.000000 0.000000 0.000000 0.000000 -0.000000 0.000000 0.000000
$definebone "Bone01" "root" 9.520576 0.109563 -0.077451 -0.012834 -89.771431 179.846260 0.000000 0.000000 0.000000 0.000000 0.000000 -0.000000
$definebone "Bone_Lefthand" "Bone01" -0.071918 -8.498732 -0.104136 16.477753 0.853593 -1.435030 0.000000 0.000000 0.000000 0.000002 0.000000 -0.000000
$definebone "sfpistol_root" "Bone_Lefthand" 11.003512 17.728279 -0.556582 -56.571620 -177.888440 86.804657 0.000000 0.000000 -0.000000 -0.000000 -0.000002 -0.000000
$definebone "sfpistol_front_root" "sfpistol_root" -2.138677 2.346084 -0.000001 0.000000 106.910842 0.000000 0.000000 0.000000 0.000000 0.000000 0.000009 0.000000
$definebone "sfpistol_magazine02" "sfpistol_root" -1.487204 -0.072218 -0.000000 -0.000000 -73.089186 -0.000000 0.000000 0.000000 0.000000 -0.000000 0.000009 -0.000000
$definebone "sfpistol_bettery" "sfpistol_magazine02" 1.379861 0.013026 0.000000 -0.000000 0.000009 -0.000000 0.000000 0.000000 0.000000 -0.000000 0.000009 -0.000000
$definebone "sfpistol_sub_A_Bone02" "sfpistol_bettery" 1.091372 -0.009931 0.000000 -0.000000 0.000009 -0.000000 0.000000 0.000000 -0.000000 -0.000000 0.000009 -0.000000
$definebone "sfpistol_sub_A_Bone52" "sfpistol_sub_A_Bone02" -0.000004 -0.012830 -0.746234 89.999983 -0.000009 0.000000 0.000000 0.000000 0.000000 0.000000 0.000000 0.000009
$definebone "sfpistol_sub_A_Bone50" "sfpistol_sub_A_Bone02" -0.000002 -0.012831 0.743942 -89.999983 -0.000009 0.000000 0.000000 0.000000 0.000000 0.000000 -0.000000 -0.000009
$definebone "sfpistol_sub_A_Bone46" "sfpistol_sub_A_Bone02" -0.000000 -0.758639 0.000000 0.007105 -90.007148 0.000058 0.000000 0.000000 0.000000 -0.000000 -0.000009 0.000000
$definebone "sfpistol_sub_A_Bone48" "sfpistol_sub_A_Bone02" 0.000000 0.740977 -0.000000 -0.006761 89.993208 0.000057 0.000000 0.000000 -0.000000 0.000000 -0.000009 -0.000000
$definebone "sfpistol_sub_B_Bone53" "sfpistol_bettery" 1.091372 -0.009931 0.000000 -0.000000 0.000009 -44.999992 0.000000 0.000000 -0.000000 -0.000006 0.000006 0.000000
$definebone "sfpistol_sub_B_Bone56" "sfpistol_sub_B_Bone53" -0.000003 -0.045880 -0.766449 89.999990 -0.000006 0.000000 0.000000 0.000000 0.000000 0.000006 0.000000 0.000006
$definebone "sfpistol_sub_B_Bone57" "sfpistol_sub_B_Bone53" -0.000000 -0.739634 -0.045883 -0.000000 -90.010133 0.000006 0.000000 0.000000 0.000000 -0.000000 -0.000006 0.000006
$definebone "sfpistol_sub_B_Bone54" "sfpistol_sub_B_Bone53" -0.000002 -0.045882 0.672390 -89.999976 -0.000006 0.000000 0.000000 0.000000 0.000000 0.000006 0.000000 -0.000006
$definebone "sfpistol_sub_B_Bone55" "sfpistol_sub_B_Bone53" 0.000000 0.759983 -0.045883 -0.000000 89.990421 0.000051 0.000000 0.000000 0.000000 -0.000000 -0.000006 -0.000006
$definebone "sfpistol_magazine01" "sfpistol_root" -1.572389 0.220680 -0.000000 -0.000000 -73.455878 -0.000000 0.000000 0.000000 0.000000 -0.000000 0.000008 -0.000000
$definebone "sfpistol_magazine_pin01" "sfpistol_magazine01" 1.033914 -0.654510 0.906782 -56.310003 -89.633304 90.000038 0.000000 0.000000 0.000000 -0.000004 -0.000002 -0.000007
$definebone "sfpistol_magazine_pin03" "sfpistol_magazine01" 1.033878 -0.648745 -0.899195 56.309948 -89.633304 90.000038 0.000000 0.000000 0.000000 -0.000005 0.000002 0.000007
$definebone "sfpistol_magazine_pin02" "sfpistol_magazine01" 1.026212 0.549078 0.904648 -56.309928 90.366703 -90.000024 0.000000 0.000000 0.000000 0.000005 0.000002 -0.000007
$definebone "sfpistol_sub_B_Bone58" "sfpistol_magazine01" 2.975691 -0.034192 0.952198 45.224937 0.366702 89.999983 0.000000 0.000000 0.000000 0.000006 -0.000005 -0.000006
$definebone "sfpistol_sub_B_Bone60" "sfpistol_magazine01" 2.967588 0.637782 -0.668710 -36.199136 -42.194679 118.472897 0.000000 0.000000 0.000000 0.000001 0.000005 0.000003
$definebone "sfpistol_sub_B_Bone61" "sfpistol_magazine01" 2.965818 0.637771 0.666587 36.499022 -42.398082 61.183879 0.000000 0.000000 -0.000000 -0.000003 -0.000007 -0.000003
$definebone "sfpistol_sub_A_Bone64" "sfpistol_magazine01" 2.983432 -0.034143 -0.952297 -44.817113 0.366702 89.999983 -0.000000 0.000000 0.000000 0.000006 0.000003 0.000006
$definebone "sfpistol_sub_A_Bone65" "sfpistol_magazine01" 2.983686 -0.034141 0.952198 45.224937 0.366702 89.999983 0.000000 0.000000 0.000000 0.000006 -0.000005 -0.000006
$definebone "sfpistol_sub_A_Bone66" "sfpistol_magazine01" 2.975584 0.637833 -0.668710 -36.199136 -42.194679 118.472897 0.000000 0.000000 0.000000 0.000001 0.000005 0.000003
$definebone "sfpistol_sub_A_Bone67" "sfpistol_magazine01" 2.973814 0.637822 0.666587 36.499022 -42.398082 61.183879 0.000000 0.000000 0.000000 -0.000003 -0.000007 -0.000003
$definebone "sfpistol_sub_B_Bone20" "sfpistol_magazine01" 2.975436 -0.034194 -0.952297 -44.817113 0.366702 89.999983 -0.000000 0.000000 0.000000 0.000006 0.000003 0.000006
$definebone "sfpistol_sub_A_Bone68" "sfpistol_magazine01" 3.169655 0.883134 0.000000 -0.000000 0.366702 -0.000000 0.000000 0.000000 -0.000000 -0.000000 0.000009 -0.000000
$definebone "sfpistol_sub_A_Bone69" "sfpistol_sub_A_Bone68" 0.005513 0.071422 0.607692 -89.999983 90.000045 0.000000 0.000000 0.000000 0.000000 -0.000000 -0.000000 0.000009
$definebone "sfpistol_sub_B_Bone03" "sfpistol_magazine01" 3.169649 0.884172 0.000000 -0.000000 0.366702 -0.000000 0.000000 0.000000 0.000000 -0.000000 0.000009 -0.000000
$definebone "sfpistol_sub_B_Bone12(mirrored)" "sfpistol_sub_B_Bone03" 0.005513 0.071422 -0.604464 89.999983 -89.999976 0.000000 0.000000 0.000000 0.000000 0.000000 -0.000000 -0.000009
$definebone "sfpistol_sub_B_Bone12" "sfpistol_sub_B_Bone03" 0.005513 0.071422 0.607692 -89.999983 90.000045 0.000000 0.000000 0.000000 0.000000 -0.000000 -0.000000 0.000009
$definebone "sfpistol_trigger" "sfpistol_root" -0.328745 0.930025 -0.000000 0.000000 16.910845 -0.000000 0.000000 0.000000 0.000000 0.000000 -0.000007 -0.000000
$definebone "sfpistol_device_top" "sfpistol_root" -3.179014 1.492042 -0.000001 -0.000000 -163.089169 0.000058 0.000000 0.000000 -0.000000 -0.000000 -0.000009 0.000000
$definebone "sfpistol_device_side" "sfpistol_root" -1.913327 1.338252 0.551623 -89.999983 16.909943 0.000000 0.000000 0.000000 0.000000 -0.000000 -0.000000 0.000007
$definebone "sfpistol_magazine_pin04" "sfpistol_magazine01" 1.026259 0.541615 -0.895047 56.309948 90.366669 -89.999983 0.000000 0.000000 0.000000 0.000004 -0.000002 0.000007
$definebone "sfpistol_front_device01" "sfpistol_front_root" 1.818063 0.466135 0.003944 0.000057 89.999976 90.000038 0.000000 0.000000 0.000000 -0.000009 0.000000 -0.000000
$definebone "sfpistol_front_device04" "sfpistol_front_device01" 0.135498 0.000001 1.482925 -0.000009 0.000000 -0.000000 0.000000 0.000000 0.000000 -0.000009 0.000000 -0.000000
$definebone "sfpistol_front_device07" "sfpistol_front_device04" 0.891296 -0.000000 0.321762 -0.000009 0.000000 -0.000000 0.000000 0.000000 0.000000 -0.000009 0.000000 -0.000000
$definebone "sfpistol_front_device02" "sfpistol_front_root" 1.818064 -0.578425 0.580762 -55.116420 -90.000045 -89.999928 0.000000 0.000000 0.000000 0.000005 0.000000 -0.000007
$definebone "sfpistol_front_device05" "sfpistol_front_device02" 0.135499 -0.000000 1.482925 0.000005 0.000000 -0.000007 -0.000000 0.000000 0.000000 0.000005 0.000000 -0.000007
$definebone "sfpistol_front_device08" "sfpistol_front_device05" 0.891296 0.000000 0.321763 0.000005 0.000000 -0.000007 0.000000 0.000000 0.000000 0.000005 0.000000 -0.000007
$definebone "sfpistol_front_device03" "sfpistol_front_root" 1.818063 -0.569498 -0.593872 54.766694 -89.999990 -89.999983 0.000000 0.000000 0.000000 0.000005 0.000000 0.000007
$definebone "sfpistol_front_device06" "sfpistol_front_device03" 0.135498 0.000000 1.482926 0.000005 0.000000 0.000007 0.000000 0.000000 0.000000 0.000005 0.000000 0.000007
$definebone "sfpistol_front_device09" "sfpistol_front_device06" 0.891297 0.000001 0.321763 0.000005 0.000000 0.000007 0.000000 0.000000 0.000000 0.000005 0.000000 0.000007
$definebone "ef_sfpistol_root" "sfpistol_root" -0.355200 -4.125737 0.000002 0.000000 106.910780 0.000000 0.000000 0.000000 0.000000 0.000000 0.000007 0.000000
$definebone "ef_sfpistol_03" "ef_sfpistol_root" -0.002248 -0.791662 0.747933 -50.079777 -89.999990 -89.999983 0.000000 0.000000 0.000000 0.000005 0.000000 -0.000005
$definebone "ef_sfpistol_04" "ef_sfpistol_root" -0.002249 -0.791662 -0.752067 50.079760 -90.000024 -90.000024 0.000000 0.000000 0.000000 0.000004 0.000000 0.000006
$definebone "ef_sfpistol_01" "ef_sfpistol_root" -0.002249 0.708339 -0.752067 50.079760 90.000017 90.000024 0.000000 0.000000 0.000000 -0.000005 0.000000 0.000005
$definebone "ef_sfpistol_02" "ef_sfpistol_root" -0.002248 0.708339 0.747932 -50.079719 89.999976 89.999983 0.000000 0.000000 0.000000 -0.000004 0.000000 -0.000006

$sequence "idle" {
	"v_sfpistol_anims\idle"
	{ event 5004 0 "Cyclone.Idle" }
	fps 30
	loop
	activity "ACT_VM_IDLE" 1
	snap
}
$sequence "shoot1" {
	"v_sfpistol_anims\shoot1"
	fps 30
	activity "ACT_VM_PRIMARYATTACK" 1
	snap
}
$sequence "shoot_end" {
	"v_sfpistol_anims\shoot_end"
	{ event 5004 0 "Cyclone.Fire_End" }
	fps 30
	activity "ACT_VM_PRIMARYATTACK_EMPTY" 1
	snap
}
$sequence "reload" {
	"v_sfpistol_anims\reload"
	{ event 5004 11 "Cyclone.ClipOut" }
	{ event 5004 41 "Cyclone.ClipIn" }
	fps 30
	activity "ACT_VM_RELOAD" 1
	snap
}
$sequence "draw" {
	"v_sfpistol_anims\draw"
	{ event 5004 1 "Cyclone.Draw" }
	fps 30
	activity "ACT_VM_DRAW" 1
	snap
}
