version 1
nodes
  0 "uzi_root_l" -1
  1 "triger01" 0
  2 "reloader01" 0
  3 "megazine01" 0
  4 "Hb01" 0
  5 "uzi_root_r" -1
  6 "triger" 5
  7 "reloader" 5
  8 "Hb" 5
  9 "megazine" 5
  10 "root" -1
  11 "Bone01" 10
  12 "Bone_L_Upper" 11
  13 "Bone_Lefthand" 11
  14 "Bone13" 13
  15 "Bone14" 14
  16 "Bone15" 15
  17 "Bone17" 13
  18 "Bone18" 17
  19 "Bone19" 18
  20 "Bone21" 13
  21 "Bone22" 20
  22 "Bone23" 21
  23 "Bone09" 13
  24 "Bone10" 23
  25 "Bone11" 24
  26 "Bone05" 13
  27 "Bone06" 26
  28 "Bone07" 27
  29 "Bone_Se_Hand-L" 13
  30 "Bone04" 10
  31 "Bone_Righthand" 30
  32 "Bone39" 31
  33 "Bone40" 32
  34 "Bone41" 33
  35 "Bone35" 31
  36 "Bone36" 35
  37 "Bone37" 36
  38 "Bone31" 31
  39 "Bone32" 38
  40 "Bone33" 39
  41 "Bone43" 31
  42 "Bone44" 41
  43 "Bone45" 42
  44 "Bone27" 31
  45 "Bone28" 44
  46 "Bone29" 45
  47 "Bone_Se_Hand-R" 31
  48 "Bone_R_Upper" 30
end
skeleton
  time 0
    0 -5.086093 -7.031678 -4.304819 -0.097498 -0.070460 -1.537089
    1 2.999629 0.000000 1.353194 0.000000 0.000000 1.570798
    2 3.639548 0.000000 3.113282 0.000000 0.000000 1.570798
    3 1.757773 0.000000 1.206649 0.000000 0.000000 1.570798
    4 -1.663432 -0.346000 1.941449 0.000000 0.000000 3.141589
    5 5.281411 -7.304697 -6.429884 0.218855 0.231060 -1.502182
    6 2.999629 0.000000 1.353194 0.000000 0.000000 1.570798
    7 3.639548 0.000000 3.113282 0.000000 0.000000 1.570798
    8 -1.663432 0.346269 1.941449 0.000000 0.000000 3.141589
    9 1.757773 0.000000 1.206649 0.000000 0.000000 1.570798
    10 -0.002752 8.717751 -1.784592 0.000000 0.000000 0.000000
    11 7.837402 -6.205892 -6.784345 0.332262 -2.221342 -0.460848
    12 7.835506 2.711619 -0.345125 1.566717 -3.120997 0.413346
    13 -0.068015 -8.428422 -0.111947 -0.004458 0.239244 -0.265477
    14 -0.488518 -2.755602 -0.228260 -0.434648 0.150360 -0.257287
    15 0.039887 -1.526666 0.010322 -1.357298 -0.013111 0.029747
    16 0.028786 -1.263237 -0.120768 -1.781379 -0.009516 0.040652
    17 0.250027 -2.820665 -0.238396 -0.156951 0.124643 -0.222602
    18 -0.049759 -1.598510 0.041883 -1.435809 0.002613 -0.039072
    19 -0.034142 -1.183469 0.041812 -1.449292 0.002673 -0.038027
    20 0.957766 -2.746780 -0.090302 0.163305 0.113141 0.005480
    21 -0.033420 -1.393223 -0.019070 -0.548424 0.008389 -0.026751
    22 -0.022360 -0.957436 -0.000748 -0.707945 0.007526 -0.034384
    23 -1.180681 -2.507217 -0.193859 -0.276772 0.235764 -0.220698
    24 -0.024967 -1.123934 0.017597 -0.793265 0.006687 -0.033843
    25 -0.020057 -0.906594 0.029622 -0.995434 0.005465 -0.040748
    26 0.583510 -1.193371 0.181473 0.313731 -0.595047 -0.692608
    27 1.516395 -0.153822 0.047979 0.016139 -0.157753 -0.527856
    28 1.007018 -0.182979 0.044010 0.086801 -0.241947 -1.032069
    29 0.038119 -0.319809 -0.031051 0.239607 3.240698 1.548022
    30 -6.751435 -6.680523 -5.138159 0.591220 -4.341456 0.689617
    31 -0.078843 -8.044156 -0.040616 0.111047 -0.074563 -0.056188
    32 0.447953 -2.798986 -0.200443 -0.117835 -0.183226 0.328409
    33 -0.032909 -1.499736 0.036191 -1.759219 0.021968 -0.036827
    34 -0.027022 -1.115984 -0.028023 -0.994625 0.022100 -0.015916
    35 -0.249534 -2.846964 -0.174213 0.009445 -0.070702 0.196948
    36 0.043235 -1.656596 0.056948 -1.763180 -0.024622 0.013759
    37 0.031729 -1.141298 0.054932 -1.121691 -0.012481 0.006191
    38 -0.963866 -2.785145 -0.085350 0.155044 0.028983 0.042035
    39 0.028479 -1.403067 -0.013261 -0.721813 -0.016035 -0.028308
    40 0.021413 -0.942156 0.012233 -1.001550 -0.026869 -0.034324
    41 1.164475 -2.543940 -0.170330 -0.286751 -0.269704 0.327293
    42 0.024032 -1.152480 -0.009538 -1.491828 0.033341 0.067846
    43 0.014898 -0.895708 -0.019848 -0.755705 0.001882 0.038243
    44 -0.586770 -1.264477 0.200161 -0.480709 -0.775215 -2.389088
    45 1.565805 0.035243 0.016848 -0.018844 -0.006943 0.893494
    46 1.110134 0.040611 -0.005766 -0.033752 -0.033060 1.195823
    47 -0.002676 -0.502335 -0.044199 0.290560 0.059641 1.643449
    48 -8.159302 1.698334 -0.469909 1.567286 -0.035897 -0.231757
  time 1
    0 -5.086093 -7.031678 -4.304819 -0.097498 -0.070647 -1.536993
    1 2.999629 0.000000 1.353194 0.000000 0.000000 1.570798
    2 3.639548 0.000000 3.113282 0.000000 0.000000 1.570798
    3 1.757773 0.000000 1.206649 0.000000 0.000000 1.570798
    4 -1.663432 -0.346000 1.941449 0.000000 0.000000 3.141589
    5 5.281411 -7.304697 -6.425977 0.218760 0.230773 -1.502275
    6 2.999629 0.000000 1.353194 0.000000 0.000000 1.570798
    7 3.639548 0.000000 3.113282 0.000000 0.000000 1.570798
    8 -1.663432 0.346269 1.941449 0.000000 0.000000 3.141589
    9 1.757773 0.000000 1.206649 0.000000 0.000000 1.570798
    10 -0.002752 8.717751 -1.784592 0.000000 0.000000 0.000000
    11 7.837402 -6.205892 -6.784345 0.332262 -2.221342 -0.460848
    12 7.835506 2.711619 -0.345125 1.566717 -3.120997 0.413346
    13 -0.068015 -8.428422 -0.111947 -0.004404 0.239244 -0.265150
    14 -0.488518 -2.755602 -0.228260 -0.434648 0.150360 -0.257287
    15 0.039887 -1.526666 0.010322 -1.357298 -0.013111 0.029747
    16 0.028786 -1.263237 -0.120768 -1.781379 -0.009516 0.040652
    17 0.250027 -2.820665 -0.238396 -0.156951 0.124643 -0.222602
    18 -0.049759 -1.598510 0.041883 -1.435809 0.002613 -0.039072
    19 -0.034142 -1.183469 0.041812 -1.449292 0.002673 -0.038027
    20 0.957766 -2.746780 -0.090302 0.163305 0.113141 0.005480
    21 -0.033420 -1.393223 -0.019070 -0.548424 0.008389 -0.026751
    22 -0.022360 -0.957436 -0.000748 -0.707945 0.007526 -0.034384
    23 -1.180681 -2.507217 -0.193859 -0.276772 0.235764 -0.220698
    24 -0.024967 -1.123934 0.017597 -0.793265 0.006687 -0.033843
    25 -0.020057 -0.906594 0.029622 -0.995434 0.005465 -0.040748
    26 0.583510 -1.193371 0.181473 0.313731 -0.595047 -0.692608
    27 1.516395 -0.153822 0.047979 0.016139 -0.157753 -0.527856
    28 1.007018 -0.182979 0.044010 0.086801 -0.241947 -1.032069
    29 0.038119 -0.319809 -0.031051 0.239607 3.240698 1.548022
    30 -6.751435 -6.680523 -5.138159 0.591220 -4.341456 0.689617
    31 -0.078843 -8.044156 -0.040616 0.111047 -0.074563 -0.056319
    32 0.447953 -2.798986 -0.200443 -0.117835 -0.183226 0.328409
    33 -0.032909 -1.499736 0.036191 -1.759219 0.021968 -0.036827
    34 -0.027022 -1.115984 -0.028023 -0.994625 0.022100 -0.015916
    35 -0.249534 -2.846964 -0.174213 0.009445 -0.070702 0.196948
    36 0.043235 -1.656596 0.056948 -1.763180 -0.024622 0.013759
    37 0.031729 -1.141298 0.054932 -1.121691 -0.012481 0.006191
    38 -0.963866 -2.785145 -0.085350 0.155044 0.028983 0.042035
    39 0.028479 -1.403067 -0.013261 -0.721813 -0.016035 -0.028308
    40 0.021413 -0.942156 0.012233 -1.001550 -0.026869 -0.034324
    41 1.164475 -2.543940 -0.170330 -0.286751 -0.269704 0.327293
    42 0.024032 -1.152480 -0.009538 -1.491828 0.033341 0.067846
    43 0.014898 -0.895708 -0.019848 -0.755705 0.001882 0.038243
    44 -0.586770 -1.264477 0.200161 -0.480709 -0.775215 -2.389088
    45 1.565805 0.035243 0.016848 -0.018844 -0.006943 0.893494
    46 1.110134 0.040611 -0.005766 -0.033752 -0.033060 1.195823
    47 -0.002676 -0.502335 -0.044199 0.290560 0.059641 1.643449
    48 -8.159302 1.698334 -0.469909 1.567286 -0.035897 -0.231757
end
