// Created by Crowbar 0.34.0.0

$ModelName "weapons/tfa_cso/w_tbarrel.mdl"

$BodyGroup "studio"
{
	studio "v_tbarrel_v_ref"
}

$collisionmodel "v_tbarrel_v_ref.smd"
{
	$mass 9
}

$CDMaterials "models\weapons\tfa_cso\tbarrel"

$attachment "0" "root" -0.90 -15.80 0.50 rotate -0 0 0

$Sequence "idle" {
	"anims\idle.smd"
	fps 30
}