version 1
nodes
  0 "Bone056" -1
end
skeleton
  time 0
    0 0.000000 0.000000 0.000000 0.000000 0.000000 -1.570796
end
triangles
vampire_gaebulg_v.bmp
  0 -0.000010 32.820000 1.080000 0.000011 1.000000 0.000001 0.520548 0.217221
  0 -1.180010 32.819999 -0.090000 0.000011 1.000000 0.000001 0.540117 0.195695
  0 -0.830010 32.819999 0.740000 0.000011 1.000000 0.000001 0.536204 0.209393
vampire_gaebulg_v.bmp
  0 -0.000010 32.820000 1.080000 0.000011 1.000000 0.000001 0.520548 0.217221
  0 -0.830010 32.819999 -0.930000 0.000011 1.000000 0.000001 0.536204 0.181996
  0 -1.180010 32.819999 -0.090000 0.000011 1.000000 0.000001 0.540117 0.195695
vampire_gaebulg_v.bmp
  0 -0.000010 32.820000 1.080000 0.000011 1.000000 0.000001 0.520548 0.217221
  0 -0.000010 32.820000 -1.270000 0.000011 1.000000 0.000001 0.520548 0.174168
  0 -0.830010 32.819999 -0.930000 0.000011 1.000000 0.000001 0.536204 0.181996
vampire_gaebulg_v.bmp
  0 -0.000010 32.820000 1.080000 0.000011 1.000000 0.000001 0.520548 0.217221
  0 0.829990 32.820000 -0.930000 0.000011 1.000000 0.000001 0.536204 0.181996
  0 -0.000010 32.820000 -1.270000 0.000011 1.000000 0.000001 0.520548 0.174168
vampire_gaebulg_v.bmp
  0 -0.000010 32.820000 1.080000 0.000011 1.000000 0.000001 0.520548 0.217221
  0 1.179990 32.820000 -0.090000 0.000011 1.000000 0.000001 0.540117 0.195695
  0 0.829990 32.820000 -0.930000 0.000011 1.000000 0.000001 0.536204 0.181996
vampire_gaebulg_v.bmp
  0 -0.000010 32.820000 1.080000 0.000011 1.000000 0.000001 0.520548 0.217221
  0 0.829990 32.820000 0.740000 0.000011 1.000000 0.000001 0.536204 0.209393
  0 1.179990 32.820000 -0.090000 0.000011 1.000000 0.000001 0.540117 0.195695
vampire_gaebulg_v.bmp
  0 0.000003 -10.490000 1.100000 0.000011 1.000000 0.000001 0.761252 0.099804
  0 -1.189997 -10.490000 -0.090000 0.000011 1.000000 0.000001 0.745597 0.117417
  0 -0.839997 -10.490000 0.750000 0.000011 1.000000 0.000001 0.751468 0.105675
vampire_gaebulg_v.bmp
  0 0.000003 -10.490000 1.100000 0.000011 1.000000 0.000001 0.761252 0.099804
  0 -0.839997 -10.490000 -0.940000 0.000011 1.000000 0.000001 0.749511 0.131115
  0 -1.189997 -10.490000 -0.090000 0.000011 1.000000 0.000001 0.745597 0.117417
vampire_gaebulg_v.bmp
  0 0.000003 -10.490000 1.100000 0.000011 1.000000 0.000001 0.761252 0.099804
  0 0.000003 -10.490000 -1.290000 0.000011 1.000000 0.000001 0.761252 0.136986
  0 -0.839997 -10.490000 -0.940000 0.000011 1.000000 0.000001 0.749511 0.131115
vampire_gaebulg_v.bmp
  0 0.000003 -10.490000 1.100000 0.000011 1.000000 0.000001 0.761252 0.099804
  0 0.840003 -10.490000 -0.940000 0.000011 1.000000 0.000001 0.749511 0.131115
  0 0.000003 -10.490000 -1.290000 0.000011 1.000000 0.000001 0.761252 0.136986
vampire_gaebulg_v.bmp
  0 0.000003 -10.490000 1.100000 0.000011 1.000000 0.000001 0.761252 0.099804
  0 1.190003 -10.489999 -0.090000 0.000011 1.000000 0.000001 0.745597 0.117417
  0 0.840003 -10.490000 -0.940000 0.000011 1.000000 0.000001 0.749511 0.131115
vampire_gaebulg_v.bmp
  0 0.000003 -10.490000 1.100000 0.000011 1.000000 0.000001 0.761252 0.099804
  0 0.840003 -10.490000 0.750000 0.000011 1.000000 0.000001 0.751468 0.105675
  0 1.190003 -10.489999 -0.090000 0.000011 1.000000 0.000001 0.745597 0.117417
vampire_gaebulg_v.bmp
  0 0.000004 -13.800000 1.100000 0.000011 1.000000 0.000001 0.761252 0.733855
  0 -1.189996 -13.800001 -0.090000 0.000011 1.000000 0.000001 0.780822 0.714286
  0 -0.839996 -13.800000 0.750000 0.000011 1.000000 0.000001 0.774951 0.727984
vampire_gaebulg_v.bmp
  0 0.000004 -13.800000 1.100000 0.000011 1.000000 0.000001 0.761252 0.733855
  0 -0.839996 -13.800000 -0.940000 0.000011 1.000000 0.000001 0.774951 0.698630
  0 -1.189996 -13.800001 -0.090000 0.000011 1.000000 0.000001 0.780822 0.714286
vampire_gaebulg_v.bmp
  0 0.000004 -13.800000 1.100000 0.000011 1.000000 0.000001 0.761252 0.733855
  0 0.000004 -13.800000 -1.290000 0.000011 1.000000 0.000001 0.761252 0.692759
  0 -0.839996 -13.800000 -0.940000 0.000011 1.000000 0.000001 0.774951 0.698630
vampire_gaebulg_v.bmp
  0 0.000004 -13.800000 1.100000 0.000011 1.000000 0.000001 0.761252 0.733855
  0 0.840004 -13.800000 -0.940000 0.000011 1.000000 0.000001 0.774951 0.698630
  0 0.000004 -13.800000 -1.290000 0.000011 1.000000 0.000001 0.761252 0.692759
vampire_gaebulg_v.bmp
  0 0.000004 -13.800000 1.100000 0.000011 1.000000 0.000001 0.761252 0.733855
  0 1.190004 -13.800000 -0.090000 0.000011 1.000000 0.000001 0.780822 0.714286
  0 0.840004 -13.800000 -0.940000 0.000011 1.000000 0.000001 0.774951 0.698630
vampire_gaebulg_v.bmp
  0 0.000004 -13.800000 1.100000 0.000011 1.000000 0.000001 0.761252 0.733855
  0 0.840004 -13.800000 0.750000 0.000011 1.000000 0.000001 0.774951 0.727984
  0 1.190004 -13.800000 -0.090000 0.000011 1.000000 0.000001 0.780822 0.714286
vampire_gaebulg_v.bmp
  0 -0.850009 27.149999 -0.950000 0.000034 -1.000000 -0.000602 0.506849 0.180039
  0 -0.000009 27.150000 -1.310000 0.000034 -1.000000 -0.000602 0.520548 0.174168
  0 -1.210009 27.149999 -0.090000 0.000034 -1.000000 -0.000602 0.500978 0.195695
vampire_gaebulg_v.bmp
  0 -1.210009 27.149999 -0.090000 0.000034 -1.000000 -0.000602 0.500978 0.195695
  0 -0.000009 27.150000 -1.310000 0.000034 -1.000000 -0.000602 0.520548 0.174168
  0 -0.000009 27.150000 1.120000 0.000034 -1.000000 -0.000602 0.520548 0.217221
vampire_gaebulg_v.bmp
  0 -0.000009 27.150000 -1.310000 0.000034 -1.000000 -0.000602 0.520548 0.174168
  0 1.209992 27.150000 -0.090000 0.000034 -1.000000 -0.000602 0.500978 0.195695
  0 -0.000009 27.150000 1.120000 0.000034 -1.000000 -0.000602 0.520548 0.217221
vampire_gaebulg_v.bmp
  0 -0.000009 27.150000 1.120000 0.000034 -1.000000 -0.000602 0.520548 0.217221
  0 1.209992 27.150000 -0.090000 0.000034 -1.000000 -0.000602 0.500978 0.195695
  0 0.849992 27.150000 0.760000 0.000034 -1.000000 -0.000602 0.506849 0.211350
vampire_gaebulg_v.bmp
  0 -0.839996 -11.630000 -0.940000 0.000034 -1.000000 -0.000602 0.772994 0.131115
  0 0.000004 -11.630000 -1.290000 0.000034 -1.000000 -0.000602 0.761252 0.135029
  0 -1.189996 -11.630000 -0.090000 0.000034 -1.000000 -0.000602 0.778865 0.117417
vampire_gaebulg_v.bmp
  0 -1.189996 -11.630000 -0.090000 0.000034 -1.000000 -0.000602 0.778865 0.117417
  0 0.000004 -11.630000 -1.290000 0.000034 -1.000000 -0.000602 0.761252 0.135029
  0 0.000004 -11.630000 1.100000 0.000034 -1.000000 -0.000602 0.761252 0.099804
vampire_gaebulg_v.bmp
  0 0.000004 -11.630000 -1.290000 0.000034 -1.000000 -0.000602 0.761252 0.135029
  0 1.190004 -11.630000 -0.090000 0.000034 -1.000000 -0.000602 0.778865 0.117417
  0 0.000004 -11.630000 1.100000 0.000034 -1.000000 -0.000602 0.761252 0.099804
vampire_gaebulg_v.bmp
  0 0.000004 -11.630000 1.100000 0.000034 -1.000000 -0.000602 0.761252 0.099804
  0 1.190004 -11.630000 -0.090000 0.000034 -1.000000 -0.000602 0.778865 0.117417
  0 0.840004 -11.630000 0.750000 0.000034 -1.000000 -0.000602 0.774951 0.105675
vampire_gaebulg_v.bmp
  0 0.000007 -23.090000 0.910000 -0.382671 0.005506 0.923868 0.755382 0.277886
  0 0.000002 -6.360000 0.910000 -0.382671 0.005506 0.923868 0.485323 0.277886
  0 -0.709993 -22.750000 0.610000 -0.382671 0.005506 0.923868 0.751468 0.266145
vampire_gaebulg_v.bmp
  0 -0.709993 -22.750000 0.610000 -0.382671 0.005506 0.923868 0.751468 0.266145
  0 0.000002 -6.360000 0.910000 -0.382671 0.005506 0.923868 0.485323 0.277886
  0 -0.709998 -6.190000 0.610000 -0.382671 0.005506 0.923868 0.483366 0.266145
vampire_gaebulg_v.bmp
  0 0.000002 -6.360000 0.910000 -0.382671 0.005506 0.923868 0.485323 0.277886
  0 -0.000009 27.190001 0.910000 -0.382671 0.005506 0.923868 0.215264 0.277886
  0 -0.709998 -6.190000 0.610000 -0.382671 0.005506 0.923868 0.483366 0.266145
vampire_gaebulg_v.bmp
  0 -0.709998 -6.190000 0.610000 -0.382671 0.005506 0.923868 0.483366 0.266145
  0 -0.000009 27.190001 0.910000 -0.382671 0.005506 0.923868 0.215264 0.277886
  0 -0.710009 27.190000 0.610000 -0.382671 0.005506 0.923868 0.215264 0.266145
vampire_gaebulg_v.bmp
  0 -0.709993 -22.750000 0.610000 -0.923859 0.005508 0.382693 0.751468 0.266145
  0 -0.709998 -6.190000 0.610000 -0.923859 0.005508 0.382693 0.483366 0.266145
  0 -0.999993 -21.850001 -0.090000 -0.923859 0.005508 0.382693 0.741683 0.250489
vampire_gaebulg_v.bmp
  0 -0.999993 -21.850001 -0.090000 -0.923859 0.005508 0.382693 0.741683 0.250489
  0 -0.709998 -6.190000 0.610000 -0.923859 0.005508 0.382693 0.483366 0.266145
  0 -0.999998 -5.740000 -0.090000 -0.923859 0.005508 0.382693 0.479452 0.250489
vampire_gaebulg_v.bmp
  0 -0.709998 -6.190000 0.610000 -0.923859 0.005508 0.382693 0.483366 0.266145
  0 -0.710009 27.190000 0.610000 -0.923859 0.005508 0.382693 0.215264 0.266145
  0 -0.999998 -5.740000 -0.090000 -0.923859 0.005508 0.382693 0.479452 0.250489
vampire_gaebulg_v.bmp
  0 -0.999998 -5.740000 -0.090000 -0.923859 0.005508 0.382693 0.479452 0.250489
  0 -0.710009 27.190000 0.610000 -0.923859 0.005508 0.382693 0.215264 0.266145
  0 -1.000009 27.190000 -0.090000 -0.923859 0.005508 0.382693 0.215264 0.250489
vampire_gaebulg_v.bmp
  0 -0.999993 -21.850001 -0.090000 -0.923873 0.005509 -0.382659 0.741683 0.250489
  0 -0.999998 -5.740000 -0.090000 -0.923873 0.005509 -0.382659 0.479452 0.250489
  0 -0.709993 -20.790001 -0.800000 -0.923873 0.005509 -0.382659 0.729941 0.236791
vampire_gaebulg_v.bmp
  0 -0.709993 -20.790001 -0.800000 -0.923873 0.005509 -0.382659 0.729941 0.236791
  0 -0.999998 -5.740000 -0.090000 -0.923873 0.005509 -0.382659 0.479452 0.250489
  0 -0.709998 -5.210000 -0.800000 -0.923873 0.005509 -0.382659 0.473581 0.236791
vampire_gaebulg_v.bmp
  0 -0.999998 -5.740000 -0.090000 -0.923873 0.005509 -0.382659 0.479452 0.250489
  0 -1.000009 27.190000 -0.090000 -0.923873 0.005509 -0.382659 0.215264 0.250489
  0 -0.709998 -5.210000 -0.800000 -0.923873 0.005509 -0.382659 0.473581 0.236791
vampire_gaebulg_v.bmp
  0 -0.709998 -5.210000 -0.800000 -0.923873 0.005509 -0.382659 0.473581 0.236791
  0 -1.000009 27.190000 -0.090000 -0.923873 0.005509 -0.382659 0.215264 0.250489
  0 -0.710009 27.190000 -0.800000 -0.923873 0.005509 -0.382659 0.215264 0.236791
vampire_gaebulg_v.bmp
  0 -0.709993 -20.790001 -0.800000 -0.382686 0.005511 -0.923862 0.729941 0.236791
  0 -0.709998 -5.210000 -0.800000 -0.382686 0.005511 -0.923862 0.473581 0.236791
  0 0.000006 -20.290001 -1.100000 -0.382686 0.005511 -0.923862 0.727984 0.225049
vampire_gaebulg_v.bmp
  0 0.000006 -20.290001 -1.100000 -0.382686 0.005511 -0.923862 0.727984 0.225049
  0 -0.709998 -5.210000 -0.800000 -0.382686 0.005511 -0.923862 0.473581 0.236791
  0 0.000002 -4.960000 -1.100000 -0.382686 0.005511 -0.923862 0.471624 0.225049
vampire_gaebulg_v.bmp
  0 -0.709998 -5.210000 -0.800000 -0.382686 0.005511 -0.923862 0.473581 0.236791
  0 -0.710009 27.190000 -0.800000 -0.382686 0.005511 -0.923862 0.215264 0.236791
  0 0.000002 -4.960000 -1.100000 -0.382686 0.005511 -0.923862 0.471624 0.225049
vampire_gaebulg_v.bmp
  0 0.000002 -4.960000 -1.100000 -0.382686 0.005511 -0.923862 0.471624 0.225049
  0 -0.710009 27.190000 -0.800000 -0.382686 0.005511 -0.923862 0.215264 0.236791
  0 -0.000009 27.200001 -1.100000 -0.382686 0.005511 -0.923862 0.215264 0.225049
vampire_gaebulg_v.bmp
  0 -0.839995 -15.320000 -0.940000 0.000034 -1.000000 -0.000602 0.774951 0.698630
  0 0.000005 -15.320000 -1.290000 0.000034 -1.000000 -0.000602 0.761252 0.692759
  0 -1.189995 -15.320000 -0.090000 0.000034 -1.000000 -0.000602 0.780822 0.714286
vampire_gaebulg_v.bmp
  0 -1.189995 -15.320000 -0.090000 0.000034 -1.000000 -0.000602 0.780822 0.714286
  0 0.000005 -15.320000 -1.290000 0.000034 -1.000000 -0.000602 0.761252 0.692759
  0 0.000005 -15.320000 1.100000 0.000034 -1.000000 -0.000602 0.761252 0.733855
vampire_gaebulg_v.bmp
  0 0.000005 -15.320000 -1.290000 0.000034 -1.000000 -0.000602 0.761252 0.692759
  0 1.190005 -15.319999 -0.090000 0.000034 -1.000000 -0.000602 0.780822 0.714286
  0 0.000005 -15.320000 1.100000 0.000034 -1.000000 -0.000602 0.761252 0.733855
vampire_gaebulg_v.bmp
  0 0.000005 -15.320000 1.100000 0.000034 -1.000000 -0.000602 0.761252 0.733855
  0 1.190005 -15.319999 -0.090000 0.000034 -1.000000 -0.000602 0.780822 0.714286
  0 0.840005 -15.319999 0.750000 0.000034 -1.000000 -0.000602 0.774951 0.727984
vampire_gaebulg_v.bmp
  0 -3.809996 -12.710001 -1.620000 -0.063527 0.627066 0.776372 0.739726 0.675147
  0 -2.549996 -13.760001 -0.730000 -0.063527 0.627066 0.776372 0.706458 0.641879
  0 -2.379996 -13.350001 -1.050000 -0.063527 0.627066 0.776372 0.720157 0.637965
vampire_gaebulg_v.bmp
  0 -2.379996 -13.350001 -1.050000 -0.063527 0.627066 0.776372 0.720157 0.637965
  0 -2.549996 -13.760001 -0.730000 -0.063527 0.627066 0.776372 0.706458 0.641879
  0 -0.919996 -13.930001 -0.460000 -0.063527 0.627066 0.776372 0.702544 0.602740
vampire_gaebulg_v.bmp
  0 -2.549996 -13.760001 -0.730000 -0.063527 0.627066 0.776372 0.706458 0.641879
  0 -1.169995 -14.600001 0.050000 -0.063527 0.627066 0.776372 0.679061 0.606654
  0 -0.919996 -13.930001 -0.460000 -0.063527 0.627066 0.776372 0.702544 0.602740
vampire_gaebulg_v.bmp
  0 -3.809996 -12.710001 -1.620000 0.495653 0.625039 -0.603038 0.739726 0.675147
  0 -2.379996 -13.350001 -1.050000 0.495653 0.625039 -0.603038 0.720157 0.637965
  0 -2.289996 -13.760001 -1.410000 0.495653 0.625039 -0.603038 0.731898 0.630137
vampire_gaebulg_v.bmp
  0 -2.289996 -13.760001 -1.410000 0.495653 0.625039 -0.603038 0.731898 0.630137
  0 -2.379996 -13.350001 -1.050000 0.495653 0.625039 -0.603038 0.720157 0.637965
  0 -0.749995 -14.600001 -1.010000 0.495653 0.625039 -0.603038 0.722114 0.587084
vampire_gaebulg_v.bmp
  0 -2.379996 -13.350001 -1.050000 0.495653 0.625039 -0.603038 0.720157 0.637965
  0 -0.919996 -13.930001 -0.460000 0.495653 0.625039 -0.603038 0.702544 0.602740
  0 -0.749995 -14.600001 -1.010000 0.495653 0.625039 -0.603038 0.722114 0.587084
vampire_gaebulg_v.bmp
  0 0.000004 -12.710000 3.940000 -0.735325 0.632323 -0.243855 0.712329 0.135029
  0 0.000004 -13.350000 2.410000 -0.735325 0.632323 -0.243855 0.661448 0.136986
  0 -0.359996 -13.760000 2.460000 -0.735325 0.632323 -0.243855 0.657534 0.121331
vampire_gaebulg_v.bmp
  0 -0.359996 -13.760000 2.460000 -0.735325 0.632323 -0.243855 0.657534 0.121331
  0 0.000004 -13.350000 2.410000 -0.735325 0.632323 -0.243855 0.661448 0.136986
  0 -0.569995 -14.600001 0.900000 -0.735325 0.632323 -0.243855 0.606654 0.111546
vampire_gaebulg_v.bmp
  0 0.000004 -13.350000 2.410000 -0.735325 0.632323 -0.243855 0.661448 0.136986
  0 0.000004 -13.930000 0.900000 -0.735325 0.632323 -0.243855 0.612524 0.136986
  0 -0.569995 -14.600001 0.900000 -0.735325 0.632323 -0.243855 0.606654 0.111546
vampire_gaebulg_v.bmp
  0 0.710007 -22.750000 0.610000 0.382675 0.005507 0.923867 0.751468 0.266145
  0 0.710002 -6.190000 0.610000 0.382675 0.005507 0.923867 0.483366 0.266145
  0 0.000002 -6.360000 0.910000 0.382675 0.005507 0.923867 0.485323 0.277886
vampire_gaebulg_v.bmp
  0 0.000002 -6.360000 0.910000 0.382675 0.005507 0.923867 0.485323 0.277886
  0 0.710002 -6.190000 0.610000 0.382675 0.005507 0.923867 0.483366 0.266145
  0 -0.000009 27.190001 0.910000 0.382675 0.005507 0.923867 0.215264 0.277886
vampire_gaebulg_v.bmp
  0 0.710002 -6.190000 0.610000 0.382675 0.005507 0.923867 0.483366 0.266145
  0 0.709991 27.190001 0.610000 0.382675 0.005507 0.923867 0.215264 0.266145
  0 -0.000009 27.190001 0.910000 0.382675 0.005507 0.923867 0.215264 0.277886
vampire_gaebulg_v.bmp
  0 1.000007 -21.850000 -0.090000 0.923867 0.005511 0.382674 0.741683 0.250489
  0 1.000002 -5.739999 -0.090000 0.923867 0.005511 0.382674 0.479452 0.250489
  0 0.710002 -6.190000 0.610000 0.923867 0.005511 0.382674 0.483366 0.266145
vampire_gaebulg_v.bmp
  0 0.710002 -6.190000 0.610000 0.923867 0.005511 0.382674 0.483366 0.266145
  0 1.000002 -5.739999 -0.090000 0.923867 0.005511 0.382674 0.479452 0.250489
  0 0.709991 27.190001 0.610000 0.923867 0.005511 0.382674 0.215264 0.266145
vampire_gaebulg_v.bmp
  0 1.000002 -5.739999 -0.090000 0.923867 0.005511 0.382674 0.479452 0.250489
  0 0.999991 27.190001 -0.090000 0.923867 0.005511 0.382674 0.215264 0.250489
  0 0.709991 27.190001 0.610000 0.923867 0.005511 0.382674 0.215264 0.266145
vampire_gaebulg_v.bmp
  0 0.710007 -20.790001 -0.800000 0.923867 0.005512 -0.382674 0.729941 0.236791
  0 0.710002 -5.210000 -0.800000 0.923867 0.005512 -0.382674 0.473581 0.236791
  0 1.000002 -5.739999 -0.090000 0.923867 0.005512 -0.382674 0.479452 0.250489
vampire_gaebulg_v.bmp
  0 1.000002 -5.739999 -0.090000 0.923867 0.005512 -0.382674 0.479452 0.250489
  0 0.710002 -5.210000 -0.800000 0.923867 0.005512 -0.382674 0.473581 0.236791
  0 0.999991 27.190001 -0.090000 0.923867 0.005512 -0.382674 0.215264 0.250489
vampire_gaebulg_v.bmp
  0 0.710002 -5.210000 -0.800000 0.923867 0.005512 -0.382674 0.473581 0.236791
  0 0.709991 27.190001 -0.800000 0.923867 0.005512 -0.382674 0.215264 0.236791
  0 0.999991 27.190001 -0.090000 0.923867 0.005512 -0.382674 0.215264 0.250489
vampire_gaebulg_v.bmp
  0 0.000006 -20.290001 -1.100000 0.382677 0.005513 -0.923866 0.727984 0.225049
  0 0.000002 -4.960000 -1.100000 0.382677 0.005513 -0.923866 0.471624 0.225049
  0 0.710002 -5.210000 -0.800000 0.382677 0.005513 -0.923866 0.473581 0.236791
vampire_gaebulg_v.bmp
  0 0.710002 -5.210000 -0.800000 0.382677 0.005513 -0.923866 0.473581 0.236791
  0 0.000002 -4.960000 -1.100000 0.382677 0.005513 -0.923866 0.471624 0.225049
  0 0.709991 27.190001 -0.800000 0.382677 0.005513 -0.923866 0.215264 0.236791
vampire_gaebulg_v.bmp
  0 0.000002 -4.960000 -1.100000 0.382677 0.005513 -0.923866 0.471624 0.225049
  0 -0.000009 27.200001 -1.100000 0.382677 0.005513 -0.923866 0.215264 0.225049
  0 0.709991 27.190001 -0.800000 0.382677 0.005513 -0.923866 0.215264 0.236791
vampire_gaebulg_v.bmp
  0 1.170005 -14.600000 0.050000 0.063054 0.629061 0.774794 0.679061 0.606654
  0 2.550004 -13.759999 -0.730000 0.063054 0.629061 0.774794 0.706458 0.641879
  0 0.920004 -13.930000 -0.460000 0.063054 0.629061 0.774794 0.702544 0.602740
vampire_gaebulg_v.bmp
  0 0.920004 -13.930000 -0.460000 0.063054 0.629061 0.774794 0.702544 0.602740
  0 2.550004 -13.759999 -0.730000 0.063054 0.629061 0.774794 0.706458 0.641879
  0 2.380004 -13.350000 -1.050000 0.063054 0.629061 0.774794 0.720157 0.637965
vampire_gaebulg_v.bmp
  0 2.550004 -13.759999 -0.730000 0.063054 0.629061 0.774794 0.706458 0.641879
  0 3.810004 -12.709999 -1.620000 0.063054 0.629061 0.774794 0.739726 0.675147
  0 2.380004 -13.350000 -1.050000 0.063054 0.629061 0.774794 0.720157 0.637965
vampire_gaebulg_v.bmp
  0 0.920004 -13.930000 -0.460000 -0.496391 0.626064 -0.601365 0.702544 0.602740
  0 2.380004 -13.350000 -1.050000 -0.496391 0.626064 -0.601365 0.720157 0.637965
  0 0.750005 -14.600000 -1.010000 -0.496391 0.626064 -0.601365 0.722114 0.587084
vampire_gaebulg_v.bmp
  0 0.750005 -14.600000 -1.010000 -0.496391 0.626064 -0.601365 0.722114 0.587084
  0 2.380004 -13.350000 -1.050000 -0.496391 0.626064 -0.601365 0.720157 0.637965
  0 2.290004 -13.760000 -1.410000 -0.496391 0.626064 -0.601365 0.731898 0.630137
vampire_gaebulg_v.bmp
  0 2.380004 -13.350000 -1.050000 -0.496391 0.626064 -0.601365 0.720157 0.637965
  0 3.810004 -12.709999 -1.620000 -0.496391 0.626064 -0.601365 0.739726 0.675147
  0 2.290004 -13.760000 -1.410000 -0.496391 0.626064 -0.601365 0.731898 0.630137
vampire_gaebulg_v.bmp
  0 0.000004 -13.930000 0.900000 0.742301 0.626861 -0.236716 0.612524 0.136986
  0 0.000004 -13.350000 2.410000 0.742301 0.626861 -0.236716 0.661448 0.136986
  0 0.570005 -14.600000 0.900000 0.742301 0.626861 -0.236716 0.606654 0.111546
vampire_gaebulg_v.bmp
  0 0.570005 -14.600000 0.900000 0.742301 0.626861 -0.236716 0.606654 0.111546
  0 0.000004 -13.350000 2.410000 0.742301 0.626861 -0.236716 0.661448 0.136986
  0 0.360004 -13.760000 2.460000 0.742301 0.626861 -0.236716 0.657534 0.121331
vampire_gaebulg_v.bmp
  0 0.000004 -13.350000 2.410000 0.742301 0.626861 -0.236716 0.661448 0.136986
  0 0.000004 -12.710000 3.940000 0.742301 0.626861 -0.236716 0.712329 0.135029
  0 0.360004 -13.760000 2.460000 0.742301 0.626861 -0.236716 0.657534 0.121331
vampire_gaebulg_v.bmp
  0 -0.000009 27.150000 1.120000 -0.382671 0.005506 0.923868 0.767123 0.467710
  0 -0.000010 32.820000 1.080000 -0.382671 0.005506 0.923868 0.767123 0.324853
  0 -0.850009 27.149999 0.760000 -0.382671 0.005506 0.923868 0.776908 0.467710
vampire_gaebulg_v.bmp
  0 -0.850009 27.149999 0.760000 -0.382671 0.005506 0.923868 0.776908 0.467710
  0 -0.000010 32.820000 1.080000 -0.382671 0.005506 0.923868 0.767123 0.324853
  0 -0.830010 32.819999 0.740000 -0.382671 0.005506 0.923868 0.776908 0.324853
vampire_gaebulg_v.bmp
  0 -0.850009 27.149999 0.760000 -0.923859 0.005508 0.382693 0.776908 0.467710
  0 -0.830010 32.819999 0.740000 -0.923859 0.005508 0.382693 0.776908 0.324853
  0 -1.210009 27.149999 -0.090000 -0.923859 0.005508 0.382693 0.788650 0.467710
vampire_gaebulg_v.bmp
  0 -1.210009 27.149999 -0.090000 -0.923859 0.005508 0.382693 0.788650 0.467710
  0 -0.830010 32.819999 0.740000 -0.923859 0.005508 0.382693 0.776908 0.324853
  0 -1.180010 32.819999 -0.090000 -0.923859 0.005508 0.382693 0.788650 0.324853
vampire_gaebulg_v.bmp
  0 -1.210009 27.149999 -0.090000 -0.923873 0.005509 -0.382659 0.788650 0.467710
  0 -1.180010 32.819999 -0.090000 -0.923873 0.005509 -0.382659 0.788650 0.324853
  0 -0.850009 27.149999 -0.950000 -0.923873 0.005509 -0.382659 0.800391 0.467710
vampire_gaebulg_v.bmp
  0 -0.850009 27.149999 -0.950000 -0.923873 0.005509 -0.382659 0.800391 0.467710
  0 -1.180010 32.819999 -0.090000 -0.923873 0.005509 -0.382659 0.788650 0.324853
  0 -0.830010 32.819999 -0.930000 -0.923873 0.005509 -0.382659 0.800391 0.324853
vampire_gaebulg_v.bmp
  0 -0.850009 27.149999 -0.950000 -0.382686 0.005511 -0.923862 0.800391 0.467710
  0 -0.830010 32.819999 -0.930000 -0.382686 0.005511 -0.923862 0.800391 0.324853
  0 -0.000009 27.150000 -1.310000 -0.382686 0.005511 -0.923862 0.810176 0.467710
vampire_gaebulg_v.bmp
  0 -0.000009 27.150000 -1.310000 -0.382686 0.005511 -0.923862 0.810176 0.467710
  0 -0.830010 32.819999 -0.930000 -0.382686 0.005511 -0.923862 0.800391 0.324853
  0 -0.000010 32.820000 -1.270000 -0.382686 0.005511 -0.923862 0.810176 0.324853
vampire_gaebulg_v.bmp
  0 0.000004 -11.630000 1.100000 -0.382671 0.005506 0.923868 0.726027 0.430528
  0 0.000003 -10.490000 1.100000 -0.382671 0.005506 0.923868 0.745597 0.430528
  0 -0.839996 -11.630000 0.750000 -0.382671 0.005506 0.923868 0.726027 0.446184
vampire_gaebulg_v.bmp
  0 -0.839996 -11.630000 0.750000 -0.382671 0.005506 0.923868 0.726027 0.446184
  0 0.000003 -10.490000 1.100000 -0.382671 0.005506 0.923868 0.745597 0.430528
  0 -0.839997 -10.490000 0.750000 -0.382671 0.005506 0.923868 0.745597 0.446184
vampire_gaebulg_v.bmp
  0 -0.839996 -11.630000 0.750000 -0.923859 0.005508 0.382693 0.726027 0.446184
  0 -0.839997 -10.490000 0.750000 -0.923859 0.005508 0.382693 0.745597 0.446184
  0 -1.189996 -11.630000 -0.090000 -0.923859 0.005508 0.382693 0.726027 0.461840
vampire_gaebulg_v.bmp
  0 -1.189996 -11.630000 -0.090000 -0.923859 0.005508 0.382693 0.726027 0.461840
  0 -0.839997 -10.490000 0.750000 -0.923859 0.005508 0.382693 0.745597 0.446184
  0 -1.189997 -10.490000 -0.090000 -0.923859 0.005508 0.382693 0.745597 0.461840
vampire_gaebulg_v.bmp
  0 -1.189996 -11.630000 -0.090000 -0.923873 0.005509 -0.382659 0.726027 0.461840
  0 -1.189997 -10.490000 -0.090000 -0.923873 0.005509 -0.382659 0.745597 0.461840
  0 -0.839996 -11.630000 -0.940000 -0.923873 0.005509 -0.382659 0.726027 0.477495
vampire_gaebulg_v.bmp
  0 -0.839996 -11.630000 -0.940000 -0.923873 0.005509 -0.382659 0.726027 0.477495
  0 -1.189997 -10.490000 -0.090000 -0.923873 0.005509 -0.382659 0.745597 0.461840
  0 -0.839997 -10.490000 -0.940000 -0.923873 0.005509 -0.382659 0.745597 0.477495
vampire_gaebulg_v.bmp
  0 -0.839996 -11.630000 -0.940000 -0.382686 0.005511 -0.923862 0.726027 0.477495
  0 -0.839997 -10.490000 -0.940000 -0.382686 0.005511 -0.923862 0.745597 0.477495
  0 0.000004 -11.630000 -1.290000 -0.382686 0.005511 -0.923862 0.726027 0.491194
vampire_gaebulg_v.bmp
  0 0.000004 -11.630000 -1.290000 -0.382686 0.005511 -0.923862 0.726027 0.491194
  0 -0.839997 -10.490000 -0.940000 -0.382686 0.005511 -0.923862 0.745597 0.477495
  0 0.000003 -10.490000 -1.290000 -0.382686 0.005511 -0.923862 0.745597 0.491194
vampire_gaebulg_v.bmp
  0 0.000005 -15.320000 1.100000 -0.382671 0.005506 0.923868 0.379648 0.847358
  0 0.000004 -13.800000 1.100000 -0.382671 0.005506 0.923868 0.346380 0.847358
  0 -0.839995 -15.320000 0.750000 -0.382671 0.005506 0.923868 0.379648 0.831703
vampire_gaebulg_v.bmp
  0 -0.839995 -15.320000 0.750000 -0.382671 0.005506 0.923868 0.379648 0.831703
  0 0.000004 -13.800000 1.100000 -0.382671 0.005506 0.923868 0.346380 0.847358
  0 -0.839996 -13.800000 0.750000 -0.382671 0.005506 0.923868 0.346380 0.831703
vampire_gaebulg_v.bmp
  0 -0.839995 -15.320000 0.750000 -0.923859 0.005508 0.382693 0.379648 0.831703
  0 -0.839996 -13.800000 0.750000 -0.923859 0.005508 0.382693 0.346380 0.831703
  0 -1.189995 -15.320000 -0.090000 -0.923859 0.005508 0.382693 0.379648 0.812133
vampire_gaebulg_v.bmp
  0 -1.189995 -15.320000 -0.090000 -0.923859 0.005508 0.382693 0.379648 0.812133
  0 -0.839996 -13.800000 0.750000 -0.923859 0.005508 0.382693 0.346380 0.831703
  0 -1.189996 -13.800001 -0.090000 -0.923859 0.005508 0.382693 0.346380 0.812133
vampire_gaebulg_v.bmp
  0 -1.189995 -15.320000 -0.090000 -0.923873 0.005509 -0.382659 0.379648 0.812133
  0 -1.189996 -13.800001 -0.090000 -0.923873 0.005509 -0.382659 0.346380 0.812133
  0 -0.839995 -15.320000 -0.940000 -0.923873 0.005509 -0.382659 0.379648 0.794521
vampire_gaebulg_v.bmp
  0 -0.839995 -15.320000 -0.940000 -0.923873 0.005509 -0.382659 0.379648 0.794521
  0 -1.189996 -13.800001 -0.090000 -0.923873 0.005509 -0.382659 0.346380 0.812133
  0 -0.839996 -13.800000 -0.940000 -0.923873 0.005509 -0.382659 0.346380 0.794521
vampire_gaebulg_v.bmp
  0 -0.839995 -15.320000 -0.940000 -0.382686 0.005511 -0.923862 0.379648 0.794521
  0 -0.839996 -13.800000 -0.940000 -0.382686 0.005511 -0.923862 0.346380 0.794521
  0 0.000005 -15.320000 -1.290000 -0.382686 0.005511 -0.923862 0.379648 0.776908
vampire_gaebulg_v.bmp
  0 0.000005 -15.320000 -1.290000 -0.382686 0.005511 -0.923862 0.379648 0.776908
  0 -0.839996 -13.800000 -0.940000 -0.382686 0.005511 -0.923862 0.346380 0.794521
  0 0.000004 -13.800000 -1.290000 -0.382686 0.005511 -0.923862 0.346380 0.776908
vampire_gaebulg_v.bmp
  0 -2.449996 -14.170001 -1.080000 -0.634678 -0.589456 0.499725 0.694716 0.647750
  0 -0.979995 -15.240000 -0.490000 -0.634678 -0.589456 0.499725 0.657534 0.616438
  0 -2.549996 -13.760001 -0.730000 -0.634678 -0.589456 0.499725 0.706458 0.641879
vampire_gaebulg_v.bmp
  0 -2.549996 -13.760001 -0.730000 -0.634678 -0.589456 0.499725 0.706458 0.641879
  0 -0.979995 -15.240000 -0.490000 -0.634678 -0.589456 0.499725 0.657534 0.616438
  0 -1.169995 -14.600001 0.050000 -0.634678 -0.589456 0.499725 0.679061 0.606654
vampire_gaebulg_v.bmp
  0 -2.289996 -13.760001 -1.410000 -0.114010 -0.591595 -0.798133 0.731898 0.630137
  0 -0.749995 -14.600001 -1.010000 -0.114010 -0.591595 -0.798133 0.722114 0.587084
  0 -2.449996 -14.170001 -1.080000 -0.114010 -0.591595 -0.798133 0.743640 0.624266
vampire_gaebulg_v.bmp
  0 -2.449996 -14.170001 -1.080000 -0.114010 -0.591595 -0.798133 0.743640 0.624266
  0 -0.749995 -14.600001 -1.010000 -0.114010 -0.591595 -0.798133 0.722114 0.587084
  0 -0.979995 -15.240000 -0.490000 -0.114010 -0.591595 -0.798133 0.741683 0.575342
vampire_gaebulg_v.bmp
  0 -0.359996 -13.760000 2.460000 -0.697429 -0.588392 0.409130 0.657534 0.121331
  0 -0.569995 -14.600001 0.900000 -0.697429 -0.588392 0.409130 0.606654 0.111546
  0 0.000004 -14.170000 2.490000 -0.697429 -0.588392 0.409130 0.657534 0.105675
vampire_gaebulg_v.bmp
  0 0.000004 -14.170000 2.490000 -0.697429 -0.588392 0.409130 0.657534 0.105675
  0 -0.569995 -14.600001 0.900000 -0.697429 -0.588392 0.409130 0.606654 0.111546
  0 0.000005 -15.240000 0.900000 -0.697429 -0.588392 0.409130 0.602740 0.086106
vampire_gaebulg_v.bmp
  0 0.829990 32.820000 0.740000 0.382675 0.005507 0.923867 0.776908 0.324853
  0 -0.000010 32.820000 1.080000 0.382675 0.005507 0.923867 0.767123 0.324853
  0 0.849992 27.150000 0.760000 0.382675 0.005507 0.923867 0.776908 0.467710
vampire_gaebulg_v.bmp
  0 0.849992 27.150000 0.760000 0.382675 0.005507 0.923867 0.776908 0.467710
  0 -0.000010 32.820000 1.080000 0.382675 0.005507 0.923867 0.767123 0.324853
  0 -0.000009 27.150000 1.120000 0.382675 0.005507 0.923867 0.767123 0.467710
vampire_gaebulg_v.bmp
  0 1.179990 32.820000 -0.090000 0.923867 0.005511 0.382674 0.788650 0.324853
  0 0.829990 32.820000 0.740000 0.923867 0.005511 0.382674 0.776908 0.324853
  0 1.209992 27.150000 -0.090000 0.923867 0.005511 0.382674 0.788650 0.467710
vampire_gaebulg_v.bmp
  0 1.209992 27.150000 -0.090000 0.923867 0.005511 0.382674 0.788650 0.467710
  0 0.829990 32.820000 0.740000 0.923867 0.005511 0.382674 0.776908 0.324853
  0 0.849992 27.150000 0.760000 0.923867 0.005511 0.382674 0.776908 0.467710
vampire_gaebulg_v.bmp
  0 0.829990 32.820000 -0.930000 0.923867 0.005512 -0.382674 0.800391 0.324853
  0 1.179990 32.820000 -0.090000 0.923867 0.005512 -0.382674 0.788650 0.324853
  0 0.849992 27.150000 -0.950000 0.923867 0.005512 -0.382674 0.800391 0.467710
vampire_gaebulg_v.bmp
  0 0.849992 27.150000 -0.950000 0.923867 0.005512 -0.382674 0.800391 0.467710
  0 1.179990 32.820000 -0.090000 0.923867 0.005512 -0.382674 0.788650 0.324853
  0 1.209992 27.150000 -0.090000 0.923867 0.005512 -0.382674 0.788650 0.467710
vampire_gaebulg_v.bmp
  0 -0.000010 32.820000 -1.270000 0.382677 0.005513 -0.923866 0.810176 0.324853
  0 0.829990 32.820000 -0.930000 0.382677 0.005513 -0.923866 0.800391 0.324853
  0 -0.000009 27.150000 -1.310000 0.382677 0.005513 -0.923866 0.810176 0.467710
vampire_gaebulg_v.bmp
  0 -0.000009 27.150000 -1.310000 0.382677 0.005513 -0.923866 0.810176 0.467710
  0 0.829990 32.820000 -0.930000 0.382677 0.005513 -0.923866 0.800391 0.324853
  0 0.849992 27.150000 -0.950000 0.382677 0.005513 -0.923866 0.800391 0.467710
vampire_gaebulg_v.bmp
  0 0.840003 -10.490000 0.750000 0.382675 0.005507 0.923867 0.745597 0.446184
  0 0.000003 -10.490000 1.100000 0.382675 0.005507 0.923867 0.745597 0.430528
  0 0.840004 -11.630000 0.750000 0.382675 0.005507 0.923867 0.726027 0.446184
vampire_gaebulg_v.bmp
  0 0.840004 -11.630000 0.750000 0.382675 0.005507 0.923867 0.726027 0.446184
  0 0.000003 -10.490000 1.100000 0.382675 0.005507 0.923867 0.745597 0.430528
  0 0.000004 -11.630000 1.100000 0.382675 0.005507 0.923867 0.726027 0.430528
vampire_gaebulg_v.bmp
  0 1.190003 -10.489999 -0.090000 0.923867 0.005511 0.382674 0.745597 0.461840
  0 0.840003 -10.490000 0.750000 0.923867 0.005511 0.382674 0.745597 0.446184
  0 1.190004 -11.630000 -0.090000 0.923867 0.005511 0.382674 0.726027 0.461840
vampire_gaebulg_v.bmp
  0 1.190004 -11.630000 -0.090000 0.923867 0.005511 0.382674 0.726027 0.461840
  0 0.840003 -10.490000 0.750000 0.923867 0.005511 0.382674 0.745597 0.446184
  0 0.840004 -11.630000 0.750000 0.923867 0.005511 0.382674 0.726027 0.446184
vampire_gaebulg_v.bmp
  0 0.840003 -10.490000 -0.940000 0.923867 0.005512 -0.382674 0.745597 0.477495
  0 1.190003 -10.489999 -0.090000 0.923867 0.005512 -0.382674 0.745597 0.461840
  0 0.840004 -11.630000 -0.940000 0.923867 0.005512 -0.382674 0.726027 0.477495
vampire_gaebulg_v.bmp
  0 0.840004 -11.630000 -0.940000 0.923867 0.005512 -0.382674 0.726027 0.477495
  0 1.190003 -10.489999 -0.090000 0.923867 0.005512 -0.382674 0.745597 0.461840
  0 1.190004 -11.630000 -0.090000 0.923867 0.005512 -0.382674 0.726027 0.461840
vampire_gaebulg_v.bmp
  0 0.000003 -10.490000 -1.290000 0.382677 0.005513 -0.923866 0.745597 0.491194
  0 0.840003 -10.490000 -0.940000 0.382677 0.005513 -0.923866 0.745597 0.477495
  0 0.000004 -11.630000 -1.290000 0.382677 0.005513 -0.923866 0.726027 0.491194
vampire_gaebulg_v.bmp
  0 0.000004 -11.630000 -1.290000 0.382677 0.005513 -0.923866 0.726027 0.491194
  0 0.840003 -10.490000 -0.940000 0.382677 0.005513 -0.923866 0.745597 0.477495
  0 0.840004 -11.630000 -0.940000 0.382677 0.005513 -0.923866 0.726027 0.477495
vampire_gaebulg_v.bmp
  0 0.840004 -13.800000 0.750000 0.382675 0.005507 0.923867 0.346380 0.831703
  0 0.000004 -13.800000 1.100000 0.382675 0.005507 0.923867 0.346380 0.847358
  0 0.840005 -15.319999 0.750000 0.382675 0.005507 0.923867 0.379648 0.831703
vampire_gaebulg_v.bmp
  0 0.840005 -15.319999 0.750000 0.382675 0.005507 0.923867 0.379648 0.831703
  0 0.000004 -13.800000 1.100000 0.382675 0.005507 0.923867 0.346380 0.847358
  0 0.000005 -15.320000 1.100000 0.382675 0.005507 0.923867 0.379648 0.847358
vampire_gaebulg_v.bmp
  0 1.190004 -13.800000 -0.090000 0.923867 0.005511 0.382674 0.346380 0.812133
  0 0.840004 -13.800000 0.750000 0.923867 0.005511 0.382674 0.346380 0.831703
  0 1.190005 -15.319999 -0.090000 0.923867 0.005511 0.382674 0.379648 0.812133
vampire_gaebulg_v.bmp
  0 1.190005 -15.319999 -0.090000 0.923867 0.005511 0.382674 0.379648 0.812133
  0 0.840004 -13.800000 0.750000 0.923867 0.005511 0.382674 0.346380 0.831703
  0 0.840005 -15.319999 0.750000 0.923867 0.005511 0.382674 0.379648 0.831703
vampire_gaebulg_v.bmp
  0 0.840004 -13.800000 -0.940000 0.923867 0.005512 -0.382674 0.346380 0.794521
  0 1.190004 -13.800000 -0.090000 0.923867 0.005512 -0.382674 0.346380 0.812133
  0 0.840005 -15.319999 -0.940000 0.923867 0.005512 -0.382674 0.379648 0.794521
vampire_gaebulg_v.bmp
  0 0.840005 -15.319999 -0.940000 0.923867 0.005512 -0.382674 0.379648 0.794521
  0 1.190004 -13.800000 -0.090000 0.923867 0.005512 -0.382674 0.346380 0.812133
  0 1.190005 -15.319999 -0.090000 0.923867 0.005512 -0.382674 0.379648 0.812133
vampire_gaebulg_v.bmp
  0 0.000004 -13.800000 -1.290000 0.382677 0.005513 -0.923866 0.346380 0.776908
  0 0.840004 -13.800000 -0.940000 0.382677 0.005513 -0.923866 0.346380 0.794521
  0 0.000005 -15.320000 -1.290000 0.382677 0.005513 -0.923866 0.379648 0.776908
vampire_gaebulg_v.bmp
  0 0.000005 -15.320000 -1.290000 0.382677 0.005513 -0.923866 0.379648 0.776908
  0 0.840004 -13.800000 -0.940000 0.382677 0.005513 -0.923866 0.346380 0.794521
  0 0.840005 -15.319999 -0.940000 0.382677 0.005513 -0.923866 0.379648 0.794521
vampire_gaebulg_v.bmp
  0 1.170005 -14.600000 0.050000 0.637762 -0.594370 0.489882 0.679061 0.606654
  0 0.980005 -15.239999 -0.490000 0.637762 -0.594370 0.489882 0.657534 0.616438
  0 2.550004 -13.759999 -0.730000 0.637762 -0.594370 0.489882 0.706458 0.641879
vampire_gaebulg_v.bmp
  0 2.550004 -13.759999 -0.730000 0.637762 -0.594370 0.489882 0.706458 0.641879
  0 0.980005 -15.239999 -0.490000 0.637762 -0.594370 0.489882 0.657534 0.616438
  0 2.450004 -14.169999 -1.080000 0.637762 -0.594370 0.489882 0.694716 0.647750
vampire_gaebulg_v.bmp
  0 0.980005 -15.239999 -0.490000 0.116049 -0.598687 -0.792532 0.741683 0.575342
  0 0.750005 -14.600000 -1.010000 0.116049 -0.598687 -0.792532 0.722114 0.587084
  0 2.450004 -14.169999 -1.080000 0.116049 -0.598687 -0.792532 0.743640 0.624266
vampire_gaebulg_v.bmp
  0 2.450004 -14.169999 -1.080000 0.116049 -0.598687 -0.792532 0.743640 0.624266
  0 0.750005 -14.600000 -1.010000 0.116049 -0.598687 -0.792532 0.722114 0.587084
  0 2.290004 -13.760000 -1.410000 0.116049 -0.598687 -0.792532 0.731898 0.630137
vampire_gaebulg_v.bmp
  0 0.000005 -15.240000 0.900000 0.682706 -0.605801 0.408555 0.602740 0.086106
  0 0.570005 -14.600000 0.900000 0.682706 -0.605801 0.408555 0.606654 0.111546
  0 0.000004 -14.170000 2.490000 0.682706 -0.605801 0.408555 0.657534 0.105675
vampire_gaebulg_v.bmp
  0 0.000004 -14.170000 2.490000 0.682706 -0.605801 0.408555 0.657534 0.105675
  0 0.570005 -14.600000 0.900000 0.682706 -0.605801 0.408555 0.606654 0.111546
  0 0.360004 -13.760000 2.460000 0.682706 -0.605801 0.408555 0.657534 0.121331
vampire_gaebulg_v.bmp
  0 -0.850009 27.149999 0.760000 0.000034 -1.000000 -0.000602 0.506849 0.211350
  0 -1.210009 27.149999 -0.090000 0.000034 -1.000000 -0.000602 0.500978 0.195695
  0 -0.000009 27.150000 1.120000 0.000034 -1.000000 -0.000602 0.520548 0.217221
vampire_gaebulg_v.bmp
  0 -0.839996 -11.630000 0.750000 0.000034 -1.000000 -0.000602 0.774951 0.105675
  0 -1.189996 -11.630000 -0.090000 0.000034 -1.000000 -0.000602 0.778865 0.117417
  0 0.000004 -11.630000 1.100000 0.000034 -1.000000 -0.000602 0.761252 0.099804
vampire_gaebulg_v.bmp
  0 -0.839995 -15.320000 0.750000 0.000034 -1.000000 -0.000602 0.774951 0.727984
  0 -1.189995 -15.320000 -0.090000 0.000034 -1.000000 -0.000602 0.780822 0.714286
  0 0.000005 -15.320000 1.100000 0.000034 -1.000000 -0.000602 0.761252 0.733855
vampire_gaebulg_v.bmp
  0 0.000008 -24.969999 0.230000 -0.482976 -0.297665 0.823486 0.814090 0.258317
  0 0.000007 -23.090000 0.910000 -0.482976 -0.297665 0.823486 0.755382 0.277886
  0 -0.709993 -22.750000 0.610000 -0.482976 -0.297665 0.823486 0.751468 0.266145
vampire_gaebulg_v.bmp
  0 0.000008 -24.969999 0.230000 -0.951870 -0.306428 0.006686 0.814090 0.258317
  0 -0.709993 -22.750000 0.610000 -0.951870 -0.306428 0.006686 0.751468 0.266145
  0 -0.999993 -21.850001 -0.090000 -0.951870 -0.306428 0.006686 0.741683 0.250489
vampire_gaebulg_v.bmp
  0 0.000008 -24.969999 0.230000 -0.658018 -0.285351 -0.696841 0.814090 0.258317
  0 -0.999993 -21.850001 -0.090000 -0.658018 -0.285351 -0.696841 0.741683 0.250489
  0 -0.709993 -20.790001 -0.800000 -0.658018 -0.285351 -0.696841 0.729941 0.236791
vampire_gaebulg_v.bmp
  0 0.000008 -24.969999 0.230000 -0.202532 -0.268634 -0.941709 0.814090 0.258317
  0 -0.709993 -20.790001 -0.800000 -0.202532 -0.268634 -0.941709 0.729941 0.236791
  0 0.000006 -20.290001 -1.100000 -0.202532 -0.268634 -0.941709 0.727984 0.225049
vampire_gaebulg_v.bmp
  0 -2.449996 -14.170001 -1.080000 -0.737801 -0.537153 0.408798 0.694716 0.647750
  0 -2.549996 -13.760001 -0.730000 -0.737801 -0.537153 0.408798 0.706458 0.641879
  0 -3.809996 -12.710001 -1.620000 -0.737801 -0.537153 0.408798 0.739726 0.675147
vampire_gaebulg_v.bmp
  0 -2.289996 -13.760001 -1.410000 -0.255295 -0.538234 -0.803199 0.731898 0.630137
  0 -2.449996 -14.170001 -1.080000 -0.255295 -0.538234 -0.803199 0.743640 0.624266
  0 -3.809996 -12.710001 -1.620000 -0.255295 -0.538234 -0.803199 0.739726 0.675147
vampire_gaebulg_v.bmp
  0 -0.359996 -13.760000 2.460000 -0.651368 -0.536581 0.536470 0.657534 0.121331
  0 0.000004 -14.170000 2.490000 -0.651368 -0.536581 0.536470 0.657534 0.105675
  0 0.000004 -12.710000 3.940000 -0.651368 -0.536581 0.536470 0.712329 0.135029
vampire_gaebulg_v.bmp
  0 1.209992 27.150000 -0.090000 0.000034 -1.000000 -0.000602 0.500978 0.195695
  0 -0.000009 27.150000 -1.310000 0.000034 -1.000000 -0.000602 0.520548 0.174168
  0 0.849992 27.150000 -0.950000 0.000034 -1.000000 -0.000602 0.506849 0.180039
vampire_gaebulg_v.bmp
  0 1.190004 -11.630000 -0.090000 0.000034 -1.000000 -0.000602 0.778865 0.117417
  0 0.000004 -11.630000 -1.290000 0.000034 -1.000000 -0.000602 0.761252 0.135029
  0 0.840004 -11.630000 -0.940000 0.000034 -1.000000 -0.000602 0.772994 0.131115
vampire_gaebulg_v.bmp
  0 0.710007 -22.750000 0.610000 0.382675 0.005507 0.923867 0.751468 0.266145
  0 0.000002 -6.360000 0.910000 0.382675 0.005507 0.923867 0.485323 0.277886
  0 0.000007 -23.090000 0.910000 0.382675 0.005507 0.923867 0.755382 0.277886
vampire_gaebulg_v.bmp
  0 1.000007 -21.850000 -0.090000 0.923867 0.005511 0.382674 0.741683 0.250489
  0 0.710002 -6.190000 0.610000 0.923867 0.005511 0.382674 0.483366 0.266145
  0 0.710007 -22.750000 0.610000 0.923867 0.005511 0.382674 0.751468 0.266145
vampire_gaebulg_v.bmp
  0 0.710007 -20.790001 -0.800000 0.923867 0.005512 -0.382674 0.729941 0.236791
  0 1.000002 -5.739999 -0.090000 0.923867 0.005512 -0.382674 0.479452 0.250489
  0 1.000007 -21.850000 -0.090000 0.923867 0.005512 -0.382674 0.741683 0.250489
vampire_gaebulg_v.bmp
  0 0.000006 -20.290001 -1.100000 0.382677 0.005513 -0.923866 0.727984 0.225049
  0 0.710002 -5.210000 -0.800000 0.382677 0.005513 -0.923866 0.473581 0.236791
  0 0.710007 -20.790001 -0.800000 0.382677 0.005513 -0.923866 0.729941 0.236791
vampire_gaebulg_v.bmp
  0 1.190005 -15.319999 -0.090000 0.000034 -1.000000 -0.000602 0.780822 0.714286
  0 0.000005 -15.320000 -1.290000 0.000034 -1.000000 -0.000602 0.761252 0.692759
  0 0.840005 -15.319999 -0.940000 0.000034 -1.000000 -0.000602 0.774951 0.698630
vampire_gaebulg_v.bmp
  0 0.710007 -22.750000 0.610000 0.482975 -0.297665 0.823487 0.751468 0.266145
  0 0.000007 -23.090000 0.910000 0.482975 -0.297665 0.823487 0.755382 0.277886
  0 0.000008 -24.969999 0.230000 0.482975 -0.297665 0.823487 0.814090 0.258317
vampire_gaebulg_v.bmp
  0 1.000007 -21.850000 -0.090000 0.951870 -0.306429 0.006684 0.741683 0.250489
  0 0.710007 -22.750000 0.610000 0.951870 -0.306429 0.006684 0.751468 0.266145
  0 0.000008 -24.969999 0.230000 0.951870 -0.306429 0.006684 0.814090 0.258317
vampire_gaebulg_v.bmp
  0 0.710007 -20.790001 -0.800000 0.658017 -0.285352 -0.696841 0.729941 0.236791
  0 1.000007 -21.850000 -0.090000 0.658017 -0.285352 -0.696841 0.741683 0.250489
  0 0.000008 -24.969999 0.230000 0.658017 -0.285352 -0.696841 0.814090 0.258317
vampire_gaebulg_v.bmp
  0 0.000006 -20.290001 -1.100000 0.202532 -0.268634 -0.941709 0.727984 0.225049
  0 0.710007 -20.790001 -0.800000 0.202532 -0.268634 -0.941709 0.729941 0.236791
  0 0.000008 -24.969999 0.230000 0.202532 -0.268634 -0.941709 0.814090 0.258317
vampire_gaebulg_v.bmp
  0 3.810004 -12.709999 -1.620000 0.737801 -0.537154 0.408798 0.739726 0.675147
  0 2.550004 -13.759999 -0.730000 0.737801 -0.537154 0.408798 0.706458 0.641879
  0 2.450004 -14.169999 -1.080000 0.737801 -0.537154 0.408798 0.694716 0.647750
vampire_gaebulg_v.bmp
  0 3.810004 -12.709999 -1.620000 0.255294 -0.538235 -0.803199 0.739726 0.675147
  0 2.450004 -14.169999 -1.080000 0.255294 -0.538235 -0.803199 0.743640 0.624266
  0 2.290004 -13.760000 -1.410000 0.255294 -0.538235 -0.803199 0.731898 0.630137
vampire_gaebulg_v.bmp
  0 0.000004 -12.710000 3.940000 0.651366 -0.536583 0.536472 0.712329 0.135029
  0 0.000004 -14.170000 2.490000 0.651366 -0.536583 0.536472 0.657534 0.105675
  0 0.360004 -13.760000 2.460000 0.651366 -0.536583 0.536472 0.657534 0.121331
end
