// Created by Crowbar 0.34.0.0

$ModelName "weapons/tfa_cso/w_m14.mdl"

$BodyGroup "studio"
{
	studio "v_m14ebr_REF"
}

$collisionmodel "v_m14ebr_REF.smd"
{
	$mass 9
}

$CDMaterials "models\weapons\tfa_cso\m14"

$attachment "0" "root" 0.00 -22.60 0.60 rotate -0 0 0

$Sequence "idle" {
	"anims\idle.smd"
	fps 30
}