// Created by Crowbar 0.49.0.0

$modelname "weapons/tfa_cso/c_ak47red.mdl"

$Include "csonline_gmod.qci"

$bodygroup "weapon"
{
	studio "v_ak47red_v_ref"
}

$CDMaterials "models\weapons\tfa_cso\ak47red"

$attachment 0 "Bone_Lefthand" 2.75 -22.5 2.9
//$attachment 1 "Bone52" 0 -3 0

$definebone "Bone01" "" 8.108126 3.168916 -8.096398 -71.122112 17.851244 -30.884374 -0.000000 -0.000000 0.000000 0.000002 0.000000 0.000001
$definebone "Bone_Lefthand" "Bone01" 0.000000 -8.563285 0.000000 -5.221936 -8.045301 19.749286 0.000000 0.000000 -0.000000 -0.000001 -0.000001 0.000000
$definebone "Bone_AK47" "Bone_Lefthand" -0.796052 -3.159776 -0.387816 77.661403 -26.498788 -27.912210 0.000000 0.000000 0.000000 -0.000000 -0.000001 -0.000000
$definebone "Bone03" "Bone_AK47" -0.000001 2.160511 0.950625 -0.000000 -0.000001 -0.000000 0.000000 0.000000 0.000000 -0.000000 -0.000001 -0.000000
$definebone "Bone25" "Bone03" 0.000001 -3.344301 1.710279 -0.000000 -0.000001 -0.000000 0.000000 0.000000 0.000000 -0.000000 -0.000001 -0.000000
$definebone "Bone48" "Bone03" 0.000002 -4.793800 0.448359 -0.000000 -0.000001 -0.000000 0.000000 0.000000 0.000000 -0.000000 -0.000001 -0.000000
$definebone "Bone50" "Bone03" 0.000003 -6.345617 1.761433 -0.000000 -0.000001 -0.000000 0.000000 0.000000 0.000000 -0.000000 -0.000001 -0.000000
$definebone "Bone52" "Bone03" 0.000002 -5.765821 2.989243 -0.000000 -0.000001 -0.000000 0.000000 0.000000 0.000000 -0.000000 -0.000001 -0.000000

$sequence "idle1" {
	"v_ak47red_anims\idle1"
	fps 30
	activity "ACT_VM_IDLE" 1
	snap
	loop
}
$sequence "reload" {
	"v_ak47red_anims\reload"
	{ event 5004 13 "AK47.ClipOut" }
	{ event 5004 57 "AK47.ClipIn" }
	fps 37
	activity "ACT_VM_RELOAD" 1
	snap
}
$sequence "draw" {
	"v_ak47red_anims\draw"
	{ event 5004 11 "AK47.Draw" }
	fps 30
	activity "ACT_VM_DRAW" 1
	snap
}
$sequence "shoot1" {
	"v_ak47red_anims\shoot1"
	{ event 5001 0 "22" }
	fps 20
	activity "ACT_VM_PRIMARYATTACK" 1
	snap
}
$sequence "shoot2" {
	"v_ak47red_anims\shoot2"
	{ event 5001 0 "22" }
	fps 20
	activity "ACT_VM_PRIMARYATTACK" 2
	snap
}
$sequence "shoot3" {
	"v_ak47red_anims\shoot3"
	{ event 5001 0 "22" }
	fps 20
	activity "ACT_VM_PRIMARYATTACK" 3
	snap
}
