// Created by Crowbar 0.34.0.0

$ModelName "weapons/tfa_cso/w_volcano_v6.mdl"

$BodyGroup "studio"
{
	studio "v_gatling_d3a3_v_ref"
}

$collisionmodel "v_gatling_d3a3_v_ref.smd"
{
	$mass 9
}

$CDMaterials "models\weapons\tfa_cso\volcano_v6"

$attachment "0" "root" 1.20 -19.30 -0.20 rotate -0 0 0

$Sequence "idle" {
	"anims\idle.smd"
	fps 30
}