// Created by Crowbar 0.49.0.0

$modelname "weapons/tfa_cso/c_p90lapin.mdl"

$Include "csonline_gmod.qci"

$bodygroup "weapon"
{
	studio "v_p90lapin_f_p90[Lapin]_weapon"
}

$CDMaterials "models\weapons\tfa_cso\p90lapin\"

$attachment 0 "Bone 04" 1.9 -8.6 1.5
//$attachment 1 "Bone48" 1 -2 0

$definebone "Bone01" "" 0.497702 0.002174 -0.149878 -0.012834 -89.771431 179.847612 -0.000000 0.000000 0.000000 0.000000 0.000000 -0.000000
$definebone "Bone_Lefthand" "Bone01" -0.071918 -8.498729 -0.104137 16.477755 0.853593 -1.435030 -0.000000 0.000001 -0.000000 0.000005 0.000000 -0.000000
$definebone "Bone 04" "Bone_Lefthand" -0.003480 -0.404828 0.000000 0.000005 0.000000 -0.000000 0.000000 -0.000001 -0.000000 0.000005 0.000000 -0.000000
$definebone "Bone02" "Bone_Lefthand" 15.495480 4.420492 2.904531 1.757758 -90.554813 -163.523460 0.000000 0.000000 0.000000 0.000000 0.000000 -0.000005
$definebone "Bone03" "Bone02" 0.000000 0.743006 1.588492 0.000000 0.000000 -0.000005 0.000000 0.000000 0.000000 0.000000 0.000000 -0.000005
$definebone "Bone50" "Bone03" 0.000000 3.192657 2.044578 0.000000 0.000000 -0.000005 0.000000 0.000000 0.000000 0.000000 0.000000 -0.000005
$definebone "Bone48" "Bone03" 0.000000 1.878594 2.044578 0.000000 0.000000 -0.000005 0.000000 0.000000 0.000000 0.000000 0.000000 -0.000005
$definebone "AddBone05" "Bone02" -0.019827 -0.426563 4.971294 -19.722270 90.001738 -90.000017 0.000000 0.000000 0.000000 -0.000000 0.000005 -0.000000
$definebone "AddBone03" "Bone02" 0.276650 -3.399290 5.573969 -43.641399 0.526028 89.638154 0.000000 0.000000 0.000000 -0.000003 0.000007 0.000004
$definebone "AddBone04" "AddBone03" 1.704293 0.000000 0.000002 -13.381718 2.797818 0.000004 0.000001 0.000000 0.000000 0.000000 0.000003 0.000002
$definebone "AddBone01" "Bone02" -0.248656 -3.399303 5.551128 -37.852390 -164.941352 -99.373666 -0.000000 0.000000 0.000000 -0.000005 0.000000 -0.000003
$definebone "AddBone02" "AddBone01" 1.839642 0.000000 0.000000 -22.005019 134.096013 0.639363 0.000000 -0.000000 0.000000 0.000003 -0.000002 0.000001
$definebone "Bone25" "Bone03" 0.000000 -1.490625 0.407971 0.000000 0.000000 -0.000005 0.000000 0.000000 0.000000 0.000000 0.000000 -0.000005

$sequence "idle" {
	"v_p90lapin_anims\idle"
	fps 30
	loop
	activity "ACT_VM_IDLE" 1
	snap
}
$sequence "reload" {
	"v_p90lapin_anims\reload"
	{ event 5004 17 "P90.ClipRelease" }
	{ event 5004 35 "P90.ClipOut" }
	{ event 5004 75 "P90.ClipIn" }
	{ event 5004 108 "P90.Draw" }
	fps 40
	activity "ACT_VM_RELOAD" 1
	snap
}
$sequence "draw" {
	"v_p90lapin_anims\draw"
	{ event 5004 9 "P90.Draw" }
	fps 30
	activity "ACT_VM_DRAW" 1
	snap
}
$sequence "shoot1" {
	"v_p90lapin_anims\shoot1"
	{ event 5001 0 "12" }
	fps 30
	activity "ACT_VM_PRIMARYATTACK" 1
	snap
}
$sequence "shoot2" {
	"v_p90lapin_anims\shoot2"
	{ event 5001 0 "12" }
	fps 30
	activity "ACT_VM_PRIMARYATTACK" 2
	snap
}
$sequence "shoot3" {
	"v_p90lapin_anims\shoot3"
	{ event 5001 0 "12" }
	fps 30
	activity "ACT_VM_PRIMARYATTACK" 3
	snap
}
