version 1
nodes
  0 "argus5_root" -1
  1 "argus5_magazine" 0
  2 "argus5_lever" 0
  3 "argus5_scope_bone" 0
  4 "scope_R" 3
  5 "scope_L" 3
  6 "EF" 3
  7 "root" -1
  8 "Bone01" 7
  9 "Bone_L_Upper" 8
  10 "Bone_Lefthand" 8
  11 "Bone13" 10
  12 "Bone14" 11
  13 "Bone15" 12
  14 "Bone17" 10
  15 "Bone18" 14
  16 "Bone19" 15
  17 "Bone21" 10
  18 "Bone22" 17
  19 "Bone23" 18
  20 "Bone09" 10
  21 "Bone10" 20
  22 "Bone11" 21
  23 "Bone05" 10
  24 "Bone06" 23
  25 "Bone07" 24
  26 "Bone_Se_Hand-L" 10
  27 "Bone04" 7
  28 "Bone_Righthand" 27
  29 "Bone39" 28
  30 "Bone40" 29
  31 "Bone41" 30
  32 "Bone35" 28
  33 "Bone36" 32
  34 "Bone37" 33
  35 "Bone31" 28
  36 "Bone32" 35
  37 "Bone33" 36
  38 "Bone43" 28
  39 "Bone44" 38
  40 "Bone45" 39
  41 "Bone27" 28
  42 "Bone28" 41
  43 "Bone29" 42
  44 "Bone_Se_Hand-R" 28
  45 "Bone_R_Upper" 27
end
skeleton
  time 0
    0 4.616623 -5.029098 -4.454035 -1.564061 -3.089489 1.494596
    1 5.535558 -1.455844 -0.000001 0.000000 0.000000 -1.364276
    2 6.967555 -0.456137 0.775243 1.570767 -1.566682 1.570854
    3 0.582934 2.836327 -0.000001 0.000000 0.000000 0.000000
    4 0.793143 -0.094784 -0.021412 -1.570775 1.559439 1.570817
    5 0.793143 -0.094784 -0.021412 1.570775 1.582159 1.570775
    6 -0.205318 -0.032883 -0.000050 -1.570797 0.000000 0.000000
    7 0.001265 -0.569176 -20.601572 0.000000 0.000000 0.000000
    8 9.310103 -5.299614 -12.557959 3.138909 -0.000224 -1.566807
    9 1.257180 8.762585 -0.153713 -1.570562 0.002683 -1.566807
    10 -0.071921 -8.498736 -0.104134 -0.025046 0.287591 0.014898
    11 -0.488518 -2.755602 -0.228260 0.106454 0.010332 -0.264490
    12 0.039887 -1.479790 0.029854 -0.055395 0.000000 0.000001
    13 0.028786 -1.075731 -0.023109 0.002099 0.000000 0.000000
    14 0.250027 -2.820665 -0.238396 0.041826 -0.002921 0.008443
    15 -0.049759 -1.680544 0.100479 0.019826 0.000000 -0.000002
    16 -0.034142 -1.148312 0.084782 -0.040115 0.000000 0.000000
    17 0.957766 -2.746780 -0.090302 -0.017221 -0.162277 0.191558
    18 -0.033420 -1.397129 -0.011257 0.013931 0.000000 -0.000001
    19 -0.022360 -0.957436 0.018784 0.003845 0.000000 0.000000
    20 -1.180681 -2.507217 -0.193859 0.082999 0.013294 -0.477915
    21 -0.024967 -1.123934 0.017597 -0.018065 0.000000 0.000001
    22 -0.020057 -0.890968 0.010090 -0.060797 0.000000 0.000000
    23 0.583510 -1.197277 0.185379 0.158049 -0.404973 -0.364290
    24 1.535927 0.010246 0.005009 -0.002964 -0.012979 0.000887
    25 1.100771 0.004527 -0.010679 -0.002796 0.015973 0.003458
    26 0.120153 -0.050270 -0.054489 0.287569 3.110905 1.561085
    27 -9.310107 -5.231260 -12.513384 0.004984 -3.131565 -1.566847
    28 0.096944 -8.450418 -0.009365 -0.032965 -0.297907 -0.004663
    29 0.447953 -2.798986 -0.200443 0.106456 -0.010396 0.265094
    30 -0.032909 -1.480204 0.004940 -0.055403 0.000000 0.000002
    31 -0.027022 -1.076920 -0.020210 0.002094 0.000000 0.000000
    32 -0.249534 -2.846964 -0.174213 0.041903 -0.000125 -0.008396
    33 0.043235 -1.683941 0.096012 0.019757 0.002823 -0.000167
    34 0.031729 -1.160830 0.058838 -0.040181 0.000642 0.008372
    35 -0.963866 -2.785145 -0.085350 -0.017227 0.162276 -0.191556
    36 0.028479 -1.403067 0.006271 0.013941 0.000000 0.000000
    37 0.021413 -0.957781 0.020046 0.003851 0.000000 0.000000
    38 1.164475 -2.543940 -0.170330 0.083003 -0.013294 0.477915
    39 0.024032 -1.129042 0.017807 -0.018074 0.000000 0.000001
    40 0.014898 -0.883989 -0.019848 -0.060801 0.000000 0.000000
    41 -0.586770 -1.264477 0.200161 -0.152092 -0.410513 -2.814816
    42 1.522835 0.058681 0.016848 0.001410 0.008985 -0.046880
    43 1.117947 0.048424 -0.005766 -0.000243 -0.025198 0.065422
    44 -0.139399 -0.111698 0.014397 0.285382 -0.030687 1.580508
    45 -1.393470 8.839177 -0.239433 1.580804 -0.005023 -1.566847
end
triangles
argus5_lense_1.bmp
  3 4.558498 -5.590803 -2.165254 0.050690 0.727740 0.683977 0.007874 0.000000
  3 4.690975 -5.685785 -2.059763 -0.171326 0.742843 0.647172 0.086614 0.055118
  3 4.717951 -5.601354 -2.134219 -0.171326 0.742843 0.647172 0.086614 0.000000
argus5_lense_1.bmp
  3 4.717951 -5.601354 -2.134219 -0.171326 0.742843 0.647172 0.086614 0.000000
  3 4.690975 -5.685785 -2.059763 -0.171326 0.742843 0.647172 0.086614 0.055118
  3 4.877295 -5.609807 -2.063239 -0.371490 0.752724 0.543509 0.204724 0.000000
argus5_lense_1.bmp
  3 4.690975 -5.685785 -2.059763 -0.171326 0.742843 0.647172 0.086614 0.055118
  3 4.820405 -5.691965 -1.988985 -0.371490 0.752724 0.543509 0.204724 0.055118
  3 4.877295 -5.609807 -2.063239 -0.371490 0.752724 0.543509 0.204724 0.000000
argus5_lense_1.bmp
  3 4.877295 -5.609807 -2.063239 -0.371490 0.752724 0.543509 0.204724 0.000000
  3 4.820405 -5.691965 -1.988985 -0.371490 0.752724 0.543509 0.204724 0.055118
  3 4.996617 -5.612607 -1.942598 -0.530051 0.756445 0.383192 0.307087 0.000000
argus5_lense_1.bmp
  3 4.820405 -5.691965 -1.988985 -0.371490 0.752724 0.543509 0.204724 0.055118
  3 4.919841 -5.694298 -1.888450 -0.530051 0.756445 0.383192 0.307087 0.055118
  3 4.996617 -5.612607 -1.942598 -0.530051 0.756445 0.383192 0.307087 0.000000
argus5_lense_1.bmp
  3 4.996617 -5.612607 -1.942598 -0.530051 0.756445 0.383192 0.307087 0.000000
  3 4.919841 -5.694298 -1.888450 -0.530051 0.756445 0.383192 0.307087 0.055118
  3 5.065974 -5.609521 -1.782348 -0.631654 0.753642 0.181760 0.409449 0.000000
argus5_lense_1.bmp
  3 4.919841 -5.694298 -1.888450 -0.530051 0.756445 0.383192 0.307087 0.055118
  3 4.989280 -5.692785 -1.758159 -0.631654 0.753642 0.181760 0.409449 0.055118
  3 5.065974 -5.609521 -1.782348 -0.631654 0.753642 0.181760 0.409449 0.000000
argus5_lense_1.bmp
  3 5.065974 -5.609521 -1.782348 -0.631654 0.753642 0.181760 0.409449 0.000000
  3 4.989280 -5.692785 -1.758159 -0.631654 0.753642 0.181760 0.409449 0.055118
  3 5.095447 -5.603404 -1.622367 -0.666318 0.744545 -0.040910 0.503937 0.000000
argus5_lense_1.bmp
  3 4.989280 -5.692785 -1.758159 -0.631654 0.753642 0.181760 0.409449 0.055118
  3 5.008837 -5.686959 -1.618217 -0.666318 0.744545 -0.040910 0.503937 0.055118
  3 5.095447 -5.603404 -1.622367 -0.666318 0.744545 -0.040910 0.503937 0.000000
argus5_lense_1.bmp
  3 5.095447 -5.603404 -1.622367 -0.666318 0.744545 -0.040910 0.503937 0.000000
  3 5.008837 -5.686959 -1.618217 -0.666318 0.744545 -0.040910 0.503937 0.055118
  3 5.065094 -5.592740 -1.462789 -0.630412 0.730250 -0.263277 0.598425 0.000000
argus5_lense_1.bmp
  3 5.008837 -5.686959 -1.618217 -0.666318 0.744545 -0.040910 0.503937 0.055118
  3 4.988510 -5.678102 -1.478545 -0.630412 0.730250 -0.263277 0.598425 0.055118
  3 5.065094 -5.592740 -1.462789 -0.630412 0.730250 -0.263277 0.598425 0.000000
argus5_lense_1.bmp
  3 5.065094 -5.592740 -1.462789 -0.630412 0.730250 -0.263277 0.598425 0.000000
  3 4.988510 -5.678102 -1.478545 -0.630412 0.730250 -0.263277 0.598425 0.055118
  3 4.994884 -5.579570 -1.313467 -0.528009 0.711777 -0.463227 0.700787 0.000000
argus5_lense_1.bmp
  3 4.988510 -5.678102 -1.478545 -0.630412 0.730250 -0.263277 0.598425 0.055118
  3 4.918355 -5.665980 -1.349195 -0.528009 0.711777 -0.463227 0.700787 0.055118
  3 4.994884 -5.579570 -1.313467 -0.528009 0.711777 -0.463227 0.700787 0.000000
argus5_lense_1.bmp
  3 4.994884 -5.579570 -1.313467 -0.528009 0.711777 -0.463227 0.700787 0.000000
  3 4.918355 -5.665980 -1.349195 -0.528009 0.711777 -0.463227 0.700787 0.055118
  3 4.874874 -5.563660 -1.184453 -0.368226 0.691474 -0.621509 0.795276 0.000000
argus5_lense_1.bmp
  3 4.918355 -5.665980 -1.349195 -0.528009 0.711777 -0.463227 0.700787 0.055118
  3 4.818370 -5.653159 -1.250006 -0.368226 0.691474 -0.621509 0.795276 0.055118
  3 4.874874 -5.563660 -1.184453 -0.368226 0.691474 -0.621509 0.795276 0.000000
argus5_lense_1.bmp
  3 4.874874 -5.563660 -1.184453 -0.368226 0.691474 -0.621509 0.795276 0.000000
  3 4.818370 -5.653159 -1.250006 -0.368226 0.691474 -0.621509 0.795276 0.055118
  3 4.715145 -5.547865 -1.115626 -0.167827 0.670556 -0.722626 0.889764 0.000000
argus5_lense_1.bmp
  3 4.818370 -5.653159 -1.250006 -0.368226 0.691474 -0.621509 0.795276 0.055118
  3 4.688554 -5.639637 -1.180977 -0.167827 0.670556 -0.722626 0.889764 0.055118
  3 4.715145 -5.547865 -1.115626 -0.167827 0.670556 -0.722626 0.889764 0.000000
argus5_lense_1.bmp
  3 4.715145 -5.547865 -1.115626 -0.167827 0.670556 -0.722626 0.889764 0.000000
  3 4.688554 -5.639637 -1.180977 -0.167827 0.670556 -0.722626 0.889764 0.055118
  3 4.555526 -5.534168 -1.086744 0.054645 0.651930 -0.756308 0.992126 0.000000
argus5_lense_1.bmp
  3 4.688554 -5.639637 -1.180977 -0.167827 0.670556 -0.722626 0.889764 0.055118
  3 4.548904 -5.627980 -1.161946 0.054645 0.651930 -0.756308 0.992126 0.055118
  3 4.555526 -5.534168 -1.086744 0.054645 0.651930 -0.756308 0.992126 0.000000
argus5_lense_1.bmp
  3 4.555526 -5.534168 -1.086744 0.054645 0.651930 -0.756308 0.992126 0.000000
  3 4.548904 -5.627980 -1.161946 0.054645 0.651930 -0.756308 0.992126 0.055118
  3 4.409365 -5.618420 -1.182860 0.276902 0.636746 -0.719639 0.889764 0.055118
argus5_lense_1.bmp
  3 4.551435 -5.676225 -2.080677 0.076018 0.995746 -0.052075 0.251969 0.118110
  3 4.820405 -5.691965 -1.988985 0.076018 0.995746 -0.052075 0.047244 0.322835
  3 4.690975 -5.685785 -2.059763 0.076018 0.995746 -0.052075 0.133858 0.204724
argus5_lense_1.bmp
  3 4.551435 -5.676225 -2.080677 0.076018 0.995746 -0.052075 0.251969 0.118110
  3 4.919841 -5.694298 -1.888450 0.076018 0.995746 -0.052075 0.007874 0.456693
  3 4.820405 -5.691965 -1.988985 0.076018 0.995746 -0.052075 0.047244 0.322835
argus5_lense_1.bmp
  3 4.551435 -5.676225 -2.080677 0.076018 0.995746 -0.052075 0.251969 0.118110
  3 4.989280 -5.692785 -1.758159 0.076018 0.995746 -0.052075 0.007874 0.606299
  3 4.919841 -5.694298 -1.888450 0.076018 0.995746 -0.052075 0.007874 0.456693
argus5_lense_1.bmp
  3 4.551435 -5.676225 -2.080677 0.076018 0.995746 -0.052075 0.251969 0.118110
  3 5.008837 -5.686959 -1.618217 0.076018 0.995746 -0.052075 0.047244 0.740157
  3 4.989280 -5.692785 -1.758159 0.076018 0.995746 -0.052075 0.007874 0.606299
argus5_lense_1.bmp
  3 4.551435 -5.676225 -2.080677 0.076018 0.995746 -0.052075 0.251969 0.118110
  3 4.988510 -5.678102 -1.478545 0.076018 0.995746 -0.052075 0.133858 0.858268
  3 5.008837 -5.686959 -1.618217 0.076018 0.995746 -0.052075 0.047244 0.740157
argus5_lense_1.bmp
  3 4.551435 -5.676225 -2.080677 0.076018 0.995746 -0.052075 0.251969 0.118110
  3 4.918355 -5.665980 -1.349195 0.076018 0.995746 -0.052075 0.251969 0.944882
  3 4.988510 -5.678102 -1.478545 0.076018 0.995746 -0.052075 0.133858 0.858268
argus5_lense_1.bmp
  3 4.551435 -5.676225 -2.080677 0.076018 0.995746 -0.052075 0.251969 0.118110
  3 4.818370 -5.653159 -1.250006 0.076018 0.995746 -0.052075 0.385827 0.992126
  3 4.918355 -5.665980 -1.349195 0.076018 0.995746 -0.052075 0.251969 0.944882
argus5_lense_1.bmp
  3 4.551435 -5.676225 -2.080677 0.076018 0.995746 -0.052075 0.251969 0.118110
  3 4.688554 -5.639637 -1.180977 0.076018 0.995746 -0.052075 0.535433 0.992126
  3 4.818370 -5.653159 -1.250006 0.076018 0.995746 -0.052075 0.385827 0.992126
argus5_lense_1.bmp
  3 4.551435 -5.676225 -2.080677 0.076018 0.995746 -0.052075 0.251969 0.118110
  3 4.548904 -5.627980 -1.161946 0.076018 0.995746 -0.052075 0.669291 0.944882
  3 4.688554 -5.639637 -1.180977 0.076018 0.995746 -0.052075 0.535433 0.992126
argus5_lense_1.bmp
  3 4.551435 -5.676225 -2.080677 0.076018 0.995746 -0.052075 0.251969 0.118110
  3 4.409365 -5.618420 -1.182860 0.076018 0.995746 -0.052075 0.787402 0.858268
  3 4.548904 -5.627980 -1.161946 0.076018 0.995746 -0.052075 0.669291 0.944882
argus5_lense_1.bmp
  3 4.551435 -5.676225 -2.080677 0.076018 0.995746 -0.052075 0.251969 0.118110
  3 4.279934 -5.612240 -1.253638 0.076018 0.995746 -0.052075 0.874016 0.740157
  3 4.409365 -5.618420 -1.182860 0.076018 0.995746 -0.052075 0.787402 0.858268
argus5_lense_1.bmp
  3 4.551435 -5.676225 -2.080677 0.076018 0.995746 -0.052075 0.251969 0.118110
  3 4.180499 -5.609907 -1.354173 0.076018 0.995746 -0.052075 0.921260 0.606299
  3 4.279934 -5.612240 -1.253638 0.076018 0.995746 -0.052075 0.874016 0.740157
argus5_lense_1.bmp
  3 4.551435 -5.676225 -2.080677 0.076018 0.995746 -0.052075 0.251969 0.118110
  3 4.111060 -5.611420 -1.484464 0.076018 0.995746 -0.052075 0.921260 0.456693
  3 4.180499 -5.609907 -1.354173 0.076018 0.995746 -0.052075 0.921260 0.606299
argus5_lense_1.bmp
  3 4.551435 -5.676225 -2.080677 0.076018 0.995746 -0.052075 0.251969 0.118110
  3 4.091503 -5.617246 -1.624405 0.076018 0.995746 -0.052075 0.874016 0.322835
  3 4.111060 -5.611420 -1.484464 0.076018 0.995746 -0.052075 0.921260 0.456693
argus5_lense_1.bmp
  3 4.551435 -5.676225 -2.080677 0.076018 0.995746 -0.052075 0.251969 0.118110
  3 4.111830 -5.626103 -1.764078 0.076018 0.995746 -0.052075 0.787402 0.204724
  3 4.091503 -5.617246 -1.624405 0.076018 0.995746 -0.052075 0.874016 0.322835
argus5_lense_1.bmp
  3 4.551435 -5.676225 -2.080677 0.076018 0.995746 -0.052075 0.251969 0.118110
  3 4.181985 -5.638225 -1.893428 0.076018 0.995746 -0.052075 0.669291 0.118110
  3 4.111830 -5.626103 -1.764078 0.076018 0.995746 -0.052075 0.787402 0.204724
argus5_lense_1.bmp
  3 4.551435 -5.676225 -2.080677 0.076018 0.995746 -0.052075 0.251969 0.118110
  3 4.281970 -5.651046 -1.992617 0.076018 0.995746 -0.052075 0.535433 0.070866
  3 4.181985 -5.638225 -1.893428 0.076018 0.995746 -0.052075 0.669291 0.118110
argus5_lense_1.bmp
  3 4.551435 -5.676225 -2.080677 0.076018 0.995746 -0.052075 0.251969 0.118110
  3 4.411786 -5.664568 -2.061646 0.076018 0.995746 -0.052075 0.385827 0.070866
  3 4.281970 -5.651046 -1.992617 0.076018 0.995746 -0.052075 0.535433 0.070866
argus5_lense_1.bmp
  3 4.409365 -5.618420 -1.182860 0.276902 0.636746 -0.719639 0.889764 0.055118
  3 4.279934 -5.612240 -1.253638 0.476772 0.627239 -0.615841 0.795276 0.055118
  3 4.396073 -5.523617 -1.117778 0.276902 0.636746 -0.719639 0.889764 0.000000
argus5_lense_1.bmp
  3 4.396073 -5.523617 -1.117778 0.276902 0.636746 -0.719639 0.889764 0.000000
  3 4.279934 -5.612240 -1.253638 0.476772 0.627239 -0.615841 0.795276 0.055118
  3 4.236729 -5.515164 -1.188758 0.476772 0.627239 -0.615841 0.795276 0.000000
argus5_lense_1.bmp
  3 4.279934 -5.612240 -1.253638 0.476772 0.627239 -0.615841 0.795276 0.055118
  3 4.180499 -5.609907 -1.354173 0.635601 0.623369 -0.455437 0.700787 0.055118
  3 4.236729 -5.515164 -1.188758 0.476772 0.627239 -0.615841 0.795276 0.000000
argus5_lense_1.bmp
  3 4.236729 -5.515164 -1.188758 0.476772 0.627239 -0.615841 0.795276 0.000000
  3 4.180499 -5.609907 -1.354173 0.635601 0.623369 -0.455437 0.700787 0.055118
  3 4.117434 -5.512888 -1.319386 0.635601 0.623369 -0.455437 0.700787 0.000000
argus5_lense_1.bmp
  3 4.180499 -5.609907 -1.354173 0.635601 0.623369 -0.455437 0.700787 0.055118
  3 4.111060 -5.611420 -1.484464 0.737015 0.626315 -0.254045 0.598425 0.055118
  3 4.117434 -5.512888 -1.319386 0.635601 0.623369 -0.455437 0.700787 0.000000
argus5_lense_1.bmp
  3 4.117434 -5.512888 -1.319386 0.635601 0.623369 -0.455437 0.700787 0.000000
  3 4.111060 -5.611420 -1.484464 0.737015 0.626315 -0.254045 0.598425 0.055118
  3 4.048050 -5.515450 -1.469650 0.737015 0.626315 -0.254045 0.598425 0.000000
argus5_lense_1.bmp
  3 4.111060 -5.611420 -1.484464 0.737015 0.626315 -0.254045 0.598425 0.055118
  3 4.091503 -5.617246 -1.624405 0.771661 0.635269 -0.031202 0.503937 0.055118
  3 4.048050 -5.515450 -1.469650 0.737015 0.626315 -0.254045 0.598425 0.000000
argus5_lense_1.bmp
  3 4.048050 -5.515450 -1.469650 0.737015 0.626315 -0.254045 0.598425 0.000000
  3 4.091503 -5.617246 -1.624405 0.771661 0.635269 -0.031202 0.503937 0.055118
  3 4.018577 -5.521567 -1.629631 0.771661 0.635269 -0.031202 0.503937 0.000000
argus5_lense_1.bmp
  3 4.091503 -5.617246 -1.624405 0.771661 0.635269 -0.031202 0.503937 0.055118
  3 4.111830 -5.626103 -1.764078 0.735804 0.649703 0.190996 0.409449 0.055118
  3 4.018577 -5.521567 -1.629631 0.771661 0.635269 -0.031202 0.503937 0.000000
argus5_lense_1.bmp
  3 4.018577 -5.521567 -1.629631 0.771661 0.635269 -0.031202 0.503937 0.000000
  3 4.111830 -5.626103 -1.764078 0.735804 0.649703 0.190996 0.409449 0.055118
  3 4.048930 -5.532231 -1.789208 0.735804 0.649703 0.190996 0.409449 0.000000
argus5_lense_1.bmp
  3 4.111830 -5.626103 -1.764078 0.735804 0.649703 0.190996 0.409449 0.055118
  3 4.181985 -5.638225 -1.893428 0.633094 0.668046 0.391033 0.307087 0.055118
  3 4.048930 -5.532231 -1.789208 0.735804 0.649703 0.190996 0.409449 0.000000
argus5_lense_1.bmp
  3 4.048930 -5.532231 -1.789208 0.735804 0.649703 0.190996 0.409449 0.000000
  3 4.181985 -5.638225 -1.893428 0.633094 0.668046 0.391033 0.307087 0.055118
  3 4.119167 -5.545925 -1.948517 0.633094 0.668046 0.391033 0.307087 0.000000
argus5_lense_1.bmp
  3 4.181985 -5.638225 -1.893428 0.633094 0.668046 0.391033 0.307087 0.055118
  3 4.281970 -5.651046 -1.992617 0.473635 0.688493 0.549223 0.204724 0.055118
  3 4.119167 -5.545925 -1.948517 0.633094 0.668046 0.391033 0.307087 0.000000
argus5_lense_1.bmp
  3 4.119167 -5.545925 -1.948517 0.633094 0.668046 0.391033 0.307087 0.000000
  3 4.281970 -5.651046 -1.992617 0.473635 0.688493 0.549223 0.204724 0.055118
  3 4.239150 -5.561311 -2.067544 0.473635 0.688493 0.549223 0.204724 0.000000
argus5_lense_1.bmp
  3 4.281970 -5.651046 -1.992617 0.473635 0.688493 0.549223 0.204724 0.055118
  3 4.411786 -5.664568 -2.061646 0.272924 0.709061 0.650189 0.086614 0.055118
  3 4.239150 -5.561311 -2.067544 0.473635 0.688493 0.549223 0.204724 0.000000
argus5_lense_1.bmp
  3 4.239150 -5.561311 -2.067544 0.473635 0.688493 0.549223 0.204724 0.000000
  3 4.411786 -5.664568 -2.061646 0.272924 0.709061 0.650189 0.086614 0.055118
  3 4.398879 -5.577106 -2.136371 0.272924 0.709061 0.650189 0.086614 0.000000
argus5_lense_1.bmp
  3 4.411786 -5.664568 -2.061646 0.272924 0.709061 0.650189 0.086614 0.055118
  3 4.558498 -5.590803 -2.165254 0.050690 0.727740 0.683977 0.007874 0.000000
  3 4.398879 -5.577106 -2.136371 0.272924 0.709061 0.650189 0.086614 0.000000
argus5_lense_1.bmp
  3 4.690975 -5.685785 -2.059763 -0.171326 0.742843 0.647172 0.086614 0.055118
  3 4.558498 -5.590803 -2.165254 0.050690 0.727740 0.683977 0.007874 0.000000
  3 4.551435 -5.676225 -2.080677 0.050690 0.727740 0.683977 0.007874 0.055118
argus5_lense_1.bmp
  3 4.555526 -5.534168 -1.086744 0.054645 0.651930 -0.756308 0.992126 0.000000
  3 4.409365 -5.618420 -1.182860 0.276902 0.636746 -0.719639 0.889764 0.055118
  3 4.396073 -5.523617 -1.117778 0.276902 0.636746 -0.719639 0.889764 0.000000
argus5_lense_1.bmp
  3 4.558498 -5.590803 -2.165254 0.050690 0.727740 0.683977 0.007874 0.000000
  3 4.411786 -5.664568 -2.061646 0.272924 0.709061 0.650189 0.086614 0.055118
  3 4.551435 -5.676225 -2.080677 0.050690 0.727740 0.683977 0.007874 0.055118
end
