version 1
nodes
  0 "Bone01" -1
  1 "Bone_Lefthand" 0
  2 "Bone_Scar" 1
  3 "Bone_FireBody_H" 2
  4 "Bone_FireBody_Trans_L" 3
  5 "Bone_Bipod" 4
  6 "Bone_Bullet_Point" 2
  7 "Bone_Norishe" 2
  8 "Bone_Null" 2
  9 "Bone_FirePin" 8
  10 "Bone_Magazine" 8
  11 "Bone_Magazine_Lite" 8
  12 "Bone4" 1
  13 "Bone13" 12
  14 "Bone14" 13
  15 "Bone15" 14
  16 "Bone17" 12
  17 "Bone18" 16
  18 "Bone19" 17
  19 "Bone21" 12
  20 "Bone22" 19
  21 "Bone23" 20
  22 "Bone05" 12
  23 "Bone06" 22
  24 "Bone07" 23
  25 "Bone09" 12
  26 "Bone10" 25
  27 "Bone11" 26
  28 "Bone04" -1
  29 "Bone_Righthand" 28
  30 "Bone26" 29
  31 "Bone35" 30
  32 "Bone36" 31
  33 "Bone37" 32
  34 "Bone31" 30
  35 "Bone32" 34
  36 "Bone33" 35
  37 "Bone39" 30
  38 "Bone40" 37
  39 "Bone41" 38
  40 "Bone43" 30
  41 "Bone44" 40
  42 "Bone45" 41
  43 "Bone27" 30
  44 "Bone28" 43
  45 "Bone29" 44
end
skeleton
  time 0
    0 9.486894 1.914496 -7.668103 0.005838 -1.481035 -0.138529
    1 -0.021280 -8.563255 -0.000751 0.229997 -0.063348 -0.039659
    2 0.130659 -2.124660 0.560144 0.930310 1.695867 0.941617
    3 0.020044 -12.116384 2.673301 0.000000 0.000000 0.000000
    4 -0.019949 6.033916 0.667370 0.000000 0.000000 0.000000
    5 0.549269 31.074096 -40.414410 1.587326 0.000000 0.000000
    6 0.033347 -6.107807 2.782817 0.000000 0.000000 0.000000
    7 0.000513 -3.319108 3.585761 0.000000 0.000000 -0.045826
    8 -0.294703 -6.287284 2.026899 0.000000 0.000000 0.000000
    9 1.007304 3.926682 -0.773263 0.445800 0.000000 0.000000
    10 0.292910 28.487060 -8.495704 0.000041 0.000000 0.000006
    11 0.295215 1.713771 0.618519 -0.000001 0.000000 0.000001
    12 -0.003480 -0.404828 0.000000 -0.000001 0.000000 0.000000
    13 -0.519309 -2.501154 -0.278957 -1.107351 -0.060906 -0.152578
    14 -0.010598 -1.208185 -0.000001 -1.179841 0.000000 0.000000
    15 0.000000 -0.763066 -0.000001 -1.228719 0.000000 0.000000
    16 0.105981 -2.607133 -0.278958 -0.873867 -0.036146 -0.178590
    17 0.000000 -1.250579 0.000000 -1.223467 0.000000 0.000000
    18 -0.000001 -0.932634 0.000000 -1.567302 0.000000 0.000000
    19 0.763064 -2.490556 -0.278957 -0.104761 0.004690 0.134818
    20 -0.012322 -1.280917 0.000000 -0.645647 0.000000 0.000000
    21 -0.001695 -0.738090 0.129481 -0.742923 0.000000 0.000000
    22 0.354567 0.016267 0.318132 0.458016 -0.443922 -1.167629
    23 1.887165 0.012877 0.000000 -0.294573 -0.081938 -0.664933
    24 1.001875 -0.000270 0.000001 0.000000 0.000000 -0.391564
    25 -1.123358 -2.195093 -0.278957 -1.174569 -0.118731 -0.146518
    26 0.010772 -0.963791 0.000000 -0.977378 0.000000 0.000000
    27 -0.010413 -0.631916 0.000000 -1.034985 0.000000 0.000000
    28 2.231318 -9.252804 -9.041135 -0.484791 0.759663 0.286206
    29 0.089929 -8.543165 0.000003 0.308034 -0.342948 0.247451
    30 0.000000 -0.359713 0.000000 0.000000 0.000000 0.000000
    31 -0.170479 -2.636147 -0.277654 -1.254477 -0.052707 0.090280
    32 0.010598 -1.261176 0.000001 -0.473462 0.000000 0.000000
    33 -0.000001 -0.943233 0.000000 -0.944945 0.000000 0.000000
    34 -0.827562 -2.508970 -0.277656 -0.821506 -0.046328 0.035347
    35 0.000001 -1.292972 -0.000001 -0.708426 0.000000 0.000000
    36 -0.000001 -0.752465 -0.000001 -0.777556 -0.248777 0.191914
    37 0.444214 -2.561960 -0.277654 -1.660626 0.037900 0.168005
    38 0.021023 -1.208187 0.000000 -0.304120 0.000000 0.000000
    39 0.010596 -0.741867 -0.000002 -0.721161 0.000000 0.000000
    40 1.047445 -2.222821 -0.277654 -1.372249 0.033616 0.229366
    41 0.000000 -0.996224 -0.000001 -0.809238 0.000000 0.000000
    42 0.000000 -0.614690 0.000000 -1.031474 0.000000 0.000000
    43 -0.308256 -0.007812 0.307165 -0.304404 -0.289747 -2.408062
    44 1.978378 0.019543 0.000000 0.050496 -0.095397 0.314077
    45 0.980612 0.058421 -0.012628 0.135543 -0.037979 0.358606
  time 1
    0 9.486894 3.117658 -7.668103 -0.461374 -1.470540 0.330701
    1 -0.021280 -8.563255 -0.000751 0.232855 -0.051729 -0.089055
    2 0.130659 -2.124660 0.560144 0.930310 1.695867 0.941617
    3 0.020044 -12.116384 2.673301 0.000000 0.000000 0.000000
    4 -0.019949 6.033916 0.667370 0.000000 0.000000 0.000000
    5 0.549269 31.074096 -40.414410 1.587326 0.000000 0.000000
    6 0.033347 -6.107807 2.782817 0.000000 0.000000 0.000000
    7 0.000513 -3.319108 3.585761 0.000000 0.000000 0.075506
    8 -0.294703 -6.287284 2.026899 0.000000 0.000000 0.000000
    9 1.007304 3.926682 -0.773263 0.891600 0.000000 0.000000
    10 0.292910 28.487060 -8.495704 0.000041 0.000000 0.000006
    11 0.295215 1.713771 0.618519 -0.000001 0.000000 0.000001
    12 -0.003480 -0.404828 0.000000 -0.000001 0.000000 0.000000
    13 -0.519309 -2.501154 -0.278957 -1.107351 -0.060906 -0.152578
    14 -0.010598 -1.208185 -0.000001 -1.179841 0.000000 0.000000
    15 0.000000 -0.763066 -0.000001 -1.228719 0.000000 0.000000
    16 0.105981 -2.607133 -0.278958 -0.873867 -0.036146 -0.178590
    17 0.000000 -1.250579 0.000000 -1.223467 0.000000 0.000000
    18 -0.000001 -0.932634 0.000000 -1.567302 0.000000 0.000000
    19 0.763064 -2.490556 -0.278957 -0.114284 0.010200 0.182733
    20 -0.012322 -1.280917 0.000000 -0.954160 0.000000 0.000000
    21 -0.001695 -0.738090 0.129481 -0.798078 0.000000 0.000000
    22 0.354567 0.016267 0.318132 0.458016 -0.443922 -1.167629
    23 1.887165 0.012877 0.000000 -0.294573 -0.081938 -0.664933
    24 1.001875 -0.000270 0.000001 0.000000 0.000000 -0.391564
    25 -1.123358 -2.195093 -0.278957 -1.174569 -0.118731 -0.146518
    26 0.010772 -0.963791 0.000000 -0.977378 0.000000 0.000000
    27 -0.010413 -0.631916 0.000000 -1.034985 0.000000 0.000000
    28 1.993029 -8.112145 -9.041135 -0.539909 0.746568 0.252632
    29 0.089929 -8.543165 0.000003 0.308034 -0.342948 0.247451
    30 0.000000 -0.359713 0.000000 0.000000 0.000000 0.000000
    31 -0.170479 -2.636147 -0.277654 -1.254477 -0.052707 0.090280
    32 0.010598 -1.261176 0.000001 -0.473462 0.000000 0.000000
    33 -0.000001 -0.943233 0.000000 -0.944945 0.000000 0.000000
    34 -0.827562 -2.508970 -0.277656 -0.821506 -0.046328 0.035347
    35 0.000001 -1.292972 -0.000001 -0.708426 0.000000 0.000000
    36 -0.000001 -0.752465 -0.000001 -0.777556 -0.248777 0.191914
    37 0.444214 -2.561960 -0.277654 -1.660626 0.037900 0.168005
    38 0.021023 -1.208187 0.000000 -0.304120 0.000000 0.000000
    39 0.010596 -0.741867 -0.000002 -0.721161 0.000000 0.000000
    40 1.047445 -2.222821 -0.277654 -1.372249 0.033616 0.229366
    41 0.000000 -0.996224 -0.000001 -0.809238 0.000000 0.000000
    42 0.000000 -0.614690 0.000000 -1.031474 0.000000 0.000000
    43 -0.308256 -0.007812 0.307165 -0.318614 -0.230586 -2.340512
    44 1.978378 0.019543 0.000000 0.050075 -0.095613 0.318450
    45 0.980612 0.058421 -0.012628 0.135543 -0.037979 0.358606
  time 2
    0 9.486894 3.016092 -7.668103 -0.421990 -1.471419 0.291223
    1 -0.021280 -8.563255 -0.000751 0.232330 -0.053719 -0.080551
    2 0.130659 -2.124660 0.560144 0.930310 1.695867 0.941617
    3 0.020044 -12.116384 2.673301 0.000000 0.000000 0.000000
    4 -0.019949 6.033916 0.667370 0.000000 0.000000 0.000000
    5 0.549269 31.074096 -40.414410 1.587326 0.000000 0.000000
    6 0.033347 -4.846049 2.782817 0.000000 0.000000 0.000000
    7 0.000513 -7.592676 3.585761 0.000000 0.000000 0.036687
    8 -0.294703 -6.287284 2.026899 0.000000 0.000000 0.000000
    9 1.007304 3.926682 -0.773263 0.846701 0.000000 0.000000
    10 0.292910 28.487060 -8.495704 0.000041 0.000000 0.000006
    11 0.295215 1.713771 0.618519 -0.000001 0.000000 0.000001
    12 -0.003480 -0.404828 0.000000 -0.000001 0.000000 0.000000
    13 -0.519309 -2.501154 -0.278957 -1.107351 -0.060906 -0.152578
    14 -0.010598 -1.208185 -0.000001 -1.179841 0.000000 0.000000
    15 0.000000 -0.763066 -0.000001 -1.228719 0.000000 0.000000
    16 0.105981 -2.607133 -0.278958 -0.873867 -0.036146 -0.178590
    17 0.000000 -1.250579 0.000000 -1.223467 0.000000 0.000000
    18 -0.000001 -0.932634 0.000000 -1.567302 0.000000 0.000000
    19 0.763064 -2.490556 -0.278957 -0.111307 0.008479 0.167764
    20 -0.012322 -1.280917 0.000000 -0.921248 0.000000 0.000000
    21 -0.001695 -0.738090 0.129481 -0.780844 0.000000 0.000000
    22 0.354567 0.016267 0.318132 0.458016 -0.443922 -1.167629
    23 1.887165 0.012877 0.000000 -0.294573 -0.081938 -0.664933
    24 1.001875 -0.000270 0.000001 0.000000 0.000000 -0.391564
    25 -1.123358 -2.195093 -0.278957 -1.174569 -0.118731 -0.146518
    26 0.010772 -0.963791 0.000000 -0.977378 0.000000 0.000000
    27 -0.010413 -0.631916 0.000000 -1.034985 0.000000 0.000000
    28 2.043812 -8.170740 -9.041135 -0.549370 0.742763 0.243596
    29 0.089929 -8.543165 0.000003 0.308034 -0.342948 0.247451
    30 0.000000 -0.359713 0.000000 0.000000 0.000000 0.000000
    31 -0.170479 -2.636147 -0.277654 -1.254477 -0.052707 0.090280
    32 0.010598 -1.261176 0.000001 -0.473462 0.000000 0.000000
    33 -0.000001 -0.943233 0.000000 -0.944945 0.000000 0.000000
    34 -0.827562 -2.508970 -0.277656 -0.821506 -0.046328 0.035347
    35 0.000001 -1.292972 -0.000001 -0.708426 0.000000 0.000000
    36 -0.000001 -0.752465 -0.000001 -0.777556 -0.248777 0.191914
    37 0.444214 -2.561960 -0.277654 -1.660626 0.037900 0.168005
    38 0.021023 -1.208187 0.000000 -0.304120 0.000000 0.000000
    39 0.010596 -0.741867 -0.000002 -0.721161 0.000000 0.000000
    40 1.047445 -2.222821 -0.277654 -1.372249 0.033616 0.229366
    41 0.000000 -0.996224 -0.000001 -0.809238 0.000000 0.000000
    42 0.000000 -0.614690 0.000000 -1.031474 0.000000 0.000000
    43 -0.308256 -0.007812 0.307165 -0.315838 -0.222798 -2.353737
    44 1.978378 0.019543 0.000000 0.049583 -0.095876 0.323660
    45 0.980612 0.058421 -0.012628 0.135543 -0.037979 0.358606
  time 3
    0 9.486894 2.766085 -7.668103 -0.324494 -1.473642 0.193264
    1 -0.021280 -8.563255 -0.000751 0.231105 -0.058468 -0.060291
    2 0.130659 -2.124660 0.560144 0.930310 1.695867 0.941617
    3 0.020044 -12.116384 2.673301 0.000000 0.000000 0.000000
    4 -0.019949 6.033916 0.667370 0.000000 0.000000 0.000000
    5 0.549269 31.074096 -40.414410 1.587326 0.000000 0.000000
    6 0.033347 -2.674108 2.782817 0.000000 0.000000 0.000000
    7 0.000513 -7.537987 3.585761 0.000000 0.000000 0.000000
    8 -0.294703 -6.287284 2.026899 0.000000 0.000000 0.000000
    9 1.007304 3.926682 -0.773263 0.690346 0.000000 0.000000
    10 0.292910 28.487060 -8.495704 0.000041 0.000000 0.000006
    11 0.295215 1.713771 0.618519 -0.000001 0.000000 0.000001
    12 -0.003480 -0.404828 0.000000 -0.000001 0.000000 0.000000
    13 -0.519309 -2.501154 -0.278957 -1.107351 -0.060906 -0.152578
    14 -0.010598 -1.208185 -0.000001 -1.179841 0.000000 0.000000
    15 0.000000 -0.763066 -0.000001 -1.228719 0.000000 0.000000
    16 0.105981 -2.607133 -0.278958 -0.873867 -0.036146 -0.178590
    17 0.000000 -1.250579 0.000000 -1.223467 0.000000 0.000000
    18 -0.000001 -0.932634 0.000000 -1.567302 0.000000 0.000000
    19 0.763064 -2.490556 -0.278957 -0.104761 0.004690 0.134818
    20 -0.012322 -1.280917 0.000000 -0.811201 0.000000 0.000000
    21 -0.001695 -0.738090 0.129481 -0.742923 0.000000 0.000000
    22 0.354567 0.016267 0.318132 0.458016 -0.443922 -1.167629
    23 1.887165 0.012877 0.000000 -0.294573 -0.081938 -0.664933
    24 1.001875 -0.000270 0.000001 0.000000 0.000000 -0.391564
    25 -1.123358 -2.195093 -0.278957 -1.174569 -0.118731 -0.146518
    26 0.010772 -0.963791 0.000000 -0.977378 0.000000 0.000000
    27 -0.010413 -0.631916 0.000000 -1.034985 0.000000 0.000000
    28 2.161003 -8.319182 -9.041135 -0.545219 0.740905 0.239079
    29 0.089929 -8.543165 0.000003 0.308034 -0.342948 0.247451
    30 0.000000 -0.359713 0.000000 0.000000 0.000000 0.000000
    31 -0.170479 -2.636147 -0.277654 -1.254477 -0.052707 0.090280
    32 0.010598 -1.261176 0.000001 -0.473462 0.000000 0.000000
    33 -0.000001 -0.943233 0.000000 -0.944945 0.000000 0.000000
    34 -0.827562 -2.508970 -0.277656 -0.821506 -0.046328 0.035347
    35 0.000001 -1.292972 -0.000001 -0.708426 0.000000 0.000000
    36 -0.000001 -0.752465 -0.000001 -0.777556 -0.248777 0.191914
    37 0.444214 -2.561960 -0.277654 -1.660626 0.037900 0.168005
    38 0.021023 -1.208187 0.000000 -0.304120 0.000000 0.000000
    39 0.010596 -0.741867 -0.000002 -0.721161 0.000000 0.000000
    40 1.047445 -2.222821 -0.277654 -1.372249 0.033616 0.229366
    41 0.000000 -0.996224 -0.000001 -0.809238 0.000000 0.000000
    42 0.000000 -0.614690 0.000000 -1.031474 0.000000 0.000000
    43 -0.308256 -0.007812 0.307165 -0.311219 -0.220927 -2.375831
    44 1.978378 0.019543 0.000000 0.049161 -0.096092 0.328033
    45 0.980612 0.058421 -0.012628 0.135543 -0.037979 0.358606
  time 4
    0 9.486894 2.445763 -7.668103 -0.199988 -1.476434 0.068222
    1 -0.021280 -8.563255 -0.000751 0.229617 -0.064132 -0.036105
    2 0.130659 -2.124660 0.560144 0.930310 1.695867 0.941617
    3 0.020044 -12.116384 2.673301 0.000000 0.000000 0.000000
    4 -0.019949 6.033916 0.667370 0.000000 0.000000 0.000000
    5 0.549269 31.074096 -40.414410 1.587326 0.000000 0.000000
    6 0.033347 -2.674108 2.782817 0.000000 0.000000 0.000000
    7 0.000513 -7.537987 3.585761 0.000000 0.000000 0.000000
    8 -0.294703 -6.287284 2.026899 0.000000 0.000000 0.000000
    9 1.007304 3.926682 -0.773263 0.332874 0.000000 0.000000
    10 0.292910 28.487060 -8.495704 0.000041 0.000000 0.000006
    11 0.295215 1.713771 0.618519 -0.000001 0.000000 0.000001
    12 -0.003480 -0.404828 0.000000 -0.000001 0.000000 0.000000
    13 -0.519309 -2.501154 -0.278957 -1.107351 -0.060906 -0.152578
    14 -0.010598 -1.208185 -0.000001 -1.179841 0.000000 0.000000
    15 0.000000 -0.763066 -0.000001 -1.228719 0.000000 0.000000
    16 0.105981 -2.607133 -0.278958 -0.873867 -0.036146 -0.178590
    17 0.000000 -1.250579 0.000000 -1.223467 0.000000 0.000000
    18 -0.000001 -0.932634 0.000000 -1.567302 0.000000 0.000000
    19 0.763064 -2.490556 -0.278957 -0.098214 0.000901 0.101873
    20 -0.012322 -1.280917 0.000000 -0.535600 0.000000 0.000000
    21 -0.001695 -0.738090 0.129481 -0.705002 0.000000 0.000000
    22 0.354567 0.016267 0.318132 0.458016 -0.443922 -1.167629
    23 1.887165 0.012877 0.000000 -0.294573 -0.081938 -0.664933
    24 1.001875 -0.000270 0.000001 0.000000 0.000000 -0.391564
    25 -1.123358 -2.195093 -0.278957 -1.174569 -0.118731 -0.146518
    26 0.010772 -0.963791 0.000000 -0.977378 0.000000 0.000000
    27 -0.010413 -0.631916 0.000000 -1.034985 0.000000 0.000000
    28 2.297726 -8.502782 -9.041135 -0.534965 0.739224 0.234561
    29 0.089929 -8.543165 0.000003 0.308034 -0.342948 0.247451
    30 0.000000 -0.359713 0.000000 0.000000 0.000000 0.000000
    31 -0.170479 -2.636147 -0.277654 -1.254477 -0.052707 0.090280
    32 0.010598 -1.261176 0.000001 -0.473462 0.000000 0.000000
    33 -0.000001 -0.943233 0.000000 -0.944945 0.000000 0.000000
    34 -0.827562 -2.508970 -0.277656 -0.821506 -0.046328 0.035347
    35 0.000001 -1.292972 -0.000001 -0.708426 0.000000 0.000000
    36 -0.000001 -0.752465 -0.000001 -0.777556 -0.248777 0.191914
    37 0.444214 -2.561960 -0.277654 -1.660626 0.037900 0.168005
    38 0.021023 -1.208187 0.000000 -0.304120 0.000000 0.000000
    39 0.010596 -0.741867 -0.000002 -0.721161 0.000000 0.000000
    40 1.047445 -2.222821 -0.277654 -1.372249 0.033616 0.229366
    41 0.000000 -0.996224 -0.000001 -0.809238 0.000000 0.000000
    42 0.000000 -0.614690 0.000000 -1.031474 0.000000 0.000000
    43 -0.308256 -0.007812 0.307165 -0.307470 -0.242323 -2.393668
    44 1.978378 0.019543 0.000000 0.048992 -0.096188 0.329874
    45 0.980612 0.058421 -0.012628 0.135543 -0.037979 0.358606
  time 5
    0 9.486894 2.133253 -7.668103 -0.079525 -1.479122 -0.052781
    1 -0.021280 -8.563255 -0.000751 0.228363 -0.068866 -0.015844
    2 0.130659 -2.124660 0.560144 0.930310 1.695867 0.941617
    3 0.020044 -12.116384 2.673301 0.000000 0.000000 0.000000
    4 -0.019949 6.033916 0.667370 0.000000 0.000000 0.000000
    5 0.549269 31.074096 -40.414410 1.587326 0.000000 0.000000
    6 0.033347 -2.674108 2.782817 0.000000 0.000000 0.000000
    7 0.000513 -7.537987 3.585761 0.000000 0.000000 0.000000
    8 -0.294703 -6.287284 2.026899 0.000000 0.000000 0.000000
    9 1.007304 3.926682 -0.773263 0.000000 0.000000 0.000000
    10 0.292910 28.487060 -8.495704 0.000041 0.000000 0.000006
    11 0.295215 1.713771 0.618519 -0.000001 0.000000 0.000001
    12 -0.003480 -0.404828 0.000000 -0.000001 0.000000 0.000000
    13 -0.519309 -2.501154 -0.278957 -1.107351 -0.060906 -0.152578
    14 -0.010598 -1.208185 -0.000001 -1.179841 0.000000 0.000000
    15 0.000000 -0.763066 -0.000001 -1.228719 0.000000 0.000000
    16 0.105981 -2.607133 -0.278958 -0.873867 -0.036146 -0.178590
    17 0.000000 -1.250579 0.000000 -1.223467 0.000000 0.000000
    18 -0.000001 -0.932634 0.000000 -1.567302 0.000000 0.000000
    19 0.763064 -2.490556 -0.278957 -0.095237 -0.000820 0.086904
    20 -0.012322 -1.280917 0.000000 -0.337134 0.000000 0.000000
    21 -0.001695 -0.738090 0.129481 -0.687768 0.000000 0.000000
    22 0.354567 0.016267 0.318132 0.458016 -0.443922 -1.167629
    23 1.887165 0.012877 0.000000 -0.294573 -0.081938 -0.664933
    24 1.001875 -0.000270 0.000001 0.000000 0.000000 -0.391564
    25 -1.123358 -2.195093 -0.278957 -1.174569 -0.118731 -0.146518
    26 0.010772 -0.963791 0.000000 -0.977378 0.000000 0.000000
    27 -0.010413 -0.631916 0.000000 -1.034985 0.000000 0.000000
    28 2.414917 -8.682474 -9.041135 -0.524894 0.735596 0.225436
    29 0.089929 -8.543165 0.000003 0.308034 -0.342948 0.247451
    30 0.000000 -0.359713 0.000000 0.000000 0.000000 0.000000
    31 -0.170479 -2.636147 -0.277654 -1.254477 -0.052707 0.090280
    32 0.010598 -1.261176 0.000001 -0.473462 0.000000 0.000000
    33 -0.000001 -0.943233 0.000000 -0.944945 0.000000 0.000000
    34 -0.827562 -2.508970 -0.277656 -0.821506 -0.046328 0.035347
    35 0.000001 -1.292972 -0.000001 -0.708426 0.000000 0.000000
    36 -0.000001 -0.752465 -0.000001 -0.777556 -0.248777 0.191914
    37 0.444214 -2.561960 -0.277654 -1.660626 0.037900 0.168005
    38 0.021023 -1.208187 0.000000 -0.304120 0.000000 0.000000
    39 0.010596 -0.741867 -0.000002 -0.721161 0.000000 0.000000
    40 1.047445 -2.222821 -0.277654 -1.372249 0.033616 0.229366
    41 0.000000 -0.996224 -0.000001 -0.809238 0.000000 0.000000
    42 0.000000 -0.614690 0.000000 -1.031474 0.000000 0.000000
    43 -0.308256 -0.007812 0.307165 -0.300365 -0.269826 -2.416769
    44 1.978378 0.019543 0.000000 0.049020 -0.096164 0.329456
    45 0.980612 0.058421 -0.012628 0.135543 -0.037979 0.358606
  time 6
    0 9.486894 1.914496 -7.668103 0.005838 -1.481035 -0.138529
    1 -0.021280 -8.563255 -0.000751 0.227867 -0.070856 -0.007364
    2 0.130659 -2.124660 0.560144 0.930310 1.695867 0.941617
    3 0.020044 -12.116384 2.673301 0.000000 0.000000 0.000000
    4 -0.019949 6.033916 0.667370 0.000000 0.000000 0.000000
    5 0.549269 31.074096 -40.414410 1.587326 0.000000 0.000000
    6 0.033347 -2.674108 2.782817 0.000000 0.000000 0.000000
    7 0.000513 -7.537987 3.585761 0.000000 0.000000 0.000000
    8 -0.294703 -6.287284 2.026899 0.000000 0.000000 0.000000
    9 1.007304 3.926682 -0.773263 -0.061987 0.000000 0.000000
    10 0.292910 28.487060 -8.495704 0.000041 0.000000 0.000006
    11 0.295215 1.713771 0.618519 -0.000001 0.000000 0.000001
    12 -0.003480 -0.404828 0.000000 -0.000001 0.000000 0.000000
    13 -0.519309 -2.501154 -0.278957 -1.107351 -0.060906 -0.152578
    14 -0.010598 -1.208185 -0.000001 -1.179841 0.000000 0.000000
    15 0.000000 -0.763066 -0.000001 -1.228719 0.000000 0.000000
    16 0.105981 -2.607133 -0.278958 -0.873867 -0.036146 -0.178590
    17 0.000000 -1.250579 0.000000 -1.223467 0.000000 0.000000
    18 -0.000001 -0.932634 0.000000 -1.567302 0.000000 0.000000
    19 0.763064 -2.490556 -0.278957 -0.095237 -0.000820 0.086904
    20 -0.012322 -1.280917 0.000000 -0.337134 0.000000 0.000000
    21 -0.001695 -0.738090 0.129481 -0.687768 0.000000 0.000000
    22 0.354567 0.016267 0.318132 0.458016 -0.443922 -1.167629
    23 1.887165 0.012877 0.000000 -0.294573 -0.081938 -0.664933
    24 1.001875 -0.000270 0.000001 0.000000 0.000000 -0.391564
    25 -1.123358 -2.195093 -0.278957 -1.174569 -0.118731 -0.146518
    26 0.010772 -0.963791 0.000000 -0.977378 0.000000 0.000000
    27 -0.010413 -0.631916 0.000000 -1.034985 0.000000 0.000000
    28 2.465700 -8.811385 -9.041135 -0.508474 0.736658 0.227385
    29 0.089929 -8.543165 0.000003 0.308034 -0.342948 0.247451
    30 0.000000 -0.359713 0.000000 0.000000 0.000000 0.000000
    31 -0.170479 -2.636147 -0.277654 -1.254477 -0.052707 0.090280
    32 0.010598 -1.261176 0.000001 -0.473462 0.000000 0.000000
    33 -0.000001 -0.943233 0.000000 -0.944945 0.000000 0.000000
    34 -0.827562 -2.508970 -0.277656 -0.821506 -0.046328 0.035347
    35 0.000001 -1.292972 -0.000001 -0.708426 0.000000 0.000000
    36 -0.000001 -0.752465 -0.000001 -0.777556 -0.248777 0.191914
    37 0.444214 -2.561960 -0.277654 -1.660626 0.037900 0.168005
    38 0.021023 -1.208187 0.000000 -0.304120 0.000000 0.000000
    39 0.010596 -0.741867 -0.000002 -0.721161 0.000000 0.000000
    40 1.047445 -2.222821 -0.277654 -1.372249 0.033616 0.229366
    41 0.000000 -0.996224 -0.000001 -0.809238 0.000000 0.000000
    42 0.000000 -0.614690 0.000000 -1.031474 0.000000 0.000000
    43 -0.308256 -0.007812 0.307165 -0.296781 -0.298693 -2.422837
    44 1.978378 0.019543 0.000000 0.049133 -0.096104 0.328326
    45 0.980612 0.058421 -0.012628 0.135543 -0.037979 0.358606
  time 7
    0 9.486894 1.801212 -7.668103 0.049844 -1.482017 -0.182780
    1 -0.021280 -8.563255 -0.000751 0.227867 -0.070856 -0.007364
    2 0.130659 -2.124660 0.560144 0.930310 1.695867 0.941617
    3 0.020044 -12.116384 2.673301 0.000000 0.000000 0.000000
    4 -0.019949 6.033916 0.667370 0.000000 0.000000 0.000000
    5 0.549269 31.074096 -40.414410 1.587326 0.000000 0.000000
    6 0.033347 -2.674108 2.782817 0.000000 0.000000 0.000000
    7 0.000513 -7.537987 3.585761 0.000000 0.000000 0.000000
    8 -0.294703 -6.287284 2.026899 0.000000 0.000000 0.000000
    9 1.007304 3.926682 -0.773263 -0.030993 0.000000 0.000000
    10 0.292910 28.487060 -8.495704 0.000041 0.000000 0.000006
    11 0.295215 1.713771 0.618519 -0.000001 0.000000 0.000001
    12 -0.003480 -0.404828 0.000000 -0.000001 0.000000 0.000000
    13 -0.519309 -2.501154 -0.278957 -1.107351 -0.060906 -0.152578
    14 -0.010598 -1.208185 -0.000001 -1.179841 0.000000 0.000000
    15 0.000000 -0.763066 -0.000001 -1.228719 0.000000 0.000000
    16 0.105981 -2.607133 -0.278958 -0.873867 -0.036146 -0.178590
    17 0.000000 -1.250579 0.000000 -1.223467 0.000000 0.000000
    18 -0.000001 -0.932634 0.000000 -1.567302 0.000000 0.000000
    19 0.763064 -2.490556 -0.278957 -0.095237 -0.000820 0.086904
    20 -0.012322 -1.280917 0.000000 -0.337134 0.000000 0.000000
    21 -0.001695 -0.738090 0.129481 -0.687768 0.000000 0.000000
    22 0.354567 0.016267 0.318132 0.458016 -0.443922 -1.167629
    23 1.887165 0.012877 0.000000 -0.294573 -0.081938 -0.664933
    24 1.001875 -0.000270 0.000001 0.000000 0.000000 -0.391564
    25 -1.123358 -2.195093 -0.278957 -1.174569 -0.118731 -0.146518
    26 0.010772 -0.963791 0.000000 -0.977378 0.000000 0.000000
    27 -0.010413 -0.631916 0.000000 -1.034985 0.000000 0.000000
    28 2.465700 -8.881699 -9.041135 -0.495595 0.741525 0.239433
    29 0.089929 -8.543165 0.000003 0.308034 -0.342948 0.247451
    30 0.000000 -0.359713 0.000000 0.000000 0.000000 0.000000
    31 -0.170479 -2.636147 -0.277654 -1.254477 -0.052707 0.090280
    32 0.010598 -1.261176 0.000001 -0.473462 0.000000 0.000000
    33 -0.000001 -0.943233 0.000000 -0.944945 0.000000 0.000000
    34 -0.827562 -2.508970 -0.277656 -0.821506 -0.046328 0.035347
    35 0.000001 -1.292972 -0.000001 -0.708426 0.000000 0.000000
    36 -0.000001 -0.752465 -0.000001 -0.777556 -0.248777 0.191914
    37 0.444214 -2.561960 -0.277654 -1.660626 0.037900 0.168005
    38 0.021023 -1.208187 0.000000 -0.304120 0.000000 0.000000
    39 0.010596 -0.741867 -0.000002 -0.721161 0.000000 0.000000
    40 1.047445 -2.222821 -0.277654 -1.372249 0.033616 0.229366
    41 0.000000 -0.996224 -0.000001 -0.809238 0.000000 0.000000
    42 0.000000 -0.614690 0.000000 -1.031474 0.000000 0.000000
    43 -0.308256 -0.007812 0.307165 -0.285306 -0.276012 -2.452224
    44 1.978378 0.019543 0.000000 0.049288 -0.096020 0.326652
    45 0.980612 0.058421 -0.012628 0.135543 -0.037979 0.358606
  time 8
    0 9.486894 1.746522 -7.668103 0.070499 -1.482483 -0.203529
    1 -0.021280 -8.563255 -0.000751 0.227867 -0.070856 -0.007364
    2 0.130659 -2.124660 0.560144 0.930310 1.695867 0.941617
    3 0.020044 -12.116384 2.673301 0.000000 0.000000 0.000000
    4 -0.019949 6.033916 0.667370 0.000000 0.000000 0.000000
    5 0.549269 31.074096 -40.414410 1.587326 0.000000 0.000000
    6 0.033347 -2.674108 2.782817 0.000000 0.000000 0.000000
    7 0.000513 -7.537987 3.585761 0.000000 0.000000 0.000000
    8 -0.294703 -6.287284 2.026899 0.000000 0.000000 0.000000
    9 1.007304 3.926682 -0.773263 0.000000 0.000000 0.000000
    10 0.292910 28.487060 -8.495704 0.000041 0.000000 0.000006
    11 0.295215 1.713771 0.618519 -0.000001 0.000000 0.000001
    12 -0.003480 -0.404828 0.000000 -0.000001 0.000000 0.000000
    13 -0.519309 -2.501154 -0.278957 -1.107351 -0.060906 -0.152578
    14 -0.010598 -1.208185 -0.000001 -1.179841 0.000000 0.000000
    15 0.000000 -0.763066 -0.000001 -1.228719 0.000000 0.000000
    16 0.105981 -2.607133 -0.278958 -0.873867 -0.036146 -0.178590
    17 0.000000 -1.250579 0.000000 -1.223467 0.000000 0.000000
    18 -0.000001 -0.932634 0.000000 -1.567302 0.000000 0.000000
    19 0.763064 -2.490556 -0.278957 -0.095237 -0.000820 0.086904
    20 -0.012322 -1.280917 0.000000 -0.337134 0.000000 0.000000
    21 -0.001695 -0.738090 0.129481 -0.687768 0.000000 0.000000
    22 0.354567 0.016267 0.318132 0.458016 -0.443922 -1.167629
    23 1.887165 0.012877 0.000000 -0.294573 -0.081938 -0.664933
    24 1.001875 -0.000270 0.000001 0.000000 0.000000 -0.391564
    25 -1.123358 -2.195093 -0.278957 -1.174569 -0.118731 -0.146518
    26 0.010772 -0.963791 0.000000 -0.977378 0.000000 0.000000
    27 -0.010413 -0.631916 0.000000 -1.034985 0.000000 0.000000
    28 2.465700 -8.924669 -9.045041 -0.493520 0.742055 0.240673
    29 0.089929 -8.543165 0.000003 0.308034 -0.342948 0.247451
    30 0.000000 -0.359713 0.000000 0.000000 0.000000 0.000000
    31 -0.170479 -2.636147 -0.277654 -1.254477 -0.052707 0.090280
    32 0.010598 -1.261176 0.000001 -0.473462 0.000000 0.000000
    33 -0.000001 -0.943233 0.000000 -0.944945 0.000000 0.000000
    34 -0.827562 -2.508970 -0.277656 -0.821506 -0.046328 0.035347
    35 0.000001 -1.292972 -0.000001 -0.708426 0.000000 0.000000
    36 -0.000001 -0.752465 -0.000001 -0.777556 -0.248777 0.191914
    37 0.444214 -2.561960 -0.277654 -1.660626 0.037900 0.168005
    38 0.021023 -1.208187 0.000000 -0.304120 0.000000 0.000000
    39 0.010596 -0.741867 -0.000002 -0.721161 0.000000 0.000000
    40 1.047445 -2.222821 -0.277654 -1.372249 0.033616 0.229366
    41 0.000000 -0.996224 -0.000001 -0.809238 0.000000 0.000000
    42 0.000000 -0.614690 0.000000 -1.031474 0.000000 0.000000
    43 -0.308256 -0.007812 0.307165 -0.286197 -0.276948 -2.450374
    44 1.978378 0.019543 0.000000 0.049498 -0.095924 0.324581
    45 0.980612 0.058421 -0.012628 0.135543 -0.037979 0.358606
  time 9
    0 9.486894 1.738710 -7.668103 0.073195 -1.482534 -0.206191
    1 -0.021280 -8.563255 -0.000751 0.227867 -0.070856 -0.007364
    2 0.130659 -2.124660 0.560144 0.930310 1.695867 0.941617
    3 0.020044 -12.116384 2.673301 0.000000 0.000000 0.000000
    4 -0.019949 6.033916 0.667370 0.000000 0.000000 0.000000
    5 0.549269 31.074096 -40.414410 1.587326 0.000000 0.000000
    6 0.033347 -2.674108 2.782817 0.000000 0.000000 0.000000
    7 0.000513 -7.537987 3.585761 0.000000 0.000000 0.000000
    8 -0.294703 -6.287284 2.026899 0.000000 0.000000 0.000000
    9 1.007304 3.926682 -0.773263 0.000000 0.000000 0.000000
    10 0.292910 28.487060 -8.495704 0.000041 0.000000 0.000006
    11 0.295215 1.713771 0.618519 -0.000001 0.000000 0.000001
    12 -0.003480 -0.404828 0.000000 -0.000001 0.000000 0.000000
    13 -0.519309 -2.501154 -0.278957 -1.107351 -0.060906 -0.152578
    14 -0.010598 -1.208185 -0.000001 -1.179841 0.000000 0.000000
    15 0.000000 -0.763066 -0.000001 -1.228719 0.000000 0.000000
    16 0.105981 -2.607133 -0.278958 -0.873867 -0.036146 -0.178590
    17 0.000000 -1.250579 0.000000 -1.223467 0.000000 0.000000
    18 -0.000001 -0.932634 0.000000 -1.567302 0.000000 0.000000
    19 0.763064 -2.490556 -0.278957 -0.095237 -0.000820 0.086904
    20 -0.012322 -1.280917 0.000000 -0.337134 0.000000 0.000000
    21 -0.001695 -0.738090 0.129481 -0.687768 0.000000 0.000000
    22 0.354567 0.016267 0.318132 0.458016 -0.443922 -1.167629
    23 1.887165 0.012877 0.000000 -0.294573 -0.081938 -0.664933
    24 1.001875 -0.000270 0.000001 0.000000 0.000000 -0.391564
    25 -1.123358 -2.195093 -0.278957 -1.174569 -0.118731 -0.146518
    26 0.010772 -0.963791 0.000000 -0.977378 0.000000 0.000000
    27 -0.010413 -0.631916 0.000000 -1.034985 0.000000 0.000000
    28 2.465700 -8.948108 -9.048948 -0.492970 0.741613 0.239521
    29 0.089929 -8.543165 0.000003 0.308034 -0.342948 0.247451
    30 0.000000 -0.359713 0.000000 0.000000 0.000000 0.000000
    31 -0.170479 -2.636147 -0.277654 -1.254477 -0.052707 0.090280
    32 0.010598 -1.261176 0.000001 -0.473462 0.000000 0.000000
    33 -0.000001 -0.943233 0.000000 -0.944945 0.000000 0.000000
    34 -0.827562 -2.508970 -0.277656 -0.821506 -0.046328 0.035347
    35 0.000001 -1.292972 -0.000001 -0.708426 0.000000 0.000000
    36 -0.000001 -0.752465 -0.000001 -0.777556 -0.248777 0.191914
    37 0.444214 -2.561960 -0.277654 -1.660626 0.037900 0.168005
    38 0.021023 -1.208187 0.000000 -0.304120 0.000000 0.000000
    39 0.010596 -0.741867 -0.000002 -0.721161 0.000000 0.000000
    40 1.047445 -2.222821 -0.277654 -1.372249 0.033616 0.229366
    41 0.000000 -0.996224 -0.000001 -0.809238 0.000000 0.000000
    42 0.000000 -0.614690 0.000000 -1.031474 0.000000 0.000000
    43 -0.308256 -0.007812 0.307165 -0.288434 -0.279327 -2.445625
    44 1.978378 0.019543 0.000000 0.049709 -0.095804 0.322258
    45 0.980612 0.058421 -0.012628 0.135543 -0.037979 0.358606
  time 10
    0 9.486894 1.766054 -7.668103 0.063325 -1.482328 -0.196276
    1 -0.021280 -8.563255 -0.000751 0.227867 -0.070856 -0.007364
    2 0.130659 -2.124660 0.560144 0.930310 1.695867 0.941617
    3 0.020044 -12.116384 2.673301 0.000000 0.000000 0.000000
    4 -0.019949 6.033916 0.667370 0.000000 0.000000 0.000000
    5 0.549269 31.074096 -40.414410 1.587326 0.000000 0.000000
    6 0.033347 -2.674108 2.782817 0.000000 0.000000 0.000000
    7 0.000513 -7.537987 3.585761 0.000000 0.000000 0.000000
    8 -0.294703 -6.287284 2.026899 0.000000 0.000000 0.000000
    9 1.007304 3.926682 -0.773263 0.000000 0.000000 0.000000
    10 0.292910 28.487060 -8.495704 0.000041 0.000000 0.000006
    11 0.295215 1.713771 0.618519 -0.000001 0.000000 0.000001
    12 -0.003480 -0.404828 0.000000 -0.000001 0.000000 0.000000
    13 -0.519309 -2.501154 -0.278957 -1.107351 -0.060906 -0.152578
    14 -0.010598 -1.208185 -0.000001 -1.179841 0.000000 0.000000
    15 0.000000 -0.763066 -0.000001 -1.228719 0.000000 0.000000
    16 0.105981 -2.607133 -0.278958 -0.873867 -0.036146 -0.178590
    17 0.000000 -1.250579 0.000000 -1.223467 0.000000 0.000000
    18 -0.000001 -0.932634 0.000000 -1.567302 0.000000 0.000000
    19 0.763064 -2.490556 -0.278957 -0.095237 -0.000820 0.086904
    20 -0.012322 -1.280917 0.000000 -0.337134 0.000000 0.000000
    21 -0.001695 -0.738090 0.129481 -0.687768 0.000000 0.000000
    22 0.354567 0.016267 0.318132 0.458016 -0.443922 -1.167629
    23 1.887165 0.012877 0.000000 -0.294573 -0.081938 -0.664933
    24 1.001875 -0.000270 0.000001 0.000000 0.000000 -0.391564
    25 -1.123358 -2.195093 -0.278957 -1.174569 -0.118731 -0.146518
    26 0.010772 -0.963791 0.000000 -0.977378 0.000000 0.000000
    27 -0.010413 -0.631916 0.000000 -1.034985 0.000000 0.000000
    28 2.465700 -8.959827 -9.056760 -0.493825 0.741259 0.238636
    29 0.089929 -8.543165 0.000003 0.308034 -0.342948 0.247451
    30 0.000000 -0.359713 0.000000 0.000000 0.000000 0.000000
    31 -0.170479 -2.636147 -0.277654 -1.254477 -0.052707 0.090280
    32 0.010598 -1.261176 0.000001 -0.473462 0.000000 0.000000
    33 -0.000001 -0.943233 0.000000 -0.944945 0.000000 0.000000
    34 -0.827562 -2.508970 -0.277656 -0.821506 -0.046328 0.035347
    35 0.000001 -1.292972 -0.000001 -0.708426 0.000000 0.000000
    36 -0.000001 -0.752465 -0.000001 -0.777556 -0.248777 0.191914
    37 0.444214 -2.561960 -0.277654 -1.660626 0.037900 0.168005
    38 0.021023 -1.208187 0.000000 -0.304120 0.000000 0.000000
    39 0.010596 -0.741867 -0.000002 -0.721161 0.000000 0.000000
    40 1.047445 -2.222821 -0.277654 -1.372249 0.033616 0.229366
    41 0.000000 -0.996224 -0.000001 -0.809238 0.000000 0.000000
    42 0.000000 -0.614690 0.000000 -1.031474 0.000000 0.000000
    43 -0.308256 -0.007812 0.307165 -0.291437 -0.282483 -2.439217
    44 1.978378 0.019543 0.000000 0.049948 -0.095685 0.319852
    45 0.980612 0.058421 -0.012628 0.135543 -0.037979 0.358606
  time 11
    0 9.486894 1.809024 -7.668103 0.046233 -1.481914 -0.179108
    1 -0.021280 -8.563255 -0.000751 0.227867 -0.070856 -0.007364
    2 0.130659 -2.124660 0.560144 0.930310 1.695867 0.941617
    3 0.020044 -12.116384 2.673301 0.000000 0.000000 0.000000
    4 -0.019949 6.033916 0.667370 0.000000 0.000000 0.000000
    5 0.549269 31.074096 -40.414410 1.587326 0.000000 0.000000
    6 0.033347 -2.674108 2.782817 0.000000 0.000000 0.000000
    7 0.000513 -7.537987 3.585761 0.000000 0.000000 0.000000
    8 -0.294703 -6.287284 2.026899 0.000000 0.000000 0.000000
    9 1.007304 3.926682 -0.773263 0.000000 0.000000 0.000000
    10 0.292910 28.487060 -8.495704 0.000041 0.000000 0.000006
    11 0.295215 1.713771 0.618519 -0.000001 0.000000 0.000001
    12 -0.003480 -0.404828 0.000000 -0.000001 0.000000 0.000000
    13 -0.519309 -2.501154 -0.278957 -1.107351 -0.060906 -0.152578
    14 -0.010598 -1.208185 -0.000001 -1.179841 0.000000 0.000000
    15 0.000000 -0.763066 -0.000001 -1.228719 0.000000 0.000000
    16 0.105981 -2.607133 -0.278958 -0.873867 -0.036146 -0.178590
    17 0.000000 -1.250579 0.000000 -1.223467 0.000000 0.000000
    18 -0.000001 -0.932634 0.000000 -1.567302 0.000000 0.000000
    19 0.763064 -2.490556 -0.278957 -0.095237 -0.000820 0.086904
    20 -0.012322 -1.280917 0.000000 -0.337134 0.000000 0.000000
    21 -0.001695 -0.738090 0.129481 -0.687768 0.000000 0.000000
    22 0.354567 0.016267 0.318132 0.458016 -0.443922 -1.167629
    23 1.887165 0.012877 0.000000 -0.294573 -0.081938 -0.664933
    24 1.001875 -0.000270 0.000001 0.000000 0.000000 -0.391564
    25 -1.123358 -2.195093 -0.278957 -1.174569 -0.118731 -0.146518
    26 0.010772 -0.963791 0.000000 -0.977378 0.000000 0.000000
    27 -0.010413 -0.631916 0.000000 -1.034985 0.000000 0.000000
    28 2.465700 -8.963733 -9.056760 -0.496511 0.741259 0.238636
    29 0.089929 -8.543165 0.000003 0.308034 -0.342948 0.247451
    30 0.000000 -0.359713 0.000000 0.000000 0.000000 0.000000
    31 -0.170479 -2.636147 -0.277654 -1.254477 -0.052707 0.090280
    32 0.010598 -1.261176 0.000001 -0.473462 0.000000 0.000000
    33 -0.000001 -0.943233 0.000000 -0.944945 0.000000 0.000000
    34 -0.827562 -2.508970 -0.277656 -0.821506 -0.046328 0.035347
    35 0.000001 -1.292972 -0.000001 -0.708426 0.000000 0.000000
    36 -0.000001 -0.752465 -0.000001 -0.777556 -0.248777 0.191914
    37 0.444214 -2.561960 -0.277654 -1.660626 0.037900 0.168005
    38 0.021023 -1.208187 0.000000 -0.304120 0.000000 0.000000
    39 0.010596 -0.741867 -0.000002 -0.721161 0.000000 0.000000
    40 1.047445 -2.222821 -0.277654 -1.372249 0.033616 0.229366
    41 0.000000 -0.996224 -0.000001 -0.809238 0.000000 0.000000
    42 0.000000 -0.614690 0.000000 -1.031474 0.000000 0.000000
    43 -0.308256 -0.007812 0.307165 -0.294627 -0.285719 -2.432374
    44 1.978378 0.019543 0.000000 0.050159 -0.095565 0.317550
    45 0.980612 0.058421 -0.012628 0.135543 -0.037979 0.358606
  time 12
    0 9.486894 1.859807 -7.668103 0.027359 -1.481500 -0.160196
    1 -0.021280 -8.563255 -0.000751 0.227867 -0.070856 -0.007364
    2 0.130659 -2.124660 0.560144 0.930310 1.695867 0.941617
    3 0.020044 -12.116384 2.673301 0.000000 0.000000 0.000000
    4 -0.019949 6.033916 0.667370 0.000000 0.000000 0.000000
    5 0.549269 31.074096 -40.414410 1.587326 0.000000 0.000000
    6 0.033347 -2.674108 2.782817 0.000000 0.000000 0.000000
    7 0.000513 -7.537987 3.585761 0.000000 0.000000 0.000000
    8 -0.294703 -6.287284 2.026899 0.000000 0.000000 0.000000
    9 1.007304 3.926682 -0.773263 0.000000 0.000000 0.000000
    10 0.292910 28.487060 -8.495704 0.000041 0.000000 0.000006
    11 0.295215 1.713771 0.618519 -0.000001 0.000000 0.000001
    12 -0.003480 -0.404828 0.000000 -0.000001 0.000000 0.000000
    13 -0.519309 -2.501154 -0.278957 -1.107351 -0.060906 -0.152578
    14 -0.010598 -1.208185 -0.000001 -1.179841 0.000000 0.000000
    15 0.000000 -0.763066 -0.000001 -1.228719 0.000000 0.000000
    16 0.105981 -2.607133 -0.278958 -0.873867 -0.036146 -0.178590
    17 0.000000 -1.250579 0.000000 -1.223467 0.000000 0.000000
    18 -0.000001 -0.932634 0.000000 -1.567302 0.000000 0.000000
    19 0.763064 -2.490556 -0.278957 -0.095237 -0.000820 0.086904
    20 -0.012322 -1.280917 0.000000 -0.337134 0.000000 0.000000
    21 -0.001695 -0.738090 0.129481 -0.687768 0.000000 0.000000
    22 0.354567 0.016267 0.318132 0.458016 -0.443922 -1.167629
    23 1.887165 0.012877 0.000000 -0.294573 -0.081938 -0.664933
    24 1.001875 -0.000270 0.000001 0.000000 0.000000 -0.391564
    25 -1.123358 -2.195093 -0.278957 -1.174569 -0.118731 -0.146518
    26 0.010772 -0.963791 0.000000 -0.977378 0.000000 0.000000
    27 -0.010413 -0.631916 0.000000 -1.034985 0.000000 0.000000
    28 2.465700 -8.940295 -9.052854 -0.499074 0.740905 0.237927
    29 0.089929 -8.543165 0.000003 0.308034 -0.342948 0.247451
    30 0.000000 -0.359713 0.000000 0.000000 0.000000 0.000000
    31 -0.170479 -2.636147 -0.277654 -1.254477 -0.052707 0.090280
    32 0.010598 -1.261176 0.000001 -0.473462 0.000000 0.000000
    33 -0.000001 -0.943233 0.000000 -0.944945 0.000000 0.000000
    34 -0.827562 -2.508970 -0.277656 -0.821506 -0.046328 0.035347
    35 0.000001 -1.292972 -0.000001 -0.708426 0.000000 0.000000
    36 -0.000001 -0.752465 -0.000001 -0.777556 -0.248777 0.191914
    37 0.444214 -2.561960 -0.277654 -1.660626 0.037900 0.168005
    38 0.021023 -1.208187 0.000000 -0.304120 0.000000 0.000000
    39 0.010596 -0.741867 -0.000002 -0.721161 0.000000 0.000000
    40 1.047445 -2.222821 -0.277654 -1.372249 0.033616 0.229366
    41 0.000000 -0.996224 -0.000001 -0.809238 0.000000 0.000000
    42 0.000000 -0.614690 0.000000 -1.031474 0.000000 0.000000
    43 -0.308256 -0.007812 0.307165 -0.297361 -0.288399 -2.426333
    44 1.978378 0.019543 0.000000 0.050370 -0.095469 0.315458
    45 0.980612 0.058421 -0.012628 0.135543 -0.037979 0.358606
  time 13
    0 9.486894 1.898871 -7.668103 0.012097 -1.481138 -0.144864
    1 -0.021280 -8.563255 -0.000751 0.227867 -0.070856 -0.007364
    2 0.130659 -2.124660 0.560144 0.930310 1.695867 0.941617
    3 0.020044 -12.116384 2.673301 0.000000 0.000000 0.000000
    4 -0.019949 6.033916 0.667370 0.000000 0.000000 0.000000
    5 0.549269 31.074096 -40.414410 1.587326 0.000000 0.000000
    6 0.033347 -2.674108 2.782817 0.000000 0.000000 0.000000
    7 0.000513 -7.537987 3.585761 0.000000 0.000000 0.000000
    8 -0.294703 -6.287284 2.026899 0.000000 0.000000 0.000000
    9 1.007304 3.926682 -0.773263 0.000000 0.000000 0.000000
    10 0.292910 28.487060 -8.495704 0.000041 0.000000 0.000006
    11 0.295215 1.713771 0.618519 -0.000001 0.000000 0.000001
    12 -0.003480 -0.404828 0.000000 -0.000001 0.000000 0.000000
    13 -0.519309 -2.501154 -0.278957 -1.107351 -0.060906 -0.152578
    14 -0.010598 -1.208185 -0.000001 -1.179841 0.000000 0.000000
    15 0.000000 -0.763066 -0.000001 -1.228719 0.000000 0.000000
    16 0.105981 -2.607133 -0.278958 -0.873867 -0.036146 -0.178590
    17 0.000000 -1.250579 0.000000 -1.223467 0.000000 0.000000
    18 -0.000001 -0.932634 0.000000 -1.567302 0.000000 0.000000
    19 0.763064 -2.490556 -0.278957 -0.095237 -0.000820 0.086904
    20 -0.012322 -1.280917 0.000000 -0.337134 0.000000 0.000000
    21 -0.001695 -0.738090 0.129481 -0.687768 0.000000 0.000000
    22 0.354567 0.016267 0.318132 0.458016 -0.443922 -1.167629
    23 1.887165 0.012877 0.000000 -0.294573 -0.081938 -0.664933
    24 1.001875 -0.000270 0.000001 0.000000 0.000000 -0.391564
    25 -1.123358 -2.195093 -0.278957 -1.174569 -0.118731 -0.146518
    26 0.010772 -0.963791 0.000000 -0.977378 0.000000 0.000000
    27 -0.010413 -0.631916 0.000000 -1.034985 0.000000 0.000000
    28 2.465700 -8.885606 -9.048948 -0.500173 0.740463 0.236687
    29 0.089929 -8.543165 0.000003 0.308034 -0.342948 0.247451
    30 0.000000 -0.359713 0.000000 0.000000 0.000000 0.000000
    31 -0.170479 -2.636147 -0.277654 -1.254477 -0.052707 0.090280
    32 0.010598 -1.261176 0.000001 -0.473462 0.000000 0.000000
    33 -0.000001 -0.943233 0.000000 -0.944945 0.000000 0.000000
    34 -0.827562 -2.508970 -0.277656 -0.821506 -0.046328 0.035347
    35 0.000001 -1.292972 -0.000001 -0.708426 0.000000 0.000000
    36 -0.000001 -0.752465 -0.000001 -0.777556 -0.248777 0.191914
    37 0.444214 -2.561960 -0.277654 -1.660626 0.037900 0.168005
    38 0.021023 -1.208187 0.000000 -0.304120 0.000000 0.000000
    39 0.010596 -0.741867 -0.000002 -0.721161 0.000000 0.000000
    40 1.047445 -2.222821 -0.277654 -1.372249 0.033616 0.229366
    41 0.000000 -0.996224 -0.000001 -0.809238 0.000000 0.000000
    42 0.000000 -0.614690 0.000000 -1.031474 0.000000 0.000000
    43 -0.308256 -0.007812 0.307165 -0.300096 -0.290636 -2.419857
    44 1.978378 0.019543 0.000000 0.050524 -0.095385 0.313784
    45 0.980612 0.058421 -0.012628 0.135543 -0.037979 0.358606
  time 14
    0 9.486894 1.914496 -7.668103 0.005838 -1.481035 -0.138529
    1 -0.021280 -8.563255 -0.000751 0.227867 -0.070856 -0.007364
    2 0.130659 -2.124660 0.560144 0.930310 1.695867 0.941617
    3 0.020044 -12.116384 2.673301 0.000000 0.000000 0.000000
    4 -0.019949 6.033916 0.667370 0.000000 0.000000 0.000000
    5 0.549269 31.074096 -40.414410 1.587326 0.000000 0.000000
    6 0.033347 -2.674108 2.782817 0.000000 0.000000 0.000000
    7 0.000513 -7.537987 3.585761 0.000000 0.000000 0.000000
    8 -0.294703 -6.287284 2.026899 0.000000 0.000000 0.000000
    9 1.007304 3.926682 -0.773263 0.000000 0.000000 0.000000
    10 0.292910 28.487060 -8.495704 0.000041 0.000000 0.000006
    11 0.295215 1.713771 0.618519 -0.000001 0.000000 0.000001
    12 -0.003480 -0.404828 0.000000 -0.000001 0.000000 0.000000
    13 -0.519309 -2.501154 -0.278957 -1.107351 -0.060906 -0.152578
    14 -0.010598 -1.208185 -0.000001 -1.179841 0.000000 0.000000
    15 0.000000 -0.763066 -0.000001 -1.228719 0.000000 0.000000
    16 0.105981 -2.607133 -0.278958 -0.873867 -0.036146 -0.178590
    17 0.000000 -1.250579 0.000000 -1.223467 0.000000 0.000000
    18 -0.000001 -0.932634 0.000000 -1.567302 0.000000 0.000000
    19 0.763064 -2.490556 -0.278957 -0.095237 -0.000820 0.086904
    20 -0.012322 -1.280917 0.000000 -0.337134 0.000000 0.000000
    21 -0.001695 -0.738090 0.129481 -0.687768 0.000000 0.000000
    22 0.354567 0.016267 0.318132 0.458016 -0.443922 -1.167629
    23 1.887165 0.012877 0.000000 -0.294573 -0.081938 -0.664933
    24 1.001875 -0.000270 0.000001 0.000000 0.000000 -0.391564
    25 -1.123358 -2.195093 -0.278957 -1.174569 -0.118731 -0.146518
    26 0.010772 -0.963791 0.000000 -0.977378 0.000000 0.000000
    27 -0.010413 -0.631916 0.000000 -1.034985 0.000000 0.000000
    28 2.465700 -8.834823 -9.041135 -0.500295 0.739932 0.235447
    29 0.089929 -8.543165 0.000003 0.308034 -0.342948 0.247451
    30 0.000000 -0.359713 0.000000 0.000000 0.000000 0.000000
    31 -0.170479 -2.636147 -0.277654 -1.254477 -0.052707 0.090280
    32 0.010598 -1.261176 0.000001 -0.473462 0.000000 0.000000
    33 -0.000001 -0.943233 0.000000 -0.944945 0.000000 0.000000
    34 -0.827562 -2.508970 -0.277656 -0.821506 -0.046328 0.035347
    35 0.000001 -1.292972 -0.000001 -0.708426 0.000000 0.000000
    36 -0.000001 -0.752465 -0.000001 -0.777556 -0.248777 0.191914
    37 0.444214 -2.561960 -0.277654 -1.660626 0.037900 0.168005
    38 0.021023 -1.208187 0.000000 -0.304120 0.000000 0.000000
    39 0.010596 -0.741867 -0.000002 -0.721161 0.000000 0.000000
    40 1.047445 -2.222821 -0.277654 -1.372249 0.033616 0.229366
    41 0.000000 -0.996224 -0.000001 -0.809238 0.000000 0.000000
    42 0.000000 -0.614690 0.000000 -1.031474 0.000000 0.000000
    43 -0.308256 -0.007812 0.307165 -0.302726 -0.292523 -2.413327
    44 1.978378 0.019543 0.000000 0.050637 -0.095325 0.312655
    45 0.980612 0.058421 -0.012628 0.135543 -0.037979 0.358606
  time 15
    0 9.486894 1.914496 -7.668103 0.005838 -1.481035 -0.138529
    1 -0.021280 -8.563255 -0.000751 0.227867 -0.070856 -0.007364
    2 0.130659 -2.124660 0.560144 0.930310 1.695867 0.941617
    3 0.020044 -12.116384 2.673301 0.000000 0.000000 0.000000
    4 -0.019949 6.033916 0.667370 0.000000 0.000000 0.000000
    5 0.549269 31.074096 -40.414410 1.587326 0.000000 0.000000
    6 0.033347 -2.674108 2.782817 0.000000 0.000000 0.000000
    7 0.000513 -7.537987 3.585761 0.000000 0.000000 0.000000
    8 -0.294703 -6.287284 2.026899 0.000000 0.000000 0.000000
    9 1.007304 3.926682 -0.773263 0.000000 0.000000 0.000000
    10 0.292910 28.487060 -8.495704 0.000041 0.000000 0.000006
    11 0.295215 1.713771 0.618519 -0.000001 0.000000 0.000001
    12 -0.003480 -0.404828 0.000000 -0.000001 0.000000 0.000000
    13 -0.519309 -2.501154 -0.278957 -1.107351 -0.060906 -0.152578
    14 -0.010598 -1.208185 -0.000001 -1.179841 0.000000 0.000000
    15 0.000000 -0.763066 -0.000001 -1.228719 0.000000 0.000000
    16 0.105981 -2.607133 -0.278958 -0.873867 -0.036146 -0.178590
    17 0.000000 -1.250579 0.000000 -1.223467 0.000000 0.000000
    18 -0.000001 -0.932634 0.000000 -1.567302 0.000000 0.000000
    19 0.763064 -2.490556 -0.278957 -0.095237 -0.000820 0.086904
    20 -0.012322 -1.280917 0.000000 -0.337134 0.000000 0.000000
    21 -0.001695 -0.738090 0.129481 -0.687768 0.000000 0.000000
    22 0.354567 0.016267 0.318132 0.458016 -0.443922 -1.167629
    23 1.887165 0.012877 0.000000 -0.294573 -0.081938 -0.664933
    24 1.001875 -0.000270 0.000001 0.000000 0.000000 -0.391564
    25 -1.123358 -2.195093 -0.278957 -1.174569 -0.118731 -0.146518
    26 0.010772 -0.963791 0.000000 -0.977378 0.000000 0.000000
    27 -0.010413 -0.631916 0.000000 -1.034985 0.000000 0.000000
    28 2.465700 -8.811385 -9.041135 -0.500234 0.739755 0.234915
    29 0.089929 -8.543165 0.000003 0.308034 -0.342948 0.247451
    30 0.000000 -0.359713 0.000000 0.000000 0.000000 0.000000
    31 -0.170479 -2.636147 -0.277654 -1.254477 -0.052707 0.090280
    32 0.010598 -1.261176 0.000001 -0.473462 0.000000 0.000000
    33 -0.000001 -0.943233 0.000000 -0.944945 0.000000 0.000000
    34 -0.827562 -2.508970 -0.277656 -0.821506 -0.046328 0.035347
    35 0.000001 -1.292972 -0.000001 -0.708426 0.000000 0.000000
    36 -0.000001 -0.752465 -0.000001 -0.777556 -0.248777 0.191914
    37 0.444214 -2.561960 -0.277654 -1.660626 0.037900 0.168005
    38 0.021023 -1.208187 0.000000 -0.304120 0.000000 0.000000
    39 0.010596 -0.741867 -0.000002 -0.721161 0.000000 0.000000
    40 1.047445 -2.222821 -0.277654 -1.372249 0.033616 0.229366
    41 0.000000 -0.996224 -0.000001 -0.809238 0.000000 0.000000
    42 0.000000 -0.614690 0.000000 -1.031474 0.000000 0.000000
    43 -0.308256 -0.007812 0.307165 -0.303907 -0.293316 -2.410361
    44 1.978378 0.019543 0.000000 0.050665 -0.095313 0.312257
    45 0.980612 0.058421 -0.012628 0.135543 -0.037979 0.358606
end
