version 1
nodes
  0 "kronos7_root" -1
  1 "magazine001" 0
  2 "Bone046" 1
  3 "Bone047" 1
  4 "Bone048" 1
  5 "Bone049" 1
  6 "Bone050" 1
  7 "Bone051" 1
  8 "Bone052" 1
  9 "Bone053" 1
  10 "on_off001" 0
  11 "trigger001" 0
  12 "trans_004" 0
  13 "effect001" 0
  14 "ef" 0
  15 "root" -1
  16 "Bone01" 15
  17 "Bone_L_Upper" 16
  18 "Bone_Lefthand" 16
  19 "Bone13" 18
  20 "Bone14" 19
  21 "Bone15" 20
  22 "Bone17" 18
  23 "Bone18" 22
  24 "Bone19" 23
  25 "Bone21" 18
  26 "Bone22" 25
  27 "Bone23" 26
  28 "Bone09" 18
  29 "Bone10" 28
  30 "Bone11" 29
  31 "Bone05" 18
  32 "Bone06" 31
  33 "Bone07" 32
  34 "Bone_Se_Hand-L" 18
  35 "Bone04" 15
  36 "Bone_Righthand" 35
  37 "Bone39" 36
  38 "Bone40" 37
  39 "Bone41" 38
  40 "Bone35" 36
  41 "Bone36" 40
  42 "Bone37" 41
  43 "Bone31" 36
  44 "Bone32" 43
  45 "Bone33" 44
  46 "Bone43" 36
  47 "Bone44" 46
  48 "Bone45" 47
  49 "Bone27" 36
  50 "Bone28" 49
  51 "Bone29" 50
  52 "Bone_Se_Hand-R" 36
  53 "Bone_R_Upper" 35
end
skeleton
  time 0
    0 5.788436 -7.371059 -4.691704 -1.563854 -3.088299 1.532621
    1 7.256281 -6.789095 0.007775 1.570852 0.002703 1.570796
    2 -8.387457 1.419006 -15.650768 -1.568094 -1.570796 0.000000
    3 -7.690338 1.420767 -15.761789 -1.570782 -1.579097 0.002690
    4 -7.141596 1.422384 -15.729663 1.570796 -1.564572 -3.138911
    5 -6.657551 1.423672 -15.650766 -1.568094 -1.570796 0.000000
    6 -6.086634 1.425229 -15.646478 -1.568094 -1.570796 0.000000
    7 -5.545771 1.426690 -15.646479 -1.568094 -1.570796 0.000000
    8 -5.050365 1.149551 -15.729663 1.570787 -1.564582 -3.138906
    9 -4.874943 0.661145 -15.728582 1.570787 -1.564582 -3.138906
    10 7.343514 2.039688 -0.990803 0.000001 -1.570451 0.000000
    11 4.373582 -1.441754 -0.000001 -0.000006 0.000000 -1.560452
    12 1.562920 2.178154 -0.858015 -1.569970 -1.566830 1.569970
    13 4.731497 -2.650227 -0.000001 1.570796 0.000000 0.000000
    14 -1.683354 3.125507 0.141889 3.141592 0.000000 0.000000
    15 0.001265 -0.569176 -20.601572 0.000000 0.000000 0.000000
    16 9.310103 -5.299614 -12.557959 3.138909 -0.000224 -1.566807
    17 1.257180 8.762585 -0.153713 -1.570562 0.002683 -1.566807
    18 -0.071921 -8.498736 -0.104134 -0.025046 0.287591 0.014898
    19 -0.488518 -2.755602 -0.228260 0.106454 0.010332 -0.264490
    20 0.039887 -1.479790 0.029854 -0.055395 0.000000 0.000001
    21 0.028786 -1.075731 -0.023109 0.002099 0.000000 0.000000
    22 0.250027 -2.820665 -0.238396 0.041826 -0.002921 0.008443
    23 -0.049759 -1.680544 0.100479 0.019826 0.000000 -0.000002
    24 -0.034142 -1.148312 0.084782 -0.040115 0.000000 0.000000
    25 0.957766 -2.746780 -0.090302 -0.017221 -0.162277 0.191558
    26 -0.033420 -1.397129 -0.011257 0.013931 0.000000 -0.000001
    27 -0.022360 -0.957436 0.018784 0.003845 0.000000 0.000000
    28 -1.180681 -2.507217 -0.193859 0.082999 0.013294 -0.477915
    29 -0.024967 -1.123934 0.017597 -0.018065 0.000000 0.000001
    30 -0.020057 -0.890968 0.010090 -0.060797 0.000000 0.000000
    31 0.583510 -1.197277 0.185379 0.158049 -0.404973 -0.364290
    32 1.535927 0.010246 0.005009 -0.002964 -0.012979 0.000887
    33 1.100771 0.004527 -0.010679 -0.002796 0.015973 0.003458
    34 0.120153 -0.050270 -0.054489 0.287569 3.110905 1.561085
    35 -9.310107 -5.231260 -12.513384 0.004984 -3.131565 -1.566847
    36 0.096944 -8.450418 -0.009365 -0.032965 -0.297907 -0.004663
    37 0.447953 -2.798986 -0.200443 0.106456 -0.010396 0.265094
    38 -0.032909 -1.480204 0.004940 -0.055403 0.000000 0.000002
    39 -0.027022 -1.076920 -0.020210 0.002094 0.000000 0.000000
    40 -0.249534 -2.846964 -0.174213 0.041903 -0.000125 -0.008396
    41 0.043235 -1.683941 0.096012 0.019757 0.002823 -0.000167
    42 0.031729 -1.160830 0.058838 -0.040181 0.000642 0.008372
    43 -0.963866 -2.785145 -0.085350 -0.017227 0.162276 -0.191556
    44 0.028479 -1.403067 0.006271 0.013941 0.000000 0.000000
    45 0.021413 -0.957781 0.020046 0.003851 0.000000 0.000000
    46 1.164475 -2.543940 -0.170330 0.083003 -0.013294 0.477915
    47 0.024032 -1.129042 0.017807 -0.018074 0.000000 0.000001
    48 0.014898 -0.883989 -0.019848 -0.060801 0.000000 0.000000
    49 -0.586770 -1.264477 0.200161 -0.152092 -0.410513 -2.814816
    50 1.522835 0.058681 0.016848 0.001410 0.008985 -0.046880
    51 1.117947 0.048424 -0.005766 -0.000243 -0.025198 0.065422
    52 -0.139399 -0.111698 0.014397 0.285382 -0.030687 1.580508
    53 -1.393470 8.839177 -0.239433 1.580804 -0.005023 -1.566847
end
triangles
argus5_scope_effect.bmp
  0 6.345807 -8.742218 -1.631204 -0.036764 -0.887831 0.458698 0.380392 0.513725
  0 6.354472 -8.384390 -0.929289 -0.036764 -0.887831 0.458698 0.380392 0.811765
  0 5.086738 -8.694595 -1.639939 -0.036764 -0.887831 0.458698 0.592157 0.513725
argus5_scope_effect.bmp
  0 5.086738 -8.694595 -1.639939 -0.036764 -0.887831 0.458698 0.592157 0.513725
  0 6.354472 -8.384390 -0.929289 -0.036764 -0.887831 0.458698 0.380392 0.811765
  0 5.095402 -8.336767 -0.938024 -0.036764 -0.887831 0.458698 0.592157 0.811765
argus5_scope_effect.bmp
  0 6.399923 -7.198015 -1.012650 0.038113 0.997853 -0.053268 0.592157 0.784314
  0 6.403454 -7.236530 -1.731610 0.038113 0.997853 -0.053268 0.592157 0.541176
  0 5.140854 -7.150393 -1.021384 0.038113 0.997853 -0.053268 0.380392 0.784314
argus5_scope_effect.bmp
  0 5.140854 -7.150393 -1.021384 0.038113 0.997853 -0.053268 0.380392 0.784314
  0 6.403454 -7.236530 -1.731610 0.038113 0.997853 -0.053268 0.592157 0.541176
  0 5.144385 -7.188908 -1.740345 0.038113 0.997853 -0.053268 0.380392 0.541176
end
