version 1
nodes
  0 "root" -1
  1 "Bone01" 0
  2 "Bone_L_Upper" 1
  3 "Bone_Lefthand" 1
  4 "Bone13" 3
  5 "Bone14" 4
  6 "Bone15" 5
  7 "Bone17" 3
  8 "Bone18" 7
  9 "Bone19" 8
  10 "Bone21" 3
  11 "Bone22" 10
  12 "Bone23" 11
  13 "Bone09" 3
  14 "Bone10" 13
  15 "Bone11" 14
  16 "Bone05" 3
  17 "Bone06" 16
  18 "Bone07" 17
  19 "Bone_Se_Hand-L" 3
  20 "Bone04" 0
  21 "Bone_Righthand" 20
  22 "Bone39" 21
  23 "Bone40" 22
  24 "Bone41" 23
  25 "Bone35" 21
  26 "Bone36" 25
  27 "Bone37" 26
  28 "Bone31" 21
  29 "Bone32" 28
  30 "Bone33" 29
  31 "Bone43" 21
  32 "Bone44" 31
  33 "Bone45" 32
  34 "Bone27" 21
  35 "Bone28" 34
  36 "Bone29" 35
  37 "Bone_Se_Hand-R" 21
  38 "Bone_R_Upper" 20
  39 "M32MGL_root" 3
  40 "M32MGL_handle01" 39
  41 "M32MGL_magazine" 40
  42 "M32MGL_bullet01" 41
  43 "M32MGL_bullet02" 41
  44 "M32MGL_handle04" 39
  45 "M32MGL_trigger" 39
  46 "M32MGL_handle03" 39
end
skeleton
  time 0
    0 6.485727 -0.395808 -8.499640 0.823167 0.017246 -0.067874
    1 6.892061 8.626592 4.630066 0.597209 -2.390768 -0.936851
    2 1.257180 8.762585 -0.153713 -1.570562 0.002683 -1.566807
    3 -0.071921 -8.498736 -0.104134 -0.121917 0.124529 -0.603020
    4 -0.488518 -2.755602 -0.228260 -0.987556 0.010332 -0.264490
    5 0.039887 -1.479790 0.029854 -1.633593 0.000000 0.000001
    6 0.028786 -1.075731 -0.023109 -0.474516 0.000000 0.000000
    7 0.250027 -2.902699 -0.238396 0.055309 0.211328 0.148974
    8 -0.049759 -1.680544 0.100479 -0.625688 0.000000 -0.000002
    9 -0.034142 -1.148312 0.084782 -1.037833 0.000000 0.000000
    10 1.207774 -3.121791 -0.090302 -0.219964 -0.043414 0.086225
    11 -0.033420 -1.397129 -0.011257 -0.345797 0.043804 -0.037992
    12 -0.022360 -0.957436 0.018784 -0.522195 0.003452 0.001139
    13 -1.180681 -2.456434 -0.021979 -1.189698 0.133751 -0.426957
    14 -0.024967 -1.123934 0.017597 -1.225081 0.000000 0.000001
    15 -0.020057 -0.890968 0.010090 -0.829947 0.000000 0.000000
    16 0.583510 -1.197277 0.509608 0.656940 -1.082222 -0.580204
    17 1.535927 0.010246 0.005009 0.009716 -0.009096 -1.042668
    18 1.100771 0.004527 -0.010679 -0.007961 0.014127 -0.337036
    19 -0.102510 -0.097146 -0.113085 -2.841656 6.244807 -1.149557
    20 -14.642301 -4.481237 9.014617 -0.023842 -3.096757 1.345675
    21 0.096944 -8.450418 -0.009365 -0.420920 -0.485614 0.570612
    22 0.447953 -2.798986 -0.200443 -0.985557 -0.026624 0.237913
    23 -0.032909 -1.480204 0.004940 -1.633343 0.000000 0.000002
    24 -0.027022 -1.076920 -0.020210 -0.499792 0.000000 0.000000
    25 -0.249534 -2.846964 -0.174213 -0.823106 0.016453 0.152874
    26 0.043235 -1.683941 0.096012 -1.577896 0.002823 -0.000167
    27 0.031729 -1.160830 0.058838 -0.728371 0.000642 0.008372
    28 -0.963866 -2.785145 -0.085350 -0.561535 0.150883 -0.015702
    29 0.028479 -1.403067 0.006271 -1.611638 0.000000 0.000000
    30 0.021413 -0.957781 0.020046 -0.639586 0.000000 0.000000
    31 1.164475 -2.543940 -0.170330 -0.997901 -0.095392 0.221193
    32 0.024032 -1.129042 0.017807 -1.373850 -0.085666 -0.017065
    33 0.014898 -0.883989 -0.019848 -0.443892 0.000000 0.000000
    34 -0.586770 -1.264477 0.200161 -0.048039 -0.724402 -2.671742
    35 1.522835 0.058681 0.016848 0.111333 -0.109123 0.829287
    36 1.117947 0.048424 -0.005766 0.016044 0.021098 0.267022
    37 -0.139399 -0.111698 0.014397 0.600917 0.020607 1.269280
    38 -3.163055 8.011027 -0.251152 1.579282 -0.007300 -1.321058
    39 1.602930 -3.419616 0.993028 -0.015493 0.004288 2.654875
    40 -3.004853 -0.321123 0.000001 -1.202787 0.219378 1.907594
    41 5.485916 -2.877731 0.000000 -1.047165 0.000000 -3.141309
    42 3.732013 -0.730559 1.187537 1.047162 0.000000 3.141486
    43 41.772238 20.042864 22.457718 0.000000 -0.478822 3.835696
    44 -6.621167 8.466717 1.067057 0.000000 -0.207396 0.068970
    45 -0.951095 1.245133 0.000000 0.000000 0.000000 0.651877
    46 -2.307669 -0.369492 0.683323 0.000000 0.000000 1.148170
  time 1
    0 6.415412 -0.305962 -8.339479 0.823167 0.017246 -0.067874
    1 6.892061 8.626592 4.630066 0.597209 -2.390768 -0.936851
    2 1.257180 8.762585 -0.153713 -1.570562 0.002683 -1.566807
    3 -0.071921 -8.498736 -0.104134 -0.122241 0.143752 -0.605408
    4 -0.488518 -2.755602 -0.228260 -0.987556 0.010332 -0.264490
    5 0.039887 -1.479790 0.029854 -1.633593 0.000000 0.000001
    6 0.028786 -1.075731 -0.023109 -0.474516 0.000000 0.000000
    7 0.250027 -2.902699 -0.238396 0.055309 0.211328 0.148974
    8 -0.049759 -1.680544 0.100479 -0.625688 0.000000 -0.000002
    9 -0.034142 -1.148312 0.084782 -1.037833 0.000000 0.000000
    10 1.207774 -3.121791 -0.090302 -0.219964 -0.043414 0.086225
    11 -0.033420 -1.397129 -0.011257 -0.345797 0.043804 -0.037992
    12 -0.022360 -0.957436 0.018784 -0.522195 0.003452 0.001139
    13 -1.180681 -2.456434 -0.021979 -1.189698 0.133751 -0.426957
    14 -0.024967 -1.123934 0.017597 -1.225081 0.000000 0.000001
    15 -0.020057 -0.890968 0.010090 -0.829947 0.000000 0.000000
    16 0.583510 -1.197277 0.509608 0.656940 -1.082222 -0.580204
    17 1.535927 0.010246 0.005009 0.009716 -0.009096 -1.042668
    18 1.100771 0.004527 -0.010679 -0.007961 0.014127 -0.337036
    19 -0.102510 -0.097146 -0.113085 -2.839552 6.251420 -1.147235
    20 -14.204788 -5.485174 7.370035 0.085449 -3.365140 1.264549
    21 0.096944 -8.450418 -0.009365 -0.195894 -0.515572 0.336859
    22 0.447953 -2.798986 -0.200443 -0.985557 -0.026624 0.237913
    23 -0.032909 -1.480204 0.004940 -1.633343 0.000000 0.000002
    24 -0.027022 -1.076920 -0.020210 -0.499792 0.000000 0.000000
    25 -0.249534 -2.846964 -0.174213 -0.823106 0.016453 0.152874
    26 0.043235 -1.683941 0.096012 -1.626880 0.002823 -0.000167
    27 0.031729 -1.160830 0.058838 -0.728371 0.000642 0.008372
    28 -0.963866 -2.785145 -0.085350 -0.398577 0.082117 -0.049902
    29 0.028479 -1.403067 0.006271 -1.507837 0.000000 0.000000
    30 0.021413 -0.957781 0.020046 -0.562848 0.000000 0.000000
    31 1.164475 -2.543940 -0.170330 -0.997901 -0.095392 0.221193
    32 0.024032 -1.129042 0.017807 -1.373850 -0.085666 -0.017065
    33 0.014898 -0.883989 -0.019848 -0.443892 0.000000 0.000000
    34 -0.586770 -1.264477 0.200161 -0.069221 -0.796835 -2.602035
    35 1.522835 0.058681 0.016848 0.108013 -0.198696 0.789700
    36 1.117947 0.048424 -0.005766 0.023498 0.017156 0.535273
    37 -0.139399 -0.111698 0.014397 0.523856 0.006321 1.404634
    38 -2.284122 8.425102 -0.243339 1.580109 -0.006209 -1.443035
    39 1.602930 -3.419616 0.993028 -0.015493 0.004288 2.654875
    40 -3.004853 -0.321123 0.000001 -1.202787 0.219378 1.907594
    41 5.485916 -2.877731 0.000000 -1.047165 0.000000 -3.141309
    42 3.732013 -0.730559 1.187537 1.047162 0.000000 3.141486
    43 41.772238 20.042864 22.457718 0.000000 -0.478822 3.835696
    44 -6.621167 8.466717 1.067057 0.000000 -0.207396 0.068970
    45 -0.951095 1.245133 0.000000 0.000000 0.000000 0.651877
    46 -2.307669 -0.369492 0.683323 0.000000 0.000000 1.148170
  time 2
    0 6.364629 -0.235647 -8.214475 0.823167 0.017246 -0.067874
    1 6.892061 8.626592 4.630066 0.597209 -2.390768 -0.936851
    2 1.257180 8.762585 -0.153713 -1.570562 0.002683 -1.566807
    3 -0.071921 -8.498736 -0.104134 -0.122541 0.158541 -0.607238
    4 -0.488518 -2.755602 -0.228260 -0.987556 0.010332 -0.264490
    5 0.039887 -1.479790 0.029854 -1.633593 0.000000 0.000001
    6 0.028786 -1.075731 -0.023109 -0.474516 0.000000 0.000000
    7 0.250027 -2.902699 -0.238396 0.055309 0.211328 0.148974
    8 -0.049759 -1.680544 0.100479 -0.625688 0.000000 -0.000002
    9 -0.034142 -1.148312 0.084782 -1.037833 0.000000 0.000000
    10 1.207774 -3.121791 -0.090302 -0.219964 -0.043414 0.086225
    11 -0.033420 -1.397129 -0.011257 -0.345797 0.043804 -0.037992
    12 -0.022360 -0.957436 0.018784 -0.522195 0.003452 0.001139
    13 -1.180681 -2.456434 -0.021979 -1.189698 0.133751 -0.426957
    14 -0.024967 -1.123934 0.017597 -1.225081 0.000000 0.000001
    15 -0.020057 -0.890968 0.010090 -0.829947 0.000000 0.000000
    16 0.583510 -1.197277 0.509608 0.656940 -1.082222 -0.580204
    17 1.535927 0.010246 0.005009 0.009716 -0.009096 -1.042668
    18 1.100771 0.004527 -0.010679 -0.007961 0.014127 -0.337036
    19 -0.102510 -0.097146 -0.113085 -2.838309 -0.027502 -1.145749
    20 -13.724304 -6.258635 6.108278 0.168968 -3.582167 1.179887
    21 0.096944 -8.450418 -0.009365 0.037159 -0.534324 0.098200
    22 0.447953 -2.798986 -0.200443 -0.985557 -0.026624 0.237913
    23 -0.032909 -1.480204 0.004940 -1.633343 0.000000 0.000002
    24 -0.027022 -1.076920 -0.020210 -0.499792 0.000000 0.000000
    25 -0.249534 -2.846964 -0.174213 -0.823106 0.016453 0.152874
    26 0.043235 -1.683941 0.096012 -1.664643 0.002823 -0.000167
    27 0.031729 -1.160830 0.058838 -0.728371 0.000642 0.008372
    28 -0.963866 -2.785145 -0.085350 -0.273177 0.029074 -0.075688
    29 0.028479 -1.403067 0.006271 -1.428005 0.000000 0.000000
    30 0.021413 -0.957781 0.020046 -0.503841 0.000000 0.000000
    31 1.164475 -2.543940 -0.170330 -0.997901 -0.095392 0.221193
    32 0.024032 -1.129042 0.017807 -1.373850 -0.085666 -0.017065
    33 0.014898 -0.883989 -0.019848 -0.443892 0.000000 0.000000
    34 -0.586770 -1.264477 0.200161 -0.088172 -0.846023 -2.545577
    35 1.522835 0.058681 0.016848 0.105484 -0.266133 0.759252
    36 1.117947 0.048424 -0.005766 0.029778 0.015214 0.741690
    37 -0.139399 -0.111698 0.014397 0.441569 -0.013058 1.538586
    38 -1.639571 8.725892 -0.239433 1.580636 -0.005359 -1.532266
    39 1.602930 -3.419616 0.993028 -0.015493 0.004288 2.654875
    40 -3.004853 -0.321123 0.000001 -1.202787 0.219378 1.907594
    41 5.485916 -2.877731 0.000000 -1.047165 0.000000 -3.141309
    42 3.732013 -0.730559 1.187537 1.047162 0.000000 3.141486
    43 41.772238 20.042864 22.457718 0.000000 -0.478822 3.835696
    44 -6.621167 8.466717 1.067057 0.000000 -0.207396 0.068970
    45 -0.951095 1.245133 0.000000 0.000000 0.000000 0.651877
    46 -2.307669 -0.369492 0.683323 0.000000 0.000000 1.148170
  time 3
    0 6.341191 -0.208303 -8.167599 0.823167 0.017246 -0.067874
    1 6.892061 8.626592 4.630066 0.597209 -2.390768 -0.936851
    2 1.257180 8.762585 -0.153713 -1.570562 0.002683 -1.566807
    3 -0.071921 -8.498736 -0.104134 -0.122684 0.164449 -0.607970
    4 -0.488518 -2.755602 -0.228260 -0.987556 0.010332 -0.264490
    5 0.039887 -1.479790 0.029854 -1.633593 0.000000 0.000001
    6 0.028786 -1.075731 -0.023109 -0.474516 0.000000 0.000000
    7 0.250027 -2.902699 -0.238396 0.055309 0.211328 0.148974
    8 -0.049759 -1.680544 0.100479 -0.625688 0.000000 -0.000002
    9 -0.034142 -1.148312 0.084782 -1.037833 0.000000 0.000000
    10 1.207774 -3.121791 -0.090302 -0.219964 -0.043414 0.086225
    11 -0.033420 -1.397129 -0.011257 -0.345797 0.043804 -0.037992
    12 -0.022360 -0.957436 0.018784 -0.522195 0.003452 0.001139
    13 -1.180681 -2.456434 -0.021979 -1.189698 0.133751 -0.426957
    14 -0.024967 -1.123934 0.017597 -1.225081 0.000000 0.000001
    15 -0.020057 -0.890968 0.010090 -0.829947 0.000000 0.000000
    16 0.583510 -1.197277 0.509608 0.656940 -1.082222 -0.580204
    17 1.535927 0.010246 0.005009 0.009716 -0.009096 -1.042668
    18 1.100771 0.004527 -0.010679 -0.007961 0.014127 -0.337036
    19 -0.102510 -0.097146 -0.113085 -2.837831 -0.026064 -1.145285
    20 -13.216476 -6.567238 5.604357 0.201708 -3.690396 1.100959
    21 0.096944 -8.450418 -0.009365 0.144748 -0.538419 -0.011327
    22 0.447953 -2.798986 -0.200443 -0.985557 -0.026624 0.237913
    23 -0.032909 -1.480204 0.004940 -1.633343 0.000000 0.000002
    24 -0.027022 -1.076920 -0.020210 -0.499792 0.000000 0.000000
    25 -0.249534 -2.846964 -0.174213 -0.823106 0.016453 0.152874
    26 0.043235 -1.683941 0.096012 -1.679724 0.002823 -0.000167
    27 0.031729 -1.160830 0.058838 -0.728371 0.000642 0.008372
    28 -0.963866 -2.785145 -0.085350 -0.222993 0.007833 -0.085871
    29 0.028479 -1.403067 0.006271 -1.396062 0.000000 0.000000
    30 0.021413 -0.957781 0.020046 -0.480239 0.000000 0.000000
    31 1.164475 -2.543940 -0.170330 -0.997901 -0.095392 0.221193
    32 0.024032 -1.129042 0.017807 -1.373850 -0.085666 -0.017065
    33 0.014898 -0.883989 -0.019848 -0.443892 0.000000 0.000000
    34 -0.586770 -1.264477 0.200161 -0.096363 -0.864159 -2.522355
    35 1.522835 0.058681 0.016848 0.104477 -0.292751 0.747079
    36 1.117947 0.048424 -0.005766 0.032463 0.014687 0.824252
    37 -0.139399 -0.111698 0.014397 0.402476 -0.022657 1.599240
    38 -1.393470 8.839177 -0.239433 1.580804 -0.005023 -1.566847
    39 1.602930 -3.419616 0.993028 -0.015493 0.004288 2.654875
    40 -3.004853 -0.321123 0.000001 -1.202787 0.219378 1.907594
    41 5.485916 -2.877731 0.000000 0.000000 0.000000 -3.141309
    42 3.732013 -0.730559 1.187537 1.047162 0.000000 3.141486
    43 41.772238 20.042864 22.457718 0.000000 -0.478822 3.835696
    44 -6.621167 8.466717 1.067057 0.000000 -0.207396 0.068970
    45 -0.951095 1.245133 0.000000 0.000000 0.000000 0.651877
    46 -2.307669 -0.369492 0.683323 0.000000 0.000000 1.148170
  time 4
    0 6.341191 -0.208303 -8.261352 0.820646 0.075467 -0.122004
    1 6.892061 8.626592 4.630066 0.597131 -2.390768 -0.936851
    2 1.257180 8.762585 -0.153713 -1.570562 0.002683 -1.566807
    3 -0.071921 -8.498736 -0.104134 -0.122684 0.164449 -0.607970
    4 -0.488518 -2.755602 -0.228260 -0.987556 0.010332 -0.264490
    5 0.039887 -1.479790 0.029854 -1.633593 0.000000 0.000001
    6 0.028786 -1.075731 -0.023109 -0.474516 0.000000 0.000000
    7 0.250027 -2.902699 -0.238396 0.055309 0.211328 0.148974
    8 -0.049759 -1.680544 0.100479 -0.625688 0.000000 -0.000002
    9 -0.034142 -1.148312 0.084782 -1.037833 0.000000 0.000000
    10 1.207774 -3.121791 -0.090302 -0.219964 -0.043414 0.086225
    11 -0.033420 -1.397129 -0.011257 -0.345797 0.043804 -0.037992
    12 -0.022360 -0.957436 0.018784 -0.522195 0.003452 0.001139
    13 -1.180681 -2.456434 -0.021979 -1.189698 0.133751 -0.426957
    14 -0.024967 -1.123934 0.017597 -1.225081 0.000000 0.000001
    15 -0.020057 -0.890968 0.010090 -0.829947 0.000000 0.000000
    16 0.583510 -1.197277 0.509608 0.656940 -1.082222 -0.580204
    17 1.535927 0.010246 0.005009 0.009716 -0.009096 -1.042668
    18 1.100771 0.004527 -0.010679 -0.007961 0.014127 -0.337036
    19 -0.102510 -0.097146 -0.113085 -2.837831 -0.026064 -1.145285
    20 -11.978157 -5.703930 6.155155 0.018920 -3.709607 0.965939
    21 0.096944 -8.450418 -0.009365 0.144748 -0.538419 -0.011327
    22 0.447953 -2.798986 -0.200443 -0.985557 -0.026624 0.237913
    23 -0.032909 -1.480204 0.004940 -1.633343 0.000000 0.000002
    24 -0.027022 -1.076920 -0.020210 -0.499792 0.000000 0.000000
    25 -0.249534 -2.846964 -0.174213 -0.823106 0.016453 0.152874
    26 0.043235 -1.683941 0.096012 -1.679724 0.002823 -0.000167
    27 0.031729 -1.160830 0.058838 -0.728371 0.000642 0.008372
    28 -0.963866 -2.785145 -0.085350 -0.222993 0.007833 -0.085871
    29 0.028479 -1.403067 0.006271 -1.396062 0.000000 0.000000
    30 0.021413 -0.957781 0.020046 -0.480239 0.000000 0.000000
    31 1.164475 -2.543940 -0.170330 -0.997901 -0.095392 0.221193
    32 0.024032 -1.129042 0.017807 -1.373850 -0.085666 -0.017065
    33 0.014898 -0.883989 -0.019848 -0.443892 0.000000 0.000000
    34 -0.586770 -1.264477 0.200161 -0.096363 -0.864159 -2.522355
    35 1.522835 0.058681 0.016848 0.104477 -0.292751 0.747079
    36 1.117947 0.048424 -0.005766 0.032463 0.014687 0.824252
    37 -0.139399 -0.111698 0.014397 0.402476 -0.022657 1.599228
    38 -1.393470 8.839177 -0.239433 1.580804 -0.005023 -1.566847
    39 1.602930 -3.419616 0.993028 -0.015493 0.004288 2.654875
    40 -3.004853 -0.321123 0.000001 -1.291746 0.219378 1.907594
    41 5.485916 -2.877731 0.000000 0.000000 0.000000 -3.141309
    42 3.732013 -0.730559 1.187537 1.047162 0.000000 3.141486
    43 41.772238 20.042864 22.457718 0.000000 -0.478822 3.835696
    44 -6.621167 8.466717 1.067057 0.000000 -0.207396 0.068970
    45 -0.951095 1.245133 0.000000 0.000000 0.000000 0.651877
    46 -2.307669 -0.369492 0.683323 0.000000 0.013046 1.148170
  time 5
    0 6.341191 -0.243460 -8.374636 0.807609 0.074520 -0.121355
    1 6.876435 8.673469 4.673036 0.597209 -2.390768 -0.936851
    2 1.257180 8.762585 -0.153713 -1.570562 0.002683 -1.566807
    3 -0.071921 -8.498736 -0.104134 -0.115518 0.156204 -0.607758
    4 -0.488518 -2.755602 -0.228260 -0.987556 0.010332 -0.264490
    5 0.039887 -1.479790 0.029854 -1.633593 0.000000 0.000001
    6 0.028786 -1.075731 -0.023109 -0.474516 0.000000 0.000000
    7 0.250027 -2.902699 -0.238396 0.055309 0.211328 0.148974
    8 -0.049759 -1.680544 0.100479 -0.625688 0.000000 -0.000002
    9 -0.034142 -1.148312 0.084782 -1.037833 0.000000 0.000000
    10 1.207774 -3.121791 -0.090302 -0.219964 -0.043414 0.086225
    11 -0.033420 -1.397129 -0.011257 -0.345797 0.043804 -0.037992
    12 -0.022360 -0.957436 0.018784 -0.522195 0.003452 0.001139
    13 -1.180681 -2.456434 -0.021979 -1.189698 0.133751 -0.426957
    14 -0.024967 -1.123934 0.017597 -1.225081 0.000000 0.000001
    15 -0.020057 -0.890968 0.010090 -0.829947 0.000000 0.000000
    16 0.583510 -1.197277 0.509608 0.656940 -1.082222 -0.580204
    17 1.535927 0.010246 0.005009 0.009716 -0.009096 -1.042668
    18 1.100771 0.004527 -0.010679 -0.007961 0.014127 -0.337036
    19 -0.102510 -0.097146 -0.113085 -2.845098 6.232539 -1.157639
    20 -11.458610 -5.317200 5.213720 0.087263 -3.863960 1.019450
    21 0.096944 -8.450418 -0.009365 0.131105 -0.507703 -0.013891
    22 0.447953 -2.798986 -0.200443 -0.959058 -0.027928 0.245763
    23 -0.032909 -1.480204 0.004940 -1.633343 0.000000 0.000002
    24 -0.027022 -1.076920 -0.020210 -0.512204 0.000000 0.000000
    25 -0.249534 -2.846964 -0.174213 -0.796338 0.013890 0.160407
    26 0.043235 -1.683941 0.096012 -1.690583 0.002823 -0.000167
    27 0.031729 -1.160830 0.058838 -0.754623 0.000642 0.008372
    28 -0.963866 -2.785145 -0.085350 -0.204621 0.007850 -0.062287
    29 0.028479 -1.403067 0.006271 -1.414903 0.000000 0.000000
    30 0.021413 -0.957781 0.020046 -0.480239 0.000000 0.000000
    31 1.164475 -2.543940 -0.170330 -0.944240 -0.099359 0.228132
    32 0.024032 -1.129042 0.017807 -1.373850 -0.085666 -0.017065
    33 0.014898 -0.883989 -0.019848 -0.457303 0.000000 0.000000
    34 -0.586770 -1.264477 0.200161 -0.132058 -0.848003 -2.511598
    35 1.522835 0.058681 0.016848 0.086608 -0.291744 0.738413
    36 1.117947 0.048424 -0.005766 0.032439 0.014735 0.822631
    37 -0.135493 -0.115604 0.010491 0.387791 -0.017108 1.597454
    38 -1.725511 8.686829 -0.239433 1.580564 -0.005478 -1.520586
    39 1.602930 -3.419616 0.993028 -0.015493 0.004288 2.654875
    40 -3.004853 -0.321123 0.000001 -1.190148 0.203127 1.920357
    41 5.485916 -2.877731 0.000000 0.000000 0.000000 -3.141309
    42 3.732013 -0.730559 1.187537 1.047162 0.000000 3.141486
    43 41.772238 20.042864 22.457718 0.000000 -0.478822 3.835696
    44 -6.621167 8.466717 1.067057 0.000000 -0.207396 0.068970
    45 -0.951095 1.245133 0.000000 0.000000 0.000000 0.651877
    46 -2.307669 -0.369492 0.683323 0.000000 0.045690 1.148170
  time 6
    0 6.337285 -0.352838 -8.456670 0.774906 0.071848 -0.119473
    1 6.837372 8.790660 4.786321 0.597131 -2.390768 -0.936851
    2 1.257180 8.762585 -0.153713 -1.570562 0.002683 -1.566807
    3 -0.071921 -8.498736 -0.104134 -0.097673 0.135566 -0.607219
    4 -0.488518 -2.755602 -0.228260 -0.987556 0.010332 -0.264490
    5 0.039887 -1.479790 0.029854 -1.633593 0.000000 0.000001
    6 0.028786 -1.075731 -0.023109 -0.474516 0.000000 0.000000
    7 0.250027 -2.902699 -0.238396 0.055309 0.211328 0.148974
    8 -0.049759 -1.680544 0.100479 -0.625688 0.000000 -0.000002
    9 -0.034142 -1.148312 0.084782 -1.037833 0.000000 0.000000
    10 1.207774 -3.121791 -0.090302 -0.219964 -0.043414 0.086225
    11 -0.033420 -1.397129 -0.011257 -0.345797 0.043804 -0.037992
    12 -0.022360 -0.957436 0.018784 -0.522195 0.003452 0.001139
    13 -1.180681 -2.456434 -0.021979 -1.189698 0.133751 -0.426957
    14 -0.024967 -1.123934 0.017597 -1.225081 0.000000 0.000001
    15 -0.020057 -0.890968 0.010090 -0.829947 0.000000 0.000000
    16 0.583510 -1.197277 0.509608 0.656940 -1.082222 -0.580204
    17 1.535927 0.010246 0.005009 0.009716 -0.009096 -1.042668
    18 1.100771 0.004527 -0.010679 -0.007961 0.014127 -0.337036
    19 -0.102510 -0.097146 -0.113085 3.420714 6.171388 -1.188849
    20 -10.896093 -5.094537 4.010558 0.288091 -4.042470 1.185047
    21 0.096944 -8.450418 -0.009365 0.096777 -0.430899 -0.020030
    22 0.447953 -2.798986 -0.200443 -0.892844 -0.031188 0.265370
    23 -0.032909 -1.480204 0.004940 -1.633343 0.000000 0.000002
    24 -0.027022 -1.076920 -0.020210 -0.543244 0.000000 0.000000
    25 -0.249534 -2.846964 -0.174213 -0.729519 0.007482 0.179220
    26 0.043235 -1.683941 0.096012 -1.717790 0.002823 -0.000167
    27 0.031729 -1.160830 0.058838 -0.820269 0.000642 0.008372
    28 -0.963866 -2.785145 -0.085350 -0.158707 0.007460 -0.003336
    29 0.028479 -1.403067 0.006271 -1.461928 0.000000 0.000000
    30 0.021413 -0.957781 0.020046 -0.480239 0.000000 0.000000
    31 1.164475 -2.543940 -0.170330 -0.810121 -0.109276 0.245498
    32 0.024032 -1.129042 0.017807 -1.373850 -0.085666 -0.017065
    33 0.014898 -0.883989 -0.019848 -0.490822 0.000000 0.000000
    34 -0.586770 -1.264477 0.200161 -0.221043 -0.807439 -2.485259
    35 1.522835 0.058681 0.016848 0.041942 -0.289204 0.716731
    36 1.117947 0.048424 -0.005766 0.032379 0.014866 0.818578
    37 -0.115961 -0.131230 -0.009041 0.351154 -0.003218 1.593008
    38 -2.557568 8.296192 -0.247246 1.579869 -0.006569 -1.404948
    39 1.602930 -3.419616 0.993028 -0.015493 0.004288 2.654875
    40 -3.004853 -0.321123 0.000001 -0.936152 0.162499 1.952260
    41 5.485916 -2.877731 0.000000 0.000000 0.000000 -3.141309
    42 3.732013 -0.730559 1.187537 1.047162 0.000000 3.141486
    43 41.772238 20.042864 22.457718 0.000000 -0.478822 3.835696
    44 -6.621167 8.466717 1.067057 0.000000 -0.207396 0.068970
    45 -0.951095 1.245133 0.000000 0.000000 0.000000 0.651877
    46 -2.307669 -0.369492 0.683323 0.000000 0.088159 1.148170
  time 7
    0 6.337285 -0.516906 -8.534798 0.725610 0.067725 -0.116617
    1 6.786589 8.943008 4.930856 0.597131 -2.390768 -0.936851
    2 1.257180 8.762585 -0.153713 -1.570562 0.002683 -1.566807
    3 -0.071921 -8.498736 -0.104134 -0.074590 0.108757 -0.606487
    4 -0.488518 -2.755602 -0.228260 -0.987556 0.010332 -0.264490
    5 0.039887 -1.479790 0.029854 -1.633593 0.000000 0.000001
    6 0.028786 -1.075731 -0.023109 -0.474516 0.000000 0.000000
    7 0.250027 -2.902699 -0.238396 0.055309 0.211328 0.148974
    8 -0.049759 -1.680544 0.100479 -0.625688 0.000000 -0.000002
    9 -0.034142 -1.148312 0.084782 -1.037833 0.000000 0.000000
    10 1.207774 -3.121791 -0.090302 -0.219964 -0.043414 0.086225
    11 -0.033420 -1.397129 -0.011257 -0.345797 0.043804 -0.037992
    12 -0.022360 -0.957436 0.018784 -0.522195 0.003452 0.001139
    13 -1.180681 -2.456434 -0.021979 -1.189698 0.133751 -0.426957
    14 -0.024967 -1.123934 0.017597 -1.225081 0.000000 0.000001
    15 -0.020057 -0.890968 0.010090 -0.829947 0.000000 0.000000
    16 0.583510 -1.197277 0.509608 0.656940 -1.082222 -0.580204
    17 1.535927 0.010246 0.005009 0.009716 -0.009096 -1.042668
    18 1.100771 0.004527 -0.010679 -0.007961 0.014127 -0.337036
    19 -0.102510 -0.097146 -0.113085 3.399868 6.092027 -1.229998
    20 -9.774965 -4.965627 3.627734 0.645076 -4.146514 1.487766
    21 0.096944 -8.450418 -0.009365 0.051658 -0.331063 -0.027481
    22 0.447953 -2.798986 -0.200443 -0.806807 -0.035402 0.290885
    23 -0.032909 -1.480204 0.004940 -1.633343 0.000000 0.000002
    24 -0.027022 -1.076920 -0.020210 -0.583587 0.000000 0.000000
    25 -0.249534 -2.846964 -0.174213 -0.642616 -0.000828 0.203673
    26 0.043235 -1.683941 0.096012 -1.753201 0.002823 -0.000167
    27 0.031729 -1.160830 0.058838 -0.905613 0.000642 0.008372
    28 -0.963866 -2.785145 -0.085350 -0.099072 0.006118 0.073288
    29 0.028479 -1.403067 0.006271 -1.523072 0.000000 0.000000
    30 0.021413 -0.957781 0.020046 -0.480239 0.000000 0.000000
    31 1.164475 -2.543940 -0.170330 -0.635773 -0.122179 0.268053
    32 0.024032 -1.129042 0.017807 -1.373850 -0.085666 -0.017065
    33 0.014898 -0.883989 -0.019848 -0.534413 0.000000 0.000000
    34 -0.586770 -1.264477 0.200161 -0.336319 -0.754389 -2.452104
    35 1.522835 0.058681 0.016848 -0.016123 -0.285908 0.688542
    36 1.117947 0.048424 -0.005766 0.032295 0.015034 0.813298
    37 -0.092523 -0.150762 -0.032479 0.303543 0.014830 1.587243
    38 -3.639632 7.788364 -0.255058 1.578779 -0.007851 -1.254593
    39 1.602930 -3.419616 0.993028 -0.015493 0.004288 2.654875
    40 -3.004853 -0.321123 0.000001 -0.605997 0.109683 1.993739
    41 5.485916 -2.877731 0.000000 0.000000 0.000000 -3.141309
    42 3.732013 -0.730559 1.187537 1.047162 0.000000 3.141486
    43 41.772238 20.042864 22.457718 0.000000 -0.478822 3.835696
    44 -6.621167 8.466717 1.067057 0.000000 -0.207396 0.068970
    45 -0.951095 1.245133 0.000000 0.000000 0.000000 0.651877
    46 -2.307669 -0.369492 0.683323 0.000000 0.130629 1.148170
  time 8
    0 6.329472 -0.735662 -8.628550 0.662775 0.062404 -0.112853
    1 6.735806 9.091450 5.075392 0.597131 -2.390768 -0.936851
    2 1.257180 8.762585 -0.153713 -1.570562 0.002683 -1.566807
    3 -0.071921 -8.498736 -0.104134 -0.051640 0.081935 -0.605755
    4 -0.488518 -2.755602 -0.228260 -0.987556 0.010332 -0.264490
    5 0.039887 -1.479790 0.029854 -1.633593 0.000000 0.000001
    6 0.028786 -1.075731 -0.023109 -0.474516 0.000000 0.000000
    7 0.250027 -2.902699 -0.238396 0.055309 0.211328 0.148974
    8 -0.049759 -1.680544 0.100479 -0.625688 0.000000 -0.000002
    9 -0.034142 -1.148312 0.084782 -1.037833 0.000000 0.000000
    10 1.207774 -3.121791 -0.090302 -0.219964 -0.043414 0.086225
    11 -0.033420 -1.397129 -0.011257 -0.345797 0.043804 -0.037992
    12 -0.022360 -0.957436 0.018784 -0.522195 0.003452 0.001139
    13 -1.180681 -2.456434 -0.021979 -1.189698 0.133751 -0.426957
    14 -0.024967 -1.123934 0.017597 -1.225081 0.000000 0.000001
    15 -0.020057 -0.890968 0.010090 -0.829947 0.000000 0.000000
    16 0.583510 -1.197277 0.509608 0.656940 -1.082222 -0.580204
    17 1.535927 0.010246 0.005009 0.009716 -0.009096 -1.042668
    18 1.100771 0.004527 -0.010679 -0.007961 0.014127 -0.337036
    19 -0.102510 -0.097146 -0.113085 3.380838 6.012762 -1.272076
    20 -8.431174 -4.899218 3.428509 -2.054174 -5.185715 -1.277028
    21 0.096944 -8.450418 -0.009365 0.006144 -0.231227 -0.034447
    22 0.447953 -2.798986 -0.200443 -0.720873 -0.039616 0.316388
    23 -0.032909 -1.480204 0.004940 -1.633343 0.000000 0.000002
    24 -0.027022 -1.076920 -0.020210 -0.623931 0.000000 0.000000
    25 -0.249534 -2.846964 -0.174213 -0.555772 -0.009158 0.228139
    26 0.043235 -1.683941 0.096012 -1.788551 0.002823 -0.000167
    27 0.031729 -1.160830 0.058838 -0.990957 0.000642 0.008372
    28 -0.963866 -2.785145 -0.085350 -0.039603 0.003809 0.149893
    29 0.028479 -1.403067 0.006271 -1.584266 0.000000 0.000000
    30 0.021413 -0.957781 0.020046 -0.480239 0.000000 0.000000
    31 1.164475 -2.543940 -0.170330 -0.461492 -0.135060 0.290620
    32 0.024032 -1.129042 0.017807 -1.373850 -0.085666 -0.017065
    33 0.014898 -0.883989 -0.019848 -0.577987 0.000000 0.000000
    34 -0.586770 -1.264477 0.200161 -0.451260 -0.700978 -2.420076
    35 1.522835 0.058681 0.016848 -0.074213 -0.282624 0.660352
    36 1.117947 0.048424 -0.005766 0.032223 0.015214 0.808017
    37 -0.069084 -0.170294 -0.059824 0.256063 0.032867 1.581503
    38 -4.725603 7.280536 -0.262871 1.577520 -0.008954 -1.104239
    39 1.602930 -3.419616 0.993028 -0.015493 0.004288 2.654875
    40 -3.004853 -0.321123 0.000001 -0.275842 0.056867 2.035217
    41 5.485916 -2.877731 0.000000 0.000000 0.000000 -3.141309
    42 3.732013 -0.730559 1.187537 1.047162 0.000000 3.141486
    43 41.772238 20.042864 22.457718 0.000000 -0.478822 3.835696
    44 -6.601635 8.462811 1.098308 0.000000 -0.279284 0.068970
    45 -0.951095 1.245133 0.000000 0.000000 0.000000 0.651877
    46 -2.307669 -0.369492 0.683323 0.000000 0.163327 1.148170
  time 9
    0 6.321659 -0.997389 -8.765273 0.589399 0.056172 -0.108504
    1 6.696742 9.208641 5.188677 0.597131 -2.390768 -0.936851
    2 1.257180 8.762585 -0.153713 -1.570562 0.002683 -1.566807
    3 -0.071921 -8.498736 -0.104134 -0.034070 0.061310 -0.605158
    4 -0.488518 -2.755602 -0.228260 -0.987556 0.010332 -0.264490
    5 0.039887 -1.479790 0.029854 -1.633593 0.000000 0.000001
    6 0.028786 -1.075731 -0.023109 -0.474516 0.000000 0.000000
    7 0.250027 -2.902699 -0.238396 0.055309 0.211328 0.148974
    8 -0.049759 -1.680544 0.100479 -0.625688 0.000000 -0.000002
    9 -0.034142 -1.148312 0.084782 -1.037833 0.000000 0.000000
    10 1.207774 -3.121791 -0.090302 -0.219964 -0.043414 0.086225
    11 -0.033420 -1.397129 -0.011257 -0.345797 0.043804 -0.037992
    12 -0.022360 -0.957436 0.018784 -0.522195 0.003452 0.001139
    13 -1.180681 -2.456434 -0.021979 -1.189698 0.133751 -0.426957
    14 -0.024967 -1.123934 0.017597 -1.225081 0.000000 0.000001
    15 -0.020057 -0.890968 0.010090 -0.829947 0.000000 0.000000
    16 0.583510 -1.197277 0.509608 0.656940 -1.082222 -0.580204
    17 1.535927 0.010246 0.005009 0.009716 -0.009096 -1.042668
    18 1.100771 0.004527 -0.010679 -0.007961 0.014127 -0.337036
    19 -0.102510 -0.097146 -0.113085 3.367641 5.951995 -1.305330
    20 -7.302233 -4.809372 3.283973 -1.676380 -5.120283 -0.954147
    21 0.096944 -8.450418 -0.009365 -0.029105 -0.154400 -0.039556
    22 0.447953 -2.798986 -0.200443 -0.654796 -0.042829 0.336019
    23 -0.032909 -1.480204 0.004940 -1.633343 0.000000 0.000002
    24 -0.027022 -1.076920 -0.020210 -0.654970 0.000000 0.000000
    25 -0.249534 -2.846964 -0.174213 -0.488953 -0.015566 0.246967
    26 0.043235 -1.683941 0.096012 -1.815758 0.002823 -0.000167
    27 0.031729 -1.160830 0.058838 -1.056603 0.000642 0.008372
    28 -0.963866 -2.785145 -0.085350 0.005979 0.001398 0.208787
    29 0.028479 -1.403067 0.006271 -1.631291 0.000000 0.000000
    30 0.021413 -0.957781 0.020046 -0.480239 0.000000 0.000000
    31 1.164475 -2.543940 -0.170330 -0.327441 -0.144976 0.307973
    32 0.024032 -1.129042 0.017807 -1.373850 -0.085666 -0.017065
    33 0.014898 -0.883989 -0.019848 -0.611524 0.000000 0.000000
    34 -0.586770 -1.264477 0.200161 -0.539523 -0.659667 -2.396129
    35 1.522835 0.058681 0.016848 -0.118891 -0.280095 0.638671
    36 1.117947 0.048424 -0.005766 0.032163 0.015346 0.803941
    37 -0.049553 -0.185919 -0.075449 0.219531 0.046757 1.577092
    38 -5.557660 6.889899 -0.270684 1.576442 -0.009673 -0.988574
    39 1.602930 -3.419616 0.993028 -0.015493 0.004288 2.654875
    40 -3.004853 -0.321123 0.000001 -0.021846 0.016239 2.067132
    41 5.485916 -2.877731 0.000000 0.000000 0.000000 -3.141309
    42 3.732013 -0.730559 1.187537 1.047162 0.000000 3.141486
    43 41.772238 20.042864 22.457718 0.000000 -0.478822 3.835696
    44 -6.562572 8.454998 1.176436 0.000000 -0.464677 0.068970
    45 -0.951095 1.245133 0.000000 0.000000 0.000000 0.651877
    46 -2.307669 -0.369492 0.683323 0.000000 0.176373 1.148170
  time 10
    0 6.306034 -1.294273 -8.968405 0.508585 0.049269 -0.103702
    1 6.681117 9.255518 5.231647 0.597209 -2.390768 -0.936851
    2 1.257180 8.762585 -0.153713 -1.570562 0.002683 -1.566807
    3 -0.071921 -8.498736 -0.104134 -0.027071 0.053065 -0.604927
    4 -0.488518 -2.755602 -0.228260 -0.987556 0.010332 -0.264490
    5 0.039887 -1.479790 0.029854 -1.633593 0.000000 0.000001
    6 0.028786 -1.075731 -0.023109 -0.474516 0.000000 0.000000
    7 0.250027 -2.902699 -0.238396 0.055309 0.211328 0.148974
    8 -0.049759 -1.680544 0.100479 -0.625688 0.000000 -0.000002
    9 -0.034142 -1.148312 0.084782 -1.037833 0.000000 0.000000
    10 1.207774 -3.121791 -0.090302 -0.219964 -0.043414 0.086225
    11 -0.033420 -1.397129 -0.011257 -0.345797 0.043804 -0.037992
    12 -0.022360 -0.957436 0.018784 -0.522195 0.003452 0.001139
    13 -1.180681 -2.456434 -0.021979 -1.189698 0.133751 -0.426957
    14 -0.024967 -1.123934 0.017597 -1.225081 0.000000 0.000001
    15 -0.020057 -0.890968 0.010090 -0.829947 0.000000 0.000000
    16 0.583510 -1.197277 0.509608 0.656940 -1.082222 -0.580204
    17 1.535927 0.010246 0.005009 0.009716 -0.009096 -1.042668
    18 1.100771 0.004527 -0.010679 -0.007961 0.014127 -0.337036
    19 -0.102510 -0.097146 -0.113085 3.362764 5.927746 -1.318891
    20 -6.825656 -4.625773 3.069123 -1.516309 -5.095556 -0.817121
    21 0.096944 -8.450418 -0.009365 -0.043230 -0.123660 -0.041555
    22 0.447953 -2.798986 -0.200443 -0.628366 -0.044133 0.343869
    23 -0.032909 -1.480204 0.004940 -1.633343 0.000000 0.000002
    24 -0.027022 -1.076920 -0.020210 -0.667382 0.000000 0.000000
    25 -0.249534 -2.846964 -0.174213 -0.462244 -0.018129 0.254486
    26 0.043235 -1.683941 0.096012 -1.826616 0.002823 -0.000167
    27 0.031729 -1.160830 0.058838 -1.082887 0.000642 0.008372
    28 -0.963866 -2.785145 -0.085350 0.024169 0.000278 0.232352
    29 0.028479 -1.403067 0.006271 -1.650081 0.000000 0.000000
    30 0.021413 -0.957781 0.020046 -0.480239 0.000000 0.000000
    31 1.164475 -2.543940 -0.170330 -0.273813 -0.148943 0.314925
    32 0.024032 -1.129042 0.017807 -1.373850 -0.085666 -0.017065
    33 0.014898 -0.883989 -0.019848 -0.624918 0.000000 0.000000
    34 -0.586770 -1.264477 0.200161 -0.574792 -0.643081 -2.386700
    35 1.522835 0.058681 0.016848 -0.136772 -0.279077 0.630005
    36 1.117947 0.048424 -0.005766 0.032139 0.015394 0.802320
    37 -0.041740 -0.189825 -0.083262 0.204950 0.052306 1.575331
    38 -5.889701 6.737550 -0.270684 1.575986 -0.009925 -0.942313
    39 1.602930 -3.419616 0.993028 -0.015493 0.004288 2.654875
    40 -3.004853 -0.321123 0.000001 0.079712 0.000000 2.079884
    41 5.485916 -2.877731 0.000000 0.000000 0.000000 -3.141309
    42 3.732013 -0.730559 1.187537 1.047162 0.000000 3.141486
    43 41.772238 20.042864 22.457718 0.000000 -0.478822 3.835696
    44 -6.503976 8.443279 1.285814 0.000000 -0.718191 0.068970
    45 -0.951095 1.245133 0.000000 0.000000 0.000000 0.651877
    46 -2.307669 -0.369492 0.683323 0.000000 -0.404332 1.148170
  time 11
    0 6.290408 -1.614595 -9.261382 0.423359 0.041970 -0.098574
    1 6.884248 9.056293 5.028516 0.597209 -2.390768 -0.936851
    2 1.257180 8.762585 -0.153713 -1.570562 0.002683 -1.566807
    3 -0.071921 -8.498736 -0.104134 -0.122684 0.164449 -0.607970
    4 -0.488518 -2.755602 -0.228260 -0.987556 0.010332 -0.264490
    5 0.039887 -1.479790 0.029854 -1.633593 0.000000 0.000001
    6 0.028786 -1.075731 -0.023109 -0.474516 0.000000 0.000000
    7 0.250027 -2.902699 -0.238396 0.055309 0.211328 0.148974
    8 -0.049759 -1.680544 0.100479 -0.625688 0.000000 -0.000002
    9 -0.034142 -1.148312 0.084782 -1.037833 0.000000 0.000000
    10 1.207774 -3.121791 -0.090302 -0.219964 -0.043414 0.086225
    11 -0.033420 -1.397129 -0.011257 -0.345797 0.043804 -0.037992
    12 -0.022360 -0.957436 0.018784 -0.522195 0.003452 0.001139
    13 -1.180681 -2.456434 -0.021979 -1.189698 0.133751 -0.426957
    14 -0.024967 -1.123934 0.017597 -1.225081 0.000000 0.000001
    15 -0.020057 -0.890968 0.010090 -0.829947 0.000000 0.000000
    16 0.583510 -1.197277 0.509608 0.656940 -1.082222 -0.580204
    17 1.535927 0.010246 0.005009 0.009716 -0.009096 -1.042668
    18 1.100771 0.004527 -0.010679 -0.007961 0.014127 -0.337036
    19 -0.102510 -0.097146 -0.113085 3.362764 5.927746 -1.318891
    20 -7.962410 -3.211667 2.565201 -2.131680 -5.156613 -1.499481
    21 0.096944 -8.450418 -0.009365 0.149793 -0.557126 -0.006036
    22 0.447953 -2.798986 -0.200443 -0.628366 -0.044133 0.343869
    23 -0.032909 -1.480204 0.004940 -1.633343 0.000000 0.000002
    24 -0.027022 -1.076920 -0.020210 -0.667382 0.000000 0.000000
    25 -0.249534 -2.846964 -0.174213 -0.462244 -0.018129 0.254486
    26 0.043235 -1.683941 0.096012 -1.826616 0.002823 -0.000167
    27 0.031729 -1.160830 0.058838 -1.082887 0.000642 0.008372
    28 -0.963866 -2.785145 -0.085350 0.024169 0.000278 0.232352
    29 0.028479 -1.403067 0.006271 -1.650081 0.000000 0.000000
    30 0.021413 -0.957781 0.020046 -0.480239 0.000000 0.000000
    31 1.164475 -2.543940 -0.170330 -0.273813 -0.148943 0.314925
    32 0.024032 -1.129042 0.017807 -1.373850 -0.085666 -0.017065
    33 0.014898 -0.883989 -0.019848 -0.624918 0.000000 0.000000
    34 -0.586770 -1.264477 0.200161 -0.574792 -0.643081 -2.386700
    35 1.522835 0.058681 0.016848 -0.136772 -0.279077 0.630005
    36 1.117947 0.048424 -0.005766 0.032139 0.015394 0.802320
    37 -0.139399 -0.111698 0.014397 0.285382 -0.030687 1.580508
    38 -5.889701 6.737550 -0.270684 1.575986 -0.009925 -0.942313
    39 1.602930 -3.419616 0.993028 -0.015493 0.004288 2.654875
    40 -3.004853 -0.321123 0.000001 -0.042077 0.000000 2.079884
    41 5.485916 -2.877731 0.000000 0.000000 0.000000 -3.141309
    42 3.732013 -0.730559 1.187537 1.047162 0.000000 3.141486
    43 41.772238 20.042864 22.457718 0.000000 -0.478822 3.835696
    44 -6.437568 8.435466 1.403005 0.000000 -0.994397 0.068970
    45 -0.951095 1.245133 0.000000 0.000000 0.000000 0.651877
    46 -2.307669 -0.369492 0.683323 0.000000 -1.154533 1.148170
  time 12
    0 6.251345 -2.016952 -9.710615 0.336746 0.034540 -0.093382
    1 7.001439 8.935195 4.665223 0.605741 -2.381649 -0.945657
    2 1.257180 8.762585 -0.153713 -1.570562 0.002683 -1.566807
    3 -0.071921 -8.498736 -0.104134 -0.109717 0.170502 -0.575551
    4 -0.488518 -2.755602 -0.228260 -0.987556 0.010332 -0.264490
    5 0.039887 -1.479790 0.029854 -1.633593 0.000000 0.000001
    6 0.028786 -1.075731 -0.023109 -0.474516 0.000000 0.000000
    7 0.250027 -2.902699 -0.238396 0.055309 0.211328 0.148974
    8 -0.049759 -1.680544 0.100479 -0.625688 0.000000 -0.000002
    9 -0.034142 -1.148312 0.084782 -1.037833 0.000000 0.000000
    10 1.207774 -3.121791 -0.090302 -0.219964 -0.043414 0.086225
    11 -0.033420 -1.397129 -0.011257 -0.345797 0.043804 -0.037992
    12 -0.022360 -0.957436 0.018784 -0.522195 0.003452 0.001139
    13 -1.180681 -2.456434 -0.021979 -1.189698 0.133751 -0.426957
    14 -0.024967 -1.123934 0.017597 -1.225081 0.000000 0.000001
    15 -0.020057 -0.890968 0.010090 -0.829947 0.000000 0.000000
    16 0.583510 -1.197277 0.509608 0.656940 -1.082222 -0.580204
    17 1.535927 0.010246 0.005009 0.009716 -0.009096 -1.042668
    18 1.100771 0.004527 -0.010679 -0.007961 0.014127 -0.337036
    19 -0.102510 -0.097146 -0.113085 3.364390 5.928704 -1.323071
    20 -7.911627 -3.336671 2.330819 -2.118508 -5.207874 -1.484765
    21 0.096944 -8.450418 -0.009365 0.191688 -0.521209 0.042972
    22 0.447953 -2.798986 -0.200443 -0.628366 -0.044133 0.343869
    23 -0.032909 -1.480204 0.004940 -1.633343 0.000000 0.000002
    24 -0.027022 -1.076920 -0.020210 -0.667382 0.000000 0.000000
    25 -0.249534 -2.846964 -0.174213 -0.462244 -0.018129 0.254486
    26 0.043235 -1.683941 0.096012 -1.826616 0.002823 -0.000167
    27 0.031729 -1.160830 0.058838 -1.082887 0.000642 0.008372
    28 -0.963866 -2.785145 -0.085350 0.024169 0.000278 0.232352
    29 0.028479 -1.403067 0.006271 -1.650081 0.000000 0.000000
    30 0.021413 -0.957781 0.020046 -0.480239 0.000000 0.000000
    31 1.164475 -2.543940 -0.170330 -0.273813 -0.148943 0.314925
    32 0.024032 -1.129042 0.017807 -1.373850 -0.085666 -0.017065
    33 0.014898 -0.883989 -0.019848 -0.624918 0.000000 0.000000
    34 -0.586770 -1.264477 0.200161 -0.574792 -0.643081 -2.386700
    35 1.522835 0.058681 0.016848 -0.136772 -0.279077 0.630005
    36 1.117947 0.048424 -0.005766 0.032139 0.015394 0.802320
    37 -0.139399 -0.111698 0.014397 0.280182 -0.020752 1.572466
    38 -5.889701 6.737550 -0.270684 1.575986 -0.009925 -0.942313
    39 1.602930 -3.419616 0.993028 -0.015493 0.004288 2.654875
    40 -3.004853 -0.321123 0.000001 -0.040260 0.000000 2.079884
    41 5.485916 -2.877731 0.000000 0.000000 0.000000 -3.141309
    42 3.732013 -0.730559 1.187537 1.047162 0.000000 3.141486
    43 41.772238 20.042864 22.457718 0.000000 -0.478822 3.835696
    44 -6.375066 8.423747 1.512384 0.000000 -1.247865 0.068970
    45 -0.951095 1.245133 0.000000 0.000000 0.000000 0.651877
    46 -2.307669 -0.369492 0.683323 0.000000 -1.399469 1.148170
  time 13
    0 6.184936 -2.536499 -10.312196 0.251796 0.027229 -0.088319
    1 7.114724 8.818004 4.215991 0.628934 -2.356917 -0.969651
    2 1.257180 8.762585 -0.153713 -1.570562 0.002683 -1.566807
    3 -0.071921 -8.498736 -0.104134 -0.084705 0.177728 -0.534559
    4 -0.488518 -2.755602 -0.228260 -0.987556 0.010332 -0.264490
    5 0.039887 -1.479790 0.029854 -1.633593 0.000000 0.000001
    6 0.028786 -1.075731 -0.023109 -0.474516 0.000000 0.000000
    7 0.250027 -2.902699 -0.238396 0.055309 0.211328 0.148974
    8 -0.049759 -1.680544 0.100479 -0.625688 0.000000 -0.000002
    9 -0.034142 -1.148312 0.084782 -1.037833 0.000000 0.000000
    10 1.207774 -3.121791 -0.090302 -0.219964 -0.043414 0.086225
    11 -0.033420 -1.397129 -0.011257 -0.345797 0.043804 -0.037992
    12 -0.022360 -0.957436 0.018784 -0.522195 0.003452 0.001139
    13 -1.180681 -2.456434 -0.021979 -1.189698 0.133751 -0.426957
    14 -0.024967 -1.123934 0.017597 -1.225081 0.000000 0.000001
    15 -0.020057 -0.890968 0.010090 -0.829947 0.000000 0.000000
    16 0.583510 -1.197277 0.509608 0.656940 -1.082222 -0.580204
    17 1.535927 0.010246 0.005009 0.009716 -0.009096 -1.042668
    18 1.100771 0.004527 -0.010679 -0.007961 0.014127 -0.337036
    19 -0.098604 -0.093240 -0.113085 3.368597 5.931484 -1.334311
    20 -7.774904 -3.649180 2.139407 -2.090732 -5.258564 -1.453901
    21 0.096944 -8.450418 -0.009365 0.223690 -0.437249 0.091697
    22 0.447953 -2.798986 -0.200443 -0.628366 -0.044133 0.343869
    23 -0.032909 -1.480204 0.004940 -1.633343 0.000000 0.000002
    24 -0.027022 -1.076920 -0.020210 -0.667382 0.000000 0.000000
    25 -0.249534 -2.846964 -0.174213 -0.462244 -0.018129 0.254486
    26 0.043235 -1.683941 0.096012 -1.826616 0.002823 -0.000167
    27 0.031729 -1.160830 0.058838 -1.082887 0.000642 0.008372
    28 -0.963866 -2.785145 -0.085350 0.024169 0.000278 0.232352
    29 0.028479 -1.403067 0.006271 -1.650081 0.000000 0.000000
    30 0.021413 -0.957781 0.020046 -0.480239 0.000000 0.000000
    31 1.164475 -2.543940 -0.170330 -0.273813 -0.148943 0.314925
    32 0.024032 -1.129042 0.017807 -1.373850 -0.085666 -0.017065
    33 0.014898 -0.883989 -0.019848 -0.624918 0.000000 0.000000
    34 -0.586770 -1.264477 0.200161 -0.574792 -0.643081 -2.386700
    35 1.522835 0.058681 0.016848 -0.136772 -0.279077 0.630005
    36 1.117947 0.048424 -0.005766 0.032139 0.015394 0.802320
    37 -0.139399 -0.111698 0.014397 0.266411 0.005459 1.551266
    38 -5.889701 6.737550 -0.270684 1.575986 -0.009925 -0.942313
    39 1.602930 -3.419616 0.993028 -0.015493 0.004288 2.654875
    40 -3.004853 -0.321123 0.000001 -0.035495 0.000000 2.079884
    41 5.485916 -2.877731 0.000000 0.000000 0.000000 -3.141309
    42 3.732013 -0.730559 1.187537 1.047162 0.000000 3.141486
    43 41.772238 20.042864 22.457718 0.000000 -0.478822 3.835696
    44 -6.328190 8.415934 1.586605 0.000000 -1.433258 0.068970
    45 -0.951095 1.245133 0.000000 0.000000 0.000000 0.651877
    46 -2.307669 -0.369492 0.683323 0.000000 -1.499201 1.148170
  time 14
    0 6.095090 -3.114641 -11.003623 0.171588 0.020338 -0.083451
    1 7.228009 8.700813 3.723788 0.663297 -2.320368 -1.005084
    2 1.257180 8.762585 -0.153713 -1.570562 0.002683 -1.566807
    3 -0.071921 -8.498736 -0.104134 -0.050825 0.185279 -0.488906
    4 -0.488518 -2.755602 -0.228260 -0.987556 0.010332 -0.264490
    5 0.039887 -1.479790 0.029854 -1.633593 0.000000 0.000001
    6 0.028786 -1.075731 -0.023109 -0.474516 0.000000 0.000000
    7 0.250027 -2.902699 -0.238396 0.055309 0.211328 0.148974
    8 -0.049759 -1.680544 0.100479 -0.625688 0.000000 -0.000002
    9 -0.034142 -1.148312 0.084782 -1.037833 0.000000 0.000000
    10 1.207774 -3.121791 -0.090302 -0.219964 -0.043414 0.086225
    11 -0.033420 -1.397129 -0.011257 -0.345797 0.043804 -0.037992
    12 -0.022360 -0.957436 0.018784 -0.522195 0.003452 0.001139
    13 -1.180681 -2.456434 -0.021979 -1.189698 0.133751 -0.426957
    14 -0.024967 -1.123934 0.017597 -1.225081 0.000000 0.000001
    15 -0.020057 -0.890968 0.010090 -0.829947 0.000000 0.000000
    16 0.583510 -1.197277 0.509608 0.656940 -1.082222 -0.580204
    17 1.535927 0.010246 0.005009 0.009716 -0.009096 -1.042668
    18 1.100771 0.004527 -0.010679 -0.007961 0.014127 -0.337036
    19 -0.094697 -0.093240 -0.109178 3.374813 5.935510 -1.351030
    20 -7.567867 -4.047630 1.963620 -2.063242 -5.306782 -1.423228
    21 0.096944 -8.450418 -0.009365 0.244922 -0.336907 0.137293
    22 0.447953 -2.798986 -0.200443 -0.628366 -0.044133 0.343869
    23 -0.032909 -1.480204 0.004940 -1.633343 0.000000 0.000002
    24 -0.027022 -1.076920 -0.020210 -0.667382 0.000000 0.000000
    25 -0.249534 -2.846964 -0.174213 -0.462244 -0.018129 0.254486
    26 0.043235 -1.683941 0.096012 -1.826616 0.002823 -0.000167
    27 0.031729 -1.160830 0.058838 -1.082887 0.000642 0.008372
    28 -0.963866 -2.785145 -0.085350 0.024169 0.000278 0.232352
    29 0.028479 -1.403067 0.006271 -1.650081 0.000000 0.000000
    30 0.021413 -0.957781 0.020046 -0.480239 0.000000 0.000000
    31 1.164475 -2.543940 -0.170330 -0.273813 -0.148943 0.314925
    32 0.024032 -1.129042 0.017807 -1.373850 -0.085666 -0.017065
    33 0.014898 -0.883989 -0.019848 -0.624918 0.000000 0.000000
    34 -0.586770 -1.264477 0.200161 -0.574792 -0.643081 -2.386700
    35 1.522835 0.058681 0.016848 -0.136772 -0.279077 0.630005
    36 1.117947 0.048424 -0.005766 0.032139 0.015394 0.802320
    37 -0.139399 -0.111698 0.014397 0.246917 0.042527 1.521352
    38 -5.889701 6.737550 -0.270684 1.575986 -0.009925 -0.942313
    39 1.602930 -3.419616 0.993028 -0.015493 0.004288 2.654875
    40 -3.004853 -0.321123 0.000001 -0.028751 0.000000 2.079884
    41 5.485916 -2.877731 0.000000 0.000000 0.000000 -3.141309
    42 3.732013 -0.730559 1.187537 1.047162 0.000000 3.141486
    43 41.772238 20.042864 22.457718 0.000000 -0.478822 3.835696
    44 -6.300845 8.415934 1.617856 0.000000 -1.505192 0.068970
    45 -0.951095 1.245133 0.000000 0.000000 0.000000 0.651877
    46 -2.307669 -0.369492 0.683323 0.000000 -1.518143 1.148170
  time 15
    0 5.985712 -3.708409 -11.718488 0.099120 0.014094 -0.079103
    1 7.337387 8.583622 3.223773 0.705107 -2.275939 -1.048246
    2 1.257180 8.762585 -0.153713 -1.570562 0.002683 -1.566807
    3 -0.071921 -8.498736 -0.104134 -0.011396 0.192421 -0.442501
    4 -0.488518 -2.755602 -0.228260 -0.987556 0.010332 -0.264490
    5 0.039887 -1.479790 0.029854 -1.633593 0.000000 0.000001
    6 0.028786 -1.075731 -0.023109 -0.474516 0.000000 0.000000
    7 0.250027 -2.902699 -0.238396 0.055309 0.211328 0.148974
    8 -0.049759 -1.680544 0.100479 -0.625688 0.000000 -0.000002
    9 -0.034142 -1.148312 0.084782 -1.037833 0.000000 0.000000
    10 1.207774 -3.121791 -0.090302 -0.219964 -0.043414 0.086225
    11 -0.033420 -1.397129 -0.011257 -0.345797 0.043804 -0.037992
    12 -0.022360 -0.957436 0.018784 -0.522195 0.003452 0.001139
    13 -1.180681 -2.456434 -0.021979 -1.189698 0.133751 -0.426957
    14 -0.024967 -1.123934 0.017597 -1.225081 0.000000 0.000001
    15 -0.020057 -0.890968 0.010090 -0.829947 0.000000 0.000000
    16 0.583510 -1.197277 0.509608 0.656940 -1.082222 -0.580204
    17 1.535927 0.010246 0.005009 0.009716 -0.009096 -1.042668
    18 1.100771 0.004527 -0.010679 -0.007961 0.014127 -0.337036
    19 -0.090791 -0.089334 -0.109178 3.382177 5.940398 -1.371187
    20 -7.313953 -4.442173 1.783927 -2.050642 -5.350910 -1.409181
    21 0.096944 -8.450418 -0.009365 0.254113 -0.252027 0.178890
    22 0.447953 -2.798986 -0.200443 -0.628366 -0.044133 0.343869
    23 -0.032909 -1.480204 0.004940 -1.633343 0.000000 0.000002
    24 -0.027022 -1.076920 -0.020210 -0.667382 0.000000 0.000000
    25 -0.249534 -2.846964 -0.174213 -0.462244 -0.018129 0.254486
    26 0.043235 -1.683941 0.096012 -1.826616 0.002823 -0.000167
    27 0.031729 -1.160830 0.058838 -1.082887 0.000642 0.008372
    28 -0.963866 -2.785145 -0.085350 0.024169 0.000278 0.232352
    29 0.028479 -1.403067 0.006271 -1.650081 0.000000 0.000000
    30 0.021413 -0.957781 0.020046 -0.480239 0.000000 0.000000
    31 1.164475 -2.543940 -0.170330 -0.273813 -0.148943 0.314925
    32 0.024032 -1.129042 0.017807 -1.373850 -0.085666 -0.017065
    33 0.014898 -0.883989 -0.019848 -0.624918 0.000000 0.000000
    34 -0.586770 -1.264477 0.200161 -0.574792 -0.643081 -2.386700
    35 1.522835 0.058681 0.016848 -0.136772 -0.279077 0.630005
    36 1.117947 0.048424 -0.005766 0.032139 0.015394 0.802320
    37 -0.139399 -0.111698 0.014397 0.224496 0.085036 1.487100
    38 -5.889701 6.737550 -0.270684 1.575986 -0.009925 -0.942313
    39 1.602930 -3.419616 0.993028 -0.015493 0.004288 2.654875
    40 -3.004853 -0.321123 0.000001 -0.021038 0.000000 2.079884
    41 5.485916 -2.877731 0.000000 0.000000 0.000000 -3.141309
    42 3.732013 -0.730559 1.187537 1.047162 0.000000 3.141486
    43 41.772238 20.042864 22.457718 0.000000 -0.478822 3.835696
    44 -6.293032 8.423747 1.602230 0.000000 -1.238081 0.068970
    45 -0.951095 1.245133 0.000000 0.000000 0.000000 0.651877
    46 -2.307669 -0.369492 0.683323 0.000000 -1.046558 1.148170
  time 16
    0 5.864614 -4.255301 -12.390384 0.037444 0.008773 -0.075403
    1 7.446765 8.474244 2.762821 0.750795 -2.227352 -1.095426
    2 1.257180 8.762585 -0.153713 -1.570562 0.002683 -1.566807
    3 -0.071921 -8.498736 -0.104134 0.030203 0.198593 -0.399371
    4 -0.488518 -2.755602 -0.228260 -0.987556 0.010332 -0.264490
    5 0.039887 -1.479790 0.029854 -1.633593 0.000000 0.000001
    6 0.028786 -1.075731 -0.023109 -0.474516 0.000000 0.000000
    7 0.250027 -2.902699 -0.238396 0.055309 0.211328 0.148974
    8 -0.049759 -1.680544 0.100479 -0.625688 0.000000 -0.000002
    9 -0.034142 -1.148312 0.084782 -1.037833 0.000000 0.000000
    10 1.207774 -3.121791 -0.090302 -0.219964 -0.043414 0.086225
    11 -0.033420 -1.397129 -0.011257 -0.345797 0.043804 -0.037992
    12 -0.022360 -0.957436 0.018784 -0.522195 0.003452 0.001139
    13 -1.180681 -2.456434 -0.021979 -1.189698 0.133751 -0.426957
    14 -0.024967 -1.123934 0.017597 -1.225081 0.000000 0.000001
    15 -0.020057 -0.890968 0.010090 -0.829947 0.000000 0.000000
    16 0.583510 -1.197277 0.509608 0.656940 -1.082222 -0.580204
    17 1.535927 0.010246 0.005009 0.009716 -0.009096 -1.042668
    18 1.100771 0.004527 -0.010679 -0.007961 0.014127 -0.337036
    19 -0.082978 -0.089334 -0.109178 3.390114 5.945765 -1.393294
    20 -6.966286 -4.895312 1.588609 -2.071641 -5.395989 -1.436510
    21 0.096944 -8.450418 -0.009365 0.250384 -0.214292 0.217136
    22 0.447953 -2.798986 -0.200443 -0.628366 -0.044133 0.343869
    23 -0.032909 -1.480204 0.004940 -1.633343 0.000000 0.000002
    24 -0.027022 -1.076920 -0.020210 -0.667382 0.000000 0.000000
    25 -0.249534 -2.846964 -0.174213 -0.462244 -0.018129 0.254486
    26 0.043235 -1.683941 0.096012 -1.826616 0.002823 -0.000167
    27 0.031729 -1.160830 0.058838 -1.082887 0.000642 0.008372
    28 -0.963866 -2.785145 -0.085350 0.024169 0.000278 0.232352
    29 0.028479 -1.403067 0.006271 -1.650081 0.000000 0.000000
    30 0.021413 -0.957781 0.020046 -0.480239 0.000000 0.000000
    31 1.164475 -2.543940 -0.170330 -0.273813 -0.148943 0.314925
    32 0.024032 -1.129042 0.017807 -1.373850 -0.085666 -0.017065
    33 0.014898 -0.883989 -0.019848 -0.624918 0.000000 0.000000
    34 -0.586770 -1.264477 0.200161 -0.574792 -0.643081 -2.386700
    35 1.522835 0.058681 0.016848 -0.136772 -0.279077 0.630005
    36 1.117947 0.048424 -0.005766 0.032139 0.015394 0.802320
    37 -0.139399 -0.111698 0.014397 0.202023 0.127546 1.452872
    38 -5.889701 6.737550 -0.270684 1.575986 -0.009925 -0.942313
    39 1.602930 -3.419616 0.993028 -0.015493 0.004288 2.654875
    40 -3.004853 -0.321123 0.000001 -0.013285 0.000000 2.079884
    41 5.485916 -2.877731 0.000000 0.000000 0.000000 -3.141309
    42 3.732013 -0.730559 1.187537 1.047162 0.000000 3.141486
    43 41.772238 20.042864 22.457718 0.000000 -0.478822 3.835696
    44 -6.289126 8.451092 1.567073 0.000000 -0.650575 0.068970
    45 -0.951095 1.245133 0.000000 0.000000 0.000000 0.651877
    46 -2.307669 -0.369492 0.683323 0.000000 -0.170696 1.148170
  time 17
    0 5.731798 -4.712346 -12.952901 -0.010338 0.004650 -0.072547
    1 7.548331 8.364866 2.383904 0.796793 -2.178546 -1.142934
    2 1.257180 8.762585 -0.153713 -1.570562 0.002683 -1.566807
    3 -0.071921 -8.498736 -0.104134 0.070423 0.203375 -0.363542
    4 -0.488518 -2.755602 -0.228260 -0.987556 0.010332 -0.264490
    5 0.039887 -1.479790 0.029854 -1.633593 0.000000 0.000001
    6 0.028786 -1.075731 -0.023109 -0.474516 0.000000 0.000000
    7 0.250027 -2.902699 -0.238396 0.055309 0.211328 0.148974
    8 -0.049759 -1.680544 0.100479 -0.625688 0.000000 -0.000002
    9 -0.034142 -1.148312 0.084782 -1.037833 0.000000 0.000000
    10 1.207774 -3.121791 -0.090302 -0.219964 -0.043414 0.086225
    11 -0.033420 -1.397129 -0.011257 -0.345797 0.043804 -0.037992
    12 -0.022360 -0.957436 0.018784 -0.522195 0.003452 0.001139
    13 -1.180681 -2.456434 -0.021979 -1.189698 0.133751 -0.426957
    14 -0.024967 -1.123934 0.017597 -1.225081 0.000000 0.000001
    15 -0.020057 -0.890968 0.010090 -0.829947 0.000000 0.000000
    16 0.583510 -1.197277 0.509608 0.656940 -1.082222 -0.580204
    17 1.535927 0.010246 0.005009 0.009716 -0.009096 -1.042668
    18 1.100771 0.004527 -0.010679 -0.007961 0.014127 -0.337036
    19 -0.079072 -0.085427 -0.105272 3.397955 5.951133 -1.415401
    20 -6.528772 -5.422672 1.393291 -2.122898 -5.441069 -1.501392
    21 0.096944 -8.450418 -0.009365 0.235842 -0.214730 0.235652
    22 0.447953 -2.798986 -0.200443 -0.628366 -0.044133 0.343869
    23 -0.032909 -1.480204 0.004940 -1.633343 0.000000 0.000002
    24 -0.027022 -1.076920 -0.020210 -0.667382 0.000000 0.000000
    25 -0.249534 -2.846964 -0.174213 -0.462244 -0.018129 0.254486
    26 0.043235 -1.683941 0.096012 -1.826616 0.002823 -0.000167
    27 0.031729 -1.160830 0.058838 -1.082887 0.000642 0.008372
    28 -0.963866 -2.785145 -0.085350 0.024169 0.000278 0.232352
    29 0.028479 -1.403067 0.006271 -1.650081 0.000000 0.000000
    30 0.021413 -0.957781 0.020046 -0.480239 0.000000 0.000000
    31 1.164475 -2.543940 -0.170330 -0.273813 -0.148943 0.314925
    32 0.024032 -1.129042 0.017807 -1.373850 -0.085666 -0.017065
    33 0.014898 -0.883989 -0.019848 -0.624918 0.000000 0.000000
    34 -0.586770 -1.264477 0.200161 -0.574792 -0.643081 -2.386700
    35 1.522835 0.058681 0.016848 -0.136772 -0.279077 0.630005
    36 1.117947 0.048424 -0.005766 0.032139 0.015394 0.802320
    37 -0.139399 -0.111698 0.014397 0.182372 0.164602 1.423018
    38 -5.889701 6.737550 -0.270684 1.575986 -0.009925 -0.942313
    39 1.602930 -3.419616 0.993028 -0.015493 0.004288 2.654875
    40 -3.004853 -0.321123 0.000001 -0.006542 0.000000 2.079884
    41 5.485916 -2.877731 0.000000 0.000000 0.000000 -3.141309
    42 3.732013 -0.730559 1.187537 1.047162 0.000000 3.141486
    43 41.772238 20.042864 22.457718 0.000000 -0.478822 3.835696
    44 -6.289126 8.478436 1.531915 0.000000 -0.063023 0.068970
    45 -0.951095 1.245133 0.000000 0.000000 0.000000 0.651877
    46 -2.307669 -0.369492 0.683323 0.000000 0.300834 1.148170
  time 18
    0 5.598981 -5.024856 -13.339632 -0.041252 0.001989 -0.070665
    1 7.649897 8.263300 2.122177 0.839456 -2.133315 -1.186980
    2 1.257180 8.762585 -0.153713 -1.570562 0.002683 -1.566807
    3 -0.071921 -8.498736 -0.104134 0.105718 0.206515 -0.339059
    4 -0.488518 -2.755602 -0.228260 -0.987556 0.010332 -0.264490
    5 0.039887 -1.479790 0.029854 -1.633593 0.000000 0.000001
    6 0.028786 -1.075731 -0.023109 -0.474516 0.000000 0.000000
    7 0.250027 -2.902699 -0.238396 0.055309 0.211328 0.148974
    8 -0.049759 -1.680544 0.100479 -0.625688 0.000000 -0.000002
    9 -0.034142 -1.148312 0.084782 -1.037833 0.000000 0.000000
    10 1.207774 -3.121791 -0.090302 -0.219964 -0.043414 0.086225
    11 -0.033420 -1.397129 -0.011257 -0.345797 0.043804 -0.037992
    12 -0.022360 -0.957436 0.018784 -0.522195 0.003452 0.001139
    13 -1.180681 -2.456434 -0.021979 -1.189698 0.133751 -0.426957
    14 -0.024967 -1.123934 0.017597 -1.225081 0.000000 0.000001
    15 -0.020057 -0.890968 0.010090 -0.829947 0.000000 0.000000
    16 0.583510 -1.197277 0.509608 0.656940 -1.082222 -0.580204
    17 1.535927 0.010246 0.005009 0.009716 -0.009096 -1.042668
    18 1.100771 0.004527 -0.010679 -0.007961 0.014127 -0.337036
    19 -0.071259 -0.085427 -0.105272 3.405127 5.956212 -1.435837
    20 -6.099072 -5.875811 1.213598 0.955196 -3.948793 1.564115
    21 0.096944 -8.450418 -0.009365 0.214127 -0.225406 0.243306
    22 0.447953 -2.798986 -0.200443 -0.628366 -0.044133 0.343869
    23 -0.032909 -1.480204 0.004940 -1.633343 0.000000 0.000002
    24 -0.027022 -1.076920 -0.020210 -0.667382 0.000000 0.000000
    25 -0.249534 -2.846964 -0.174213 -0.462244 -0.018129 0.254486
    26 0.043235 -1.683941 0.096012 -1.826616 0.002823 -0.000167
    27 0.031729 -1.160830 0.058838 -1.082887 0.000642 0.008372
    28 -0.963866 -2.785145 -0.085350 0.024169 0.000278 0.232352
    29 0.028479 -1.403067 0.006271 -1.650081 0.000000 0.000000
    30 0.021413 -0.957781 0.020046 -0.480239 0.000000 0.000000
    31 1.164475 -2.543940 -0.170330 -0.273813 -0.148943 0.314925
    32 0.024032 -1.129042 0.017807 -1.373850 -0.085666 -0.017065
    33 0.014898 -0.883989 -0.019848 -0.624918 0.000000 0.000000
    34 -0.586770 -1.264477 0.200161 -0.574792 -0.643081 -2.386700
    35 1.522835 0.058681 0.016848 -0.136772 -0.279077 0.630005
    36 1.117947 0.048424 -0.005766 0.032139 0.015394 0.802320
    37 -0.139399 -0.111698 0.014397 0.168444 0.190812 1.401890
    38 -5.889701 6.737550 -0.270684 1.575986 -0.009925 -0.942313
    39 1.602930 -3.419616 0.993028 -0.015493 0.004288 2.654875
    40 -3.004853 -0.321123 0.000001 -0.001777 0.000000 2.079884
    41 5.485916 -2.877731 0.000000 0.000000 0.000000 -3.141309
    42 3.732013 -0.730559 1.187537 1.047162 0.000000 3.141486
    43 41.772238 20.042864 22.457718 0.000000 -0.478822 3.835696
    44 -6.289126 8.486249 1.516290 0.000000 0.203997 0.068970
    45 -0.951095 1.245133 0.000000 0.000000 0.000000 0.651877
    46 -2.307669 -0.369492 0.683323 0.000000 0.172880 1.148170
  time 19
    0 5.466164 -5.142047 -13.484167 -0.052245 0.001031 -0.070016
    1 7.747556 8.165641 2.028424 0.875216 -2.095452 -1.223875
    2 1.257180 8.762585 -0.153713 -1.570562 0.002683 -1.566807
    3 -0.071921 -8.498736 -0.104134 0.132491 0.207750 -0.330025
    4 -0.488518 -2.755602 -0.228260 -0.987556 0.010332 -0.264490
    5 0.039887 -1.479790 0.029854 -1.633593 0.000000 0.000001
    6 0.028786 -1.075731 -0.023109 -0.474516 0.000000 0.000000
    7 0.250027 -2.902699 -0.238396 0.055309 0.211328 0.148974
    8 -0.049759 -1.680544 0.100479 -0.625688 0.000000 -0.000002
    9 -0.034142 -1.148312 0.084782 -1.037833 0.000000 0.000000
    10 1.207774 -3.121791 -0.090302 -0.219964 -0.043414 0.086225
    11 -0.033420 -1.397129 -0.011257 -0.345797 0.043804 -0.037992
    12 -0.022360 -0.957436 0.018784 -0.522195 0.003452 0.001139
    13 -1.180681 -2.456434 -0.021979 -1.189698 0.133751 -0.426957
    14 -0.024967 -1.123934 0.017597 -1.225081 0.000000 0.000001
    15 -0.020057 -0.890968 0.010090 -0.829947 0.000000 0.000000
    16 0.583510 -1.197277 0.509608 0.656940 -1.082222 -0.580204
    17 1.535927 0.010246 0.005009 0.009716 -0.009096 -1.042668
    18 1.100771 0.004527 -0.010679 -0.007961 0.014127 -0.337036
    19 -0.067353 -0.085427 -0.105272 3.410960 5.960430 -1.452928
    20 -5.774843 -6.082848 1.065156 0.897734 -3.934718 1.503055
    21 0.096944 -8.450418 -0.009365 0.196206 -0.251406 0.248152
    22 0.447953 -2.798986 -0.200443 -0.628366 -0.044133 0.343869
    23 -0.032909 -1.480204 0.004940 -1.633343 0.000000 0.000002
    24 -0.027022 -1.076920 -0.020210 -0.667382 0.000000 0.000000
    25 -0.249534 -2.846964 -0.174213 -0.462244 -0.018129 0.254486
    26 0.043235 -1.683941 0.096012 -1.826616 0.002823 -0.000167
    27 0.031729 -1.160830 0.058838 -1.082887 0.000642 0.008372
    28 -0.963866 -2.785145 -0.085350 0.024169 0.000278 0.232352
    29 0.028479 -1.403067 0.006271 -1.650081 0.000000 0.000000
    30 0.021413 -0.957781 0.020046 -0.480239 0.000000 0.000000
    31 1.164475 -2.543940 -0.170330 -0.273813 -0.148943 0.314925
    32 0.024032 -1.129042 0.017807 -1.373850 -0.085666 -0.017065
    33 0.014898 -0.883989 -0.019848 -0.624918 0.000000 0.000000
    34 -0.586770 -1.264477 0.200161 -0.574792 -0.643081 -2.386700
    35 1.522835 0.058681 0.016848 -0.136772 -0.279077 0.630005
    36 1.117947 0.048424 -0.005766 0.032139 0.015394 0.802320
    37 -0.139399 -0.111698 0.014397 0.163166 0.200747 1.393884
    38 -5.889701 6.737550 -0.270684 1.575986 -0.009925 -0.942313
    39 1.602930 -3.419616 0.993028 -0.015493 0.004288 2.654875
    40 -3.004853 -0.321123 0.000001 0.000000 0.000000 2.079884
    41 5.485916 -2.877731 0.000000 0.000000 0.000000 -3.141309
    42 3.732013 -0.730559 1.187537 1.047162 0.000000 3.141486
    43 41.772238 20.042864 22.457718 0.000000 -0.478822 3.835696
    44 -6.289126 8.486249 1.516290 0.000000 0.172118 0.068970
    45 -0.951095 1.245133 0.000000 0.000000 0.000000 0.651877
    46 -2.307669 -0.369492 0.683323 0.000000 -0.064632 1.148170
  time 20
    0 5.251314 -4.997511 -13.269317 -0.052245 0.001031 -0.070016
    1 7.837402 8.087513 2.075300 0.905157 -2.063790 -1.254809
    2 1.257180 8.762585 -0.153713 -1.570562 0.002683 -1.566807
    3 -0.071921 -8.498736 -0.104134 0.150325 0.213886 -0.344915
    4 -0.488518 -2.755602 -0.228260 -0.987556 0.010332 -0.264490
    5 0.039887 -1.479790 0.029854 -1.633641 0.000000 0.000001
    6 0.028786 -1.075731 -0.023109 -0.474516 0.000000 0.000000
    7 0.250027 -2.902699 -0.238396 0.055309 0.211328 0.148974
    8 -0.049759 -1.680544 0.100479 -0.625688 0.000000 -0.000002
    9 -0.034142 -1.148312 0.084782 -1.037833 0.000000 0.000000
    10 1.207774 -3.121791 -0.090302 -0.219964 -0.043414 0.086225
    11 -0.033420 -1.397129 -0.011257 -0.345797 0.043804 -0.037992
    12 -0.022360 -0.957436 0.018784 -0.522195 0.003452 0.001139
    13 -1.180681 -2.456434 -0.021979 -1.189698 0.133751 -0.426957
    14 -0.024967 -1.123934 0.017597 -1.225081 0.000000 0.000001
    15 -0.020057 -0.890968 0.010090 -0.829947 0.000000 0.000000
    16 0.583510 -1.197277 0.509608 0.656940 -1.082222 -0.580204
    17 1.535927 0.010246 0.005009 0.009716 -0.009096 -1.042668
    18 1.100771 0.004527 -0.010679 -0.007961 0.014127 -0.337036
    19 -0.063446 -0.081521 -0.105272 3.415837 5.963880 -1.467233
    20 -5.602963 -6.110193 0.967496 0.838269 -3.952122 1.461297
    21 0.096944 -8.450418 -0.009365 0.191008 -0.305293 0.242478
    22 0.447953 -2.798986 -0.200443 -0.628366 -0.044133 0.343869
    23 -0.032909 -1.480204 0.004940 -1.633343 0.000000 0.000002
    24 -0.027022 -1.076920 -0.020210 -0.667382 0.000000 0.000000
    25 -0.249534 -2.846964 -0.174213 -0.462244 -0.018129 0.254486
    26 0.043235 -1.683941 0.096012 -1.826616 0.002823 -0.000167
    27 0.031729 -1.160830 0.058838 -1.082887 0.000642 0.008372
    28 -0.963866 -2.785145 -0.085350 0.024169 0.000278 0.232352
    29 0.028479 -1.403067 0.006271 -1.650081 0.000000 0.000000
    30 0.021413 -0.957781 0.020046 -0.480239 0.000000 0.000000
    31 1.164475 -2.543940 -0.170330 -0.273813 -0.148943 0.314925
    32 0.024032 -1.129042 0.017807 -1.373850 -0.085666 -0.017065
    33 0.014898 -0.883989 -0.019848 -0.624918 0.000000 0.000000
    34 -0.586770 -1.264477 0.200161 -0.574792 -0.643081 -2.386700
    35 1.522835 0.058681 0.016848 -0.136772 -0.279077 0.630005
    36 1.117947 0.048424 -0.005766 0.032139 0.015394 0.802320
    37 -0.139399 -0.111698 0.014397 0.163166 0.200747 1.393884
    38 -5.889701 6.737550 -0.270684 1.575986 -0.009925 -0.942313
    39 1.602930 -3.419616 0.993028 -0.015493 0.004288 2.654875
    40 -3.004853 -0.321123 0.000001 0.000000 0.000000 2.079884
    41 5.485916 -2.877731 0.000000 0.000000 0.000000 -3.141309
    42 3.732013 -0.730559 1.187537 1.047162 0.000000 3.141486
    43 41.772238 20.042864 22.457718 0.000000 -0.478822 3.835696
    44 -6.289126 8.486249 1.516290 0.000000 0.101975 0.068970
    45 -0.951095 1.245133 0.000000 0.000000 0.000000 0.651877
    46 -2.307669 -0.369492 0.683323 0.000000 -0.192586 1.148170
  time 21
    0 4.989587 -4.727972 -12.874774 -0.052245 0.001031 -0.070016
    1 7.907717 8.036731 2.165147 0.928350 -2.039350 -1.278726
    2 1.257180 8.762585 -0.153713 -1.570562 0.002683 -1.566807
    3 -0.071921 -8.498736 -0.104134 0.161111 0.224948 -0.372654
    4 -0.488518 -2.755602 -0.228260 -0.987556 0.010332 -0.264490
    5 0.039887 -1.479790 0.029854 -1.633593 0.000000 0.000001
    6 0.028786 -1.075731 -0.023109 -0.474516 0.000000 0.000000
    7 0.250027 -2.902699 -0.238396 0.055309 0.211328 0.148974
    8 -0.049759 -1.680544 0.100479 -0.625688 0.000000 -0.000002
    9 -0.034142 -1.148312 0.084782 -1.037833 0.000000 0.000000
    10 1.207774 -3.121791 -0.090302 -0.219964 -0.043414 0.086225
    11 -0.033420 -1.397129 -0.011257 -0.345797 0.043804 -0.037992
    12 -0.022360 -0.957436 0.018784 -0.522195 0.003452 0.001139
    13 -1.180681 -2.456434 -0.021979 -1.189698 0.133751 -0.426957
    14 -0.024967 -1.123934 0.017597 -1.225081 0.000000 0.000001
    15 -0.020057 -0.890968 0.010090 -0.829947 0.000000 0.000000
    16 0.583510 -1.197277 0.509608 0.656940 -1.082222 -0.580204
    17 1.535927 0.010246 0.005009 0.009716 -0.009096 -1.042668
    18 1.100771 0.004527 -0.010679 -0.007961 0.014127 -0.337036
    19 -0.059540 -0.081521 -0.101365 3.419471 5.966660 -1.478193
    20 -5.540461 -6.121912 0.920620 0.778516 -3.984647 1.430528
    21 0.096944 -8.450418 -0.009365 0.192039 -0.367739 0.227394
    22 0.447953 -2.798986 -0.200443 -0.628366 -0.044133 0.343869
    23 -0.032909 -1.480204 0.004940 -1.633343 0.000000 0.000002
    24 -0.027022 -1.076920 -0.020210 -0.667382 0.000000 0.000000
    25 -0.249534 -2.846964 -0.174213 -0.462244 -0.018129 0.254486
    26 0.043235 -1.683941 0.096012 -1.826616 0.002823 -0.000167
    27 0.031729 -1.160830 0.058838 -1.082887 0.000642 0.008372
    28 -0.963866 -2.785145 -0.085350 0.024169 0.000278 0.232352
    29 0.028479 -1.403067 0.006271 -1.650081 0.000000 0.000000
    30 0.021413 -0.957781 0.020046 -0.480239 0.000000 0.000000
    31 1.164475 -2.543940 -0.170330 -0.273813 -0.148943 0.314925
    32 0.024032 -1.129042 0.017807 -1.373850 -0.085666 -0.017065
    33 0.014898 -0.883989 -0.019848 -0.624918 0.000000 0.000000
    34 -0.586770 -1.264477 0.200161 -0.574792 -0.643081 -2.386700
    35 1.522835 0.058681 0.016848 -0.136772 -0.279077 0.630005
    36 1.117947 0.048424 -0.005766 0.032139 0.015394 0.802320
    37 -0.139399 -0.111698 0.014397 0.163166 0.200747 1.393884
    38 -5.889701 6.737550 -0.270684 1.575986 -0.009925 -0.942313
    39 1.602930 -3.419616 0.993028 -0.015493 0.004288 2.654875
    40 -3.004853 -0.321123 0.000001 0.000000 0.000000 2.079884
    41 5.485916 -2.877731 0.000000 0.000000 0.000000 -3.141309
    42 3.732013 -0.730559 1.187537 1.047162 0.000000 3.141486
    43 41.772238 20.042864 22.457718 0.000000 -0.478822 3.835696
    44 -6.289126 8.486249 1.516290 0.000000 0.031879 0.068970
    45 -0.951095 1.245133 0.000000 0.000000 0.000000 0.651877
    46 -2.307669 -0.369492 0.683323 0.000000 -0.096293 1.148170
  time 22
    0 4.864584 -4.579530 -12.659923 -0.052245 0.001031 -0.070016
    1 7.938968 8.021105 2.212023 0.937659 -2.029502 -1.288301
    2 1.257180 8.762585 -0.153713 -1.570562 0.002683 -1.566807
    3 -0.071921 -8.498736 -0.104134 0.164730 0.230808 -0.387660
    4 -0.488518 -2.755602 -0.228260 -0.987556 0.010332 -0.264490
    5 0.039887 -1.479790 0.029854 -1.633593 0.000000 0.000001
    6 0.028786 -1.075731 -0.023109 -0.474516 0.000000 0.000000
    7 0.250027 -2.902699 -0.238396 0.055309 0.211328 0.148974
    8 -0.049759 -1.680544 0.100479 -0.625688 0.000000 -0.000002
    9 -0.034142 -1.148312 0.084782 -1.037833 0.000000 0.000000
    10 1.207774 -3.121791 -0.090302 -0.219964 -0.043414 0.086225
    11 -0.033420 -1.397129 -0.011257 -0.345797 0.043804 -0.037992
    12 -0.022360 -0.957436 0.018784 -0.522195 0.003452 0.001139
    13 -1.180681 -2.456434 -0.021979 -1.189698 0.133751 -0.426957
    14 -0.024967 -1.123934 0.017597 -1.225081 0.000000 0.000001
    15 -0.020057 -0.890968 0.010090 -0.829947 0.000000 0.000000
    16 0.583510 -1.197277 0.509608 0.656940 -1.082222 -0.580204
    17 1.535927 0.010246 0.005009 0.009716 -0.009096 -1.042668
    18 1.100771 0.004527 -0.010679 -0.007961 0.014127 -0.337036
    19 -0.059540 -0.081521 -0.101365 3.420906 5.967714 -1.482652
    20 -5.532648 -6.125818 0.904994 0.751313 -4.002241 1.418488
    21 0.096944 -8.450418 -0.009365 0.193640 -0.397651 0.218670
    22 0.447953 -2.798986 -0.200443 -0.628366 -0.044133 0.343869
    23 -0.032909 -1.480204 0.004940 -1.633343 0.000000 0.000002
    24 -0.027022 -1.076920 -0.020210 -0.667382 0.000000 0.000000
    25 -0.249534 -2.846964 -0.174213 -0.462244 -0.018129 0.254486
    26 0.043235 -1.683941 0.096012 -1.826616 0.002823 -0.000167
    27 0.031729 -1.160830 0.058838 -1.082887 0.000642 0.008372
    28 -0.963866 -2.785145 -0.085350 0.024169 0.000278 0.232352
    29 0.028479 -1.403067 0.006271 -1.650081 0.000000 0.000000
    30 0.021413 -0.957781 0.020046 -0.480239 0.000000 0.000000
    31 1.164475 -2.543940 -0.170330 -0.273813 -0.148943 0.314925
    32 0.024032 -1.129042 0.017807 -1.373850 -0.085666 -0.017065
    33 0.014898 -0.883989 -0.019848 -0.624918 0.000000 0.000000
    34 -0.586770 -1.264477 0.200161 -0.574792 -0.643081 -2.386700
    35 1.522835 0.058681 0.016848 -0.136772 -0.279077 0.630005
    36 1.117947 0.048424 -0.005766 0.032139 0.015394 0.802320
    37 -0.139399 -0.111698 0.014397 0.163166 0.200747 1.393884
    38 -5.889701 6.737550 -0.270684 1.575986 -0.009925 -0.942313
    39 1.602930 -3.419616 0.993028 -0.015493 0.004288 2.654875
    40 -3.004853 -0.321123 0.000001 0.000000 0.000000 2.079884
    41 5.485916 -2.877731 0.000000 0.000000 0.000000 -3.141309
    42 3.732013 -0.730559 1.187537 1.047162 0.000000 3.141486
    43 41.772238 20.042864 22.457718 0.000000 -0.478822 3.835696
    44 -6.289126 8.486249 1.516290 0.000000 0.000000 0.068970
    45 -0.951095 1.245133 0.000000 0.000000 0.000000 0.651877
    46 -2.307669 -0.369492 0.683323 0.000000 0.000000 1.148170
end
