version 1
nodes
  0 "root" -1
  1 "Bone01" 0
  2 "Bone_Lefthand" 1
  3 "Bone02" 2
  4 "Bone24" 3
  5 "Bone25" 4
  6 "Bone12" 3
  7 "Bone16" 3
  8 "Bone08" 3
  9 "Bone_L_Upper" 1
  10 "Bone13" 2
  11 "Bone14" 10
  12 "Bone15" 11
  13 "Bone17" 2
  14 "Bone18" 13
  15 "Bone19" 14
  16 "Bone21" 2
  17 "Bone22" 16
  18 "Bone23" 17
  19 "Bone09" 2
  20 "Bone10" 19
  21 "Bone11" 20
  22 "Bone05" 2
  23 "Bone06" 22
  24 "Bone07" 23
  25 "Bone_Se_Hand-L" 2
  26 "Bone04" 0
  27 "Bone_Righthand" 26
  28 "Bone39" 27
  29 "Bone40" 28
  30 "Bone41" 29
  31 "Bone35" 27
  32 "Bone36" 31
  33 "Bone37" 32
  34 "Bone31" 27
  35 "Bone32" 34
  36 "Bone33" 35
  37 "Bone43" 27
  38 "Bone44" 37
  39 "Bone45" 38
  40 "Bone27" 27
  41 "Bone28" 40
  42 "Bone29" 41
  43 "Bone_Se_Hand-R" 27
  44 "Bone_R_Upper" 26
end
skeleton
  time 0
    0 -0.999830 1.628925 3.537212 0.000000 0.000000 0.000000
    1 9.481372 5.488253 -8.469172 -0.149964 -1.612728 -0.045697
    2 -0.071918 -8.498731 -0.104136 0.166421 0.238212 0.105818
    3 2.815887 -5.283122 1.386547 0.209716 0.049969 -1.630727
    4 -2.052183 -0.333174 -0.000001 0.000000 -3.141592 0.144933
    5 9.198753 0.000002 0.000000 0.000000 0.000000 -1.425816
    6 3.633989 -0.389698 -0.017557 -1.570797 -1.570796 0.000000
    7 11.822115 -1.093857 0.000000 0.000001 0.000000 -1.570796
    8 2.283096 -30.369556 -0.000005 0.000001 0.000000 0.000000
    9 1.257180 8.762585 -0.153713 -1.570562 0.002683 -1.566807
    10 -0.488518 -2.755602 -0.228260 -0.871614 -0.202562 -0.209541
    11 0.039887 -1.479790 0.029854 -1.516144 0.000000 0.000001
    12 0.028786 -1.075731 -0.023109 -1.298153 0.000000 0.000000
    13 0.250027 -2.820665 -0.238396 -0.797118 -0.167517 -0.114938
    14 -0.049759 -1.680544 0.100479 -1.644607 0.000000 -0.000002
    15 -0.034142 -1.148312 0.084782 -1.481002 0.000000 0.000000
    16 0.957766 -2.746780 -0.090302 -0.175885 -0.162684 0.097910
    17 -0.033420 -1.397129 -0.011257 -0.521018 0.000000 -0.000001
    18 -0.022360 -0.957436 0.018784 -0.975516 0.000000 0.000000
    19 -1.180681 -2.507217 -0.193859 -0.671429 -0.081516 -0.261329
    20 -0.024967 -1.123934 0.017597 -1.276708 0.000000 0.000001
    21 -0.020057 -0.890968 0.010090 -1.435733 0.000000 0.000000
    22 0.583510 -1.197277 0.185379 0.135458 -1.044822 -1.384612
    23 1.535927 0.010246 0.005009 -0.002964 -0.012979 -0.506650
    24 1.100771 0.004527 -0.010679 -0.015488 -0.004784 -1.694062
    25 0.120153 -0.050270 -0.054489 0.287569 3.110905 1.561085
    26 0.901142 -10.965810 -11.517260 -1.457628 -5.162268 -0.748797
    27 0.096944 -8.450418 -0.009365 0.338894 -0.917848 0.099371
    28 0.447953 -2.798986 -0.200443 -0.507443 -0.039938 0.202570
    29 -0.032909 -1.480204 0.004940 -1.717245 0.000000 0.000002
    30 -0.027022 -1.076920 -0.020210 0.086279 0.000000 0.000000
    31 -0.249534 -2.846964 -0.174213 -0.128739 0.012411 0.088176
    32 0.043235 -1.683941 0.096012 -1.830969 0.002823 -0.000167
    33 0.031729 -1.160830 0.058838 -0.120888 0.000642 0.008372
    34 -0.963866 -2.785145 -0.085350 0.166925 0.160514 0.097509
    35 0.028479 -1.403067 0.006271 -0.938002 0.000000 0.000000
    36 0.021413 -0.957781 0.020046 -1.073956 0.000000 0.000000
    37 1.164475 -2.543940 -0.170330 -0.897677 -0.190582 0.231606
    38 0.024032 -1.129042 0.017807 -1.475660 0.000000 0.000001
    39 0.014898 -0.883989 -0.019848 0.358131 0.000000 0.000000
    40 -0.586770 -1.264477 0.200161 -0.064366 -0.174069 -2.405492
    41 1.522835 0.058681 0.016848 0.001410 0.008985 0.293269
    42 1.117947 0.048424 -0.005766 0.001267 -0.025174 0.005110
    43 -0.139399 -0.111698 0.014397 0.808201 0.213999 1.504546
    44 -1.393470 8.839177 -0.239433 1.580804 -0.005023 -1.566847
  time 1
    0 -0.999830 1.628925 3.537212 0.000000 0.000000 0.000000
    1 9.371994 5.632789 -8.699647 1.075845 -1.588962 -1.269650
    2 -0.071918 -8.498731 -0.104136 0.170220 0.235543 0.122023
    3 2.815887 -5.283122 1.386547 0.209716 0.049969 -1.630727
    4 -2.052183 -0.333174 -0.000001 0.000000 -3.141592 0.144933
    5 9.198753 0.000002 0.000000 0.000000 0.000000 -1.425816
    6 3.633989 -0.389698 -0.017557 -1.570797 -1.570796 0.000000
    7 11.822115 -1.093857 0.000000 0.000001 0.000000 -1.570796
    8 2.194047 -30.160089 -0.065182 0.006292 -0.000916 -0.001016
    9 1.257180 8.762585 -0.153713 -1.570562 0.002683 -1.566807
    10 -0.488518 -2.755602 -0.228260 -0.871614 -0.202562 -0.209541
    11 0.039887 -1.479790 0.029854 -1.516144 0.000000 0.000001
    12 0.028786 -1.075731 -0.023109 -1.298153 0.000000 0.000000
    13 0.250027 -2.820665 -0.238396 -0.797118 -0.167517 -0.114938
    14 -0.049759 -1.680544 0.100479 -1.644607 0.000000 -0.000002
    15 -0.034142 -1.148312 0.084782 -1.481002 0.000000 0.000000
    16 0.957766 -2.746780 -0.090302 -0.175885 -0.162684 0.097910
    17 -0.033420 -1.397129 -0.011257 -0.521018 0.000000 -0.000001
    18 -0.022360 -0.957436 0.018784 -0.975516 0.000000 0.000000
    19 -1.180681 -2.507217 -0.193859 -0.671429 -0.081516 -0.261329
    20 -0.024967 -1.123934 0.017597 -1.276708 0.000000 0.000001
    21 -0.020057 -0.890968 0.010090 -1.435733 0.000000 0.000000
    22 0.583510 -1.197277 0.185379 0.135458 -1.044822 -1.384612
    23 1.535927 0.010246 0.005009 -0.002964 -0.012979 -0.506650
    24 1.100771 0.004527 -0.010679 -0.015488 -0.004784 -1.694062
    25 0.120153 -0.050270 -0.054489 0.287569 3.110905 1.561085
    26 0.252685 -10.125940 -11.357099 -1.642650 -5.156952 -0.955838
    27 0.096944 -8.450418 -0.009365 0.338894 -0.917848 0.099371
    28 0.447953 -2.798986 -0.200443 -0.482387 -0.039938 0.202570
    29 -0.032909 -1.480204 0.004940 -1.628541 0.000000 0.000002
    30 -0.027022 -1.076920 -0.020210 0.066753 0.000000 0.000000
    31 -0.249534 -2.846964 -0.174213 -0.106408 0.012902 0.085371
    32 0.043235 -1.683941 0.096012 -1.738960 0.002823 -0.000167
    33 0.031729 -1.160830 0.058838 -0.120888 0.000642 0.008372
    34 -0.963866 -2.785145 -0.085350 0.184378 0.162132 0.093692
    35 0.028479 -1.403067 0.006271 -0.887339 0.000000 0.000000
    36 0.021413 -0.957781 0.020046 -1.012051 0.000000 0.000000
    37 1.164475 -2.543940 -0.170330 -0.862319 -0.190582 0.231606
    38 0.024032 -1.129042 0.017807 -1.394836 0.000000 0.000001
    39 0.014898 -0.883989 -0.019848 0.305578 0.000000 0.000000
    40 -0.586770 -1.264477 0.200161 -0.059861 -0.203659 -2.413152
    41 1.522835 0.058681 0.016848 0.001410 0.008985 0.293269
    42 1.117947 0.048424 -0.005766 0.001267 -0.025174 0.005110
    43 -0.139399 -0.111698 0.014397 0.808201 0.213999 1.504546
    44 -1.393470 8.839177 -0.239433 1.580804 -0.005023 -1.566847
  time 2
    0 -0.999830 1.628925 3.537212 0.000000 0.000000 0.000000
    1 9.246990 5.734354 -8.969187 -0.974997 -1.527479 0.783139
    2 -0.071918 -8.498731 -0.104136 0.173983 0.232797 0.138228
    3 2.815887 -5.283122 1.386547 0.209716 0.049969 -1.630727
    4 -2.052183 -0.333174 -0.000001 0.000000 -3.141592 0.144933
    5 9.198753 0.000002 0.000000 0.000000 0.000000 -1.425816
    6 3.633989 -0.389698 -0.017557 -1.570797 -1.570796 0.000000
    7 11.822115 -1.093857 0.000000 0.000001 0.000000 -1.570796
    8 1.926900 -29.546647 -0.293301 0.023960 -0.003677 -0.003829
    9 1.257180 8.762585 -0.153713 -1.570562 0.002683 -1.566807
    10 -0.488518 -2.755602 -0.228260 -0.871614 -0.202562 -0.209541
    11 0.039887 -1.479790 0.029854 -1.516144 0.000000 0.000001
    12 0.028786 -1.075731 -0.023109 -1.298153 0.000000 0.000000
    13 0.250027 -2.820665 -0.238396 -0.797118 -0.167517 -0.114938
    14 -0.049759 -1.680544 0.100479 -1.644607 0.000000 -0.000002
    15 -0.034142 -1.148312 0.084782 -1.481046 0.000000 0.000000
    16 0.957766 -2.746780 -0.090302 -0.175885 -0.162684 0.097910
    17 -0.033420 -1.397129 -0.011257 -0.521018 0.000000 -0.000001
    18 -0.022360 -0.957436 0.018784 -0.975516 0.000000 0.000000
    19 -1.180681 -2.507217 -0.193859 -0.671429 -0.081516 -0.261329
    20 -0.024967 -1.123934 0.017597 -1.276708 0.000000 0.000001
    21 -0.020057 -0.890968 0.010090 -1.435733 0.000000 0.000000
    22 0.583510 -1.197277 0.185379 0.135458 -1.044822 -1.384612
    23 1.535927 0.010246 0.005009 -0.002964 -0.012979 -0.506650
    24 1.100771 0.004527 -0.010679 -0.015488 -0.004784 -1.694062
    25 0.120153 -0.050270 -0.054489 0.287569 3.110905 1.561085
    26 -0.368428 -9.313416 -11.255533 -1.815764 -5.162743 -1.151811
    27 0.096944 -8.450418 -0.009365 0.338894 -0.917848 0.099371
    28 0.447953 -2.798986 -0.200443 -0.419770 -0.039938 0.202570
    29 -0.032909 -1.480204 0.004940 -1.406705 0.000000 0.000002
    30 -0.027022 -1.076920 -0.020210 0.017855 0.000000 0.000000
    31 -0.249534 -2.846964 -0.174213 -0.050565 0.014125 0.078360
    32 0.043235 -1.683941 0.096012 -1.508912 0.002823 -0.000167
    33 0.031729 -1.160830 0.058838 -0.120888 0.000642 0.008372
    34 -0.963866 -2.785145 -0.085350 0.227958 0.166183 0.084131
    35 0.028479 -1.403067 0.006271 -0.760590 0.000000 0.000000
    36 0.021413 -0.957781 0.020046 -0.857224 0.000000 0.000000
    37 1.164475 -2.543940 -0.170330 -0.773876 -0.190582 0.231606
    38 0.024032 -1.129042 0.017807 -1.192888 0.000000 0.000001
    39 0.014898 -0.883989 -0.019848 0.174239 0.000000 0.000000
    40 -0.586770 -1.264477 0.200161 -0.048564 -0.277640 -2.432275
    41 1.522835 0.058681 0.016848 0.001410 0.008985 0.293269
    42 1.117947 0.048424 -0.005766 0.001267 -0.025174 0.005110
    43 -0.139399 -0.111698 0.014397 0.808201 0.213999 1.504546
    44 -1.393470 8.839177 -0.239433 1.580804 -0.005023 -1.566847
  time 3
    0 -0.999830 1.628925 3.537212 0.000000 0.000000 0.000000
    1 9.098548 5.749980 -9.305135 -0.811132 -1.487748 0.620918
    2 -0.071918 -8.498731 -0.104136 0.176045 0.231261 0.147203
    3 2.815887 -5.283122 1.386547 0.209716 0.049969 -1.630727
    4 -2.052183 -0.333174 -0.000001 0.000000 -3.141592 0.144933
    5 9.198753 0.000002 0.000000 0.000000 0.000000 -1.425816
    6 3.633989 -0.389698 -0.017557 -1.570797 -1.570796 0.000000
    7 11.822115 -1.093857 0.000000 0.000001 0.000000 -1.570796
    8 1.526180 -28.574118 -0.635480 0.051199 -0.008227 -0.008205
    9 1.257180 8.762585 -0.153713 -1.570562 0.002683 -1.566807
    10 -0.488518 -2.755602 -0.228260 -0.871614 -0.202562 -0.209541
    11 0.039887 -1.479790 0.029854 -1.516144 0.000000 0.000001
    12 0.028786 -1.075731 -0.023109 -1.298153 0.000000 0.000000
    13 0.250027 -2.820665 -0.238396 -0.797118 -0.167517 -0.114938
    14 -0.049759 -1.680544 0.100479 -1.644607 0.000000 -0.000002
    15 -0.034142 -1.148312 0.084782 -1.481002 0.000000 0.000000
    16 0.957766 -2.746780 -0.090302 -0.175885 -0.162684 0.097910
    17 -0.033420 -1.397129 -0.011257 -0.521018 0.000000 -0.000001
    18 -0.022360 -0.957436 0.018784 -0.975516 0.000000 0.000000
    19 -1.180681 -2.507217 -0.193859 -0.671429 -0.081516 -0.261329
    20 -0.024967 -1.123934 0.017597 -1.276708 0.000000 0.000001
    21 -0.020057 -0.890968 0.010090 -1.435733 0.000000 0.000000
    22 0.583510 -1.197277 0.185379 0.135458 -1.044822 -1.384612
    23 1.535927 0.010246 0.005009 -0.002964 -0.012979 -0.506650
    24 1.100771 0.004527 -0.010679 -0.015488 -0.004784 -1.694062
    25 0.120153 -0.050270 -0.054489 0.287569 3.110905 1.561085
    26 -0.946571 -8.563393 -11.271158 -1.978854 -5.182679 -1.337862
    27 0.096944 -8.450418 -0.009365 0.338894 -0.917848 0.099371
    28 0.447953 -2.798986 -0.200443 -0.338326 -0.039938 0.202570
    29 -0.032909 -1.480204 0.004940 -1.118329 0.000000 0.000002
    30 -0.027022 -1.076920 -0.020210 -0.045604 0.000000 0.000000
    31 -0.249534 -2.846964 -0.174213 0.021977 0.015719 0.069240
    32 0.043235 -1.683941 0.096012 -1.209899 0.002823 -0.000167
    33 0.031729 -1.160830 0.058838 -0.120888 0.000642 0.008372
    34 -0.963866 -2.785145 -0.085350 0.284629 0.171456 0.071711
    35 0.028479 -1.403067 0.006271 -0.595821 0.000000 0.000000
    36 0.021413 -0.957781 0.020046 -0.655951 0.000000 0.000000
    37 1.164475 -2.543940 -0.170330 -0.658889 -0.190582 0.231606
    38 0.024032 -1.129042 0.017807 -0.930311 0.000000 0.000001
    39 0.014898 -0.883989 -0.019848 0.003441 0.000000 0.000000
    40 -0.586770 -1.264477 0.200161 -0.033888 -0.373804 -2.457156
    41 1.522835 0.058681 0.016848 0.001410 0.008985 0.293269
    42 1.117947 0.048424 -0.005766 0.001267 -0.025174 0.005110
    43 -0.139399 -0.111698 0.014397 0.808201 0.213999 1.504546
    44 -1.393470 8.839177 -0.239433 1.580804 -0.005023 -1.566847
  time 4
    0 -0.999830 1.628925 3.537212 0.000000 0.000000 0.000000
    1 8.914948 5.628882 -9.742648 -0.817334 -1.439441 0.627843
    2 -0.071918 -8.498731 -0.104136 0.176596 0.230831 0.149641
    3 2.815887 -5.283122 1.386547 0.209716 0.049969 -1.630727
    4 -2.052183 -0.333174 -0.000001 0.000000 3.141592 0.144933
    5 9.198753 0.000002 0.000000 0.000000 0.000000 -1.425816
    6 3.633989 -0.389698 -0.017557 -1.570797 -1.570796 0.000000
    7 11.822115 -1.093857 0.000000 0.000001 0.000000 -1.570796
    8 1.014148 -27.302348 -1.075424 0.085933 -0.014539 -0.013832
    9 1.257180 8.762585 -0.153713 -1.570562 0.002683 -1.566807
    10 -0.488518 -2.755602 -0.228260 -0.871614 -0.202562 -0.209541
    11 0.039887 -1.479790 0.029854 -1.516144 0.000000 0.000001
    12 0.028786 -1.075731 -0.023109 -1.298153 0.000000 0.000000
    13 0.250027 -2.820665 -0.238396 -0.797118 -0.167517 -0.114938
    14 -0.049759 -1.680544 0.100479 -1.644607 0.000000 -0.000002
    15 -0.034142 -1.148312 0.084782 -1.481046 0.000000 0.000000
    16 0.957766 -2.746780 -0.090302 -0.175885 -0.162684 0.097910
    17 -0.033420 -1.397129 -0.011257 -0.521018 0.000000 -0.000001
    18 -0.022360 -0.957436 0.018784 -0.975516 0.000000 0.000000
    19 -1.180681 -2.507217 -0.193859 -0.671429 -0.081516 -0.261329
    20 -0.024967 -1.123934 0.017597 -1.276708 0.000000 0.000001
    21 -0.020057 -0.890968 0.010090 -1.435733 0.000000 0.000000
    22 0.583510 -1.197277 0.185379 0.135458 -1.044822 -1.384612
    23 1.535927 0.010246 0.005009 -0.002964 -0.012979 -0.506650
    24 1.100771 0.004527 -0.010679 -0.015488 -0.004784 -1.694062
    25 0.120153 -0.050270 -0.054489 0.287569 3.110905 1.561085
    26 -1.446586 -7.911029 -11.458664 -2.128529 -5.221506 -1.509791
    27 0.096944 -8.450418 -0.009365 0.338894 -0.917848 0.099371
    28 0.447953 -2.798986 -0.200443 -0.256928 -0.039938 0.202570
    29 -0.032909 -1.480204 0.004940 -0.829952 0.000000 0.000002
    30 -0.027022 -1.076920 -0.020210 -0.109146 0.000000 0.000000
    31 -0.249534 -2.846964 -0.174213 0.094519 0.017313 0.060120
    32 0.043235 -1.683941 0.096012 -0.910830 0.002823 -0.000167
    33 0.031729 -1.160830 0.058838 -0.120888 0.000642 0.008372
    34 -0.963866 -2.785145 -0.085350 0.341299 0.176729 0.059290
    35 0.028479 -1.403067 0.006271 -0.431052 0.000000 0.000000
    36 0.021413 -0.957781 0.020046 -0.454678 0.000000 0.000000
    37 1.164475 -2.543940 -0.170330 -0.543903 -0.190582 0.231606
    38 0.024032 -1.129042 0.017807 -0.667734 0.000000 0.000001
    39 0.014898 -0.883989 -0.019848 -0.167267 0.000000 0.000000
    40 -0.586770 -1.264477 0.200161 -0.019212 -0.469969 -2.482024
    41 1.522835 0.058681 0.016848 0.001410 0.008985 0.293269
    42 1.117947 0.048424 -0.005766 0.001267 -0.025174 0.005110
    43 -0.139399 -0.111698 0.014397 0.808201 0.213999 1.504546
    44 -1.393470 8.839177 -0.239433 1.580804 -0.005023 -1.566847
  time 5
    0 -0.999830 1.628925 3.537212 0.000000 0.000000 0.000000
    1 8.684473 5.406219 -10.293446 -0.856418 -1.379844 0.666937
    2 -0.071918 -8.498731 -0.104136 0.176944 0.230571 0.151137
    3 2.815887 -5.283122 1.386547 0.209716 0.049969 -1.630727
    4 -2.052183 -0.333174 -0.000001 0.000000 -3.141592 0.144933
    5 9.198753 0.000002 0.000000 0.000000 0.000000 -1.425816
    6 3.633989 -0.389698 -0.017557 -1.570797 -1.570796 0.000000
    7 11.822115 -1.093857 0.000000 0.000001 0.000000 -1.570796
    8 0.413067 -25.791187 -1.596840 0.126355 -0.022583 -0.020318
    9 1.257180 8.762585 -0.153713 -1.570562 0.002683 -1.566807
    10 -0.488518 -2.755602 -0.228260 -0.871614 -0.202562 -0.209541
    11 0.039887 -1.479790 0.029854 -1.516144 0.000000 0.000001
    12 0.028786 -1.075731 -0.023109 -1.298153 0.000000 0.000000
    13 0.250027 -2.820665 -0.238396 -0.797118 -0.167517 -0.114938
    14 -0.049759 -1.680544 0.100479 -1.644607 0.000000 -0.000002
    15 -0.034142 -1.148312 0.084782 -1.481046 0.000000 0.000000
    16 0.957766 -2.746780 -0.090302 -0.175885 -0.162684 0.097910
    17 -0.033420 -1.397129 -0.011257 -0.521018 0.000000 -0.000001
    18 -0.022360 -0.957436 0.018784 -0.975516 0.000000 0.000000
    19 -1.180681 -2.507217 -0.193859 -0.671429 -0.081516 -0.261329
    20 -0.024967 -1.123934 0.017597 -1.276708 0.000000 0.000001
    21 -0.020057 -0.890968 0.010090 -1.435733 0.000000 0.000000
    22 0.583510 -1.197277 0.185379 0.135458 -1.044822 -1.384612
    23 1.535927 0.010246 0.005009 -0.002964 -0.012979 -0.506650
    24 1.100771 0.004527 -0.010679 -0.015488 -0.004784 -1.694062
    25 0.120153 -0.050270 -0.054489 0.287569 3.110905 1.561085
    26 -1.852848 -7.379763 -11.876646 0.883215 -4.140604 1.481043
    27 0.096944 -8.450418 -0.009365 0.338894 -0.917848 0.099371
    28 0.447953 -2.798986 -0.200443 -0.194264 -0.039938 0.202570
    29 -0.032909 -1.480204 0.004940 -0.608167 0.000000 0.000002
    30 -0.027022 -1.076920 -0.020210 -0.158003 0.000000 0.000000
    31 -0.249534 -2.846964 -0.174213 0.150362 0.018535 0.053097
    32 0.043235 -1.683941 0.096012 -0.680782 0.002823 -0.000167
    33 0.031729 -1.160830 0.058838 -0.120888 0.000642 0.008372
    34 -0.963866 -2.785145 -0.085350 0.384905 0.180792 0.049729
    35 0.028479 -1.403067 0.006271 -0.304303 0.000000 0.000000
    36 0.021413 -0.957781 0.020046 -0.299851 0.000000 0.000000
    37 1.164475 -2.543940 -0.170330 -0.455459 -0.190582 0.231606
    38 0.024032 -1.129042 0.017807 -0.465785 0.000000 0.000001
    39 0.014898 -0.883989 -0.019848 -0.298650 0.000000 0.000000
    40 -0.586770 -1.264477 0.200161 -0.007932 -0.543949 -2.501160
    41 1.522835 0.058681 0.016848 0.001410 0.008985 0.293269
    42 1.117947 0.048424 -0.005766 0.001267 -0.025174 0.005110
    43 -0.139399 -0.111698 0.014397 0.808201 0.213999 1.504546
    44 -1.393470 8.839177 -0.239433 1.580804 -0.005023 -1.566847
  time 6
    0 -0.999830 1.628925 3.537212 0.000000 0.000000 0.000000
    1 8.418839 5.121054 -10.926278 -0.884229 -1.311051 0.694735
    2 -0.071918 -8.498731 -0.104136 0.177111 0.230441 0.151885
    3 2.815887 -5.283122 1.386547 0.209716 0.049969 -1.630727
    4 -2.052183 -0.333174 -0.000001 0.000000 -3.141592 0.144933
    5 9.198753 0.000002 0.000000 0.000000 0.000000 -1.425816
    6 3.633989 -0.389698 -0.017557 -1.570797 -1.570796 0.000000
    7 11.822115 -1.093857 0.000000 0.000001 0.000000 -1.570796
    8 -0.254800 -24.070558 -2.150844 0.170659 -0.032346 -0.027469
    9 1.257180 8.762585 -0.153713 -1.570562 0.002683 -1.566807
    10 -0.488518 -2.755602 -0.228260 -0.871614 -0.202562 -0.209541
    11 0.039887 -1.479790 0.029854 -1.516144 0.000000 0.000001
    12 0.028786 -1.075731 -0.023109 -1.298153 0.000000 0.000000
    13 0.250027 -2.820665 -0.238396 -0.797118 -0.167517 -0.114938
    14 -0.049759 -1.680544 0.100479 -1.644607 0.000000 -0.000002
    15 -0.034142 -1.148312 0.084782 -1.481046 0.000000 0.000000
    16 0.957766 -2.746780 -0.090302 -0.175885 -0.162684 0.097910
    17 -0.033420 -1.397129 -0.011257 -0.521018 0.000000 -0.000001
    18 -0.022360 -0.957436 0.018784 -0.975516 0.000000 0.000000
    19 -1.180681 -2.507217 -0.193859 -0.671429 -0.081516 -0.261329
    20 -0.024967 -1.123934 0.017597 -1.276708 0.000000 0.000001
    21 -0.020057 -0.890968 0.010090 -1.435733 0.000000 0.000000
    22 0.583510 -1.197277 0.185379 0.135458 -1.044822 -1.384612
    23 1.535927 0.010246 0.005009 -0.002964 -0.012979 -0.506650
    24 1.100771 0.004527 -0.010679 -0.015488 -0.004784 -1.694062
    25 0.120153 -0.050270 -0.054489 0.287569 3.110905 1.561085
    26 -2.138013 -7.008658 -12.575886 0.778532 -4.049563 1.357391
    27 0.096944 -8.450418 -0.009365 0.338894 -0.917848 0.099371
    28 0.447953 -2.798986 -0.200443 -0.169208 -0.039938 0.202570
    29 -0.032909 -1.480204 0.004940 -0.519412 0.000000 0.000002
    30 -0.027022 -1.076920 -0.020210 -0.177570 0.000000 0.000000
    31 -0.249534 -2.846964 -0.174213 0.172694 0.019026 0.050293
    32 0.043235 -1.683941 0.096012 -0.588773 0.002823 -0.000167
    33 0.031729 -1.160830 0.058838 -0.120888 0.000642 0.008372
    34 -0.963866 -2.785145 -0.085350 0.402332 0.182410 0.045900
    35 0.028479 -1.403067 0.006271 -0.253595 0.000000 0.000000
    36 0.021413 -0.957781 0.020046 -0.237913 0.000000 0.000000
    37 1.164475 -2.543940 -0.170330 -0.420051 -0.190582 0.231606
    38 0.024032 -1.129042 0.017807 -0.385006 0.000000 0.000001
    39 0.014898 -0.883989 -0.019848 -0.351204 0.000000 0.000000
    40 -0.586770 -1.264477 0.200161 -0.003410 -0.573539 -2.508807
    41 1.522835 0.058681 0.016848 0.001410 0.008985 0.293269
    42 1.117947 0.048424 -0.005766 0.001267 -0.025174 0.005110
    43 -0.139399 -0.111698 0.014397 0.808201 0.213999 1.504546
    44 -1.393470 8.839177 -0.239433 1.580804 -0.005023 -1.566847
  time 7
    0 -0.999830 1.628925 3.537212 0.000000 0.000000 0.000000
    1 8.133675 4.796826 -11.609892 -0.904558 -1.236058 0.714921
    2 -0.071918 -8.498731 -0.104136 0.177135 0.230428 0.151968
    3 2.815887 -5.283122 1.386547 0.209716 0.049969 -1.630727
    4 -2.052183 -0.333174 -0.000001 0.000000 3.141592 0.144933
    5 9.198753 0.000002 0.000000 0.000000 0.000000 -1.425816
    6 3.633989 -0.389698 -0.017557 -1.570797 -1.570796 0.000000
    7 11.822115 -1.093857 0.000000 0.000001 0.000000 -1.570796
    8 -0.922668 -22.215272 -2.737436 0.216771 -0.043771 -0.034892
    9 1.257180 8.762585 -0.153713 -1.570562 0.002683 -1.566807
    10 -0.488518 -2.755602 -0.228260 -0.871614 -0.202562 -0.209541
    11 0.039887 -1.479790 0.029854 -1.516144 0.000000 0.000001
    12 0.028786 -1.075731 -0.023109 -1.298153 0.000000 0.000000
    13 0.250027 -2.820665 -0.238396 -0.797118 -0.167517 -0.114938
    14 -0.049759 -1.680544 0.100479 -1.644607 0.000000 -0.000002
    15 -0.034142 -1.148312 0.084782 -1.481046 0.000000 0.000000
    16 0.957766 -2.746780 -0.090302 -0.175885 -0.162684 0.097910
    17 -0.033420 -1.397129 -0.011257 -0.521018 0.000000 -0.000001
    18 -0.022360 -0.957436 0.018784 -0.975516 0.000000 0.000000
    19 -1.180681 -2.507217 -0.193859 -0.671429 -0.081516 -0.261329
    20 -0.024967 -1.123934 0.017597 -1.276708 0.000000 0.000001
    21 -0.020057 -0.890968 0.010090 -1.435733 0.000000 0.000000
    22 0.583510 -1.197277 0.185379 0.135458 -1.044822 -1.384612
    23 1.535927 0.010246 0.005009 -0.002964 -0.012979 -0.506650
    24 1.100771 0.004527 -0.010679 -0.015488 -0.004784 -1.694062
    25 0.120153 -0.050270 -0.054489 0.287569 3.110905 1.561085
    26 -2.333332 -6.696148 -13.591542 0.687416 -3.938492 1.253775
    27 0.096944 -8.450418 -0.009365 0.338894 -0.917848 0.099371
    28 0.447953 -2.798986 -0.200443 -0.169208 -0.039938 0.202570
    29 -0.032909 -1.480204 0.004940 -0.519412 0.000000 0.000002
    30 -0.027022 -1.076920 -0.020210 -0.177570 0.000000 0.000000
    31 -0.249534 -2.846964 -0.174213 0.172694 0.019026 0.050293
    32 0.043235 -1.683941 0.096012 -0.588773 0.002823 -0.000167
    33 0.031729 -1.160830 0.058838 -0.120888 0.000642 0.008372
    34 -0.963866 -2.785145 -0.085350 0.402332 0.182410 0.045900
    35 0.028479 -1.403067 0.006271 -0.253595 0.000000 0.000000
    36 0.021413 -0.957781 0.020046 -0.237913 0.000000 0.000000
    37 1.164475 -2.543940 -0.170330 -0.420051 -0.190582 0.231606
    38 0.024032 -1.129042 0.017807 -0.385006 0.000000 0.000001
    39 0.014898 -0.883989 -0.019848 -0.351204 0.000000 0.000000
    40 -0.586770 -1.264477 0.200161 -0.003410 -0.573539 -2.508807
    41 1.522835 0.058681 0.016848 0.001410 0.008985 0.293269
    42 1.117947 0.048424 -0.005766 0.001267 -0.025174 0.005110
    43 -0.139399 -0.111698 0.014397 0.808201 0.213999 1.504546
    44 -1.393470 8.839177 -0.239433 1.580804 -0.005023 -1.566847
  time 8
    0 -0.999830 1.628925 3.537212 0.000000 0.000000 0.000000
    1 7.832884 4.449159 -12.328664 -0.919916 -1.158017 0.730048
    2 -0.071918 -8.498731 -0.104136 0.177051 0.230493 0.151580
    3 2.815887 -5.283122 1.386547 0.209716 0.049969 -1.630727
    4 -2.052183 -0.333174 -0.000001 0.000000 -3.141592 0.144933
    5 9.198753 0.000002 0.000000 0.000000 0.000000 -1.425816
    6 3.633989 -0.389698 -0.017557 -1.570797 -1.570796 0.000000
    7 11.822115 -1.093857 0.000000 0.000001 0.000000 -1.570796
    8 -1.612798 -20.240289 -3.324029 0.262949 -0.056831 -0.042316
    9 1.257180 8.762585 -0.153713 -1.570562 0.002683 -1.566807
    10 -0.488518 -2.755602 -0.228260 -0.871614 -0.202562 -0.209541
    11 0.039887 -1.479790 0.029854 -1.516144 0.000000 0.000001
    12 0.028786 -1.075731 -0.023109 -1.298153 0.000000 0.000000
    13 0.250027 -2.820665 -0.238396 -0.797118 -0.167517 -0.114938
    14 -0.049759 -1.680544 0.100479 -1.644607 0.000000 -0.000002
    15 -0.034142 -1.148312 0.084782 -1.481046 0.000000 0.000000
    16 0.957766 -2.746780 -0.090302 -0.175885 -0.162684 0.097910
    17 -0.033420 -1.397129 -0.011257 -0.521018 0.000000 -0.000001
    18 -0.022360 -0.957436 0.018784 -0.975516 0.000000 0.000000
    19 -1.180681 -2.507217 -0.193859 -0.671429 -0.081516 -0.261329
    20 -0.024967 -1.123934 0.017597 -1.276708 0.000000 0.000001
    21 -0.020057 -0.890968 0.010090 -1.435733 0.000000 0.000000
    22 0.583510 -1.197277 0.185379 0.135458 -1.044822 -1.384612
    23 1.535927 0.010246 0.005009 -0.002964 -0.012979 -0.506650
    24 1.100771 0.004527 -0.010679 -0.015488 -0.004784 -1.694062
    25 0.120153 -0.050270 -0.054489 0.287569 3.110905 1.561085
    26 -2.481774 -6.360201 -14.853299 0.603534 -3.816694 1.165043
    27 0.096944 -8.450418 -0.009365 0.338894 -0.917848 0.099371
    28 0.447953 -2.798986 -0.200443 -0.169208 -0.039938 0.202570
    29 -0.032909 -1.480204 0.004940 -0.519412 0.000000 0.000002
    30 -0.027022 -1.076920 -0.020210 -0.177570 0.000000 0.000000
    31 -0.249534 -2.846964 -0.174213 0.172694 0.019026 0.050293
    32 0.043235 -1.683941 0.096012 -0.588773 0.002823 -0.000167
    33 0.031729 -1.160830 0.058838 -0.120888 0.000642 0.008372
    34 -0.963866 -2.785145 -0.085350 0.402332 0.182410 0.045900
    35 0.028479 -1.403067 0.006271 -0.253595 0.000000 0.000000
    36 0.021413 -0.957781 0.020046 -0.237913 0.000000 0.000000
    37 1.164475 -2.543940 -0.170330 -0.420051 -0.190582 0.231606
    38 0.024032 -1.129042 0.017807 -0.385006 0.000000 0.000001
    39 0.014898 -0.883989 -0.019848 -0.351204 0.000000 0.000000
    40 -0.586770 -1.264477 0.200161 -0.003410 -0.573539 -2.508807
    41 1.522835 0.058681 0.016848 0.001410 0.008985 0.293269
    42 1.117947 0.048424 -0.005766 0.001267 -0.025174 0.005110
    43 -0.139399 -0.111698 0.014397 0.808201 0.213999 1.504546
    44 -1.393470 8.839177 -0.239433 1.580804 -0.005023 -1.566847
  time 9
    0 -0.999830 1.628925 3.537212 0.000000 0.000000 0.000000
    1 7.532094 4.089773 -13.047436 -0.931877 -1.080001 0.741639
    2 -0.071918 -8.498731 -0.104136 0.176884 0.230623 0.150860
    3 2.815887 -5.283122 1.386547 0.209716 0.049969 -1.630727
    4 -2.052183 -0.333174 -0.000001 0.000000 3.141592 0.144933
    5 9.198753 0.000002 0.000000 0.000000 0.000000 -1.425816
    6 3.633989 -0.389698 -0.017557 -1.570797 -1.570796 0.000000
    7 11.822115 -1.093857 0.000000 0.000001 0.000000 -1.570796
    8 -2.280665 -18.235382 -3.894327 0.307186 -0.071510 -0.049428
    9 1.257180 8.762585 -0.153713 -1.570562 0.002683 -1.566807
    10 -0.488518 -2.755602 -0.228260 -0.871614 -0.202562 -0.209541
    11 0.039887 -1.479790 0.029854 -1.516144 0.000000 0.000001
    12 0.028786 -1.075731 -0.023109 -1.298153 0.000000 0.000000
    13 0.250027 -2.820665 -0.238396 -0.797118 -0.167517 -0.114938
    14 -0.049759 -1.680544 0.100479 -1.644607 0.000000 -0.000002
    15 -0.034142 -1.148312 0.084782 -1.481046 0.000000 0.000000
    16 0.957766 -2.746780 -0.090302 -0.175885 -0.162684 0.097910
    17 -0.033420 -1.397129 -0.011257 -0.521018 0.000000 -0.000001
    18 -0.022360 -0.957436 0.018784 -0.975516 0.000000 0.000000
    19 -1.180681 -2.507217 -0.193859 -0.671429 -0.081516 -0.261329
    20 -0.024967 -1.123934 0.017597 -1.276708 0.000000 0.000001
    21 -0.020057 -0.890968 0.010090 -1.435733 0.000000 0.000000
    22 0.583510 -1.197277 0.185379 0.135458 -1.044822 -1.384612
    23 1.535927 0.010246 0.005009 -0.002964 -0.012979 -0.506650
    24 1.100771 0.004527 -0.010679 -0.015488 -0.004784 -1.694062
    25 0.120153 -0.050270 -0.054489 0.287569 3.110905 1.561085
    26 -2.575527 -6.055504 -16.290843 0.533972 -3.683313 1.094534
    27 0.096944 -8.450418 -0.009365 0.338894 -0.917848 0.099371
    28 0.447953 -2.798986 -0.200443 -0.169208 -0.039938 0.202570
    29 -0.032909 -1.480204 0.004940 -0.519412 0.000000 0.000002
    30 -0.027022 -1.076920 -0.020210 -0.177570 0.000000 0.000000
    31 -0.249534 -2.846964 -0.174213 0.172694 0.019026 0.050293
    32 0.043235 -1.683941 0.096012 -0.588773 0.002823 -0.000167
    33 0.031729 -1.160830 0.058838 -0.120888 0.000642 0.008372
    34 -0.963866 -2.785145 -0.085350 0.402332 0.182410 0.045900
    35 0.028479 -1.403067 0.006271 -0.253595 0.000000 0.000000
    36 0.021413 -0.957781 0.020046 -0.237913 0.000000 0.000000
    37 1.164475 -2.543940 -0.170330 -0.420051 -0.190582 0.231606
    38 0.024032 -1.129042 0.017807 -0.385006 0.000000 0.000001
    39 0.014898 -0.883989 -0.019848 -0.351204 0.000000 0.000000
    40 -0.586770 -1.264477 0.200161 -0.003410 -0.573539 -2.508807
    41 1.522835 0.058681 0.016848 0.001410 0.008985 0.293269
    42 1.117947 0.048424 -0.005766 0.001267 -0.025174 0.005110
    43 -0.139399 -0.111698 0.014397 0.808201 0.213999 1.504546
    44 -1.393470 8.839177 -0.239433 1.580804 -0.005023 -1.566847
  time 10
    0 -0.999830 1.628925 3.537212 0.000000 0.000000 0.000000
    1 7.243022 3.734293 -13.742770 -0.941426 -1.005111 0.750774
    2 -0.071918 -8.498731 -0.104136 0.176668 0.230779 0.149918
    3 2.815887 -5.283122 1.386547 0.209716 0.049969 -1.630727
    4 -2.052183 -0.333174 -0.000001 0.000000 -3.141592 0.144933
    5 9.198753 0.000002 0.000000 0.000000 0.000000 -1.425816
    6 3.633989 -0.389698 -0.017557 -1.570797 -1.570796 0.000000
    7 11.822115 -1.093857 0.000000 0.000001 0.000000 -1.570796
    8 -2.881746 -16.230475 -4.399448 0.347609 -0.087768 -0.055953
    9 1.257180 8.762585 -0.153713 -1.570562 0.002683 -1.566807
    10 -0.488518 -2.755602 -0.228260 -0.871614 -0.202562 -0.209541
    11 0.039887 -1.479790 0.029854 -1.516144 0.000000 0.000001
    12 0.028786 -1.075731 -0.023109 -1.298153 0.000000 0.000000
    13 0.250027 -2.820665 -0.238396 -0.797118 -0.167517 -0.114938
    14 -0.049759 -1.680544 0.100479 -1.644607 0.000000 -0.000002
    15 -0.034142 -1.148312 0.084782 -1.481002 0.000000 0.000000
    16 0.957766 -2.746780 -0.090302 -0.175885 -0.162684 0.097910
    17 -0.033420 -1.397129 -0.011257 -0.521018 0.000000 -0.000001
    18 -0.022360 -0.957436 0.018784 -0.975516 0.000000 0.000000
    19 -1.180681 -2.507217 -0.193859 -0.671429 -0.081516 -0.261329
    20 -0.024967 -1.123934 0.017597 -1.276708 0.000000 0.000001
    21 -0.020057 -0.890968 0.010090 -1.435733 0.000000 0.000000
    22 0.583510 -1.197277 0.185379 0.135458 -1.044822 -1.384612
    23 1.535927 0.010246 0.005009 -0.002964 -0.012979 -0.506650
    24 1.100771 0.004527 -0.010679 -0.015488 -0.004784 -1.694062
    25 0.120153 -0.050270 -0.054489 0.287569 3.110905 1.561085
    26 -2.614590 -5.840653 -17.833859 0.483402 -3.538921 1.042154
    27 0.096944 -8.450418 -0.009365 0.338894 -0.917848 0.099371
    28 0.447953 -2.798986 -0.200443 -0.169208 -0.039938 0.202570
    29 -0.032909 -1.480204 0.004940 -0.519412 0.000000 0.000002
    30 -0.027022 -1.076920 -0.020210 -0.177570 0.000000 0.000000
    31 -0.249534 -2.846964 -0.174213 0.172694 0.019026 0.050293
    32 0.043235 -1.683941 0.096012 -0.588773 0.002823 -0.000167
    33 0.031729 -1.160830 0.058838 -0.120888 0.000642 0.008372
    34 -0.963866 -2.785145 -0.085350 0.402332 0.182410 0.045900
    35 0.028479 -1.403067 0.006271 -0.253595 0.000000 0.000000
    36 0.021413 -0.957781 0.020046 -0.237913 0.000000 0.000000
    37 1.164475 -2.543940 -0.170330 -0.420051 -0.190582 0.231606
    38 0.024032 -1.129042 0.017807 -0.385006 0.000000 0.000001
    39 0.014898 -0.883989 -0.019848 -0.351204 0.000000 0.000000
    40 -0.586770 -1.264477 0.200161 -0.003410 -0.573539 -2.508807
    41 1.522835 0.058681 0.016848 0.001410 0.008985 0.293269
    42 1.117947 0.048424 -0.005766 0.001267 -0.025174 0.005110
    43 -0.139399 -0.111698 0.014397 0.808201 0.213999 1.504546
    44 -1.393470 8.839177 -0.239433 1.580804 -0.005023 -1.566847
  time 11
    0 -0.999830 1.628925 3.537212 0.000000 0.000000 0.000000
    1 6.973483 3.398346 -14.391227 -0.949302 -0.936422 0.758042
    2 -0.071918 -8.498731 -0.104136 0.176440 0.230948 0.148949
    3 2.815887 -5.283122 1.386547 0.209716 0.049969 -1.630727
    4 -2.052183 -0.333174 -0.000001 0.000000 -3.141592 0.144933
    5 9.198753 0.000002 0.000000 0.000000 0.000000 -1.425816
    6 3.633989 -0.389698 -0.017557 -1.570797 -1.570796 0.000000
    7 11.822115 -1.093857 0.000000 0.000001 0.000000 -1.570796
    8 -3.393777 -14.285417 -4.839392 0.382410 -0.105561 -0.061540
    9 1.257180 8.762585 -0.153713 -1.570562 0.002683 -1.566807
    10 -0.488518 -2.755602 -0.228260 -0.871614 -0.202562 -0.209541
    11 0.039887 -1.479790 0.029854 -1.516144 0.000000 0.000001
    12 0.028786 -1.075731 -0.023109 -1.298153 0.000000 0.000000
    13 0.250027 -2.820665 -0.238396 -0.797118 -0.167517 -0.114938
    14 -0.049759 -1.680544 0.100479 -1.644607 0.000000 -0.000002
    15 -0.034142 -1.148312 0.084782 -1.481002 0.000000 0.000000
    16 0.957766 -2.746780 -0.090302 -0.175885 -0.162684 0.097910
    17 -0.033420 -1.397129 -0.011257 -0.521018 0.000000 -0.000001
    18 -0.022360 -0.957436 0.018784 -0.975516 0.000000 0.000000
    19 -1.180681 -2.507217 -0.193859 -0.671429 -0.081516 -0.261329
    20 -0.024967 -1.123934 0.017597 -1.276708 0.000000 0.000001
    21 -0.020057 -0.890968 0.010090 -1.435733 0.000000 0.000000
    22 0.583510 -1.197277 0.185379 0.135458 -1.044822 -1.384612
    23 1.535927 0.010246 0.005009 -0.002964 -0.012979 -0.506650
    24 1.100771 0.004527 -0.010679 -0.015488 -0.004784 -1.694062
    25 0.120153 -0.050270 -0.054489 0.287569 3.110905 1.561085
    26 -2.595059 -5.770339 -19.415938 0.454764 -3.385035 1.005803
    27 0.096944 -8.450418 -0.009365 0.338894 -0.917848 0.099371
    28 0.447953 -2.798986 -0.200443 -0.169208 -0.039938 0.202570
    29 -0.032909 -1.480204 0.004940 -0.519412 0.000000 0.000002
    30 -0.027022 -1.076920 -0.020210 -0.177570 0.000000 0.000000
    31 -0.249534 -2.846964 -0.174213 0.172694 0.019026 0.050293
    32 0.043235 -1.683941 0.096012 -0.588773 0.002823 -0.000167
    33 0.031729 -1.160830 0.058838 -0.120888 0.000642 0.008372
    34 -0.963866 -2.785145 -0.085350 0.402332 0.182410 0.045900
    35 0.028479 -1.403067 0.006271 -0.253595 0.000000 0.000000
    36 0.021413 -0.957781 0.020046 -0.237913 0.000000 0.000000
    37 1.164475 -2.543940 -0.170330 -0.420051 -0.190582 0.231606
    38 0.024032 -1.129042 0.017807 -0.385006 0.000000 0.000001
    39 0.014898 -0.883989 -0.019848 -0.351204 0.000000 0.000000
    40 -0.586770 -1.264477 0.200161 -0.003410 -0.573539 -2.508807
    41 1.522835 0.058681 0.016848 0.001410 0.008985 0.293269
    42 1.117947 0.048424 -0.005766 0.001267 -0.025174 0.005110
    43 -0.139399 -0.111698 0.014397 0.808201 0.213999 1.504546
    44 -1.393470 8.839177 -0.239433 1.580804 -0.005023 -1.566847
  time 12
    0 -0.999830 1.628925 3.537212 0.000000 0.000000 0.000000
    1 6.739101 3.093649 -14.965464 -0.955898 -0.877032 0.763936
    2 -0.071918 -8.498731 -0.104136 0.176248 0.231105 0.148062
    3 2.815887 -5.283122 1.386547 0.209716 0.049969 -1.630727
    4 -2.052183 -0.333174 -0.000001 0.000000 -3.141592 0.144933
    5 9.198753 0.000002 0.000000 0.000000 0.000000 -1.425816
    6 3.633989 -0.389698 -0.017557 -1.570797 -1.570796 0.000000
    7 11.822115 -1.093857 0.000000 0.000001 0.000000 -1.570796
    8 -3.794498 -12.445092 -5.181571 0.409581 -0.124875 -0.065917
    9 1.257180 8.762585 -0.153713 -1.570562 0.002683 -1.566807
    10 -0.488518 -2.755602 -0.228260 -0.871614 -0.202562 -0.209541
    11 0.039887 -1.479790 0.029854 -1.516144 0.000000 0.000001
    12 0.028786 -1.075731 -0.023109 -1.298153 0.000000 0.000000
    13 0.250027 -2.820665 -0.238396 -0.797118 -0.167517 -0.114938
    14 -0.049759 -1.680544 0.100479 -1.644607 0.000000 -0.000002
    15 -0.034142 -1.148312 0.084782 -1.481002 0.000000 0.000000
    16 0.957766 -2.746780 -0.090302 -0.175885 -0.162684 0.097910
    17 -0.033420 -1.397129 -0.011257 -0.521018 0.000000 -0.000001
    18 -0.022360 -0.957436 0.018784 -0.975516 0.000000 0.000000
    19 -1.180681 -2.507217 -0.193859 -0.671429 -0.081516 -0.261329
    20 -0.024967 -1.123934 0.017597 -1.276708 0.000000 0.000001
    21 -0.020057 -0.890968 0.010090 -1.435733 0.000000 0.000000
    22 0.583510 -1.197277 0.185379 0.135458 -1.044822 -1.384612
    23 1.535927 0.010246 0.005009 -0.002964 -0.012979 -0.506650
    24 1.100771 0.004527 -0.010679 -0.015488 -0.004784 -1.694062
    25 0.120153 -0.050270 -0.054489 0.287569 3.110905 1.561085
    26 -2.513025 -5.907062 -20.955048 0.451146 -3.222985 0.981855
    27 0.096944 -8.450418 -0.009365 0.338894 -0.917848 0.099371
    28 0.447953 -2.798986 -0.200443 -0.169208 -0.039938 0.202570
    29 -0.032909 -1.480204 0.004940 -0.519412 0.000000 0.000002
    30 -0.027022 -1.076920 -0.020210 -0.177570 0.000000 0.000000
    31 -0.249534 -2.846964 -0.174213 0.172694 0.019026 0.050293
    32 0.043235 -1.683941 0.096012 -0.588773 0.002823 -0.000167
    33 0.031729 -1.160830 0.058838 -0.120888 0.000642 0.008372
    34 -0.963866 -2.785145 -0.085350 0.402332 0.182410 0.045900
    35 0.028479 -1.403067 0.006271 -0.253595 0.000000 0.000000
    36 0.021413 -0.957781 0.020046 -0.237913 0.000000 0.000000
    37 1.164475 -2.543940 -0.170330 -0.420051 -0.190582 0.231606
    38 0.024032 -1.129042 0.017807 -0.385006 0.000000 0.000001
    39 0.014898 -0.883989 -0.019848 -0.351204 0.000000 0.000000
    40 -0.586770 -1.264477 0.200161 -0.003410 -0.573539 -2.508807
    41 1.522835 0.058681 0.016848 0.001410 0.008985 0.293269
    42 1.117947 0.048424 -0.005766 0.001267 -0.025174 0.005110
    43 -0.139399 -0.111698 0.014397 0.808201 0.213999 1.504546
    44 -1.393470 8.839177 -0.239433 1.580804 -0.005023 -1.566847
  time 13
    0 -0.999830 1.628925 3.537212 0.000000 0.000000 0.000000
    1 6.551595 2.831922 -15.438134 -0.961460 -0.830067 0.768700
    2 -0.071918 -8.498731 -0.104136 0.176093 0.231209 0.147425
    3 2.815887 -5.283122 1.386547 0.209716 0.049969 -1.630727
    4 -2.052183 -0.333174 -0.000001 0.000000 3.141592 0.144933
    5 9.198753 0.000002 0.000000 0.000000 0.000000 -1.425816
    6 3.633989 -0.389698 -0.017557 -1.570797 -1.570796 0.000000
    7 11.822115 -1.093857 0.000000 0.000001 0.000000 -1.570796
    8 -4.061645 -10.754387 -5.409691 0.427249 -0.145683 -0.068769
    9 1.257180 8.762585 -0.153713 -1.570562 0.002683 -1.566807
    10 -0.488518 -2.755602 -0.228260 -0.871614 -0.202562 -0.209541
    11 0.039887 -1.479790 0.029854 -1.516144 0.000000 0.000001
    12 0.028786 -1.075731 -0.023109 -1.298153 0.000000 0.000000
    13 0.250027 -2.820665 -0.238396 -0.797118 -0.167517 -0.114938
    14 -0.049759 -1.680544 0.100479 -1.644607 0.000000 -0.000002
    15 -0.034142 -1.148312 0.084782 -1.481002 0.000000 0.000000
    16 0.957766 -2.746780 -0.090302 -0.175885 -0.162684 0.097910
    17 -0.033420 -1.397129 -0.011257 -0.521018 0.000000 -0.000001
    18 -0.022360 -0.957436 0.018784 -0.975516 0.000000 0.000000
    19 -1.180681 -2.507217 -0.193859 -0.671429 -0.081516 -0.261329
    20 -0.024967 -1.123934 0.017597 -1.276708 0.000000 0.000001
    21 -0.020057 -0.890968 0.010090 -1.435733 0.000000 0.000000
    22 0.583510 -1.197277 0.185379 0.135458 -1.044822 -1.384612
    23 1.535927 0.010246 0.005009 -0.002964 -0.012979 -0.506650
    24 1.100771 0.004527 -0.010679 -0.015488 -0.004784 -1.694062
    25 0.120153 -0.050270 -0.054489 0.287569 3.110905 1.561085
    26 -2.360676 -6.297699 -22.392592 0.476243 -3.054100 0.965253
    27 0.096944 -8.450418 -0.009365 0.338894 -0.917848 0.099371
    28 0.447953 -2.798986 -0.200443 -0.169208 -0.039938 0.202570
    29 -0.032909 -1.480204 0.004940 -0.519412 0.000000 0.000002
    30 -0.027022 -1.076920 -0.020210 -0.177570 0.000000 0.000000
    31 -0.249534 -2.846964 -0.174213 0.172694 0.019026 0.050293
    32 0.043235 -1.683941 0.096012 -0.588773 0.002823 -0.000167
    33 0.031729 -1.160830 0.058838 -0.120888 0.000642 0.008372
    34 -0.963866 -2.785145 -0.085350 0.402332 0.182410 0.045900
    35 0.028479 -1.403067 0.006271 -0.253595 0.000000 0.000000
    36 0.021413 -0.957781 0.020046 -0.237913 0.000000 0.000000
    37 1.164475 -2.543940 -0.170330 -0.420051 -0.190582 0.231606
    38 0.024032 -1.129042 0.017807 -0.385006 0.000000 0.000001
    39 0.014898 -0.883989 -0.019848 -0.351204 0.000000 0.000000
    40 -0.586770 -1.264477 0.200161 -0.003410 -0.573539 -2.508807
    41 1.522835 0.058681 0.016848 0.001410 0.008985 0.293269
    42 1.117947 0.048424 -0.005766 0.001267 -0.025174 0.005110
    43 -0.139399 -0.111698 0.014397 0.808201 0.213999 1.504546
    44 -1.393470 8.839177 -0.239433 1.580804 -0.005023 -1.566847
  time 14
    0 -0.999830 1.628925 3.537212 0.000000 0.000000 0.000000
    1 6.422685 2.636604 -15.781895 -0.966235 -0.798577 0.772531
    2 -0.071918 -8.498731 -0.104136 0.176045 0.231261 0.147203
    3 2.815887 -5.283122 1.386547 0.209716 0.049969 -1.630727
    4 -2.052183 -0.333174 -0.000001 0.000000 -3.141592 0.144933
    5 9.198753 0.000002 0.000000 0.000000 0.000000 -1.425816
    6 3.633989 -0.389698 -0.017557 -1.570797 -1.570796 0.000000
    7 11.822115 -1.093857 0.000000 0.000001 0.000000 -1.570796
    8 -4.150694 -9.273150 -5.491162 0.433607 -0.167942 -0.069785
    9 1.257180 8.762585 -0.153713 -1.570562 0.002683 -1.566807
    10 -0.488518 -2.755602 -0.228260 -0.871614 -0.202562 -0.209541
    11 0.039887 -1.479790 0.029854 -1.516144 0.000000 0.000001
    12 0.028786 -1.075731 -0.023109 -1.298153 0.000000 0.000000
    13 0.250027 -2.820665 -0.238396 -0.797118 -0.167517 -0.114938
    14 -0.049759 -1.680544 0.100479 -1.644607 0.000000 -0.000002
    15 -0.034142 -1.148312 0.084782 -1.481046 0.000000 0.000000
    16 0.957766 -2.746780 -0.090302 -0.175885 -0.162684 0.097910
    17 -0.033420 -1.397129 -0.011257 -0.521018 0.000000 -0.000001
    18 -0.022360 -0.957436 0.018784 -0.975516 0.000000 0.000000
    19 -1.180681 -2.507217 -0.193859 -0.671429 -0.081516 -0.261329
    20 -0.024967 -1.123934 0.017597 -1.276708 0.000000 0.000001
    21 -0.020057 -0.890968 0.010090 -1.435733 0.000000 0.000000
    22 0.583510 -1.197277 0.185379 0.135458 -1.044822 -1.384612
    23 1.535927 0.010246 0.005009 -0.002964 -0.012979 -0.506650
    24 1.100771 0.004527 -0.010679 -0.015488 -0.004784 -1.694062
    25 0.120153 -0.050270 -0.054489 0.287569 3.110905 1.561085
    26 -2.138013 -7.008658 -23.650442 0.536158 -2.879804 0.948843
    27 0.096944 -8.450418 -0.009365 0.338894 -0.917848 0.099371
    28 0.447953 -2.798986 -0.200443 -0.169208 -0.039938 0.202570
    29 -0.032909 -1.480204 0.004940 -0.519412 0.000000 0.000002
    30 -0.027022 -1.076920 -0.020210 -0.177570 0.000000 0.000000
    31 -0.249534 -2.846964 -0.174213 0.172694 0.019026 0.050293
    32 0.043235 -1.683941 0.096012 -0.588773 0.002823 -0.000167
    33 0.031729 -1.160830 0.058838 -0.120888 0.000642 0.008372
    34 -0.963866 -2.785145 -0.085350 0.402332 0.182410 0.045900
    35 0.028479 -1.403067 0.006271 -0.253595 0.000000 0.000000
    36 0.021413 -0.957781 0.020046 -0.237913 0.000000 0.000000
    37 1.164475 -2.543940 -0.170330 -0.420051 -0.190582 0.231606
    38 0.024032 -1.129042 0.017807 -0.385006 0.000000 0.000001
    39 0.014898 -0.883989 -0.019848 -0.351204 0.000000 0.000000
    40 -0.586770 -1.264477 0.200161 -0.003410 -0.573539 -2.508807
    41 1.522835 0.058681 0.016848 0.001410 0.008985 0.293269
    42 1.117947 0.048424 -0.005766 0.001267 -0.025174 0.005110
    43 -0.139399 -0.111698 0.014397 0.808201 0.213999 1.504546
    44 -1.393470 8.839177 -0.239433 1.580804 -0.005023 -1.566847
end
