version 1
nodes
  0 "Bone01" -1
  1 "Bone_Lefthand" 0
  2 "Bone_AK47" 1
  3 "Bone03" 2
  4 "Bone25" 3
  5 "Bone48" 3
  6 "Bone50" 3
  7 "Bone52" 3
  8 "Bone 04" 1
  9 "Bone13" 8
  10 "Bone14" 9
  11 "Bone15" 10
  12 "Bone17" 8
  13 "Bone18" 12
  14 "Bone19" 13
  15 "Bone21" 8
  16 "Bone22" 15
  17 "Bone23" 16
  18 "Bone05" 8
  19 "Bone06" 18
  20 "Bone07" 19
  21 "Bone04" -1
  22 "Bone_Righthand" 21
  23 "Bone26" 22
  24 "Bone35" 23
  25 "Bone36" 24
  26 "Bone37" 25
  27 "Bone31" 23
  28 "Bone32" 27
  29 "Bone33" 28
  30 "Bone39" 23
  31 "Bone40" 30
  32 "Bone41" 31
  33 "Bone43" 23
  34 "Bone44" 33
  35 "Bone45" 34
  36 "Bone27" 23
  37 "Bone28" 36
  38 "Bone29" 37
  39 "Bone09" 8
  40 "Bone10" 39
  41 "Bone11" 40
end
skeleton
  time 0
    0 8.606581 3.165656 -8.096399 -0.774287 -1.331380 0.567298
    1 0.000000 -8.563283 -0.000001 0.347509 -0.125220 -0.169570
    2 -0.834451 -3.073736 0.513625 -1.247037 1.437608 -1.233844
    3 0.000000 2.160510 0.950626 0.000000 0.000000 0.000000
    4 0.000000 -3.106014 1.710279 0.218156 0.000000 0.000000
    5 0.000000 -4.793800 0.448359 0.000000 0.000000 0.000000
    6 0.000000 -6.345618 1.761433 0.000000 0.000000 0.000000
    7 0.000000 -5.765820 2.989244 0.000000 0.000000 0.000000
    8 -0.003480 -0.404829 0.000000 0.000000 0.000000 0.000000
    9 -0.519309 -2.501155 -0.278957 -1.003564 0.000000 -0.122173
    10 -0.010598 -1.208185 0.000000 -1.090831 0.000000 0.000000
    11 0.000000 -0.763066 -0.000001 -1.343903 0.000000 0.000000
    12 0.105981 -2.607134 -0.278957 -0.890118 0.000000 -0.148353
    13 0.000000 -1.250579 0.000000 -1.213004 0.000000 0.000000
    14 0.000000 -0.932634 0.000000 -1.483530 0.000000 0.000000
    15 0.763064 -2.490557 -0.278957 -0.235619 0.000000 0.130900
    16 -0.012322 -1.280918 0.000000 -0.898827 0.000000 0.000000
    17 -0.001697 -0.749371 0.000000 -1.169370 0.000000 0.000000
    18 0.354567 0.016267 0.318133 0.342077 -0.443527 -1.083976
    19 1.887165 0.012878 0.000000 -0.305433 0.000000 -0.401426
    20 1.001875 -0.000270 0.000000 0.000000 0.000000 -0.488692
    21 0.176275 -10.373125 -10.080679 -0.554979 0.255020 0.648698
    22 0.089929 -8.543161 0.000000 0.512980 0.031489 0.240363
    23 0.000000 -0.359712 0.000000 0.000000 0.000000 0.000000
    24 -0.170480 -2.636147 -0.277656 -1.692969 0.000000 0.000000
    25 0.010599 -1.261176 0.000001 -0.253073 0.000000 0.000000
    26 -0.000001 -0.943232 -0.000002 -0.532326 0.000000 0.000000
    27 -0.827563 -2.508973 -0.277657 -1.396263 0.000000 0.000000
    28 -0.000001 -1.292972 0.000000 -0.445059 0.000000 0.000000
    29 0.000000 -0.752466 -0.000001 -0.445059 0.000000 0.000000
    30 0.444211 -2.561960 -0.277656 -1.727307 -0.046226 -0.024599
    31 0.021020 -1.208185 0.000000 -0.427606 0.000000 0.000000
    32 0.010596 -0.741866 -0.000001 -0.453786 0.000000 0.000000
    33 1.047444 -2.222821 -0.277656 -1.508123 -0.078971 -0.038609
    34 0.000000 -0.996223 0.000000 -0.863938 0.000000 0.000000
    35 -0.000001 -0.614690 0.000000 -0.523599 0.000000 0.000000
    36 -0.308255 -0.007814 0.307166 -0.145110 -0.159878 -2.467082
    37 1.978379 0.019543 0.000000 -0.087921 -0.056961 -0.023672
    38 0.982426 0.003186 0.000000 0.000000 0.000000 0.418879
    39 -1.122644 -2.197476 -0.281120 -0.933746 0.000001 -0.087266
    40 0.007812 -0.964973 0.000001 -0.610853 0.000000 0.000000
    41 -0.007812 -0.630317 0.000000 -1.213004 0.000000 0.000000
  time 1
    0 8.606581 3.880521 -8.408909 -0.954840 -1.278041 0.751506
    1 0.000000 -8.563283 -0.000001 0.356222 -0.102126 -0.238218
    2 -0.834451 -3.073736 0.513625 -1.247037 1.437608 -1.233844
    3 0.000000 2.160510 0.950626 0.000000 0.000000 0.000000
    4 0.000000 -3.133359 1.710279 0.184838 0.000000 0.000000
    5 0.000000 -4.793800 0.448359 0.000000 0.000000 0.000000
    6 0.000000 -6.345618 1.761433 0.000000 0.000000 0.000000
    7 0.019532 -3.761853 2.985338 0.000000 0.000000 0.000000
    8 -0.003480 -0.404829 0.000000 0.000000 0.000000 0.000000
    9 -0.519309 -2.501155 -0.278957 -1.003564 0.000000 -0.122173
    10 -0.010598 -1.208185 0.000000 -1.090831 0.000000 0.000000
    11 0.000000 -0.763066 -0.000001 -1.343903 0.000000 0.000000
    12 0.105981 -2.607134 -0.278957 -0.890118 0.000000 -0.148353
    13 0.000000 -1.250579 0.000000 -1.213004 0.000000 0.000000
    14 0.000000 -0.932634 0.000000 -1.483530 0.000000 0.000000
    15 0.763064 -2.490557 -0.278957 -0.235619 0.000000 0.130900
    16 -0.012322 -1.280918 0.000000 -0.905754 0.000000 0.000000
    17 -0.001697 -0.749371 0.000000 -1.176627 0.000000 0.000000
    18 0.354567 0.016267 0.318133 0.342077 -0.443527 -1.083976
    19 1.887165 0.012878 0.000000 -0.305433 0.000000 -0.401426
    20 1.001875 -0.000270 0.000000 0.000000 0.000000 -0.488692
    21 -0.011231 -10.482503 -9.842390 -0.582510 0.311563 0.750467
    22 0.089929 -8.543161 0.000000 0.519434 -0.008754 0.061577
    23 0.000000 -0.359712 0.000000 0.000000 0.000000 0.000000
    24 -0.170480 -2.636147 -0.277656 -1.692969 0.000000 0.000000
    25 0.010599 -1.261176 0.000001 -0.253073 0.000000 0.000000
    26 -0.000001 -0.943232 -0.000002 -0.532326 0.000000 0.000000
    27 -0.827563 -2.508973 -0.277657 -1.396263 0.000000 0.000000
    28 -0.000001 -1.292972 0.000000 -0.445059 0.000000 0.000000
    29 0.000000 -0.752466 -0.000001 -0.445059 0.000000 0.000000
    30 0.444211 -2.561960 -0.277656 -1.727307 -0.046226 -0.024599
    31 0.021020 -1.208185 0.000000 -0.427606 0.000000 0.000000
    32 0.010596 -0.741866 -0.000001 -0.453786 0.000000 0.000000
    33 1.047444 -2.222821 -0.277656 -1.508123 -0.078971 -0.038609
    34 0.000000 -0.996223 0.000000 -0.863938 0.000000 0.000000
    35 -0.000001 -0.614690 0.000000 -0.523599 0.000000 0.000000
    36 -0.308255 -0.007814 0.307166 -0.145110 -0.159878 -2.467082
    37 1.978379 0.019543 0.000000 -0.087921 -0.056961 -0.023672
    38 0.982426 0.003186 0.000000 0.000000 0.000000 0.418879
    39 -1.122644 -2.197476 -0.281120 -0.933746 0.000001 -0.087266
    40 0.007812 -0.964973 0.000001 -0.610853 0.000000 0.000000
    41 -0.007812 -0.630317 0.000000 -1.213004 0.000000 0.000000
  time 2
    0 8.606581 4.380537 -8.619853 -1.035173 -1.241613 0.834274
    1 0.000000 -8.563283 -0.000001 0.360788 -0.087469 -0.280619
    2 -0.834451 -3.073736 0.513625 -1.247037 1.437608 -1.233844
    3 0.000000 2.160510 0.950626 0.000000 0.000000 0.000000
    4 0.000000 -3.195861 1.710279 0.148669 0.000000 0.000000
    5 0.000000 -4.793800 0.448359 0.000000 0.000000 0.000000
    6 0.000000 -6.345618 1.761433 0.000000 0.000000 0.000000
    7 0.007813 -4.765790 2.989244 0.000000 0.000000 0.000000
    8 -0.003480 -0.404829 0.000000 0.000000 0.000000 0.000000
    9 -0.519309 -2.501155 -0.278957 -1.003564 0.000000 -0.122173
    10 -0.010598 -1.208185 0.000000 -1.090831 0.000000 0.000000
    11 0.000000 -0.763066 -0.000001 -1.343903 0.000000 0.000000
    12 0.105981 -2.607134 -0.278957 -0.890118 0.000000 -0.148353
    13 0.000000 -1.250579 0.000000 -1.213004 0.000000 0.000000
    14 0.000000 -0.932634 0.000000 -1.483530 0.000000 0.000000
    15 0.763064 -2.490557 -0.278957 -0.235619 0.000000 0.130900
    16 -0.012322 -1.280918 0.000000 -0.921040 0.000000 0.000000
    17 -0.001697 -0.749371 0.000000 -1.192603 0.000000 0.000000
    18 0.354567 0.016267 0.318133 0.342077 -0.443527 -1.083976
    19 1.887165 0.012878 0.000000 -0.305433 0.000000 -0.401426
    20 1.001875 -0.000270 0.000000 0.000000 0.000000 -0.488692
    21 -0.132328 -10.490316 -9.721293 -0.592866 0.347871 0.814161
    22 0.089929 -8.543161 0.000000 0.524735 -0.034713 -0.053716
    23 0.000000 -0.359712 0.000000 0.000000 0.000000 0.000000
    24 -0.170480 -2.636147 -0.277656 -1.692969 0.000000 0.000000
    25 0.010599 -1.261176 0.000001 -0.253073 0.000000 0.000000
    26 -0.000001 -0.943232 -0.000002 -0.532326 0.000000 0.000000
    27 -0.827563 -2.508973 -0.277657 -1.396263 0.000000 0.000000
    28 -0.000001 -1.292972 0.000000 -0.445059 0.000000 0.000000
    29 0.000000 -0.752466 -0.000001 -0.445059 0.000000 0.000000
    30 0.444211 -2.561960 -0.277656 -1.727307 -0.046226 -0.024599
    31 0.021020 -1.208185 0.000000 -0.427606 0.000000 0.000000
    32 0.010596 -0.741866 -0.000001 -0.453786 0.000000 0.000000
    33 1.047444 -2.222821 -0.277656 -1.508123 -0.078971 -0.038609
    34 0.000000 -0.996223 0.000000 -0.863938 0.000000 0.000000
    35 -0.000001 -0.614690 0.000000 -0.523599 0.000000 0.000000
    36 -0.308255 -0.007814 0.307166 -0.145110 -0.159878 -2.467082
    37 1.978379 0.019543 0.000000 -0.087921 -0.056961 -0.023672
    38 0.982426 0.003186 0.000000 0.000000 0.000000 0.418879
    39 -1.122644 -2.197476 -0.281120 -0.933746 0.000001 -0.087266
    40 0.007812 -0.964973 0.000001 -0.610853 0.000000 0.000000
    41 -0.007812 -0.630317 0.000000 -1.213004 0.000000 0.000000
  time 3
    0 8.606581 4.568042 -8.682355 -1.023856 -1.247161 0.822588
    1 0.000000 -8.563283 -0.000001 0.360440 -0.088248 -0.278019
    2 -0.834451 -3.073736 0.513625 -1.247037 1.437608 -1.233844
    3 0.000000 2.160510 0.950626 0.000000 0.000000 0.000000
    4 0.000000 -3.262269 1.710279 0.111768 0.000000 0.000000
    5 0.000000 -4.793800 0.448359 0.000000 0.000000 0.000000
    6 0.000000 -6.345618 1.761433 0.000000 0.000000 0.000000
    7 0.000000 -5.765820 2.989244 0.000000 0.000000 0.000000
    8 -0.003480 -0.404829 0.000000 0.000000 0.000000 0.000000
    9 -0.519309 -2.501155 -0.278957 -1.003564 0.000000 -0.122173
    10 -0.010598 -1.208185 0.000000 -1.090831 0.000000 0.000000
    11 0.000000 -0.763066 -0.000001 -1.343903 0.000000 0.000000
    12 0.105981 -2.607134 -0.278957 -0.890118 0.000000 -0.148353
    13 0.000000 -1.250579 0.000000 -1.213004 0.000000 0.000000
    14 0.000000 -0.932634 0.000000 -1.483530 0.000000 0.000000
    15 0.763064 -2.490557 -0.278957 -0.235619 0.000000 0.130900
    16 -0.012322 -1.280918 0.000000 -0.936308 0.000000 0.000000
    17 -0.001697 -0.749371 0.000000 -1.208618 0.000000 0.000000
    18 0.354567 0.016267 0.318133 0.342077 -0.443527 -1.083976
    19 1.887165 0.012878 0.000000 -0.305433 0.000000 -0.401426
    20 1.001875 -0.000270 0.000000 0.000000 0.000000 -0.488692
    21 -0.175298 -10.349686 -9.744731 -0.579873 0.345622 0.811403
    22 0.089929 -8.543161 0.000000 0.516906 -0.039040 -0.059960
    23 0.000000 -0.359712 0.000000 0.000000 0.000000 0.000000
    24 -0.170480 -2.636147 -0.277656 -1.692969 0.000000 0.000000
    25 0.010599 -1.261176 0.000001 -0.253073 0.000000 0.000000
    26 -0.000001 -0.943232 -0.000002 -0.532326 0.000000 0.000000
    27 -0.827563 -2.508973 -0.277657 -1.396263 0.000000 0.000000
    28 -0.000001 -1.292972 0.000000 -0.445059 0.000000 0.000000
    29 0.000000 -0.752466 -0.000001 -0.445059 0.000000 0.000000
    30 0.444211 -2.561960 -0.277656 -1.727307 -0.046226 -0.024599
    31 0.021020 -1.208185 0.000000 -0.427606 0.000000 0.000000
    32 0.010596 -0.741866 -0.000001 -0.453786 0.000000 0.000000
    33 1.047444 -2.222821 -0.277656 -1.508123 -0.078971 -0.038609
    34 0.000000 -0.996223 0.000000 -0.863938 0.000000 0.000000
    35 -0.000001 -0.614690 0.000000 -0.523599 0.000000 0.000000
    36 -0.308255 -0.007814 0.307166 -0.145110 -0.159878 -2.467082
    37 1.978379 0.019543 0.000000 -0.087921 -0.056961 -0.023672
    38 0.982426 0.003186 0.000000 0.000000 0.000000 0.418879
    39 -1.122644 -2.197476 -0.281120 -0.933746 0.000001 -0.087266
    40 0.007812 -0.964973 0.000001 -0.610853 0.000000 0.000000
    41 -0.007812 -0.630317 0.000000 -1.213004 0.000000 0.000000
  time 4
    0 8.606581 4.450851 -8.596415 -0.986633 -1.264206 0.784517
    1 0.000000 -8.563283 -0.000001 0.359086 -0.092322 -0.265758
    2 -0.834451 -3.073736 0.513625 -1.247037 1.437608 -1.233844
    3 0.000000 2.160510 0.950626 0.000000 0.000000 0.000000
    4 0.000000 -3.320865 1.710279 0.076318 0.000000 0.000000
    5 0.000000 -4.793800 0.448359 0.000000 0.000000 0.000000
    6 0.000000 -6.345618 1.761433 0.000000 0.000000 0.000000
    7 0.000000 -5.765820 2.989244 0.000000 0.000000 0.000000
    8 -0.003480 -0.404829 0.000000 0.000000 0.000000 0.000000
    9 -0.519309 -2.501155 -0.278957 -1.003564 0.000000 -0.122173
    10 -0.010598 -1.208185 0.000000 -1.090831 0.000000 0.000000
    11 0.000000 -0.763066 -0.000001 -1.343903 0.000000 0.000000
    12 0.105981 -2.607134 -0.278957 -0.890118 0.000000 -0.148353
    13 0.000000 -1.250579 0.000000 -1.213004 0.000000 0.000000
    14 0.000000 -0.932634 0.000000 -1.483530 0.000000 0.000000
    15 0.763064 -2.490557 -0.278957 -0.235619 0.000000 0.130900
    16 -0.012322 -1.280918 0.000000 -0.943235 0.000000 0.000000
    17 -0.001697 -0.749371 0.000000 -1.215913 0.000000 0.000000
    18 0.354567 0.016267 0.318133 0.342077 -0.443527 -1.083976
    19 1.887165 0.012878 0.000000 -0.305433 0.000000 -0.401426
    20 1.001875 -0.000270 0.000000 0.000000 0.000000 -0.488692
    21 -0.163579 -10.197338 -9.838484 -0.560318 0.335296 0.794323
    22 0.089929 -8.543161 0.000000 0.505004 -0.039378 -0.044573
    23 0.000000 -0.359712 0.000000 0.000000 0.000000 0.000000
    24 -0.170480 -2.636147 -0.277656 -1.692969 0.000000 0.000000
    25 0.010599 -1.261176 0.000001 -0.253073 0.000000 0.000000
    26 -0.000001 -0.943232 -0.000002 -0.532326 0.000000 0.000000
    27 -0.827563 -2.508973 -0.277657 -1.396263 0.000000 0.000000
    28 -0.000001 -1.292972 0.000000 -0.445059 0.000000 0.000000
    29 0.000000 -0.752466 -0.000001 -0.445059 0.000000 0.000000
    30 0.444211 -2.561960 -0.277656 -1.727307 -0.046226 -0.024599
    31 0.021020 -1.208185 0.000000 -0.427606 0.000000 0.000000
    32 0.010596 -0.741866 -0.000001 -0.453786 0.000000 0.000000
    33 1.047444 -2.222821 -0.277656 -1.508123 -0.078971 -0.038609
    34 0.000000 -0.996223 0.000000 -0.863938 0.000000 0.000000
    35 -0.000001 -0.614690 0.000000 -0.523599 0.000000 0.000000
    36 -0.308255 -0.007814 0.307166 -0.145110 -0.159878 -2.467082
    37 1.978379 0.019543 0.000000 -0.087921 -0.056961 -0.023672
    38 0.982426 0.003186 0.000000 0.000000 0.000000 0.418879
    39 -1.122644 -2.197476 -0.281120 -0.933746 0.000001 -0.087266
    40 0.007812 -0.964973 0.000001 -0.610853 0.000000 0.000000
    41 -0.007812 -0.630317 0.000000 -1.213004 0.000000 0.000000
  time 5
    0 8.606581 4.165686 -8.440160 -0.931944 -1.285661 0.728676
    1 0.000000 -8.563283 -0.000001 0.357049 -0.098375 -0.247734
    2 -0.834451 -3.073736 0.513625 -1.247037 1.437608 -1.233844
    3 0.000000 2.160510 0.950626 0.000000 0.000000 0.000000
    4 0.000000 -3.344303 1.710279 0.044439 0.000000 0.000000
    5 0.000000 -4.793800 0.448359 0.000000 0.000000 0.000000
    6 0.000000 -6.345618 1.761433 0.000000 0.000000 0.000000
    7 0.000000 -5.765820 2.989244 0.000000 0.000000 0.000000
    8 -0.003480 -0.404829 0.000000 0.000000 0.000000 0.000000
    9 -0.519309 -2.501155 -0.278957 -1.003564 0.000000 -0.122173
    10 -0.010598 -1.208185 0.000000 -1.090831 0.000000 0.000000
    11 0.000000 -0.763066 -0.000001 -1.343903 0.000000 0.000000
    12 0.105981 -2.607134 -0.278957 -0.890118 0.000000 -0.148353
    13 0.000000 -1.250579 0.000000 -1.213004 0.000000 0.000000
    14 0.000000 -0.932634 0.000000 -1.483530 0.000000 0.000000
    15 0.763064 -2.490557 -0.278957 -0.235619 0.000000 0.130900
    16 -0.012322 -1.280918 0.000000 -0.933534 0.000000 0.000000
    17 -0.001697 -0.749371 0.000000 -1.205731 0.000000 0.000000
    18 0.354567 0.016267 0.318133 0.342077 -0.443527 -1.083976
    19 1.887165 0.012878 0.000000 -0.305433 0.000000 -0.401426
    20 1.001875 -0.000270 0.000000 0.000000 0.000000 -0.488692
    21 -0.104984 -10.193432 -9.963488 -0.537997 0.320640 0.768436
    22 0.089929 -8.543161 0.000000 0.491385 -0.036450 -0.014977
    23 0.000000 -0.359712 0.000000 0.000000 0.000000 0.000000
    24 -0.170480 -2.636147 -0.277656 -1.692969 0.000000 0.000000
    25 0.010599 -1.261176 0.000001 -0.253073 0.000000 0.000000
    26 -0.000001 -0.943232 -0.000002 -0.532326 0.000000 0.000000
    27 -0.827563 -2.508973 -0.277657 -1.396263 0.000000 0.000000
    28 -0.000001 -1.292972 0.000000 -0.445059 0.000000 0.000000
    29 0.000000 -0.752466 -0.000001 -0.445059 0.000000 0.000000
    30 0.444211 -2.561960 -0.277656 -1.727307 -0.046226 -0.024599
    31 0.021020 -1.208185 0.000000 -0.427606 0.000000 0.000000
    32 0.010596 -0.741866 -0.000001 -0.453786 0.000000 0.000000
    33 1.047444 -2.222821 -0.277656 -1.508123 -0.078971 -0.038609
    34 0.000000 -0.996223 0.000000 -0.863938 0.000000 0.000000
    35 -0.000001 -0.614690 0.000000 -0.523599 0.000000 0.000000
    36 -0.308255 -0.007814 0.307166 -0.145110 -0.159878 -2.467082
    37 1.978379 0.019543 0.000000 -0.087921 -0.056961 -0.023672
    38 0.982426 0.003186 0.000000 0.000000 0.000000 0.418879
    39 -1.122644 -2.197476 -0.281120 -0.933746 0.000001 -0.087266
    40 0.007812 -0.964973 0.000001 -0.610853 0.000000 0.000000
    41 -0.007812 -0.630317 0.000000 -1.213004 0.000000 0.000000
  time 6
    0 8.606581 3.845364 -8.268280 -0.872872 -1.304889 0.668438
    1 0.000000 -8.563283 -0.000001 0.354676 -0.105050 -0.227779
    2 -0.834451 -3.073736 0.513625 -1.247037 1.437608 -1.233844
    3 0.000000 2.160510 0.950626 0.000000 0.000000 0.000000
    4 0.000000 -3.344303 1.710279 0.018277 0.000000 0.000000
    5 0.000000 -4.793800 0.448359 0.000000 0.000000 0.000000
    6 0.000000 -6.345618 1.761433 0.000000 0.000000 0.000000
    7 0.000000 -5.765820 2.989244 0.000000 0.000000 0.000000
    8 -0.003480 -0.404829 0.000000 0.000000 0.000000 0.000000
    9 -0.519309 -2.501155 -0.278957 -1.003564 0.000000 -0.122173
    10 -0.010598 -1.208185 0.000000 -1.090831 0.000000 0.000000
    11 0.000000 -0.763066 -0.000001 -1.343903 0.000000 0.000000
    12 0.105981 -2.607134 -0.278957 -0.890118 0.000000 -0.148353
    13 0.000000 -1.250579 0.000000 -1.213004 0.000000 0.000000
    14 0.000000 -0.932634 0.000000 -1.483530 0.000000 0.000000
    15 0.763064 -2.490557 -0.278957 -0.235619 0.000000 0.130900
    16 -0.012322 -1.280918 0.000000 -0.898827 0.000000 0.000000
    17 -0.001697 -0.749371 0.000000 -1.169370 0.000000 0.000000
    18 0.354567 0.016267 0.318133 0.342077 -0.443527 -1.083976
    19 1.887165 0.012878 0.000000 -0.305433 0.000000 -0.401426
    20 1.001875 -0.000270 0.000000 0.000000 0.000000 -0.488692
    21 -0.015137 -10.201244 -10.018177 -0.516320 0.304984 0.739347
    22 0.089929 -8.543161 0.000000 0.478477 -0.031143 0.021245
    23 0.000000 -0.359712 0.000000 0.000000 0.000000 0.000000
    24 -0.170480 -2.636147 -0.277656 -1.692969 0.000000 0.000000
    25 0.010599 -1.261176 0.000001 -0.253073 0.000000 0.000000
    26 -0.000001 -0.943232 -0.000002 -0.532326 0.000000 0.000000
    27 -0.827563 -2.508973 -0.277657 -1.396263 0.000000 0.000000
    28 -0.000001 -1.292972 0.000000 -0.445059 0.000000 0.000000
    29 0.000000 -0.752466 -0.000001 -0.445059 0.000000 0.000000
    30 0.444211 -2.561960 -0.277656 -1.727307 -0.046226 -0.024599
    31 0.021020 -1.208185 0.000000 -0.427606 0.000000 0.000000
    32 0.010596 -0.741866 -0.000001 -0.453786 0.000000 0.000000
    33 1.047444 -2.222821 -0.277656 -1.508123 -0.078971 -0.038609
    34 0.000000 -0.996223 0.000000 -0.863938 0.000000 0.000000
    35 -0.000001 -0.614690 0.000000 -0.523599 0.000000 0.000000
    36 -0.308255 -0.007814 0.307166 -0.145110 -0.159878 -2.467082
    37 1.978379 0.019543 0.000000 -0.087921 -0.056961 -0.023672
    38 0.982426 0.003186 0.000000 0.000000 0.000000 0.418879
    39 -1.122644 -2.197476 -0.281120 -0.933746 0.000001 -0.087266
    40 0.007812 -0.964973 0.000001 -0.610853 0.000000 0.000000
    41 -0.007812 -0.630317 0.000000 -1.213004 0.000000 0.000000
  time 7
    0 8.606581 3.630514 -8.154995 -0.831855 -1.316363 0.626693
    1 0.000000 -8.563283 -0.000001 0.352423 -0.111030 -0.209766
    2 -0.834451 -3.073736 0.513625 -1.247037 1.437608 -1.233844
    3 0.000000 2.160510 0.950626 0.000000 0.000000 0.000000
    4 0.000000 -3.344303 1.710279 0.000000 0.000000 0.000000
    5 0.000000 -4.793800 0.448359 0.000000 0.000000 0.000000
    6 0.000000 -6.345618 1.761433 0.000000 0.000000 0.000000
    7 0.000000 -5.765820 2.989244 0.000000 0.000000 0.000000
    8 -0.003480 -0.404829 0.000000 0.000000 0.000000 0.000000
    9 -0.519309 -2.501155 -0.278957 -1.003564 0.000000 -0.122173
    10 -0.010598 -1.208185 0.000000 -1.090831 0.000000 0.000000
    11 0.000000 -0.763066 -0.000001 -1.343903 0.000000 0.000000
    12 0.105981 -2.607134 -0.278957 -0.890118 0.000000 -0.148353
    13 0.000000 -1.250579 0.000000 -1.213004 0.000000 0.000000
    14 0.000000 -0.932634 0.000000 -1.483530 0.000000 0.000000
    15 0.763064 -2.490557 -0.278957 -0.235619 0.000000 0.130900
    16 -0.012322 -1.280918 0.000000 -0.818461 0.000000 0.000000
    17 -0.001697 -0.749371 0.000000 -1.085155 0.000000 0.000000
    18 0.354567 0.016267 0.318133 0.342077 -0.443527 -1.083976
    19 1.887165 0.012878 0.000000 -0.305433 0.000000 -0.401426
    20 1.001875 -0.000270 0.000000 0.000000 0.000000 -0.488692
    21 0.082522 -10.107492 -9.787701 -0.499081 0.291244 0.712748
    22 0.089929 -8.543161 0.000000 0.468734 -0.024693 0.056735
    23 0.000000 -0.359712 0.000000 0.000000 0.000000 0.000000
    24 -0.170480 -2.636147 -0.277656 -1.692969 0.000000 0.000000
    25 0.010599 -1.261176 0.000001 -0.253073 0.000000 0.000000
    26 -0.000001 -0.943232 -0.000002 -0.532326 0.000000 0.000000
    27 -0.827563 -2.508973 -0.277657 -1.396263 0.000000 0.000000
    28 -0.000001 -1.292972 0.000000 -0.445059 0.000000 0.000000
    29 0.000000 -0.752466 -0.000001 -0.445059 0.000000 0.000000
    30 0.444211 -2.561960 -0.277656 -1.727307 -0.046226 -0.024599
    31 0.021020 -1.208185 0.000000 -0.427606 0.000000 0.000000
    32 0.010596 -0.741866 -0.000001 -0.453786 0.000000 0.000000
    33 1.047444 -2.222821 -0.277656 -1.508123 -0.078971 -0.038609
    34 0.000000 -0.996223 0.000000 -0.863938 0.000000 0.000000
    35 -0.000001 -0.614690 0.000000 -0.523599 0.000000 0.000000
    36 -0.308255 -0.007814 0.307166 -0.145110 -0.159878 -2.467082
    37 1.978379 0.019543 0.000000 -0.087921 -0.056961 -0.023672
    38 0.982426 0.003186 0.000000 0.000000 0.000000 0.418879
    39 -1.122644 -2.197476 -0.281120 -0.933746 0.000001 -0.087266
    40 0.007812 -0.964973 0.000001 -0.610853 0.000000 0.000000
    41 -0.007812 -0.630317 0.000000 -1.213004 0.000000 0.000000
  time 8
    0 8.606581 3.525042 -8.096399 -0.812295 -1.321376 0.606814
    1 0.000000 -8.563283 -0.000001 0.350865 -0.115093 -0.197602
    2 -0.834451 -3.073736 0.513625 -1.247037 1.437608 -1.233844
    3 0.000000 2.160510 0.950626 0.000000 0.000000 0.000000
    4 0.000000 -3.344303 1.710279 -0.010750 0.000000 0.000000
    5 0.000000 -4.793800 0.448359 0.000000 0.000000 0.000000
    6 0.000000 -6.345618 1.761433 0.000000 0.000000 0.000000
    7 0.000000 -5.765820 2.989244 0.000000 0.000000 0.000000
    8 -0.003480 -0.404829 0.000000 0.000000 0.000000 0.000000
    9 -0.519309 -2.501155 -0.278957 -1.003564 0.000000 -0.122173
    10 -0.010598 -1.208185 0.000000 -1.090831 0.000000 0.000000
    11 0.000000 -0.763066 -0.000001 -1.343903 0.000000 0.000000
    12 0.105981 -2.607134 -0.278957 -0.890118 0.000000 -0.148353
    13 0.000000 -1.250579 0.000000 -1.213004 0.000000 0.000000
    14 0.000000 -0.932634 0.000000 -1.483530 0.000000 0.000000
    15 0.763064 -2.490557 -0.278957 -0.235619 0.000000 0.130900
    16 -0.012322 -1.280918 0.000000 -0.695699 0.000000 0.000000
    17 -0.001697 -0.749371 0.000000 -0.956563 0.000000 0.000000
    18 0.354567 0.016267 0.318133 0.342077 -0.443527 -1.083976
    19 1.887165 0.012878 0.000000 -0.305433 0.000000 -0.401426
    20 1.001875 -0.000270 0.000000 0.000000 0.000000 -0.488692
    21 0.180181 -10.021551 -9.549413 -0.490526 0.282001 0.694512
    22 0.089929 -8.543161 0.000000 0.464317 -0.018629 0.084101
    23 0.000000 -0.359712 0.000000 0.000000 0.000000 0.000000
    24 -0.170480 -2.636147 -0.277656 -1.692969 0.000000 0.000000
    25 0.010599 -1.261176 0.000001 -0.253073 0.000000 0.000000
    26 -0.000001 -0.943232 -0.000002 -0.532326 0.000000 0.000000
    27 -0.827563 -2.508973 -0.277657 -1.396263 0.000000 0.000000
    28 -0.000001 -1.292972 0.000000 -0.445059 0.000000 0.000000
    29 0.000000 -0.752466 -0.000001 -0.445059 0.000000 0.000000
    30 0.444211 -2.561960 -0.277656 -1.727307 -0.046226 -0.024599
    31 0.021020 -1.208185 0.000000 -0.427606 0.000000 0.000000
    32 0.010596 -0.741866 -0.000001 -0.453786 0.000000 0.000000
    33 1.047444 -2.222821 -0.277656 -1.508123 -0.078971 -0.038609
    34 0.000000 -0.996223 0.000000 -0.863938 0.000000 0.000000
    35 -0.000001 -0.614690 0.000000 -0.523599 0.000000 0.000000
    36 -0.308255 -0.007814 0.307166 -0.145110 -0.159878 -2.467082
    37 1.978379 0.019543 0.000000 -0.087921 -0.056961 -0.023672
    38 0.982426 0.003186 0.000000 0.000000 0.000000 0.418879
    39 -1.122644 -2.197476 -0.281120 -0.933746 0.000001 -0.087266
    40 0.007812 -0.964973 0.000001 -0.610853 0.000000 0.000000
    41 -0.007812 -0.630317 0.000000 -1.213004 0.000000 0.000000
  time 9
    0 8.606581 3.431289 -8.061242 -0.798688 -1.324785 0.592839
    1 0.000000 -8.563283 -0.000001 0.349978 -0.117430 -0.190699
    2 -0.834451 -3.073736 0.513625 -1.247037 1.437608 -1.233844
    3 0.000000 2.160510 0.950626 0.000000 0.000000 0.000000
    4 0.000000 -3.344303 1.710279 -0.016491 0.000000 0.000000
    5 0.000000 -4.793800 0.448359 0.000000 0.000000 0.000000
    6 0.000000 -6.345618 1.761433 0.000000 0.000000 0.000000
    7 0.000000 -5.765820 2.989244 0.000000 0.000000 0.000000
    8 -0.003480 -0.404829 0.000000 0.000000 0.000000 0.000000
    9 -0.519309 -2.501155 -0.278957 -1.003564 0.000000 -0.122173
    10 -0.010598 -1.208185 0.000000 -1.090831 0.000000 0.000000
    11 0.000000 -0.763066 -0.000001 -1.343903 0.000000 0.000000
    12 0.105981 -2.607134 -0.278957 -0.890118 0.000000 -0.148353
    13 0.000000 -1.250579 0.000000 -1.213004 0.000000 0.000000
    14 0.000000 -0.932634 0.000000 -1.483530 0.000000 0.000000
    15 0.763064 -2.490557 -0.278957 -0.235619 0.000000 0.130900
    16 -0.012322 -1.280918 0.000000 -0.558159 0.000000 0.000000
    17 -0.001697 -0.749371 0.000000 -0.812469 0.000000 0.000000
    18 0.354567 0.016267 0.318133 0.342077 -0.443527 -1.083976
    19 1.887165 0.012878 0.000000 -0.305433 0.000000 -0.401426
    20 1.001875 -0.000270 0.000000 0.000000 0.000000 -0.488692
    21 0.246590 -10.025458 -9.576757 -0.490204 0.276588 0.683926
    22 0.089929 -8.543161 0.000000 0.464881 -0.013016 0.104649
    23 0.000000 -0.359712 0.000000 0.000000 0.000000 0.000000
    24 -0.170480 -2.636147 -0.277656 -1.692969 0.000000 0.000000
    25 0.010599 -1.261176 0.000001 -0.253073 0.000000 0.000000
    26 -0.000001 -0.943232 -0.000002 -0.532326 0.000000 0.000000
    27 -0.827563 -2.508973 -0.277657 -1.396263 0.000000 0.000000
    28 -0.000001 -1.292972 0.000000 -0.445059 0.000000 0.000000
    29 0.000000 -0.752466 -0.000001 -0.445059 0.000000 0.000000
    30 0.444211 -2.561960 -0.277656 -1.727307 -0.046226 -0.024599
    31 0.021020 -1.208185 0.000000 -0.427606 0.000000 0.000000
    32 0.010596 -0.741866 -0.000001 -0.453786 0.000000 0.000000
    33 1.047444 -2.222821 -0.277656 -1.508123 -0.078971 -0.038609
    34 0.000000 -0.996223 0.000000 -0.863938 0.000000 0.000000
    35 -0.000001 -0.614690 0.000000 -0.523599 0.000000 0.000000
    36 -0.308255 -0.007814 0.307166 -0.145110 -0.159878 -2.467082
    37 1.978379 0.019543 0.000000 -0.087921 -0.056961 -0.023672
    38 0.982426 0.003186 0.000000 0.000000 0.000000 0.418879
    39 -1.122644 -2.197476 -0.281120 -0.933746 0.000001 -0.087266
    40 0.007812 -0.964973 0.000001 -0.610853 0.000000 0.000000
    41 -0.007812 -0.630317 0.000000 -1.213004 0.000000 0.000000
  time 10
    0 8.606581 3.349255 -8.029991 -0.789922 -1.326946 0.583924
    1 0.000000 -8.563283 -0.000001 0.349343 -0.119216 -0.185581
    2 -0.834451 -3.073736 0.513625 -1.247037 1.437608 -1.233844
    3 0.000000 2.160510 0.950626 0.000000 0.000000 0.000000
    4 0.000000 -3.344303 1.710279 -0.018169 0.000000 0.000000
    5 0.000000 -4.793800 0.448359 0.000000 0.000000 0.000000
    6 0.000000 -6.345618 1.761433 0.000000 0.000000 0.000000
    7 0.000000 -5.765820 2.989244 0.000000 0.000000 0.000000
    8 -0.003480 -0.404829 0.000000 0.000000 0.000000 0.000000
    9 -0.519309 -2.501155 -0.278957 -1.003564 0.000000 -0.122173
    10 -0.010598 -1.208185 0.000000 -1.090831 0.000000 0.000000
    11 0.000000 -0.763066 -0.000001 -1.343903 0.000000 0.000000
    12 0.105981 -2.607134 -0.278957 -0.890118 0.000000 -0.148353
    13 0.000000 -1.250579 0.000000 -1.213004 0.000000 0.000000
    14 0.000000 -0.932634 0.000000 -1.483530 0.000000 0.000000
    15 0.763064 -2.490557 -0.278957 -0.235619 0.000000 0.130900
    16 -0.012322 -1.280918 0.000000 -0.433421 0.000000 0.000000
    17 -0.001697 -0.749371 0.000000 -0.681768 0.000000 0.000000
    18 0.354567 0.016267 0.318133 0.342077 -0.443527 -1.083976
    19 1.887165 0.012878 0.000000 -0.305433 0.000000 -0.401426
    20 1.001875 -0.000270 0.000000 0.000000 0.000000 -0.488692
    21 0.293466 -10.060615 -9.674417 -0.494321 0.272258 0.675830
    22 0.089929 -8.543161 0.000000 0.468268 -0.006872 0.124592
    23 0.000000 -0.359712 0.000000 0.000000 0.000000 0.000000
    24 -0.170480 -2.636147 -0.277656 -1.692969 0.000000 0.000000
    25 0.010599 -1.261176 0.000001 -0.253073 0.000000 0.000000
    26 -0.000001 -0.943232 -0.000002 -0.532326 0.000000 0.000000
    27 -0.827563 -2.508973 -0.277657 -1.396263 0.000000 0.000000
    28 -0.000001 -1.292972 0.000000 -0.445059 0.000000 0.000000
    29 0.000000 -0.752466 -0.000001 -0.445059 0.000000 0.000000
    30 0.444211 -2.561960 -0.277656 -1.727307 -0.046226 -0.024599
    31 0.021020 -1.208185 0.000000 -0.427606 0.000000 0.000000
    32 0.010596 -0.741866 -0.000001 -0.453786 0.000000 0.000000
    33 1.047444 -2.222821 -0.277656 -1.508123 -0.078971 -0.038609
    34 0.000000 -0.996223 0.000000 -0.863938 0.000000 0.000000
    35 -0.000001 -0.614690 0.000000 -0.523599 0.000000 0.000000
    36 -0.308255 -0.007814 0.307166 -0.145110 -0.159878 -2.467082
    37 1.978379 0.019543 0.000000 -0.087921 -0.056961 -0.023672
    38 0.982426 0.003186 0.000000 0.000000 0.000000 0.418879
    39 -1.122644 -2.197476 -0.281120 -0.933746 0.000001 -0.087266
    40 0.007812 -0.964973 0.000001 -0.610853 0.000000 0.000000
    41 -0.007812 -0.630317 0.000000 -1.213004 0.000000 0.000000
  time 11
    0 8.606581 3.282847 -8.006553 -0.785212 -1.328194 0.578924
    1 0.000000 -8.563283 -0.000001 0.348875 -0.120534 -0.181866
    2 -0.834451 -3.073736 0.513625 -1.247037 1.437608 -1.233844
    3 0.000000 2.160510 0.950626 0.000000 0.000000 0.000000
    4 0.000000 -3.344303 1.710279 -0.016814 0.000000 0.000000
    5 0.000000 -4.793800 0.448359 0.000000 0.000000 0.000000
    6 0.000000 -6.345618 1.761433 0.000000 0.000000 0.000000
    7 0.000000 -5.765820 2.989244 0.000000 0.000000 0.000000
    8 -0.003480 -0.404829 0.000000 0.000000 0.000000 0.000000
    9 -0.519309 -2.501155 -0.278957 -1.003564 0.000000 -0.122173
    10 -0.010598 -1.208185 0.000000 -1.090831 0.000000 0.000000
    11 0.000000 -0.763066 -0.000001 -1.343903 0.000000 0.000000
    12 0.105981 -2.607134 -0.278957 -0.890118 0.000000 -0.148353
    13 0.000000 -1.250579 0.000000 -1.213004 0.000000 0.000000
    14 0.000000 -0.932634 0.000000 -1.483530 0.000000 0.000000
    15 0.763064 -2.490557 -0.278957 -0.235619 0.000000 0.130900
    16 -0.012322 -1.280918 0.000000 -0.349066 0.000000 0.000000
    17 -0.001697 -0.749371 0.000000 -0.593412 0.000000 0.000000
    18 0.354567 0.016267 0.318133 0.342077 -0.443527 -1.083976
    19 1.887165 0.012878 0.000000 -0.305433 0.000000 -0.401426
    20 1.001875 -0.000270 0.000000 0.000000 0.000000 -0.488692
    21 0.320811 -10.095772 -9.740825 -0.501911 0.268760 0.669781
    22 0.089929 -8.543161 0.000000 0.473863 -0.000422 0.144121
    23 0.000000 -0.359712 0.000000 0.000000 0.000000 0.000000
    24 -0.170480 -2.636147 -0.277656 -1.692969 0.000000 0.000000
    25 0.010599 -1.261176 0.000001 -0.253073 0.000000 0.000000
    26 -0.000001 -0.943232 -0.000002 -0.532326 0.000000 0.000000
    27 -0.827563 -2.508973 -0.277657 -1.396263 0.000000 0.000000
    28 -0.000001 -1.292972 0.000000 -0.445059 0.000000 0.000000
    29 0.000000 -0.752466 -0.000001 -0.445059 0.000000 0.000000
    30 0.444211 -2.561960 -0.277656 -1.727307 -0.046226 -0.024599
    31 0.021020 -1.208185 0.000000 -0.427606 0.000000 0.000000
    32 0.010596 -0.741866 -0.000001 -0.453786 0.000000 0.000000
    33 1.047444 -2.222821 -0.277656 -1.508123 -0.078971 -0.038609
    34 0.000000 -0.996223 0.000000 -0.863938 0.000000 0.000000
    35 -0.000001 -0.614690 0.000000 -0.523599 0.000000 0.000000
    36 -0.308255 -0.007814 0.307166 -0.145110 -0.159878 -2.467082
    37 1.978379 0.019543 0.000000 -0.087921 -0.056961 -0.023672
    38 0.982426 0.003186 0.000000 0.000000 0.000000 0.418879
    39 -1.122644 -2.197476 -0.281120 -0.933746 0.000001 -0.087266
    40 0.007812 -0.964973 0.000001 -0.610853 0.000000 0.000000
    41 -0.007812 -0.630317 0.000000 -1.213004 0.000000 0.000000
  time 12
    0 8.606581 3.232064 -8.002646 -0.783053 -1.328840 0.576574
    1 0.000000 -8.563283 -0.000001 0.348576 -0.121565 -0.179134
    2 -0.834451 -3.073736 0.513625 -1.247037 1.437608 -1.233844
    3 0.000000 2.160510 0.950626 0.000000 0.000000 0.000000
    4 0.000000 -3.344303 1.710279 -0.013459 0.000000 0.000000
    5 0.000000 -4.793800 0.448359 0.000000 0.000000 0.000000
    6 0.000000 -6.345618 1.761433 0.000000 0.000000 0.000000
    7 0.000000 -5.765820 2.989244 0.000000 0.000000 0.000000
    8 -0.003480 -0.404829 0.000000 0.000000 0.000000 0.000000
    9 -0.519309 -2.501155 -0.278957 -1.003564 0.000000 -0.122173
    10 -0.010598 -1.208185 0.000000 -1.090831 0.000000 0.000000
    11 0.000000 -0.763066 -0.000001 -1.343903 0.000000 0.000000
    12 0.105981 -2.607134 -0.278957 -0.890118 0.000000 -0.148353
    13 0.000000 -1.250579 0.000000 -1.213004 0.000000 0.000000
    14 0.000000 -0.932634 0.000000 -1.483530 0.000000 0.000000
    15 0.763064 -2.490557 -0.278957 -0.235619 0.000000 0.130900
    16 -0.012322 -1.280918 0.000000 -0.313888 0.000000 0.000000
    17 -0.001697 -0.749371 0.000000 -0.556557 0.000000 0.000000
    18 0.354567 0.016267 0.318133 0.342077 -0.443527 -1.083976
    19 1.887165 0.012878 0.000000 -0.305433 0.000000 -0.401426
    20 1.001875 -0.000270 0.000000 0.000000 0.000000 -0.488692
    21 0.328623 -10.134836 -9.807233 -0.511946 0.266012 0.665066
    22 0.089929 -8.543161 0.000000 0.481004 0.006205 0.163331
    23 0.000000 -0.359712 0.000000 0.000000 0.000000 0.000000
    24 -0.170480 -2.636147 -0.277656 -1.692969 0.000000 0.000000
    25 0.010599 -1.261176 0.000001 -0.253073 0.000000 0.000000
    26 -0.000001 -0.943232 -0.000002 -0.532326 0.000000 0.000000
    27 -0.827563 -2.508973 -0.277657 -1.396263 0.000000 0.000000
    28 -0.000001 -1.292972 0.000000 -0.445059 0.000000 0.000000
    29 0.000000 -0.752466 -0.000001 -0.445059 0.000000 0.000000
    30 0.444211 -2.561960 -0.277656 -1.727307 -0.046226 -0.024599
    31 0.021020 -1.208185 0.000000 -0.427606 0.000000 0.000000
    32 0.010596 -0.741866 -0.000001 -0.453786 0.000000 0.000000
    33 1.047444 -2.222821 -0.277656 -1.508123 -0.078971 -0.038609
    34 0.000000 -0.996223 0.000000 -0.863938 0.000000 0.000000
    35 -0.000001 -0.614690 0.000000 -0.523599 0.000000 0.000000
    36 -0.308255 -0.007814 0.307166 -0.145110 -0.159878 -2.467082
    37 1.978379 0.019543 0.000000 -0.087921 -0.056961 -0.023672
    38 0.982426 0.003186 0.000000 0.000000 0.000000 0.418879
    39 -1.122644 -2.197476 -0.281120 -0.933746 0.000001 -0.087266
    40 0.007812 -0.964973 0.000001 -0.610853 0.000000 0.000000
    41 -0.007812 -0.630317 0.000000 -1.213004 0.000000 0.000000
  time 13
    0 8.606581 3.193000 -8.006553 -0.782203 -1.329197 0.575731
    1 0.000000 -8.563283 -0.000001 0.348336 -0.122428 -0.176953
    2 -0.834451 -3.073736 0.513625 -1.247037 1.437608 -1.233844
    3 0.000000 2.160510 0.950626 0.000000 0.000000 0.000000
    4 0.000000 -3.344303 1.710279 -0.009072 0.000000 0.000000
    5 0.000000 -4.793800 0.448359 0.000000 0.000000 0.000000
    6 0.000000 -6.345618 1.761433 0.000000 0.000000 0.000000
    7 0.000000 -5.765820 2.989244 0.000000 0.000000 0.000000
    8 -0.003480 -0.404829 0.000000 0.000000 0.000000 0.000000
    9 -0.519309 -2.501155 -0.278957 -1.003564 0.000000 -0.122173
    10 -0.010598 -1.208185 0.000000 -1.090831 0.000000 0.000000
    11 0.000000 -0.763066 -0.000001 -1.343903 0.000000 0.000000
    12 0.105981 -2.607134 -0.278957 -0.890118 0.000000 -0.148353
    13 0.000000 -1.250579 0.000000 -1.213004 0.000000 0.000000
    14 0.000000 -0.932634 0.000000 -1.483530 0.000000 0.000000
    15 0.763064 -2.490557 -0.278957 -0.235619 0.000000 0.130900
    16 -0.012322 -1.280918 0.000000 -0.309499 0.000000 0.000000
    17 -0.001697 -0.749371 0.000000 -0.551960 0.000000 0.000000
    18 0.354567 0.016267 0.318133 0.342077 -0.443527 -1.083976
    19 1.887165 0.012878 0.000000 -0.305433 0.000000 -0.401426
    20 1.001875 -0.000270 0.000000 0.000000 0.000000 -0.488692
    21 0.320811 -10.181713 -9.873641 -0.523267 0.263431 0.661241
    22 0.089929 -8.543161 0.000000 0.489127 0.012799 0.182477
    23 0.000000 -0.359712 0.000000 0.000000 0.000000 0.000000
    24 -0.170480 -2.636147 -0.277656 -1.692969 0.000000 0.000000
    25 0.010599 -1.261176 0.000001 -0.253073 0.000000 0.000000
    26 -0.000001 -0.943232 -0.000002 -0.532326 0.000000 0.000000
    27 -0.827563 -2.508973 -0.277657 -1.396263 0.000000 0.000000
    28 -0.000001 -1.292972 0.000000 -0.445059 0.000000 0.000000
    29 0.000000 -0.752466 -0.000001 -0.445059 0.000000 0.000000
    30 0.444211 -2.561960 -0.277656 -1.727307 -0.046226 -0.024599
    31 0.021020 -1.208185 0.000000 -0.427606 0.000000 0.000000
    32 0.010596 -0.741866 -0.000001 -0.453786 0.000000 0.000000
    33 1.047444 -2.222821 -0.277656 -1.508123 -0.078971 -0.038609
    34 0.000000 -0.996223 0.000000 -0.863938 0.000000 0.000000
    35 -0.000001 -0.614690 0.000000 -0.523599 0.000000 0.000000
    36 -0.308255 -0.007814 0.307166 -0.145110 -0.159878 -2.467082
    37 1.978379 0.019543 0.000000 -0.087921 -0.056961 -0.023672
    38 0.982426 0.003186 0.000000 0.000000 0.000000 0.418879
    39 -1.122644 -2.197476 -0.281120 -0.933746 0.000001 -0.087266
    40 0.007812 -0.964973 0.000001 -0.610853 0.000000 0.000000
    41 -0.007812 -0.630317 0.000000 -1.213004 0.000000 0.000000
  time 14
    0 8.606581 3.169562 -8.026085 -0.781352 -1.329531 0.574767
    1 0.000000 -8.563283 -0.000001 0.348108 -0.123231 -0.174891
    2 -0.834451 -3.073736 0.513625 -1.247037 1.437608 -1.233844
    3 0.000000 2.160510 0.950626 0.000000 0.000000 0.000000
    4 0.000000 -3.344303 1.710279 -0.004710 0.000000 0.000000
    5 0.000000 -4.793800 0.448359 0.000000 0.000000 0.000000
    6 0.000000 -6.345618 1.761433 0.000000 0.000000 0.000000
    7 0.000000 -5.765820 2.989244 0.000000 0.000000 0.000000
    8 -0.003480 -0.404829 0.000000 0.000000 0.000000 0.000000
    9 -0.519309 -2.501155 -0.278957 -1.003564 0.000000 -0.122173
    10 -0.010598 -1.208185 0.000000 -1.090831 0.000000 0.000000
    11 0.000000 -0.763066 -0.000001 -1.343903 0.000000 0.000000
    12 0.105981 -2.607134 -0.278957 -0.890118 0.000000 -0.148353
    13 0.000000 -1.250579 0.000000 -1.213004 0.000000 0.000000
    14 0.000000 -0.932634 0.000000 -1.483530 0.000000 0.000000
    15 0.763064 -2.490557 -0.278957 -0.235619 0.000000 0.130900
    16 -0.012322 -1.280918 0.000000 -0.322682 0.000000 0.000000
    17 -0.001697 -0.749371 0.000000 -0.565771 0.000000 0.000000
    18 0.354567 0.016267 0.318133 0.342077 -0.443527 -1.083976
    19 1.887165 0.012878 0.000000 -0.305433 0.000000 -0.401426
    20 1.001875 -0.000270 0.000000 0.000000 0.000000 -0.488692
    21 0.293466 -10.240308 -9.943956 -0.534845 0.260932 0.657594
    22 0.089929 -8.543161 0.000000 0.497593 0.019281 0.201592
    23 0.000000 -0.359712 0.000000 0.000000 0.000000 0.000000
    24 -0.170480 -2.636147 -0.277656 -1.692969 0.000000 0.000000
    25 0.010599 -1.261176 0.000001 -0.253073 0.000000 0.000000
    26 -0.000001 -0.943232 -0.000002 -0.532326 0.000000 0.000000
    27 -0.827563 -2.508973 -0.277657 -1.396263 0.000000 0.000000
    28 -0.000001 -1.292972 0.000000 -0.445059 0.000000 0.000000
    29 0.000000 -0.752466 -0.000001 -0.445059 0.000000 0.000000
    30 0.444211 -2.561960 -0.277656 -1.727307 -0.046226 -0.024599
    31 0.021020 -1.208185 0.000000 -0.427606 0.000000 0.000000
    32 0.010596 -0.741866 -0.000001 -0.453786 0.000000 0.000000
    33 1.047444 -2.222821 -0.277656 -1.508123 -0.078971 -0.038609
    34 0.000000 -0.996223 0.000000 -0.863938 0.000000 0.000000
    35 -0.000001 -0.614690 0.000000 -0.523599 0.000000 0.000000
    36 -0.308255 -0.007814 0.307166 -0.145110 -0.159878 -2.467082
    37 1.978379 0.019543 0.000000 -0.087921 -0.056961 -0.023672
    38 0.982426 0.003186 0.000000 0.000000 0.000000 0.418879
    39 -1.122644 -2.197476 -0.281120 -0.933746 0.000001 -0.087266
    40 0.007812 -0.964973 0.000001 -0.610853 0.000000 0.000000
    41 -0.007812 -0.630317 0.000000 -1.213004 0.000000 0.000000
  time 15
    0 8.606581 3.161749 -8.057336 -0.779128 -1.330177 0.572418
    1 0.000000 -8.563283 -0.000001 0.347869 -0.124117 -0.172566
    2 -0.834451 -3.073736 0.513625 -1.247037 1.437608 -1.233844
    3 0.000000 2.160510 0.950626 0.000000 0.000000 0.000000
    4 0.000000 -3.344303 1.710279 -0.001330 0.000000 0.000000
    5 0.000000 -4.793800 0.448359 0.000000 0.000000 0.000000
    6 0.000000 -6.345618 1.761433 0.000000 0.000000 0.000000
    7 0.000000 -5.765820 2.989244 0.000000 0.000000 0.000000
    8 -0.003480 -0.404829 0.000000 0.000000 0.000000 0.000000
    9 -0.519309 -2.501155 -0.278957 -1.003564 0.000000 -0.122173
    10 -0.010598 -1.208185 0.000000 -1.090831 0.000000 0.000000
    11 0.000000 -0.763066 -0.000001 -1.343903 0.000000 0.000000
    12 0.105981 -2.607134 -0.278957 -0.890118 0.000000 -0.148353
    13 0.000000 -1.250579 0.000000 -1.213004 0.000000 0.000000
    14 0.000000 -0.932634 0.000000 -1.483530 0.000000 0.000000
    15 0.763064 -2.490557 -0.278957 -0.235619 0.000000 0.130900
    16 -0.012322 -1.280918 0.000000 -0.340271 0.000000 0.000000
    17 -0.001697 -0.749371 0.000000 -0.584198 0.000000 0.000000
    18 0.354567 0.016267 0.318133 0.342077 -0.443527 -1.083976
    19 1.887165 0.012878 0.000000 -0.305433 0.000000 -0.401426
    20 1.001875 -0.000270 0.000000 0.000000 0.000000 -0.488692
    21 0.242683 -10.302810 -10.014271 -0.545909 0.258184 0.653591
    22 0.089929 -8.543161 0.000000 0.505765 0.025554 0.220866
    23 0.000000 -0.359712 0.000000 0.000000 0.000000 0.000000
    24 -0.170480 -2.636147 -0.277656 -1.692969 0.000000 0.000000
    25 0.010599 -1.261176 0.000001 -0.253073 0.000000 0.000000
    26 -0.000001 -0.943232 -0.000002 -0.532326 0.000000 0.000000
    27 -0.827563 -2.508973 -0.277657 -1.396263 0.000000 0.000000
    28 -0.000001 -1.292972 0.000000 -0.445059 0.000000 0.000000
    29 0.000000 -0.752466 -0.000001 -0.445059 0.000000 0.000000
    30 0.444211 -2.561960 -0.277656 -1.727307 -0.046226 -0.024599
    31 0.021020 -1.208185 0.000000 -0.427606 0.000000 0.000000
    32 0.010596 -0.741866 -0.000001 -0.453786 0.000000 0.000000
    33 1.047444 -2.222821 -0.277656 -1.508123 -0.078971 -0.038609
    34 0.000000 -0.996223 0.000000 -0.863938 0.000000 0.000000
    35 -0.000001 -0.614690 0.000000 -0.523599 0.000000 0.000000
    36 -0.308255 -0.007814 0.307166 -0.145110 -0.159878 -2.467082
    37 1.978379 0.019543 0.000000 -0.087921 -0.056961 -0.023672
    38 0.982426 0.003186 0.000000 0.000000 0.000000 0.418879
    39 -1.122644 -2.197476 -0.281120 -0.933746 0.000001 -0.087266
    40 0.007812 -0.964973 0.000001 -0.610853 0.000000 0.000000
    41 -0.007812 -0.630317 0.000000 -1.213004 0.000000 0.000000
  time 16
    0 8.606581 3.165656 -8.096399 -0.774287 -1.331380 0.567298
    1 0.000000 -8.563283 -0.000001 0.347509 -0.125220 -0.169570
    2 -0.834451 -3.073736 0.513625 -1.247037 1.437608 -1.233844
    3 0.000000 2.160510 0.950626 0.000000 0.000000 0.000000
    4 0.000000 -3.344303 1.710279 0.000000 0.000000 0.000000
    5 0.000000 -4.793800 0.448359 0.000000 0.000000 0.000000
    6 0.000000 -6.345618 1.761433 0.000000 0.000000 0.000000
    7 0.000000 -5.765820 2.989244 0.000000 0.000000 0.000000
    8 -0.003480 -0.404829 0.000000 0.000000 0.000000 0.000000
    9 -0.519309 -2.501155 -0.278957 -1.003564 0.000000 -0.122173
    10 -0.010598 -1.208185 0.000000 -1.090831 0.000000 0.000000
    11 0.000000 -0.763066 -0.000001 -1.343903 0.000000 0.000000
    12 0.105981 -2.607134 -0.278957 -0.890118 0.000000 -0.148353
    13 0.000000 -1.250579 0.000000 -1.213004 0.000000 0.000000
    14 0.000000 -0.932634 0.000000 -1.483530 0.000000 0.000000
    15 0.763064 -2.490557 -0.278957 -0.235619 0.000000 0.130900
    16 -0.012322 -1.280918 0.000000 -0.349066 0.000000 0.000000
    17 -0.001697 -0.749371 0.000000 -0.593412 0.000000 0.000000
    18 0.354567 0.016267 0.318133 0.342077 -0.443527 -1.083976
    19 1.887165 0.012878 0.000000 -0.305433 0.000000 -0.401426
    20 1.001875 -0.000270 0.000000 0.000000 0.000000 -0.488692
    21 0.176275 -10.373125 -10.080679 -0.554979 0.255020 0.648698
    22 0.089929 -8.543161 0.000000 0.512980 0.031489 0.240363
    23 0.000000 -0.359712 0.000000 0.000000 0.000000 0.000000
    24 -0.170480 -2.636147 -0.277656 -1.692969 0.000000 0.000000
    25 0.010599 -1.261176 0.000001 -0.253073 0.000000 0.000000
    26 -0.000001 -0.943232 -0.000002 -0.532326 0.000000 0.000000
    27 -0.827563 -2.508973 -0.277657 -1.396263 0.000000 0.000000
    28 -0.000001 -1.292972 0.000000 -0.445059 0.000000 0.000000
    29 0.000000 -0.752466 -0.000001 -0.445059 0.000000 0.000000
    30 0.444211 -2.561960 -0.277656 -1.727307 -0.046226 -0.024599
    31 0.021020 -1.208185 0.000000 -0.427606 0.000000 0.000000
    32 0.010596 -0.741866 -0.000001 -0.453786 0.000000 0.000000
    33 1.047444 -2.222821 -0.277656 -1.508123 -0.078971 -0.038609
    34 0.000000 -0.996223 0.000000 -0.863938 0.000000 0.000000
    35 -0.000001 -0.614690 0.000000 -0.523599 0.000000 0.000000
    36 -0.308255 -0.007814 0.307166 -0.145110 -0.159878 -2.467082
    37 1.978379 0.019543 0.000000 -0.087921 -0.056961 -0.023672
    38 0.982426 0.003186 0.000000 0.000000 0.000000 0.418879
    39 -1.122644 -2.197476 -0.281120 -0.933746 0.000001 -0.087266
    40 0.007812 -0.964973 0.000001 -0.610853 0.000000 0.000000
    41 -0.007812 -0.630317 0.000000 -1.213004 0.000000 0.000000
end
