version 1
nodes
  0 "Bone_Root" -1
  1 "Bone01" 0
  2 "Bone_Lefthand" 1
  3 "m95_root" 2
  4 "trigger" 3
  5 "magazine" 3
  6 "load" 3
  7 "Bone04" 0
  8 "Bone_Righthand" 7
  9 "Bone39" 8
  10 "Bone40" 9
  11 "Bone41" 10
  12 "Bone35" 8
  13 "Bone36" 12
  14 "Bone37" 13
  15 "Bone31" 8
  16 "Bone32" 15
  17 "Bone33" 16
  18 "Bone43" 8
  19 "Bone44" 18
  20 "Bone45" 19
  21 "Bone27" 8
  22 "Bone28" 21
  23 "Bone29" 22
  24 "Bone_Se_Hand-R" 8
  25 "Bone13" 2
  26 "Bone14" 25
  27 "Bone15" 26
  28 "Bone17" 2
  29 "Bone18" 28
  30 "Bone19" 29
  31 "Bone21" 2
  32 "Bone22" 31
  33 "Bone23" 32
  34 "Bone09" 2
  35 "Bone10" 34
  36 "Bone11" 35
  37 "Bone05" 2
  38 "Bone06" 37
  39 "Bone07" 38
  40 "Bone_Se_Hand-L" 2
end
skeleton
  time 0
    0 0.000000 0.000000 0.027345 1.171080 -0.523308 -0.018360
    1 6.208814 4.865604 -6.974305 6.073778 -1.608787 0.168982
    2 -0.071918 -8.498732 -0.104137 0.062640 0.281962 0.324796
    3 1.593155 -4.022238 1.585271 -0.246485 -0.031180 1.471049
    4 -0.663507 0.613433 -0.000001 0.000000 0.000001 1.576097
    5 6.222712 -0.236896 -0.000001 0.000001 0.000000 1.576097
    6 3.353899 -1.140598 0.000000 0.000001 0.000000 0.005300
    7 -1.895024 -4.667909 -7.564449 -0.136807 -5.766780 0.518213
    8 0.096944 -8.450418 -0.009364 -0.319761 -0.008217 -0.011183
    9 0.447952 -2.798983 -0.200442 -0.853455 -0.010396 0.265094
    10 -0.032910 -1.480206 0.004936 -0.491716 0.000000 0.000002
    11 -0.027022 -1.076919 -0.020212 -0.957838 0.000000 0.000000
    12 -0.249534 -2.846962 -0.174215 -0.481694 -0.000125 -0.008396
    13 0.043235 -1.683940 0.096014 -1.114674 0.002823 -0.000167
    14 0.031729 -1.160831 0.058836 -0.563744 0.000642 0.008372
    15 -0.963866 -2.785142 -0.085346 0.157291 0.162276 -0.191556
    16 0.028479 -1.403069 0.006271 -0.422378 0.000000 0.000000
    17 0.021413 -0.957782 0.020047 -0.432441 0.000000 0.000000
    18 1.164474 -2.543938 -0.170328 -1.138715 -0.013294 0.477915
    19 0.024033 -1.129042 0.017806 -0.367137 0.000000 0.000001
    20 0.014896 -0.883989 -0.019845 -0.584400 0.000000 0.000000
    21 -0.586770 -1.264475 0.200164 -0.286523 -0.333668 -2.448906
    22 1.522835 0.058681 0.016850 -0.136560 -0.487796 0.303376
    23 1.117948 0.048424 -0.005764 -0.007290 -0.024119 0.349599
    24 -0.139399 -0.111697 0.014397 0.285382 -0.030687 1.580508
    25 -0.488517 -2.755600 -0.228261 -1.119640 -0.066262 -0.107564
    26 0.039888 -1.479789 0.029853 -1.451658 0.000000 0.000000
    27 0.028786 -1.075730 -0.023111 -0.870565 0.000000 0.000000
    28 0.250028 -2.820664 -0.238396 -0.916633 -0.083577 -0.024886
    29 -0.049759 -1.680545 0.100480 -1.550922 0.000000 -0.000002
    30 -0.034141 -1.148312 0.084779 -1.087313 0.000000 0.000000
    31 0.957766 -2.746776 -0.090301 -0.415794 -0.220354 -0.008740
    32 -0.033419 -1.397128 -0.011255 -0.247860 0.000000 -0.000001
    33 -0.022361 -0.957434 0.018783 -0.519741 0.000000 0.000000
    34 -1.180680 -2.507215 -0.193861 -0.747365 0.130011 -0.054388
    35 -0.024966 -1.123935 0.017594 -1.414285 0.000000 0.000001
    36 -0.020057 -0.890966 0.010091 -0.846171 0.000000 0.000000
    37 0.583510 -1.197274 0.185377 0.631273 -1.323135 -0.918160
    38 1.535926 0.010244 0.005008 -0.124883 0.065220 -0.956793
    39 1.100770 0.004526 -0.010676 -0.014685 0.006877 -0.956472
    40 0.120152 -0.050266 -0.054488 0.287568 3.110905 1.561085
  time 1
    0 0.000000 0.000000 0.027345 1.162824 -0.519507 -0.018217
    1 6.208814 4.865604 -6.974305 6.073778 -1.608787 0.168982
    2 -0.071918 -8.498732 -0.104137 0.062640 0.281962 0.324796
    3 1.593155 -4.022238 1.585271 -0.246485 -0.031180 1.471049
    4 -0.663507 0.613433 -0.000001 0.000000 0.000001 1.576097
    5 6.222712 -0.236896 -0.000001 0.000001 0.000000 1.576097
    6 3.353899 -1.140598 0.000000 0.000001 0.000000 0.005300
    7 -1.895024 -4.667909 -7.564449 -0.136807 -5.766780 0.518213
    8 0.096944 -8.450418 -0.009364 -0.319761 -0.008217 -0.011183
    9 0.447952 -2.798983 -0.200442 -0.853455 -0.010396 0.265094
    10 -0.032910 -1.480206 0.004936 -0.491716 0.000000 0.000002
    11 -0.027022 -1.076919 -0.020212 -0.957838 0.000000 0.000000
    12 -0.249534 -2.846962 -0.174215 -0.481694 -0.000125 -0.008396
    13 0.043235 -1.683940 0.096014 -1.114674 0.002823 -0.000167
    14 0.031729 -1.160831 0.058836 -0.563744 0.000642 0.008372
    15 -0.963866 -2.785142 -0.085346 0.157291 0.162276 -0.191556
    16 0.028479 -1.403069 0.006271 -0.422378 0.000000 0.000000
    17 0.021413 -0.957782 0.020047 -0.432441 0.000000 0.000000
    18 1.164474 -2.543938 -0.170328 -1.138715 -0.013294 0.477915
    19 0.024033 -1.129042 0.017806 -0.367137 0.000000 0.000001
    20 0.014896 -0.883989 -0.019845 -0.584400 0.000000 0.000000
    21 -0.586770 -1.264475 0.200164 -0.286523 -0.333668 -2.448906
    22 1.522835 0.058681 0.016850 -0.136560 -0.487796 0.303376
    23 1.117948 0.048424 -0.005764 -0.007290 -0.024119 0.349599
    24 -0.139399 -0.111697 0.014397 0.285382 -0.030687 1.580508
    25 -0.488517 -2.755600 -0.228261 -1.119640 -0.066262 -0.107564
    26 0.039888 -1.479789 0.029853 -1.451658 0.000000 0.000000
    27 0.028786 -1.075730 -0.023111 -0.870565 0.000000 0.000000
    28 0.250028 -2.820664 -0.238396 -0.916633 -0.083577 -0.024886
    29 -0.049759 -1.680545 0.100480 -1.550922 0.000000 -0.000002
    30 -0.034141 -1.148312 0.084779 -1.087281 0.000000 0.000000
    31 0.957766 -2.746776 -0.090301 -0.415794 -0.220354 -0.008740
    32 -0.033419 -1.397128 -0.011255 -0.247860 0.000000 -0.000001
    33 -0.022361 -0.957434 0.018783 -0.519741 0.000000 0.000000
    34 -1.180680 -2.507215 -0.193861 -0.747365 0.130011 -0.054388
    35 -0.024966 -1.123935 0.017594 -1.414285 0.000000 0.000001
    36 -0.020057 -0.890966 0.010091 -0.846171 0.000000 0.000000
    37 0.583510 -1.197274 0.185377 0.631273 -1.323135 -0.918160
    38 1.535926 0.010244 0.005008 -0.124883 0.065220 -0.956793
    39 1.100770 0.004526 -0.010676 -0.014685 0.006877 -0.956472
    40 0.120152 -0.050266 -0.054488 0.287568 3.110905 1.561085
  time 2
    0 0.000000 0.000000 0.027345 1.139200 -0.508647 -0.017833
    1 6.208814 4.865604 -6.966492 6.073778 -1.608787 0.168982
    2 -0.071918 -8.498732 -0.104137 0.062640 0.281962 0.324796
    3 1.593155 -4.022238 1.585271 -0.246485 -0.031180 1.471049
    4 -0.663507 0.613433 -0.000001 0.000000 0.000001 1.576097
    5 6.222712 -0.236896 -0.000001 0.000001 0.000000 1.576097
    6 3.353899 -1.140598 0.000000 0.000001 0.000000 0.005300
    7 -1.895024 -4.667909 -7.564449 -0.136807 -5.766780 0.518213
    8 0.096944 -8.450418 -0.009364 -0.319761 -0.008217 -0.011183
    9 0.447952 -2.798983 -0.200442 -0.853455 -0.010396 0.265094
    10 -0.032910 -1.480206 0.004936 -0.491716 0.000000 0.000002
    11 -0.027022 -1.076919 -0.020212 -0.957838 0.000000 0.000000
    12 -0.249534 -2.846962 -0.174215 -0.481694 -0.000125 -0.008396
    13 0.043235 -1.683940 0.096014 -1.114674 0.002823 -0.000167
    14 0.031729 -1.160831 0.058836 -0.563744 0.000642 0.008372
    15 -0.963866 -2.785142 -0.085346 0.157291 0.162276 -0.191556
    16 0.028479 -1.403069 0.006271 -0.422378 0.000000 0.000000
    17 0.021413 -0.957782 0.020047 -0.432441 0.000000 0.000000
    18 1.164474 -2.543938 -0.170328 -1.138715 -0.013294 0.477915
    19 0.024033 -1.129042 0.017806 -0.367137 0.000000 0.000001
    20 0.014896 -0.883989 -0.019845 -0.584400 0.000000 0.000000
    21 -0.586770 -1.264475 0.200164 -0.286523 -0.333668 -2.448906
    22 1.522835 0.058681 0.016850 -0.136560 -0.487796 0.303376
    23 1.117948 0.048424 -0.005764 -0.007290 -0.024119 0.349599
    24 -0.139399 -0.111697 0.014397 0.285382 -0.030687 1.580508
    25 -0.488517 -2.755600 -0.228261 -1.119640 -0.066262 -0.107564
    26 0.039888 -1.479789 0.029853 -1.451658 0.000000 0.000000
    27 0.028786 -1.075730 -0.023111 -0.870565 0.000000 0.000000
    28 0.250028 -2.820664 -0.238396 -0.916633 -0.083577 -0.024886
    29 -0.049759 -1.680545 0.100480 -1.550922 0.000000 -0.000002
    30 -0.034141 -1.148312 0.084779 -1.087281 0.000000 0.000000
    31 0.957766 -2.746776 -0.090301 -0.415794 -0.220354 -0.008740
    32 -0.033419 -1.397128 -0.011255 -0.247860 0.000000 -0.000001
    33 -0.022361 -0.957434 0.018783 -0.519741 0.000000 0.000000
    34 -1.180680 -2.507215 -0.193861 -0.747365 0.130011 -0.054388
    35 -0.024966 -1.123935 0.017594 -1.414285 0.000000 0.000001
    36 -0.020057 -0.890966 0.010091 -0.846171 0.000000 0.000000
    37 0.583510 -1.197274 0.185377 0.631273 -1.323135 -0.918160
    38 1.535926 0.010244 0.005008 -0.124883 0.065220 -0.956793
    39 1.100770 0.004526 -0.010676 -0.014685 0.006877 -0.956472
    40 0.120152 -0.050266 -0.054488 0.287568 3.110905 1.561085
  time 3
    0 0.000000 0.000000 0.027345 1.101886 -0.491512 -0.017258
    1 6.208814 4.869510 -6.958680 6.073778 -1.608787 0.168982
    2 -0.071918 -8.498732 -0.104137 0.062640 0.281962 0.324796
    3 1.593155 -4.022238 1.585271 -0.246485 -0.031180 1.471049
    4 -0.663507 0.613433 -0.000001 0.000000 0.000001 1.576097
    5 6.222712 -0.236896 -0.000001 0.000001 0.000000 1.576097
    6 3.353899 -1.140598 0.000000 0.000001 0.000000 0.005300
    7 -1.895024 -4.667909 -7.564449 -0.136807 -5.766780 0.518213
    8 0.096944 -8.450418 -0.009364 -0.319761 -0.008217 -0.011183
    9 0.447952 -2.798983 -0.200442 -0.853455 -0.010396 0.265094
    10 -0.032910 -1.480206 0.004936 -0.491716 0.000000 0.000002
    11 -0.027022 -1.076919 -0.020212 -0.957838 0.000000 0.000000
    12 -0.249534 -2.846962 -0.174215 -0.481694 -0.000125 -0.008396
    13 0.043235 -1.683940 0.096014 -1.114674 0.002823 -0.000167
    14 0.031729 -1.160831 0.058836 -0.563744 0.000642 0.008372
    15 -0.963866 -2.785142 -0.085346 0.157291 0.162276 -0.191556
    16 0.028479 -1.403069 0.006271 -0.422378 0.000000 0.000000
    17 0.021413 -0.957782 0.020047 -0.432441 0.000000 0.000000
    18 1.164474 -2.543938 -0.170328 -1.138715 -0.013294 0.477915
    19 0.024033 -1.129042 0.017806 -0.367137 0.000000 0.000001
    20 0.014896 -0.883989 -0.019845 -0.584400 0.000000 0.000000
    21 -0.586770 -1.264475 0.200164 -0.286523 -0.333668 -2.448906
    22 1.522835 0.058681 0.016850 -0.136560 -0.487796 0.303376
    23 1.117948 0.048424 -0.005764 -0.007290 -0.024119 0.349599
    24 -0.139399 -0.111697 0.014397 0.285382 -0.030687 1.580508
    25 -0.488517 -2.755600 -0.228261 -1.119640 -0.066262 -0.107564
    26 0.039888 -1.479789 0.029853 -1.451658 0.000000 0.000000
    27 0.028786 -1.075730 -0.023111 -0.870565 0.000000 0.000000
    28 0.250028 -2.820664 -0.238396 -0.916633 -0.083577 -0.024886
    29 -0.049759 -1.680545 0.100480 -1.550922 0.000000 -0.000002
    30 -0.034141 -1.148312 0.084779 -1.087281 0.000000 0.000000
    31 0.957766 -2.746776 -0.090301 -0.415794 -0.220354 -0.008740
    32 -0.033419 -1.397128 -0.011255 -0.247860 0.000000 -0.000001
    33 -0.022361 -0.957434 0.018783 -0.519741 0.000000 0.000000
    34 -1.180680 -2.507215 -0.193861 -0.747365 0.130011 -0.054388
    35 -0.024966 -1.123935 0.017594 -1.414285 0.000000 0.000001
    36 -0.020057 -0.890966 0.010091 -0.846171 0.000000 0.000000
    37 0.583510 -1.197274 0.185377 0.631273 -1.323135 -0.918160
    38 1.535926 0.010244 0.005008 -0.124883 0.065220 -0.956793
    39 1.100770 0.004526 -0.010676 -0.014685 0.006877 -0.956472
    40 0.120152 -0.050266 -0.054488 0.287568 3.110905 1.561085
  time 4
    0 0.000000 0.000000 0.027345 1.052600 -0.468882 -0.016443
    1 6.208814 4.869510 -6.950867 6.073778 -1.608787 0.168982
    2 -0.071918 -8.498732 -0.104137 0.062640 0.281962 0.324796
    3 1.593155 -4.022238 1.585271 -0.246485 -0.031180 1.471049
    4 -0.663507 0.613433 -0.000001 0.000000 0.000001 1.576097
    5 6.222712 -0.236896 -0.000001 0.000001 0.000000 1.576097
    6 3.353899 -1.140598 0.000000 0.000001 0.000000 0.005300
    7 -1.895024 -4.667909 -7.564449 -0.136807 -5.766780 0.518213
    8 0.096944 -8.450418 -0.009364 -0.319761 -0.008217 -0.011183
    9 0.447952 -2.798983 -0.200442 -0.853455 -0.010396 0.265094
    10 -0.032910 -1.480206 0.004936 -0.491716 0.000000 0.000002
    11 -0.027022 -1.076919 -0.020212 -0.957838 0.000000 0.000000
    12 -0.249534 -2.846962 -0.174215 -0.481694 -0.000125 -0.008396
    13 0.043235 -1.683940 0.096014 -1.114674 0.002823 -0.000167
    14 0.031729 -1.160831 0.058836 -0.563744 0.000642 0.008372
    15 -0.963866 -2.785142 -0.085346 0.157291 0.162276 -0.191556
    16 0.028479 -1.403069 0.006271 -0.422378 0.000000 0.000000
    17 0.021413 -0.957782 0.020047 -0.432441 0.000000 0.000000
    18 1.164474 -2.543938 -0.170328 -1.138715 -0.013294 0.477915
    19 0.024033 -1.129042 0.017806 -0.367137 0.000000 0.000001
    20 0.014896 -0.883989 -0.019845 -0.584400 0.000000 0.000000
    21 -0.586770 -1.264475 0.200164 -0.286523 -0.333668 -2.448906
    22 1.522835 0.058681 0.016850 -0.136560 -0.487796 0.303376
    23 1.117948 0.048424 -0.005764 -0.007290 -0.024119 0.349599
    24 -0.139399 -0.111697 0.014397 0.285382 -0.030687 1.580508
    25 -0.488517 -2.755600 -0.228261 -1.119640 -0.066262 -0.107564
    26 0.039888 -1.479789 0.029853 -1.451658 0.000000 0.000000
    27 0.028786 -1.075730 -0.023111 -0.870565 0.000000 0.000000
    28 0.250028 -2.820664 -0.238396 -0.916633 -0.083577 -0.024886
    29 -0.049759 -1.680545 0.100480 -1.550922 0.000000 -0.000002
    30 -0.034141 -1.148312 0.084779 -1.087281 0.000000 0.000000
    31 0.957766 -2.746776 -0.090301 -0.415794 -0.220354 -0.008740
    32 -0.033419 -1.397128 -0.011255 -0.247860 0.000000 -0.000001
    33 -0.022361 -0.957434 0.018783 -0.519741 0.000000 0.000000
    34 -1.180680 -2.507215 -0.193861 -0.747365 0.130011 -0.054388
    35 -0.024966 -1.123935 0.017594 -1.414285 0.000000 0.000001
    36 -0.020057 -0.890966 0.010091 -0.846171 0.000000 0.000000
    37 0.583510 -1.197274 0.185377 0.631273 -1.323135 -0.918160
    38 1.535926 0.010244 0.005008 -0.124883 0.065220 -0.956793
    39 1.100770 0.004526 -0.010676 -0.014685 0.006877 -0.956472
    40 0.120152 -0.050266 -0.054488 0.287568 3.110905 1.561085
  time 5
    0 0.000000 0.000000 0.027345 0.993056 -0.441525 -0.015484
    1 6.208814 4.869510 -6.935241 6.073778 -1.608787 0.168982
    2 -0.071918 -8.498732 -0.104137 0.062640 0.281962 0.324796
    3 1.593155 -4.022238 1.585271 -0.246485 -0.031180 1.471049
    4 -0.663507 0.613433 -0.000001 0.000000 0.000001 1.576097
    5 6.222712 -0.236896 -0.000001 0.000001 0.000000 1.576097
    6 3.353899 -1.140598 0.000000 0.000001 0.000000 0.005300
    7 -1.895024 -4.667909 -7.564449 -0.136807 -5.766780 0.518213
    8 0.096944 -8.450418 -0.009364 -0.319761 -0.008217 -0.011183
    9 0.447952 -2.798983 -0.200442 -0.853455 -0.010396 0.265094
    10 -0.032910 -1.480206 0.004936 -0.491716 0.000000 0.000002
    11 -0.027022 -1.076919 -0.020212 -0.957838 0.000000 0.000000
    12 -0.249534 -2.846962 -0.174215 -0.481694 -0.000125 -0.008396
    13 0.043235 -1.683940 0.096014 -1.114674 0.002823 -0.000167
    14 0.031729 -1.160831 0.058836 -0.563744 0.000642 0.008372
    15 -0.963866 -2.785142 -0.085346 0.157291 0.162276 -0.191556
    16 0.028479 -1.403069 0.006271 -0.422378 0.000000 0.000000
    17 0.021413 -0.957782 0.020047 -0.432441 0.000000 0.000000
    18 1.164474 -2.543938 -0.170328 -1.138715 -0.013294 0.477915
    19 0.024033 -1.129042 0.017806 -0.367137 0.000000 0.000001
    20 0.014896 -0.883989 -0.019845 -0.584400 0.000000 0.000000
    21 -0.586770 -1.264475 0.200164 -0.286523 -0.333668 -2.448906
    22 1.522835 0.058681 0.016850 -0.136560 -0.487796 0.303376
    23 1.117948 0.048424 -0.005764 -0.007290 -0.024119 0.349599
    24 -0.139399 -0.111697 0.014397 0.285382 -0.030687 1.580508
    25 -0.488517 -2.755600 -0.228261 -1.119640 -0.066262 -0.107564
    26 0.039888 -1.479789 0.029853 -1.451658 0.000000 0.000000
    27 0.028786 -1.075730 -0.023111 -0.870565 0.000000 0.000000
    28 0.250028 -2.820664 -0.238396 -0.916633 -0.083577 -0.024886
    29 -0.049759 -1.680545 0.100480 -1.550922 0.000000 -0.000002
    30 -0.034141 -1.148312 0.084779 -1.087281 0.000000 0.000000
    31 0.957766 -2.746776 -0.090301 -0.415794 -0.220354 -0.008740
    32 -0.033419 -1.397128 -0.011255 -0.247860 0.000000 -0.000001
    33 -0.022361 -0.957434 0.018783 -0.519741 0.000000 0.000000
    34 -1.180680 -2.507215 -0.193861 -0.747365 0.130011 -0.054388
    35 -0.024966 -1.123935 0.017594 -1.414285 0.000000 0.000001
    36 -0.020057 -0.890966 0.010091 -0.846171 0.000000 0.000000
    37 0.583510 -1.197274 0.185377 0.631273 -1.323135 -0.918160
    38 1.535926 0.010244 0.005008 -0.124883 0.065220 -0.956793
    39 1.100770 0.004526 -0.010676 -0.014685 0.006877 -0.956472
    40 0.120152 -0.050266 -0.054488 0.287568 3.110905 1.561085
  time 6
    0 0.000000 0.000000 0.027345 0.925005 -0.410272 -0.014381
    1 6.208814 4.869510 -6.923522 6.073778 -1.608787 0.168982
    2 -0.071918 -8.498732 -0.104137 0.062640 0.281962 0.324796
    3 1.593155 -4.022238 1.585271 -0.246485 -0.031180 1.471049
    4 -0.663507 0.613433 -0.000001 0.000000 0.000001 1.576097
    5 6.222712 -0.236896 -0.000001 0.000001 0.000000 1.576097
    6 3.353899 -1.140598 0.000000 0.000001 0.000000 0.005300
    7 -1.895024 -4.667909 -7.564449 -0.136807 -5.766780 0.518213
    8 0.096944 -8.450418 -0.009364 -0.319761 -0.008217 -0.011183
    9 0.447952 -2.798983 -0.200442 -0.853455 -0.010396 0.265094
    10 -0.032910 -1.480206 0.004936 -0.491716 0.000000 0.000002
    11 -0.027022 -1.076919 -0.020212 -0.957838 0.000000 0.000000
    12 -0.249534 -2.846962 -0.174215 -0.481694 -0.000125 -0.008396
    13 0.043235 -1.683940 0.096014 -1.114674 0.002823 -0.000167
    14 0.031729 -1.160831 0.058836 -0.563744 0.000642 0.008372
    15 -0.963866 -2.785142 -0.085346 0.157291 0.162276 -0.191556
    16 0.028479 -1.403069 0.006271 -0.422378 0.000000 0.000000
    17 0.021413 -0.957782 0.020047 -0.432441 0.000000 0.000000
    18 1.164474 -2.543938 -0.170328 -1.138715 -0.013294 0.477915
    19 0.024033 -1.129042 0.017806 -0.367137 0.000000 0.000001
    20 0.014896 -0.883989 -0.019845 -0.584400 0.000000 0.000000
    21 -0.586770 -1.264475 0.200164 -0.286523 -0.333668 -2.448906
    22 1.522835 0.058681 0.016850 -0.136560 -0.487796 0.303376
    23 1.117948 0.048424 -0.005764 -0.007290 -0.024119 0.349599
    24 -0.139399 -0.111697 0.014397 0.285382 -0.030687 1.580508
    25 -0.488517 -2.755600 -0.228261 -1.119640 -0.066262 -0.107564
    26 0.039888 -1.479789 0.029853 -1.451658 0.000000 0.000000
    27 0.028786 -1.075730 -0.023111 -0.870565 0.000000 0.000000
    28 0.250028 -2.820664 -0.238396 -0.916633 -0.083577 -0.024886
    29 -0.049759 -1.680545 0.100480 -1.550922 0.000000 -0.000002
    30 -0.034141 -1.148312 0.084779 -1.087313 0.000000 0.000000
    31 0.957766 -2.746776 -0.090301 -0.415794 -0.220354 -0.008740
    32 -0.033419 -1.397128 -0.011255 -0.247860 0.000000 -0.000001
    33 -0.022361 -0.957434 0.018783 -0.519741 0.000000 0.000000
    34 -1.180680 -2.507215 -0.193861 -0.747365 0.130011 -0.054388
    35 -0.024966 -1.123935 0.017594 -1.414285 0.000000 0.000001
    36 -0.020057 -0.890966 0.010091 -0.846171 0.000000 0.000000
    37 0.583510 -1.197274 0.185377 0.631273 -1.323135 -0.918160
    38 1.535926 0.010244 0.005008 -0.124883 0.065220 -0.956793
    39 1.100770 0.004526 -0.010676 -0.014685 0.006877 -0.956472
    40 0.120152 -0.050266 -0.054488 0.287568 3.110905 1.561085
  time 7
    0 0.000000 0.000000 0.027345 0.850093 -0.375856 -0.013183
    1 6.208814 4.869510 -6.903990 6.073778 -1.608787 0.168982
    2 -0.071918 -8.498732 -0.104137 0.062640 0.281962 0.324796
    3 1.593155 -4.022238 1.585271 -0.246485 -0.031180 1.471049
    4 -0.663507 0.613433 -0.000001 0.000000 0.000001 1.576097
    5 6.222712 -0.236896 -0.000001 0.000001 0.000000 1.576097
    6 3.353899 -1.140598 0.000000 0.000001 0.000000 0.005300
    7 -1.895024 -4.667909 -7.564449 -0.136807 -5.766780 0.518213
    8 0.096944 -8.450418 -0.009364 -0.319761 -0.008217 -0.011183
    9 0.447952 -2.798983 -0.200442 -0.853455 -0.010396 0.265094
    10 -0.032910 -1.480206 0.004936 -0.491716 0.000000 0.000002
    11 -0.027022 -1.076919 -0.020212 -0.957838 0.000000 0.000000
    12 -0.249534 -2.846962 -0.174215 -0.481694 -0.000125 -0.008396
    13 0.043235 -1.683940 0.096014 -1.114674 0.002823 -0.000167
    14 0.031729 -1.160831 0.058836 -0.563744 0.000642 0.008372
    15 -0.963866 -2.785142 -0.085346 0.157291 0.162276 -0.191556
    16 0.028479 -1.403069 0.006271 -0.422378 0.000000 0.000000
    17 0.021413 -0.957782 0.020047 -0.432441 0.000000 0.000000
    18 1.164474 -2.543938 -0.170328 -1.138715 -0.013294 0.477915
    19 0.024033 -1.129042 0.017806 -0.367137 0.000000 0.000001
    20 0.014896 -0.883989 -0.019845 -0.584400 0.000000 0.000000
    21 -0.586770 -1.264475 0.200164 -0.286523 -0.333668 -2.448906
    22 1.522835 0.058681 0.016850 -0.136560 -0.487796 0.303376
    23 1.117948 0.048424 -0.005764 -0.007290 -0.024119 0.349599
    24 -0.139399 -0.111697 0.014397 0.285382 -0.030687 1.580508
    25 -0.488517 -2.755600 -0.228261 -1.119640 -0.066262 -0.107564
    26 0.039888 -1.479789 0.029853 -1.451658 0.000000 0.000000
    27 0.028786 -1.075730 -0.023111 -0.870565 0.000000 0.000000
    28 0.250028 -2.820664 -0.238396 -0.916633 -0.083577 -0.024886
    29 -0.049759 -1.680545 0.100480 -1.550922 0.000000 -0.000002
    30 -0.034141 -1.148312 0.084779 -1.087281 0.000000 0.000000
    31 0.957766 -2.746776 -0.090301 -0.415794 -0.220354 -0.008740
    32 -0.033419 -1.397128 -0.011255 -0.247860 0.000000 -0.000001
    33 -0.022361 -0.957434 0.018783 -0.519741 0.000000 0.000000
    34 -1.180680 -2.507215 -0.193861 -0.747365 0.130011 -0.054388
    35 -0.024966 -1.123935 0.017594 -1.414285 0.000000 0.000001
    36 -0.020057 -0.890966 0.010091 -0.846171 0.000000 0.000000
    37 0.583510 -1.197274 0.185377 0.631273 -1.323135 -0.918160
    38 1.535926 0.010244 0.005008 -0.124883 0.065220 -0.956793
    39 1.100770 0.004526 -0.010676 -0.014685 0.006877 -0.956472
    40 0.120152 -0.050266 -0.054488 0.287568 3.110905 1.561085
  time 8
    0 0.000000 0.000000 0.027345 0.770034 -0.339093 -0.011889
    1 6.208814 4.869510 -6.888365 6.073778 -1.608787 0.168982
    2 -0.071918 -8.498732 -0.104137 0.062640 0.281962 0.324796
    3 1.593155 -4.022238 1.585271 -0.246485 -0.031180 1.471049
    4 -0.663507 0.613433 -0.000001 0.000000 0.000001 1.576097
    5 6.222712 -0.236896 -0.000001 0.000001 0.000000 1.576097
    6 3.353899 -1.140598 0.000000 0.000001 0.000000 0.005300
    7 -1.895024 -4.667909 -7.564449 -0.136807 -5.766780 0.518213
    8 0.096944 -8.450418 -0.009364 -0.319761 -0.008217 -0.011183
    9 0.447952 -2.798983 -0.200442 -0.853455 -0.010396 0.265094
    10 -0.032910 -1.480206 0.004936 -0.491716 0.000000 0.000002
    11 -0.027022 -1.076919 -0.020212 -0.957838 0.000000 0.000000
    12 -0.249534 -2.846962 -0.174215 -0.481694 -0.000125 -0.008396
    13 0.043235 -1.683940 0.096014 -1.114674 0.002823 -0.000167
    14 0.031729 -1.160831 0.058836 -0.563744 0.000642 0.008372
    15 -0.963866 -2.785142 -0.085346 0.157291 0.162276 -0.191556
    16 0.028479 -1.403069 0.006271 -0.422378 0.000000 0.000000
    17 0.021413 -0.957782 0.020047 -0.432441 0.000000 0.000000
    18 1.164474 -2.543938 -0.170328 -1.138715 -0.013294 0.477915
    19 0.024033 -1.129042 0.017806 -0.367137 0.000000 0.000001
    20 0.014896 -0.883989 -0.019845 -0.584400 0.000000 0.000000
    21 -0.586770 -1.264475 0.200164 -0.286523 -0.333668 -2.448906
    22 1.522835 0.058681 0.016850 -0.136560 -0.487796 0.303376
    23 1.117948 0.048424 -0.005764 -0.007290 -0.024119 0.349599
    24 -0.139399 -0.111697 0.014397 0.285382 -0.030687 1.580508
    25 -0.488517 -2.755600 -0.228261 -1.119640 -0.066262 -0.107564
    26 0.039888 -1.479789 0.029853 -1.451658 0.000000 0.000000
    27 0.028786 -1.075730 -0.023111 -0.870565 0.000000 0.000000
    28 0.250028 -2.820664 -0.238396 -0.916633 -0.083577 -0.024886
    29 -0.049759 -1.680545 0.100480 -1.550922 0.000000 -0.000002
    30 -0.034141 -1.148312 0.084779 -1.087281 0.000000 0.000000
    31 0.957766 -2.746776 -0.090301 -0.415794 -0.220354 -0.008740
    32 -0.033419 -1.397128 -0.011255 -0.247860 0.000000 -0.000001
    33 -0.022361 -0.957434 0.018783 -0.519741 0.000000 0.000000
    34 -1.180680 -2.507215 -0.193861 -0.747365 0.130011 -0.054388
    35 -0.024966 -1.123935 0.017594 -1.414285 0.000000 0.000001
    36 -0.020057 -0.890966 0.010091 -0.846171 0.000000 0.000000
    37 0.583510 -1.197274 0.185377 0.631273 -1.323135 -0.918160
    38 1.535926 0.010244 0.005008 -0.124883 0.065220 -0.956793
    39 1.100770 0.004526 -0.010676 -0.014685 0.006877 -0.956472
    40 0.120152 -0.050266 -0.054488 0.287568 3.110905 1.561085
  time 9
    0 0.000000 0.000000 0.027345 0.686579 -0.300765 -0.010546
    1 6.208814 4.869510 -6.872739 6.073778 -1.608787 0.168982
    2 -0.071918 -8.498732 -0.104137 0.062640 0.281962 0.324796
    3 1.593155 -4.022238 1.585271 -0.246485 -0.031180 1.471049
    4 -0.663507 0.613433 -0.000001 0.000000 0.000001 1.576097
    5 6.222712 -0.236896 -0.000001 0.000001 0.000000 1.576097
    6 3.353899 -1.140598 0.000000 0.000001 0.000000 0.005300
    7 -1.895024 -4.667909 -7.564449 -0.136807 -5.766780 0.518213
    8 0.096944 -8.450418 -0.009364 -0.319761 -0.008217 -0.011183
    9 0.447952 -2.798983 -0.200442 -0.853455 -0.010396 0.265094
    10 -0.032910 -1.480206 0.004936 -0.491716 0.000000 0.000002
    11 -0.027022 -1.076919 -0.020212 -0.957838 0.000000 0.000000
    12 -0.249534 -2.846962 -0.174215 -0.481694 -0.000125 -0.008396
    13 0.043235 -1.683940 0.096014 -1.114674 0.002823 -0.000167
    14 0.031729 -1.160831 0.058836 -0.563744 0.000642 0.008372
    15 -0.963866 -2.785142 -0.085346 0.157291 0.162276 -0.191556
    16 0.028479 -1.403069 0.006271 -0.422378 0.000000 0.000000
    17 0.021413 -0.957782 0.020047 -0.432441 0.000000 0.000000
    18 1.164474 -2.543938 -0.170328 -1.138715 -0.013294 0.477915
    19 0.024033 -1.129042 0.017806 -0.367137 0.000000 0.000001
    20 0.014896 -0.883989 -0.019845 -0.584400 0.000000 0.000000
    21 -0.586770 -1.264475 0.200164 -0.286523 -0.333668 -2.448906
    22 1.522835 0.058681 0.016850 -0.136560 -0.487796 0.303376
    23 1.117948 0.048424 -0.005764 -0.007290 -0.024119 0.349599
    24 -0.139399 -0.111697 0.014397 0.285382 -0.030687 1.580508
    25 -0.488517 -2.755600 -0.228261 -1.119640 -0.066262 -0.107564
    26 0.039888 -1.479789 0.029853 -1.451658 0.000000 0.000000
    27 0.028786 -1.075730 -0.023111 -0.870565 0.000000 0.000000
    28 0.250028 -2.820664 -0.238396 -0.916633 -0.083577 -0.024886
    29 -0.049759 -1.680545 0.100480 -1.550922 0.000000 -0.000002
    30 -0.034141 -1.148312 0.084779 -1.087281 0.000000 0.000000
    31 0.957766 -2.746776 -0.090301 -0.415794 -0.220354 -0.008740
    32 -0.033419 -1.397128 -0.011255 -0.247860 0.000000 -0.000001
    33 -0.022361 -0.957434 0.018783 -0.519741 0.000000 0.000000
    34 -1.180680 -2.507215 -0.193861 -0.747365 0.130011 -0.054388
    35 -0.024966 -1.123935 0.017594 -1.414285 0.000000 0.000001
    36 -0.020057 -0.890966 0.010091 -0.846171 0.000000 0.000000
    37 0.583510 -1.197274 0.185377 0.631273 -1.323135 -0.918160
    38 1.535926 0.010244 0.005008 -0.124883 0.065220 -0.956793
    39 1.100770 0.004526 -0.010676 -0.014685 0.006877 -0.956472
    40 0.120152 -0.050266 -0.054488 0.287568 3.110905 1.561085
  time 10
    0 0.000000 0.000000 0.027345 0.601409 -0.261654 -0.009204
    1 6.208814 4.869510 -6.853208 6.073778 -1.608787 0.168982
    2 -0.071918 -8.498732 -0.104137 0.062640 0.281962 0.324796
    3 1.593155 -4.022238 1.585271 -0.246485 -0.031180 1.471049
    4 -0.663507 0.613433 -0.000001 0.000000 0.000001 1.576097
    5 6.222712 -0.236896 -0.000001 0.000001 0.000000 1.576097
    6 3.353899 -1.140598 0.000000 0.000001 0.000000 0.005300
    7 -1.895024 -4.667909 -7.564449 -0.136807 -5.766780 0.518213
    8 0.096944 -8.450418 -0.009364 -0.319761 -0.008217 -0.011183
    9 0.447952 -2.798983 -0.200442 -0.853455 -0.010396 0.265094
    10 -0.032910 -1.480206 0.004936 -0.491716 0.000000 0.000002
    11 -0.027022 -1.076919 -0.020212 -0.957838 0.000000 0.000000
    12 -0.249534 -2.846962 -0.174215 -0.481694 -0.000125 -0.008396
    13 0.043235 -1.683940 0.096014 -1.114674 0.002823 -0.000167
    14 0.031729 -1.160831 0.058836 -0.563744 0.000642 0.008372
    15 -0.963866 -2.785142 -0.085346 0.157291 0.162276 -0.191556
    16 0.028479 -1.403069 0.006271 -0.422378 0.000000 0.000000
    17 0.021413 -0.957782 0.020047 -0.432441 0.000000 0.000000
    18 1.164474 -2.543938 -0.170328 -1.138715 -0.013294 0.477915
    19 0.024033 -1.129042 0.017806 -0.367137 0.000000 0.000001
    20 0.014896 -0.883989 -0.019845 -0.584400 0.000000 0.000000
    21 -0.586770 -1.264475 0.200164 -0.286523 -0.333668 -2.448906
    22 1.522835 0.058681 0.016850 -0.136560 -0.487796 0.303376
    23 1.117948 0.048424 -0.005764 -0.007290 -0.024119 0.349599
    24 -0.139399 -0.111697 0.014397 0.285382 -0.030687 1.580508
    25 -0.488517 -2.755600 -0.228261 -1.119640 -0.066262 -0.107564
    26 0.039888 -1.479789 0.029853 -1.451658 0.000000 0.000000
    27 0.028786 -1.075730 -0.023111 -0.870565 0.000000 0.000000
    28 0.250028 -2.820664 -0.238396 -0.916633 -0.083577 -0.024886
    29 -0.049759 -1.680545 0.100480 -1.550922 0.000000 -0.000002
    30 -0.034141 -1.148312 0.084779 -1.087313 0.000000 0.000000
    31 0.957766 -2.746776 -0.090301 -0.415794 -0.220354 -0.008740
    32 -0.033419 -1.397128 -0.011255 -0.247860 0.000000 -0.000001
    33 -0.022361 -0.957434 0.018783 -0.519741 0.000000 0.000000
    34 -1.180680 -2.507215 -0.193861 -0.747365 0.130011 -0.054388
    35 -0.024966 -1.123935 0.017594 -1.414285 0.000000 0.000001
    36 -0.020057 -0.890966 0.010091 -0.846171 0.000000 0.000000
    37 0.583510 -1.197274 0.185377 0.631273 -1.323135 -0.918160
    38 1.535926 0.010244 0.005008 -0.124883 0.065220 -0.956793
    39 1.100770 0.004526 -0.010676 -0.014685 0.006877 -0.956472
    40 0.120152 -0.050266 -0.054488 0.287568 3.110905 1.561085
  time 11
    0 0.000000 0.000000 0.027345 0.516239 -0.222527 -0.007814
    1 6.208814 4.873416 -6.833676 6.073778 -1.608787 0.168982
    2 -0.071918 -8.498732 -0.104137 0.062640 0.281962 0.324796
    3 1.593155 -4.022238 1.585271 -0.246485 -0.031180 1.471049
    4 -0.663507 0.613433 -0.000001 0.000000 0.000001 1.576097
    5 6.222712 -0.236896 -0.000001 0.000001 0.000000 1.576097
    6 3.353899 -1.140598 0.000000 0.000001 0.000000 0.005300
    7 -1.895024 -4.667909 -7.564449 -0.136807 -5.766780 0.518213
    8 0.096944 -8.450418 -0.009364 -0.319761 -0.008217 -0.011183
    9 0.447952 -2.798983 -0.200442 -0.853455 -0.010396 0.265094
    10 -0.032910 -1.480206 0.004936 -0.491716 0.000000 0.000002
    11 -0.027022 -1.076919 -0.020212 -0.957838 0.000000 0.000000
    12 -0.249534 -2.846962 -0.174215 -0.481694 -0.000125 -0.008396
    13 0.043235 -1.683940 0.096014 -1.114674 0.002823 -0.000167
    14 0.031729 -1.160831 0.058836 -0.563744 0.000642 0.008372
    15 -0.963866 -2.785142 -0.085346 0.157291 0.162276 -0.191556
    16 0.028479 -1.403069 0.006271 -0.422378 0.000000 0.000000
    17 0.021413 -0.957782 0.020047 -0.432441 0.000000 0.000000
    18 1.164474 -2.543938 -0.170328 -1.138715 -0.013294 0.477915
    19 0.024033 -1.129042 0.017806 -0.367137 0.000000 0.000001
    20 0.014896 -0.883989 -0.019845 -0.584400 0.000000 0.000000
    21 -0.586770 -1.264475 0.200164 -0.286523 -0.333668 -2.448906
    22 1.522835 0.058681 0.016850 -0.136560 -0.487796 0.303376
    23 1.117948 0.048424 -0.005764 -0.007290 -0.024119 0.349599
    24 -0.139399 -0.111697 0.014397 0.285382 -0.030687 1.580508
    25 -0.488517 -2.755600 -0.228261 -1.119640 -0.066262 -0.107564
    26 0.039888 -1.479789 0.029853 -1.451658 0.000000 0.000000
    27 0.028786 -1.075730 -0.023111 -0.870565 0.000000 0.000000
    28 0.250028 -2.820664 -0.238396 -0.916633 -0.083577 -0.024886
    29 -0.049759 -1.680545 0.100480 -1.550922 0.000000 -0.000002
    30 -0.034141 -1.148312 0.084779 -1.087281 0.000000 0.000000
    31 0.957766 -2.746776 -0.090301 -0.415794 -0.220354 -0.008740
    32 -0.033419 -1.397128 -0.011255 -0.247860 0.000000 -0.000001
    33 -0.022361 -0.957434 0.018783 -0.519741 0.000000 0.000000
    34 -1.180680 -2.507215 -0.193861 -0.747365 0.130011 -0.054388
    35 -0.024966 -1.123935 0.017594 -1.414285 0.000000 0.000001
    36 -0.020057 -0.890966 0.010091 -0.846171 0.000000 0.000000
    37 0.583510 -1.197274 0.185377 0.631273 -1.323135 -0.918160
    38 1.535926 0.010244 0.005008 -0.124883 0.065220 -0.956793
    39 1.100770 0.004526 -0.010676 -0.014685 0.006877 -0.956472
    40 0.120152 -0.050266 -0.054488 0.287568 3.110905 1.561085
  time 12
    0 0.000000 0.000000 0.027345 0.432784 -0.184199 -0.006472
    1 6.208814 4.873416 -6.818050 6.073778 -1.608787 0.168982
    2 -0.071918 -8.498732 -0.104137 0.062640 0.281962 0.324796
    3 1.593155 -4.022238 1.585271 -0.246485 -0.031180 1.471049
    4 -0.663507 0.613433 -0.000001 0.000000 0.000001 1.576097
    5 6.222712 -0.236896 -0.000001 0.000001 0.000000 1.576097
    6 3.353899 -1.140598 0.000000 0.000001 0.000000 0.005300
    7 -1.895024 -4.667909 -7.564449 -0.136807 -5.766780 0.518213
    8 0.096944 -8.450418 -0.009364 -0.319761 -0.008217 -0.011183
    9 0.447952 -2.798983 -0.200442 -0.853455 -0.010396 0.265094
    10 -0.032910 -1.480206 0.004936 -0.491716 0.000000 0.000002
    11 -0.027022 -1.076919 -0.020212 -0.957838 0.000000 0.000000
    12 -0.249534 -2.846962 -0.174215 -0.481694 -0.000125 -0.008396
    13 0.043235 -1.683940 0.096014 -1.114674 0.002823 -0.000167
    14 0.031729 -1.160831 0.058836 -0.563744 0.000642 0.008372
    15 -0.963866 -2.785142 -0.085346 0.157291 0.162276 -0.191556
    16 0.028479 -1.403069 0.006271 -0.422378 0.000000 0.000000
    17 0.021413 -0.957782 0.020047 -0.432441 0.000000 0.000000
    18 1.164474 -2.543938 -0.170328 -1.138715 -0.013294 0.477915
    19 0.024033 -1.129042 0.017806 -0.367137 0.000000 0.000001
    20 0.014896 -0.883989 -0.019845 -0.584400 0.000000 0.000000
    21 -0.586770 -1.264475 0.200164 -0.286523 -0.333668 -2.448906
    22 1.522835 0.058681 0.016850 -0.136560 -0.487796 0.303376
    23 1.117948 0.048424 -0.005764 -0.007290 -0.024119 0.349599
    24 -0.139399 -0.111697 0.014397 0.285382 -0.030687 1.580508
    25 -0.488517 -2.755600 -0.228261 -1.119640 -0.066262 -0.107564
    26 0.039888 -1.479789 0.029853 -1.451658 0.000000 0.000000
    27 0.028786 -1.075730 -0.023111 -0.870565 0.000000 0.000000
    28 0.250028 -2.820664 -0.238396 -0.916633 -0.083577 -0.024886
    29 -0.049759 -1.680545 0.100480 -1.550922 0.000000 -0.000002
    30 -0.034141 -1.148312 0.084779 -1.087281 0.000000 0.000000
    31 0.957766 -2.746776 -0.090301 -0.415794 -0.220354 -0.008740
    32 -0.033419 -1.397128 -0.011255 -0.247860 0.000000 -0.000001
    33 -0.022361 -0.957434 0.018783 -0.519741 0.000000 0.000000
    34 -1.180680 -2.507215 -0.193861 -0.747365 0.130011 -0.054388
    35 -0.024966 -1.123935 0.017594 -1.414285 0.000000 0.000001
    36 -0.020057 -0.890966 0.010091 -0.846171 0.000000 0.000000
    37 0.583510 -1.197274 0.185377 0.631273 -1.323135 -0.918160
    38 1.535926 0.010244 0.005008 -0.124883 0.065220 -0.956793
    39 1.100770 0.004526 -0.010676 -0.014685 0.006877 -0.956472
    40 0.120152 -0.050266 -0.054488 0.287568 3.110905 1.561085
  time 13
    0 0.000000 0.000000 0.027345 0.352761 -0.147436 -0.005177
    1 6.208814 4.873416 -6.798518 6.073778 -1.608787 0.168982
    2 -0.071918 -8.498732 -0.104137 0.062640 0.281962 0.324796
    3 1.593155 -4.022238 1.585271 -0.246485 -0.031180 1.471049
    4 -0.663507 0.613433 -0.000001 0.000000 0.000001 1.576097
    5 6.222712 -0.236896 -0.000001 0.000001 0.000000 1.576097
    6 3.353899 -1.140598 0.000000 0.000001 0.000000 0.005300
    7 -1.895024 -4.667909 -7.564449 -0.136807 -5.766780 0.518213
    8 0.096944 -8.450418 -0.009364 -0.319761 -0.008217 -0.011183
    9 0.447952 -2.798983 -0.200442 -0.853455 -0.010396 0.265094
    10 -0.032910 -1.480206 0.004936 -0.491716 0.000000 0.000002
    11 -0.027022 -1.076919 -0.020212 -0.957838 0.000000 0.000000
    12 -0.249534 -2.846962 -0.174215 -0.481694 -0.000125 -0.008396
    13 0.043235 -1.683940 0.096014 -1.114674 0.002823 -0.000167
    14 0.031729 -1.160831 0.058836 -0.563744 0.000642 0.008372
    15 -0.963866 -2.785142 -0.085346 0.157291 0.162276 -0.191556
    16 0.028479 -1.403069 0.006271 -0.422378 0.000000 0.000000
    17 0.021413 -0.957782 0.020047 -0.432441 0.000000 0.000000
    18 1.164474 -2.543938 -0.170328 -1.138715 -0.013294 0.477915
    19 0.024033 -1.129042 0.017806 -0.367137 0.000000 0.000001
    20 0.014896 -0.883989 -0.019845 -0.584400 0.000000 0.000000
    21 -0.586770 -1.264475 0.200164 -0.286523 -0.333668 -2.448906
    22 1.522835 0.058681 0.016850 -0.136560 -0.487796 0.303376
    23 1.117948 0.048424 -0.005764 -0.007290 -0.024119 0.349599
    24 -0.139399 -0.111697 0.014397 0.285382 -0.030687 1.580508
    25 -0.488517 -2.755600 -0.228261 -1.119640 -0.066262 -0.107564
    26 0.039888 -1.479789 0.029853 -1.451658 0.000000 0.000000
    27 0.028786 -1.075730 -0.023111 -0.870565 0.000000 0.000000
    28 0.250028 -2.820664 -0.238396 -0.916633 -0.083577 -0.024886
    29 -0.049759 -1.680545 0.100480 -1.550922 0.000000 -0.000002
    30 -0.034141 -1.148312 0.084779 -1.087281 0.000000 0.000000
    31 0.957766 -2.746776 -0.090301 -0.415794 -0.220354 -0.008740
    32 -0.033419 -1.397128 -0.011255 -0.247860 0.000000 -0.000001
    33 -0.022361 -0.957434 0.018783 -0.519741 0.000000 0.000000
    34 -1.180680 -2.507215 -0.193861 -0.747365 0.130011 -0.054388
    35 -0.024966 -1.123935 0.017594 -1.414285 0.000000 0.000001
    36 -0.020057 -0.890966 0.010091 -0.846171 0.000000 0.000000
    37 0.583510 -1.197274 0.185377 0.631273 -1.323135 -0.918160
    38 1.535926 0.010244 0.005008 -0.124883 0.065220 -0.956793
    39 1.100770 0.004526 -0.010676 -0.014685 0.006877 -0.956472
    40 0.120152 -0.050266 -0.054488 0.287568 3.110905 1.561085
  time 14
    0 0.000000 0.000000 0.027345 0.277848 -0.113020 -0.003979
    1 6.208814 4.873416 -6.782893 6.073778 -1.608787 0.168982
    2 -0.071918 -8.498732 -0.104137 0.062640 0.281962 0.324796
    3 1.593155 -4.022238 1.585271 -0.246485 -0.031180 1.471049
    4 -0.663507 0.613433 -0.000001 0.000000 0.000001 1.576097
    5 6.222712 -0.236896 -0.000001 0.000001 0.000000 1.576097
    6 3.353899 -1.140598 0.000000 0.000001 0.000000 0.005300
    7 -1.895024 -4.667909 -7.564449 -0.136807 -5.766780 0.518213
    8 0.096944 -8.450418 -0.009364 -0.319761 -0.008217 -0.011183
    9 0.447952 -2.798983 -0.200442 -0.853455 -0.010396 0.265094
    10 -0.032910 -1.480206 0.004936 -0.491716 0.000000 0.000002
    11 -0.027022 -1.076919 -0.020212 -0.957838 0.000000 0.000000
    12 -0.249534 -2.846962 -0.174215 -0.481694 -0.000125 -0.008396
    13 0.043235 -1.683940 0.096014 -1.114674 0.002823 -0.000167
    14 0.031729 -1.160831 0.058836 -0.563744 0.000642 0.008372
    15 -0.963866 -2.785142 -0.085346 0.157291 0.162276 -0.191556
    16 0.028479 -1.403069 0.006271 -0.422378 0.000000 0.000000
    17 0.021413 -0.957782 0.020047 -0.432441 0.000000 0.000000
    18 1.164474 -2.543938 -0.170328 -1.138715 -0.013294 0.477915
    19 0.024033 -1.129042 0.017806 -0.367137 0.000000 0.000001
    20 0.014896 -0.883989 -0.019845 -0.584400 0.000000 0.000000
    21 -0.586770 -1.264475 0.200164 -0.286523 -0.333668 -2.448906
    22 1.522835 0.058681 0.016850 -0.123906 -0.488633 0.277063
    23 1.117948 0.048424 -0.005764 -0.007062 -0.024143 0.340594
    24 -0.139399 -0.111697 0.014397 0.285382 -0.030687 1.580508
    25 -0.488517 -2.755600 -0.228261 -1.119640 -0.066262 -0.107564
    26 0.039888 -1.479789 0.029853 -1.451658 0.000000 0.000000
    27 0.028786 -1.075730 -0.023111 -0.870565 0.000000 0.000000
    28 0.250028 -2.820664 -0.238396 -0.916633 -0.083577 -0.024886
    29 -0.049759 -1.680545 0.100480 -1.550922 0.000000 -0.000002
    30 -0.034141 -1.148312 0.084779 -1.087281 0.000000 0.000000
    31 0.957766 -2.746776 -0.090301 -0.415794 -0.220354 -0.008740
    32 -0.033419 -1.397128 -0.011255 -0.247860 0.000000 -0.000001
    33 -0.022361 -0.957434 0.018783 -0.519741 0.000000 0.000000
    34 -1.180680 -2.507215 -0.193861 -0.747365 0.130011 -0.054388
    35 -0.024966 -1.123935 0.017594 -1.414285 0.000000 0.000001
    36 -0.020057 -0.890966 0.010091 -0.846171 0.000000 0.000000
    37 0.583510 -1.197274 0.185377 0.631273 -1.323135 -0.918160
    38 1.535926 0.010244 0.005008 -0.124883 0.065220 -0.956793
    39 1.100770 0.004526 -0.010676 -0.014685 0.006877 -0.956472
    40 0.120152 -0.050266 -0.054488 0.287568 3.110905 1.561085
  time 15
    0 0.000000 0.000000 0.027345 0.209762 -0.081767 -0.002876
    1 6.208814 4.873416 -6.767267 6.073778 -1.608787 0.168982
    2 -0.071918 -8.498732 -0.104137 0.062640 0.281962 0.324796
    3 1.593155 -4.022238 1.585271 -0.246485 -0.031180 1.471049
    4 -0.663507 0.613433 -0.000001 0.000000 0.000001 1.576097
    5 6.222712 -0.236896 -0.000001 0.000001 0.000000 1.576097
    6 3.353899 -1.140598 0.000000 0.000001 0.000000 0.005300
    7 -1.895024 -4.667909 -7.564449 -0.136807 -5.766780 0.518213
    8 0.096944 -8.450418 -0.009364 -0.319761 -0.008217 -0.011183
    9 0.447952 -2.798983 -0.200442 -0.853455 -0.010396 0.265094
    10 -0.032910 -1.480206 0.004936 -0.491716 0.000000 0.000002
    11 -0.027022 -1.076919 -0.020212 -0.957838 0.000000 0.000000
    12 -0.249534 -2.846962 -0.174215 -0.481694 -0.000125 -0.008396
    13 0.043235 -1.683940 0.096014 -1.114674 0.002823 -0.000167
    14 0.031729 -1.160831 0.058836 -0.563744 0.000642 0.008372
    15 -0.963866 -2.785142 -0.085346 0.157291 0.162276 -0.191556
    16 0.028479 -1.403069 0.006271 -0.422378 0.000000 0.000000
    17 0.021413 -0.957782 0.020047 -0.432441 0.000000 0.000000
    18 1.164474 -2.543938 -0.170328 -1.138715 -0.013294 0.477915
    19 0.024033 -1.129042 0.017806 -0.367137 0.000000 0.000001
    20 0.014896 -0.883989 -0.019845 -0.584400 0.000000 0.000000
    21 -0.586770 -1.264475 0.200164 -0.286523 -0.333668 -2.448906
    22 1.522835 0.058681 0.016850 -0.091275 -0.490843 0.209225
    23 1.117948 0.048424 -0.005764 -0.006439 -0.024179 0.315637
    24 -0.139399 -0.111697 0.014397 0.285382 -0.030687 1.580508
    25 -0.488517 -2.755600 -0.228261 -1.119640 -0.066262 -0.107564
    26 0.039888 -1.479789 0.029853 -1.451658 0.000000 0.000000
    27 0.028786 -1.075730 -0.023111 -0.870565 0.000000 0.000000
    28 0.250028 -2.820664 -0.238396 -0.916633 -0.083577 -0.024886
    29 -0.049759 -1.680545 0.100480 -1.550922 0.000000 -0.000002
    30 -0.034141 -1.148312 0.084779 -1.087313 0.000000 0.000000
    31 0.957766 -2.746776 -0.090301 -0.415794 -0.220354 -0.008740
    32 -0.033419 -1.397128 -0.011255 -0.247860 0.000000 -0.000001
    33 -0.022361 -0.957434 0.018783 -0.519741 0.000000 0.000000
    34 -1.180680 -2.507215 -0.193861 -0.747365 0.130011 -0.054388
    35 -0.024966 -1.123935 0.017594 -1.414285 0.000000 0.000001
    36 -0.020057 -0.890966 0.010091 -0.846171 0.000000 0.000000
    37 0.583510 -1.197274 0.185377 0.631273 -1.323135 -0.918160
    38 1.535926 0.010244 0.005008 -0.124883 0.065220 -0.956793
    39 1.100770 0.004526 -0.010676 -0.014685 0.006877 -0.956472
    40 0.120152 -0.050266 -0.054488 0.287568 3.110905 1.561085
  time 16
    0 0.000000 0.000000 0.027345 0.150218 -0.054410 -0.001917
    1 6.208814 4.873416 -6.755548 6.073778 -1.608787 0.168982
    2 -0.071918 -8.498732 -0.104137 0.060640 0.282068 0.317721
    3 1.593155 -4.022238 1.585271 -0.246485 -0.031180 1.471049
    4 -0.663507 0.613433 -0.000001 0.000000 0.000001 1.576097
    5 6.222712 -0.236896 -0.000001 0.000001 0.000000 1.576097
    6 3.353899 -1.140598 0.000000 0.000001 0.000000 0.005300
    7 -1.895024 -4.667909 -7.564449 -0.136807 -5.766780 0.518213
    8 0.096944 -8.450418 -0.009364 -0.319761 -0.008217 -0.011183
    9 0.447952 -2.798983 -0.200442 -0.853455 -0.010396 0.265094
    10 -0.032910 -1.480206 0.004936 -0.491716 0.000000 0.000002
    11 -0.027022 -1.076919 -0.020212 -0.957838 0.000000 0.000000
    12 -0.249534 -2.846962 -0.174215 -0.481694 -0.000125 -0.008396
    13 0.043235 -1.683940 0.096014 -1.114674 0.002823 -0.000167
    14 0.031729 -1.160831 0.058836 -0.563744 0.000642 0.008372
    15 -0.963866 -2.785142 -0.085346 0.157291 0.162276 -0.191556
    16 0.028479 -1.403069 0.006271 -0.422378 0.000000 0.000000
    17 0.021413 -0.957782 0.020047 -0.432441 0.000000 0.000000
    18 1.164474 -2.543938 -0.170328 -1.138715 -0.013294 0.477915
    19 0.024033 -1.129042 0.017806 -0.367137 0.000000 0.000001
    20 0.014896 -0.883989 -0.019845 -0.584400 0.000000 0.000000
    21 -0.586770 -1.264475 0.200164 -0.286523 -0.333668 -2.448906
    22 1.522835 0.058681 0.016850 -0.046652 -0.493891 0.116479
    23 1.117948 0.048424 -0.005764 -0.005504 -0.024239 0.277931
    24 -0.139399 -0.111697 0.014397 0.285382 -0.030687 1.580508
    25 -0.488517 -2.755600 -0.228261 -1.119640 -0.066262 -0.107564
    26 0.039888 -1.479789 0.029853 -1.451658 0.000000 0.000000
    27 0.028786 -1.075730 -0.023111 -0.870565 0.000000 0.000000
    28 0.250028 -2.820664 -0.238396 -0.916633 -0.083577 -0.024886
    29 -0.049759 -1.680545 0.100480 -1.550922 0.000000 -0.000002
    30 -0.034141 -1.148312 0.084779 -1.087281 0.000000 0.000000
    31 0.957766 -2.746776 -0.090301 -0.415794 -0.220354 -0.008740
    32 -0.033419 -1.397128 -0.011255 -0.247860 0.000000 -0.000001
    33 -0.022361 -0.957434 0.018783 -0.519741 0.000000 0.000000
    34 -1.180680 -2.507215 -0.193861 -0.747365 0.130011 -0.054388
    35 -0.024966 -1.123935 0.017594 -1.414285 0.000000 0.000001
    36 -0.020057 -0.890966 0.010091 -0.846171 0.000000 0.000000
    37 0.583510 -1.197274 0.185377 0.631273 -1.323135 -0.918160
    38 1.535926 0.010244 0.005008 -0.124883 0.065220 -0.956793
    39 1.100770 0.004526 -0.010676 -0.014685 0.006877 -0.956472
    40 0.120152 -0.050266 -0.054488 0.287568 3.110905 1.561085
  time 17
    0 0.000000 0.000000 0.027345 0.100932 -0.031780 -0.001150
    1 6.208814 4.873416 -6.743829 6.073778 -1.608787 0.168982
    2 -0.071918 -8.498732 -0.104137 0.055200 0.282385 0.298474
    3 1.593155 -4.022238 1.585271 -0.246485 -0.031180 1.471049
    4 -0.663507 0.613433 -0.000001 0.000000 0.000001 1.576097
    5 6.222712 -0.236896 -0.000001 0.000001 0.000000 1.576097
    6 3.353899 -1.140598 0.000000 0.000001 0.000000 0.005300
    7 -1.895024 -4.667909 -7.564449 -0.136807 -5.766780 0.518213
    8 0.096944 -8.450418 -0.009364 -0.319761 -0.008217 -0.011183
    9 0.447952 -2.798983 -0.200442 -0.853455 -0.010396 0.265094
    10 -0.032910 -1.480206 0.004936 -0.491716 0.000000 0.000002
    11 -0.027022 -1.076919 -0.020212 -0.957838 0.000000 0.000000
    12 -0.249534 -2.846962 -0.174215 -0.481694 -0.000125 -0.008396
    13 0.043235 -1.683940 0.096014 -1.114674 0.002823 -0.000167
    14 0.031729 -1.160831 0.058836 -0.563744 0.000642 0.008372
    15 -0.963866 -2.785142 -0.085346 0.157291 0.162276 -0.191556
    16 0.028479 -1.403069 0.006271 -0.422378 0.000000 0.000000
    17 0.021413 -0.957782 0.020047 -0.432441 0.000000 0.000000
    18 1.164474 -2.543938 -0.170328 -1.138715 -0.013294 0.477915
    19 0.024033 -1.129042 0.017806 -0.367137 0.000000 0.000001
    20 0.014896 -0.883989 -0.019845 -0.584400 0.000000 0.000000
    21 -0.586770 -1.264475 0.200164 -0.286523 -0.333668 -2.448906
    22 1.522835 0.058681 0.016850 0.001946 -0.497173 0.015408
    23 1.117948 0.048424 -0.005764 -0.004330 -0.024311 0.230680
    24 -0.139399 -0.111697 0.014397 0.285382 -0.030687 1.580508
    25 -0.488517 -2.755600 -0.228261 -1.119640 -0.066262 -0.107564
    26 0.039888 -1.479789 0.029853 -1.451658 0.000000 0.000000
    27 0.028786 -1.075730 -0.023111 -0.870565 0.000000 0.000000
    28 0.250028 -2.820664 -0.238396 -0.916633 -0.083577 -0.024886
    29 -0.049759 -1.680545 0.100480 -1.550922 0.000000 -0.000002
    30 -0.034141 -1.148312 0.084779 -1.087281 0.000000 0.000000
    31 0.957766 -2.746776 -0.090301 -0.415794 -0.220354 -0.008740
    32 -0.033419 -1.397128 -0.011255 -0.247860 0.000000 -0.000001
    33 -0.022361 -0.957434 0.018783 -0.519741 0.000000 0.000000
    34 -1.180680 -2.507215 -0.193861 -0.747365 0.130011 -0.054388
    35 -0.024966 -1.123935 0.017594 -1.414285 0.000000 0.000001
    36 -0.020057 -0.890966 0.010091 -0.846171 0.000000 0.000000
    37 0.583510 -1.197274 0.185377 0.631273 -1.323135 -0.918160
    38 1.535926 0.010244 0.005008 -0.124883 0.065220 -0.956793
    39 1.100770 0.004526 -0.010676 -0.014685 0.006877 -0.956472
    40 0.120152 -0.050266 -0.054488 0.287568 3.110905 1.561085
  time 18
    0 0.000000 0.000000 0.027345 0.063618 -0.014645 -0.000527
    1 6.208814 4.873416 -6.736016 6.073778 -1.608787 0.168982
    2 -0.071918 -8.498732 -0.104137 0.047199 0.282834 0.270140
    3 1.593155 -4.022238 1.585271 -0.246485 -0.031180 1.471049
    4 -0.663507 0.613433 -0.000001 0.000000 0.000001 1.576097
    5 6.222712 -0.236896 -0.000001 0.000001 0.000000 1.576097
    6 3.353899 -1.140598 0.000000 0.000001 0.000000 0.005300
    7 -1.895024 -4.667909 -7.564449 -0.136807 -5.766780 0.518213
    8 0.096944 -8.450418 -0.009364 -0.319761 -0.008217 -0.011183
    9 0.447952 -2.798983 -0.200442 -0.853455 -0.010396 0.265094
    10 -0.032910 -1.480206 0.004936 -0.491716 0.000000 0.000002
    11 -0.027022 -1.076919 -0.020212 -0.957838 0.000000 0.000000
    12 -0.249534 -2.846962 -0.174215 -0.481694 -0.000125 -0.008396
    13 0.043235 -1.683940 0.096014 -1.114674 0.002823 -0.000167
    14 0.031729 -1.160831 0.058836 -0.563744 0.000642 0.008372
    15 -0.963866 -2.785142 -0.085346 0.157291 0.162276 -0.191556
    16 0.028479 -1.403069 0.006271 -0.422378 0.000000 0.000000
    17 0.021413 -0.957782 0.020047 -0.432441 0.000000 0.000000
    18 1.164474 -2.543938 -0.170328 -1.138715 -0.013294 0.477915
    19 0.024033 -1.129042 0.017806 -0.367137 0.000000 0.000001
    20 0.014896 -0.883989 -0.019845 -0.584400 0.000000 0.000000
    21 -0.586770 -1.264475 0.200164 -0.286523 -0.333668 -2.448906
    22 1.522835 0.058681 0.016850 0.046569 -0.500220 -0.077305
    23 1.117948 0.048424 -0.005764 -0.002987 -0.024407 0.177022
    24 -0.139399 -0.111697 0.014397 0.285382 -0.030687 1.580508
    25 -0.488517 -2.755600 -0.228261 -1.119640 -0.066262 -0.107564
    26 0.039888 -1.479789 0.029853 -1.451658 0.000000 0.000000
    27 0.028786 -1.075730 -0.023111 -0.870565 0.000000 0.000000
    28 0.250028 -2.820664 -0.238396 -0.916633 -0.083577 -0.024886
    29 -0.049759 -1.680545 0.100480 -1.550922 0.000000 -0.000002
    30 -0.034141 -1.148312 0.084779 -1.087281 0.000000 0.000000
    31 0.957766 -2.746776 -0.090301 -0.415794 -0.220354 -0.008740
    32 -0.033419 -1.397128 -0.011255 -0.247860 0.000000 -0.000001
    33 -0.022361 -0.957434 0.018783 -0.519741 0.000000 0.000000
    34 -1.180680 -2.507215 -0.193861 -0.747365 0.130011 -0.054388
    35 -0.024966 -1.123935 0.017594 -1.414285 0.000000 0.000001
    36 -0.020057 -0.890966 0.010091 -0.846171 0.000000 0.000000
    37 0.583510 -1.197274 0.185377 0.631273 -1.323135 -0.918160
    38 1.535926 0.010244 0.005008 -0.124883 0.065220 -0.956793
    39 1.100770 0.004526 -0.010676 -0.014685 0.006877 -0.956472
    40 0.120152 -0.050266 -0.054488 0.287568 3.110905 1.561085
  time 19
    0 0.000000 0.000000 0.027345 0.039994 -0.003785 -0.000144
    1 6.208814 4.873416 -6.732110 6.073778 -1.608787 0.168982
    2 -0.071918 -8.498732 -0.104137 0.037439 0.283415 0.235704
    3 1.593155 -4.022238 1.585271 -0.246485 -0.031180 1.471049
    4 -0.663507 0.613433 -0.000001 0.000000 0.000001 1.576097
    5 6.222712 -0.236896 -0.000001 0.000001 0.000000 1.576097
    6 3.353899 -1.140598 0.000000 0.000001 0.000000 0.005300
    7 -1.895024 -4.667909 -7.564449 -0.136807 -5.766780 0.518213
    8 0.096944 -8.450418 -0.009364 -0.300479 -0.029374 -0.003968
    9 0.447952 -2.798983 -0.200442 -0.853455 -0.010396 0.265094
    10 -0.032910 -1.480206 0.004936 -0.491716 0.000000 0.000002
    11 -0.027022 -1.076919 -0.020212 -0.957838 0.000000 0.000000
    12 -0.249534 -2.846962 -0.174215 -0.481694 -0.000125 -0.008396
    13 0.043235 -1.683940 0.096014 -1.114674 0.002823 -0.000167
    14 0.031729 -1.160831 0.058836 -0.563744 0.000642 0.008372
    15 -0.963866 -2.785142 -0.085346 0.157291 0.162276 -0.191556
    16 0.028479 -1.403069 0.006271 -0.422378 0.000000 0.000000
    17 0.021413 -0.957782 0.020047 -0.432441 0.000000 0.000000
    18 1.164474 -2.543938 -0.170328 -1.138715 -0.013294 0.477915
    19 0.024033 -1.129042 0.017806 -0.367137 0.000000 0.000001
    20 0.014896 -0.883989 -0.019845 -0.584400 0.000000 0.000000
    21 -0.586770 -1.264475 0.200164 -0.286523 -0.333668 -2.448906
    22 1.522835 0.058681 0.016850 0.079200 -0.502430 -0.145143
    23 1.117948 0.048424 -0.005764 -0.001573 -0.024491 0.120227
    24 -0.139399 -0.111697 0.014397 0.285382 -0.030687 1.580508
    25 -0.488517 -2.755600 -0.228261 -1.119640 -0.066262 -0.107564
    26 0.039888 -1.479789 0.029853 -1.451658 0.000000 0.000000
    27 0.028786 -1.075730 -0.023111 -0.870565 0.000000 0.000000
    28 0.250028 -2.820664 -0.238396 -0.916633 -0.083577 -0.024886
    29 -0.049759 -1.680545 0.100480 -1.550922 0.000000 -0.000002
    30 -0.034141 -1.148312 0.084779 -1.087313 0.000000 0.000000
    31 0.957766 -2.746776 -0.090301 -0.415794 -0.220354 -0.008740
    32 -0.033419 -1.397128 -0.011255 -0.247860 0.000000 -0.000001
    33 -0.022361 -0.957434 0.018783 -0.519741 0.000000 0.000000
    34 -1.180680 -2.507215 -0.193861 -0.747365 0.130011 -0.054388
    35 -0.024966 -1.123935 0.017594 -1.414285 0.000000 0.000001
    36 -0.020057 -0.890966 0.010091 -0.846171 0.000000 0.000000
    37 0.583510 -1.197274 0.185377 0.631273 -1.323135 -0.918160
    38 1.535926 0.010244 0.005008 -0.124883 0.065220 -0.956793
    39 1.100770 0.004526 -0.010676 -0.014685 0.006877 -0.956472
    40 0.120152 -0.050266 -0.054488 0.287568 3.110905 1.561085
  time 20
    0 0.000000 0.000000 0.027345 0.031738 0.000000 0.000000
    1 6.208814 4.873416 -6.732110 6.073778 -1.608787 0.168982
    2 -0.071918 -8.498732 -0.104137 0.026878 0.284050 0.198215
    3 1.593155 -4.022238 1.585271 -0.246485 -0.031180 1.471049
    4 -0.663507 0.613433 -0.000001 0.000000 0.000001 1.576097
    5 6.222712 -0.236896 -0.000001 0.000001 0.000000 1.576097
    6 3.353899 -1.140598 0.000000 0.000001 0.000000 0.005300
    7 -1.895024 -4.667909 -7.564449 -0.136807 -5.766780 0.518213
    8 0.096944 -8.450418 -0.009364 -0.252292 -0.082274 0.014129
    9 0.447952 -2.798983 -0.200442 -0.853455 -0.010396 0.265094
    10 -0.032910 -1.480206 0.004936 -0.491716 0.000000 0.000002
    11 -0.027022 -1.076919 -0.020212 -0.957838 0.000000 0.000000
    12 -0.249534 -2.846962 -0.174215 -0.481694 -0.000125 -0.008396
    13 0.043235 -1.683940 0.096014 -1.114674 0.002823 -0.000167
    14 0.031729 -1.160831 0.058836 -0.563744 0.000642 0.008372
    15 -0.963866 -2.785142 -0.085346 0.157291 0.162276 -0.191556
    16 0.028479 -1.403069 0.006271 -0.422378 0.000000 0.000000
    17 0.021413 -0.957782 0.020047 -0.432441 0.000000 0.000000
    18 1.164474 -2.543938 -0.170328 -1.138715 -0.013294 0.477915
    19 0.024033 -1.129042 0.017806 -0.367137 0.000000 0.000001
    20 0.014896 -0.883989 -0.019845 -0.584400 0.000000 0.000000
    21 -0.586770 -1.264475 0.200164 -0.286523 -0.333668 -2.448906
    22 1.522835 0.058681 0.016850 0.091854 -0.503301 -0.171456
    23 1.117948 0.048424 -0.005764 -0.000171 -0.024587 0.063432
    24 -0.139399 -0.111697 0.014397 0.285382 -0.030687 1.580508
    25 -0.488517 -2.755600 -0.228261 -1.119640 -0.066262 -0.107564
    26 0.039888 -1.479789 0.029853 -1.451658 0.000000 0.000000
    27 0.028786 -1.075730 -0.023111 -0.870565 0.000000 0.000000
    28 0.250028 -2.820664 -0.238396 -0.916633 -0.083577 -0.024886
    29 -0.049759 -1.680545 0.100480 -1.550922 0.000000 -0.000002
    30 -0.034141 -1.148312 0.084779 -1.087281 0.000000 0.000000
    31 0.957766 -2.746776 -0.090301 -0.415794 -0.220354 -0.008740
    32 -0.033419 -1.397128 -0.011255 -0.247860 0.000000 -0.000001
    33 -0.022361 -0.957434 0.018783 -0.519741 0.000000 0.000000
    34 -1.180680 -2.507215 -0.193861 -0.747365 0.130011 -0.054388
    35 -0.024966 -1.123935 0.017594 -1.414285 0.000000 0.000001
    36 -0.020057 -0.890966 0.010091 -0.846171 0.000000 0.000000
    37 0.583510 -1.197274 0.185377 0.631273 -1.323135 -0.918160
    38 1.535926 0.010244 0.005008 -0.124883 0.065220 -0.956793
    39 1.100770 0.004526 -0.010676 -0.014685 0.006877 -0.956472
    40 0.120152 -0.050266 -0.054488 0.287568 3.110905 1.561085
  time 21
    0 0.000000 0.000000 0.027345 0.035455 0.000000 0.000000
    1 6.208814 4.873416 -6.763361 6.073778 -1.608787 0.168982
    2 -0.071918 -8.498732 -0.104137 0.016277 0.284763 0.160761
    3 1.593155 -4.022238 1.585271 -0.246485 -0.031180 1.471049
    4 -0.663507 0.613433 -0.000001 0.000000 0.000001 1.576097
    5 6.222712 -0.236896 -0.000001 0.000001 0.000000 1.576097
    6 3.353899 -1.140598 0.000000 0.000001 0.000000 0.005300
    7 -1.895024 -4.667909 -7.564449 -0.133373 -5.766780 0.518213
    8 0.096944 -8.450418 -0.009364 -0.189652 -0.151051 0.037631
    9 0.447952 -2.798983 -0.200442 -0.853455 -0.010396 0.265094
    10 -0.032910 -1.480206 0.004936 -0.491716 0.000000 0.000002
    11 -0.027022 -1.076919 -0.020212 -0.957838 0.000000 0.000000
    12 -0.249534 -2.846962 -0.174215 -0.481694 -0.000125 -0.008396
    13 0.043235 -1.683940 0.096014 -1.114674 0.002823 -0.000167
    14 0.031729 -1.160831 0.058836 -0.563744 0.000642 0.008372
    15 -0.963866 -2.785142 -0.085346 0.157291 0.162276 -0.191556
    16 0.028479 -1.403069 0.006271 -0.422378 0.000000 0.000000
    17 0.021413 -0.957782 0.020047 -0.432441 0.000000 0.000000
    18 1.164474 -2.543938 -0.170328 -1.138715 -0.013294 0.477915
    19 0.024033 -1.129042 0.017806 -0.367137 0.000000 0.000001
    20 0.014896 -0.883989 -0.019845 -0.584400 0.000000 0.000000
    21 -0.586770 -1.264475 0.200164 -0.286523 -0.333668 -2.448906
    22 1.522835 0.058681 0.016850 0.070553 -0.502866 -0.127623
    23 1.117948 0.048424 -0.005764 0.001171 -0.024671 0.009807
    24 -0.139399 -0.111697 0.014397 0.285382 -0.030687 1.580508
    25 -0.488517 -2.755600 -0.228261 -1.119640 -0.066262 -0.107564
    26 0.039888 -1.479789 0.029853 -1.451658 0.000000 0.000000
    27 0.028786 -1.075730 -0.023111 -0.870565 0.000000 0.000000
    28 0.250028 -2.820664 -0.238396 -0.916633 -0.083577 -0.024886
    29 -0.049759 -1.680545 0.100480 -1.550922 0.000000 -0.000002
    30 -0.034141 -1.148312 0.084779 -1.087281 0.000000 0.000000
    31 0.957766 -2.746776 -0.090301 -0.415794 -0.220354 -0.008740
    32 -0.033419 -1.397128 -0.011255 -0.247860 0.000000 -0.000001
    33 -0.022361 -0.957434 0.018783 -0.519741 0.000000 0.000000
    34 -1.180680 -2.507215 -0.193861 -0.747365 0.130011 -0.054388
    35 -0.024966 -1.123935 0.017594 -1.414285 0.000000 0.000001
    36 -0.020057 -0.890966 0.010091 -0.846171 0.000000 0.000000
    37 0.583510 -1.197274 0.185377 0.631273 -1.323135 -0.918160
    38 1.535926 0.010244 0.005008 -0.124883 0.065220 -0.956793
    39 1.100770 0.004526 -0.010676 -0.014685 0.006877 -0.956472
    40 0.120152 -0.050266 -0.054488 0.287568 3.110905 1.561085
  time 22
    0 0.000000 0.000000 0.027345 0.044354 0.000000 0.000000
    1 6.208814 4.873416 -6.841488 6.073778 -1.608787 0.168982
    2 -0.071918 -8.498732 -0.104137 0.006516 0.285477 0.126324
    3 1.593155 -4.022238 1.585271 -0.246485 -0.031180 1.471049
    4 -0.663507 0.613433 -0.000001 0.000000 0.000001 1.576097
    5 6.222712 -0.236896 -0.000001 0.000001 0.000000 1.576097
    6 3.353899 -1.140598 0.000000 0.000001 0.000000 0.005300
    7 -1.895024 -4.667909 -7.564449 -0.125131 -5.766780 0.518213
    8 0.096944 -8.450418 -0.009364 -0.127012 -0.219815 0.061144
    9 0.447952 -2.798983 -0.200442 -0.853455 -0.010396 0.265094
    10 -0.032910 -1.480206 0.004936 -0.491716 0.000000 0.000002
    11 -0.027022 -1.076919 -0.020212 -0.957838 0.000000 0.000000
    12 -0.249534 -2.846962 -0.174215 -0.481694 -0.000125 -0.008396
    13 0.043235 -1.683940 0.096014 -1.114674 0.002823 -0.000167
    14 0.031729 -1.160831 0.058836 -0.563744 0.000642 0.008372
    15 -0.963866 -2.785142 -0.085346 0.157291 0.162276 -0.191556
    16 0.028479 -1.403069 0.006271 -0.422378 0.000000 0.000000
    17 0.021413 -0.957782 0.020047 -0.432441 0.000000 0.000000
    18 1.164474 -2.543938 -0.170328 -1.138715 -0.013294 0.477915
    19 0.024033 -1.129042 0.017806 -0.367137 0.000000 0.000001
    20 0.014896 -0.883989 -0.019845 -0.584400 0.000000 0.000000
    21 -0.586770 -1.264475 0.200164 -0.286523 -0.333668 -2.448906
    22 1.522835 0.058681 0.016850 0.019745 -0.501895 -0.023175
    23 1.117948 0.048424 -0.005764 0.002346 -0.024743 -0.037477
    24 -0.139399 -0.111697 0.014397 0.285382 -0.030687 1.580508
    25 -0.488517 -2.755600 -0.228261 -1.119640 -0.066262 -0.107564
    26 0.039888 -1.479789 0.029853 -1.451658 0.000000 0.000000
    27 0.028786 -1.075730 -0.023111 -0.870565 0.000000 0.000000
    28 0.250028 -2.820664 -0.238396 -0.916633 -0.083577 -0.024886
    29 -0.049759 -1.680545 0.100480 -1.550922 0.000000 -0.000002
    30 -0.034141 -1.148312 0.084779 -1.087281 0.000000 0.000000
    31 0.957766 -2.746776 -0.090301 -0.415794 -0.220354 -0.008740
    32 -0.033419 -1.397128 -0.011255 -0.247860 0.000000 -0.000001
    33 -0.022361 -0.957434 0.018783 -0.519741 0.000000 0.000000
    34 -1.180680 -2.507215 -0.193861 -0.747365 0.130011 -0.054388
    35 -0.024966 -1.123935 0.017594 -1.414285 0.000000 0.000001
    36 -0.020057 -0.890966 0.010091 -0.846171 0.000000 0.000000
    37 0.583510 -1.197274 0.185377 0.631273 -1.323135 -0.918160
    38 1.535926 0.010244 0.005008 -0.124883 0.065220 -0.956793
    39 1.100770 0.004526 -0.010676 -0.014685 0.006877 -0.956472
    40 0.120152 -0.050266 -0.054488 0.287568 3.110905 1.561085
  time 23
    0 0.000000 0.000000 0.027345 0.055005 0.000000 0.000000
    1 6.208814 4.869510 -6.931335 6.073778 -1.608787 0.168982
    2 -0.071918 -8.498732 -0.104137 -0.001484 0.286137 0.097991
    3 1.593155 -4.022238 1.585271 -0.246485 -0.031180 1.471049
    4 -0.663507 0.613433 -0.000001 0.000000 0.000001 1.576097
    5 6.222712 -0.236896 -0.000001 0.000001 0.000000 1.576097
    6 3.353899 -1.140598 0.000000 0.000001 0.000000 0.005300
    7 -1.895024 -4.667909 -7.564449 -0.115286 -5.766780 0.518213
    8 0.096944 -8.450418 -0.009364 -0.078825 -0.272714 0.079229
    9 0.447952 -2.798983 -0.200442 -0.853455 -0.010396 0.265094
    10 -0.032910 -1.480206 0.004936 -0.491716 0.000000 0.000002
    11 -0.027022 -1.076919 -0.020212 -0.957838 0.000000 0.000000
    12 -0.249534 -2.846962 -0.174215 -0.481694 -0.000125 -0.008396
    13 0.043235 -1.683940 0.096014 -1.114674 0.002823 -0.000167
    14 0.031729 -1.160831 0.058836 -0.563744 0.000642 0.008372
    15 -0.963866 -2.785142 -0.085346 0.157291 0.162276 -0.191556
    16 0.028479 -1.403069 0.006271 -0.422378 0.000000 0.000000
    17 0.021413 -0.957782 0.020047 -0.432441 0.000000 0.000000
    18 1.164474 -2.543938 -0.170328 -1.138715 -0.013294 0.477915
    19 0.024033 -1.129042 0.017806 -0.367137 0.000000 0.000001
    20 0.014896 -0.883989 -0.019845 -0.584400 0.000000 0.000000
    21 -0.586770 -1.264475 0.200164 -0.286523 -0.333668 -2.448906
    22 1.522835 0.058681 0.016850 -0.040877 -0.500722 0.101568
    23 1.117948 0.048424 -0.005764 0.003280 -0.024803 -0.075149
    24 -0.139399 -0.111697 0.014397 0.285382 -0.030687 1.580508
    25 -0.488517 -2.755600 -0.228261 -1.119640 -0.066262 -0.107564
    26 0.039888 -1.479789 0.029853 -1.451658 0.000000 0.000000
    27 0.028786 -1.075730 -0.023111 -0.870565 0.000000 0.000000
    28 0.250028 -2.820664 -0.238396 -0.916633 -0.083577 -0.024886
    29 -0.049759 -1.680545 0.100480 -1.550922 0.000000 -0.000002
    30 -0.034141 -1.148312 0.084779 -1.087313 0.000000 0.000000
    31 0.957766 -2.746776 -0.090301 -0.415794 -0.220354 -0.008740
    32 -0.033419 -1.397128 -0.011255 -0.247860 0.000000 -0.000001
    33 -0.022361 -0.957434 0.018783 -0.519741 0.000000 0.000000
    34 -1.180680 -2.507215 -0.193861 -0.747365 0.130011 -0.054388
    35 -0.024966 -1.123935 0.017594 -1.414285 0.000000 0.000001
    36 -0.020057 -0.890966 0.010091 -0.846171 0.000000 0.000000
    37 0.583510 -1.197274 0.185377 0.631273 -1.323135 -0.918160
    38 1.535926 0.010244 0.005008 -0.124883 0.065220 -0.956793
    39 1.100770 0.004526 -0.010676 -0.014685 0.006877 -0.956472
    40 0.120152 -0.050266 -0.054488 0.287568 3.110905 1.561085
  time 24
    0 0.000000 0.000000 0.027345 0.063904 0.000000 0.000000
    1 6.208814 4.865604 -7.009462 6.073778 -1.608787 0.168982
    2 -0.071918 -8.498732 -0.104137 -0.006925 0.286772 0.078743
    3 1.593155 -4.022238 1.585271 -0.246485 -0.031180 1.471049
    4 -0.663507 0.613433 -0.000001 0.000000 0.000001 1.576097
    5 6.222712 -0.236896 -0.000001 0.000001 0.000000 1.576097
    6 3.353899 -1.140598 0.000000 0.000001 0.000000 0.005300
    7 -1.895024 -4.667909 -7.564449 -0.107044 -5.766780 0.518213
    8 0.096944 -8.450418 -0.009364 -0.059543 -0.293871 0.086468
    9 0.447952 -2.798983 -0.200442 -0.853455 -0.010396 0.265094
    10 -0.032910 -1.480206 0.004936 -0.491716 0.000000 0.000002
    11 -0.027022 -1.076919 -0.020212 -0.957838 0.000000 0.000000
    12 -0.249534 -2.846962 -0.174215 -0.481694 -0.000125 -0.008396
    13 0.043235 -1.683940 0.096014 -1.114674 0.002823 -0.000167
    14 0.031729 -1.160831 0.058836 -0.563744 0.000642 0.008372
    15 -0.963866 -2.785142 -0.085346 0.157291 0.162276 -0.191556
    16 0.028479 -1.403069 0.006271 -0.422378 0.000000 0.000000
    17 0.021413 -0.957782 0.020047 -0.432441 0.000000 0.000000
    18 1.164474 -2.543938 -0.170328 -1.138715 -0.013294 0.477915
    19 0.024033 -1.129042 0.017806 -0.367137 0.000000 0.000001
    20 0.014896 -0.883989 -0.019845 -0.584400 0.000000 0.000000
    21 -0.586770 -1.264475 0.200164 -0.286523 -0.333668 -2.448906
    22 1.522835 0.058681 0.016850 -0.091669 -0.499751 0.206083
    23 1.117948 0.048424 -0.005764 0.003904 -0.024850 -0.100106
    24 -0.139399 -0.111697 0.014397 0.285382 -0.030687 1.580508
    25 -0.488517 -2.755600 -0.228261 -1.119640 -0.066262 -0.107564
    26 0.039888 -1.479789 0.029853 -1.451658 0.000000 0.000000
    27 0.028786 -1.075730 -0.023111 -0.870565 0.000000 0.000000
    28 0.250028 -2.820664 -0.238396 -0.916633 -0.083577 -0.024886
    29 -0.049759 -1.680545 0.100480 -1.550922 0.000000 -0.000002
    30 -0.034141 -1.148312 0.084779 -1.087281 0.000000 0.000000
    31 0.957766 -2.746776 -0.090301 -0.415794 -0.220354 -0.008740
    32 -0.033419 -1.397128 -0.011255 -0.247860 0.000000 -0.000001
    33 -0.022361 -0.957434 0.018783 -0.519741 0.000000 0.000000
    34 -1.180680 -2.507215 -0.193861 -0.747365 0.130011 -0.054388
    35 -0.024966 -1.123935 0.017594 -1.414285 0.000000 0.000001
    36 -0.020057 -0.890966 0.010091 -0.846171 0.000000 0.000000
    37 0.583510 -1.197274 0.185377 0.631273 -1.323135 -0.918160
    38 1.535926 0.010244 0.005008 -0.124883 0.065220 -0.956793
    39 1.100770 0.004526 -0.010676 -0.014685 0.006877 -0.956472
    40 0.120152 -0.050266 -0.054488 0.287568 3.110905 1.561085
  time 25
    0 0.000000 0.000000 0.027345 0.067621 0.000000 0.000000
    1 6.208814 4.865604 -7.040713 6.073778 -1.608787 0.168982
    2 -0.071918 -8.498732 -0.104137 -0.008925 0.287274 0.071669
    3 1.593155 -4.022238 1.585271 -0.246485 -0.031180 1.471049
    4 -0.663507 0.613433 -0.000001 0.000000 0.000001 1.576097
    5 6.222712 -0.236896 -0.000001 0.000001 0.000000 1.576097
    6 3.353899 -1.140598 0.000000 0.000001 0.000000 0.005300
    7 -1.895024 -4.667909 -7.564449 -0.103534 -5.766780 0.518213
    8 0.096944 -8.450418 -0.009364 -0.059543 -0.293871 0.086468
    9 0.447952 -2.798983 -0.200442 -0.853455 -0.010396 0.265094
    10 -0.032910 -1.480206 0.004936 -0.491716 0.000000 0.000002
    11 -0.027022 -1.076919 -0.020212 -0.957838 0.000000 0.000000
    12 -0.249534 -2.846962 -0.174215 -0.481694 -0.000125 -0.008396
    13 0.043235 -1.683940 0.096014 -1.114674 0.002823 -0.000167
    14 0.031729 -1.160831 0.058836 -0.563744 0.000642 0.008372
    15 -0.963866 -2.785142 -0.085346 0.157291 0.162276 -0.191556
    16 0.028479 -1.403069 0.006271 -0.422378 0.000000 0.000000
    17 0.021413 -0.957782 0.020047 -0.432441 0.000000 0.000000
    18 1.164474 -2.543938 -0.170328 -1.138715 -0.013294 0.477915
    19 0.024033 -1.129042 0.017806 -0.367137 0.000000 0.000001
    20 0.014896 -0.883989 -0.019845 -0.584400 0.000000 0.000000
    21 -0.586770 -1.264475 0.200164 -0.286523 -0.333668 -2.448906
    22 1.522835 0.058681 0.016850 -0.112987 -0.499316 0.249881
    23 1.117948 0.048424 -0.005764 0.004131 -0.024862 -0.109145
    24 -0.139399 -0.111697 0.014397 0.285382 -0.030687 1.580508
    25 -0.488517 -2.755600 -0.228261 -1.119640 -0.066262 -0.107564
    26 0.039888 -1.479789 0.029853 -1.451658 0.000000 0.000000
    27 0.028786 -1.075730 -0.023111 -0.870565 0.000000 0.000000
    28 0.250028 -2.820664 -0.238396 -0.916633 -0.083577 -0.024886
    29 -0.049759 -1.680545 0.100480 -1.550922 0.000000 -0.000002
    30 -0.034141 -1.148312 0.084779 -1.087281 0.000000 0.000000
    31 0.957766 -2.746776 -0.090301 -0.415794 -0.220354 -0.008740
    32 -0.033419 -1.397128 -0.011255 -0.247860 0.000000 -0.000001
    33 -0.022361 -0.957434 0.018783 -0.519741 0.000000 0.000000
    34 -1.180680 -2.507215 -0.193861 -0.747365 0.130011 -0.054388
    35 -0.024966 -1.123935 0.017594 -1.414285 0.000000 0.000001
    36 -0.020057 -0.890966 0.010091 -0.846171 0.000000 0.000000
    37 0.583510 -1.197274 0.185377 0.631273 -1.323135 -0.918160
    38 1.535926 0.010244 0.005008 -0.124883 0.065220 -0.956793
    39 1.100770 0.004526 -0.010676 -0.014685 0.006877 -0.956472
    40 0.120152 -0.050266 -0.054488 0.287568 3.110905 1.561085
  time 26
    0 0.000000 0.000000 0.027345 0.060616 0.000000 0.000000
    1 6.208814 4.865604 -7.032901 6.073778 -1.608787 0.168982
    2 -0.071918 -8.498732 -0.104137 -0.007925 0.287670 0.075206
    3 1.593155 -4.022238 1.585271 -0.246485 -0.031180 1.471049
    4 -0.663507 0.613433 -0.000001 0.000000 0.000001 1.576097
    5 6.222712 -0.236896 -0.000001 0.000001 0.000000 1.576097
    6 3.353899 -1.140598 0.000000 0.000001 0.000000 0.005300
    7 -1.895024 -4.667909 -7.564449 -0.107044 -5.766780 0.518213
    8 0.096944 -8.450418 -0.009364 -0.059543 -0.293871 0.086468
    9 0.447952 -2.798983 -0.200442 -0.853455 -0.010396 0.265094
    10 -0.032910 -1.480206 0.004936 -0.491716 0.000000 0.000002
    11 -0.027022 -1.076919 -0.020212 -0.957838 0.000000 0.000000
    12 -0.249534 -2.846962 -0.174215 -0.481694 -0.000125 -0.008396
    13 0.043235 -1.683940 0.096014 -1.114674 0.002823 -0.000167
    14 0.031729 -1.160831 0.058836 -0.563744 0.000642 0.008372
    15 -0.963866 -2.785142 -0.085346 0.157291 0.162276 -0.191556
    16 0.028479 -1.403069 0.006271 -0.422378 0.000000 0.000000
    17 0.021413 -0.957782 0.020047 -0.432441 0.000000 0.000000
    18 1.164474 -2.543938 -0.170328 -1.138715 -0.013294 0.477915
    19 0.024033 -1.129042 0.017806 -0.367137 0.000000 0.000001
    20 0.014896 -0.883989 -0.019845 -0.584400 0.000000 0.000000
    21 -0.586770 -1.264475 0.200164 -0.286523 -0.333668 -2.448906
    22 1.522835 0.058681 0.016850 -0.112987 -0.499316 0.249881
    23 1.117948 0.048424 -0.005764 0.004131 -0.024862 -0.109145
    24 -0.139399 -0.111697 0.014397 0.285382 -0.030687 1.580508
    25 -0.488517 -2.755600 -0.228261 -1.119640 -0.066262 -0.107564
    26 0.039888 -1.479789 0.029853 -1.451658 0.000000 0.000000
    27 0.028786 -1.075730 -0.023111 -0.870565 0.000000 0.000000
    28 0.250028 -2.820664 -0.238396 -0.916633 -0.083577 -0.024886
    29 -0.049759 -1.680545 0.100480 -1.550922 0.000000 -0.000002
    30 -0.034141 -1.148312 0.084779 -1.087281 0.000000 0.000000
    31 0.957766 -2.746776 -0.090301 -0.415794 -0.220354 -0.008740
    32 -0.033419 -1.397128 -0.011255 -0.247860 0.000000 -0.000001
    33 -0.022361 -0.957434 0.018783 -0.519741 0.000000 0.000000
    34 -1.180680 -2.507215 -0.193861 -0.747365 0.130011 -0.054388
    35 -0.024966 -1.123935 0.017594 -1.414285 0.000000 0.000001
    36 -0.020057 -0.890966 0.010091 -0.846171 0.000000 0.000000
    37 0.583510 -1.197274 0.185377 0.631273 -1.323135 -0.918160
    38 1.535926 0.010244 0.005008 -0.124883 0.065220 -0.956793
    39 1.100770 0.004526 -0.010676 -0.014685 0.006877 -0.956472
    40 0.120152 -0.050266 -0.054488 0.287568 3.110905 1.561085
  time 27
    0 0.000000 0.000000 0.027345 0.043818 0.000000 0.000000
    1 6.208814 4.865604 -7.017275 6.073778 -1.608787 0.168982
    2 -0.071918 -8.498732 -0.104137 -0.005525 0.288067 0.083702
    3 1.593155 -4.022238 1.585271 -0.246485 -0.031180 1.471049
    4 -0.663507 0.613433 -0.000001 0.000000 0.000001 1.576097
    5 6.222712 -0.236896 -0.000001 0.000001 0.000000 1.576097
    6 3.353899 -1.140598 0.000000 0.000001 0.000000 0.005300
    7 -1.895024 -4.667909 -7.564449 -0.115286 -5.766780 0.518213
    8 0.096944 -8.450418 -0.009364 -0.059543 -0.293871 0.086468
    9 0.447952 -2.798983 -0.200442 -0.853455 -0.010396 0.265094
    10 -0.032910 -1.480206 0.004936 -0.491716 0.000000 0.000002
    11 -0.027022 -1.076919 -0.020212 -0.957838 0.000000 0.000000
    12 -0.249534 -2.846962 -0.174215 -0.481694 -0.000125 -0.008396
    13 0.043235 -1.683940 0.096014 -1.114674 0.002823 -0.000167
    14 0.031729 -1.160831 0.058836 -0.563744 0.000642 0.008372
    15 -0.963866 -2.785142 -0.085346 0.157291 0.162276 -0.191556
    16 0.028479 -1.403069 0.006271 -0.422378 0.000000 0.000000
    17 0.021413 -0.957782 0.020047 -0.432441 0.000000 0.000000
    18 1.164474 -2.543938 -0.170328 -1.138715 -0.013294 0.477915
    19 0.024033 -1.129042 0.017806 -0.367137 0.000000 0.000001
    20 0.014896 -0.883989 -0.019845 -0.584400 0.000000 0.000000
    21 -0.586770 -1.264475 0.200164 -0.286523 -0.333668 -2.448906
    22 1.522835 0.058681 0.016850 -0.112987 -0.499316 0.249881
    23 1.117948 0.048424 -0.005764 0.004131 -0.024862 -0.109145
    24 -0.139399 -0.111697 0.014397 0.285382 -0.030687 1.580508
    25 -0.488517 -2.755600 -0.228261 -1.119640 -0.066262 -0.107564
    26 0.039888 -1.479789 0.029853 -1.451658 0.000000 0.000000
    27 0.028786 -1.075730 -0.023111 -0.870565 0.000000 0.000000
    28 0.250028 -2.820664 -0.238396 -0.916633 -0.083577 -0.024886
    29 -0.049759 -1.680545 0.100480 -1.550922 0.000000 -0.000002
    30 -0.034141 -1.148312 0.084779 -1.087313 0.000000 0.000000
    31 0.957766 -2.746776 -0.090301 -0.415794 -0.220354 -0.008740
    32 -0.033419 -1.397128 -0.011255 -0.247860 0.000000 -0.000001
    33 -0.022361 -0.957434 0.018783 -0.519741 0.000000 0.000000
    34 -1.180680 -2.507215 -0.193861 -0.747365 0.130011 -0.054388
    35 -0.024966 -1.123935 0.017594 -1.414285 0.000000 0.000001
    36 -0.020057 -0.890966 0.010091 -0.846171 0.000000 0.000000
    37 0.583510 -1.197274 0.185377 0.631273 -1.323135 -0.918160
    38 1.535926 0.010244 0.005008 -0.124883 0.065220 -0.956793
    39 1.100770 0.004526 -0.010676 -0.014685 0.006877 -0.956472
    40 0.120152 -0.050266 -0.054488 0.287568 3.110905 1.561085
  time 28
    0 0.000000 0.000000 0.027345 0.023803 0.000000 0.000000
    1 6.208814 4.865604 -6.997743 6.073778 -1.608787 0.168982
    2 -0.071918 -8.498732 -0.104137 -0.002604 0.288357 0.093829
    3 1.593155 -4.022238 1.585271 -0.246485 -0.031180 1.471049
    4 -0.663507 0.613433 -0.000001 0.000000 0.000001 1.576097
    5 6.222712 -0.236896 -0.000001 0.000001 0.000000 1.576097
    6 3.353899 -1.140598 0.000000 0.000001 0.000000 0.005300
    7 -1.895024 -4.667909 -7.564449 -0.125131 -5.766780 0.518213
    8 0.096944 -8.450418 -0.009364 -0.059543 -0.293871 0.086468
    9 0.447952 -2.798983 -0.200442 -0.853455 -0.010396 0.265094
    10 -0.032910 -1.480206 0.004936 -0.491716 0.000000 0.000002
    11 -0.027022 -1.076919 -0.020212 -0.957838 0.000000 0.000000
    12 -0.249534 -2.846962 -0.174215 -0.481694 -0.000125 -0.008396
    13 0.043235 -1.683940 0.096014 -1.114674 0.002823 -0.000167
    14 0.031729 -1.160831 0.058836 -0.563744 0.000642 0.008372
    15 -0.963866 -2.785142 -0.085346 0.157291 0.162276 -0.191556
    16 0.028479 -1.403069 0.006271 -0.422378 0.000000 0.000000
    17 0.021413 -0.957782 0.020047 -0.432441 0.000000 0.000000
    18 1.164474 -2.543938 -0.170328 -1.138715 -0.013294 0.477915
    19 0.024033 -1.129042 0.017806 -0.367137 0.000000 0.000001
    20 0.014896 -0.883989 -0.019845 -0.584400 0.000000 0.000000
    21 -0.586770 -1.264475 0.200164 -0.286523 -0.333668 -2.448906
    22 1.522835 0.058681 0.016850 -0.112987 -0.499316 0.249881
    23 1.117948 0.048424 -0.005764 0.004131 -0.024862 -0.109145
    24 -0.139399 -0.111697 0.014397 0.285382 -0.030687 1.580508
    25 -0.488517 -2.755600 -0.228261 -1.119640 -0.066262 -0.107564
    26 0.039888 -1.479789 0.029853 -1.451658 0.000000 0.000000
    27 0.028786 -1.075730 -0.023111 -0.870565 0.000000 0.000000
    28 0.250028 -2.820664 -0.238396 -0.916633 -0.083577 -0.024886
    29 -0.049759 -1.680545 0.100480 -1.550922 0.000000 -0.000002
    30 -0.034141 -1.148312 0.084779 -1.087313 0.000000 0.000000
    31 0.957766 -2.746776 -0.090301 -0.415794 -0.220354 -0.008740
    32 -0.033419 -1.397128 -0.011255 -0.247860 0.000000 -0.000001
    33 -0.022361 -0.957434 0.018783 -0.519741 0.000000 0.000000
    34 -1.180680 -2.507215 -0.193861 -0.747365 0.130011 -0.054388
    35 -0.024966 -1.123935 0.017594 -1.414285 0.000000 0.000001
    36 -0.020057 -0.890966 0.010091 -0.846171 0.000000 0.000000
    37 0.583510 -1.197274 0.185377 0.631273 -1.323135 -0.918160
    38 1.535926 0.010244 0.005008 -0.124883 0.065220 -0.956793
    39 1.100770 0.004526 -0.010676 -0.014685 0.006877 -0.956472
    40 0.120152 -0.050266 -0.054488 0.287568 3.110905 1.561085
  time 29
    0 0.000000 0.000000 0.027345 0.007005 0.000000 0.000000
    1 6.208814 4.865604 -6.982118 6.073778 -1.608787 0.168982
    2 -0.071918 -8.498732 -0.104137 -0.000204 0.288569 0.102325
    3 1.593155 -4.022238 1.585271 -0.246485 -0.031180 1.471049
    4 -0.663507 0.613433 -0.000001 0.000000 0.000001 1.576097
    5 6.222712 -0.236896 -0.000001 0.000001 0.000000 1.576097
    6 3.353899 -1.140598 0.000000 0.000001 0.000000 0.005300
    7 -1.895024 -4.667909 -7.564449 -0.133373 -5.766780 0.518213
    8 0.096944 -8.450418 -0.009364 -0.059543 -0.293871 0.086468
    9 0.447952 -2.798983 -0.200442 -0.853455 -0.010396 0.265094
    10 -0.032910 -1.480206 0.004936 -0.491716 0.000000 0.000002
    11 -0.027022 -1.076919 -0.020212 -0.957838 0.000000 0.000000
    12 -0.249534 -2.846962 -0.174215 -0.481694 -0.000125 -0.008396
    13 0.043235 -1.683940 0.096014 -1.114674 0.002823 -0.000167
    14 0.031729 -1.160831 0.058836 -0.563744 0.000642 0.008372
    15 -0.963866 -2.785142 -0.085346 0.157291 0.162276 -0.191556
    16 0.028479 -1.403069 0.006271 -0.422378 0.000000 0.000000
    17 0.021413 -0.957782 0.020047 -0.432441 0.000000 0.000000
    18 1.164474 -2.543938 -0.170328 -1.138715 -0.013294 0.477915
    19 0.024033 -1.129042 0.017806 -0.367137 0.000000 0.000001
    20 0.014896 -0.883989 -0.019845 -0.584400 0.000000 0.000000
    21 -0.586770 -1.264475 0.200164 -0.286523 -0.333668 -2.448906
    22 1.522835 0.058681 0.016850 -0.112987 -0.499316 0.249881
    23 1.117948 0.048424 -0.005764 0.004131 -0.024862 -0.109145
    24 -0.139399 -0.111697 0.014397 0.285382 -0.030687 1.580508
    25 -0.488517 -2.755600 -0.228261 -1.119640 -0.066262 -0.107564
    26 0.039888 -1.479789 0.029853 -1.451658 0.000000 0.000000
    27 0.028786 -1.075730 -0.023111 -0.870565 0.000000 0.000000
    28 0.250028 -2.820664 -0.238396 -0.916633 -0.083577 -0.024886
    29 -0.049759 -1.680545 0.100480 -1.550922 0.000000 -0.000002
    30 -0.034141 -1.148312 0.084779 -1.087281 0.000000 0.000000
    31 0.957766 -2.746776 -0.090301 -0.415794 -0.220354 -0.008740
    32 -0.033419 -1.397128 -0.011255 -0.247860 0.000000 -0.000001
    33 -0.022361 -0.957434 0.018783 -0.519741 0.000000 0.000000
    34 -1.180680 -2.507215 -0.193861 -0.747365 0.130011 -0.054388
    35 -0.024966 -1.123935 0.017594 -1.414285 0.000000 0.000001
    36 -0.020057 -0.890966 0.010091 -0.846171 0.000000 0.000000
    37 0.583510 -1.197274 0.185377 0.631273 -1.323135 -0.918160
    38 1.535926 0.010244 0.005008 -0.124883 0.065220 -0.956793
    39 1.100770 0.004526 -0.010676 -0.014685 0.006877 -0.956472
    40 0.120152 -0.050266 -0.054488 0.287568 3.110905 1.561085
  time 30
    0 0.000000 0.000000 0.027345 0.000000 0.000000 0.000000
    1 6.208814 4.865604 -6.974305 6.073778 -1.608787 0.168982
    2 -0.071918 -8.498732 -0.104137 0.000796 0.288648 0.105897
    3 1.593155 -4.022238 1.585271 -0.246485 -0.031180 1.471049
    4 -0.663507 0.613433 -0.000001 0.000000 0.000001 1.576097
    5 6.222712 -0.236896 -0.000001 0.000001 0.000000 1.576097
    6 3.353899 -1.140598 0.000000 0.000001 0.000000 0.005300
    7 -1.895024 -4.667909 -7.564449 -0.136807 -5.766780 0.518213
    8 0.096944 -8.450418 -0.009364 -0.059543 -0.293871 0.086468
    9 0.447952 -2.798983 -0.200442 -0.853455 -0.010396 0.265094
    10 -0.032910 -1.480206 0.004936 -0.491716 0.000000 0.000002
    11 -0.027022 -1.076919 -0.020212 -0.957838 0.000000 0.000000
    12 -0.249534 -2.846962 -0.174215 -0.481694 -0.000125 -0.008396
    13 0.043235 -1.683940 0.096014 -1.114674 0.002823 -0.000167
    14 0.031729 -1.160831 0.058836 -0.563744 0.000642 0.008372
    15 -0.963866 -2.785142 -0.085346 0.157291 0.162276 -0.191556
    16 0.028479 -1.403069 0.006271 -0.422378 0.000000 0.000000
    17 0.021413 -0.957782 0.020047 -0.432441 0.000000 0.000000
    18 1.164474 -2.543938 -0.170328 -1.138715 -0.013294 0.477915
    19 0.024033 -1.129042 0.017806 -0.367137 0.000000 0.000001
    20 0.014896 -0.883989 -0.019845 -0.584400 0.000000 0.000000
    21 -0.586770 -1.264475 0.200164 -0.286523 -0.333668 -2.448906
    22 1.522835 0.058681 0.016850 -0.112987 -0.499316 0.249881
    23 1.117948 0.048424 -0.005764 0.004131 -0.024862 -0.109145
    24 -0.139399 -0.111697 0.014397 0.285382 -0.030687 1.580508
    25 -0.488517 -2.755600 -0.228261 -1.119640 -0.066262 -0.107564
    26 0.039888 -1.479789 0.029853 -1.451658 0.000000 0.000000
    27 0.028786 -1.075730 -0.023111 -0.870565 0.000000 0.000000
    28 0.250028 -2.820664 -0.238396 -0.916633 -0.083577 -0.024886
    29 -0.049759 -1.680545 0.100480 -1.550922 0.000000 -0.000002
    30 -0.034141 -1.148312 0.084779 -1.087313 0.000000 0.000000
    31 0.957766 -2.746776 -0.090301 -0.415794 -0.220354 -0.008740
    32 -0.033419 -1.397128 -0.011255 -0.247860 0.000000 -0.000001
    33 -0.022361 -0.957434 0.018783 -0.519741 0.000000 0.000000
    34 -1.180680 -2.507215 -0.193861 -0.747365 0.130011 -0.054388
    35 -0.024966 -1.123935 0.017594 -1.414285 0.000000 0.000001
    36 -0.020057 -0.890966 0.010091 -0.846171 0.000000 0.000000
    37 0.583510 -1.197274 0.185377 0.631273 -1.323135 -0.918160
    38 1.535926 0.010244 0.005008 -0.124883 0.065220 -0.956793
    39 1.100770 0.004526 -0.010676 -0.014685 0.006877 -0.956472
    40 0.120152 -0.050266 -0.054488 0.287568 3.110905 1.561085
end
