// Created by Crowbar 0.62

$modelname "weapons/tfa_cso/c_cartblue.mdl"

$Include "csonline_gmod.qci"

$bodygroup "weapon"
{
	studio "v_cartblue_Ref"
}

$CDMaterials "models\weapons\tfa_cso\cartblue\"

$attachment 0 "KartRifle_barrel01" -2.687 -0.3 0
//$attachment 1 "KartRifle_Body01a" 0 1.5 1
//$attachment 2 "KartRifle_barrel01" -4.687 -0.3 0

$definebone "Bone01" "" 9.310103 -84.736702 12.809700 -0.012834 -89.771431 179.846260 0.000000 0.000000 0.000001 0.000000 0.000000 -0.000000
$definebone "Bone_Lefthand" "Bone01" -0.071915 -8.498731 -0.104137 16.477753 0.853593 -1.435030 0.000000 0.000000 0.000000 0.000002 0.000000 -0.000000
$definebone "KartRifle_Root" "Bone_Lefthand" 9.068352 17.822552 -3.013577 -58.778949 -177.650832 86.603658 0.000000 0.000000 0.000000 -0.000000 0.000003 -0.000000
$definebone "KartRifle_Body02" "KartRifle_Root" -1.885490 2.943573 -0.000002 0.000000 104.672801 0.000000 0.000000 0.000000 0.000000 0.000000 -0.000001 0.000000
$definebone "KartRifle_barrel01" "KartRifle_Body02" 5.677299 0.181885 0.000002 -0.000000 -179.711951 -0.000000 0.000000 0.000000 0.000000 -0.000000 -0.000001 -0.000000
$definebone "KartRifle_Body01" "KartRifle_Root" -1.248993 -1.842278 -0.000002 0.000000 104.699848 0.000000 0.000000 0.000000 0.000000 0.000000 -0.000001 0.000000
$definebone "KartRifle_Stock01" "KartRifle_Body01" -0.813660 -0.125063 0.000002 0.000000 -0.000001 0.000000 0.000000 0.000000 0.000000 0.000000 -0.000001 0.000000
$definebone "KartRifle_Stock02" "KartRifle_Stock01" -2.003387 0.000008 0.000000 0.000000 -0.000001 0.000000 0.000000 0.000000 0.000000 0.000000 -0.000001 0.000000
$definebone "KartRifle_Stock03" "KartRifle_Stock02" -3.262100 -1.329847 0.000000 0.000000 -0.000001 0.000000 0.000000 0.000000 0.000000 0.000000 -0.000001 0.000000
$definebone "KartRifle_Stock04" "KartRifle_Stock03" 0.689140 2.935707 0.000001 0.000000 -0.000001 0.000000 0.000000 0.000000 0.000000 0.000000 -0.000001 0.000000
$definebone "KartRifle_Stock05" "KartRifle_Stock04" 2.102928 -0.074350 -0.000001 0.000000 -0.000001 0.000000 0.000000 0.000000 0.000000 0.000000 -0.000001 0.000000
$definebone "KartRifle_Stock04a" "KartRifle_Stock04" 1.233368 -1.581491 -0.000008 0.000000 -89.999928 0.000057 0.000000 0.000000 0.000000 0.000000 0.000001 -0.000000
$definebone "KartRifle_Stock04b" "KartRifle_Stock04a" 0.790714 -0.075806 -0.000000 0.000000 0.000001 -0.000000 0.000000 0.000000 0.000000 0.000000 0.000001 -0.000000
$definebone "KartRifle_Stock03a" "KartRifle_Stock03" 1.035942 0.031725 -0.000013 0.000000 -89.999983 0.000172 0.000000 0.000000 0.000000 0.000000 0.000001 -0.000000
$definebone "KartRifle_Scope01" "KartRifle_Body01" 1.164696 0.592842 0.000002 0.000000 0.038674 0.000000 0.000000 0.000000 0.000000 0.000000 -0.000001 0.000000
$definebone "KartRifle_Scope02" "KartRifle_Scope01" 0.116913 0.568464 -0.000000 0.000000 -0.010658 0.000000 0.000000 0.000000 0.000000 0.000000 -0.000001 0.000000
$definebone "KartRifle_Scope03" "KartRifle_Scope02" 0.653969 0.995306 -0.000000 0.000000 -0.034436 0.000000 0.000000 0.000000 0.000000 0.000000 -0.000001 0.000000
$definebone "KartRifle_Scope04" "KartRifle_Scope03" -1.458183 -0.040771 0.000002 0.000000 -0.000001 0.000000 0.000000 0.000000 0.000000 0.000000 -0.000001 0.000000
$definebone "KartRifle_Scope05" "KartRifle_Scope03" 1.522568 -0.006424 -0.000000 0.000000 -0.000001 0.000000 0.000000 0.000000 0.000000 0.000000 -0.000001 0.000000
$definebone "KartRifle_Scope_center" "KartRifle_Scope03" -0.053452 -0.013971 0.004519 0.000000 0.006416 0.000000 0.000000 0.000000 -0.000000 0.000000 -0.000001 0.000000
$definebone "KartRifle_Scope_centerB" "KartRifle_Scope_center" -0.003304 0.081306 -0.135805 59.507846 90.000079 90.000079 0.000000 0.000000 0.000000 0.000000 0.000000 -0.000001
$definebone "KartRifle_Scope_centerB_01" "KartRifle_Scope_centerB" 0.635539 -0.002983 0.189690 0.000000 -0.247863 0.000056 0.000000 0.000000 0.000000 0.000000 0.000000 -0.000001
$definebone "KartRifle_Scope_centerA" "KartRifle_Scope_center" -0.003304 0.081306 0.126715 -60.662305 89.999983 90.000038 0.000000 0.000000 0.000000 0.000001 0.000000 0.000001
$definebone "KartRifle_Scope_centerA_01" "KartRifle_Scope_centerA" 0.634166 0.000002 0.189690 0.000058 0.000000 0.000001 -0.000001 0.000002 0.000000 0.000001 0.000000 0.000001
$definebone "KartRifle_Scope_centerC" "KartRifle_Scope_center" -0.003304 -0.145760 -0.006252 0.432870 -89.999983 -90.000208 0.000000 0.000000 0.000000 -0.000001 0.000000 0.000000
$definebone "KartRifle_Scope_centerC_01" "KartRifle_Scope_centerC" 0.610334 0.001739 0.189697 -0.000001 -0.417915 0.013350 -0.000002 0.000000 0.000000 -0.000001 0.000000 0.000000
$definebone "KartRifle_Body01a" "KartRifle_Body01" 4.869621 -0.088381 0.000003 -0.000000 179.810770 -0.000000 0.000000 0.000000 0.000000 -0.000000 -0.000001 -0.000000
$definebone "KartRifle_wheel[back]" "KartRifle_Body01" 1.041946 -1.098234 0.000004 0.000000 0.025553 0.000000 0.000000 0.000000 0.000000 0.000000 -0.000001 0.000000
$definebone "KartRifle_wheel[back]_left" "KartRifle_wheel[back]" -0.001137 0.000114 -0.582770 89.965723 179.962605 0.000000 0.000000 0.000000 0.000000 0.000000 0.000000 -0.000001
$definebone "KartRifle_wheel[back]_right" "KartRifle_wheel[back]" -0.000870 0.000113 0.610224 -89.951571 -0.025496 0.000000 0.000000 -0.000002 0.000000 -0.000000 0.000000 0.000001
$definebone "KartRifle_wheel[front]" "KartRifle_Body01" 3.605217 -1.098139 0.000005 0.000000 0.025553 0.000000 0.000000 0.000000 0.000000 0.000000 -0.000001 0.000000
$definebone "KartRifle_wheel[front]_left" "KartRifle_wheel[front]" -0.000816 0.000023 -0.476178 89.960450 179.990622 0.000000 0.000000 -0.000002 0.000000 0.000000 0.000000 -0.000001
$definebone "kart_rinkBone" "KartRifle_Body01" 1.174248 0.758615 -0.000000 0.000114 -179.996934 0.000115 0.000000 0.000000 0.000000 -0.000000 -0.000001 -0.000000
$definebone "Bip01" "kart_rinkBone" 3.351540 -4.003490 -0.000016 0.000058 179.950174 -89.999928 0.000000 0.000000 0.000000 0.000001 0.000000 -0.000000
$definebone "Bip01 Pelvis" "Bip01" 0.000000 0.000000 0.000000 -89.999983 -89.999928 0.000000 0.000000 0.000000 0.000000 0.000000 -0.000001 0.000000
$definebone "Bip01 Spine" "Bip01 Pelvis" 0.426714 0.000877 0.000001 -0.000057 0.238120 -0.000229 0.000000 0.000000 0.000000 0.000000 -0.000001 0.000000
$definebone "Bip01 Spine1" "Bip01 Spine" 0.522348 -0.000351 -0.000000 0.000000 -1.474737 0.000000 0.000000 0.000000 0.000000 0.000000 -0.000001 0.000000
$definebone "Bip01 Neck" "Bip01 Spine1" 0.259462 -0.136246 -0.000000 0.000000 2.635891 0.000000 0.000000 0.000000 -0.000000 0.000000 -0.000001 0.000000
$definebone "Bip01 Head" "Bip01 Neck" 0.222839 -0.199760 -0.000000 0.000000 -2.015380 0.000000 0.000000 0.000000 0.000000 0.000000 -0.000001 0.000000
$definebone "Bip01 L Clavicle" "Bip01 Neck" -0.095680 -0.006027 0.257559 -89.999983 177.318461 0.000000 0.000000 0.000000 0.000000 0.000000 -0.000000 0.000001
$definebone "Bip01 L UpperArm" "Bip01 L Clavicle" 0.443141 0.000000 0.000000 -0.289115 1.755428 -88.085672 0.000000 0.000000 0.000000 0.000000 -0.000000 -0.000001
$definebone "Bip01 L Forearm" "Bip01 L UpperArm" 0.737604 0.000002 -0.000008 0.000000 -1.455543 -0.000001 0.000000 -0.000002 0.000000 0.000000 -0.000000 -0.000001
$definebone "Bip01 L Hand" "Bip01 L Forearm" 0.458979 0.000000 -0.000008 0.000000 -0.000000 -89.954378 0.000000 0.000000 0.000000 0.000000 0.000000 0.000001
$definebone "Bip01 R Clavicle" "Bip01 Neck" -0.095680 -0.006027 -0.257560 89.999983 177.318461 0.000000 0.000000 0.000000 0.000000 0.000000 0.000000 -0.000001
$definebone "Bip01 R UpperArm" "Bip01 R Clavicle" 0.443141 0.000000 0.000002 0.289115 1.755428 88.085672 0.000000 -0.000002 0.000000 0.000000 -0.000000 0.000001
$definebone "Bip01 R Forearm" "Bip01 R UpperArm" 0.737604 0.000000 0.000008 0.000000 -1.455543 0.000001 -0.000000 0.000000 0.000000 0.000000 -0.000001 0.000001
$definebone "Bip01 R Hand" "Bip01 R Forearm" 0.458979 0.000000 0.000000 0.000000 -0.000001 89.954378 0.000000 0.000000 0.000000 -0.000001 -0.000000 -0.000001
$definebone "Bip01 L Thigh" "Bip01 Pelvis" -0.000004 0.000000 0.400708 -5.917124 -177.459341 -179.696788 0.000000 0.000000 0.000000 -0.000001 0.000001 -0.000000
$definebone "Bip01 L Calf" "Bip01 L Thigh" 0.978802 -0.000008 -0.000000 -0.000001 -7.581432 0.000000 0.000000 0.000000 -0.000000 -0.000001 0.000003 0.000000
$definebone "Bip01 L Foot" "Bip01 L Calf" 0.618256 0.000000 0.000000 -5.906164 9.233102 -0.471716 0.000000 0.000000 0.000000 -0.000000 0.000003 -0.000001
$definebone "Bip01 R Thigh" "Bip01 Pelvis" -0.000002 0.000000 -0.400708 5.917316 -177.459272 179.696965 0.000000 0.000000 0.000000 0.000000 0.000001 -0.000000
$definebone "Bip01 R Calf" "Bip01 R Thigh" 0.978802 -0.000008 0.000000 0.000000 -7.581434 -0.000000 0.000000 0.000000 0.000000 0.000000 0.000002 -0.000000
$definebone "Bip01 R Foot" "Bip01 R Calf" 0.618267 0.000000 0.000000 5.906164 9.233102 0.471716 0.000000 0.000000 0.000000 0.000001 0.000001 -0.000000
$definebone "KartRifle_Body05" "KartRifle_Body01" 0.818451 0.718689 -0.000000 -0.000000 153.428180 0.000000 0.000000 0.000000 0.000000 -0.000000 -0.000002 0.000000
$definebone "KartRifle_Body02a" "KartRifle_Body05" 1.083954 -0.000004 0.000000 -0.000000 -0.000002 0.000000 0.000000 0.000000 0.000000 -0.000000 -0.000002 0.000000
$definebone "KartRifle_Body06" "KartRifle_Body01" 1.182228 0.233543 -0.000000 0.000057 90.323877 -0.000172 0.000000 0.000000 0.000000 -0.000000 0.000001 0.000000
$definebone "KartRifle_Tirgger" "KartRifle_Root" -0.663361 1.378784 -0.000002 0.000000 23.952847 -0.000058 0.000000 0.000000 0.000000 0.000000 0.000000 -0.000000
$definebone "KartRifle_Body03" "KartRifle_Body02" 2.244102 1.008436 -0.000002 -0.000000 -179.970118 -0.000000 0.000000 0.000000 0.000000 -0.000000 -0.000001 -0.000000
$definebone "KartRifle_Body04" "KartRifle_Body03" 1.452431 -0.353096 0.000002 -0.000000 -45.836686 0.000000 0.000000 0.000000 0.000000 -0.000000 -0.000005 0.000000
$definebone "KartRifle_magazine" "KartRifle_Body02" 0.568382 -0.919706 -0.000000 0.000000 -69.804712 -0.000000 0.000000 0.000000 0.000000 0.000000 -0.000002 -0.000000
$definebone "KartRifle_wheel[front]_right" "KartRifle_wheel[front]" -0.000557 0.000023 0.503632 -89.951571 -0.024063 0.000000 0.000000 0.000000 0.000000 -0.000000 0.000000 0.000001
$definebone "KartRifle_barrel02" "KartRifle_barrel01" -1.877342 -0.077198 -0.000001 -0.000000 -0.309054 -0.000000 0.000000 0.000000 0.000000 -0.000000 -0.000001 -0.000000
$definebone "KartRifle_barrel03" "KartRifle_barrel02" -2.742012 -0.217871 0.000002 -0.000000 0.004124 -0.000000 0.000000 0.000000 0.000000 -0.000000 -0.000001 -0.000000
$definebone "KartRifle_handle" "KartRifle_barrel03" 1.798775 -0.869781 0.007693 0.000000 130.282431 -0.000000 0.000000 0.000000 0.000000 0.000000 -0.000007 -0.000000
$definebone "KartRifle_handle_01" "KartRifle_Root" -1.009987 3.022644 0.000008 -0.000000 1.644506 0.000114 0.000000 0.000000 0.000000 -0.000000 0.000003 -0.000000

$sequence "L_Cartblue_idle" {
	"v_cartblue_anims\L_Cartblue_idle"
	fps 30
	activity "ACT_VM_IDLE" 1
	snap
	loop
}
$sequence "L_Cartblue_reload" {
	"v_cartblue_anims\L_Cartblue_reload"
	{ event 5004 10 "CartBlue.ClipOut" }
	{ event 5004 55 "CartBlue.ClipIn" }
	{ event 5004 75 "CartBlue.Draw" }
	fps 30
	activity "ACT_VM_RELOAD" 1
	snap
}
$sequence "L_Cartblue_draw" {
	"v_cartblue_anims\L_Cartblue_draw"
	{ event 5004 5 "CartBlue.Draw" }
	fps 30
	activity "ACT_VM_DRAW" 1
	snap
}
$sequence "L_Cartblue_Shoot1" {
	"v_cartblue_anims\L_Cartblue_Shoot1"
	{ event 5001 0 "22" }
	fps 30
	activity "ACT_VM_PRIMARYATTACK" 1
	snap
}
$sequence "L_Cartblue_Shoot2" {
	"v_cartblue_anims\L_Cartblue_Shoot2"
	{ event 5001 0 "22" }
	fps 30
	activity "ACT_VM_PRIMARYATTACK" 1
	snap
}
$sequence "L_Cartblue_Shoot3" {
	"v_cartblue_anims\L_Cartblue_Shoot3"
	{ event 5001 0 "22" }
	fps 30
	activity "ACT_VM_PRIMARYATTACK" 1
	snap
}
$sequence "change_Cartblue_H" {
	"v_cartblue_anims\change_Cartblue_H"
	{ event 5004 3 "CartBlue.Turn" }
	{ event 5004 27 "CartBlue.Yaho" }
	{ event 5004 45 "CartBlue.Jump" }
	{ event 5004 61 "CartBlue.Foley4" }
	fps 30
}
$sequence "H_Cartblue_idle" {
	"v_cartblue_anims\H_Cartblue_idle"
	fps 30
	loop
}
$sequence "H_Cartblue_reload" {
	"v_cartblue_anims\H_Cartblue_reload"
	{ event 5004 15 "CartBlue.ClipOut2" }
	{ event 5004 47 "CartBlue.ClipIn" }
	{ event 5004 66 "CartBlue.Hit" }
	{ event 5004 89 "CartBlue.Spindown" }
	fps 30
}
$sequence "H_Cartblue_draw" {
	"v_cartblue_anims\H_Cartblue_draw"
	{ event 5004 9 "CartBlue.Draw2" }
	fps 30
}
$sequence "H_Cartblue_Shoot1" {
	"v_cartblue_anims\H_Cartblue_Shoot1"
	{ event 5021 1 "21" }
	fps 30
}
$sequence "change_Cartblue_L" {
	"v_cartblue_anims\change_Cartblue_L"
	{ event 5004 10 "CartBlue.Foley1" }
	{ event 5004 28 "CartBlue.Foley2" }
	{ event 5004 58 "CartBlue.Foley3" }
	{ event 5004 108 "CartBlue.Turn" }
	fps 30
}
