// Created by Crowbar 0.49.0.0

$modelname "weapons/tfa_cso/c_x-90.mdl"

$Include "csonline_gmod.qci"

$bodygroup "weapon"
{
	studio "v_kronos3_kronos3_1"
}
$bodygroup "weapon"
{
	studio "v_kronos3_kronos3_2"
}
$bodygroup "effect"
{
	studio "v_kronos3_ef"
}

$CDMaterials "models\weapons\tfa_cso\x-90\"

$attachment 0 "argus3_root" 14.5 -0.65 0
//$attachment 1 "argus3_root" 5 -2 -1.4


$sequence "idle" {
	"v_kronos3_anims\idle"
	fps 30
	loop
	activity "ACT_VM_IDLE" 1
	snap
}
$sequence "idle2" {
	"v_kronos3_anims\idle2"
	fps 30
	loop
	activity "ACT_VM_IDLE_SILENCED" 1
	snap
}
$sequence "idle3" {
	"v_kronos3_anims\idle3"
	fps 30
	loop
}
$sequence "reload" {
	"v_kronos3_anims\reload"
	{ event 5004 18 "X-90.ClipOut" }
	{ event 5004 42 "X-90.ClipIn" }
	{ event 5004 69 "X-90.Boltpull" }
	fps 30
	activity "ACT_VM_RELOAD" 1
	snap
}
$sequence "reload2" {
	"v_kronos3_anims\reload2"
	{ event 5004 18 "X-90.ClipOut" }
	{ event 5004 42 "X-90.ClipIn" }
	{ event 5004 69 "X-90.Boltpull" }
	fps 30
	activity "ACT_VM_RELOAD_SILENCED" 1
	snap
}
$sequence "draw" {
	"v_kronos3_anims\draw"
	{ event 5004 9 "X-90.Draw" }
	fps 30
	activity "ACT_VM_DRAW" 1
	snap
}
$sequence "draw2" {
	"v_kronos3_anims\draw2"
	{ event 5004 9 "X-90.Draw" }
	fps 30
	activity "ACT_VM_DRAW_SILENCED" 1
	snap
}
$sequence "shoot1" {
	"v_kronos3_anims\shoot1"
	{ event 5001 0 "12" }
	fps 30
	activity "ACT_VM_PRIMARYATTACK" 1
	snap
}
$sequence "shoot2" {
	"v_kronos3_anims\shoot2"
	{ event 5001 0 "12" }
	fps 30
	activity "ACT_VM_PRIMARYATTACK_SILENCED" 1
	snap
}
$sequence "shoot3" {
	"v_kronos3_anims\shoot3"
	{ event 5001 0 "#I3 S0.15 R2 F0 P30 T0.01 A1 L0 O0" }
	fps 30
}
$sequence "scan_activate" {
	"v_kronos3_anims\scan_activate"
	{ event 5004 9 "X-90.Scan_Activate" }
	fps 30
}
$sequence "zoom" {
	"v_kronos3_anims\zoom"
	{ event 5004 2 "weapons/kronos5_zoom.wav" }
	fps 30
}
$sequence "scan_deactivate" {
	"v_kronos3_anims\scan_deactivate"
	{ event 5004 6 "X-90.Scan_Deactivate" }
	fps 30
}
