// Created by Crowbar 0.49.0.0

$modelname "weapons/tfa_cso/c_dualuzistock.mdl"

$Include "csonline_gmod.qci"

$bodygroup "studio"
{
	studio "v_dualuzi_r"
}
$bodygroup "studio"
{
	studio "v_dualuzi_l"
}

$CDMaterials "models\weapons\tfa_cso\dualuzi"

//$attachment 0 "uzi_root_r" 1.983 0 1.8
$attachment 1 "uzi_root_l" 8.853 0 2.115
$attachment 2 "uzi_root_r" 8.853 0 2.115
//$attachment 3 "uzi_root_l" 1.983 0.7 1.8

$definebone "uzi_root_l" "" -7.000000 0.000000 0.000000 0.000000 -89.999983 0.000000 0.000000 0.000000 0.000000 -0.000000 0.000000 0.000000
$definebone "uzi_root_r" "" 7.000000 0.000000 0.000000 0.000000 -89.999983 0.000000 0.000000 0.000000 0.000000 -0.000000 0.000000 0.000000
$definebone "megazine01" "uzi_root_l" 1.757773 0.000000 1.206649 -0.000000 90.000099 0.000000 0.000000 0.000000 0.000000 -0.000000 0.000000 0.000000
$definebone "Hb01" "uzi_root_l" -1.663432 -0.346000 1.941449 -0.000000 179.999789 0.000000 0.000000 0.000000 0.000000 -0.000000 0.000000 0.000000
$definebone "triger01" "uzi_root_l" 2.999629 0.000000 1.353194 -0.000000 90.000099 0.000000 0.000000 0.000000 0.000000 -0.000000 0.000000 0.000000
$definebone "triger" "uzi_root_r" 2.999629 0.000000 1.353194 -0.000000 90.000099 0.000000 0.000000 0.000000 0.000000 -0.000000 0.000000 0.000000
$definebone "reloader" "uzi_root_r" 3.639548 0.000000 3.113282 -0.000000 90.000099 0.000000 0.000000 0.000000 0.000000 -0.000000 0.000000 0.000000
$definebone "Hb" "uzi_root_r" -1.663432 0.346269 1.941449 -0.000000 179.999789 0.000000 0.000000 0.000000 0.000000 -0.000000 0.000000 0.000000
$definebone "megazine" "uzi_root_r" 1.757773 0.000000 1.206649 -0.000000 90.000099 0.000000 0.000000 0.000000 0.000000 -0.000000 0.000000 0.000000
$definebone "reloader01" "uzi_root_l" 3.639548 0.000000 3.113282 -0.000000 90.000099 0.000000 0.000000 0.000000 0.000000 -0.000000 0.000000 0.000000

$sequence "idle" {
	"v_dualuzi_anims\idle"
	fps 30
	loop
}
$sequence "idle2" {
	"v_dualuzi_anims\idle2"
	{ event 5004 51 "DualUzi.Idle1" }
	{ event 5004 118 "DualUzi.Idle2" }
	fps 30
	loop
}
$sequence "idle_leftempty" {
	"v_dualuzi_anims\idle_leftempty"
	fps 30
	loop
}
$sequence "shoot_left1" {
	"v_dualuzi_anims\shoot_left1"
	{ event 5021 0 "12" }
	fps 30
}
$sequence "shoot_left2" {
	"v_dualuzi_anims\shoot_left2"
	{ event 5021 0 "12" }
	fps 30
}
$sequence "shoot_left3" {
	"v_dualuzi_anims\shoot_left3"
	{ event 5021 0 "12" }
	fps 30
}
$sequence "shoot_left4" {
	"v_dualuzi_anims\shoot_left4"
	{ event 5021 0 "12" }
	fps 30
}
$sequence "shoot_left5" {
	"v_dualuzi_anims\shoot_left5"
	{ event 5021 0 "12" }
	fps 30
}
$sequence "shoot_leftlast" {
	"v_dualuzi_anims\shoot_leftlast"
	{ event 5021 0 "12" }
	fps 30
}
$sequence "shoot_right1" {
	"v_dualuzi_anims\shoot_right1"
	{ event 5011 0 "12" }
	fps 30
}
$sequence "shoot_right2" {
	"v_dualuzi_anims\shoot_right2"
	{ event 5011 0 "12" }
	fps 30
}
$sequence "shoot_right3" {
	"v_dualuzi_anims\shoot_right3"
	{ event 5011 0 "12" }
	fps 30
}
$sequence "shoot_right4" {
	"v_dualuzi_anims\shoot_right4"
	{ event 5011 0 "12" }
	fps 30
}
$sequence "shoot_right5" {
	"v_dualuzi_anims\shoot_right5"
	{ event 5011 0 "12" }
	fps 30
}
$sequence "shoot_rightlast" {
	"v_dualuzi_anims\shoot_rightlast"
	{ event 5011 0 "12" }
	fps 30
}
$sequence "reload" {
	"v_dualuzi_anims\reload"
	{ event 5004 6 "DualUzi.ClipOut" }
	{ event 5004 37 "DualUzi.ClipIn" }
	fps 30
}
$sequence "draw" {
	"v_dualuzi_anims\draw"
	{ event 5004 15 "DualUzi.Draw" }
	fps 30
}
$sequence "on_shoulder" {
	"v_dualuzi_anims\on_shoulder"
	{ event 5004 15 "DualUzi.ShoulderOn" }
	fps 30
	activity "ACT_VM_DRAW" 1
	snap
}
$sequence "on_shoulder_idle" {
	"v_dualuzi_anims\on_shoulder_idle"
	fps 30
	activity "ACT_VM_IDLE" 1
	snap
	loop
}
$sequence "on_shoulder_shoot_left" {
	"v_dualuzi_anims\on_shoulder_shoot_left"
	{ event 5021 0 "12" }
	fps 30
	activity "ACT_VM_PRIMARYATTACK" 1
	snap
}
$sequence "on_shoulder_shoot_leftlast" {
	"v_dualuzi_anims\on_shoulder_shoot_leftlast"
	{ event 5021 0 "12" }
	fps 30
}
$sequence "on_shoulder_leftempty" {
	"v_dualuzi_anims\on_shoulder_leftempty"
	fps 30
}
$sequence "on_shoulder_shoot_right" {
	"v_dualuzi_anims\on_shoulder_shoot_right"
	{ event 5011 0 "12" }
	fps 30
	activity "ACT_VM_SECONDARYATTACK" 1
	snap
}
$sequence "on_shoulder_shoot_rightlast" {
	"v_dualuzi_anims\on_shoulder_shoot_rightlast"
	{ event 5011 0 "12" }
	fps 30
}
$sequence "on_shoulder_reload" {
	"v_dualuzi_anims\on_shoulder_reload"
	{ event 5004 15 "DualUzi.ShoulderReload1" }
	{ event 5004 65 "DualUzi.ShoulderReload2" }
	fps 30
	activity "ACT_VM_RELOAD" 1
	snap
}
$sequence "off_shoulder" {
	"v_dualuzi_anims\off_shoulder"
	{ event 5004 24 "DualUzi.ShoulderOff" }
	fps 30
}
