// Created by Crowbar 0.34.0.0

$ModelName "weapons/tfa_cso/w_deaglewg.mdl"

$BodyGroup "studio"
{
	studio "v_deagle_ref_deonly"
}

$collisionmodel "v_deagle_ref_deonly.smd"
{
	$mass 9
}

$CDMaterials "models\weapons\tfa_cso\deaglewg\"

$attachment "0" "root" -0.05 -5.80 0.70 rotate -0 0 0

$Sequence "idle" {
	"anims\idle.smd"
	fps 30
}