version 1
nodes
  0 "Bone01" -1
  1 "Bone_Lefthand" 0
  2 "windleo_VIPGun_Root" 1
  3 "windleo_VIPGun_Grenade" 2
  4 "windleo_VIPGun_Safety" 2
  5 "windleo_VIPGun_Slide" 2
  6 "windleo_VIPGun_GN_Slide" 2
  7 "windleo_VIPGun_Magazine" 2
  8 "windleo_VIPGun_GN_Trigger" 2
  9 "windleo_VIPGun_Trigger" 2
  10 "Bone13" 1
  11 "Bone14" 10
  12 "Bone15" 11
  13 "Bone17" 1
  14 "Bone18" 13
  15 "Bone19" 14
  16 "Bone21" 1
  17 "Bone22" 16
  18 "Bone23" 17
  19 "Bone09" 1
  20 "Bone10" 19
  21 "Bone11" 20
  22 "Bone05" 1
  23 "Bone06" 22
  24 "Bone07" 23
  25 "Bone_Se_Hand-L" 1
  26 "Bone_L_Upper" 0
  27 "Bone04" -1
  28 "Bone_Righthand" 27
  29 "Bone39" 28
  30 "Bone40" 29
  31 "Bone41" 30
  32 "Bone35" 28
  33 "Bone36" 32
  34 "Bone37" 33
  35 "Bone31" 28
  36 "Bone32" 35
  37 "Bone33" 36
  38 "Bone43" 28
  39 "Bone44" 38
  40 "Bone45" 39
  41 "Bone27" 28
  42 "Bone28" 41
  43 "Bone29" 42
  44 "Bone_Se_Hand-R" 28
  45 "Bone_R_Upper" 27
end
skeleton
  time 0
    0 11.457405 -2.489584 -16.166469 -1.520963 -0.258239 1.370545
    1 -0.071919 -8.498734 -0.104136 0.311130 0.249444 0.109947
    2 0.521574 -2.341931 0.944898 0.192476 1.308143 0.129949
    3 0.012425 28.587929 4.758376 0.000000 0.000000 0.000000
    4 -0.000001 -5.493355 -0.179960 0.000000 0.000000 0.000000
    5 -0.670049 -8.175868 2.510258 0.000000 0.000000 0.000000
    6 -0.000001 -16.111864 -1.715292 0.000000 0.000000 0.000000
    7 -0.000001 -7.461284 -0.759587 0.000000 0.000000 0.000000
    8 -0.000001 -10.320615 -1.410366 0.000000 0.000000 0.000000
    9 -0.000001 -2.553366 0.694624 0.000000 0.000000 0.000000
    10 -0.488517 -2.755600 -0.228261 -1.125952 -0.132656 -0.266599
    11 0.039887 -1.479790 0.029853 -0.790241 0.000000 0.000000
    12 0.028785 -1.075733 -0.023111 -0.609113 0.000000 0.000000
    13 0.250028 -2.820663 -0.238396 -0.569264 -0.159452 -0.314662
    14 -0.049759 -1.680546 0.100480 -1.053069 0.000000 -0.000002
    15 -0.034141 -1.148310 0.084779 -0.023119 0.000000 0.000000
    16 0.957766 -2.746777 -0.090300 -0.168610 -0.360143 -0.074009
    17 -0.033419 -1.397129 -0.011255 -0.108946 0.000000 -0.000001
    18 -0.022360 -0.957436 0.018783 -0.423640 0.000000 0.000000
    19 -1.180680 -2.507214 -0.193861 -1.078492 -0.054420 -0.368807
    20 -0.024966 -1.123934 0.017594 -1.251219 0.000000 0.000001
    21 -0.020057 -0.890966 0.010091 -0.855336 0.000000 0.000000
    22 0.583510 -1.197275 0.185377 -0.768494 -1.225741 0.014825
    23 1.535927 0.010246 0.005008 0.001326 -0.013243 -0.323917
    24 1.100770 0.004526 -0.010676 0.003544 0.015829 0.397493
    25 0.120152 -0.050266 -0.054488 0.287568 3.110905 1.561085
    26 1.304055 8.801644 -0.126373 -4.678056 -1.493055 -0.161010
    27 7.857839 -14.171078 -8.156328 -2.065113 -5.569071 -0.163591
    28 0.096944 -8.450418 -0.009364 -0.299840 -0.426682 -0.014854
    29 0.447952 -2.798983 -0.200442 -0.638196 -0.010396 0.265094
    30 -0.032910 -1.480204 0.004936 -0.751869 0.000000 0.000002
    31 -0.027022 -1.076918 -0.020212 -0.466756 0.000000 0.000000
    32 -0.249534 -2.846960 -0.174216 -0.166661 -0.000125 -0.008396
    33 0.043235 -1.683941 0.096014 -1.117908 0.002823 -0.000167
    34 0.031729 -1.160830 0.058836 -0.165241 0.000642 0.008372
    35 -0.963867 -2.785143 -0.085346 -0.274226 -0.017313 -0.152199
    36 0.028479 -1.403067 0.006271 -0.461932 0.000000 0.000000
    37 0.021413 -0.957779 0.020047 -0.407673 0.000000 0.000000
    38 1.164475 -2.543938 -0.170328 -0.681017 -0.013294 0.477915
    39 0.024033 -1.129040 0.017806 -0.551264 0.000000 0.000001
    40 0.014897 -0.883989 -0.019845 -0.214295 0.000000 0.000000
    41 -0.590676 -1.260571 0.231415 0.455948 -0.241268 -2.597525
    42 1.522835 0.058680 0.016850 0.201133 0.145250 0.073615
    43 1.117948 0.048426 -0.005764 0.007379 -0.024095 -0.242098
    44 -0.131586 -0.119511 0.053461 0.264972 -0.271541 1.630843
    45 -3.448220 6.007059 5.577150 -0.118836 0.843597 1.938893
  time 1
    0 11.402716 -3.063820 -16.150844 -1.524836 -0.288221 1.381261
    1 -0.071919 -8.498734 -0.104136 0.285813 0.230226 0.127920
    2 0.521574 -2.341931 0.944898 0.192476 1.308143 0.129949
    3 0.012425 28.587929 4.758376 0.000000 0.000000 0.000000
    4 -0.000001 -5.493355 -0.179960 0.000000 0.000000 0.000000
    5 -0.670049 -8.175868 2.510258 0.000000 0.000000 0.000000
    6 -0.000001 -16.111864 -1.715292 0.000000 0.000000 0.000000
    7 -0.000001 -7.461284 -0.759587 0.000000 0.000000 0.000000
    8 -0.000001 -10.320615 -1.410366 0.000000 0.000000 0.000000
    9 -0.000001 -2.553366 0.694624 0.000000 0.000000 0.000000
    10 -0.488517 -2.755600 -0.228261 -1.123320 -0.132656 -0.266599
    11 0.039887 -1.479790 0.029853 -0.794870 0.000000 0.000000
    12 0.028785 -1.075733 -0.023111 -0.606183 0.000000 0.000000
    13 0.250028 -2.820663 -0.238396 -0.572588 -0.159272 -0.312636
    14 -0.049759 -1.680546 0.100480 -1.053429 0.000000 -0.000002
    15 -0.034141 -1.148310 0.084779 -0.032023 0.000000 0.000000
    16 0.957766 -2.746777 -0.090300 -0.168610 -0.360143 -0.074009
    17 -0.033419 -1.397129 -0.011255 -0.108946 0.000000 -0.000001
    18 -0.022360 -0.957436 0.018783 -0.423640 0.000000 0.000000
    19 -1.180680 -2.507214 -0.193861 -1.077181 -0.054420 -0.368807
    20 -0.024966 -1.123934 0.017594 -1.252167 0.000000 0.000001
    21 -0.020057 -0.890966 0.010091 -0.855336 0.000000 0.000000
    22 0.583510 -1.197275 0.185377 -0.769472 -1.224388 0.015965
    23 1.535927 0.010246 0.005008 0.001267 -0.013243 -0.319480
    24 1.100770 0.004526 -0.010676 0.001890 0.016093 0.293785
    25 0.120152 -0.050266 -0.054488 0.287568 3.110905 1.561085
    26 1.304055 8.801644 -0.126373 -4.673789 -1.493055 -0.165279
    27 7.553143 -14.471869 -8.191485 -2.054560 -5.609671 -0.176814
    28 0.096944 -8.450418 -0.009364 -0.201655 -0.398485 0.030183
    29 0.447952 -2.798983 -0.200442 -0.645744 -0.010396 0.265094
    30 -0.032910 -1.480204 0.004936 -0.751869 0.000000 0.000002
    31 -0.027022 -1.076918 -0.020212 -0.466756 0.000000 0.000000
    32 -0.249534 -2.846960 -0.174216 -0.176669 -0.000125 -0.008396
    33 0.043235 -1.683941 0.096014 -1.117908 0.002823 -0.000167
    34 0.031729 -1.160830 0.058836 -0.165241 0.000642 0.008372
    35 -0.963867 -2.785143 -0.085346 -0.282718 -0.017313 -0.152199
    36 0.028479 -1.403067 0.006271 -0.461932 0.000000 0.000000
    37 0.021413 -0.957779 0.020047 -0.407673 0.000000 0.000000
    38 1.164475 -2.543938 -0.170328 -0.687626 -0.013294 0.477915
    39 0.024033 -1.129040 0.017806 -0.551264 0.000000 0.000001
    40 0.014897 -0.883989 -0.019845 -0.214295 0.000000 0.000000
    41 -0.590676 -1.260571 0.231415 0.462373 -0.241848 -2.601794
    42 1.522835 0.058680 0.016850 0.206079 0.145813 0.079552
    43 1.117948 0.048426 -0.005764 0.008698 -0.023880 -0.232175
    44 -0.131586 -0.119511 0.041742 0.265955 -0.183491 1.625282
    45 -3.327123 6.339101 5.096666 -0.118358 0.908722 1.901985
  time 2
    0 11.344120 -3.587273 -16.111780 -1.529241 -0.319122 1.391527
    1 -0.071919 -8.498734 -0.104136 0.262473 0.212789 0.144510
    2 0.521574 -2.341931 0.944898 0.192476 1.308143 0.129949
    3 0.012425 28.587929 4.758376 0.000000 0.000000 0.000000
    4 -0.000001 -5.493355 -0.179960 0.000000 0.000000 0.000000
    5 -0.670049 -8.175868 2.510258 0.000000 0.000000 0.000000
    6 -0.000001 -16.111864 -1.715292 0.000000 0.000000 0.000000
    7 -0.000001 -7.461284 -0.759587 0.000000 0.000000 0.000000
    8 -0.000001 -10.320615 -1.410366 0.000000 0.000000 0.000000
    9 -0.000001 -2.553366 0.694624 0.000000 0.000000 0.000000
    10 -0.488517 -2.755600 -0.228261 -1.116174 -0.132656 -0.266599
    11 0.039887 -1.479790 0.029853 -0.807888 0.000000 0.000000
    12 0.028785 -1.075733 -0.023111 -0.598074 0.000000 0.000000
    13 0.250028 -2.820663 -0.238396 -0.581932 -0.158757 -0.307015
    14 -0.049759 -1.680546 0.100480 -1.054420 0.000000 -0.000002
    15 -0.034141 -1.148310 0.084779 -0.056581 0.000000 0.000000
    16 0.957766 -2.746777 -0.090300 -0.168610 -0.360143 -0.074009
    17 -0.033419 -1.397129 -0.011255 -0.108946 0.000000 -0.000001
    18 -0.022360 -0.957436 0.018783 -0.423640 0.000000 0.000000
    19 -1.180680 -2.507214 -0.193861 -1.073530 -0.054420 -0.368807
    20 -0.024966 -1.123934 0.017594 -1.254887 0.000000 0.000001
    21 -0.020057 -0.890966 0.010091 -0.855336 0.000000 0.000000
    22 0.583510 -1.197275 0.185377 -0.772156 -1.220481 0.019154
    23 1.535927 0.010246 0.005008 0.001123 -0.013255 -0.308905
    24 1.100770 0.004526 -0.010676 -0.002113 0.016069 0.046501
    25 0.120152 -0.050266 -0.054488 0.287568 3.110905 1.561085
    26 1.304055 8.801644 -0.126373 -4.662314 -1.493007 -0.176816
    27 7.232820 -14.760940 -8.238362 -2.039078 -5.645185 -0.186780
    28 0.096944 -8.450418 -0.009364 -0.113894 -0.374349 0.072457
    29 0.447952 -2.798983 -0.200442 -0.666544 -0.010396 0.265094
    30 -0.032910 -1.480204 0.004936 -0.751869 0.000000 0.000002
    31 -0.027022 -1.076918 -0.020212 -0.466756 0.000000 0.000000
    32 -0.249534 -2.846960 -0.174216 -0.204371 -0.000125 -0.008396
    33 0.043235 -1.683941 0.096014 -1.117908 0.002823 -0.000167
    34 0.031729 -1.160830 0.058836 -0.165241 0.000642 0.008372
    35 -0.963867 -2.785143 -0.085346 -0.306198 -0.017313 -0.152199
    36 0.028479 -1.403067 0.006271 -0.461932 0.000000 0.000000
    37 0.021413 -0.957779 0.020047 -0.407673 0.000000 0.000000
    38 1.164475 -2.543938 -0.170328 -0.706023 -0.013294 0.477915
    39 0.024033 -1.129040 0.017806 -0.551264 0.000000 0.000001
    40 0.014897 -0.883989 -0.019845 -0.214295 0.000000 0.000000
    41 -0.590676 -1.260571 0.231415 0.480217 -0.243635 -2.613854
    42 1.522835 0.058680 0.016850 0.219878 0.147383 0.096050
    43 1.117948 0.048426 -0.005764 0.012353 -0.023256 -0.204328
    44 -0.127680 -0.115604 0.022210 0.268843 -0.101564 1.619590
    45 -3.209932 6.667236 4.627902 -0.126869 0.971775 1.859055
  time 3
    0 11.285524 -4.036506 -16.057091 -1.534276 -0.351183 1.401072
    1 -0.071919 -8.498734 -0.104136 0.241153 0.197158 0.159761
    2 0.521574 -2.341931 0.944898 0.192476 1.308143 0.129949
    3 0.012425 28.587929 4.758376 0.000000 0.000000 0.000000
    4 -0.000001 -5.493355 -0.179960 0.000000 0.000000 0.000000
    5 -0.670049 -8.175868 2.510258 0.000000 0.000000 0.000000
    6 -0.000001 -16.111864 -1.715292 0.000000 0.000000 0.000000
    7 -0.000001 -7.461284 -0.759587 0.000000 0.000000 0.000000
    8 -0.000001 -10.320615 -1.410366 0.000000 0.000000 0.000000
    9 -0.000001 -2.553366 0.694624 0.000000 0.000000 0.000000
    10 -0.488517 -2.755600 -0.228261 -1.105304 -0.132656 -0.266599
    11 0.039887 -1.479790 0.029853 -0.827937 0.000000 0.000000
    12 0.028785 -1.075733 -0.023111 -0.585809 0.000000 0.000000
    13 0.250028 -2.820663 -0.238396 -0.596405 -0.157990 -0.298530
    14 -0.049759 -1.680546 0.100480 -1.056087 0.000000 -0.000002
    15 -0.034141 -1.148310 0.084779 -0.093682 0.000000 0.000000
    16 0.957766 -2.746777 -0.090300 -0.168610 -0.360143 -0.074009
    17 -0.033419 -1.397129 -0.011255 -0.108946 0.000000 -0.000001
    18 -0.022360 -0.957436 0.018783 -0.423640 0.000000 0.000000
    19 -1.180680 -2.507214 -0.193861 -1.067823 -0.054420 -0.368807
    20 -0.024966 -1.123934 0.017594 -1.259049 0.000000 0.000001
    21 -0.020057 -0.890966 0.010091 -0.855336 0.000000 0.000000
    22 0.583510 -1.197275 0.185377 -0.776419 -1.214294 0.024145
    23 1.535927 0.010246 0.005008 0.000955 -0.013267 -0.296297
    24 1.100770 0.004526 -0.010676 -0.006679 0.014787 -0.248634
    25 0.120152 -0.050266 -0.054488 0.287568 3.110905 1.561085
    26 1.304055 8.801644 -0.126373 -4.645149 -1.492935 -0.194076
    27 6.916404 -15.038292 -8.289144 -2.019236 -5.675611 -0.194541
    28 0.096944 -8.450418 -0.009364 -0.036657 -0.354328 0.112125
    29 0.447952 -2.798983 -0.200442 -0.697948 -0.010396 0.265094
    30 -0.032910 -1.480204 0.004936 -0.751869 0.000000 0.000002
    31 -0.027022 -1.076918 -0.020212 -0.466756 0.000000 0.000000
    32 -0.249534 -2.846960 -0.174216 -0.246179 -0.000125 -0.008396
    33 0.043235 -1.683941 0.096014 -1.117908 0.002823 -0.000167
    34 0.031729 -1.160830 0.058836 -0.165241 0.000642 0.008372
    35 -0.963867 -2.785143 -0.085346 -0.341681 -0.017313 -0.152199
    36 0.028479 -1.403067 0.006271 -0.461932 0.000000 0.000000
    37 0.021413 -0.957779 0.020047 -0.407673 0.000000 0.000000
    38 1.164475 -2.543938 -0.170328 -0.733784 -0.013294 0.477915
    39 0.024033 -1.129040 0.017806 -0.551264 0.000000 0.000001
    40 0.014897 -0.883989 -0.019845 -0.214295 0.000000 0.000000
    41 -0.590676 -1.260571 0.231415 0.507385 -0.246847 -2.632518
    42 1.522835 0.058680 0.016850 0.241002 0.149780 0.121229
    43 1.117948 0.048426 -0.005764 0.017842 -0.022286 -0.161517
    44 -0.119867 -0.111698 0.014397 0.272966 -0.029884 1.613370
    45 -3.096647 6.987558 4.174763 -0.145613 1.032030 1.809156
  time 4
    0 11.226929 -4.434956 -15.982870 -1.539795 -0.384122 1.410167
    1 -0.071919 -8.498734 -0.104136 0.221939 0.183360 0.173673
    2 0.521574 -2.341931 0.944898 0.192476 1.308143 0.129949
    3 0.012425 28.587929 4.758376 0.000000 0.000000 0.000000
    4 -0.000001 -5.493355 -0.179960 0.000000 0.000000 0.000000
    5 -0.670049 -8.175868 2.510258 0.000000 0.000000 0.000000
    6 -0.000001 -16.111864 -1.715292 0.000000 0.000000 0.000000
    7 -0.000001 -7.461284 -0.759587 0.000000 0.000000 0.000000
    8 -0.000001 -10.320615 -1.410366 0.000000 0.000000 0.000000
    9 -0.000001 -2.553366 0.694624 0.000000 0.000000 0.000000
    10 -0.488517 -2.755600 -0.228261 -1.091764 -0.132656 -0.266599
    11 0.039887 -1.479790 0.029853 -0.853763 0.000000 0.000000
    12 0.028785 -1.075733 -0.023111 -0.570409 0.000000 0.000000
    13 0.250028 -2.820663 -0.238396 -0.615063 -0.157019 -0.287900
    14 -0.049759 -1.680546 0.100480 -1.058384 0.000000 -0.000002
    15 -0.034141 -1.148310 0.084779 -0.140288 0.000000 0.000000
    16 0.957766 -2.746777 -0.090300 -0.168610 -0.360143 -0.074009
    17 -0.033419 -1.397129 -0.011255 -0.108946 0.000000 -0.000001
    18 -0.022360 -0.957436 0.018783 -0.423640 0.000000 0.000000
    19 -1.180680 -2.507214 -0.193861 -1.060273 -0.054420 -0.368807
    20 -0.024966 -1.123934 0.017594 -1.264612 0.000000 0.000001
    21 -0.020057 -0.890966 0.010091 -0.855336 0.000000 0.000000
    22 0.583510 -1.197275 0.185377 -0.781945 -1.206153 0.030631
    23 1.535927 0.010246 0.005008 0.000823 -0.013279 -0.285681
    24 1.100770 0.004526 -0.010676 -0.010083 0.012689 -0.495918
    25 0.120152 -0.050266 -0.054488 0.287568 3.110905 1.561085
    26 1.304055 8.801644 -0.126373 -4.623907 -1.492803 -0.215241
    27 6.599988 -15.300019 -8.347740 -1.995539 -5.701045 -0.200962
    28 0.096944 -8.450418 -0.009364 0.029955 -0.338505 0.149394
    29 0.447952 -2.798983 -0.200442 -0.737303 -0.010396 0.265094
    30 -0.032910 -1.480204 0.004936 -0.751869 0.000000 0.000002
    31 -0.027022 -1.076918 -0.020212 -0.466756 0.000000 0.000000
    32 -0.249534 -2.846960 -0.174216 -0.298610 -0.000125 -0.008396
    33 0.043235 -1.683941 0.096014 -1.117908 0.002823 -0.000167
    34 0.031729 -1.160830 0.058836 -0.165241 0.000642 0.008372
    35 -0.963867 -2.785143 -0.085346 -0.386161 -0.017313 -0.152199
    36 0.028479 -1.403067 0.006271 -0.461932 0.000000 0.000000
    37 0.021413 -0.957779 0.020047 -0.407673 0.000000 0.000000
    38 1.164475 -2.543938 -0.170328 -0.768539 -0.013294 0.477915
    39 0.024033 -1.129040 0.017806 -0.551264 0.000000 0.000001
    40 0.014897 -0.883989 -0.019845 -0.214295 0.000000 0.000000
    41 -0.590676 -1.260571 0.231415 0.541786 -0.251605 -2.656715
    42 1.522835 0.058680 0.016850 0.267865 0.152740 0.153210
    43 1.117948 0.048426 -0.005764 0.024661 -0.020991 -0.106743
    44 -0.108148 -0.111698 0.014397 0.277496 0.027510 1.606023
    45 -2.983362 7.300068 3.741156 -0.175162 1.088692 1.751403
  time 5
    0 11.164427 -4.763091 -15.889117 -1.545749 -0.418142 1.418902
    1 -0.071919 -8.498734 -0.104136 0.204745 0.171421 0.186289
    2 0.521574 -2.341931 0.944898 0.192476 1.308143 0.129949
    3 0.012425 28.587929 4.758376 0.000000 0.000000 0.000000
    4 -0.000001 -5.493355 -0.179960 0.000000 0.000000 0.000000
    5 -0.670049 -8.175868 2.510258 0.000000 0.000000 0.000000
    6 -0.000001 -16.111864 -1.715292 0.000000 0.000000 0.000000
    7 -0.000001 -7.461284 -0.759587 0.000000 0.000000 0.000000
    8 -0.000001 -10.320615 -1.410366 0.000000 0.000000 0.000000
    9 -0.000001 -2.553366 0.694624 0.000000 0.000000 0.000000
    10 -0.488517 -2.755600 -0.228261 -1.076306 -0.132656 -0.266599
    11 0.039887 -1.479790 0.029853 -0.884011 0.000000 0.000000
    12 0.028785 -1.075733 -0.023111 -0.552966 0.000000 0.000000
    13 0.250028 -2.820663 -0.238396 -0.637045 -0.155916 -0.275820
    14 -0.049759 -1.680546 0.100480 -1.061266 0.000000 -0.000002
    15 -0.034141 -1.148310 0.084779 -0.193148 0.000000 0.000000
    16 0.957766 -2.746777 -0.090300 -0.168610 -0.360143 -0.074009
    17 -0.033419 -1.397129 -0.011255 -0.108946 0.000000 -0.000001
    18 -0.022360 -0.957436 0.018783 -0.423640 0.000000 0.000000
    19 -1.180680 -2.507214 -0.193861 -1.051199 -0.054420 -0.368807
    20 -0.024966 -1.123934 0.017594 -1.271288 0.000000 0.000001
    21 -0.020057 -0.890966 0.010091 -0.855336 0.000000 0.000000
    22 0.583510 -1.197275 0.185377 -0.788481 -1.196359 0.038349
    23 1.535927 0.010246 0.005008 0.000763 -0.013279 -0.281243
    24 1.100770 0.004526 -0.010676 -0.011341 0.011587 -0.599603
    25 0.120152 -0.050266 -0.054488 0.287568 3.110905 1.561085
    26 1.304055 8.801644 -0.126373 -4.600484 -1.492623 -0.238860
    27 6.275760 -15.546120 -8.418055 -1.968114 -5.721392 -0.206711
    28 0.096944 -8.450418 -0.009364 0.085967 -0.326965 0.184449
    29 0.447952 -2.798983 -0.200442 -0.782050 -0.010396 0.265094
    30 -0.032910 -1.480204 0.004936 -0.751869 0.000000 0.000002
    31 -0.027022 -1.076918 -0.020212 -0.466756 0.000000 0.000000
    32 -0.249534 -2.846960 -0.174216 -0.358112 -0.000125 -0.008396
    33 0.043235 -1.683941 0.096014 -1.117908 0.002823 -0.000167
    34 0.031729 -1.160830 0.058836 -0.165241 0.000642 0.008372
    35 -0.963867 -2.785143 -0.085346 -0.436652 -0.017313 -0.152199
    36 0.028479 -1.403067 0.006271 -0.461932 0.000000 0.000000
    37 0.021413 -0.957779 0.020047 -0.407673 0.000000 0.000000
    38 1.164475 -2.543938 -0.170328 -0.808032 -0.013294 0.477915
    39 0.024033 -1.129040 0.017806 -0.551264 0.000000 0.000001
    40 0.014897 -0.883989 -0.019845 -0.214295 0.000000 0.000000
    41 -0.590676 -1.260571 0.231415 0.581327 -0.257956 -2.685314
    42 1.522835 0.058680 0.016850 0.298975 0.156120 0.190053
    43 1.117948 0.048426 -0.005764 0.032343 -0.019457 -0.042886
    44 -0.100335 -0.111698 0.006584 0.281499 0.066520 1.596807
    45 -2.873984 7.589139 3.327081 -0.216474 1.141101 1.685088
  time 6
    0 11.105832 -5.028724 -15.768020 -1.552236 -0.453120 1.426916
    1 -0.071919 -8.498734 -0.104136 0.189572 0.161341 0.197695
    2 0.521574 -2.341931 0.944898 0.192476 1.308143 0.129949
    3 0.012425 28.587929 4.758376 0.000000 0.000000 0.000000
    4 -0.000001 -5.493355 -0.179960 0.000000 0.000000 0.000000
    5 -0.670049 -8.175868 2.510258 0.000000 0.000000 0.000000
    6 -0.000001 -16.111864 -1.715292 0.000000 0.000000 0.000000
    7 -0.000001 -7.461284 -0.759587 0.000000 0.000000 0.000000
    8 -0.000001 -10.320615 -1.410366 0.000000 0.000000 0.000000
    9 -0.000001 -2.553366 0.694624 0.000000 0.000000 0.000000
    10 -0.488517 -2.755600 -0.228261 -1.059945 -0.132656 -0.266599
    11 0.039887 -1.479790 0.029853 -0.917391 0.000000 0.000000
    12 0.028785 -1.075733 -0.023111 -0.534500 0.000000 0.000000
    13 0.250028 -2.820663 -0.238396 -0.661349 -0.154766 -0.263032
    14 -0.049759 -1.680546 0.100480 -1.064780 0.000000 -0.000002
    15 -0.034141 -1.148310 0.084779 -0.249153 0.000000 0.000000
    16 0.957766 -2.746777 -0.090300 -0.168610 -0.360143 -0.074009
    17 -0.033419 -1.397129 -0.011255 -0.108946 0.000000 -0.000001
    18 -0.022360 -0.957436 0.018783 -0.423640 0.000000 0.000000
    19 -1.180680 -2.507214 -0.193861 -1.040813 -0.054420 -0.368807
    20 -0.024966 -1.123934 0.017594 -1.278871 0.000000 0.000001
    21 -0.020057 -0.890966 0.010091 -0.855336 0.000000 0.000000
    22 0.583510 -1.197275 0.185377 -0.795806 -1.185187 0.046976
    23 1.535927 0.010246 0.005008 0.001195 -0.013255 -0.313591
    24 1.100770 0.004526 -0.010676 -0.010886 0.012018 -0.560379
    25 0.120152 -0.050266 -0.054488 0.287568 3.110905 1.561085
    26 1.304055 8.801644 -0.126373 -4.576301 -1.492383 -0.263114
    27 5.947625 -15.780502 -8.488369 -1.937276 -5.736935 -0.212364
    28 0.096944 -8.450418 -0.009364 0.131304 -0.319763 0.217523
    29 0.447952 -2.798983 -0.200442 -0.829447 -0.010396 0.265094
    30 -0.032910 -1.480204 0.004936 -0.751869 0.000000 0.000002
    31 -0.027022 -1.076918 -0.020212 -0.466756 0.000000 0.000000
    32 -0.249534 -2.846960 -0.174216 -0.421132 -0.000125 -0.008396
    33 0.043235 -1.683941 0.096014 -1.117908 0.002823 -0.000167
    34 0.031729 -1.160830 0.058836 -0.165241 0.000642 0.008372
    35 -0.963867 -2.785143 -0.085346 -0.490129 -0.017313 -0.152199
    36 0.028479 -1.403067 0.006271 -0.461932 0.000000 0.000000
    37 0.021413 -0.957779 0.020047 -0.407673 0.000000 0.000000
    38 1.164475 -2.543938 -0.170328 -0.849838 -0.013294 0.477915
    39 0.024033 -1.129040 0.017806 -0.551264 0.000000 0.000001
    40 0.014897 -0.883989 -0.019845 -0.214295 0.000000 0.000000
    41 -0.590676 -1.260571 0.231415 0.623918 -0.266143 -2.717245
    42 1.522835 0.058680 0.016850 0.332746 0.159655 0.229821
    43 1.117948 0.048426 -0.005764 0.040433 -0.017732 0.026972
    44 -0.088616 -0.111698 0.006584 0.284124 0.083095 1.584870
    45 -2.772418 7.854772 2.940351 -0.269262 1.188639 1.610151
  time 7
    0 11.039423 -5.239668 -15.635203 -1.559159 -0.489139 1.434571
    1 -0.071919 -8.498734 -0.104136 0.176505 0.153120 0.207848
    2 0.521574 -2.341931 0.944898 0.192476 1.308143 0.129949
    3 0.012425 28.587929 4.758376 0.000000 0.000000 0.000000
    4 -0.000001 -5.493355 -0.179960 0.000000 0.000000 0.000000
    5 -0.670049 -8.175868 2.510258 0.000000 0.000000 0.000000
    6 -0.000001 -16.111864 -1.715292 0.000000 0.000000 0.000000
    7 -0.000001 -7.461284 -0.759587 0.000000 0.000000 0.000000
    8 -0.000001 -10.320615 -1.410366 0.000000 0.000000 0.000000
    9 -0.000001 -2.553366 0.694624 0.000000 0.000000 0.000000
    10 -0.488517 -2.755600 -0.228261 -1.043584 -0.132656 -0.266599
    11 0.039887 -1.479790 0.029853 -0.952546 0.000000 0.000000
    12 0.028785 -1.075733 -0.023111 -0.516000 0.000000 0.000000
    13 0.250028 -2.820663 -0.238396 -0.687114 -0.153603 -0.250232
    14 -0.049759 -1.680546 0.100480 -1.068788 0.000000 -0.000002
    15 -0.034141 -1.148310 0.084779 -0.305087 0.000000 0.000000
    16 0.957766 -2.746777 -0.090300 -0.168610 -0.360143 -0.074009
    17 -0.033419 -1.397129 -0.011255 -0.108946 0.000000 -0.000001
    18 -0.022360 -0.957436 0.018783 -0.423640 0.000000 0.000000
    19 -1.180680 -2.507214 -0.193861 -1.029506 -0.054420 -0.368807
    20 -0.024966 -1.123934 0.017594 -1.287195 0.000000 0.000001
    21 -0.020057 -0.890966 0.010091 -0.855336 0.000000 0.000000
    22 0.583510 -1.197275 0.185377 -0.803763 -1.172963 0.056281
    23 1.535927 0.010246 0.005008 0.002333 -0.013099 -0.400183
    24 1.100770 0.004526 -0.010676 -0.009615 0.013061 -0.459179
    25 0.120152 -0.050266 -0.054488 0.287568 3.110905 1.561085
    26 1.304055 8.801644 -0.126373 -4.553067 -1.492108 -0.286459
    27 5.619490 -16.003165 -8.570403 -1.903090 -5.747485 -0.218305
    28 0.096944 -8.450418 -0.009364 0.165891 -0.316927 0.248694
    29 0.447952 -2.798983 -0.200442 -0.876754 -0.010396 0.265094
    30 -0.032910 -1.480204 0.004936 -0.751869 0.000000 0.000002
    31 -0.027022 -1.076918 -0.020212 -0.466756 0.000000 0.000000
    32 -0.249534 -2.846960 -0.174216 -0.484152 -0.000125 -0.008396
    33 0.043235 -1.683941 0.096014 -1.117908 0.002823 -0.000167
    34 0.031729 -1.160830 0.058836 -0.165241 0.000642 0.008372
    35 -0.963867 -2.785143 -0.085346 -0.543605 -0.017313 -0.152199
    36 0.028479 -1.403067 0.006271 -0.461932 0.000000 0.000000
    37 0.021413 -0.957779 0.020047 -0.407673 0.000000 0.000000
    38 1.164475 -2.543938 -0.170328 -0.891644 -0.013294 0.477915
    39 0.024033 -1.129040 0.017806 -0.551264 0.000000 0.000001
    40 0.014897 -0.883989 -0.019845 -0.214295 0.000000 0.000000
    41 -0.590676 -1.260571 0.231415 0.667434 -0.276286 -2.751434
    42 1.522835 0.058680 0.016850 0.367651 0.163191 0.270692
    43 1.117948 0.048426 -0.005764 0.048414 -0.015850 0.099991
    44 -0.076897 -0.111698 0.006584 0.285382 0.081417 1.572155
    45 -2.670853 8.089154 2.577058 -0.332760 1.230909 1.527360
  time 8
    0 10.976921 -5.380297 -15.478948 -1.566614 -0.526076 1.441504
    1 -0.071919 -8.498734 -0.104136 0.165501 0.146783 0.216834
    2 0.521574 -2.341931 0.944898 0.192476 1.308143 0.129949
    3 0.012425 28.587929 4.758376 0.000000 0.000000 0.000000
    4 -0.000001 -5.493355 -0.179960 0.000000 0.000000 0.000000
    5 -0.670049 -8.175868 2.510258 0.000000 0.000000 0.000000
    6 -0.000001 -16.111864 -1.715292 0.000000 0.000000 0.000000
    7 -0.000001 -7.461284 -0.759587 0.000000 0.000000 0.000000
    8 -0.000001 -10.320615 -1.410366 0.000000 0.000000 0.000000
    9 -0.000001 -2.553366 0.694624 0.000000 0.000000 0.000000
    10 -0.488517 -2.755600 -0.228261 -1.028201 -0.132656 -0.266599
    11 0.039887 -1.479790 0.029853 -0.988084 0.000000 0.000000
    12 0.028785 -1.075733 -0.023111 -0.498556 0.000000 0.000000
    13 0.250028 -2.820663 -0.238396 -0.713424 -0.152525 -0.238164
    14 -0.049759 -1.680546 0.100480 -1.073382 0.000000 -0.000002
    15 -0.034141 -1.148310 0.084779 -0.357983 0.000000 0.000000
    16 0.957766 -2.746777 -0.090300 -0.168610 -0.360143 -0.074009
    17 -0.033419 -1.397129 -0.011255 -0.108946 0.000000 -0.000001
    18 -0.022360 -0.957436 0.018783 -0.423640 0.000000 0.000000
    19 -1.180680 -2.507214 -0.193861 -1.017490 -0.054420 -0.368807
    20 -0.024966 -1.123934 0.017594 -1.296014 0.000000 0.000001
    21 -0.020057 -0.890966 0.010091 -0.855336 0.000000 0.000000
    22 0.583510 -1.197275 0.185377 -0.812036 -1.159913 0.066002
    23 1.535927 0.010246 0.005008 0.003951 -0.012715 -0.525468
    24 1.100770 0.004526 -0.010676 -0.007722 0.014259 -0.320802
    25 0.120152 -0.050266 -0.054488 0.287568 3.110905 1.561085
    26 1.304055 8.801644 -0.126373 -4.532299 -1.491832 -0.307171
    27 5.287448 -16.214109 -8.660250 -1.865743 -5.753231 -0.224821
    28 0.096944 -8.450418 -0.009364 0.189728 -0.318512 0.278093
    29 0.447952 -2.798983 -0.200442 -0.921501 -0.010396 0.265094
    30 -0.032910 -1.480204 0.004936 -0.751869 0.000000 0.000002
    31 -0.027022 -1.076918 -0.020212 -0.466756 0.000000 0.000000
    32 -0.249534 -2.846960 -0.174216 -0.543654 -0.000125 -0.008396
    33 0.043235 -1.683941 0.096014 -1.117908 0.002823 -0.000167
    34 0.031729 -1.160830 0.058836 -0.165241 0.000642 0.008372
    35 -0.963867 -2.785143 -0.085346 -0.594076 -0.017313 -0.152199
    36 0.028479 -1.403067 0.006271 -0.461932 0.000000 0.000000
    37 0.021413 -0.957779 0.020047 -0.407673 0.000000 0.000000
    38 1.164475 -2.543938 -0.170328 -0.931136 -0.013294 0.477915
    39 0.024033 -1.129040 0.017806 -0.551264 0.000000 0.000001
    40 0.014897 -0.883989 -0.019845 -0.214295 0.000000 0.000000
    41 -0.590676 -1.260571 0.231415 0.709756 -0.288651 -2.786867
    42 1.522835 0.058680 0.016850 0.402158 0.166498 0.310668
    43 1.117948 0.048426 -0.005764 0.055881 -0.013956 0.173210
    44 -0.057365 -0.111698 0.006584 0.285933 0.070451 1.560841
    45 -2.577100 8.292285 2.245017 -0.404195 1.267825 1.439078
  time 9
    0 10.910513 -5.462331 -15.299255 -1.574457 -0.564013 1.448078
    1 -0.071919 -8.498734 -0.104136 0.156604 0.142333 0.224654
    2 0.521574 -2.341931 0.944898 0.192476 1.308143 0.129949
    3 0.012425 28.587929 4.758376 0.000000 0.000000 0.000000
    4 -0.000001 -5.493355 -0.179960 0.000000 0.000000 0.000000
    5 -0.670049 -8.175868 2.510258 0.000000 0.000000 0.000000
    6 -0.000001 -16.111864 -1.715292 0.000000 0.000000 0.000000
    7 -0.000001 -7.461284 -0.759587 0.000000 0.000000 0.000000
    8 -0.000001 -10.320615 -1.410366 0.000000 0.000000 0.000000
    9 -0.000001 -2.553366 0.694624 0.000000 0.000000 0.000000
    10 -0.488517 -2.755600 -0.228261 -1.014548 -0.132656 -0.266599
    11 0.039887 -1.479790 0.029853 -1.022856 0.000000 0.000000
    12 0.028785 -1.075733 -0.023111 -0.483191 0.000000 0.000000
    13 0.250028 -2.820663 -0.238396 -0.739333 -0.151566 -0.227522
    14 -0.049759 -1.680546 0.100480 -1.078472 0.000000 -0.000002
    15 -0.034141 -1.148310 0.084779 -0.404518 0.000000 0.000000
    16 0.957766 -2.746777 -0.090300 -0.168610 -0.360143 -0.074009
    17 -0.033419 -1.397129 -0.011255 -0.108946 0.000000 -0.000001
    18 -0.022360 -0.957436 0.018783 -0.423640 0.000000 0.000000
    19 -1.180680 -2.507214 -0.193861 -1.005084 -0.054420 -0.368807
    20 -0.024966 -1.123934 0.017594 -1.305204 0.000000 0.000001
    21 -0.020057 -0.890966 0.010091 -0.855336 0.000000 0.000000
    22 0.583510 -1.197275 0.185377 -0.820498 -1.146412 0.075877
    23 1.535927 0.010246 0.005008 0.005785 -0.011996 -0.673978
    24 1.100770 0.004526 -0.010676 -0.005493 0.015266 -0.170048
    25 0.120152 -0.050266 -0.054488 0.287568 3.110905 1.561085
    26 1.304055 8.801644 -0.126373 -4.515704 -1.491580 -0.323885
    27 4.955407 -16.413334 -8.754002 -1.825301 -5.754268 -0.232200
    28 0.096944 -8.450418 -0.009364 0.202714 -0.324574 0.305824
    29 0.447952 -2.798983 -0.200442 -0.960901 -0.010396 0.265094
    30 -0.032910 -1.480204 0.004936 -0.751869 0.000000 0.000002
    31 -0.027022 -1.076918 -0.020212 -0.466756 0.000000 0.000000
    32 -0.249534 -2.846960 -0.174216 -0.596086 -0.000125 -0.008396
    33 0.043235 -1.683941 0.096014 -1.117908 0.002823 -0.000167
    34 0.031729 -1.160830 0.058836 -0.165241 0.000642 0.008372
    35 -0.963867 -2.785143 -0.085346 -0.638556 -0.017313 -0.152199
    36 0.028479 -1.403067 0.006271 -0.461932 0.000000 0.000000
    37 0.021413 -0.957779 0.020047 -0.407673 0.000000 0.000000
    38 1.164475 -2.543938 -0.170328 -0.965892 -0.013294 0.477915
    39 0.024033 -1.129040 0.017806 -0.551264 0.000000 0.000001
    40 0.014897 -0.883989 -0.019845 -0.214295 0.000000 0.000000
    41 -0.590676 -1.260571 0.231415 0.748819 -0.303552 -2.822397
    42 1.522835 0.058680 0.016850 0.434684 0.169411 0.347900
    43 1.117948 0.048426 -0.005764 0.062305 -0.012159 0.243588
    44 -0.033927 -0.111698 0.006584 0.286125 0.053277 1.550499
    45 -2.487253 8.448540 1.940320 -0.478977 1.299715 1.349850
  time 10
    0 10.844105 -5.481863 -15.107843 -1.582638 -0.602949 1.453931
    1 -0.071919 -8.498734 -0.104136 0.149726 0.139767 0.231307
    2 0.521574 -2.341931 0.944898 0.192476 1.308143 0.129949
    3 0.012425 28.587929 4.758376 0.000000 0.000000 0.000000
    4 -0.000001 -5.493355 -0.179960 0.000000 0.000000 0.000000
    5 -0.670049 -8.175868 2.510258 0.000000 0.000000 0.000000
    6 -0.000001 -16.111864 -1.715292 0.000000 0.000000 0.000000
    7 -0.000001 -7.461284 -0.759587 0.000000 0.000000 0.000000
    8 -0.000001 -10.320615 -1.410366 0.000000 0.000000 0.000000
    9 -0.000001 -2.553366 0.694624 0.000000 0.000000 0.000000
    10 -0.488517 -2.755600 -0.228261 -1.003754 -0.132656 -0.266599
    11 0.039887 -1.479790 0.029853 -1.055365 0.000000 0.000000
    12 0.028785 -1.075733 -0.023111 -0.470926 0.000000 0.000000
    13 0.250028 -2.820663 -0.238396 -0.763923 -0.150799 -0.219025
    14 -0.049759 -1.680546 0.100480 -1.084102 0.000000 -0.000002
    15 -0.034141 -1.148310 0.084779 -0.441690 0.000000 0.000000
    16 0.957766 -2.746777 -0.090300 -0.168610 -0.360143 -0.074009
    17 -0.033419 -1.397129 -0.011255 -0.108946 0.000000 -0.000001
    18 -0.022360 -0.957436 0.018783 -0.423640 0.000000 0.000000
    19 -1.180680 -2.507214 -0.193861 -0.992536 -0.054420 -0.368807
    20 -0.024966 -1.123934 0.017594 -1.314435 0.000000 0.000001
    21 -0.020057 -0.890966 0.010091 -0.855336 0.000000 0.000000
    22 0.583510 -1.197275 0.185377 -0.828960 -1.132710 0.085721
    23 1.535927 0.010246 0.005008 0.007582 -0.010954 -0.830035
    24 1.100770 0.004526 -0.010676 -0.003335 0.015865 -0.031671
    25 0.120152 -0.050266 -0.054488 0.287568 3.110905 1.561085
    26 1.304055 8.801644 -0.126373 -4.504608 -1.491401 -0.334968
    27 4.615553 -16.604746 -8.851662 -1.781888 -5.750500 -0.240632
    28 0.096944 -8.450418 -0.009364 0.204773 -0.335141 0.332043
    29 0.447952 -2.798983 -0.200442 -0.992349 -0.010396 0.265094
    30 -0.032910 -1.480204 0.004936 -0.751869 0.000000 0.000002
    31 -0.027022 -1.076918 -0.020212 -0.466756 0.000000 0.000000
    32 -0.249534 -2.846960 -0.174216 -0.637860 -0.000125 -0.008396
    33 0.043235 -1.683941 0.096014 -1.117908 0.002823 -0.000167
    34 0.031729 -1.160830 0.058836 -0.165241 0.000642 0.008372
    35 -0.963867 -2.785143 -0.085346 -0.674039 -0.017313 -0.152199
    36 0.028479 -1.403067 0.006271 -0.461932 0.000000 0.000000
    37 0.021413 -0.957779 0.020047 -0.407673 0.000000 0.000000
    38 1.164475 -2.543938 -0.170328 -0.993653 -0.013294 0.477915
    39 0.024033 -1.129040 0.017806 -0.551264 0.000000 0.000001
    40 0.014897 -0.883989 -0.019845 -0.214295 0.000000 0.000000
    41 -0.590676 -1.260571 0.231415 0.782533 -0.321326 -2.857084
    42 1.522835 0.058680 0.016850 0.463774 0.171700 0.380477
    43 1.117948 0.048426 -0.005764 0.067230 -0.010577 0.308365
    44 -0.014395 -0.115604 0.006584 0.286173 0.032975 1.540719
    45 -2.405220 8.557919 1.674687 -0.550125 1.327308 1.266410
  time 11
    0 10.769884 -5.388110 -14.861742 -1.591352 -0.645483 1.459154
    1 -0.071919 -8.498734 -0.104136 0.145256 0.139400 0.237486
    2 0.521574 -2.341931 0.944898 0.192476 1.308143 0.129949
    3 0.012425 28.587929 4.758376 0.000000 0.000000 0.000000
    4 -0.000001 -5.493355 -0.179960 0.000000 0.000000 0.000000
    5 -0.670049 -8.175868 2.510258 0.000000 0.000000 0.000000
    6 -0.000001 -16.111864 -1.715292 0.000000 0.000000 0.000000
    7 -0.000001 -7.461284 -0.759587 0.000000 0.000000 0.000000
    8 -0.000001 -10.320615 -1.410366 0.000000 0.000000 0.000000
    9 -0.000001 -2.553366 0.694624 0.000000 0.000000 0.000000
    10 -0.488517 -2.755600 -0.228261 -0.996570 -0.132656 -0.266599
    11 0.039887 -1.479790 0.029853 -1.084395 0.000000 0.000000
    12 0.028785 -1.075733 -0.023111 -0.462817 0.000000 0.000000
    13 0.250028 -2.820663 -0.238396 -0.786278 -0.150284 -0.213404
    14 -0.049759 -1.680546 0.100480 -1.090137 0.000000 -0.000002
    15 -0.034141 -1.148310 0.084779 -0.466247 0.000000 0.000000
    16 0.957766 -2.746777 -0.090300 -0.168610 -0.360143 -0.074009
    17 -0.033419 -1.397129 -0.011255 -0.108946 0.000000 -0.000001
    18 -0.022360 -0.957436 0.018783 -0.423640 0.000000 0.000000
    19 -1.180680 -2.507214 -0.193861 -0.980130 -0.054420 -0.368807
    20 -0.024966 -1.123934 0.017594 -1.323542 0.000000 0.000001
    21 -0.020057 -0.890966 0.010091 -0.855336 0.000000 0.000000
    22 0.583510 -1.197275 0.185377 -0.837201 -1.119159 0.095288
    23 1.535927 0.010246 0.005008 0.009116 -0.009707 -0.978129
    24 1.100770 0.004526 -0.010676 -0.001741 0.016117 0.069506
    25 0.120152 -0.050266 -0.054488 0.287568 3.110905 1.561085
    26 1.304055 8.801644 -0.126373 -4.500625 -1.491329 -0.338965
    27 4.275699 -16.800065 -8.961040 -1.739360 -5.738725 -0.259126
    28 0.096944 -8.450418 -0.009364 0.186362 -0.354272 0.358757
    29 0.447952 -2.798983 -0.200442 -1.013105 -0.010396 0.265094
    30 -0.032910 -1.480204 0.004936 -0.751869 0.000000 0.000002
    31 -0.027022 -1.076918 -0.020212 -0.466756 0.000000 0.000000
    32 -0.249534 -2.846960 -0.174216 -0.665561 -0.000125 -0.008396
    33 0.043235 -1.683941 0.096014 -1.117908 0.002823 -0.000167
    34 0.031729 -1.160830 0.058836 -0.165241 0.000642 0.008372
    35 -0.963867 -2.785143 -0.085346 -0.697519 -0.017313 -0.152199
    36 0.028479 -1.403067 0.006271 -0.461932 0.000000 0.000000
    37 0.021413 -0.957779 0.020047 -0.407673 0.000000 0.000000
    38 1.164475 -2.543938 -0.170328 -1.011994 -0.013294 0.477915
    39 0.024033 -1.129040 0.017806 -0.551264 0.000000 0.000001
    40 0.014897 -0.883989 -0.019845 -0.214295 0.000000 0.000000
    41 -0.590676 -1.260571 0.231415 0.808774 -0.342458 -2.889780
    42 1.522835 0.058680 0.016850 0.487786 0.173186 0.406462
    43 1.117948 0.048426 -0.005764 0.070190 -0.009366 0.364379
    44 0.009043 -0.115604 0.006584 0.286281 0.012661 1.531024
    45 -2.327092 8.616514 1.440305 -0.608459 1.351771 1.197673
  time 12
    0 10.680037 -5.134196 -14.553139 -1.600792 -0.693574 1.463116
    1 -0.071919 -8.498734 -0.104136 0.143021 0.141102 0.242972
    2 0.521574 -2.341931 0.944898 0.192476 1.308143 0.129949
    3 0.012425 28.587929 4.758376 0.000000 0.000000 0.000000
    4 -0.000001 -5.493355 -0.179960 0.000000 0.000000 0.000000
    5 -0.670049 -8.175868 2.510258 0.000000 0.000000 0.000000
    6 -0.000001 -16.111864 -1.715292 0.000000 0.000000 0.000000
    7 -0.000001 -7.461284 -0.759587 0.000000 0.000000 0.000000
    8 -0.000001 -10.320615 -1.410366 0.000000 0.000000 0.000000
    9 -0.000001 -2.553366 0.694624 0.000000 0.000000 0.000000
    10 -0.488517 -2.755600 -0.228261 -0.993975 -0.132656 -0.266599
    11 0.039887 -1.479790 0.029853 -1.108620 0.000000 0.000000
    12 0.028785 -1.075733 -0.023111 -0.459853 0.000000 0.000000
    13 0.250028 -2.820663 -0.238396 -0.805480 -0.150104 -0.211378
    14 -0.049759 -1.680546 0.100480 -1.096668 0.000000 -0.000002
    15 -0.034141 -1.148310 0.084779 -0.475151 0.000000 0.000000
    16 0.957766 -2.746777 -0.090300 -0.168610 -0.360143 -0.074009
    17 -0.033419 -1.397129 -0.011255 -0.108946 0.000000 -0.000001
    18 -0.022360 -0.957436 0.018783 -0.423640 0.000000 0.000000
    19 -1.180680 -2.507214 -0.193861 -0.968078 -0.054420 -0.368807
    20 -0.024966 -1.123934 0.017594 -1.332402 0.000000 0.000001
    21 -0.020057 -0.890966 0.010091 -0.855336 0.000000 0.000000
    22 0.583510 -1.197275 0.185377 -0.845127 -1.106008 0.104439
    23 1.535927 0.010246 0.005008 0.010243 -0.008509 -1.102751
    24 1.100770 0.004526 -0.010676 -0.001106 0.016177 0.108753
    25 0.120152 -0.050266 -0.054488 0.287568 3.110905 1.561085
    26 1.304055 8.801644 -0.126373 -4.500625 -1.491329 -0.338965
    27 3.924126 -17.014915 -9.078231 -1.700434 -5.718189 -0.293143
    28 0.096944 -8.450418 -0.009364 0.145395 -0.382746 0.386670
    29 0.447952 -2.798983 -0.200442 -1.020698 -0.010396 0.265094
    30 -0.032910 -1.480204 0.004936 -0.751869 0.000000 0.000002
    31 -0.027022 -1.076918 -0.020212 -0.466756 0.000000 0.000000
    32 -0.249534 -2.846960 -0.174216 -0.675604 -0.000125 -0.008396
    33 0.043235 -1.683941 0.096014 -1.117908 0.002823 -0.000167
    34 0.031729 -1.160830 0.058836 -0.165241 0.000642 0.008372
    35 -0.963867 -2.785143 -0.085346 -0.706011 -0.017313 -0.152199
    36 0.028479 -1.403067 0.006271 -0.461932 0.000000 0.000000
    37 0.021413 -0.957779 0.020047 -0.407673 0.000000 0.000000
    38 1.164475 -2.543938 -0.170328 -1.018659 -0.013294 0.477915
    39 0.024033 -1.129040 0.017806 -0.551264 0.000000 0.000001
    40 0.014897 -0.883989 -0.019845 -0.214295 0.000000 0.000000
    41 -0.590676 -1.260571 0.231415 0.825511 -0.367357 -2.919432
    42 1.522835 0.058680 0.016850 0.505248 0.173677 0.423974
    43 1.117948 0.048426 -0.005764 0.070706 -0.008707 0.408831
    44 0.028575 -0.119511 0.006584 0.286556 -0.004597 1.520969
    45 -2.248965 8.643859 1.237174 -0.659908 1.373832 1.136909
  time 13
    0 10.594097 -4.743559 -14.182034 -1.610668 -0.746262 1.466088
    1 -0.071919 -8.498734 -0.104136 0.142505 0.144375 0.246429
    2 0.521574 -2.341931 0.944898 0.192476 1.308143 0.129949
    3 0.012425 28.587929 4.758376 0.000000 0.000000 0.000000
    4 -0.000001 -5.493355 -0.179960 0.000000 0.000000 0.000000
    5 -0.670049 -8.175868 2.510258 0.000000 0.000000 0.000000
    6 -0.000001 -16.111864 -1.715292 0.000000 0.000000 0.000000
    7 -0.000001 -7.461284 -0.759587 0.000000 0.000000 0.000000
    8 -0.000001 -10.320615 -1.410366 0.000000 0.000000 0.000000
    9 -0.000001 -2.553366 0.694624 0.000000 0.000000 0.000000
    10 -0.488517 -2.755600 -0.228261 -1.001234 -0.132656 -0.266599
    11 0.039887 -1.479790 0.029853 -1.129122 0.000000 0.000000
    12 0.028785 -1.075733 -0.023111 -0.496103 0.000000 0.000000
    13 0.250028 -2.820663 -0.238396 -0.823278 -0.150104 -0.211378
    14 -0.049759 -1.680546 0.100480 -1.103154 0.000000 -0.000002
    15 -0.034141 -1.148310 0.084779 -0.414164 0.000000 0.000000
    16 0.957766 -2.746777 -0.090300 -0.168610 -0.360143 -0.074009
    17 -0.033419 -1.397129 -0.011255 -0.108946 0.000000 -0.000001
    18 -0.022360 -0.957436 0.018783 -0.423640 0.000000 0.000000
    19 -1.180680 -2.507214 -0.193861 -0.956771 -0.054420 -0.368807
    20 -0.024966 -1.123934 0.017594 -1.340685 0.000000 0.000001
    21 -0.020057 -0.890966 0.010091 -0.855336 0.000000 0.000000
    22 0.583510 -1.197275 0.185377 -0.852452 -1.093609 0.112912
    23 1.535927 0.010246 0.005008 0.011142 -0.007274 -1.216797
    24 1.100770 0.004526 -0.010676 -0.003239 0.015889 -0.025483
    25 0.120152 -0.050266 -0.054488 0.287568 3.110905 1.561085
    26 1.304055 8.801644 -0.126373 -4.500625 -1.491329 -0.338965
    27 3.576459 -17.233672 -9.203235 -1.663214 -5.692190 -0.337701
    28 0.096944 -8.450418 -0.009364 0.093176 -0.415781 0.413463
    29 0.447952 -2.798983 -0.200442 -1.015531 -0.010396 0.265094
    30 -0.032910 -1.480204 0.004936 -0.752957 0.000000 0.000002
    31 -0.027022 -1.076918 -0.020212 -0.471564 0.000000 0.000000
    32 -0.249534 -2.846960 -0.174216 -0.670514 -0.000125 -0.008396
    33 0.043235 -1.683941 0.096014 -1.119042 0.002823 -0.000167
    34 0.031729 -1.160830 0.058836 -0.170032 0.000642 0.008372
    35 -0.963867 -2.785143 -0.085346 -0.699516 -0.015515 -0.153793
    36 0.028479 -1.403067 0.006271 -0.463061 0.000000 0.000000
    37 0.021413 -0.957779 0.020047 -0.408496 0.000000 0.000000
    38 1.164475 -2.543938 -0.170328 -1.013592 -0.013294 0.477915
    39 0.024033 -1.129040 0.017806 -0.552421 0.000000 0.000001
    40 0.014897 -0.883989 -0.019845 -0.219171 0.000000 0.000000
    41 -0.590676 -1.260571 0.231415 0.827245 -0.402737 -2.949927
    42 1.522835 0.058680 0.016850 0.517594 0.172874 0.435430
    43 1.117948 0.048426 -0.005764 0.067650 -0.008803 0.444280
    44 0.040294 -0.119511 0.006584 0.287060 -0.015694 1.510099
    45 -2.174744 8.667297 1.049668 -0.717668 1.393469 1.069885
  time 14
    0 10.496438 -4.235731 -13.767959 -1.620737 -0.802588 1.467709
    1 -0.071919 -8.498734 -0.104136 0.143107 0.148616 0.246645
    2 0.521574 -2.341931 0.944898 0.192476 1.308143 0.129949
    3 0.012425 28.587929 4.758376 0.000000 0.000000 0.000000
    4 -0.000001 -5.493355 -0.179960 0.000000 0.000000 0.000000
    5 -0.670049 -8.175868 2.510258 0.000000 0.000000 0.000000
    6 -0.000001 -16.111864 -1.715292 0.000000 0.000000 0.000000
    7 -0.000001 -7.461284 -0.759587 0.000000 0.000000 0.000000
    8 -0.000001 -10.320615 -1.410366 0.000000 0.000000 0.000000
    9 -0.000001 -2.553366 0.694624 0.000000 0.000000 0.000000
    10 -0.488517 -2.755600 -0.228261 -1.020114 -0.132656 -0.266599
    11 0.039887 -1.479790 0.029853 -1.147708 0.000000 0.000000
    12 0.028785 -1.075733 -0.023111 -0.589591 0.000000 0.000000
    13 0.250028 -2.820663 -0.238396 -0.841334 -0.150104 -0.211378
    14 -0.049759 -1.680546 0.100480 -1.117927 0.000000 -0.000002
    15 -0.034141 -1.148310 0.084779 -0.268693 0.000000 0.000000
    16 0.957766 -2.746777 -0.090300 -0.168610 -0.360143 -0.074009
    17 -0.033419 -1.397129 -0.011255 -0.108946 0.000000 -0.000001
    18 -0.022360 -0.957436 0.018783 -0.423640 0.000000 0.000000
    19 -1.180680 -2.507214 -0.193861 -0.946421 -0.054420 -0.368807
    20 -0.024966 -1.123934 0.017594 -1.348350 0.000000 0.000001
    21 -0.020057 -0.890966 0.010091 -0.855336 0.000000 0.000000
    22 0.583510 -1.197275 0.185377 -0.859146 -1.082262 0.120584
    23 1.535927 0.010246 0.005008 0.011813 -0.006148 -1.315790
    24 1.100770 0.004526 -0.010676 -0.007722 0.014259 -0.320825
    25 0.120152 -0.050266 -0.054488 0.287568 3.110905 1.561085
    26 1.304055 8.801644 -0.126373 -4.500625 -1.491329 -0.338965
    27 3.224885 -17.436803 -9.336051 -1.625615 -5.663365 -0.386379
    28 0.096944 -8.450418 -0.009364 0.041082 -0.448621 0.436737
    29 0.447952 -2.798983 -0.200442 -1.001245 -0.010396 0.265094
    30 -0.032910 -1.480204 0.004936 -0.756219 0.000000 0.000002
    31 -0.027022 -1.076918 -0.020212 -0.485213 0.000000 0.000000
    32 -0.249534 -2.846960 -0.174216 -0.656168 -0.000125 -0.008396
    33 0.043235 -1.683941 0.096014 -1.122230 0.002823 -0.000167
    34 0.031729 -1.160830 0.058836 -0.183689 0.000642 0.008372
    35 -0.963867 -2.785143 -0.085346 -0.681144 -0.010470 -0.158287
    36 0.028479 -1.403067 0.006271 -0.466262 0.000000 0.000000
    37 0.021413 -0.957779 0.020047 -0.410799 0.000000 0.000000
    38 1.164475 -2.543938 -0.170328 -0.999216 -0.013294 0.477915
    39 0.024033 -1.129040 0.017806 -0.555663 0.000000 0.000001
    40 0.014897 -0.883989 -0.019845 -0.232754 0.000000 0.000000
    41 -0.590676 -1.260571 0.231415 0.811972 -0.451906 -2.985475
    42 1.522835 0.058680 0.016850 0.527486 0.170849 0.444648
    43 1.117948 0.048426 -0.005764 0.060878 -0.009630 0.475408
    44 0.052013 -0.123417 0.006584 0.287791 -0.017528 1.497958
    45 -2.100523 8.686829 0.877788 -0.782218 1.410703 0.996483
  time 15
    0 10.394872 -3.630244 -13.318726 -1.630758 -0.861432 1.467889
    1 -0.071919 -8.498734 -0.104136 0.145944 0.155136 0.240553
    2 0.521574 -2.341931 0.944898 0.192476 1.308143 0.129949
    3 0.012425 28.587929 4.758376 0.000000 0.000000 0.000000
    4 -0.000001 -5.493355 -0.179960 0.000000 0.000000 0.000000
    5 -0.670049 -8.175868 2.510258 0.000000 0.000000 0.000000
    6 -0.000001 -16.111864 -1.715292 0.000000 0.000000 0.000000
    7 -0.000001 -7.461284 -0.759587 0.000000 0.000000 0.000000
    8 -0.000001 -10.320615 -1.410366 0.000000 0.000000 0.000000
    9 -0.000001 -2.553366 0.694624 0.000000 0.000000 0.000000
    10 -0.488517 -2.755600 -0.228261 -1.045916 -0.132656 -0.266599
    11 0.039887 -1.479790 0.029853 -1.163929 0.000000 0.000000
    12 0.028785 -1.075733 -0.023111 -0.717420 0.000000 0.000000
    13 0.250028 -2.820663 -0.238396 -0.858559 -0.150104 -0.211378
    14 -0.049759 -1.680546 0.100480 -1.154184 0.000000 -0.000002
    15 -0.034141 -1.148310 0.084779 -0.095131 0.000000 0.000000
    16 0.957766 -2.746777 -0.090300 -0.168610 -0.360143 -0.074009
    17 -0.033419 -1.397129 -0.011255 -0.108946 0.000000 -0.000001
    18 -0.022360 -0.957436 0.018783 -0.423640 0.000000 0.000000
    19 -1.180680 -2.507214 -0.193861 -0.937382 -0.054420 -0.368807
    20 -0.024966 -1.123934 0.017594 -1.355026 0.000000 0.000001
    21 -0.020057 -0.890966 0.010091 -0.855336 0.000000 0.000000
    22 0.583510 -1.197275 0.185377 -0.864987 -1.072268 0.127270
    23 1.535927 0.010246 0.005008 0.012053 -0.005632 -1.358008
    24 1.100770 0.004526 -0.010676 -0.011533 0.011395 -0.616144
    25 0.120152 -0.050266 -0.054488 0.287568 3.110905 1.561085
    26 1.304055 8.801644 -0.126373 -4.500625 -1.491329 -0.338965
    27 2.865499 -17.608683 -9.476681 -1.584477 -5.632656 -0.431607
    28 0.096944 -8.450418 -0.009364 0.000743 -0.476512 0.453782
    29 0.447952 -2.798983 -0.200442 -0.979006 -0.010396 0.265094
    30 -0.032910 -1.480204 0.004936 -0.761220 0.000000 0.000002
    31 -0.027022 -1.076918 -0.020212 -0.506357 0.000000 0.000000
    32 -0.249534 -2.846960 -0.174216 -0.633932 -0.000125 -0.008396
    33 0.043235 -1.683941 0.096014 -1.127191 0.002823 -0.000167
    34 0.031729 -1.160830 0.058836 -0.204780 0.000642 0.008372
    35 -0.963867 -2.785143 -0.085346 -0.652682 -0.002644 -0.165262
    36 0.028479 -1.403067 0.006271 -0.471251 0.000000 0.000000
    37 0.021413 -0.957779 0.020047 -0.414335 0.000000 0.000000
    38 1.164475 -2.543938 -0.170328 -0.977018 -0.013294 0.477915
    39 0.024033 -1.129040 0.017806 -0.560583 0.000000 0.000001
    40 0.014897 -0.883989 -0.019845 -0.253900 0.000000 0.000000
    41 -0.590676 -1.260571 0.231415 0.782981 -0.510591 -3.025254
    42 1.522835 0.058680 0.016850 0.535206 0.167889 0.451897
    43 1.117948 0.048426 -0.005764 0.051375 -0.011008 0.502415
    44 0.059826 -0.127323 0.006584 0.288786 -0.013273 1.483601
    45 -2.026302 8.706361 0.721533 -0.853271 1.425667 0.916822
  time 16
    0 10.285494 -2.954442 -12.842149 -1.640295 -0.921915 1.466358
    1 -0.071919 -8.498734 -0.104136 0.152004 0.165059 0.226944
    2 0.521574 -2.341931 0.944898 0.192476 1.308143 0.129949
    3 0.012425 28.587929 4.758376 0.000000 0.000000 0.000000
    4 -0.000001 -5.493355 -0.179960 0.000000 0.000000 0.000000
    5 -0.670049 -8.175868 2.510258 0.000000 0.000000 0.000000
    6 -0.000001 -16.111864 -1.715292 0.000000 0.000000 0.000000
    7 -0.000001 -7.461284 -0.759587 0.000000 0.000000 0.000000
    8 -0.000001 -10.320615 -1.410366 0.000000 0.000000 0.000000
    9 -0.000001 -2.553366 0.694624 0.000000 0.000000 0.000000
    10 -0.488517 -2.755600 -0.228261 -1.073974 -0.132656 -0.266599
    11 0.039887 -1.479790 0.029853 -1.177260 0.000000 0.000000
    12 0.028785 -1.075733 -0.023111 -0.856698 0.000000 0.000000
    13 0.250028 -2.820663 -0.238396 -0.873863 -0.150104 -0.211378
    14 -0.049759 -1.680546 0.100480 -1.230211 0.000000 -0.000002
    15 -0.034141 -1.148310 0.084779 0.050306 0.000000 0.000000
    16 0.957766 -2.746777 -0.090300 -0.168610 -0.360143 -0.074009
    17 -0.033419 -1.397129 -0.011255 -0.108946 0.000000 -0.000001
    18 -0.022360 -0.957436 0.018783 -0.423640 0.000000 0.000000
    19 -1.180680 -2.507214 -0.193861 -0.929832 -0.054420 -0.368807
    20 -0.024966 -1.123934 0.017594 -1.360507 0.000000 0.000001
    21 -0.020057 -0.890966 0.010091 -0.855336 0.000000 0.000000
    22 0.583510 -1.197275 0.185377 -0.869818 -1.063952 0.132785
    23 1.535927 0.010246 0.005008 0.012053 -0.005632 -1.358008
    24 1.100770 0.004526 -0.010676 -0.012959 0.009741 -0.750357
    25 0.120152 -0.050266 -0.054488 0.287568 3.110905 1.561085
    26 1.304055 8.801644 -0.126373 -4.500625 -1.491329 -0.338965
    27 2.506114 -17.729780 -9.629029 -1.535946 -5.599875 -0.464091
    28 0.096944 -8.450418 -0.009364 -0.016086 -0.494809 0.461627
    29 0.447952 -2.798983 -0.200442 -0.950298 -0.010396 0.265094
    30 -0.032910 -1.480204 0.004936 -0.767599 0.000000 0.000002
    31 -0.027022 -1.076918 -0.020212 -0.533653 0.000000 0.000000
    32 -0.249534 -2.846960 -0.174216 -0.605240 -0.000125 -0.008396
    33 0.043235 -1.683941 0.096014 -1.133639 0.002823 -0.000167
    34 0.031729 -1.160830 0.058836 -0.232094 0.000642 0.008372
    35 -0.963867 -2.785143 -0.085346 -0.615895 0.007471 -0.174286
    36 0.028479 -1.403067 0.006271 -0.477698 0.000000 0.000000
    37 0.021413 -0.957779 0.020047 -0.418941 0.000000 0.000000
    38 1.164475 -2.543938 -0.170328 -0.948322 -0.013294 0.477915
    39 0.024033 -1.129040 0.017806 -0.567066 0.000000 0.000001
    40 0.014897 -0.883989 -0.019845 -0.281166 0.000000 0.000000
    41 -0.590676 -1.260571 0.231415 0.743469 -0.574469 -3.068192
    42 1.522835 0.058680 0.016850 0.541021 0.164281 0.457387
    43 1.117948 0.048426 -0.005764 0.040049 -0.012806 0.525461
    44 0.059826 -0.131230 0.002678 0.289948 -0.008288 1.466786
    45 -1.952081 8.721986 0.580904 -0.930157 1.438428 0.831551
  time 17
    0 10.180022 -2.223951 -12.346040 -1.648864 -0.982998 1.463116
    1 -0.071919 -8.498734 -0.104136 0.160773 0.177600 0.207070
    2 0.521574 -2.341931 0.944898 0.192476 1.308143 0.129949
    3 0.012425 28.587929 4.758376 0.000000 0.000000 0.000000
    4 -0.000001 -5.493355 -0.179960 0.000000 0.000000 0.000000
    5 -0.670049 -8.175868 2.510258 0.000000 0.000000 0.000000
    6 -0.000001 -16.111864 -1.715292 0.000000 0.000000 0.000000
    7 -0.000001 -7.461284 -0.759587 0.000000 0.000000 0.000000
    8 -0.000001 -10.320615 -1.410366 0.000000 0.000000 0.000000
    9 -0.000001 -2.553366 0.694624 0.000000 0.000000 0.000000
    10 -0.488517 -2.755600 -0.228261 -1.099813 -0.132656 -0.266599
    11 0.039887 -1.479790 0.029853 -1.187354 0.000000 0.000000
    12 0.028785 -1.075733 -0.023111 -0.984527 0.000000 0.000000
    13 0.250028 -2.820663 -0.238396 -0.886187 -0.150104 -0.211378
    14 -0.049759 -1.680546 0.100480 -1.330740 0.000000 -0.000002
    15 -0.034141 -1.148310 0.084779 0.111293 0.000000 0.000000
    16 0.957766 -2.746777 -0.090300 -0.168610 -0.360143 -0.074009
    17 -0.033419 -1.397129 -0.011255 -0.108946 0.000000 -0.000001
    18 -0.022360 -0.957436 0.018783 -0.423640 0.000000 0.000000
    19 -1.180680 -2.507214 -0.193861 -0.924090 -0.054420 -0.368807
    20 -0.024966 -1.123934 0.017594 -1.364793 0.000000 0.000001
    21 -0.020057 -0.890966 0.010091 -0.855336 0.000000 0.000000
    22 0.583510 -1.197275 0.185377 -0.873481 -1.057614 0.136929
    23 1.535927 0.010246 0.005008 0.012053 -0.005632 -1.358008
    24 1.100770 0.004526 -0.010676 -0.012959 0.009741 -0.750357
    25 0.120152 -0.050266 -0.054488 0.287568 3.110905 1.561085
    26 1.304055 8.801644 -0.126373 -4.500625 -1.491329 -0.338965
    27 2.138915 -17.788376 -9.785284 -1.474713 -5.564550 -0.472907
    28 0.096944 -8.450418 -0.009364 0.001220 -0.504625 0.437545
    29 0.447952 -2.798983 -0.200442 -0.916469 -0.010396 0.265094
    30 -0.032910 -1.480204 0.004936 -0.775210 0.000000 0.000002
    31 -0.027022 -1.076918 -0.020212 -0.565829 0.000000 0.000000
    32 -0.249534 -2.846960 -0.174216 -0.571356 -0.000125 -0.008396
    33 0.043235 -1.683941 0.096014 -1.141221 0.002823 -0.000167
    34 0.031729 -1.160830 0.058836 -0.264254 0.000642 0.008372
    35 -0.963867 -2.785143 -0.085346 -0.572551 0.019384 -0.184976
    36 0.028479 -1.403067 0.006271 -0.485276 0.000000 0.000000
    37 0.021413 -0.957779 0.020047 -0.424369 0.000000 0.000000
    38 1.164475 -2.543938 -0.170328 -0.914447 -0.013294 0.477915
    39 0.024033 -1.129040 0.017806 -0.574650 0.000000 0.000001
    40 0.014897 -0.883989 -0.019845 -0.313357 0.000000 0.000000
    41 -0.590676 -1.260571 0.231415 0.696515 -0.639240 -3.112852
    42 1.522835 0.058680 0.016850 0.545193 0.160386 0.461384
    43 1.117948 0.048426 -0.005764 0.027873 -0.014783 0.544546
    44 0.067639 -0.135136 -0.005135 0.291159 -0.002763 1.448126
    45 -1.881766 8.737612 0.455900 -1.011825 1.449117 0.741970
  time 18
    0 10.070644 -1.450490 -11.846025 -1.655932 -1.043641 1.457713
    1 -0.071919 -8.498734 -0.104136 0.171562 0.192052 0.182271
    2 0.521574 -2.341931 0.944898 0.192476 1.308143 0.129949
    3 0.012425 28.587929 4.758376 0.000000 0.000000 0.000000
    4 -0.000001 -5.493355 -0.179960 0.000000 0.000000 0.000000
    5 -0.670049 -8.175868 2.510258 0.000000 0.000000 0.000000
    6 -0.000001 -16.111864 -1.715292 0.000000 0.000000 0.000000
    7 -0.000001 -7.461284 -0.759587 0.000000 0.000000 0.000000
    8 -0.000001 -10.320615 -1.410366 0.000000 0.000000 0.000000
    9 -0.000001 -2.553366 0.694624 0.000000 0.000000 0.000000
    10 -0.488517 -2.755600 -0.228261 -1.118656 -0.132656 -0.266599
    11 0.039887 -1.479790 0.029853 -1.193689 0.000000 0.000000
    12 0.028785 -1.075733 -0.023111 -1.078015 0.000000 0.000000
    13 0.250028 -2.820663 -0.238396 -0.894326 -0.150104 -0.211378
    14 -0.049759 -1.680546 0.100480 -1.418478 0.000000 -0.000002
    15 -0.034141 -1.148310 0.084779 -0.093258 0.000000 0.000000
    16 0.957766 -2.746777 -0.090300 -0.168610 -0.360143 -0.074009
    17 -0.033419 -1.397129 -0.011255 -0.108946 0.000000 -0.000001
    18 -0.022360 -0.957436 0.018783 -0.423640 0.000000 0.000000
    19 -1.180680 -2.507214 -0.193861 -0.920439 -0.054420 -0.368807
    20 -0.024966 -1.123934 0.017594 -1.367430 0.000000 0.000001
    21 -0.020057 -0.890966 0.010091 -0.855336 0.000000 0.000000
    22 0.583510 -1.197275 0.185377 -0.875818 -1.053607 0.139579
    23 1.535927 0.010246 0.005008 0.012053 -0.005632 -1.358008
    24 1.100770 0.004526 -0.010676 -0.012959 0.009741 -0.750357
    25 0.120152 -0.050266 -0.054488 0.287568 3.110905 1.561085
    26 1.304055 8.801644 -0.126373 -4.500625 -1.491329 -0.338965
    27 1.775622 -17.764938 -9.949351 -1.393069 -5.527435 -0.445310
    28 0.096944 -8.450418 -0.009364 0.034928 -0.512049 0.391284
    29 0.447952 -2.798983 -0.200442 -0.878911 -0.010396 0.265094
    30 -0.032910 -1.480204 0.004936 -0.783619 0.000000 0.000002
    31 -0.027022 -1.076918 -0.020212 -0.601541 0.000000 0.000000
    32 -0.249534 -2.846960 -0.174216 -0.533817 -0.000125 -0.008396
    33 0.043235 -1.683941 0.096014 -1.149653 0.002823 -0.000167
    34 0.031729 -1.160830 0.058836 -0.300049 0.000642 0.008372
    35 -0.963867 -2.785143 -0.085346 -0.524392 0.032579 -0.196877
    36 0.028479 -1.403067 0.006271 -0.493700 0.000000 0.000000
    37 0.021413 -0.957779 0.020047 -0.430373 0.000000 0.000000
    38 1.164475 -2.543938 -0.170328 -0.876882 -0.013294 0.477915
    39 0.024033 -1.129040 0.017806 -0.583101 0.000000 0.000001
    40 0.014897 -0.883989 -0.019845 -0.349131 0.000000 0.000000
    41 -0.590676 -1.260571 0.231415 0.644839 -0.700895 -3.157321
    42 1.522835 0.058680 0.016850 0.547986 0.156503 0.464129
    43 1.117948 0.048426 -0.005764 0.015768 -0.016821 0.559870
    44 0.067639 -0.142949 -0.005135 0.292309 0.003157 1.428196
    45 -1.815358 8.749331 0.342615 -1.096457 1.457888 0.649731
  time 19
    0 9.969078 -0.669216 -11.346010 -1.660676 -1.102845 1.449879
    1 -0.071919 -8.498734 -0.104136 0.183769 0.207657 0.153799
    2 0.521574 -2.341931 0.944898 0.192476 1.308143 0.129949
    3 0.012425 28.587929 4.758376 0.000000 0.000000 0.000000
    4 -0.000001 -5.493355 -0.179960 0.000000 0.000000 0.000000
    5 -0.670049 -8.175868 2.510258 0.000000 0.000000 0.000000
    6 -0.000001 -16.111864 -1.715292 0.000000 0.000000 0.000000
    7 -0.000001 -7.461284 -0.759587 0.000000 0.000000 0.000000
    8 -0.000001 -10.320615 -1.410366 0.000000 0.000000 0.000000
    9 -0.000001 -2.553366 0.694624 0.000000 0.000000 0.000000
    10 -0.488517 -2.755600 -0.228261 -1.125952 -0.132656 -0.266599
    11 0.039887 -1.479790 0.029853 -1.195951 0.000000 0.000000
    12 0.028785 -1.075733 -0.023111 -1.114265 0.000000 0.000000
    13 0.250028 -2.820663 -0.238396 -0.897278 -0.150104 -0.211378
    14 -0.049759 -1.680546 0.100480 -1.455996 0.000000 -0.000002
    15 -0.034141 -1.148310 0.084779 -0.543276 0.000000 0.000000
    16 0.957766 -2.746777 -0.090300 -0.168610 -0.360143 -0.074009
    17 -0.033419 -1.397129 -0.011255 -0.108946 0.000000 -0.000001
    18 -0.022360 -0.957436 0.018783 -0.423640 0.000000 0.000000
    19 -1.180680 -2.507214 -0.193861 -0.919163 -0.054420 -0.368807
    20 -0.024966 -1.123934 0.017594 -1.368378 0.000000 0.000001
    21 -0.020057 -0.890966 0.010091 -0.855336 0.000000 0.000000
    22 0.583510 -1.197275 0.185377 -0.876575 -1.052204 0.140503
    23 1.535927 0.010246 0.005008 0.012053 -0.005632 -1.358008
    24 1.100770 0.004526 -0.010676 -0.012959 0.009741 -0.750357
    25 0.120152 -0.050266 -0.054488 0.287568 3.110905 1.561085
    26 1.304055 8.801644 -0.126373 -4.500625 -1.491329 -0.338965
    27 1.404517 -17.643840 -10.117325 -1.280778 -5.494183 -0.367310
    28 0.096944 -8.450418 -0.009364 0.053490 -0.520725 0.369052
    29 0.447952 -2.798983 -0.200442 -0.838926 -0.010396 0.265094
    30 -0.032910 -1.480204 0.004936 -0.792608 0.000000 0.000002
    31 -0.027022 -1.076918 -0.020212 -0.639586 0.000000 0.000000
    32 -0.249534 -2.846960 -0.174216 -0.493853 -0.000125 -0.008396
    33 0.043235 -1.683941 0.096014 -1.158653 0.002823 -0.000167
    34 0.031729 -1.160830 0.058836 -0.338046 0.000642 0.008372
    35 -0.963867 -2.785143 -0.085346 -0.473207 0.046589 -0.209629
    36 0.028479 -1.403067 0.006271 -0.502690 0.000000 0.000000
    37 0.021413 -0.957779 0.020047 -0.436789 0.000000 0.000000
    38 1.164475 -2.543938 -0.170328 -0.836894 -0.013294 0.477915
    39 0.024033 -1.129040 0.017806 -0.592015 0.000000 0.000001
    40 0.014897 -0.883989 -0.019845 -0.387094 0.000000 0.000000
    41 -0.590676 -1.260571 0.231415 0.590563 -0.755402 -3.198861
    42 1.522835 0.058680 0.016850 0.549704 0.152944 0.465829
    43 1.117948 0.048426 -0.005764 0.004719 -0.018702 0.571593
    44 0.071545 -0.146855 -0.016854 0.293292 0.009246 1.407630
    45 -1.748950 8.761050 0.241049 -1.181758 1.464941 0.557373
  time 20
    0 9.875325 0.112058 -10.857714 -1.662564 -1.159651 1.439073
    1 -0.071919 -8.498734 -0.104136 0.196879 0.223680 0.123124
    2 0.521574 -2.341931 0.944898 0.192476 1.308143 0.129949
    3 0.012425 28.587929 4.758376 0.000000 0.000000 0.000000
    4 -0.000001 -5.493355 -0.179960 0.000000 0.000000 0.000000
    5 -0.670049 -8.175868 2.510258 0.000000 0.000000 0.000000
    6 -0.000001 -16.111864 -1.715292 0.000000 0.000000 0.000000
    7 -0.000001 -7.461284 -0.759587 0.000000 0.000000 0.000000
    8 -0.000001 -10.320615 -1.410366 0.000000 0.000000 0.000000
    9 -0.000001 -2.553366 0.694624 0.000000 0.000000 0.000000
    10 -0.488517 -2.755600 -0.228261 -1.125915 -0.132656 -0.266599
    11 0.039887 -1.479790 0.029853 -1.195951 0.000000 0.000000
    12 0.028785 -1.075733 -0.023111 -1.114265 0.000000 0.000000
    13 0.250028 -2.820663 -0.238396 -0.897278 -0.150104 -0.211378
    14 -0.049759 -1.680546 0.100480 -1.455996 0.000000 -0.000002
    15 -0.034141 -1.148310 0.084779 -0.993329 0.000000 0.000000
    16 0.957766 -2.746777 -0.090300 -0.168610 -0.360143 -0.074009
    17 -0.033419 -1.397129 -0.011255 -0.108946 0.000000 -0.000001
    18 -0.022360 -0.957436 0.018783 -0.423640 0.000000 0.000000
    19 -1.180680 -2.507214 -0.193861 -0.919163 -0.054420 -0.368807
    20 -0.024966 -1.123934 0.017594 -1.368378 0.000000 0.000001
    21 -0.020057 -0.890966 0.010091 -0.855336 0.000000 0.000000
    22 0.583510 -1.197275 0.185377 -0.876575 -1.052204 0.140503
    23 1.535927 0.010246 0.005008 0.012053 -0.005632 -1.358008
    24 1.100770 0.004526 -0.010676 -0.012959 0.009741 -0.750357
    25 0.120152 -0.050266 -0.054488 0.287568 3.110905 1.561085
    26 1.304055 8.801644 -0.126373 -4.500625 -1.491329 -0.338965
    27 0.990442 -17.370394 -10.304831 -1.127538 -5.479111 -0.235841
    28 0.096944 -8.450418 -0.009364 0.034501 -0.535518 0.405983
    29 0.447952 -2.798983 -0.200442 -0.797954 -0.010396 0.265094
    30 -0.032910 -1.480204 0.004936 -0.801814 0.000000 0.000002
    31 -0.027022 -1.076918 -0.020212 -0.678480 0.000000 0.000000
    32 -0.249534 -2.846960 -0.174216 -0.452864 -0.000125 -0.008396
    33 0.043235 -1.683941 0.096014 -1.167864 0.002823 -0.000167
    34 0.031729 -1.160830 0.058836 -0.376979 0.000642 0.008372
    35 -0.963867 -2.785143 -0.085346 -0.420719 0.060898 -0.222740
    36 0.028479 -1.403067 0.006271 -0.511868 0.000000 0.000000
    37 0.021413 -0.957779 0.020047 -0.443368 0.000000 0.000000
    38 1.164475 -2.543938 -0.170328 -0.795969 -0.013294 0.477915
    39 0.024033 -1.129040 0.017806 -0.601219 0.000000 0.000001
    40 0.014897 -0.883989 -0.019845 -0.426052 0.000000 0.000000
    41 -0.590676 -1.260571 0.231415 0.534971 -0.798945 -3.233931
    42 1.522835 0.058680 0.016850 0.550592 0.150008 0.466754
    43 1.117948 0.048426 -0.005764 -0.004342 -0.020272 0.579795
    44 0.071545 -0.150762 -0.016854 0.294047 0.015358 1.387017
    45 -1.690354 8.768862 0.155109 -1.265243 1.470473 0.467378
  time 21
    0 9.781572 0.862081 -10.396762 -1.660434 -1.212938 1.424845
    1 -0.071919 -8.498734 -0.104136 0.210204 0.239494 0.091542
    2 0.521574 -2.341931 0.944898 0.192476 1.308143 0.129949
    3 0.012425 28.587929 4.758376 0.000000 0.000000 0.000000
    4 -0.000001 -5.493355 -0.179960 0.000000 0.000000 0.000000
    5 -0.670049 -8.175868 2.510258 0.000000 0.000000 0.000000
    6 -0.000001 -16.111864 -1.715292 0.000000 0.000000 0.000000
    7 -0.000001 -7.461284 -0.759587 0.000000 0.000000 0.000000
    8 -0.000001 -10.320615 -1.410366 0.000000 0.000000 0.000000
    9 -0.000001 -2.553366 0.694624 0.000000 0.000000 0.000000
    10 -0.488517 -2.755600 -0.228261 -1.125952 -0.132656 -0.266599
    11 0.039887 -1.479790 0.029853 -1.195881 0.000000 0.000000
    12 0.028785 -1.075733 -0.023111 -1.114265 0.000000 0.000000
    13 0.250028 -2.820663 -0.238396 -0.897278 -0.150104 -0.211378
    14 -0.049759 -1.680546 0.100480 -1.455996 0.000000 -0.000002
    15 -0.034141 -1.148310 0.084779 -1.197915 0.000000 0.000000
    16 0.957766 -2.746777 -0.090300 -0.168610 -0.360143 -0.074009
    17 -0.033419 -1.397129 -0.011255 -0.108946 0.000000 -0.000001
    18 -0.022360 -0.957436 0.018783 -0.423640 0.000000 0.000000
    19 -1.180680 -2.507214 -0.193861 -0.919163 -0.054420 -0.368807
    20 -0.024966 -1.123934 0.017594 -1.368378 0.000000 0.000001
    21 -0.020057 -0.890966 0.010091 -0.855336 0.000000 0.000000
    22 0.583510 -1.197275 0.185377 -0.876575 -1.052204 0.140503
    23 1.535927 0.010246 0.005008 0.012053 -0.005632 -1.358008
    24 1.100770 0.004526 -0.010676 -0.012959 0.009741 -0.750357
    25 0.120152 -0.050266 -0.054488 0.287568 3.110905 1.561085
    26 1.304055 8.801644 -0.126373 -4.500625 -1.491329 -0.338965
    27 0.513865 -16.944600 -10.504056 -0.949400 -5.491828 -0.076871
    28 0.096944 -8.450418 -0.009364 -0.007521 -0.553092 0.480836
    29 0.447952 -2.798983 -0.200442 -0.757385 -0.010396 0.265094
    30 -0.032910 -1.480204 0.004936 -0.810875 0.000000 0.000002
    31 -0.027022 -1.076918 -0.020212 -0.717091 0.000000 0.000000
    32 -0.249534 -2.846960 -0.174216 -0.412286 -0.000125 -0.008396
    33 0.043235 -1.683941 0.096014 -1.176935 0.002823 -0.000167
    34 0.031729 -1.160830 0.058836 -0.415527 0.000642 0.008372
    35 -0.963867 -2.785143 -0.085346 -0.368734 0.075064 -0.235791
    36 0.028479 -1.403067 0.006271 -0.520998 0.000000 0.000000
    37 0.021413 -0.957779 0.020047 -0.449866 0.000000 0.000000
    38 1.164475 -2.543938 -0.170328 -0.755375 -0.013294 0.477915
    39 0.024033 -1.129040 0.017806 -0.610307 0.000000 0.000001
    40 0.014897 -0.883989 -0.019845 -0.464662 0.000000 0.000000
    41 -0.590676 -1.260571 0.231415 0.478722 -0.827829 -3.258262
    42 1.522835 0.058680 0.016850 0.550931 0.148006 0.467112
    43 1.117948 0.048426 -0.005764 -0.010478 -0.021363 0.584556
    44 0.071545 -0.154668 -0.024667 0.294502 0.021290 1.366955
    45 -1.635665 8.776675 0.080888 -1.344329 1.474726 0.382344
  time 22
    0 9.691726 1.565228 -9.970968 -1.653608 -1.261708 1.406475
    1 -0.071919 -8.498734 -0.104136 0.223271 0.254418 0.060565
    2 0.521574 -2.341931 0.944898 0.192476 1.308143 0.129949
    3 0.012425 28.587929 4.758376 0.000000 0.000000 0.000000
    4 -0.000001 -5.493355 -0.179960 0.000000 0.000000 0.000000
    5 -0.670049 -8.175868 2.510258 0.000000 0.000000 0.000000
    6 -0.000001 -16.111864 -1.715292 0.000000 0.000000 0.000000
    7 -0.000001 -7.461284 -0.759587 0.000000 0.000000 0.000000
    8 -0.000001 -10.320615 -1.410366 0.000000 0.000000 0.000000
    9 -0.000001 -2.553366 0.694624 0.000000 0.000000 0.000000
    10 -0.488517 -2.755600 -0.228261 -1.125952 -0.132656 -0.266599
    11 0.039887 -1.479790 0.029853 -1.195951 0.000000 0.000000
    12 0.028785 -1.075733 -0.023111 -1.114265 0.000000 0.000000
    13 0.250028 -2.820663 -0.238396 -0.897278 -0.150104 -0.211378
    14 -0.049759 -1.680546 0.100480 -1.455996 0.000000 -0.000002
    15 -0.034141 -1.148310 0.084779 -1.197915 0.000000 0.000000
    16 0.957766 -2.746777 -0.090300 -0.168610 -0.360143 -0.074009
    17 -0.033419 -1.397129 -0.011255 -0.108946 0.000000 -0.000001
    18 -0.022360 -0.957436 0.018783 -0.423640 0.000000 0.000000
    19 -1.180680 -2.507214 -0.193861 -0.919163 -0.054420 -0.368807
    20 -0.024966 -1.123934 0.017594 -1.368378 0.000000 0.000001
    21 -0.020057 -0.890966 0.010091 -0.855336 0.000000 0.000000
    22 0.583510 -1.197275 0.185377 -0.876575 -1.052204 0.140503
    23 1.535927 0.010246 0.005008 0.012053 -0.005632 -1.358008
    24 1.100770 0.004526 -0.010676 -0.012959 0.009741 -0.750357
    25 0.120152 -0.050266 -0.054488 0.287568 3.110905 1.561085
    26 1.304055 8.801644 -0.126373 -4.500625 -1.491329 -0.338965
    27 0.021663 -16.413334 -10.711093 -0.775876 -5.528660 -6.202536
    28 0.096944 -8.450418 -0.009364 -0.049191 -0.566774 0.554724
    29 0.447952 -2.798983 -0.200442 -0.718479 -0.010396 0.265094
    30 -0.032910 -1.480204 0.004936 -0.819573 0.000000 0.000002
    31 -0.027022 -1.076918 -0.020212 -0.754005 0.000000 0.000000
    32 -0.249534 -2.846960 -0.174216 -0.373449 -0.000125 -0.008396
    33 0.043235 -1.683941 0.096014 -1.185650 0.002823 -0.000167
    34 0.031729 -1.160830 0.058836 -0.452478 0.000642 0.008372
    35 -0.963867 -2.785143 -0.085346 -0.319000 0.088619 -0.248351
    36 0.028479 -1.403067 0.006271 -0.529705 0.000000 0.000000
    37 0.021413 -0.957779 0.020047 -0.456076 0.000000 0.000000
    38 1.164475 -2.543938 -0.170328 -0.716543 -0.013294 0.477915
    39 0.024033 -1.129040 0.017806 -0.619048 0.000000 0.000001
    40 0.014897 -0.883989 -0.019845 -0.501580 0.000000 0.000000
    41 -0.590676 -1.260571 0.231415 0.422174 -0.838261 -3.267297
    42 1.522835 0.058680 0.016850 0.551007 0.147275 0.467202
    43 1.117948 0.048426 -0.005764 -0.012743 -0.021746 0.586157
    44 0.071545 -0.158574 -0.024667 0.294598 0.026875 1.348055
    45 -1.584882 8.780582 0.014480 -1.416816 1.477878 0.304454
  time 23
    0 9.621411 2.198059 -9.592050 -1.641457 -1.305042 1.383873
    1 -0.071919 -8.498734 -0.104136 0.235436 0.267954 0.031661
    2 0.521574 -2.341931 0.944898 0.192476 1.308143 0.129949
    3 0.012425 28.587929 4.758376 0.000000 0.000000 0.000000
    4 -0.000001 -5.493355 -0.179960 0.000000 0.000000 0.000000
    5 -0.670049 -8.175868 2.510258 0.000000 0.000000 0.000000
    6 -0.000001 -16.111864 -1.715292 0.000000 0.000000 0.000000
    7 -0.000001 -7.461284 -0.759587 0.000000 0.000000 0.000000
    8 -0.000001 -10.320615 -1.410366 0.000000 0.000000 0.000000
    9 -0.000001 -2.553366 0.694624 0.000000 0.000000 0.000000
    10 -0.488517 -2.755600 -0.228261 -1.125952 -0.132656 -0.266599
    11 0.039887 -1.479790 0.029853 -1.195881 0.000000 0.000000
    12 0.028785 -1.075733 -0.023111 -1.114265 0.000000 0.000000
    13 0.250028 -2.820663 -0.238396 -0.897278 -0.150104 -0.211378
    14 -0.049759 -1.680546 0.100480 -1.455996 0.000000 -0.000002
    15 -0.034141 -1.148310 0.084779 -1.197915 0.000000 0.000000
    16 0.957766 -2.746777 -0.090300 -0.168610 -0.360143 -0.074009
    17 -0.033419 -1.397129 -0.011255 -0.108946 0.000000 -0.000001
    18 -0.022360 -0.957436 0.018783 -0.423640 0.000000 0.000000
    19 -1.180680 -2.507214 -0.193861 -0.919163 -0.054420 -0.368807
    20 -0.024966 -1.123934 0.017594 -1.368378 0.000000 0.000001
    21 -0.020057 -0.890966 0.010091 -0.855336 0.000000 0.000000
    22 0.583510 -1.197275 0.185377 -0.876575 -1.052204 0.140503
    23 1.535927 0.010246 0.005008 0.012053 -0.005632 -1.358008
    24 1.100770 0.004526 -0.010676 -0.012959 0.009741 -0.750357
    25 0.120152 -0.050266 -0.054488 0.287568 3.110905 1.561085
    26 1.304055 8.801644 -0.126373 -4.500625 -1.491329 -0.338965
    27 -0.474446 -15.839098 -10.929850 -0.626807 -5.577078 -6.062443
    28 0.096944 -8.450418 -0.009364 -0.068029 -0.572140 0.588136
    29 0.447952 -2.798983 -0.200442 -0.682808 -0.010396 0.265094
    30 -0.032910 -1.480204 0.004936 -0.827619 0.000000 0.000002
    31 -0.027022 -1.076918 -0.020212 -0.787949 0.000000 0.000000
    32 -0.249534 -2.846960 -0.174216 -0.337720 -0.000125 -0.008396
    33 0.043235 -1.683941 0.096014 -1.193658 0.002823 -0.000167
    34 0.031729 -1.160830 0.058836 -0.486455 0.000642 0.008372
    35 -0.963867 -2.785143 -0.085346 -0.273259 0.101035 -0.259916
    36 0.028479 -1.403067 0.006271 -0.537706 0.000000 0.000000
    37 0.021413 -0.957779 0.020047 -0.461833 0.000000 0.000000
    38 1.164475 -2.543938 -0.170328 -0.680796 -0.013294 0.477915
    39 0.024033 -1.129040 0.017806 -0.627036 0.000000 0.000001
    40 0.014897 -0.883989 -0.019845 -0.535513 0.000000 0.000000
    41 -0.590676 -1.260571 0.231415 0.349576 -0.820245 -3.243694
    42 1.522835 0.058680 0.016850 0.548062 0.156803 0.451002
    43 1.117948 0.048426 -0.005764 -0.011556 -0.022406 0.533023
    44 0.071545 -0.158574 -0.024667 0.294299 0.031932 1.330917
    45 -1.541912 8.788394 -0.040209 -1.481174 1.480192 0.235482
  time 24
    0 9.555003 2.748857 -9.263915 -1.624029 -1.341900 1.357308
    1 -0.071919 -8.498734 -0.104136 0.246225 0.279501 0.006473
    2 0.521574 -2.341931 0.944898 0.192476 1.308143 0.129949
    3 0.012425 28.587929 4.758376 0.000000 0.000000 0.000000
    4 -0.000001 -5.493355 -0.179960 0.000000 0.000000 0.000000
    5 -0.670049 -8.175868 2.510258 0.000000 0.000000 0.000000
    6 -0.000001 -16.111864 -1.715292 0.000000 0.000000 0.000000
    7 -0.000001 -7.461284 -0.759587 0.000000 0.000000 0.000000
    8 -0.000001 -10.320615 -1.410366 0.000000 0.000000 0.000000
    9 -0.000001 -2.553366 0.694624 0.000000 0.000000 0.000000
    10 -0.488517 -2.755600 -0.228261 -1.125915 -0.132656 -0.266599
    11 0.039887 -1.479790 0.029853 -1.195881 0.000000 0.000000
    12 0.028785 -1.075733 -0.023111 -1.114265 0.000000 0.000000
    13 0.250028 -2.820663 -0.238396 -0.897278 -0.150104 -0.211378
    14 -0.049759 -1.680546 0.100480 -1.455996 0.000000 -0.000002
    15 -0.034141 -1.148310 0.084779 -1.197915 0.000000 0.000000
    16 0.957766 -2.746777 -0.090300 -0.168610 -0.360143 -0.074009
    17 -0.033419 -1.397129 -0.011255 -0.108946 0.000000 -0.000001
    18 -0.022360 -0.957436 0.018783 -0.423640 0.000000 0.000000
    19 -1.180680 -2.507214 -0.193861 -0.919163 -0.054420 -0.368807
    20 -0.024966 -1.123934 0.017594 -1.368378 0.000000 0.000001
    21 -0.020057 -0.890966 0.010091 -0.855336 0.000000 0.000000
    22 0.583510 -1.197275 0.185377 -0.876575 -1.052204 0.140503
    23 1.535927 0.010246 0.005008 0.012053 -0.005632 -1.358008
    24 1.100770 0.004526 -0.010676 -0.012959 0.009741 -0.750357
    25 0.120152 -0.050266 -0.054488 0.287568 3.110905 1.561085
    26 1.304055 8.801644 -0.126373 -4.500625 -1.491329 -0.338965
    27 -0.919772 -15.268768 -11.144700 -0.485952 -5.642641 -5.910085
    28 0.096944 -8.450418 -0.009364 -0.034497 -0.522727 0.556131
    29 0.447952 -2.798983 -0.200442 -0.651584 -0.010396 0.265094
    30 -0.032910 -1.480204 0.004936 -0.834651 0.000000 0.000002
    31 -0.027022 -1.076918 -0.020212 -0.817650 0.000000 0.000000
    32 -0.249534 -2.846960 -0.174216 -0.306535 -0.000125 -0.008396
    33 0.043235 -1.683941 0.096014 -1.200673 0.002823 -0.000167
    34 0.031729 -1.160830 0.058836 -0.516137 0.000642 0.008372
    35 -0.963867 -2.785143 -0.085346 -0.233298 0.111869 -0.270079
    36 0.028479 -1.403067 0.006271 -0.544719 0.000000 0.000000
    37 0.021413 -0.957779 0.020047 -0.466809 0.000000 0.000000
    38 1.164475 -2.543938 -0.170328 -0.649566 -0.013294 0.477915
    39 0.024033 -1.129040 0.017806 -0.634099 0.000000 0.000001
    40 0.014897 -0.883989 -0.019845 -0.565167 0.000000 0.000000
    41 -0.590676 -1.260571 0.231415 0.255489 -0.775954 -3.183681
    42 1.522835 0.058680 0.016850 0.540907 0.179933 0.411533
    43 1.117948 0.048426 -0.005764 -0.008572 -0.023712 0.403549
    44 0.059826 -0.158574 -0.024667 0.283800 0.036031 1.311502
    45 -1.502848 8.792301 -0.083179 -1.536257 1.481801 0.176430
  time 25
    0 9.500314 3.190277 -9.006095 -1.602874 -1.371242 1.328672
    1 -0.071919 -8.498734 -0.104136 0.255036 0.288586 -0.013617
    2 0.521574 -2.341931 0.944898 0.192476 1.308143 0.129949
    3 0.012425 28.587929 4.758376 0.000000 0.000000 0.000000
    4 -0.000001 -5.493355 -0.179960 0.000000 0.000000 0.000000
    5 -0.670049 -8.175868 2.510258 0.000000 0.000000 0.000000
    6 -0.000001 -16.111864 -1.715292 0.000000 0.000000 0.000000
    7 -0.000001 -7.461284 -0.759587 0.000000 0.000000 0.000000
    8 -0.000001 -10.320615 -1.410366 0.000000 0.000000 0.000000
    9 -0.000001 -2.553366 0.694624 0.000000 0.000000 0.000000
    10 -0.488517 -2.755600 -0.228261 -1.125915 -0.132656 -0.266599
    11 0.039887 -1.479790 0.029853 -1.195881 0.000000 0.000000
    12 0.028785 -1.075733 -0.023111 -1.114265 0.000000 0.000000
    13 0.250028 -2.820663 -0.238396 -0.897278 -0.150104 -0.211378
    14 -0.049759 -1.680546 0.100480 -1.455996 0.000000 -0.000002
    15 -0.034141 -1.148310 0.084779 -1.197915 0.000000 0.000000
    16 0.957766 -2.746777 -0.090300 -0.168610 -0.360143 -0.074009
    17 -0.033419 -1.397129 -0.011255 -0.108946 0.000000 -0.000001
    18 -0.022360 -0.957436 0.018783 -0.423640 0.000000 0.000000
    19 -1.180680 -2.507214 -0.193861 -0.919163 -0.054420 -0.368807
    20 -0.024966 -1.123934 0.017594 -1.368378 0.000000 0.000001
    21 -0.020057 -0.890966 0.010091 -0.855336 0.000000 0.000000
    22 0.583510 -1.197275 0.185377 -0.876575 -1.052204 0.140503
    23 1.535927 0.010246 0.005008 0.012053 -0.005632 -1.358008
    24 1.100770 0.004526 -0.010676 -0.012959 0.009741 -0.750357
    25 0.120152 -0.050266 -0.054488 0.287568 3.110905 1.561085
    26 1.304055 8.801644 -0.126373 -4.500625 -1.491329 -0.338965
    27 -1.298690 -14.764846 -11.359551 -0.366520 -5.741174 -5.766925
    28 0.096944 -8.450418 -0.009364 0.036284 -0.414474 0.487091
    29 0.447952 -2.798983 -0.200442 -0.626246 -0.010396 0.265094
    30 -0.032910 -1.480204 0.004936 -0.840305 0.000000 0.000002
    31 -0.027022 -1.076918 -0.020212 -0.841764 0.000000 0.000000
    32 -0.249534 -2.846960 -0.174216 -0.281190 -0.000125 -0.008396
    33 0.043235 -1.683941 0.096014 -1.206342 0.002823 -0.000167
    34 0.031729 -1.160830 0.058836 -0.540202 0.000642 0.008372
    35 -0.963867 -2.785143 -0.085346 -0.200863 0.120654 -0.278360
    36 0.028479 -1.403067 0.006271 -0.550367 0.000000 0.000000
    37 0.021413 -0.957779 0.020047 -0.470880 0.000000 0.000000
    38 1.164475 -2.543938 -0.170328 -0.624229 -0.013294 0.477915
    39 0.024033 -1.129040 0.017806 -0.639714 0.000000 0.000001
    40 0.014897 -0.883989 -0.019845 -0.589298 0.000000 0.000000
    41 -0.590676 -1.260571 0.231415 0.155066 -0.719781 -3.102879
    42 1.522835 0.058680 0.016850 0.531997 0.208636 0.362548
    43 1.117948 0.048426 -0.005764 -0.004665 -0.024779 0.242948
    44 0.028575 -0.154668 -0.016854 0.261557 0.039135 1.291727
    45 -1.475504 8.792301 -0.122243 4.701560 1.482881 0.128007
  time 26
    0 9.465156 3.498880 -8.818589 -1.582009 -1.392189 1.302558
    1 -0.071919 -8.498734 -0.104136 0.261355 0.294765 -0.026924
    2 0.521574 -2.341931 0.944898 0.192476 1.308143 0.129949
    3 0.012425 28.587929 4.758376 0.000000 0.000000 0.000000
    4 -0.000001 -5.493355 -0.179960 0.000000 0.000000 0.000000
    5 -0.670049 -8.175868 2.510258 0.000000 0.000000 0.000000
    6 -0.000001 -16.111864 -1.715292 0.000000 0.000000 0.000000
    7 -0.000001 -7.461284 -0.759587 0.000000 0.000000 0.000000
    8 -0.000001 -10.320615 -1.410366 0.000000 0.000000 0.000000
    9 -0.000001 -2.553366 0.694624 0.000000 0.000000 0.000000
    10 -0.488517 -2.755600 -0.228261 -1.125952 -0.132656 -0.266599
    11 0.039887 -1.479790 0.029853 -1.195881 0.000000 0.000000
    12 0.028785 -1.075733 -0.023111 -1.114265 0.000000 0.000000
    13 0.250028 -2.820663 -0.238396 -0.897278 -0.150104 -0.211378
    14 -0.049759 -1.680546 0.100480 -1.455996 0.000000 -0.000002
    15 -0.034141 -1.148310 0.084779 -1.197915 0.000000 0.000000
    16 0.957766 -2.746777 -0.090300 -0.168610 -0.360143 -0.074009
    17 -0.033419 -1.397129 -0.011255 -0.108946 0.000000 -0.000001
    18 -0.022360 -0.957436 0.018783 -0.423640 0.000000 0.000000
    19 -1.180680 -2.507214 -0.193861 -0.919163 -0.054420 -0.368807
    20 -0.024966 -1.123934 0.017594 -1.368378 0.000000 0.000001
    21 -0.020057 -0.890966 0.010091 -0.855336 0.000000 0.000000
    22 0.583510 -1.197275 0.185377 -0.876575 -1.052204 0.140503
    23 1.535927 0.010246 0.005008 0.012053 -0.005632 -1.358008
    24 1.100770 0.004526 -0.010676 -0.012959 0.009741 -0.750357
    25 0.120152 -0.050266 -0.054488 0.287568 3.110905 1.561085
    26 1.304055 8.801644 -0.126373 -4.500625 -1.491329 -0.338965
    27 -1.556510 -14.370303 -11.562682 -0.294166 -5.840743 -5.676373
    28 0.096944 -8.450418 -0.009364 0.104830 -0.308223 0.416043
    29 0.447952 -2.798983 -0.200442 -0.608185 -0.010396 0.265094
    30 -0.032910 -1.480204 0.004936 -0.844364 0.000000 0.000002
    31 -0.027022 -1.076918 -0.020212 -0.858949 0.000000 0.000000
    32 -0.249534 -2.846960 -0.174216 -0.263087 -0.000125 -0.008396
    33 0.043235 -1.683941 0.096014 -1.210381 0.002823 -0.000167
    34 0.031729 -1.160830 0.058836 -0.557383 0.000642 0.008372
    35 -0.963867 -2.785143 -0.085346 -0.177699 0.126909 -0.284293
    36 0.028479 -1.403067 0.006271 -0.554414 0.000000 0.000000
    37 0.021413 -0.957779 0.020047 -0.473759 0.000000 0.000000
    38 1.164475 -2.543938 -0.170328 -0.606162 -0.013294 0.477915
    39 0.024033 -1.129040 0.017806 -0.643823 0.000000 0.000001
    40 0.014897 -0.883989 -0.019845 -0.606513 0.000000 0.000000
    41 -0.590676 -1.260571 0.231415 0.060411 -0.666723 -3.013175
    42 1.522835 0.058680 0.016850 0.523880 0.234871 0.317768
    43 1.117948 0.048426 -0.005764 -0.000998 -0.025186 0.096190
    44 -0.014395 -0.146855 -0.012948 0.240164 0.041688 1.281181
    45 -1.452066 8.796207 -0.145681 4.665986 1.483498 0.090096
  time 27
    0 9.441718 3.659041 -8.709211 -1.568115 -1.404062 1.285539
    1 -0.071919 -8.498734 -0.104136 0.264579 0.297488 -0.031892
    2 0.521574 -2.341931 0.944898 0.192476 1.308143 0.129949
    3 0.012425 28.587929 4.758376 0.000000 0.000000 0.000000
    4 -0.000001 -5.493355 -0.179960 0.000000 0.000000 0.000000
    5 -0.670049 -8.175868 2.510258 0.000000 0.000000 0.000000
    6 -0.000001 -16.111864 -1.715292 0.000000 0.000000 0.000000
    7 -0.000001 -7.461284 -0.759587 0.000000 0.000000 0.000000
    8 -0.000001 -10.320615 -1.410366 0.000000 0.000000 0.000000
    9 -0.000001 -2.553366 0.694624 0.000000 0.000000 0.000000
    10 -0.488517 -2.755600 -0.228261 -1.125952 -0.132656 -0.266599
    11 0.039887 -1.479790 0.029853 -1.195881 0.000000 0.000000
    12 0.028785 -1.075733 -0.023111 -1.114265 0.000000 0.000000
    13 0.250028 -2.820663 -0.238396 -0.897278 -0.150104 -0.211378
    14 -0.049759 -1.680546 0.100480 -1.455996 0.000000 -0.000002
    15 -0.034141 -1.148310 0.084779 -1.197915 0.000000 0.000000
    16 0.957766 -2.746777 -0.090300 -0.168610 -0.360143 -0.074009
    17 -0.033419 -1.397129 -0.011255 -0.108946 0.000000 -0.000001
    18 -0.022360 -0.957436 0.018783 -0.423640 0.000000 0.000000
    19 -1.180680 -2.507214 -0.193861 -0.919163 -0.054420 -0.368807
    20 -0.024966 -1.123934 0.017594 -1.368378 0.000000 0.000001
    21 -0.020057 -0.890966 0.010091 -0.855336 0.000000 0.000000
    22 0.583510 -1.197275 0.185377 -0.876575 -1.052204 0.140503
    23 1.535927 0.010246 0.005008 0.012053 -0.005632 -1.358008
    24 1.100770 0.004526 -0.010676 -0.012959 0.009741 -0.750357
    25 0.120152 -0.050266 -0.054488 0.287568 3.110905 1.561085
    26 1.304055 8.801644 -0.126373 -4.500625 -1.491329 -0.338965
    27 -1.673702 -14.151546 -11.754094 -0.266108 -5.889538 -5.644272
    28 0.096944 -8.450418 -0.009364 0.138337 -0.266707 0.369495
    29 0.447952 -2.798983 -0.200442 -0.598706 -0.010396 0.265094
    30 -0.032910 -1.480204 0.004936 -0.846466 0.000000 0.000002
    31 -0.027022 -1.076918 -0.020212 -0.867930 0.000000 0.000000
    32 -0.249534 -2.846960 -0.174216 -0.253625 -0.000125 -0.008396
    33 0.043235 -1.683941 0.096014 -1.212507 0.002823 -0.000167
    34 0.031729 -1.160830 0.058836 -0.566470 0.000642 0.008372
    35 -0.963867 -2.785143 -0.085346 -0.165591 0.130181 -0.287397
    36 0.028479 -1.403067 0.006271 -0.556579 0.000000 0.000000
    37 0.021413 -0.957779 0.020047 -0.475280 0.000000 0.000000
    38 1.164475 -2.543938 -0.170328 -0.596689 -0.013294 0.477915
    39 0.024033 -1.129040 0.017806 -0.645907 0.000000 0.000001
    40 0.014897 -0.883989 -0.019845 -0.615519 0.000000 0.000000
    41 -0.590676 -1.260571 0.231415 -0.019569 -0.632526 -2.922169
    42 1.522835 0.058680 0.016850 0.519010 0.250534 0.290949
    43 1.117948 0.048426 -0.005764 0.001171 -0.025174 0.008367
    44 -0.045646 -0.139043 -0.005135 0.232278 0.044109 1.289438
    45 -1.440346 8.796207 -0.165213 4.639975 1.483718 0.062637
  time 28
    0 9.437812 3.698105 -8.689679 -1.564484 -1.407100 1.281126
    1 -0.071919 -8.498734 -0.104136 0.265138 0.296781 -0.028306
    2 0.521574 -2.341931 0.944898 0.192476 1.308143 0.129949
    3 0.012425 28.587929 4.758376 0.000000 0.000000 0.000000
    4 -0.000001 -5.493355 -0.179960 0.000000 0.000000 0.000000
    5 -0.670049 -8.175868 2.510258 0.000000 0.000000 0.000000
    6 -0.000001 -16.111864 -1.715292 0.000000 0.000000 0.000000
    7 -0.000001 -7.461284 -0.759587 0.000000 0.000000 0.000000
    8 -0.000001 -10.320615 -1.410366 0.000000 0.000000 0.000000
    9 -0.000001 -2.553366 0.694624 0.000000 0.000000 0.000000
    10 -0.488517 -2.755600 -0.228261 -1.125952 -0.132656 -0.266599
    11 0.039887 -1.479790 0.029853 -1.195951 0.000000 0.000000
    12 0.028785 -1.075733 -0.023111 -1.114265 0.000000 0.000000
    13 0.250028 -2.820663 -0.238396 -0.897278 -0.150104 -0.211378
    14 -0.049759 -1.680546 0.100480 -1.455996 0.000000 -0.000002
    15 -0.034141 -1.148310 0.084779 -1.197915 0.000000 0.000000
    16 0.957766 -2.746777 -0.090300 -0.168610 -0.360143 -0.074009
    17 -0.033419 -1.397129 -0.011255 -0.108946 0.000000 -0.000001
    18 -0.022360 -0.957436 0.018783 -0.423640 0.000000 0.000000
    19 -1.180680 -2.507214 -0.193861 -0.919163 -0.054420 -0.368807
    20 -0.024966 -1.123934 0.017594 -1.368378 0.000000 0.000001
    21 -0.020057 -0.890966 0.010091 -0.855336 0.000000 0.000000
    22 0.583510 -1.197275 0.185377 -0.876575 -1.052204 0.140503
    23 1.535927 0.010246 0.005008 0.012053 -0.005632 -1.358008
    24 1.100770 0.004526 -0.010676 -0.012959 0.009741 -0.750357
    25 0.120152 -0.050266 -0.054488 0.287568 3.110905 1.561085
    26 1.304055 8.801644 -0.126373 -4.500625 -1.491329 -0.338965
    27 -1.615106 -14.096857 -11.968944 -0.286583 -5.841120 -5.673690
    28 0.096944 -8.450418 -0.009364 0.120102 -0.333556 0.350183
    29 0.447952 -2.798983 -0.200442 -0.596639 -0.010396 0.265094
    30 -0.032910 -1.480204 0.004936 -0.846974 0.000000 0.000002
    31 -0.027022 -1.076918 -0.020212 -0.869910 0.000000 0.000000
    32 -0.249534 -2.846960 -0.174216 -0.251542 -0.000125 -0.008396
    33 0.043235 -1.683941 0.096014 -1.213003 0.002823 -0.000167
    34 0.031729 -1.160830 0.058836 -0.568397 0.000642 0.008372
    35 -0.963867 -2.785143 -0.085346 -0.162921 0.130900 -0.288080
    36 0.028479 -1.403067 0.006271 -0.557003 0.000000 0.000000
    37 0.021413 -0.957779 0.020047 -0.475609 0.000000 0.000000
    38 1.164475 -2.543938 -0.170328 -0.594595 -0.013294 0.477915
    39 0.024033 -1.129040 0.017806 -0.646370 0.000000 0.000001
    40 0.014897 -0.883989 -0.019845 -0.617459 0.000000 0.000000
    41 -0.590676 -1.260571 0.231415 -0.099041 -0.618253 -2.799387
    42 1.522835 0.058680 0.016850 0.517934 0.253986 0.285071
    43 1.117948 0.048426 -0.005764 0.001675 -0.025150 -0.010878
    44 -0.069084 -0.131230 -0.005135 0.246612 0.046829 1.333146
    45 -1.440346 8.796207 -0.169119 4.630412 1.483718 0.052657
  time 29
    0 9.437812 3.678573 -8.701398 -1.566324 -1.405541 1.283287
    1 -0.071919 -8.498734 -0.104136 0.264493 0.294608 -0.021307
    2 0.521574 -2.341931 0.944898 0.192476 1.308143 0.129949
    3 0.012425 28.587929 4.758376 0.000000 0.000000 0.000000
    4 -0.000001 -5.493355 -0.179960 0.000000 0.000000 0.000000
    5 -0.670049 -8.175868 2.510258 0.000000 0.000000 0.000000
    6 -0.000001 -16.111864 -1.715292 0.000000 0.000000 0.000000
    7 -0.000001 -7.461284 -0.759587 0.000000 0.000000 0.000000
    8 -0.000001 -10.320615 -1.410366 0.000000 0.000000 0.000000
    9 -0.000001 -2.553366 0.694624 0.000000 0.000000 0.000000
    10 -0.488517 -2.755600 -0.228261 -1.125952 -0.132656 -0.266599
    11 0.039887 -1.479790 0.029853 -1.195951 0.000000 0.000000
    12 0.028785 -1.075733 -0.023111 -1.114265 0.000000 0.000000
    13 0.250028 -2.820663 -0.238396 -0.897278 -0.150104 -0.211378
    14 -0.049759 -1.680546 0.100480 -1.455996 0.000000 -0.000002
    15 -0.034141 -1.148310 0.084779 -1.197915 0.000000 0.000000
    16 0.957766 -2.746777 -0.090300 -0.168610 -0.360143 -0.074009
    17 -0.033419 -1.397129 -0.011255 -0.108946 0.000000 -0.000001
    18 -0.022360 -0.957436 0.018783 -0.423640 0.000000 0.000000
    19 -1.180680 -2.507214 -0.193861 -0.919163 -0.054420 -0.368807
    20 -0.024966 -1.123934 0.017594 -1.368378 0.000000 0.000001
    21 -0.020057 -0.890966 0.010091 -0.855336 0.000000 0.000000
    22 0.583510 -1.197275 0.185377 -0.876575 -1.052204 0.140503
    23 1.535927 0.010246 0.005008 0.012053 -0.005632 -1.358008
    24 1.100770 0.004526 -0.010676 -0.012959 0.009741 -0.750357
    25 0.120152 -0.050266 -0.054488 0.287568 3.110905 1.561085
    26 1.304055 8.801644 -0.126373 -4.500625 -1.491329 -0.338965
    27 -1.458851 -14.124202 -12.175982 -0.343013 -5.751159 -5.747569
    28 0.096944 -8.450418 -0.009364 0.079135 -0.445340 0.341973
    29 0.447952 -2.798983 -0.200442 -0.597673 -0.010396 0.265094
    30 -0.032910 -1.480204 0.004936 -0.846684 0.000000 0.000002
    31 -0.027022 -1.076918 -0.020212 -0.868920 0.000000 0.000000
    32 -0.249534 -2.846960 -0.174216 -0.252601 -0.000125 -0.008396
    33 0.043235 -1.683941 0.096014 -1.212719 0.002823 -0.000167
    34 0.031729 -1.160830 0.058836 -0.567461 0.000642 0.008372
    35 -0.963867 -2.785143 -0.085346 -0.164267 0.130553 -0.287720
    36 0.028479 -1.403067 0.006271 -0.556767 0.000000 0.000000
    37 0.021413 -0.957779 0.020047 -0.475445 0.000000 0.000000
    38 1.164475 -2.543938 -0.170328 -0.595642 -0.013294 0.477915
    39 0.024033 -1.129040 0.017806 -0.646197 0.000000 0.000001
    40 0.014897 -0.883989 -0.019845 -0.616464 0.000000 0.000000
    41 -0.590676 -1.260571 0.231415 -0.172864 -0.608013 -2.665942
    42 1.522835 0.058680 0.016850 0.518462 0.252260 0.288025
    43 1.117948 0.048426 -0.005764 0.001435 -0.025162 -0.001195
    44 -0.088616 -0.123417 0.002678 0.269359 0.049178 1.392482
    45 -1.440346 8.796207 -0.165213 4.635194 1.483718 0.057617
  time 30
    0 9.441718 3.659041 -8.709211 -1.568115 -1.404062 1.285539
    1 -0.071919 -8.498734 -0.104136 0.263977 0.293325 -0.017505
    2 0.521574 -2.341931 0.944898 0.192476 1.308143 0.129949
    3 0.012425 28.587929 4.758376 0.000000 0.000000 0.000000
    4 -0.000001 -5.493355 -0.179960 0.000000 0.000000 0.000000
    5 -0.670049 -8.175868 2.510258 0.000000 0.000000 0.000000
    6 -0.000001 -16.111864 -1.715292 0.000000 0.000000 0.000000
    7 -0.000001 -7.461284 -0.759587 0.000000 0.000000 0.000000
    8 -0.000001 -10.320615 -1.410366 0.000000 0.000000 0.000000
    9 -0.000001 -2.553366 0.694624 0.000000 0.000000 0.000000
    10 -0.488517 -2.755600 -0.228261 -1.125952 -0.132656 -0.266599
    11 0.039887 -1.479790 0.029853 -1.195951 0.000000 0.000000
    12 0.028785 -1.075733 -0.023111 -1.114265 0.000000 0.000000
    13 0.250028 -2.820663 -0.238396 -0.897278 -0.150104 -0.211378
    14 -0.049759 -1.680546 0.100480 -1.455996 0.000000 -0.000002
    15 -0.034141 -1.148310 0.084779 -1.197915 0.000000 0.000000
    16 0.957766 -2.746777 -0.090300 -0.168610 -0.360143 -0.074009
    17 -0.033419 -1.397129 -0.011255 -0.108946 0.000000 -0.000001
    18 -0.022360 -0.957436 0.018783 -0.423640 0.000000 0.000000
    19 -1.180680 -2.507214 -0.193861 -0.919163 -0.054420 -0.368807
    20 -0.024966 -1.123934 0.017594 -1.368378 0.000000 0.000001
    21 -0.020057 -0.890966 0.010091 -0.855336 0.000000 0.000000
    22 0.583510 -1.197275 0.185377 -0.876575 -1.052204 0.140503
    23 1.535927 0.010246 0.005008 0.012053 -0.005632 -1.358008
    24 1.100770 0.004526 -0.010676 -0.012959 0.009741 -0.750357
    25 0.120152 -0.050266 -0.054488 0.287568 3.110905 1.561085
    26 1.304055 8.801644 -0.126373 -4.500625 -1.491329 -0.338965
    27 -1.376817 -14.151546 -12.273641 -0.380991 -5.706885 -5.797397
    28 0.096944 -8.450418 -0.009364 0.055725 -0.504291 0.340435
    29 0.447952 -2.798983 -0.200442 -0.598706 -0.010396 0.265094
    30 -0.032910 -1.480204 0.004936 -0.846466 0.000000 0.000002
    31 -0.027022 -1.076918 -0.020212 -0.867930 0.000000 0.000000
    32 -0.249534 -2.846960 -0.174216 -0.253625 -0.000125 -0.008396
    33 0.043235 -1.683941 0.096014 -1.212507 0.002823 -0.000167
    34 0.031729 -1.160830 0.058836 -0.566470 0.000642 0.008372
    35 -0.963867 -2.785143 -0.085346 -0.165591 0.130181 -0.287397
    36 0.028479 -1.403067 0.006271 -0.556579 0.000000 0.000000
    37 0.021413 -0.957779 0.020047 -0.475280 0.000000 0.000000
    38 1.164475 -2.543938 -0.170328 -0.596689 -0.013294 0.477915
    39 0.024033 -1.129040 0.017806 -0.645907 0.000000 0.000001
    40 0.014897 -0.883989 -0.019845 -0.615519 0.000000 0.000000
    41 -0.590676 -1.260571 0.231415 -0.205203 -0.602942 -2.603497
    42 1.522835 0.058680 0.016850 0.519010 0.250534 0.290949
    43 1.117948 0.048426 -0.005764 0.001171 -0.025174 0.008367
    44 -0.100335 -0.115604 0.006584 0.280984 0.050161 1.422275
    45 -1.440346 8.796207 -0.165213 4.639975 1.483718 0.062637
end
