// Created by Crowbar 0.49.0.0

$modelname "weapons/tfa_cso/c_m4a1.mdl"

$Include "csonline_gmod.qci"

$bodygroup "weapon"
{
	studio "v_m4a1_f_m4a1_template"
}

$CDMaterials "models\weapons\tfa_cso\m4a1"

$attachment 0 "Bone50" 0 -18.5 0
//$attachment 1 "Bone50" 0 -1.25 0
//$attachment 2 "Bone50" 0 -14.25 0


$sequence "idle" {
	"v_m4a1_anims\idle"
	fps 16
	activity "ACT_VM_IDLE_SILENCED" 1
	snap
	loop
}
$sequence "shoot1" {
	"v_m4a1_anims\shoot1"
	{ event 5001 0 "11" }
	fps 20
	activity "ACT_VM_PRIMARYATTACK_SILENCED" 1
	snap
}
$sequence "shoot2" {
	"v_m4a1_anims\shoot2"
	{ event 5001 0 "11" }
	fps 20
	activity "ACT_VM_PRIMARYATTACK_SILENCED" 2
	snap
}
$sequence "shoot3" {
	"v_m4a1_anims\shoot3"
	{ event 5001 0 "11" }
	fps 20
	activity "ACT_VM_PRIMARYATTACK_SILENCED" 3
	snap
}
$sequence "reload" {
	"v_m4a1_anims\reload"
	{ event 5004 25 "M4A1.ClipOut" }
	{ event 5004 53 "M4A1.ClipIn" }
	{ event 5004 88 "M4A1.BoltPull" }
	fps 37
	activity "ACT_VM_RELOAD_SILENCED" 1
	snap
}
$sequence "draw" {
	"v_m4a1_anims\draw"
	{ event 5004 1 "M4A1.Deploy" }
	{ event 5004 17 "M4A1.BoltPull" }
	fps 40
	activity "ACT_VM_DRAW_SILENCED" 1
	snap
}
$sequence "add_silencer" {
	"v_m4a1_anims\add_silencer"
	{ event 5004 28 "M4A1.SilencerOn" }
	fps 30
	activity "ACT_VM_ATTACH_SILENCER" 1
	snap
}
$sequence "idle_unsil" {
	"v_m4a1_anims\idle_unsil"
	fps 16
	loop
	activity "ACT_VM_IDLE" 1
	snap
}
$sequence "shoot1_unsil" {
	"v_m4a1_anims\shoot1_unsil"
	{ event 5021 0 "22" }
	fps 20
	activity "ACT_VM_PRIMARYATTACK" 1
	snap
}
$sequence "shoot2_unsil" {
	"v_m4a1_anims\shoot2_unsil"
	{ event 5021 0 "22" }
	fps 20
	activity "ACT_VM_PRIMARYATTACK" 2
	snap
}
$sequence "shoot3_unsil" {
	"v_m4a1_anims\shoot3_unsil"
	{ event 5021 0 "22" }
	fps 20
	activity "ACT_VM_PRIMARYATTACK" 3
	snap
}
$sequence "reload_unsil" {
	"v_m4a1_anims\reload_unsil"
	{ event 5004 25 "M4A1.ClipOut" }
	{ event 5004 53 "M4A1.ClipIn" }
	{ event 5004 88 "M4A1.BoltPull" }
	fps 37
	activity "ACT_VM_RELOAD" 1
	snap
}
$sequence "draw_unsil" {
	"v_m4a1_anims\draw_unsil"
	{ event 5004 1 "M4A1.Deploy" }
	{ event 5004 17 "M4A1.BoltPull" }
	fps 40
	activity "ACT_VM_DRAW" 1
	snap
}
$sequence "detach_silencer" {
	"v_m4a1_anims\detach_silencer"
	{ event 5004 21 "M4A1.SilencerOff" }
	fps 30
	activity "ACT_VM_DETACH_SILENCER" 1
	snap
}
