// Created by Crowbar 0.49.0.0

$modelname "weapons/tfa_cso/c_xm2010_v6.mdl"

$Include "csonline_gmod.qci"

$bodygroup "weapon"
{
	studio "v_xm2010_v_ref"
}

$CDMaterials "models\weapons\tfa_cso\xm2010_v6"

$attachment 0 "XM2010_root" -10.8 17.799999 0
//$attachment 1 "XM2010_root" -3 2.25 0.5

$definebone "root" "" -1.882538 4.923161 -22.137369 0.000000 0.000000 0.000000 0.000000 0.000000 0.000000 -0.000000 0.000000 0.000000
$definebone "Bone01" "root" 0.496437 13.305481 19.059895 -0.012834 -89.771431 179.847612 0.000000 0.000000 0.000000 0.000000 0.000000 -0.000000
$definebone "Bone_Lefthand" "Bone01" -0.071918 -8.498731 -0.104137 16.477755 0.853593 -1.435030 0.000000 0.000000 0.000000 0.000005 0.000000 -0.000000
$definebone "XM2010_root" "Bone_Lefthand" 14.070459 6.922970 1.843273 -46.625068 -178.694539 87.439263 0.000000 0.000000 -0.000000 0.000000 0.000003 0.000000
$definebone "XM2010_handle01" "XM2010_root" -0.789239 1.816455 -0.000001 -0.000057 2.883873 -0.000057 0.000000 0.000000 0.000000 0.000000 0.000003 0.000000
$definebone "XM2010_magazine" "XM2010_root" -2.559866 2.400040 -0.000002 0.000000 26.869778 0.000000 0.000000 0.000000 0.000000 0.000000 0.000003 0.000000
$definebone "XM2010_handle" "XM2010_root" -1.876743 0.401860 -0.000001 -51.519790 27.078217 -0.000057 0.000000 0.000000 -0.000000 0.000002 0.000000 -0.000000
$definebone "XM2010_trigger" "XM2010_root" -0.785407 0.812411 -0.000001 0.000000 14.925610 0.000000 0.000000 0.000000 -0.000000 0.000000 0.000003 0.000000
$definebone "xm2010_shell" "XM2010_root" 14.177029 11.658375 2.993662 89.999983 -153.130193 0.000000 0.000000 0.000000 0.000000 0.000000 0.000000 0.000003

$sequence "idle1" {
	"v_xm2010_anims\idle1"
	fps 15
	loop
	activity "ACT_VM_IDLE" 1
	snap
}
$sequence "shoot_1" {
	"v_xm2010_anims\shoot_1"
	{ event 5001 1 "21" }
	fps 30
	activity "ACT_VM_PRIMARYATTACK" 1
	snap
}
$sequence "shoot_2" {
	"v_xm2010_anims\shoot_2"
	{ event 5001 1 "21" }
	fps 30
	activity "ACT_VM_PRIMARYATTACK" 2
	snap
}
$sequence "shoot_3" {
	"v_xm2010_anims\shoot_3"
	{ event 5001 1 "21" }
	fps 30
	activity "ACT_VM_PRIMARYATTACK" 3
	snap
}
$sequence "reload" {
	"v_xm2010_anims\reload"
	{ event 5004 9 "XM2010.ClipOut1" }
	{ event 5004 28 "XM2010.ClipOut1" }
	{ event 5004 43 "XM2010.Clipin1" }
	{ event 5004 67 "XM2010.Clipin2" }
	fps 30
	activity "ACT_VM_RELOAD" 1
	snap
}
$sequence "draw" {
	"v_xm2010_anims\draw"
	fps 30
	activity "ACT_VM_DRAW" 1
	snap
}
