version 1
nodes
  0 "kronos12_root001" -1
  1 "lever001" 0
  2 "trigger001" 0
  3 "TRANS_L" 0
  4 "TRANS_R" 0
  5 "magazine001" 0
  6 "magazine_003" 5
  7 "bullet004" 6
  8 "bullet005" 7
  9 "bullet006" 8
  10 "effect001" 0
  11 "root" -1
  12 "Bone01" 11
  13 "Bone_L_Upper" 12
  14 "Bone_Lefthand" 12
  15 "Bone13" 14
  16 "Bone14" 15
  17 "Bone15" 16
  18 "Bone17" 14
  19 "Bone18" 18
  20 "Bone19" 19
  21 "Bone21" 14
  22 "Bone22" 21
  23 "Bone23" 22
  24 "Bone09" 14
  25 "Bone10" 24
  26 "Bone11" 25
  27 "Bone05" 14
  28 "Bone06" 27
  29 "Bone07" 28
  30 "Bone_Se_Hand-L" 14
  31 "Bone04" 11
  32 "Bone_Righthand" 31
  33 "Bone39" 32
  34 "Bone40" 33
  35 "Bone41" 34
  36 "Bone35" 32
  37 "Bone36" 36
  38 "Bone37" 37
  39 "Bone31" 32
  40 "Bone32" 39
  41 "Bone33" 40
  42 "Bone43" 32
  43 "Bone44" 42
  44 "Bone45" 43
  45 "Bone27" 32
  46 "Bone28" 45
  47 "Bone29" 46
  48 "Bone_Se_Hand-R" 32
  49 "Bone_R_Upper" 31
end
skeleton
  time 0
    0 4.314453 -4.516493 -2.767780 1.544624 0.016114 -1.596605
    1 4.116302 0.309474 0.579363 1.570821 -1.565877 -1.569548
    2 0.776872 -0.777959 0.000000 0.000001 0.000000 -1.828850
    3 1.657125 1.621748 -0.099206 1.570803 1.552836 -1.569519
    4 1.657129 1.619225 0.089981 1.570790 -1.588547 -1.569507
    5 4.124314 -3.447140 -0.020971 -1.570796 0.000000 0.377722
    6 -0.001059 -0.000005 0.029470 -0.000001 0.000000 -1.570797
    7 0.161901 -0.042629 2.167028 1.570796 0.008569 1.570797
    8 0.000000 0.439464 -0.149598 0.000000 0.000000 0.000000
    9 0.000001 0.360867 0.000000 0.000000 0.000000 0.000000
    10 0.974790 2.412368 -0.003569 0.000000 0.000000 0.001279
    11 -0.002752 -0.001265 -0.003287 0.000000 0.000000 0.000000
    12 7.270979 7.337490 -5.651498 0.049676 -1.733505 -0.288496
    13 8.081607 0.676400 -0.376376 1.569375 -3.116402 0.161040
    14 -0.048483 -8.498736 -0.092415 0.145767 0.395597 0.061149
    15 -0.488518 -2.755602 -0.228260 -0.855329 -0.005500 -0.245375
    16 0.039887 -1.546198 0.022041 -1.891765 -0.006292 0.042163
    17 0.028786 -1.153858 -0.120768 -0.959901 -0.014837 0.019894
    18 0.250027 -2.820665 -0.238396 -0.560831 -0.117709 -0.086571
    19 -0.045853 -1.598510 0.037977 -1.526314 0.140987 -0.053597
    20 -0.034142 -1.179563 0.045718 -1.334442 0.004518 -0.035199
    21 0.957766 -2.746780 -0.090302 -0.014872 -0.242718 0.317947
    22 -0.033420 -1.397129 -0.030789 -1.023289 0.072830 -0.009792
    23 -0.022360 -0.961342 -0.008561 -1.033442 0.072663 -0.010774
    24 -1.180681 -2.507217 -0.193859 -0.519852 0.255646 -0.222176
    25 -0.024967 -1.127840 0.017597 -1.700810 -0.017402 -0.065794
    26 -0.020057 -0.906594 0.033528 -1.037463 0.004806 -0.042545
    27 0.642106 -1.189464 0.185379 1.395565 -1.086678 -1.368343
    28 1.496863 -0.192885 0.036260 0.030976 -0.114716 -0.664694
    29 1.081239 -0.100945 0.016666 0.006756 -0.123276 -0.502104
    30 0.120153 -0.050270 -0.054489 0.287569 3.110905 1.561085
    31 -0.591091 -5.957844 -10.642233 -1.441067 -5.111213 -0.995957
    32 -0.016341 -8.489482 0.342208 -0.088969 -1.004111 0.166631
    33 0.682335 -2.556791 -0.262945 -1.403371 -0.057052 0.428144
    34 -0.032909 -1.499736 0.020565 -1.155787 0.022171 -0.019892
    35 -0.027022 -1.104265 -0.028023 -0.656005 0.016539 -0.008078
    36 0.008286 -2.733679 -0.287498 -1.224291 -0.096313 0.189198
    37 0.043235 -1.656596 0.072574 -1.332477 -0.021134 0.006053
    38 0.031729 -1.149111 0.058838 -0.700097 -0.007148 0.005304
    39 -0.709952 -2.804677 -0.253324 -1.005405 0.062193 -0.033347
    40 0.028479 -1.403067 -0.021074 -0.985528 -0.026150 -0.034588
    41 0.021413 -0.942156 0.012233 -0.995616 -0.026630 -0.034228
    42 1.332449 -2.168929 -0.178143 -1.451654 -0.251939 0.569780
    43 0.024032 -1.136855 -0.001725 -0.837936 0.005801 0.044440
    44 0.014898 -0.899614 -0.015942 -0.880686 0.004998 0.044547
    45 -0.645366 -1.248852 0.059532 -0.141697 -1.003780 -2.153974
    46 1.550180 0.039149 0.016848 -0.011845 -0.004570 0.632985
    47 1.114041 0.044518 -0.005766 -0.019502 -0.034630 0.745810
    48 -0.139399 -0.111698 0.014397 0.285382 -0.030687 1.580508
    49 -7.874137 3.159316 -0.446471 1.573074 -0.031904 -0.465731
  time 1
    0 4.314453 -4.520399 -2.771686 1.544909 0.017263 -1.596172
    1 4.116302 0.309474 0.579363 1.570821 -1.565877 -1.569548
    2 0.776872 -0.777959 0.000000 0.000001 0.000000 -1.828850
    3 1.657125 1.621748 -0.126551 1.570803 1.552836 -1.569519
    4 1.657129 1.619225 0.117326 1.570790 -1.588547 -1.569507
    5 4.124314 -3.447140 -0.020971 -1.570796 0.000000 0.377722
    6 -0.001059 -0.000005 0.029470 -0.000001 0.000000 -1.570797
    7 0.161901 -0.042629 2.167028 1.570796 0.008569 1.570797
    8 0.000000 0.439464 -0.149598 0.000000 0.000000 0.000000
    9 0.000001 0.360867 0.000000 0.000000 0.000000 0.000000
    10 0.974790 2.412368 -0.003569 0.000000 0.000000 0.001279
    11 -0.002752 -0.001265 -0.003287 0.000000 0.000000 0.000000
    12 7.270979 7.337490 -5.651498 0.049389 -1.733505 -0.288159
    13 8.081607 0.676400 -0.376376 1.569375 -3.116402 0.161040
    14 -0.048483 -8.494830 -0.092415 0.145963 0.395483 0.060028
    15 -0.488518 -2.755602 -0.228260 -0.855329 -0.005500 -0.245375
    16 0.039887 -1.546198 0.022041 -1.891765 -0.006292 0.042163
    17 0.028786 -1.153858 -0.120768 -0.959901 -0.014837 0.019894
    18 0.250027 -2.820665 -0.238396 -0.560831 -0.117709 -0.086571
    19 -0.045853 -1.598510 0.037977 -1.526314 0.140987 -0.053585
    20 -0.034142 -1.179563 0.045718 -1.334442 0.004518 -0.035199
    21 0.957766 -2.746780 -0.090302 -0.014872 -0.242718 0.317947
    22 -0.033420 -1.397129 -0.030789 -1.023289 0.072830 -0.009792
    23 -0.022360 -0.961342 -0.008561 -1.033442 0.072663 -0.010774
    24 -1.180681 -2.507217 -0.193859 -0.519870 0.255646 -0.222176
    25 -0.024967 -1.127840 0.017597 -1.700810 -0.017402 -0.065794
    26 -0.020057 -0.906594 0.033528 -1.037463 0.004806 -0.042545
    27 0.642106 -1.189464 0.185379 1.395565 -1.086678 -1.368343
    28 1.496863 -0.192885 0.036260 0.030976 -0.114716 -0.664694
    29 1.081239 -0.100945 0.016666 0.006756 -0.123276 -0.502104
    30 0.120153 -0.050270 -0.054489 0.287569 3.110905 1.561085
    31 -0.591091 -5.953938 -10.646139 -1.440532 -5.109706 -0.994942
    32 -0.016341 -8.493389 0.342208 -0.088531 -1.004915 0.165610
    33 0.682335 -2.556791 -0.262945 -1.403371 -0.057052 0.428144
    34 -0.032909 -1.499736 0.020565 -1.155787 0.022171 -0.019892
    35 -0.027022 -1.104265 -0.028023 -0.656005 0.016539 -0.008078
    36 0.008286 -2.733679 -0.287498 -1.224291 -0.096313 0.189198
    37 0.043235 -1.656596 0.072574 -1.332477 -0.021134 0.006053
    38 0.031729 -1.149111 0.058838 -0.700097 -0.007148 0.005304
    39 -0.709952 -2.804677 -0.253324 -1.005405 0.062193 -0.033347
    40 0.028479 -1.403067 -0.021074 -0.985528 -0.026150 -0.034588
    41 0.021413 -0.942156 0.012233 -0.995616 -0.026630 -0.034228
    42 1.332449 -2.168929 -0.178143 -1.451654 -0.251939 0.569780
    43 0.024032 -1.136855 -0.001725 -0.837936 0.005801 0.044440
    44 0.014898 -0.899614 -0.015942 -0.880686 0.004998 0.044547
    45 -0.645366 -1.248852 0.059532 -0.141697 -1.003780 -2.153974
    46 1.550180 0.039149 0.016848 -0.011845 -0.004570 0.632985
    47 1.114041 0.044518 -0.005766 -0.019502 -0.034630 0.745810
    48 -0.139399 -0.111698 0.014397 0.285382 -0.030687 1.580508
    49 -7.870230 3.163223 -0.446471 1.573086 -0.031892 -0.466420
  time 2
    0 4.318359 -4.528212 -2.779499 1.545858 0.020041 -1.595252
    1 4.116302 0.309474 0.579363 1.570821 -1.565877 -1.569548
    2 0.776872 -0.777959 0.000000 0.000001 0.000000 -1.828850
    3 1.657125 1.621748 -0.204678 1.570803 1.552836 -1.569519
    4 1.657129 1.619225 0.195453 1.570790 -1.588547 -1.569507
    5 4.124314 -3.447140 -0.020971 -1.570796 0.000000 0.377722
    6 -0.001059 -0.000005 0.029470 -0.000001 0.000000 -1.570797
    7 0.161901 -0.042629 2.167028 1.570796 0.008569 1.570797
    8 0.000000 0.439464 -0.149598 0.000000 0.000000 0.000000
    9 0.000001 0.360867 0.000000 0.000000 0.000000 0.000000
    10 0.974790 2.412368 -0.003569 0.000000 0.000000 0.001279
    11 -0.002752 -0.001265 -0.003287 0.000000 0.000000 0.000000
    12 7.270979 7.337490 -5.651498 0.050443 -1.733505 -0.289169
    13 8.081607 0.676400 -0.376376 1.569375 -3.116402 0.161040
    14 -0.048483 -8.494830 -0.092415 0.146384 0.395212 0.056944
    15 -0.488518 -2.755602 -0.228260 -0.855329 -0.005500 -0.245375
    16 0.039887 -1.546198 0.022041 -1.891765 -0.006292 0.042163
    17 0.028786 -1.153858 -0.120768 -0.959901 -0.014837 0.019894
    18 0.250027 -2.820665 -0.238396 -0.560831 -0.117709 -0.086571
    19 -0.045853 -1.598510 0.037977 -1.526314 0.140987 -0.053585
    20 -0.034142 -1.179563 0.045718 -1.334442 0.004518 -0.035199
    21 0.957766 -2.746780 -0.090302 -0.014872 -0.242718 0.317947
    22 -0.033420 -1.397129 -0.030789 -1.023289 0.072830 -0.009792
    23 -0.022360 -0.961342 -0.008561 -1.033410 0.072663 -0.010774
    24 -1.180681 -2.507217 -0.193859 -0.519852 0.255646 -0.222176
    25 -0.024967 -1.127840 0.017597 -1.700810 -0.017402 -0.065794
    26 -0.020057 -0.906594 0.033528 -1.037463 0.004806 -0.042545
    27 0.642106 -1.189464 0.185379 1.395565 -1.086678 -1.368343
    28 1.496863 -0.192885 0.036260 0.030976 -0.114716 -0.664694
    29 1.081239 -0.100945 0.016666 0.006756 -0.123276 -0.502104
    30 0.120153 -0.050270 -0.054489 0.287569 3.110905 1.561085
    31 -0.591091 -5.946125 -10.653952 -1.439283 -5.106282 -0.992730
    32 -0.016341 -8.493389 0.342208 -0.087496 -1.006910 0.163392
    33 0.682335 -2.556791 -0.262945 -1.403371 -0.057052 0.428144
    34 -0.032909 -1.499736 0.020565 -1.155787 0.022171 -0.019892
    35 -0.027022 -1.104265 -0.028023 -0.656005 0.016539 -0.008078
    36 0.008286 -2.733679 -0.287498 -1.224291 -0.096313 0.189198
    37 0.043235 -1.656596 0.072574 -1.332477 -0.021134 0.006053
    38 0.031729 -1.149111 0.058838 -0.700097 -0.007148 0.005304
    39 -0.709952 -2.804677 -0.253324 -1.005405 0.062193 -0.033347
    40 0.028479 -1.403067 -0.021074 -0.985528 -0.026150 -0.034588
    41 0.021413 -0.942156 0.012233 -0.995616 -0.026630 -0.034228
    42 1.332449 -2.168929 -0.178143 -1.451654 -0.251939 0.569780
    43 0.024032 -1.136855 -0.001725 -0.837936 0.005801 0.044440
    44 0.014898 -0.899614 -0.015942 -0.880686 0.004998 0.044535
    45 -0.645366 -1.248852 0.059532 -0.141697 -1.003780 -2.153974
    46 1.550180 0.039149 0.016848 -0.011845 -0.004570 0.632985
    47 1.114041 0.044518 -0.005766 -0.019502 -0.034630 0.745810
    48 -0.139399 -0.111698 0.014397 0.285382 -0.030687 1.580508
    49 -7.866324 3.174942 -0.446471 1.573122 -0.031868 -0.468105
  time 3
    0 4.314453 -4.539931 -2.779499 1.547187 0.022436 -1.594062
    1 4.116302 0.309474 0.579363 1.570821 -1.565877 -1.569548
    2 0.776872 -0.777959 0.000000 0.000001 0.000000 -1.828850
    3 1.657125 1.621748 -0.290618 1.570803 1.552836 -1.569519
    4 1.657129 1.619225 0.281393 1.570790 -1.588547 -1.569507
    5 4.124314 -3.447140 -0.020971 -1.570796 0.000000 0.377722
    6 -0.001059 -0.000005 0.029470 -0.000001 0.000000 -1.570797
    7 0.161901 -0.042629 2.167028 1.570796 0.008569 1.570797
    8 0.000000 0.439464 -0.149598 0.000000 0.000000 0.000000
    9 0.000001 0.360867 0.000000 0.000000 0.000000 0.000000
    10 0.974790 2.412368 -0.003569 0.000000 0.000000 0.001279
    11 -0.002752 -0.001265 -0.003287 0.000000 0.000000 0.000000
    12 7.270979 7.333584 -5.651498 0.056960 -1.733686 -0.295734
    13 8.081607 0.672494 -0.376376 1.569471 -3.116306 0.160285
    14 -0.048483 -8.494830 -0.092415 0.147001 0.394420 0.053332
    15 -0.488518 -2.755602 -0.228260 -0.855329 -0.005500 -0.245375
    16 0.039887 -1.546198 0.022041 -1.891765 -0.006292 0.042163
    17 0.028786 -1.153858 -0.120768 -0.959901 -0.014837 0.019894
    18 0.250027 -2.820665 -0.238396 -0.560831 -0.117709 -0.086571
    19 -0.045853 -1.598510 0.037977 -1.526314 0.140987 -0.053585
    20 -0.034142 -1.179563 0.045718 -1.334442 0.004518 -0.035199
    21 0.957766 -2.746780 -0.090302 -0.014872 -0.242718 0.317947
    22 -0.033420 -1.397129 -0.030789 -1.023289 0.072830 -0.009792
    23 -0.022360 -0.961342 -0.008561 -1.033410 0.072663 -0.010774
    24 -1.180681 -2.507217 -0.193859 -0.519870 0.255646 -0.222176
    25 -0.024967 -1.127840 0.017597 -1.700810 -0.017402 -0.065794
    26 -0.020057 -0.906594 0.033528 -1.037463 0.004806 -0.042545
    27 0.642106 -1.189464 0.185379 1.395565 -1.086699 -1.368343
    28 1.496863 -0.192885 0.036260 0.030976 -0.114716 -0.664694
    29 1.081239 -0.100945 0.016666 0.006756 -0.123276 -0.502104
    30 0.120153 -0.050270 -0.054489 0.287569 3.110905 1.561085
    31 -0.587185 -5.942219 -10.657858 -1.438272 -5.103748 -0.990609
    32 -0.016341 -8.493389 0.342208 -0.086541 -1.009083 0.161484
    33 0.682335 -2.556791 -0.262945 -1.403371 -0.057052 0.428144
    34 -0.032909 -1.499736 0.020565 -1.155787 0.022171 -0.019892
    35 -0.027022 -1.104265 -0.028023 -0.656005 0.016539 -0.008078
    36 0.008286 -2.733679 -0.287498 -1.224291 -0.096313 0.189198
    37 0.043235 -1.656596 0.072574 -1.332477 -0.021134 0.006053
    38 0.031729 -1.149111 0.058838 -0.700097 -0.007148 0.005304
    39 -0.709952 -2.804677 -0.253324 -1.005405 0.062193 -0.033347
    40 0.028479 -1.403067 -0.021074 -0.985528 -0.026150 -0.034588
    41 0.021413 -0.942156 0.012233 -0.995616 -0.026630 -0.034228
    42 1.332449 -2.168929 -0.178143 -1.451654 -0.251939 0.569780
    43 0.024032 -1.136855 -0.001725 -0.837936 0.005801 0.044440
    44 0.014898 -0.899614 -0.015942 -0.880686 0.004998 0.044535
    45 -0.645366 -1.248852 0.059532 -0.141697 -1.003780 -2.153974
    46 1.550180 0.039149 0.016848 -0.011845 -0.004570 0.632985
    47 1.114041 0.044518 -0.005766 -0.019502 -0.034630 0.745810
    48 -0.139399 -0.111698 0.014397 0.285382 -0.030687 1.580508
    49 -7.862417 3.194474 -0.446471 1.573158 -0.031821 -0.470326
  time 4
    0 4.310546 -4.543837 -2.732623 1.550794 0.021861 -1.591789
    1 4.116302 0.309474 0.579363 1.570821 -1.565877 -1.569548
    2 0.776872 -0.777959 0.000000 0.000001 0.000000 -1.828850
    3 1.657125 1.617842 -0.364839 1.570803 1.552836 -1.569519
    4 1.657129 1.623131 0.355614 1.570790 -1.588547 -1.569507
    5 4.124314 -3.447140 -0.020971 -1.570796 0.000000 0.377722
    6 -0.001059 -0.000005 0.029470 -0.000001 0.000000 -1.570797
    7 0.161901 -0.042629 2.167028 1.570796 0.008569 1.570797
    8 0.000000 0.439464 -0.149598 0.000000 0.000000 0.000000
    9 0.000001 0.360867 0.000000 0.000000 0.000000 0.000000
    10 0.974790 2.412368 -0.003569 0.000000 0.000000 0.001279
    11 -0.002752 -0.001265 -0.003287 0.000000 0.000000 0.000000
    12 7.270979 7.325771 -5.647591 0.092614 -1.734473 -0.331507
    13 8.077701 0.633430 -0.380282 1.569471 -3.116306 0.155672
    14 -0.052389 -8.494830 -0.092415 0.148684 0.391071 0.047632
    15 -0.488518 -2.755602 -0.228260 -0.855329 -0.005500 -0.245375
    16 0.039887 -1.546198 0.022041 -1.891765 -0.006292 0.042163
    17 0.028786 -1.153858 -0.120768 -0.959872 -0.014837 0.019894
    18 0.250027 -2.820665 -0.238396 -0.560831 -0.117709 -0.086571
    19 -0.045853 -1.598510 0.037977 -1.526314 0.140987 -0.053597
    20 -0.034142 -1.179563 0.045718 -1.334442 0.004518 -0.035199
    21 0.957766 -2.746780 -0.090302 -0.014872 -0.242718 0.317947
    22 -0.033420 -1.397129 -0.030789 -1.023289 0.072830 -0.009792
    23 -0.022360 -0.961342 -0.008561 -1.033410 0.072663 -0.010774
    24 -1.180681 -2.507217 -0.193859 -0.519870 0.255646 -0.222176
    25 -0.024967 -1.127840 0.017597 -1.700810 -0.017402 -0.065794
    26 -0.020057 -0.906594 0.033528 -1.037463 0.004806 -0.042545
    27 0.642106 -1.189464 0.185379 1.395565 -1.086678 -1.368343
    28 1.496863 -0.192885 0.036260 0.030976 -0.114716 -0.664694
    29 1.081239 -0.100945 0.016666 0.006756 -0.123276 -0.502104
    30 0.120153 -0.050270 -0.054489 0.287569 3.110905 1.561085
    31 -0.567653 -5.969564 -10.626608 -1.438866 -5.106693 -0.989411
    32 -0.020247 -8.493389 0.346115 -0.086103 -1.011823 0.161928
    33 0.682335 -2.556791 -0.262945 -1.403371 -0.057052 0.428144
    34 -0.032909 -1.499736 0.020565 -1.155787 0.022171 -0.019892
    35 -0.027022 -1.104265 -0.028023 -0.656005 0.016539 -0.008078
    36 0.008286 -2.733679 -0.287498 -1.224291 -0.096313 0.189198
    37 0.043235 -1.656596 0.072574 -1.332477 -0.021134 0.006053
    38 0.031729 -1.149111 0.058838 -0.700097 -0.007148 0.005304
    39 -0.709952 -2.804677 -0.253324 -1.005405 0.062193 -0.033347
    40 0.028479 -1.403067 -0.021074 -0.985528 -0.026150 -0.034588
    41 0.021413 -0.942156 0.012233 -0.995616 -0.026630 -0.034228
    42 1.332449 -2.168929 -0.178143 -1.451654 -0.251939 0.569780
    43 0.024032 -1.136855 -0.001725 -0.837936 0.005801 0.044440
    44 0.014898 -0.899614 -0.015942 -0.880686 0.004998 0.044535
    45 -0.645366 -1.248852 0.059532 -0.141697 -1.003780 -2.153974
    46 1.550180 0.039149 0.016848 -0.011845 -0.004570 0.632985
    47 1.114041 0.044518 -0.005766 -0.019502 -0.034630 0.745810
    48 -0.139399 -0.111698 0.014397 0.285382 -0.030687 1.580508
    49 -7.850698 3.229631 -0.442564 1.573254 -0.031737 -0.474921
  time 5
    0 4.318359 -4.539931 -2.724810 1.547092 0.019849 -1.593791
    1 4.116302 0.309474 0.579363 1.570821 -1.565877 -1.569548
    2 0.776872 -0.777959 0.000000 0.000001 0.000000 -1.828850
    3 1.657125 1.617842 -0.396090 1.570803 1.552836 -1.569519
    4 1.657129 1.623131 0.386865 1.570790 -1.588547 -1.569507
    5 4.124314 -3.447140 -0.020971 -1.570796 0.000000 0.377722
    6 -0.001059 -0.000005 0.029470 -0.000001 0.000000 -1.570797
    7 0.161901 -0.042629 2.167028 1.570796 0.008569 1.570797
    8 0.000000 0.439464 -0.149598 0.000000 0.000000 0.000000
    9 0.000001 0.360867 0.000000 0.000000 0.000000 0.000000
    10 0.974790 2.412368 -0.003569 0.000000 0.000000 0.001279
    11 -0.002752 -0.001265 -0.003287 0.000000 0.000000 0.000000
    12 7.270979 7.325771 -5.647591 0.089451 -1.734715 -0.327804
    13 8.077701 0.641243 -0.376376 1.569471 -3.116306 0.156595
    14 -0.048483 -8.494830 -0.092415 0.146889 0.394691 0.050528
    15 -0.488518 -2.755602 -0.228260 -0.855329 -0.005500 -0.245375
    16 0.039887 -1.546198 0.022041 -1.891765 -0.006292 0.042163
    17 0.028786 -1.153858 -0.120768 -0.959901 -0.014837 0.019894
    18 0.250027 -2.820665 -0.238396 -0.560831 -0.117709 -0.086571
    19 -0.045853 -1.598510 0.037977 -1.526314 0.140987 -0.053597
    20 -0.034142 -1.179563 0.045718 -1.334442 0.004518 -0.035199
    21 0.957766 -2.746780 -0.090302 -0.014872 -0.242718 0.317947
    22 -0.033420 -1.397129 -0.030789 -1.023289 0.072830 -0.009792
    23 -0.022360 -0.961342 -0.008561 -1.033410 0.072663 -0.010774
    24 -1.180681 -2.507217 -0.193859 -0.519852 0.255646 -0.222176
    25 -0.024967 -1.127840 0.017597 -1.700810 -0.017402 -0.065794
    26 -0.020057 -0.906594 0.033528 -1.037463 0.004806 -0.042545
    27 0.642106 -1.189464 0.185379 1.395565 -1.086678 -1.368343
    28 1.496863 -0.192885 0.036260 0.030976 -0.114716 -0.664694
    29 1.081239 -0.100945 0.016666 0.006756 -0.123276 -0.502104
    30 0.120153 -0.050270 -0.054489 0.287569 3.110905 1.561085
    31 -0.575466 -5.973470 -10.622701 -1.440234 -5.109980 -0.992545
    32 -0.016341 -8.493389 0.342208 -0.087615 -1.007803 0.166453
    33 0.682335 -2.556791 -0.262945 -1.403371 -0.057052 0.428144
    34 -0.032909 -1.499736 0.020565 -1.155787 0.022171 -0.019892
    35 -0.027022 -1.104265 -0.028023 -0.656005 0.016539 -0.008078
    36 0.008286 -2.733679 -0.287498 -1.224291 -0.096313 0.189198
    37 0.043235 -1.656596 0.072574 -1.332477 -0.021134 0.006053
    38 0.031729 -1.149111 0.058838 -0.700097 -0.007148 0.005304
    39 -0.709952 -2.804677 -0.253324 -1.005405 0.062193 -0.033347
    40 0.028479 -1.403067 -0.021074 -0.985528 -0.026150 -0.034588
    41 0.021413 -0.942156 0.012233 -0.995616 -0.026630 -0.034228
    42 1.332449 -2.168929 -0.178143 -1.451654 -0.251939 0.569780
    43 0.024032 -1.136855 -0.001725 -0.837936 0.005801 0.044440
    44 0.014898 -0.899614 -0.015942 -0.880686 0.004998 0.044547
    45 -0.645366 -1.248852 0.059532 -0.141697 -1.003780 -2.153974
    46 1.550180 0.039149 0.016848 -0.011845 -0.004570 0.632985
    47 1.114041 0.044518 -0.005766 -0.019502 -0.034630 0.745810
    48 -0.139399 -0.111698 0.014397 0.285382 -0.030687 1.580508
    49 -7.854605 3.210099 -0.446471 1.573194 -0.031797 -0.472240
  time 6
    0 4.326172 -4.536025 -2.728716 1.543580 0.018413 -1.595740
    1 4.116302 0.309474 0.579363 1.570821 -1.565877 -1.569560
    2 0.776872 -0.777959 0.000000 0.000001 0.000000 -1.828850
    3 1.657125 1.617842 -0.388277 1.570803 1.552836 -1.569519
    4 1.657129 1.623131 0.379052 1.570790 -1.588547 -1.569507
    5 4.124314 -3.447140 -0.020971 -1.570796 0.000000 0.377722
    6 -0.001059 -0.000005 0.029470 -0.000001 0.000000 -1.570797
    7 0.161901 -0.042629 2.167028 1.570796 0.008569 1.570797
    8 0.000000 0.439464 -0.149598 0.000000 0.000000 0.000000
    9 0.000001 0.360867 0.000000 0.000000 0.000000 0.000000
    10 0.974790 2.412368 -0.003569 0.000000 0.000000 0.001279
    11 -0.002752 -0.001265 -0.003287 0.000000 0.000000 0.000000
    12 7.270979 7.325771 -5.647591 0.080538 -1.734715 -0.318545
    13 8.077701 0.652962 -0.376376 1.569471 -3.116306 0.157937
    14 -0.048483 -8.494830 -0.092415 0.145206 0.398063 0.053799
    15 -0.488518 -2.755602 -0.228260 -0.855329 -0.005500 -0.245375
    16 0.039887 -1.546198 0.022041 -1.891765 -0.006292 0.042163
    17 0.028786 -1.153858 -0.120768 -0.959901 -0.014837 0.019894
    18 0.250027 -2.820665 -0.238396 -0.560831 -0.117709 -0.086571
    19 -0.045853 -1.598510 0.037977 -1.526314 0.140987 -0.053597
    20 -0.034142 -1.179563 0.045718 -1.334442 0.004518 -0.035199
    21 0.957766 -2.746780 -0.090302 -0.014872 -0.242718 0.317947
    22 -0.033420 -1.397129 -0.030789 -1.023289 0.072830 -0.009792
    23 -0.022360 -0.961342 -0.008561 -1.033410 0.072663 -0.010774
    24 -1.180681 -2.507217 -0.193859 -0.519852 0.255646 -0.222176
    25 -0.024967 -1.127840 0.017597 -1.700810 -0.017402 -0.065794
    26 -0.020057 -0.906594 0.033528 -1.037463 0.004806 -0.042545
    27 0.642106 -1.189464 0.185379 1.395565 -1.086678 -1.368343
    28 1.496863 -0.192885 0.036260 0.030976 -0.114716 -0.664694
    29 1.081239 -0.100945 0.016666 0.006756 -0.123276 -0.502104
    30 0.120153 -0.050270 -0.054489 0.287569 3.110905 1.561085
    31 -0.583278 -5.973470 -10.626608 -1.441186 -5.112103 -0.995219
    32 -0.016341 -8.489482 0.342208 -0.088730 -1.004171 0.169914
    33 0.682335 -2.556791 -0.262945 -1.403371 -0.057052 0.428144
    34 -0.032909 -1.499736 0.020565 -1.155787 0.022171 -0.019892
    35 -0.027022 -1.104265 -0.028023 -0.656005 0.016539 -0.008078
    36 0.008286 -2.733679 -0.287498 -1.224291 -0.096313 0.189198
    37 0.043235 -1.656596 0.072574 -1.332477 -0.021134 0.006053
    38 0.031729 -1.149111 0.058838 -0.700097 -0.007148 0.005304
    39 -0.709952 -2.804677 -0.253324 -1.005405 0.062193 -0.033347
    40 0.028479 -1.403067 -0.021074 -0.985528 -0.026150 -0.034588
    41 0.021413 -0.942156 0.012233 -0.995616 -0.026630 -0.034228
    42 1.332449 -2.168929 -0.178143 -1.451654 -0.251939 0.569780
    43 0.024032 -1.136855 -0.001725 -0.837936 0.005801 0.044440
    44 0.014898 -0.899614 -0.015942 -0.880686 0.004998 0.044535
    45 -0.645366 -1.248852 0.059532 -0.141697 -1.003780 -2.153974
    46 1.550180 0.039149 0.016848 -0.011845 -0.004570 0.632985
    47 1.114041 0.044518 -0.005766 -0.019502 -0.034630 0.745810
    48 -0.139399 -0.111698 0.014397 0.285382 -0.030687 1.580508
    49 -7.866324 3.182755 -0.446471 1.573134 -0.031856 -0.468794
  time 7
    0 4.326172 -4.528212 -2.736529 1.543390 0.018796 -1.596064
    1 4.116302 0.309474 0.579363 1.570821 -1.565877 -1.569548
    2 0.776872 -0.777959 0.000000 0.000001 0.000000 -1.828850
    3 1.657125 1.617842 -0.380465 1.570803 1.552836 -1.569519
    4 1.657129 1.623131 0.371240 1.570790 -1.588547 -1.569507
    5 4.124314 -3.447140 -0.020971 -1.570796 0.000000 0.377722
    6 -0.001059 -0.000005 0.029470 -0.000001 0.000000 -1.570797
    7 0.161901 -0.042629 2.167028 1.570796 0.008569 1.570797
    8 0.000000 0.439464 -0.149598 0.000000 0.000000 0.000000
    9 0.000001 0.360867 0.000000 0.000000 0.000000 0.000000
    10 0.974790 2.412368 -0.003569 0.000000 0.000000 0.001279
    11 -0.002752 -0.001265 -0.003287 0.000000 0.000000 0.000000
    12 7.270979 7.329678 -5.651498 0.077087 -1.734473 -0.315262
    13 8.077701 0.649056 -0.376376 1.569471 -3.116306 0.157350
    14 -0.048483 -8.494830 -0.092415 0.145009 0.398108 0.054017
    15 -0.488518 -2.755602 -0.228260 -0.855329 -0.005500 -0.245375
    16 0.039887 -1.546198 0.022041 -1.891765 -0.006292 0.042163
    17 0.028786 -1.153858 -0.120768 -0.959901 -0.014837 0.019894
    18 0.250027 -2.820665 -0.238396 -0.560831 -0.117709 -0.086571
    19 -0.045853 -1.598510 0.037977 -1.526314 0.140987 -0.053597
    20 -0.034142 -1.179563 0.045718 -1.334442 0.004518 -0.035199
    21 0.957766 -2.746780 -0.090302 -0.014872 -0.242718 0.317947
    22 -0.033420 -1.397129 -0.030789 -1.023289 0.072830 -0.009792
    23 -0.022360 -0.961342 -0.008561 -1.033442 0.072663 -0.010774
    24 -1.180681 -2.507217 -0.193859 -0.519852 0.255646 -0.222176
    25 -0.024967 -1.127840 0.017597 -1.700810 -0.017402 -0.065794
    26 -0.020057 -0.906594 0.033528 -1.037463 0.004806 -0.042545
    27 0.642106 -1.189464 0.185379 1.395565 -1.086678 -1.368343
    28 1.496863 -0.192885 0.036260 0.030976 -0.114716 -0.664694
    29 1.081239 -0.100945 0.016666 0.006756 -0.123276 -0.502104
    30 0.120153 -0.050270 -0.054489 0.287569 3.110905 1.561085
    31 -0.587185 -5.965657 -10.634420 -1.441126 -5.111898 -0.995311
    32 -0.016341 -8.489482 0.342208 -0.088332 -1.004141 0.169781
    33 0.682335 -2.556791 -0.262945 -1.403371 -0.057052 0.428144
    34 -0.032909 -1.499736 0.020565 -1.155787 0.022171 -0.019892
    35 -0.027022 -1.104265 -0.028023 -0.656005 0.016539 -0.008078
    36 0.008286 -2.733679 -0.287498 -1.224291 -0.096313 0.189198
    37 0.043235 -1.656596 0.072574 -1.332477 -0.021134 0.006053
    38 0.031729 -1.149111 0.058838 -0.700097 -0.007148 0.005304
    39 -0.709952 -2.804677 -0.253324 -1.005405 0.062193 -0.033347
    40 0.028479 -1.403067 -0.021074 -0.985528 -0.026150 -0.034588
    41 0.021413 -0.942156 0.012233 -0.995616 -0.026630 -0.034228
    42 1.332449 -2.168929 -0.178143 -1.451654 -0.251939 0.569780
    43 0.024032 -1.136855 -0.001725 -0.837936 0.005801 0.044440
    44 0.014898 -0.899614 -0.015942 -0.880686 0.004998 0.044547
    45 -0.645366 -1.248852 0.059532 -0.141697 -1.003780 -2.153974
    46 1.550180 0.039149 0.016848 -0.011845 -0.004570 0.632985
    47 1.114041 0.044518 -0.005766 -0.019502 -0.034630 0.745810
    48 -0.139399 -0.111698 0.014397 0.285382 -0.030687 1.580508
    49 -7.870230 3.167129 -0.446471 1.573086 -0.031892 -0.466803
  time 8
    0 4.322266 -4.520399 -2.744342 1.544149 0.019754 -1.595956
    1 4.116302 0.309474 0.579363 1.570821 -1.565877 -1.569548
    2 0.776872 -0.777959 0.000000 0.000001 0.000000 -1.828850
    3 1.657125 1.617842 -0.384371 1.570803 1.552836 -1.569519
    4 1.657129 1.623131 0.375146 1.570790 -1.588547 -1.569507
    5 4.124314 -3.447140 -0.020971 -1.570796 0.000000 0.377722
    6 -0.001059 -0.000005 0.029470 -0.000001 0.000000 -1.570797
    7 0.161901 -0.042629 2.167028 1.570796 0.008569 1.570797
    8 0.000000 0.439464 -0.149598 0.000000 0.000000 0.000000
    9 0.000001 0.360867 0.000000 0.000000 0.000000 0.000000
    10 0.974790 2.412368 -0.003569 0.000000 0.000000 0.001279
    11 -0.002752 -0.001265 -0.003287 0.000000 0.000000 0.000000
    12 7.270979 7.341397 -5.651498 0.074308 -1.734049 -0.312737
    13 8.077701 0.641243 -0.376376 1.569471 -3.116306 0.156343
    14 -0.048483 -8.494830 -0.092415 0.145234 0.397226 0.053425
    15 -0.488518 -2.755602 -0.228260 -0.855329 -0.005500 -0.245375
    16 0.039887 -1.546198 0.022041 -1.891765 -0.006292 0.042163
    17 0.028786 -1.153858 -0.120768 -0.959901 -0.014837 0.019894
    18 0.250027 -2.820665 -0.238396 -0.560831 -0.117709 -0.086571
    19 -0.045853 -1.598510 0.037977 -1.526314 0.140987 -0.053597
    20 -0.034142 -1.179563 0.045718 -1.334442 0.004518 -0.035199
    21 0.957766 -2.746780 -0.090302 -0.014872 -0.242718 0.317947
    22 -0.033420 -1.397129 -0.030789 -1.023289 0.072830 -0.009792
    23 -0.022360 -0.961342 -0.008561 -1.033442 0.072663 -0.010774
    24 -1.180681 -2.507217 -0.193859 -0.519852 0.255646 -0.222176
    25 -0.024967 -1.127840 0.017597 -1.700810 -0.017402 -0.065794
    26 -0.020057 -0.906594 0.033528 -1.037463 0.004806 -0.042545
    27 0.642106 -1.189464 0.185379 1.395565 -1.086678 -1.368343
    28 1.496863 -0.192885 0.036260 0.030976 -0.114716 -0.664694
    29 1.081239 -0.100945 0.016666 0.006756 -0.123276 -0.502104
    30 0.120153 -0.050270 -0.054489 0.287569 3.110905 1.561085
    31 -0.591091 -5.950032 -10.646139 -1.440770 -5.110939 -0.994574
    32 -0.016341 -8.493389 0.342208 -0.087416 -1.005123 0.168494
    33 0.682335 -2.556791 -0.262945 -1.403371 -0.057052 0.428144
    34 -0.032909 -1.499736 0.020565 -1.155787 0.022171 -0.019892
    35 -0.027022 -1.104265 -0.028023 -0.656005 0.016539 -0.008078
    36 0.008286 -2.733679 -0.287498 -1.224291 -0.096313 0.189198
    37 0.043235 -1.656596 0.072574 -1.332477 -0.021134 0.006053
    38 0.031729 -1.149111 0.058838 -0.700097 -0.007148 0.005304
    39 -0.709952 -2.804677 -0.253324 -1.005405 0.062193 -0.033347
    40 0.028479 -1.403067 -0.021074 -0.985528 -0.026150 -0.034588
    41 0.021413 -0.942156 0.012233 -0.995616 -0.026630 -0.034228
    42 1.332449 -2.168929 -0.178143 -1.451654 -0.251939 0.569780
    43 0.024032 -1.136855 -0.001725 -0.837936 0.005801 0.044440
    44 0.014898 -0.899614 -0.015942 -0.880686 0.004998 0.044535
    45 -0.645366 -1.248852 0.059532 -0.141697 -1.003780 -2.153974
    46 1.550180 0.039149 0.016848 -0.011845 -0.004570 0.632985
    47 1.114041 0.044518 -0.005766 -0.019502 -0.034630 0.745810
    48 -0.139399 -0.111698 0.014397 0.285382 -0.030687 1.580508
    49 -7.874137 3.151504 -0.446471 1.573050 -0.031928 -0.464965
  time 9
    0 4.318359 -4.516493 -2.752155 1.545004 0.020711 -1.595685
    1 4.116302 0.309474 0.579363 1.570821 -1.565877 -1.569548
    2 0.776872 -0.777959 0.000000 0.000001 0.000000 -1.828850
    3 1.657125 1.617842 -0.392184 1.570803 1.552836 -1.569519
    4 1.657129 1.623131 0.382959 1.570790 -1.588547 -1.569507
    5 4.124314 -3.447140 -0.020971 -1.570796 0.000000 0.377722
    6 -0.001059 -0.000005 0.029470 -0.000001 0.000000 -1.570797
    7 0.161901 -0.042629 2.167028 1.570796 0.008569 1.570797
    8 0.000000 0.439464 -0.149598 0.000000 0.000000 0.000000
    9 0.000001 0.360867 0.000000 0.000000 0.000000 0.000000
    10 0.974790 2.412368 -0.003569 0.000000 0.000000 0.001279
    11 -0.002752 -0.001265 -0.003287 0.000000 0.000000 0.000000
    12 7.270979 7.349210 -5.651498 0.071816 -1.733686 -0.310633
    13 8.077701 0.633430 -0.380282 1.569471 -3.116306 0.155336
    14 -0.048483 -8.494830 -0.092415 0.145598 0.396140 0.052771
    15 -0.488518 -2.755602 -0.228260 -0.855329 -0.005500 -0.245375
    16 0.039887 -1.546198 0.022041 -1.891765 -0.006292 0.042163
    17 0.028786 -1.153858 -0.120768 -0.959901 -0.014837 0.019894
    18 0.250027 -2.820665 -0.238396 -0.560831 -0.117709 -0.086571
    19 -0.045853 -1.598510 0.037977 -1.526314 0.140987 -0.053597
    20 -0.034142 -1.179563 0.045718 -1.334442 0.004518 -0.035199
    21 0.957766 -2.746780 -0.090302 -0.014872 -0.242718 0.317947
    22 -0.033420 -1.397129 -0.030789 -1.023289 0.072830 -0.009792
    23 -0.022360 -0.961342 -0.008561 -1.033442 0.072663 -0.010774
    24 -1.180681 -2.507217 -0.193859 -0.519852 0.255646 -0.222176
    25 -0.024967 -1.127840 0.017597 -1.700810 -0.017402 -0.065794
    26 -0.020057 -0.906594 0.033528 -1.037463 0.004806 -0.042545
    27 0.642106 -1.189464 0.185379 1.395565 -1.086678 -1.368343
    28 1.496863 -0.192885 0.036260 0.030976 -0.114716 -0.664694
    29 1.081239 -0.100945 0.016666 0.006756 -0.123276 -0.502104
    30 0.120153 -0.050270 -0.054489 0.287569 3.110905 1.561085
    31 -0.594998 -5.938313 -10.653952 -1.440353 -5.109843 -0.993744
    32 -0.016341 -8.493389 0.342208 -0.086541 -1.006314 0.167074
    33 0.682335 -2.556791 -0.262945 -1.403371 -0.057052 0.428144
    34 -0.032909 -1.499736 0.020565 -1.155787 0.022171 -0.019892
    35 -0.027022 -1.104265 -0.028023 -0.656005 0.016539 -0.008078
    36 0.008286 -2.733679 -0.287498 -1.224291 -0.096313 0.189198
    37 0.043235 -1.656596 0.072574 -1.332477 -0.021134 0.006053
    38 0.031729 -1.149111 0.058838 -0.700097 -0.007148 0.005304
    39 -0.709952 -2.804677 -0.253324 -1.005405 0.062193 -0.033347
    40 0.028479 -1.403067 -0.021074 -0.985528 -0.026150 -0.034588
    41 0.021413 -0.942156 0.012233 -0.995616 -0.026630 -0.034228
    42 1.332449 -2.168929 -0.178143 -1.451654 -0.251939 0.569780
    43 0.024032 -1.136855 -0.001725 -0.837936 0.005801 0.044440
    44 0.014898 -0.899614 -0.015942 -0.880686 0.004998 0.044547
    45 -0.645366 -1.248852 0.059532 -0.141697 -1.003780 -2.153974
    46 1.550180 0.039149 0.016848 -0.011845 -0.004570 0.632985
    47 1.114041 0.044518 -0.005766 -0.019502 -0.034630 0.745810
    48 -0.139399 -0.111698 0.014397 0.285382 -0.030687 1.580508
    49 -7.878043 3.139784 -0.446471 1.573026 -0.031952 -0.463510
  time 10
    0 4.314453 -4.512586 -2.759967 1.545478 0.021095 -1.595631
    1 4.116302 0.309474 0.579363 1.570821 -1.565877 -1.569548
    2 0.776872 -0.777959 0.000000 0.000001 0.000000 -1.828850
    3 1.657125 1.617842 -0.396090 1.570803 1.552836 -1.569519
    4 1.657129 1.623131 0.386865 1.570790 -1.588547 -1.569507
    5 4.124314 -3.447140 -0.020971 -1.570796 0.000000 0.377722
    6 -0.001059 -0.000005 0.029470 -0.000001 0.000000 -1.570797
    7 0.161901 -0.042629 2.167028 1.570796 0.008569 1.570797
    8 0.000000 0.439464 -0.149598 0.000000 0.000000 0.000000
    9 0.000001 0.360867 0.000000 0.000000 0.000000 0.000000
    10 0.974790 2.412368 -0.003569 0.000000 0.000000 0.001279
    11 -0.002752 -0.001265 -0.003287 0.000000 0.000000 0.000000
    12 7.270979 7.353116 -5.651498 0.069612 -1.733444 -0.308528
    13 8.077701 0.629524 -0.380282 1.569471 -3.116306 0.155001
    14 -0.048483 -8.494830 -0.092415 0.145823 0.395529 0.052771
    15 -0.488518 -2.755602 -0.228260 -0.855329 -0.005500 -0.245375
    16 0.039887 -1.546198 0.022041 -1.891765 -0.006292 0.042163
    17 0.028786 -1.153858 -0.120768 -0.959872 -0.014837 0.019894
    18 0.250027 -2.820665 -0.238396 -0.560831 -0.117709 -0.086571
    19 -0.045853 -1.598510 0.037977 -1.526314 0.140987 -0.053585
    20 -0.034142 -1.179563 0.045718 -1.334442 0.004518 -0.035199
    21 0.957766 -2.746780 -0.090302 -0.014872 -0.242718 0.317947
    22 -0.033420 -1.397129 -0.030789 -1.023289 0.072830 -0.009792
    23 -0.022360 -0.961342 -0.008561 -1.033442 0.072663 -0.010774
    24 -1.180681 -2.507217 -0.193859 -0.519852 0.255646 -0.222176
    25 -0.024967 -1.127840 0.017597 -1.700810 -0.017402 -0.065794
    26 -0.020057 -0.906594 0.033528 -1.037463 0.004806 -0.042545
    27 0.642106 -1.189464 0.185379 1.395565 -1.086678 -1.368343
    28 1.496863 -0.192885 0.036260 0.030976 -0.114716 -0.664694
    29 1.081239 -0.100945 0.016666 0.006756 -0.123276 -0.502104
    30 0.120153 -0.050270 -0.054489 0.287569 3.110905 1.561085
    31 -0.594998 -5.934406 -10.657858 -1.440175 -5.109364 -0.993467
    32 -0.016341 -8.493389 0.342208 -0.086183 -1.006850 0.166409
    33 0.682335 -2.556791 -0.262945 -1.403371 -0.057052 0.428144
    34 -0.032909 -1.499736 0.020565 -1.155787 0.022171 -0.019892
    35 -0.027022 -1.104265 -0.028023 -0.656005 0.016539 -0.008078
    36 0.008286 -2.733679 -0.287498 -1.224291 -0.096313 0.189198
    37 0.043235 -1.656596 0.072574 -1.332477 -0.021134 0.006053
    38 0.031729 -1.149111 0.058838 -0.700097 -0.007148 0.005304
    39 -0.709952 -2.804677 -0.253324 -1.005405 0.062193 -0.033347
    40 0.028479 -1.403067 -0.021074 -0.985528 -0.026150 -0.034588
    41 0.021413 -0.942156 0.012233 -0.995616 -0.026630 -0.034228
    42 1.332449 -2.168929 -0.178143 -1.451654 -0.251939 0.569780
    43 0.024032 -1.136855 -0.001725 -0.837936 0.005801 0.044440
    44 0.014898 -0.899614 -0.015942 -0.880686 0.004998 0.044535
    45 -0.645366 -1.248852 0.059532 -0.141697 -1.003780 -2.153974
    46 1.550180 0.039149 0.016848 -0.011845 -0.004570 0.632985
    47 1.114041 0.044518 -0.005766 -0.019502 -0.034630 0.745810
    48 -0.139399 -0.111698 0.014397 0.285382 -0.030687 1.580508
    49 -7.881949 3.131972 -0.446471 1.573002 -0.031964 -0.462591
  time 11
    0 4.314453 -4.512586 -2.759967 1.545194 0.020616 -1.595794
    1 4.116302 0.309474 0.579363 1.570821 -1.565877 -1.569548
    2 0.776872 -0.777959 0.000000 0.000001 0.000000 -1.828850
    3 1.657125 1.617842 -0.396090 1.570803 1.552836 -1.569519
    4 1.657129 1.623131 0.386865 1.570790 -1.588547 -1.569507
    5 4.124314 -3.447140 -0.020971 -1.570796 0.000000 0.377722
    6 -0.001059 -0.000005 0.029470 -0.000001 0.000000 -1.570797
    7 0.161901 -0.042629 2.167028 1.570796 0.008569 1.570797
    8 0.000000 0.439464 -0.149598 0.000000 0.000000 0.000000
    9 0.000001 0.360867 0.000000 0.000000 0.000000 0.000000
    10 0.974790 2.412368 -0.003569 0.000000 0.000000 0.001279
    11 -0.002752 -0.001265 -0.003287 0.000000 0.000000 0.000000
    12 7.270979 7.353116 -5.651498 0.067407 -1.733323 -0.306508
    13 8.077701 0.629524 -0.380282 1.569471 -3.116306 0.155336
    14 -0.048483 -8.494830 -0.092415 0.145879 0.395574 0.053674
    15 -0.488518 -2.755602 -0.228260 -0.855329 -0.005500 -0.245375
    16 0.039887 -1.546198 0.022041 -1.891765 -0.006292 0.042163
    17 0.028786 -1.153858 -0.120768 -0.959901 -0.014837 0.019894
    18 0.250027 -2.820665 -0.238396 -0.560831 -0.117709 -0.086571
    19 -0.045853 -1.598510 0.037977 -1.526314 0.140987 -0.053585
    20 -0.034142 -1.179563 0.045718 -1.334442 0.004518 -0.035199
    21 0.957766 -2.746780 -0.090302 -0.014872 -0.242718 0.317947
    22 -0.033420 -1.397129 -0.030789 -1.023289 0.072830 -0.009792
    23 -0.022360 -0.961342 -0.008561 -1.033410 0.072663 -0.010774
    24 -1.180681 -2.507217 -0.193859 -0.519852 0.255646 -0.222176
    25 -0.024967 -1.127840 0.017597 -1.700810 -0.017402 -0.065794
    26 -0.020057 -0.906594 0.033528 -1.037463 0.004806 -0.042545
    27 0.642106 -1.189464 0.185379 1.395565 -1.086678 -1.368343
    28 1.496863 -0.192885 0.036260 0.030976 -0.114716 -0.664694
    29 1.081239 -0.100945 0.016666 0.006756 -0.123276 -0.502104
    30 0.120153 -0.050270 -0.054489 0.287569 3.110905 1.561085
    31 -0.594998 -5.934406 -10.657858 -1.440353 -5.109706 -0.993928
    32 -0.016341 -8.493389 0.342208 -0.086581 -1.006463 0.166808
    33 0.682335 -2.556791 -0.262945 -1.403371 -0.057052 0.428144
    34 -0.032909 -1.499736 0.020565 -1.155787 0.022171 -0.019892
    35 -0.027022 -1.104265 -0.028023 -0.656005 0.016539 -0.008078
    36 0.008286 -2.733679 -0.287498 -1.224291 -0.096313 0.189198
    37 0.043235 -1.656596 0.072574 -1.332477 -0.021134 0.006053
    38 0.031729 -1.149111 0.058838 -0.700097 -0.007148 0.005304
    39 -0.709952 -2.804677 -0.253324 -1.005405 0.062193 -0.033347
    40 0.028479 -1.403067 -0.021074 -0.985528 -0.026150 -0.034588
    41 0.021413 -0.942156 0.012233 -0.995616 -0.026630 -0.034228
    42 1.332449 -2.168929 -0.178143 -1.451654 -0.251939 0.569780
    43 0.024032 -1.136855 -0.001725 -0.837936 0.005801 0.044440
    44 0.014898 -0.899614 -0.015942 -0.880686 0.004998 0.044535
    45 -0.645366 -1.248852 0.059532 -0.141697 -1.003780 -2.153974
    46 1.550180 0.039149 0.016848 -0.011845 -0.004570 0.632985
    47 1.114041 0.044518 -0.005766 -0.019502 -0.034630 0.745810
    48 -0.139399 -0.111698 0.014397 0.285382 -0.030687 1.580508
    49 -7.881949 3.128065 -0.446471 1.573002 -0.031976 -0.462132
  time 12
    0 4.310546 -4.512586 -2.759967 1.544719 0.019658 -1.596064
    1 4.116302 0.309474 0.579363 1.570821 -1.565877 -1.569560
    2 0.776872 -0.777959 0.000000 0.000001 0.000000 -1.828850
    3 1.657125 1.617842 -0.396090 1.570803 1.552836 -1.569519
    4 1.657129 1.623131 0.386865 1.570790 -1.588547 -1.569507
    5 4.124314 -3.447140 -0.020971 -1.570796 0.000000 0.377722
    6 -0.001059 -0.000005 0.029470 -0.000001 0.000000 -1.570797
    7 0.161901 -0.042629 2.167028 1.570796 0.008569 1.570797
    8 0.000000 0.439464 -0.149598 0.000000 0.000000 0.000000
    9 0.000001 0.360867 0.000000 0.000000 0.000000 0.000000
    10 0.974790 2.412368 -0.003569 0.000000 0.000000 0.001279
    11 -0.002752 -0.001265 -0.003287 0.000000 0.000000 0.000000
    12 7.270979 7.349210 -5.651498 0.065490 -1.733323 -0.304741
    13 8.077701 0.637337 -0.376376 1.569471 -3.116306 0.156091
    14 -0.048483 -8.494830 -0.092415 0.145907 0.395913 0.054982
    15 -0.488518 -2.755602 -0.228260 -0.855329 -0.005500 -0.245375
    16 0.039887 -1.546198 0.022041 -1.891765 -0.006292 0.042163
    17 0.028786 -1.153858 -0.120768 -0.959901 -0.014837 0.019894
    18 0.250027 -2.820665 -0.238396 -0.560831 -0.117709 -0.086571
    19 -0.045853 -1.598510 0.037977 -1.526314 0.140987 -0.053585
    20 -0.034142 -1.179563 0.045718 -1.334442 0.004518 -0.035199
    21 0.957766 -2.746780 -0.090302 -0.014872 -0.242718 0.317947
    22 -0.033420 -1.397129 -0.030789 -1.023289 0.072830 -0.009792
    23 -0.022360 -0.961342 -0.008561 -1.033442 0.072663 -0.010774
    24 -1.180681 -2.507217 -0.193859 -0.519870 0.255646 -0.222176
    25 -0.024967 -1.127840 0.017597 -1.700810 -0.017402 -0.065794
    26 -0.020057 -0.906594 0.033528 -1.037463 0.004806 -0.042545
    27 0.642106 -1.189464 0.185379 1.395565 -1.086678 -1.368343
    28 1.496863 -0.192885 0.036260 0.030976 -0.114716 -0.664694
    29 1.081239 -0.100945 0.016666 0.006756 -0.123276 -0.502104
    30 0.120153 -0.050270 -0.054489 0.287569 3.110905 1.561085
    31 -0.598904 -5.938313 -10.657858 -1.440710 -5.110528 -0.994758
    32 -0.016341 -8.493389 0.342208 -0.087377 -1.005689 0.167740
    33 0.682335 -2.556791 -0.262945 -1.403371 -0.057052 0.428144
    34 -0.032909 -1.499736 0.020565 -1.155787 0.022171 -0.019892
    35 -0.027022 -1.104265 -0.028023 -0.656005 0.016539 -0.008078
    36 0.008286 -2.733679 -0.287498 -1.224291 -0.096313 0.189198
    37 0.043235 -1.656596 0.072574 -1.332477 -0.021134 0.006053
    38 0.031729 -1.149111 0.058838 -0.700097 -0.007148 0.005304
    39 -0.709952 -2.804677 -0.253324 -1.005405 0.062193 -0.033347
    40 0.028479 -1.403067 -0.021074 -0.985528 -0.026150 -0.034588
    41 0.021413 -0.942156 0.012233 -0.995616 -0.026630 -0.034228
    42 1.332449 -2.168929 -0.178143 -1.451654 -0.251939 0.569780
    43 0.024032 -1.136855 -0.001725 -0.837936 0.005801 0.044440
    44 0.014898 -0.899614 -0.015942 -0.880686 0.004998 0.044547
    45 -0.645366 -1.248852 0.059532 -0.141697 -1.003780 -2.153974
    46 1.550180 0.039149 0.016848 -0.011845 -0.004570 0.632985
    47 1.114041 0.044518 -0.005766 -0.019502 -0.034630 0.745810
    48 -0.139399 -0.111698 0.014397 0.285382 -0.030687 1.580508
    49 -7.881949 3.128065 -0.446471 1.573002 -0.031976 -0.462132
  time 13
    0 4.310546 -4.512586 -2.756061 1.544149 0.018604 -1.596389
    1 4.116302 0.309474 0.579363 1.570821 -1.565877 -1.569548
    2 0.776872 -0.777959 0.000000 0.000001 0.000000 -1.828850
    3 1.657125 1.617842 -0.396090 1.570803 1.552836 -1.569519
    4 1.657129 1.623131 0.386865 1.570790 -1.588547 -1.569507
    5 4.124314 -3.447140 -0.020971 -1.570796 0.000000 0.377722
    6 -0.001059 -0.000005 0.029470 -0.000001 0.000000 -1.570797
    7 0.161901 -0.042629 2.167028 1.570796 0.008569 1.570797
    8 0.000000 0.439464 -0.149598 0.000000 0.000000 0.000000
    9 0.000001 0.360867 0.000000 0.000000 0.000000 0.000000
    10 0.974790 2.412368 -0.003569 0.000000 0.000000 0.001279
    11 -0.002752 -0.001265 -0.003287 0.000000 0.000000 0.000000
    12 7.270979 7.345303 -5.651498 0.063765 -1.733384 -0.302973
    13 8.077701 0.645149 -0.376376 1.569471 -3.116306 0.157098
    14 -0.048483 -8.494830 -0.092415 0.145879 0.396343 0.056477
    15 -0.488518 -2.755602 -0.228260 -0.855329 -0.005500 -0.245375
    16 0.039887 -1.546198 0.022041 -1.891765 -0.006292 0.042163
    17 0.028786 -1.153858 -0.120768 -0.959901 -0.014837 0.019894
    18 0.250027 -2.820665 -0.238396 -0.560831 -0.117709 -0.086571
    19 -0.045853 -1.598510 0.037977 -1.526314 0.140987 -0.053585
    20 -0.034142 -1.179563 0.045718 -1.334442 0.004518 -0.035199
    21 0.957766 -2.746780 -0.090302 -0.014872 -0.242718 0.317947
    22 -0.033420 -1.397129 -0.030789 -1.023289 0.072830 -0.009792
    23 -0.022360 -0.961342 -0.008561 -1.033442 0.072663 -0.010774
    24 -1.180681 -2.507217 -0.193859 -0.519852 0.255646 -0.222176
    25 -0.024967 -1.127840 0.017597 -1.700810 -0.017402 -0.065794
    26 -0.020057 -0.906594 0.033528 -1.037463 0.004806 -0.042545
    27 0.642106 -1.189464 0.185379 1.395565 -1.086699 -1.368343
    28 1.496863 -0.192885 0.036260 0.030976 -0.114716 -0.664694
    29 1.081239 -0.100945 0.016666 0.006756 -0.123276 -0.502104
    30 0.120153 -0.050270 -0.054489 0.287569 3.110905 1.561085
    31 -0.598904 -5.946125 -10.650046 -1.441067 -5.111418 -0.995680
    32 -0.016341 -8.489482 0.342208 -0.088332 -1.004766 0.168849
    33 0.682335 -2.556791 -0.262945 -1.403371 -0.057052 0.428144
    34 -0.032909 -1.499736 0.020565 -1.155787 0.022171 -0.019892
    35 -0.027022 -1.104265 -0.028023 -0.656005 0.016539 -0.008078
    36 0.008286 -2.733679 -0.287498 -1.224291 -0.096313 0.189198
    37 0.043235 -1.656596 0.072574 -1.332477 -0.021134 0.006053
    38 0.031729 -1.149111 0.058838 -0.700097 -0.007148 0.005304
    39 -0.709952 -2.804677 -0.253324 -1.005405 0.062193 -0.033347
    40 0.028479 -1.403067 -0.021074 -0.985528 -0.026150 -0.034588
    41 0.021413 -0.942156 0.012233 -0.995616 -0.026630 -0.034228
    42 1.332449 -2.168929 -0.178143 -1.451654 -0.251939 0.569780
    43 0.024032 -1.136855 -0.001725 -0.837936 0.005801 0.044440
    44 0.014898 -0.899614 -0.015942 -0.880686 0.004998 0.044535
    45 -0.645366 -1.248852 0.059532 -0.141697 -1.003780 -2.153974
    46 1.550180 0.039149 0.016848 -0.011845 -0.004570 0.632985
    47 1.114041 0.044518 -0.005766 -0.019502 -0.034630 0.745810
    48 -0.139399 -0.111698 0.014397 0.285382 -0.030687 1.580508
    49 -7.881949 3.131972 -0.446471 1.573002 -0.031964 -0.462362
  time 14
    0 4.310546 -4.512586 -2.756061 1.543580 0.017551 -1.596659
    1 4.116302 0.309474 0.579363 1.570821 -1.565877 -1.569548
    2 0.776872 -0.777959 0.000000 0.000001 0.000000 -1.828850
    3 1.657125 1.617842 -0.396090 1.570803 1.552836 -1.569519
    4 1.657129 1.623131 0.386865 1.570790 -1.588547 -1.569507
    5 4.124314 -3.447140 -0.020971 -1.570796 0.000000 0.377722
    6 -0.001059 -0.000005 0.029470 -0.000001 0.000000 -1.570797
    7 0.161901 -0.042629 2.167028 1.570796 0.008569 1.570797
    8 0.000000 0.439464 -0.149598 0.000000 0.000000 0.000000
    9 0.000001 0.360867 0.000000 0.000000 0.000000 0.000000
    10 0.974790 2.412368 -0.003569 0.000000 0.000000 0.001279
    11 -0.002752 -0.001265 -0.003287 0.000000 0.000000 0.000000
    12 7.270979 7.341397 -5.651498 0.061944 -1.733384 -0.301205
    13 8.077701 0.652962 -0.376376 1.569471 -3.116306 0.158021
    14 -0.048483 -8.494830 -0.092415 0.145879 0.396728 0.057910
    15 -0.488518 -2.755602 -0.228260 -0.855329 -0.005500 -0.245375
    16 0.039887 -1.546198 0.022041 -1.891765 -0.006292 0.042163
    17 0.028786 -1.153858 -0.120768 -0.959901 -0.014837 0.019894
    18 0.250027 -2.820665 -0.238396 -0.560831 -0.117709 -0.086571
    19 -0.045853 -1.598510 0.037977 -1.526314 0.140987 -0.053597
    20 -0.034142 -1.179563 0.045718 -1.334442 0.004518 -0.035199
    21 0.957766 -2.746780 -0.090302 -0.014872 -0.242718 0.317947
    22 -0.033420 -1.397129 -0.030789 -1.023289 0.072830 -0.009792
    23 -0.022360 -0.961342 -0.008561 -1.033442 0.072663 -0.010774
    24 -1.180681 -2.507217 -0.193859 -0.519870 0.255646 -0.222176
    25 -0.024967 -1.127840 0.017597 -1.700810 -0.017402 -0.065794
    26 -0.020057 -0.906594 0.033528 -1.037463 0.004806 -0.042545
    27 0.642106 -1.189464 0.185379 1.395565 -1.086678 -1.368343
    28 1.496863 -0.192885 0.036260 0.030976 -0.114716 -0.664694
    29 1.081239 -0.100945 0.016666 0.006756 -0.123276 -0.502104
    30 0.120153 -0.050270 -0.054489 0.287569 3.110905 1.561085
    31 -0.598904 -5.950032 -10.646139 -1.441424 -5.112308 -0.996602
    32 -0.016341 -8.489482 0.342208 -0.089208 -1.003903 0.169781
    33 0.682335 -2.556791 -0.262945 -1.403371 -0.057052 0.428144
    34 -0.032909 -1.499736 0.020565 -1.155787 0.022171 -0.019892
    35 -0.027022 -1.104265 -0.028023 -0.656005 0.016539 -0.008078
    36 0.008286 -2.733679 -0.287498 -1.224291 -0.096313 0.189198
    37 0.043235 -1.656596 0.072574 -1.332477 -0.021134 0.006053
    38 0.031729 -1.149111 0.058838 -0.700097 -0.007148 0.005304
    39 -0.709952 -2.804677 -0.253324 -1.005405 0.062193 -0.033347
    40 0.028479 -1.403067 -0.021074 -0.985528 -0.026150 -0.034588
    41 0.021413 -0.942156 0.012233 -0.995616 -0.026630 -0.034228
    42 1.332449 -2.168929 -0.178143 -1.451654 -0.251939 0.569780
    43 0.024032 -1.136855 -0.001725 -0.837936 0.005801 0.044440
    44 0.014898 -0.899614 -0.015942 -0.880686 0.004998 0.044535
    45 -0.645366 -1.248852 0.059532 -0.141697 -1.003780 -2.153974
    46 1.550180 0.039149 0.016848 -0.011845 -0.004570 0.632985
    47 1.114041 0.044518 -0.005766 -0.019502 -0.034630 0.745810
    48 -0.139399 -0.111698 0.014397 0.285382 -0.030687 1.580508
    49 -7.878043 3.131972 -0.446471 1.573014 -0.031964 -0.462668
  time 15
    0 4.314453 -4.512586 -2.756061 1.543295 0.016880 -1.596876
    1 4.116302 0.309474 0.579363 1.570821 -1.565877 -1.569548
    2 0.776872 -0.777959 0.000000 0.000001 0.000000 -1.828850
    3 1.657125 1.617842 -0.396090 1.570803 1.552836 -1.569519
    4 1.657129 1.623131 0.386865 1.570790 -1.588547 -1.569507
    5 4.124314 -3.447140 -0.020971 -1.570796 0.000000 0.377722
    6 -0.001059 -0.000005 0.029470 -0.000001 0.000000 -1.570797
    7 0.161901 -0.042629 2.167028 1.570796 0.008569 1.570797
    8 0.000000 0.439464 -0.149598 0.000000 0.000000 0.000000
    9 0.000001 0.360867 0.000000 0.000000 0.000000 0.000000
    10 0.974790 2.412368 -0.003569 0.000000 0.000000 0.001279
    11 -0.002752 -0.001265 -0.003287 0.000000 0.000000 0.000000
    12 7.270979 7.337490 -5.651498 0.060027 -1.733444 -0.299269
    13 8.081607 0.660775 -0.376376 1.569471 -3.116306 0.158776
    14 -0.048483 -8.494830 -0.092415 0.145851 0.396909 0.059000
    15 -0.488518 -2.755602 -0.228260 -0.855329 -0.005500 -0.245375
    16 0.039887 -1.546198 0.022041 -1.891765 -0.006292 0.042163
    17 0.028786 -1.153858 -0.120768 -0.959901 -0.014837 0.019894
    18 0.250027 -2.820665 -0.238396 -0.560831 -0.117709 -0.086571
    19 -0.045853 -1.598510 0.037977 -1.526314 0.140987 -0.053597
    20 -0.034142 -1.179563 0.045718 -1.334442 0.004518 -0.035199
    21 0.957766 -2.746780 -0.090302 -0.014872 -0.242718 0.317947
    22 -0.033420 -1.397129 -0.030789 -1.023289 0.072830 -0.009792
    23 -0.022360 -0.961342 -0.008561 -1.033442 0.072663 -0.010774
    24 -1.180681 -2.507217 -0.193859 -0.519870 0.255646 -0.222176
    25 -0.024967 -1.127840 0.017597 -1.700810 -0.017402 -0.065794
    26 -0.020057 -0.906594 0.033528 -1.037463 0.004806 -0.042545
    27 0.642106 -1.189464 0.185379 1.395565 -1.086678 -1.368343
    28 1.496863 -0.192885 0.036260 0.030976 -0.114716 -0.664694
    29 1.081239 -0.100945 0.016666 0.006756 -0.123276 -0.502104
    30 0.120153 -0.050270 -0.054489 0.287569 3.110905 1.561085
    31 -0.594998 -5.953938 -10.642233 -1.441602 -5.112719 -0.997063
    32 -0.016341 -8.489482 0.342208 -0.089725 -1.003397 0.170180
    33 0.682335 -2.556791 -0.262945 -1.403371 -0.057052 0.428144
    34 -0.032909 -1.499736 0.020565 -1.155787 0.022171 -0.019892
    35 -0.027022 -1.104265 -0.028023 -0.656005 0.016539 -0.008078
    36 0.008286 -2.733679 -0.287498 -1.224291 -0.096313 0.189198
    37 0.043235 -1.656596 0.072574 -1.332477 -0.021134 0.006053
    38 0.031729 -1.149111 0.058838 -0.700097 -0.007148 0.005304
    39 -0.709952 -2.804677 -0.253324 -1.005405 0.062193 -0.033347
    40 0.028479 -1.403067 -0.021074 -0.985528 -0.026150 -0.034588
    41 0.021413 -0.942156 0.012233 -0.995616 -0.026630 -0.034228
    42 1.332449 -2.168929 -0.178143 -1.451654 -0.251939 0.569780
    43 0.024032 -1.136855 -0.001725 -0.837936 0.005801 0.044440
    44 0.014898 -0.899614 -0.015942 -0.880686 0.004998 0.044547
    45 -0.645366 -1.248852 0.059532 -0.141697 -1.003780 -2.153974
    46 1.550180 0.039149 0.016848 -0.011845 -0.004570 0.632985
    47 1.114041 0.044518 -0.005766 -0.019502 -0.034630 0.745810
    48 -0.139399 -0.111698 0.014397 0.285382 -0.030687 1.580508
    49 -7.878043 3.135878 -0.446471 1.573014 -0.031952 -0.463051
  time 16
    0 4.314453 -4.512586 -2.756061 1.543390 0.016497 -1.596876
    1 4.116302 0.309474 0.579363 1.570821 -1.565877 -1.569548
    2 0.776872 -0.777959 0.000000 0.000001 0.000000 -1.828850
    3 1.657125 1.617842 -0.396090 1.570803 1.552836 -1.569519
    4 1.657129 1.623131 0.386865 1.570790 -1.588547 -1.569507
    5 4.124314 -3.447140 -0.020971 -1.570796 0.000000 0.377722
    6 -0.001059 -0.000005 0.029470 -0.000001 0.000000 -1.570797
    7 0.161901 -0.042629 2.167028 1.570796 0.008569 1.570797
    8 0.000000 0.439464 -0.149598 0.000000 0.000000 0.000000
    9 0.000001 0.360867 0.000000 0.000000 0.000000 0.000000
    10 0.974790 2.412368 -0.003569 0.000000 0.000000 0.001279
    11 -0.002752 -0.001265 -0.003287 0.000000 0.000000 0.000000
    12 7.270979 7.337490 -5.651498 0.057919 -1.733444 -0.297081
    13 8.081607 0.664681 -0.376376 1.569471 -3.116306 0.159363
    14 -0.048483 -8.494830 -0.092415 0.145851 0.396796 0.059747
    15 -0.488518 -2.755602 -0.228260 -0.855329 -0.005500 -0.245375
    16 0.039887 -1.546198 0.022041 -1.891765 -0.006292 0.042163
    17 0.028786 -1.153858 -0.120768 -0.959901 -0.014837 0.019894
    18 0.250027 -2.820665 -0.238396 -0.560831 -0.117709 -0.086571
    19 -0.045853 -1.598510 0.037977 -1.526314 0.140987 -0.053597
    20 -0.034142 -1.179563 0.045718 -1.334442 0.004518 -0.035199
    21 0.957766 -2.746780 -0.090302 -0.014872 -0.242718 0.317947
    22 -0.033420 -1.397129 -0.030789 -1.023289 0.072830 -0.009792
    23 -0.022360 -0.961342 -0.008561 -1.033442 0.072663 -0.010774
    24 -1.180681 -2.507217 -0.193859 -0.519870 0.255646 -0.222176
    25 -0.024967 -1.127840 0.017597 -1.700810 -0.017402 -0.065794
    26 -0.020057 -0.906594 0.033528 -1.037463 0.004806 -0.042545
    27 0.642106 -1.189464 0.185379 1.395565 -1.086678 -1.368343
    28 1.496863 -0.192885 0.036260 0.030976 -0.114716 -0.664694
    29 1.081239 -0.100945 0.016666 0.006756 -0.123276 -0.502104
    30 0.120153 -0.050270 -0.054489 0.287569 3.110905 1.561085
    31 -0.594998 -5.957844 -10.642233 -1.441602 -5.112719 -0.997155
    32 -0.016341 -8.489482 0.342208 -0.089805 -1.003278 0.169869
    33 0.682335 -2.556791 -0.262945 -1.403371 -0.057052 0.428144
    34 -0.032909 -1.499736 0.020565 -1.155787 0.022171 -0.019892
    35 -0.027022 -1.104265 -0.028023 -0.656005 0.016539 -0.008078
    36 0.008286 -2.733679 -0.287498 -1.224291 -0.096313 0.189198
    37 0.043235 -1.656596 0.072574 -1.332477 -0.021134 0.006053
    38 0.031729 -1.149111 0.058838 -0.700097 -0.007148 0.005304
    39 -0.709952 -2.804677 -0.253324 -1.005405 0.062193 -0.033347
    40 0.028479 -1.403067 -0.021074 -0.985528 -0.026150 -0.034588
    41 0.021413 -0.942156 0.012233 -0.995616 -0.026630 -0.034228
    42 1.332449 -2.168929 -0.178143 -1.451654 -0.251939 0.569780
    43 0.024032 -1.136855 -0.001725 -0.837936 0.005801 0.044440
    44 0.014898 -0.899614 -0.015942 -0.880686 0.004998 0.044535
    45 -0.645366 -1.248852 0.059532 -0.141697 -1.003780 -2.153974
    46 1.550180 0.039149 0.016848 -0.011845 -0.004570 0.632985
    47 1.114041 0.044518 -0.005766 -0.019502 -0.034630 0.745810
    48 -0.139399 -0.111698 0.014397 0.285382 -0.030687 1.580508
    49 -7.878043 3.139784 -0.446471 1.573026 -0.031952 -0.463510
  time 17
    0 4.314453 -4.512586 -2.759967 1.543675 0.016306 -1.596822
    1 4.116302 0.309474 0.579363 1.570821 -1.565877 -1.569548
    2 0.776872 -0.777959 0.000000 0.000001 0.000000 -1.828850
    3 1.657125 1.617842 -0.396090 1.570803 1.552836 -1.569519
    4 1.657129 1.623131 0.386865 1.570790 -1.588547 -1.569507
    5 4.124314 -3.447140 -0.020971 -1.570796 0.000000 0.377722
    6 -0.001059 -0.000005 0.029470 -0.000001 0.000000 -1.570797
    7 0.161901 -0.042629 2.167028 1.570796 0.008569 1.570797
    8 0.000000 0.439464 -0.149598 0.000000 0.000000 0.000000
    9 0.000001 0.360867 0.000000 0.000000 0.000000 0.000000
    10 0.974790 2.412368 -0.003569 0.000000 0.000000 0.001279
    11 -0.002752 -0.001265 -0.003287 0.000000 0.000000 0.000000
    12 7.270979 7.337490 -5.651498 0.055523 -1.733444 -0.294640
    13 8.081607 0.668588 -0.376376 1.569471 -3.116306 0.159866
    14 -0.048483 -8.494830 -0.092415 0.145823 0.396524 0.060246
    15 -0.488518 -2.755602 -0.228260 -0.855329 -0.005500 -0.245375
    16 0.039887 -1.546198 0.022041 -1.891765 -0.006292 0.042163
    17 0.028786 -1.153858 -0.120768 -0.959901 -0.014837 0.019894
    18 0.250027 -2.820665 -0.238396 -0.560831 -0.117709 -0.086571
    19 -0.045853 -1.598510 0.037977 -1.526314 0.140987 -0.053597
    20 -0.034142 -1.179563 0.045718 -1.334442 0.004518 -0.035199
    21 0.957766 -2.746780 -0.090302 -0.014872 -0.242718 0.317947
    22 -0.033420 -1.397129 -0.030789 -1.023289 0.072830 -0.009792
    23 -0.022360 -0.961342 -0.008561 -1.033442 0.072663 -0.010774
    24 -1.180681 -2.507217 -0.193859 -0.519852 0.255646 -0.222176
    25 -0.024967 -1.127840 0.017597 -1.700810 -0.017402 -0.065794
    26 -0.020057 -0.906594 0.033528 -1.037463 0.004806 -0.042545
    27 0.642106 -1.189464 0.185379 1.395565 -1.086678 -1.368343
    28 1.496863 -0.192885 0.036260 0.030976 -0.114716 -0.664694
    29 1.081239 -0.100945 0.016666 0.006756 -0.123276 -0.502104
    30 0.120153 -0.050270 -0.054489 0.287569 3.110905 1.561085
    31 -0.594998 -5.957844 -10.642233 -1.441543 -5.112445 -0.996879
    32 -0.016341 -8.489482 0.342208 -0.089685 -1.003397 0.169115
    33 0.682335 -2.556791 -0.262945 -1.403371 -0.057052 0.428144
    34 -0.032909 -1.499736 0.020565 -1.155787 0.022171 -0.019892
    35 -0.027022 -1.104265 -0.028023 -0.656005 0.016539 -0.008078
    36 0.008286 -2.733679 -0.287498 -1.224291 -0.096313 0.189198
    37 0.043235 -1.656596 0.072574 -1.332477 -0.021134 0.006053
    38 0.031729 -1.149111 0.058838 -0.700097 -0.007148 0.005304
    39 -0.709952 -2.804677 -0.253324 -1.005405 0.062193 -0.033347
    40 0.028479 -1.403067 -0.021074 -0.985528 -0.026150 -0.034588
    41 0.021413 -0.942156 0.012233 -0.995616 -0.026630 -0.034228
    42 1.332449 -2.168929 -0.178143 -1.451654 -0.251939 0.569780
    43 0.024032 -1.136855 -0.001725 -0.837936 0.005801 0.044440
    44 0.014898 -0.899614 -0.015942 -0.880686 0.004998 0.044547
    45 -0.645366 -1.248852 0.059532 -0.141697 -1.003780 -2.153974
    46 1.550180 0.039149 0.016848 -0.011845 -0.004570 0.632985
    47 1.114041 0.044518 -0.005766 -0.019502 -0.034630 0.745810
    48 -0.139399 -0.111698 0.014397 0.285382 -0.030687 1.580508
    49 -7.878043 3.143691 -0.446471 1.573038 -0.031940 -0.464123
  time 18
    0 4.314453 -4.516493 -2.763874 1.544054 0.016210 -1.596768
    1 4.116302 0.309474 0.579363 1.570821 -1.565877 -1.569548
    2 0.776872 -0.777959 0.000000 0.000001 0.000000 -1.828850
    3 1.657125 1.617842 -0.396090 1.570803 1.552836 -1.569519
    4 1.657129 1.623131 0.386865 1.570790 -1.588547 -1.569507
    5 4.124314 -3.447140 -0.020971 -1.570796 0.000000 0.377722
    6 -0.001059 -0.000005 0.029470 -0.000001 0.000000 -1.570797
    7 0.161901 -0.042629 2.167028 1.570796 0.008569 1.570797
    8 0.000000 0.439464 -0.149598 0.000000 0.000000 0.000000
    9 0.000001 0.360867 0.000000 0.000000 0.000000 0.000000
    10 0.974790 2.412368 -0.003569 0.000000 0.000000 0.001279
    11 -0.002752 -0.001265 -0.003287 0.000000 0.000000 0.000000
    12 7.270979 7.337490 -5.651498 0.053222 -1.733444 -0.292199
    13 8.081607 0.672494 -0.376376 1.569471 -3.116306 0.160369
    14 -0.048483 -8.494830 -0.092415 0.145795 0.396162 0.060620
    15 -0.488518 -2.755602 -0.228260 -0.855329 -0.005500 -0.245375
    16 0.039887 -1.546198 0.022041 -1.891765 -0.006292 0.042163
    17 0.028786 -1.153858 -0.120768 -0.959901 -0.014837 0.019894
    18 0.250027 -2.820665 -0.238396 -0.560831 -0.117709 -0.086571
    19 -0.045853 -1.598510 0.037977 -1.526314 0.140987 -0.053585
    20 -0.034142 -1.179563 0.045718 -1.334442 0.004518 -0.035199
    21 0.957766 -2.746780 -0.090302 -0.014872 -0.242718 0.317947
    22 -0.033420 -1.397129 -0.030789 -1.023289 0.072830 -0.009792
    23 -0.022360 -0.961342 -0.008561 -1.033442 0.072663 -0.010774
    24 -1.180681 -2.507217 -0.193859 -0.519870 0.255646 -0.222176
    25 -0.024967 -1.127840 0.017597 -1.700810 -0.017402 -0.065794
    26 -0.020057 -0.906594 0.033528 -1.037463 0.004806 -0.042545
    27 0.642106 -1.189464 0.185379 1.395565 -1.086678 -1.368343
    28 1.496863 -0.192885 0.036260 0.030976 -0.114716 -0.664694
    29 1.081239 -0.100945 0.016666 0.006756 -0.123276 -0.502104
    30 0.120153 -0.050270 -0.054489 0.287569 3.110905 1.561085
    31 -0.594998 -5.957844 -10.642233 -1.441364 -5.111966 -0.996510
    32 -0.016341 -8.489482 0.342208 -0.089407 -1.003665 0.168184
    33 0.682335 -2.556791 -0.262945 -1.403371 -0.057052 0.428144
    34 -0.032909 -1.499736 0.020565 -1.155787 0.022171 -0.019892
    35 -0.027022 -1.104265 -0.028023 -0.656005 0.016539 -0.008078
    36 0.008286 -2.733679 -0.287498 -1.224291 -0.096313 0.189198
    37 0.043235 -1.656596 0.072574 -1.332477 -0.021134 0.006053
    38 0.031729 -1.149111 0.058838 -0.700097 -0.007148 0.005304
    39 -0.709952 -2.804677 -0.253324 -1.005405 0.062193 -0.033347
    40 0.028479 -1.403067 -0.021074 -0.985528 -0.026150 -0.034588
    41 0.021413 -0.942156 0.012233 -0.995616 -0.026630 -0.034228
    42 1.332449 -2.168929 -0.178143 -1.451654 -0.251939 0.569780
    43 0.024032 -1.136855 -0.001725 -0.837936 0.005801 0.044440
    44 0.014898 -0.899614 -0.015942 -0.880686 0.004998 0.044535
    45 -0.645366 -1.248852 0.059532 -0.141697 -1.003780 -2.153974
    46 1.550180 0.039149 0.016848 -0.011845 -0.004570 0.632985
    47 1.114041 0.044518 -0.005766 -0.019502 -0.034630 0.745810
    48 -0.139399 -0.111698 0.014397 0.285382 -0.030687 1.580508
    49 -7.874137 3.151504 -0.446471 1.573050 -0.031928 -0.464736
  time 19
    0 4.314453 -4.516493 -2.767780 1.544434 0.016114 -1.596659
    1 4.116302 0.309474 0.579363 1.570821 -1.565877 -1.569548
    2 0.776872 -0.777959 0.000000 0.000001 0.000000 -1.828850
    3 1.657125 1.617842 -0.396090 1.570803 1.552836 -1.569519
    4 1.657129 1.623131 0.386865 1.570790 -1.588547 -1.569507
    5 4.124314 -3.447140 -0.020971 -1.570796 0.000000 0.377722
    6 -0.001059 -0.000005 0.029470 -0.000001 0.000000 -1.570797
    7 0.161901 -0.042629 2.167028 1.570796 0.008569 1.570797
    8 0.000000 0.439464 -0.149598 0.000000 0.000000 0.000000
    9 0.000001 0.360867 0.000000 0.000000 0.000000 0.000000
    10 0.974790 2.412368 -0.003569 0.000000 0.000000 0.001279
    11 -0.002752 -0.001265 -0.003287 0.000000 0.000000 0.000000
    12 7.270979 7.337490 -5.651498 0.051210 -1.733505 -0.290095
    13 8.081607 0.676400 -0.376376 1.569471 -3.116402 0.160705
    14 -0.048483 -8.498736 -0.092415 0.145795 0.395823 0.060931
    15 -0.488518 -2.755602 -0.228260 -0.855329 -0.005500 -0.245375
    16 0.039887 -1.546198 0.022041 -1.891765 -0.006292 0.042163
    17 0.028786 -1.153858 -0.120768 -0.959901 -0.014837 0.019894
    18 0.250027 -2.820665 -0.238396 -0.560831 -0.117709 -0.086571
    19 -0.045853 -1.598510 0.037977 -1.526314 0.140987 -0.053597
    20 -0.034142 -1.179563 0.045718 -1.334442 0.004518 -0.035199
    21 0.957766 -2.746780 -0.090302 -0.014872 -0.242718 0.317947
    22 -0.033420 -1.397129 -0.030789 -1.023289 0.072830 -0.009792
    23 -0.022360 -0.961342 -0.008561 -1.033442 0.072663 -0.010774
    24 -1.180681 -2.507217 -0.193859 -0.519852 0.255646 -0.222176
    25 -0.024967 -1.127840 0.017597 -1.700810 -0.017402 -0.065794
    26 -0.020057 -0.906594 0.033528 -1.037463 0.004806 -0.042545
    27 0.642106 -1.189464 0.185379 1.395565 -1.086678 -1.368343
    28 1.496863 -0.192885 0.036260 0.030976 -0.114716 -0.664694
    29 1.081239 -0.100945 0.016666 0.006756 -0.123276 -0.502104
    30 0.120153 -0.050270 -0.054489 0.287569 3.110905 1.561085
    31 -0.594998 -5.957844 -10.642233 -1.441186 -5.111487 -0.996141
    32 -0.016341 -8.489482 0.342208 -0.089128 -1.003933 0.167252
    33 0.682335 -2.556791 -0.262945 -1.403371 -0.057052 0.428144
    34 -0.032909 -1.499736 0.020565 -1.155787 0.022171 -0.019892
    35 -0.027022 -1.104265 -0.028023 -0.656005 0.016539 -0.008078
    36 0.008286 -2.733679 -0.287498 -1.224291 -0.096313 0.189198
    37 0.043235 -1.656596 0.072574 -1.332477 -0.021134 0.006053
    38 0.031729 -1.149111 0.058838 -0.700097 -0.007148 0.005304
    39 -0.709952 -2.804677 -0.253324 -1.005405 0.062193 -0.033347
    40 0.028479 -1.403067 -0.021074 -0.985528 -0.026150 -0.034588
    41 0.021413 -0.942156 0.012233 -0.995616 -0.026630 -0.034228
    42 1.332449 -2.168929 -0.178143 -1.451654 -0.251939 0.569780
    43 0.024032 -1.136855 -0.001725 -0.837936 0.005801 0.044440
    44 0.014898 -0.899614 -0.015942 -0.880686 0.004998 0.044547
    45 -0.645366 -1.248852 0.059532 -0.141697 -1.003780 -2.153974
    46 1.550180 0.039149 0.016848 -0.011845 -0.004570 0.632985
    47 1.114041 0.044518 -0.005766 -0.019502 -0.034630 0.745810
    48 -0.139399 -0.111698 0.014397 0.285382 -0.030687 1.580508
    49 -7.874137 3.155410 -0.446471 1.573062 -0.031916 -0.465348
  time 20
    0 4.314453 -4.516493 -2.767780 1.544624 0.016114 -1.596605
    1 4.116302 0.309474 0.579363 1.570821 -1.565877 -1.569548
    2 0.776872 -0.777959 0.000000 0.000001 0.000000 -1.828850
    3 1.657125 1.617842 -0.396090 1.570803 1.552836 -1.569519
    4 1.657129 1.623131 0.386865 1.570790 -1.588547 -1.569507
    5 4.124314 -3.447140 -0.020971 -1.570796 0.000000 0.377722
    6 -0.001059 -0.000005 0.029470 -0.000001 0.000000 -1.570797
    7 0.161901 -0.042629 2.167028 1.570796 0.008569 1.570797
    8 0.000000 0.439464 -0.149598 0.000000 0.000000 0.000000
    9 0.000001 0.360867 0.000000 0.000000 0.000000 0.000000
    10 0.974790 2.412368 -0.003569 0.000000 0.000000 0.001279
    11 -0.002752 -0.001265 -0.003287 0.000000 0.000000 0.000000
    12 7.270979 7.337490 -5.651498 0.049676 -1.733505 -0.288496
    13 8.081607 0.676400 -0.376376 1.569375 -3.116402 0.161040
    14 -0.048483 -8.498736 -0.092415 0.145767 0.395597 0.061149
    15 -0.488518 -2.755602 -0.228260 -0.855329 -0.005500 -0.245375
    16 0.039887 -1.546198 0.022041 -1.891765 -0.006292 0.042163
    17 0.028786 -1.153858 -0.120768 -0.959901 -0.014837 0.019894
    18 0.250027 -2.820665 -0.238396 -0.560831 -0.117709 -0.086571
    19 -0.045853 -1.598510 0.037977 -1.526314 0.140987 -0.053597
    20 -0.034142 -1.179563 0.045718 -1.334442 0.004518 -0.035199
    21 0.957766 -2.746780 -0.090302 -0.014872 -0.242718 0.317947
    22 -0.033420 -1.397129 -0.030789 -1.023289 0.072830 -0.009792
    23 -0.022360 -0.961342 -0.008561 -1.033442 0.072663 -0.010774
    24 -1.180681 -2.507217 -0.193859 -0.519852 0.255646 -0.222176
    25 -0.024967 -1.127840 0.017597 -1.700810 -0.017402 -0.065794
    26 -0.020057 -0.906594 0.033528 -1.037463 0.004806 -0.042545
    27 0.642106 -1.189464 0.185379 1.395565 -1.086678 -1.368343
    28 1.496863 -0.192885 0.036260 0.030976 -0.114716 -0.664694
    29 1.081239 -0.100945 0.016666 0.006756 -0.123276 -0.502104
    30 0.120153 -0.050270 -0.054489 0.287569 3.110905 1.561085
    31 -0.591091 -5.957844 -10.642233 -1.441067 -5.111213 -0.995957
    32 -0.016341 -8.489482 0.342208 -0.088969 -1.004111 0.166631
    33 0.682335 -2.556791 -0.262945 -1.403371 -0.057052 0.428144
    34 -0.032909 -1.499736 0.020565 -1.155787 0.022171 -0.019892
    35 -0.027022 -1.104265 -0.028023 -0.656005 0.016539 -0.008078
    36 0.008286 -2.733679 -0.287498 -1.224291 -0.096313 0.189198
    37 0.043235 -1.656596 0.072574 -1.332477 -0.021134 0.006053
    38 0.031729 -1.149111 0.058838 -0.700097 -0.007148 0.005304
    39 -0.709952 -2.804677 -0.253324 -1.005405 0.062193 -0.033347
    40 0.028479 -1.403067 -0.021074 -0.985528 -0.026150 -0.034588
    41 0.021413 -0.942156 0.012233 -0.995616 -0.026630 -0.034228
    42 1.332449 -2.168929 -0.178143 -1.451654 -0.251939 0.569780
    43 0.024032 -1.136855 -0.001725 -0.837936 0.005801 0.044440
    44 0.014898 -0.899614 -0.015942 -0.880686 0.004998 0.044535
    45 -0.645366 -1.248852 0.059532 -0.141697 -1.003780 -2.153974
    46 1.550180 0.039149 0.016848 -0.011845 -0.004570 0.632985
    47 1.114041 0.044518 -0.005766 -0.019502 -0.034630 0.745810
    48 -0.139399 -0.111698 0.014397 0.285382 -0.030687 1.580508
    49 -7.874137 3.159316 -0.446471 1.573074 -0.031904 -0.465731
  time 21
    0 4.314453 -4.516493 -2.767780 1.544624 0.016114 -1.596551
    1 4.116302 0.309474 0.579363 1.570821 -1.565877 -1.569548
    2 0.776872 -0.777959 0.000000 0.000001 0.000000 -1.828850
    3 1.657125 1.617842 -0.396090 1.570803 1.552836 -1.569519
    4 1.657129 1.623131 0.386865 1.570790 -1.588547 -1.569507
    5 4.124314 -3.447140 -0.020971 -1.570796 0.000000 0.377722
    6 -0.001059 -0.000005 0.029470 -0.000001 0.000000 -1.570797
    7 0.161901 -0.042629 2.167028 1.570796 0.008569 1.570797
    8 0.000000 0.439464 -0.149598 0.000000 0.000000 0.000000
    9 0.000001 0.360867 0.000000 0.000000 0.000000 0.000000
    10 0.974790 2.412368 -0.003569 0.000000 0.000000 0.001279
    11 -0.002752 -0.001265 -0.003287 0.000000 0.000000 0.000000
    12 7.270979 7.337490 -5.651498 0.049101 -1.733505 -0.287822
    13 8.081607 0.680307 -0.376376 1.569375 -3.116402 0.161124
    14 -0.048483 -8.498736 -0.092415 0.145767 0.395506 0.061274
    15 -0.488518 -2.755602 -0.228260 -0.855329 -0.005500 -0.245375
    16 0.039887 -1.546198 0.022041 -1.891765 -0.006292 0.042163
    17 0.028786 -1.153858 -0.120768 -0.959901 -0.014837 0.019894
    18 0.250027 -2.820665 -0.238396 -0.560831 -0.117709 -0.086571
    19 -0.045853 -1.598510 0.037977 -1.526314 0.140987 -0.053597
    20 -0.034142 -1.179563 0.045718 -1.334442 0.004518 -0.035199
    21 0.957766 -2.746780 -0.090302 -0.014872 -0.242718 0.317947
    22 -0.033420 -1.397129 -0.030789 -1.023289 0.072830 -0.009792
    23 -0.022360 -0.961342 -0.008561 -1.033442 0.072663 -0.010774
    24 -1.180681 -2.507217 -0.193859 -0.519852 0.255646 -0.222176
    25 -0.024967 -1.127840 0.017597 -1.700810 -0.017402 -0.065794
    26 -0.020057 -0.906594 0.033528 -1.037463 0.004806 -0.042545
    27 0.642106 -1.189464 0.185379 1.395565 -1.086678 -1.368343
    28 1.496863 -0.192885 0.036260 0.030976 -0.114716 -0.664694
    29 1.081239 -0.100945 0.016666 0.006756 -0.123276 -0.502104
    30 0.120153 -0.050270 -0.054489 0.287569 3.110905 1.561085
    31 -0.591091 -5.957844 -10.642233 -1.441007 -5.111076 -0.995864
    32 -0.016341 -8.489482 0.342208 -0.088889 -1.004171 0.166409
    33 0.682335 -2.556791 -0.262945 -1.403371 -0.057052 0.428144
    34 -0.032909 -1.499736 0.020565 -1.155787 0.022171 -0.019892
    35 -0.027022 -1.104265 -0.028023 -0.656005 0.016539 -0.008078
    36 0.008286 -2.733679 -0.287498 -1.224291 -0.096313 0.189198
    37 0.043235 -1.656596 0.072574 -1.332477 -0.021134 0.006053
    38 0.031729 -1.149111 0.058838 -0.700097 -0.007148 0.005304
    39 -0.709952 -2.804677 -0.253324 -1.005405 0.062193 -0.033347
    40 0.028479 -1.403067 -0.021074 -0.985528 -0.026150 -0.034588
    41 0.021413 -0.942156 0.012233 -0.995616 -0.026630 -0.034228
    42 1.332449 -2.168929 -0.178143 -1.451654 -0.251939 0.569780
    43 0.024032 -1.136855 -0.001725 -0.837936 0.005801 0.044440
    44 0.014898 -0.899614 -0.015942 -0.880686 0.004998 0.044547
    45 -0.645366 -1.248852 0.059532 -0.141697 -1.003780 -2.153974
    46 1.550180 0.039149 0.016848 -0.011845 -0.004570 0.632985
    47 1.114041 0.044518 -0.005766 -0.019502 -0.034630 0.745810
    48 -0.139399 -0.111698 0.014397 0.285382 -0.030687 1.580508
    49 -7.870230 3.159316 -0.446471 1.573074 -0.031904 -0.465884
  time 22
    0 4.314453 -4.516493 -2.767780 1.544624 0.016114 -1.596551
    1 4.116302 0.309474 0.579363 1.570821 -1.565877 -1.569548
    2 0.776872 -0.777959 0.000000 0.000001 0.000000 -1.828850
    3 1.657125 1.617842 -0.396090 1.570803 1.552836 -1.569519
    4 1.657129 1.623131 0.386865 1.570790 -1.588547 -1.569507
    5 4.124314 -3.447140 -0.020971 -1.570796 0.000000 0.377722
    6 -0.001059 -0.000005 0.029470 -0.000001 0.000000 -1.570797
    7 0.161901 -0.042629 2.167028 1.570796 0.008569 1.570797
    8 0.000000 0.439464 -0.149598 0.000000 0.000000 0.000000
    9 0.000001 0.360867 0.000000 0.000000 0.000000 0.000000
    10 0.974790 2.412368 -0.003569 0.000000 0.000000 0.001279
    11 -0.002752 -0.001265 -0.003287 0.000000 0.000000 0.000000
    12 7.270979 7.337490 -5.651498 0.049197 -1.733505 -0.287906
    13 8.081607 0.680307 -0.376376 1.569375 -3.116402 0.161124
    14 -0.048483 -8.498736 -0.092415 0.145767 0.395529 0.061242
    15 -0.488518 -2.755602 -0.228260 -0.855329 -0.005500 -0.245375
    16 0.039887 -1.546198 0.022041 -1.891765 -0.006292 0.042163
    17 0.028786 -1.153858 -0.120768 -0.959901 -0.014837 0.019894
    18 0.250027 -2.820665 -0.238396 -0.560831 -0.117709 -0.086571
    19 -0.045853 -1.598510 0.037977 -1.526314 0.140987 -0.053597
    20 -0.034142 -1.179563 0.045718 -1.334442 0.004518 -0.035199
    21 0.957766 -2.746780 -0.090302 -0.014872 -0.242718 0.317947
    22 -0.033420 -1.397129 -0.030789 -1.023289 0.072830 -0.009792
    23 -0.022360 -0.961342 -0.008561 -1.033442 0.072663 -0.010774
    24 -1.180681 -2.507217 -0.193859 -0.519852 0.255646 -0.222176
    25 -0.024967 -1.127840 0.017597 -1.700810 -0.017402 -0.065794
    26 -0.020057 -0.906594 0.033528 -1.037463 0.004806 -0.042545
    27 0.642106 -1.189464 0.185379 1.395565 -1.086678 -1.368343
    28 1.496863 -0.192885 0.036260 0.030976 -0.114716 -0.664694
    29 1.081239 -0.100945 0.016666 0.006756 -0.123276 -0.502104
    30 0.120153 -0.050270 -0.054489 0.287569 3.110905 1.561085
    31 -0.591091 -5.957844 -10.642233 -1.441007 -5.111076 -0.995864
    32 -0.016341 -8.489482 0.342208 -0.088889 -1.004171 0.166409
    33 0.682335 -2.556791 -0.262945 -1.403371 -0.057052 0.428144
    34 -0.032909 -1.499736 0.020565 -1.155787 0.022171 -0.019892
    35 -0.027022 -1.104265 -0.028023 -0.656005 0.016539 -0.008078
    36 0.008286 -2.733679 -0.287498 -1.224291 -0.096313 0.189198
    37 0.043235 -1.656596 0.072574 -1.332477 -0.021134 0.006053
    38 0.031729 -1.149111 0.058838 -0.700097 -0.007148 0.005304
    39 -0.709952 -2.804677 -0.253324 -1.005405 0.062193 -0.033347
    40 0.028479 -1.403067 -0.021074 -0.985528 -0.026150 -0.034588
    41 0.021413 -0.942156 0.012233 -0.995616 -0.026630 -0.034228
    42 1.332449 -2.168929 -0.178143 -1.451654 -0.251939 0.569780
    43 0.024032 -1.136855 -0.001725 -0.837936 0.005801 0.044440
    44 0.014898 -0.899614 -0.015942 -0.880686 0.004998 0.044535
    45 -0.645366 -1.248852 0.059532 -0.141697 -1.003780 -2.153974
    46 1.550180 0.039149 0.016848 -0.011845 -0.004570 0.632985
    47 1.114041 0.044518 -0.005766 -0.019502 -0.034630 0.745810
    48 -0.139399 -0.111698 0.014397 0.285382 -0.030687 1.580508
    49 -7.870230 3.159316 -0.446471 1.573074 -0.031904 -0.465884
  time 23
    0 4.314453 -4.516493 -2.767780 1.544624 0.016114 -1.596605
    1 4.116302 0.309474 0.579363 1.570821 -1.565877 -1.569548
    2 0.776872 -0.777959 0.000000 0.000001 0.000000 -1.828850
    3 1.657125 1.617842 -0.396090 1.570803 1.552836 -1.569519
    4 1.657129 1.623131 0.386865 1.570790 -1.588547 -1.569507
    5 4.124314 -3.447140 -0.020971 -1.570796 0.000000 0.377722
    6 -0.001059 -0.000005 0.029470 -0.000001 0.000000 -1.570797
    7 0.161901 -0.042629 2.167028 1.570796 0.008569 1.570797
    8 0.000000 0.439464 -0.149598 0.000000 0.000000 0.000000
    9 0.000001 0.360867 0.000000 0.000000 0.000000 0.000000
    10 0.974790 2.412368 -0.003569 0.000000 0.000000 0.001279
    11 -0.002752 -0.001265 -0.003287 0.000000 0.000000 0.000000
    12 7.270979 7.337490 -5.651498 0.049580 -1.733505 -0.288327
    13 8.081607 0.676400 -0.376376 1.569375 -3.116402 0.161040
    14 -0.048483 -8.498736 -0.092415 0.145767 0.395574 0.061180
    15 -0.488518 -2.755602 -0.228260 -0.855329 -0.005500 -0.245375
    16 0.039887 -1.546198 0.022041 -1.891765 -0.006292 0.042163
    17 0.028786 -1.153858 -0.120768 -0.959872 -0.014837 0.019894
    18 0.250027 -2.820665 -0.238396 -0.560831 -0.117709 -0.086571
    19 -0.045853 -1.598510 0.037977 -1.526314 0.140987 -0.053597
    20 -0.034142 -1.179563 0.045718 -1.334442 0.004518 -0.035199
    21 0.957766 -2.746780 -0.090302 -0.014872 -0.242718 0.317947
    22 -0.033420 -1.397129 -0.030789 -1.023289 0.072830 -0.009792
    23 -0.022360 -0.961342 -0.008561 -1.033442 0.072663 -0.010774
    24 -1.180681 -2.507217 -0.193859 -0.519852 0.255646 -0.222176
    25 -0.024967 -1.127840 0.017597 -1.700810 -0.017402 -0.065794
    26 -0.020057 -0.906594 0.033528 -1.037463 0.004806 -0.042545
    27 0.642106 -1.189464 0.185379 1.395565 -1.086678 -1.368343
    28 1.496863 -0.192885 0.036260 0.030976 -0.114716 -0.664694
    29 1.081239 -0.100945 0.016666 0.006756 -0.123276 -0.502104
    30 0.120153 -0.050270 -0.054489 0.287569 3.110905 1.561085
    31 -0.591091 -5.957844 -10.642233 -1.441067 -5.111144 -0.995864
    32 -0.016341 -8.489482 0.342208 -0.088929 -1.004141 0.166542
    33 0.682335 -2.556791 -0.262945 -1.403371 -0.057052 0.428144
    34 -0.032909 -1.499736 0.020565 -1.155787 0.022171 -0.019892
    35 -0.027022 -1.104265 -0.028023 -0.656005 0.016539 -0.008078
    36 0.008286 -2.733679 -0.287498 -1.224291 -0.096313 0.189198
    37 0.043235 -1.656596 0.072574 -1.332477 -0.021134 0.006053
    38 0.031729 -1.149111 0.058838 -0.700097 -0.007148 0.005304
    39 -0.709952 -2.804677 -0.253324 -1.005405 0.062193 -0.033347
    40 0.028479 -1.403067 -0.021074 -0.985528 -0.026150 -0.034588
    41 0.021413 -0.942156 0.012233 -0.995616 -0.026630 -0.034228
    42 1.332449 -2.168929 -0.178143 -1.451654 -0.251939 0.569780
    43 0.024032 -1.136855 -0.001725 -0.837936 0.005801 0.044440
    44 0.014898 -0.899614 -0.015942 -0.880686 0.004998 0.044535
    45 -0.645366 -1.248852 0.059532 -0.141697 -1.003780 -2.153974
    46 1.550180 0.039149 0.016848 -0.011845 -0.004570 0.632985
    47 1.114041 0.044518 -0.005766 -0.019502 -0.034630 0.745810
    48 -0.139399 -0.111698 0.014397 0.285382 -0.030687 1.580508
    49 -7.874137 3.159316 -0.446471 1.573074 -0.031904 -0.465808
  time 24
    0 4.314453 -4.516493 -2.767780 1.544624 0.016114 -1.596605
    1 4.116302 0.309474 0.579363 1.570821 -1.565877 -1.569548
    2 0.776872 -0.777959 0.000000 0.000001 0.000000 -1.828850
    3 1.657125 1.617842 -0.396090 1.570803 1.552836 -1.569519
    4 1.657129 1.623131 0.386865 1.570790 -1.588547 -1.569507
    5 4.124314 -3.447140 -0.020971 -1.570796 0.000000 0.377722
    6 -0.001059 -0.000005 0.029470 -0.000001 0.000000 -1.570797
    7 0.161901 -0.042629 2.167028 1.570796 0.008569 1.570797
    8 0.000000 0.439464 -0.149598 0.000000 0.000000 0.000000
    9 0.000001 0.360867 0.000000 0.000000 0.000000 0.000000
    10 0.974790 2.412368 -0.003569 0.000000 0.000000 0.001279
    11 -0.002752 -0.001265 -0.003287 0.000000 0.000000 0.000000
    12 7.270979 7.337490 -5.651498 0.049676 -1.733505 -0.288496
    13 8.081607 0.676400 -0.376376 1.569375 -3.116402 0.161040
    14 -0.048483 -8.498736 -0.092415 0.145767 0.395597 0.061149
    15 -0.488518 -2.755602 -0.228260 -0.855329 -0.005500 -0.245375
    16 0.039887 -1.546198 0.022041 -1.891765 -0.006292 0.042163
    17 0.028786 -1.153858 -0.120768 -0.959901 -0.014837 0.019894
    18 0.250027 -2.820665 -0.238396 -0.560831 -0.117709 -0.086571
    19 -0.045853 -1.598510 0.037977 -1.526314 0.140987 -0.053597
    20 -0.034142 -1.179563 0.045718 -1.334442 0.004518 -0.035199
    21 0.957766 -2.746780 -0.090302 -0.014872 -0.242718 0.317947
    22 -0.033420 -1.397129 -0.030789 -1.023289 0.072830 -0.009792
    23 -0.022360 -0.961342 -0.008561 -1.033442 0.072663 -0.010774
    24 -1.180681 -2.507217 -0.193859 -0.519852 0.255646 -0.222176
    25 -0.024967 -1.127840 0.017597 -1.700810 -0.017402 -0.065794
    26 -0.020057 -0.906594 0.033528 -1.037463 0.004806 -0.042545
    27 0.642106 -1.189464 0.185379 1.395565 -1.086678 -1.368343
    28 1.496863 -0.192885 0.036260 0.030976 -0.114716 -0.664694
    29 1.081239 -0.100945 0.016666 0.006756 -0.123276 -0.502104
    30 0.120153 -0.050270 -0.054489 0.287569 3.110905 1.561085
    31 -0.591091 -5.957844 -10.642233 -1.441067 -5.111213 -0.995957
    32 -0.016341 -8.489482 0.342208 -0.088969 -1.004111 0.166631
    33 0.682335 -2.556791 -0.262945 -1.403371 -0.057052 0.428144
    34 -0.032909 -1.499736 0.020565 -1.155787 0.022171 -0.019892
    35 -0.027022 -1.104265 -0.028023 -0.656005 0.016539 -0.008078
    36 0.008286 -2.733679 -0.287498 -1.224291 -0.096313 0.189198
    37 0.043235 -1.656596 0.072574 -1.332477 -0.021134 0.006053
    38 0.031729 -1.149111 0.058838 -0.700097 -0.007148 0.005304
    39 -0.709952 -2.804677 -0.253324 -1.005405 0.062193 -0.033347
    40 0.028479 -1.403067 -0.021074 -0.985528 -0.026150 -0.034588
    41 0.021413 -0.942156 0.012233 -0.995616 -0.026630 -0.034228
    42 1.332449 -2.168929 -0.178143 -1.451654 -0.251939 0.569780
    43 0.024032 -1.136855 -0.001725 -0.837936 0.005801 0.044440
    44 0.014898 -0.899614 -0.015942 -0.880686 0.004998 0.044535
    45 -0.645366 -1.248852 0.059532 -0.141697 -1.003780 -2.153974
    46 1.550180 0.039149 0.016848 -0.011845 -0.004570 0.632985
    47 1.114041 0.044518 -0.005766 -0.019502 -0.034630 0.745810
    48 -0.139399 -0.111698 0.014397 0.285382 -0.030687 1.580508
    49 -7.874137 3.159316 -0.446471 1.573074 -0.031904 -0.465731
end
