version 1
nodes
  0 "pp19_root" -1
  1 "pp19_Dummy01" 0
  2 "pp19_bone01" 1
  3 "pp19_bone03" 0
  4 "pp19_bone05" 0
  5 "pp19_bone04" 0
  6 "pp19_bone02" 0
  7 "pp19_bone06" 0
  8 "root" -1
  9 "Bone01" 8
  10 "Bone_L_Upper" 9
  11 "Bone_Lefthand" 9
  12 "Bone13" 11
  13 "Bone14" 12
  14 "Bone15" 13
  15 "Bone17" 11
  16 "Bone18" 15
  17 "Bone19" 16
  18 "Bone21" 11
  19 "Bone22" 18
  20 "Bone23" 19
  21 "Bone09" 11
  22 "Bone10" 21
  23 "Bone11" 22
  24 "Bone05" 11
  25 "Bone06" 24
  26 "Bone07" 25
  27 "Bone_Se_Hand-L" 11
  28 "Bone04" 8
  29 "Bone_Righthand" 28
  30 "Bone39" 29
  31 "Bone40" 30
  32 "Bone41" 31
  33 "Bone35" 29
  34 "Bone36" 33
  35 "Bone37" 34
  36 "Bone31" 29
  37 "Bone32" 36
  38 "Bone33" 37
  39 "Bone43" 29
  40 "Bone44" 39
  41 "Bone45" 40
  42 "Bone27" 29
  43 "Bone28" 42
  44 "Bone29" 43
  45 "Bone_Se_Hand-R" 29
  46 "Bone_R_Upper" 28
end
skeleton
  time 0
    0 4.734519 -7.789300 -3.789178 -1.559468 3.128075 -4.766766
    1 13.129183 -0.309364 0.018828 -1.570796 1.570500 0.000000
    2 -0.000001 0.000001 0.000000 -3.141592 1.570796 0.000000
    3 1.794164 -0.990051 0.000001 0.000000 0.000000 -1.570796
    4 4.370373 -0.738630 0.000002 0.000000 0.000000 0.000000
    5 1.186151 -0.106212 -0.611944 0.000000 0.000000 0.180210
    6 -1.186679 -0.214270 0.484543 0.000001 -3.141577 0.000000
    7 4.307622 0.479735 0.000041 1.570796 1.570796 0.000000
    8 0.743364 0.737039 -1.741621 0.066491 -0.025839 0.055838
    9 7.872560 0.528689 -5.952288 0.187953 -2.074700 -0.470245
    10 4.147893 7.875839 -0.282623 1.538995 -3.134674 1.238956
    11 0.017925 -8.463579 -0.068977 -0.132539 0.787085 0.352300
    12 -0.488518 -2.755602 -0.228260 -0.736912 -0.204372 -0.586780
    13 0.039887 -1.546198 0.022041 -1.899613 -0.006136 0.042319
    14 0.028786 -1.126514 -0.105143 -0.745689 -0.013327 0.014370
    15 0.250027 -2.820665 -0.238396 -0.355706 -0.250127 -0.609886
    16 -0.049759 -1.598510 0.002820 -1.930310 -0.008737 -0.047928
    17 -0.034142 -1.156125 0.061344 -0.700805 0.008209 -0.017234
    18 0.957766 -2.746780 -0.090302 0.318503 -0.174897 -0.289285
    19 -0.033420 -1.397129 -0.015163 -0.330298 0.006951 -0.015845
    20 -0.022360 -0.957436 0.007065 -0.452905 0.007694 -0.021536
    21 -1.180681 -2.507217 -0.193859 -0.848705 -0.017842 -0.546826
    22 -0.024967 -1.127840 0.017597 -1.426290 -0.007143 -0.058652
    23 -0.020057 -0.906594 0.037435 -1.150334 0.002649 -0.047219
    24 0.634293 -1.197277 0.189285 0.637872 -1.179700 -0.617932
    25 1.403111 -0.286638 0.090949 0.114125 -0.276065 -1.098822
    26 1.018737 -0.171260 0.040104 0.072000 -0.228357 -0.957861
    27 0.120153 -0.050270 -0.054489 0.854291 3.110905 1.561085
    28 -1.930976 -7.344606 -5.962403 -0.734680 -4.932334 -0.339357
    29 -0.114000 -8.387917 0.021886 -0.671403 -1.087173 0.664103
    30 0.447953 -2.798986 -0.200443 -1.080560 -0.116016 0.286451
    31 -0.032909 -1.495829 0.016659 -0.905160 0.019307 -0.013373
    32 -0.027022 -1.104265 -0.028023 -0.674598 0.016910 -0.008461
    33 -0.249534 -2.846964 -0.174213 -0.688707 -0.073099 0.004763
    34 0.043235 -1.656596 0.076480 -1.199797 -0.019432 0.004064
    35 0.031729 -1.149111 0.058838 -0.771939 -0.008071 0.005292
    36 -0.963866 -2.785145 -0.085350 -0.241861 0.173673 -0.152618
    37 0.028479 -1.406973 -0.021074 -1.043443 -0.028571 -0.035594
    38 0.021413 -0.953875 0.020046 -0.368933 -0.005705 -0.015760
    39 1.164475 -2.543940 -0.170330 -1.151954 -0.221538 0.415811
    40 0.024032 -1.136855 -0.001725 -0.782021 0.004255 0.041695
    41 0.014898 -0.887895 -0.019848 -0.397734 -0.002433 0.018696
    42 -0.586770 -1.264477 0.200161 0.275615 -0.364880 -2.752412
    43 1.546273 0.039149 0.016848 -0.009856 -0.003491 0.553235
    44 1.117947 0.048424 -0.005766 0.001135 -0.023700 0.001868
    45 -0.088616 -0.135136 -0.087169 1.027532 0.175671 1.277098
    46 -6.073300 6.292224 -0.376156 1.579848 -0.022232 -0.908228
  time 1
    0 4.769677 -5.058748 -4.082156 1.570508 -0.060200 -1.625770
    1 13.129183 -0.309364 0.018828 -1.570796 1.570796 0.000000
    2 -0.000001 0.000001 0.000000 -3.141592 1.570796 0.000000
    3 1.794164 -0.990051 0.000001 0.000000 0.000000 -2.061231
    4 4.370373 -0.738630 0.000002 0.000000 0.000000 0.000000
    5 1.186151 -0.106212 -0.611944 0.000000 0.000000 0.180210
    6 -1.186679 -0.214270 0.484543 0.000001 -3.141577 0.000000
    7 4.307622 0.479735 0.000041 1.570796 1.570796 0.000000
    8 0.743364 0.737039 -1.741621 0.066491 -0.025839 0.055838
    9 7.731930 2.993608 -4.264737 5.873764 -2.029097 0.093670
    10 6.034670 6.348449 -0.333406 1.537285 -3.128634 0.945429
    11 -0.005513 -8.510455 -0.072883 -0.038899 0.658658 0.733824
    12 -0.488518 -2.755602 -0.228260 -0.736912 -0.204372 -0.586780
    13 0.039887 -1.546198 0.022041 -1.899613 -0.006136 0.042319
    14 0.028786 -1.126514 -0.105143 -0.745689 -0.013327 0.014370
    15 0.250027 -2.820665 -0.238396 -0.355706 -0.250127 -0.609886
    16 -0.049759 -1.598510 0.002820 -1.930310 -0.008737 -0.047928
    17 -0.034142 -1.156125 0.061344 -0.700805 0.008209 -0.017234
    18 0.957766 -2.746780 -0.090302 0.466337 -0.181117 -0.285028
    19 -0.033420 -1.397129 -0.026882 -0.895190 0.005789 -0.043984
    20 -0.022360 -0.957436 0.010971 -0.397814 0.007299 -0.018780
    21 -1.180681 -2.507217 -0.193859 -0.848705 -0.017842 -0.546826
    22 -0.024967 -1.127840 0.017597 -1.426290 -0.007143 -0.058652
    23 -0.020057 -0.906594 0.037435 -1.150334 0.002649 -0.047219
    24 0.634293 -1.197277 0.189285 0.637872 -1.179700 -0.617932
    25 1.403111 -0.286638 0.090949 0.114125 -0.276065 -1.098822
    26 1.018737 -0.171260 0.040104 0.072000 -0.228357 -0.957861
    27 0.120153 -0.050270 -0.054489 0.854291 3.110905 1.561085
    28 -3.028666 -5.762526 -7.177284 -1.956027 -5.027459 -1.411119
    29 -0.168689 -8.430887 0.021886 -0.677843 -1.345247 0.756231
    30 0.447953 -2.798986 -0.200443 -1.080560 -0.116016 0.286451
    31 -0.032909 -1.495829 0.016659 -0.905160 0.019307 -0.013373
    32 -0.027022 -1.104265 -0.028023 -0.674598 0.016910 -0.008461
    33 -0.249534 -2.846964 -0.174213 -0.688707 -0.073099 0.004763
    34 0.043235 -1.656596 0.076480 -1.199797 -0.019432 0.004064
    35 0.031729 -1.149111 0.058838 -0.771939 -0.008071 0.005292
    36 -0.963866 -2.785145 -0.085350 -0.241861 0.173673 -0.152618
    37 0.028479 -1.406973 -0.021074 -1.043443 -0.028571 -0.035594
    38 0.021413 -0.953875 0.020046 -0.368933 -0.005705 -0.015760
    39 1.164475 -2.543940 -0.170330 -1.151954 -0.221538 0.415811
    40 0.024032 -1.136855 -0.001725 -0.782021 0.004255 0.041695
    41 0.014898 -0.887895 -0.019848 -0.397734 -0.002433 0.018696
    42 -0.586770 -1.264477 0.200161 0.275615 -0.364880 -2.752412
    43 1.546273 0.039149 0.016848 -0.009856 -0.003491 0.553235
    44 1.117947 0.048424 -0.005766 0.001135 -0.023700 0.001868
    45 -0.088616 -0.135136 -0.087169 1.027532 0.175671 1.277098
    46 -7.960077 2.854620 -0.450377 1.572298 -0.032557 -0.427521
  time 2
    0 4.742332 -5.597827 -4.230598 -1.560714 -3.085801 -4.763781
    1 13.129183 -0.309364 0.018828 -1.570796 1.570796 0.000000
    2 -0.000001 0.000001 0.000000 -3.141592 1.570796 0.000000
    3 1.794164 -0.990051 0.000001 0.000000 0.000000 -1.984585
    4 4.370373 -0.738630 0.000002 0.000000 0.000000 0.000000
    5 1.186151 -0.106212 -0.611944 0.000000 0.000000 0.180210
    6 -1.186679 -0.214270 0.484543 0.000001 -3.141577 0.000000
    7 4.307622 0.479735 0.000041 1.570796 1.570796 0.000000
    8 0.743364 0.737039 -1.741621 0.066491 -0.025839 0.055838
    9 7.802245 2.505312 -4.792097 5.991924 -2.020472 -0.023593
    10 5.573718 6.813306 -0.317781 1.537570 -3.130359 1.024270
    11 -0.005513 -8.502643 -0.072883 -0.047405 0.666111 0.669205
    12 -0.488518 -2.755602 -0.228260 -0.736912 -0.204372 -0.586780
    13 0.039887 -1.546198 0.022041 -1.899613 -0.006136 0.042319
    14 0.028786 -1.126514 -0.105143 -0.745689 -0.013327 0.014370
    15 0.250027 -2.820665 -0.238396 -0.355706 -0.250127 -0.609886
    16 -0.049759 -1.598510 0.002820 -1.930310 -0.008737 -0.047928
    17 -0.034142 -1.156125 0.061344 -0.700805 0.008209 -0.017234
    18 0.957766 -2.746780 -0.090302 0.482992 -0.181860 -0.284599
    19 -0.033420 -1.397129 -0.026882 -0.960556 0.004626 -0.047076
    20 -0.022360 -0.957436 0.010971 -0.393420 0.007263 -0.018564
    21 -1.180681 -2.507217 -0.193859 -0.848705 -0.017842 -0.546826
    22 -0.024967 -1.127840 0.017597 -1.426290 -0.007143 -0.058652
    23 -0.020057 -0.906594 0.037435 -1.150334 0.002649 -0.047219
    24 0.634293 -1.197277 0.189285 0.637872 -1.179700 -0.617932
    25 1.403111 -0.286638 0.090949 0.114125 -0.276065 -1.098822
    26 1.018737 -0.171260 0.040104 0.072000 -0.228357 -0.957861
    27 0.120153 -0.050270 -0.054489 0.854291 3.110905 1.561085
    28 -2.911474 -6.118006 -6.981965 -2.022735 -4.988486 -1.499820
    29 -0.168689 -8.423074 0.017980 -0.800759 -1.344945 0.827263
    30 0.447953 -2.798986 -0.200443 -1.080560 -0.116016 0.286451
    31 -0.032909 -1.495829 0.016659 -0.905160 0.019307 -0.013373
    32 -0.027022 -1.104265 -0.028023 -0.674598 0.016910 -0.008461
    33 -0.249534 -2.846964 -0.174213 -0.688707 -0.073099 0.004763
    34 0.043235 -1.656596 0.076480 -1.199797 -0.019432 0.004064
    35 0.031729 -1.149111 0.058838 -0.771939 -0.008071 0.005292
    36 -0.963866 -2.785145 -0.085350 -0.241861 0.173673 -0.152618
    37 0.028479 -1.406973 -0.021074 -1.043443 -0.028571 -0.035594
    38 0.021413 -0.953875 0.020046 -0.368933 -0.005705 -0.015760
    39 1.164475 -2.543940 -0.170330 -1.151954 -0.221538 0.415811
    40 0.024032 -1.136855 -0.001725 -0.782021 0.004255 0.041695
    41 0.014898 -0.887895 -0.019848 -0.397734 -0.002433 0.018696
    42 -0.586770 -1.264477 0.200161 0.275615 -0.364880 -2.752412
    43 1.546273 0.039149 0.016848 -0.009856 -0.003491 0.553235
    44 1.117947 0.048424 -0.005766 0.001135 -0.023700 0.001868
    45 -0.088616 -0.135136 -0.087169 1.027532 0.175671 1.277098
    46 -7.651474 3.780429 -0.434751 1.574592 -0.030358 -0.546097
  time 3
    0 4.703269 -6.183782 -4.394665 -1.546143 -3.101426 -4.759246
    1 13.129183 -0.309364 0.018828 -1.570796 1.570796 0.000000
    2 -0.000001 0.000001 0.000000 -3.141592 1.570796 0.000000
    3 1.794164 -0.990051 0.000001 0.000000 0.000000 -1.815998
    4 4.370373 -0.738630 0.000002 0.000000 0.000000 0.000000
    5 1.186151 -0.106212 -0.611944 0.000000 0.000000 0.180210
    6 -1.186679 -0.214270 0.484543 0.000001 -3.141577 0.000000
    7 4.307622 0.479735 0.000041 1.570796 1.570796 0.000000
    8 0.743364 0.737039 -1.741621 0.066491 -0.025839 0.055838
    9 7.849121 1.985765 -5.229610 6.092452 -2.021155 -0.122916
    10 5.065890 7.246913 -0.306061 1.537950 -3.131989 1.104813
    11 -0.005513 -8.498736 -0.072883 -0.059617 0.673811 0.600488
    12 -0.488518 -2.755602 -0.228260 -0.736912 -0.204372 -0.586780
    13 0.039887 -1.546198 0.022041 -1.899613 -0.006136 0.042319
    14 0.028786 -1.126514 -0.105143 -0.745689 -0.013327 0.014370
    15 0.250027 -2.820665 -0.238396 -0.355706 -0.250127 -0.609886
    16 -0.049759 -1.598510 0.002820 -1.930310 -0.008737 -0.047928
    17 -0.034142 -1.156125 0.061344 -0.700805 0.008209 -0.017234
    18 0.957766 -2.746780 -0.090302 0.481130 -0.181776 -0.284644
    19 -0.033420 -1.397129 -0.026882 -0.956482 0.004710 -0.046885
    20 -0.022360 -0.957436 0.010971 -0.397131 0.007287 -0.018756
    21 -1.180681 -2.507217 -0.193859 -0.848705 -0.017842 -0.546826
    22 -0.024967 -1.127840 0.017597 -1.426290 -0.007143 -0.058652
    23 -0.020057 -0.906594 0.037435 -1.150334 0.002649 -0.047219
    24 0.634293 -1.197277 0.189285 0.637872 -1.179700 -0.617932
    25 1.403111 -0.286638 0.090949 0.114125 -0.276065 -1.098822
    26 1.018737 -0.171260 0.040104 0.072000 -0.228357 -0.957861
    27 0.120153 -0.050270 -0.054489 0.854291 3.110905 1.561085
    28 -2.778658 -6.489111 -6.743677 1.006467 -4.488394 1.508181
    29 -0.168689 -8.415261 0.014073 -0.941568 -1.346656 0.907022
    30 0.447953 -2.798986 -0.200443 -1.080560 -0.116016 0.286451
    31 -0.032909 -1.495829 0.016659 -0.905160 0.019307 -0.013373
    32 -0.027022 -1.104265 -0.028023 -0.674598 0.016910 -0.008461
    33 -0.249534 -2.846964 -0.174213 -0.688707 -0.073099 0.004763
    34 0.043235 -1.656596 0.076480 -1.199797 -0.019432 0.004064
    35 0.031729 -1.149111 0.058838 -0.771939 -0.008071 0.005292
    36 -0.963866 -2.785145 -0.085350 -0.241861 0.173673 -0.152618
    37 0.028479 -1.406973 -0.021074 -1.043443 -0.028571 -0.035594
    38 0.021413 -0.953875 0.020046 -0.368933 -0.005705 -0.015760
    39 1.164475 -2.543940 -0.170330 -1.151954 -0.221538 0.415811
    40 0.024032 -1.136855 -0.001725 -0.782021 0.004255 0.041695
    41 0.014898 -0.887895 -0.019848 -0.397734 -0.002433 0.018696
    42 -0.586770 -1.264477 0.200161 0.275615 -0.364880 -2.752412
    43 1.546273 0.039149 0.016848 -0.009856 -0.003491 0.553235
    44 1.117947 0.048424 -0.005766 0.001135 -0.023700 0.001868
    45 -0.088616 -0.135136 -0.087169 1.027532 0.175671 1.277098
    46 -7.143646 4.831242 -0.415220 1.576981 -0.027395 -0.687988
  time 4
    0 4.672018 -6.730674 -4.523576 -1.533298 -3.121077 -4.755228
    1 13.129183 -0.309364 0.018828 -1.570796 1.570500 0.000000
    2 -0.000001 0.000001 0.000000 -3.141592 1.570796 0.000000
    3 1.794164 -0.990051 0.000001 0.000000 0.000000 -1.647411
    4 4.370373 -0.738630 0.000002 0.000000 0.000000 0.000000
    5 1.186151 -0.106212 -0.611944 0.000000 0.000000 0.180210
    6 -1.186679 -0.214270 0.484543 0.000001 -3.141577 0.000000
    7 4.307622 0.479735 0.000041 1.570796 1.570796 0.000000
    8 0.743364 0.737039 -1.741621 0.066491 -0.025839 0.055838
    9 7.864747 1.509188 -5.549932 6.169118 -2.025255 -0.196649
    10 4.593219 7.594580 -0.294342 1.538425 -3.133427 1.175429
    11 -0.005513 -8.490924 -0.072883 -0.075087 0.682572 0.537509
    12 -0.488518 -2.755602 -0.228260 -0.736912 -0.204372 -0.586780
    13 0.039887 -1.546198 0.022041 -1.899613 -0.006136 0.042319
    14 0.028786 -1.126514 -0.105143 -0.745689 -0.013327 0.014370
    15 0.250027 -2.820665 -0.238396 -0.355706 -0.250127 -0.609886
    16 -0.049759 -1.598510 0.002820 -1.930310 -0.008737 -0.047928
    17 -0.034142 -1.156125 0.061344 -0.700805 0.008209 -0.017234
    18 0.957766 -2.746780 -0.090302 0.471894 -0.181368 -0.284880
    19 -0.033420 -1.397129 -0.026882 -0.921776 0.005333 -0.045255
    20 -0.022360 -0.957436 0.010971 -0.401162 0.007323 -0.018948
    21 -1.180681 -2.507217 -0.193859 -0.848705 -0.017842 -0.546826
    22 -0.024967 -1.127840 0.017597 -1.426290 -0.007143 -0.058652
    23 -0.020057 -0.906594 0.037435 -1.150334 0.002649 -0.047219
    24 0.634293 -1.197277 0.189285 0.637872 -1.179700 -0.617932
    25 1.403111 -0.286638 0.090949 0.114125 -0.276065 -1.098822
    26 1.018737 -0.171260 0.040104 0.072000 -0.228357 -0.957861
    27 0.120153 -0.050270 -0.054489 0.854291 3.110905 1.561085
    28 -2.649748 -6.836778 -6.481950 0.836109 -4.539447 1.319417
    29 -0.168689 -8.403542 0.010167 -1.063274 -1.344996 0.971639
    30 0.447953 -2.798986 -0.200443 -1.080560 -0.116016 0.286451
    31 -0.032909 -1.495829 0.016659 -0.905160 0.019307 -0.013373
    32 -0.027022 -1.104265 -0.028023 -0.674598 0.016910 -0.008461
    33 -0.249534 -2.846964 -0.174213 -0.688707 -0.073099 0.004763
    34 0.043235 -1.656596 0.076480 -1.199797 -0.019432 0.004064
    35 0.031729 -1.149111 0.058838 -0.771939 -0.008071 0.005292
    36 -0.963866 -2.785145 -0.085350 -0.241861 0.173673 -0.152618
    37 0.028479 -1.406973 -0.021074 -1.043443 -0.028571 -0.035594
    38 0.021413 -0.953875 0.020046 -0.368933 -0.005705 -0.015760
    39 1.164475 -2.543940 -0.170330 -1.151954 -0.221538 0.415811
    40 0.024032 -1.136855 -0.001725 -0.782021 0.004255 0.041695
    41 0.014898 -0.887895 -0.019848 -0.397734 -0.002433 0.018696
    42 -0.586770 -1.264477 0.200161 0.275615 -0.364880 -2.752412
    43 1.546273 0.039149 0.016848 -0.009856 -0.003491 0.553235
    44 1.117947 0.048424 -0.005766 0.001135 -0.023700 0.001868
    45 -0.088616 -0.135136 -0.087169 1.027532 0.175671 1.277098
    46 -6.479563 5.811741 -0.391781 1.578988 -0.024144 -0.831502
  time 5
    0 4.656392 -7.136937 -4.570452 -1.528217 -3.138140 -4.753735
    1 13.129183 -0.309364 0.018828 -1.570796 1.570796 0.000000
    2 -0.000001 0.000001 0.000000 -3.141592 1.570796 0.000000
    3 1.794164 -0.990051 0.000001 0.000000 0.000000 -1.570796
    4 4.370373 -0.738630 0.000002 0.000000 0.000000 0.000000
    5 1.186151 -0.106212 -0.611944 0.000000 0.000000 0.180210
    6 -1.186679 -0.214270 0.484543 0.000001 -3.141577 0.000000
    7 4.307622 0.479735 0.000041 1.570796 1.570796 0.000000
    8 0.743364 0.737039 -1.741621 0.066491 -0.025839 0.055838
    9 7.860840 1.161521 -5.745251 6.225850 -2.029781 -0.249250
    10 4.257272 7.809431 -0.282623 1.538805 -3.134386 1.223736
    11 -0.005513 -8.487017 -0.072883 -0.089811 0.694862 0.488803
    12 -0.488518 -2.755602 -0.228260 -0.736912 -0.204372 -0.586780
    13 0.039887 -1.546198 0.022041 -1.899613 -0.006136 0.042319
    14 0.028786 -1.126514 -0.105143 -0.745689 -0.013327 0.014370
    15 0.250027 -2.820665 -0.238396 -0.355706 -0.250127 -0.609886
    16 -0.049759 -1.598510 0.002820 -1.930310 -0.008737 -0.047928
    17 -0.034142 -1.156125 0.061344 -0.700805 0.008209 -0.017234
    18 0.957766 -2.746780 -0.090302 0.466337 -0.181117 -0.285028
    19 -0.033420 -1.397129 -0.026882 -0.895190 0.005789 -0.043984
    20 -0.022360 -0.957436 0.010971 -0.397814 0.007299 -0.018780
    21 -1.180681 -2.507217 -0.193859 -0.848705 -0.017842 -0.546826
    22 -0.024967 -1.127840 0.017597 -1.426290 -0.007143 -0.058652
    23 -0.020057 -0.906594 0.037435 -1.150334 0.002649 -0.047219
    24 0.634293 -1.197277 0.189285 0.637872 -1.179700 -0.617932
    25 1.403111 -0.286638 0.090949 0.114125 -0.276065 -1.098822
    26 1.018737 -0.171260 0.040104 0.072000 -0.228357 -0.957861
    27 0.120153 -0.050270 -0.054489 0.854291 3.110905 1.561085
    28 -2.544276 -7.094598 -6.247568 0.658077 -4.574899 1.127120
    29 -0.164783 -8.399636 0.010167 -1.124819 -1.338154 0.997301
    30 0.447953 -2.798986 -0.200443 -1.080560 -0.116016 0.286451
    31 -0.032909 -1.495829 0.016659 -0.905160 0.019307 -0.013373
    32 -0.027022 -1.104265 -0.028023 -0.674598 0.016910 -0.008461
    33 -0.249534 -2.846964 -0.174213 -0.688707 -0.073099 0.004763
    34 0.043235 -1.656596 0.076480 -1.199797 -0.019432 0.004064
    35 0.031729 -1.149111 0.058838 -0.771939 -0.008071 0.005292
    36 -0.963866 -2.785145 -0.085350 -0.241861 0.173673 -0.152618
    37 0.028479 -1.406973 -0.021074 -1.043443 -0.028571 -0.035594
    38 0.021413 -0.953875 0.020046 -0.368933 -0.005705 -0.015760
    39 1.164475 -2.543940 -0.170330 -1.151954 -0.221538 0.415811
    40 0.024032 -1.136855 -0.001725 -0.782021 0.004255 0.041695
    41 0.014898 -0.887895 -0.019848 -0.397734 -0.002433 0.018696
    42 -0.586770 -1.264477 0.200161 0.275615 -0.364880 -2.752412
    43 1.546273 0.039149 0.016848 -0.009856 -0.003491 0.553235
    44 1.117947 0.048424 -0.005766 0.001135 -0.023700 0.001868
    45 -0.088616 -0.135136 -0.087169 1.027532 0.175671 1.277098
    46 -5.881888 6.491449 -0.368343 1.580135 -0.021371 -0.941479
  time 6
    0 4.668111 -7.398663 -4.507950 -1.533969 3.129800 -4.755974
    1 13.129183 -0.309364 0.018828 -1.570796 1.570796 0.000000
    2 -0.000001 0.000001 0.000000 -3.141592 1.570796 0.000000
    3 1.794164 -0.990051 0.000001 0.000000 0.000000 -1.570796
    4 4.370373 -0.738630 0.000002 0.000000 0.000000 0.000000
    5 1.186151 -0.106212 -0.611944 0.000000 0.000000 0.180210
    6 -1.186679 -0.214270 0.484543 0.000001 -3.141577 0.000000
    7 4.307622 0.479735 0.000041 1.570796 1.570796 0.000000
    8 0.743364 0.737039 -1.741621 0.066491 -0.025839 0.055838
    9 7.856934 0.946670 -5.842910 6.275204 -2.035502 -0.294148
    10 4.101017 7.903183 -0.278717 1.538995 -3.134865 1.245479
    11 -0.001606 -8.479205 -0.072883 -0.102172 0.716110 0.450047
    12 -0.488518 -2.755602 -0.228260 -0.736912 -0.204372 -0.586780
    13 0.039887 -1.546198 0.022041 -1.899613 -0.006136 0.042319
    14 0.028786 -1.126514 -0.105143 -0.745689 -0.013327 0.014370
    15 0.250027 -2.820665 -0.238396 -0.355706 -0.250127 -0.609886
    16 -0.049759 -1.598510 0.002820 -1.930310 -0.008737 -0.047928
    17 -0.034142 -1.156125 0.061344 -0.700805 0.008209 -0.017234
    18 0.957766 -2.746780 -0.090302 0.467925 -0.181189 -0.284984
    19 -0.033420 -1.397129 -0.026882 -0.886030 0.005932 -0.043541
    20 -0.022360 -0.957436 0.010971 -0.382052 0.007155 -0.018001
    21 -1.180681 -2.507217 -0.193859 -0.848705 -0.017842 -0.546826
    22 -0.024967 -1.127840 0.017597 -1.426290 -0.007143 -0.058652
    23 -0.020057 -0.906594 0.037435 -1.150334 0.002649 -0.047219
    24 0.634293 -1.197277 0.189285 0.637872 -1.179700 -0.617932
    25 1.403111 -0.286638 0.090949 0.114125 -0.276065 -1.098822
    26 1.018737 -0.171260 0.040104 0.072000 -0.228357 -0.957861
    27 0.120153 -0.050270 -0.054489 0.854291 3.110905 1.561085
    28 -2.489587 -7.235227 -6.103032 0.590565 -4.593718 1.048922
    29 -0.164783 -8.395729 0.010167 -1.122355 -1.327690 0.991810
    30 0.447953 -2.798986 -0.200443 -1.080560 -0.116016 0.286451
    31 -0.032909 -1.495829 0.016659 -0.905160 0.019307 -0.013373
    32 -0.027022 -1.104265 -0.028023 -0.674598 0.016910 -0.008461
    33 -0.249534 -2.846964 -0.174213 -0.688707 -0.073099 0.004763
    34 0.043235 -1.656596 0.076480 -1.199797 -0.019432 0.004064
    35 0.031729 -1.149111 0.058838 -0.771939 -0.008071 0.005292
    36 -0.963866 -2.785145 -0.085350 -0.241861 0.173673 -0.152618
    37 0.028479 -1.406973 -0.021074 -1.043443 -0.028571 -0.035594
    38 0.021413 -0.953875 0.020046 -0.368933 -0.005705 -0.015760
    39 1.164475 -2.543940 -0.170330 -1.151954 -0.221538 0.415811
    40 0.024032 -1.136855 -0.001725 -0.782021 0.004255 0.041695
    41 0.014898 -0.887895 -0.019848 -0.397734 -0.002433 0.018696
    42 -0.586770 -1.264477 0.200161 0.275615 -0.364880 -2.752412
    43 1.546273 0.039149 0.016848 -0.009856 -0.003491 0.553235
    44 1.117947 0.048424 -0.005766 0.001135 -0.023700 0.001868
    45 -0.088616 -0.135136 -0.087169 1.027532 0.175671 1.277098
    46 -5.557660 6.803959 -0.360530 1.580613 -0.020033 -0.996229
  time 7
    0 4.699362 -7.574450 -4.375134 -1.546239 3.113025 -4.760853
    1 13.129183 -0.309364 0.018828 -1.570796 1.570500 0.000000
    2 -0.000001 0.000001 0.000000 -3.141592 1.570796 0.000000
    3 1.794164 -0.990051 0.000001 0.000000 0.000000 -1.570796
    4 4.370373 -0.738630 0.000002 0.000000 0.000000 0.000000
    5 1.186151 -0.106212 -0.611944 0.000000 0.000000 0.180210
    6 -1.186679 -0.214270 0.484543 0.000001 -3.141577 0.000000
    7 4.307622 0.479735 0.000041 1.570796 1.570796 0.000000
    8 0.743364 0.737039 -1.741621 0.066491 -0.025839 0.055838
    9 7.856934 0.817760 -5.885880 0.041235 -2.042761 -0.338539
    10 4.069766 7.922715 -0.278717 1.539090 -3.134961 1.250206
    11 0.006206 -8.471392 -0.072883 -0.115204 0.744811 0.411291
    12 -0.488518 -2.755602 -0.228260 -0.736912 -0.204372 -0.586780
    13 0.039887 -1.546198 0.022041 -1.899613 -0.006136 0.042319
    14 0.028786 -1.126514 -0.105143 -0.745689 -0.013327 0.014370
    15 0.250027 -2.820665 -0.238396 -0.355706 -0.250127 -0.609886
    16 -0.049759 -1.598510 0.002820 -1.930310 -0.008737 -0.047928
    17 -0.034142 -1.156125 0.061344 -0.700805 0.008209 -0.017234
    18 0.957766 -2.746780 -0.090302 0.471069 -0.181332 -0.284910
    19 -0.033420 -1.397129 -0.026882 -0.875830 0.006088 -0.043050
    20 -0.022360 -0.957436 0.010971 -0.358612 0.006927 -0.016838
    21 -1.180681 -2.507217 -0.193859 -0.848705 -0.017842 -0.546826
    22 -0.024967 -1.127840 0.017597 -1.426290 -0.007143 -0.058652
    23 -0.020057 -0.906594 0.037435 -1.150334 0.002649 -0.047219
    24 0.634293 -1.197277 0.189285 0.637872 -1.179700 -0.617932
    25 1.403111 -0.286638 0.090949 0.114125 -0.276065 -1.098822
    26 1.018737 -0.171260 0.040104 0.072000 -0.228357 -0.957861
    27 0.120153 -0.050270 -0.054489 0.854291 3.110905 1.561085
    28 -2.466148 -7.305542 -6.040530 0.650651 -4.604524 1.100290
    29 -0.164783 -8.395729 0.010167 -1.087477 -1.315667 0.977361
    30 0.447953 -2.798986 -0.200443 -1.080560 -0.116016 0.286451
    31 -0.032909 -1.495829 0.016659 -0.905160 0.019307 -0.013373
    32 -0.027022 -1.104265 -0.028023 -0.674598 0.016910 -0.008461
    33 -0.249534 -2.846964 -0.174213 -0.688707 -0.073099 0.004763
    34 0.043235 -1.656596 0.076480 -1.199797 -0.019432 0.004064
    35 0.031729 -1.149111 0.058838 -0.771939 -0.008071 0.005292
    36 -0.963866 -2.785145 -0.085350 -0.241861 0.173673 -0.152618
    37 0.028479 -1.406973 -0.021074 -1.043443 -0.028571 -0.035594
    38 0.021413 -0.953875 0.020046 -0.368933 -0.005705 -0.015760
    39 1.164475 -2.543940 -0.170330 -1.151954 -0.221538 0.415811
    40 0.024032 -1.136855 -0.001725 -0.782021 0.004255 0.041695
    41 0.014898 -0.887895 -0.019848 -0.397734 -0.002433 0.018696
    42 -0.586770 -1.264477 0.200161 0.275615 -0.364880 -2.752412
    43 1.546273 0.039149 0.016848 -0.009856 -0.003491 0.553235
    44 1.117947 0.048424 -0.005766 0.001135 -0.023700 0.001868
    45 -0.088616 -0.135136 -0.087169 1.027532 0.175671 1.277098
    46 -5.463907 6.889899 -0.356624 1.580708 -0.019651 -1.011612
  time 8
    0 4.730613 -7.691641 -4.214972 -1.561002 3.097496 -4.766823
    1 13.129183 -0.309364 0.018828 -1.570796 1.570500 0.000000
    2 -0.000001 0.000001 0.000000 -3.141592 1.570796 0.000000
    3 1.794164 -0.990051 0.000001 0.000000 0.000000 -1.570796
    4 4.370373 -0.738630 0.000002 0.000000 0.000000 0.000000
    5 1.186151 -0.106212 -0.611944 0.000000 0.000000 0.180210
    6 -1.186679 -0.214270 0.484543 0.000001 -3.141577 0.000000
    7 4.307622 0.479735 0.000041 1.570796 1.570796 0.000000
    8 0.743364 0.737039 -1.741621 0.066491 -0.025839 0.055838
    9 7.860840 0.739633 -5.905412 0.086371 -2.050959 -0.379232
    10 4.104923 7.899277 -0.282623 1.538995 -3.134865 1.245195
    11 0.014019 -8.467485 -0.068977 -0.127988 0.774894 0.375181
    12 -0.488518 -2.755602 -0.228260 -0.736912 -0.204372 -0.586780
    13 0.039887 -1.546198 0.022041 -1.899613 -0.006136 0.042319
    14 0.028786 -1.126514 -0.105143 -0.745689 -0.013327 0.014370
    15 0.250027 -2.820665 -0.238396 -0.355706 -0.250127 -0.609886
    16 -0.049759 -1.598510 0.002820 -1.930310 -0.008737 -0.047928
    17 -0.034142 -1.156125 0.061344 -0.700805 0.008209 -0.017234
    18 0.957766 -2.746780 -0.090302 0.473451 -0.181428 -0.284850
    19 -0.033420 -1.397129 -0.026882 -0.861525 0.006304 -0.042367
    20 -0.022360 -0.957436 0.010971 -0.334383 0.006651 -0.015640
    21 -1.180681 -2.507217 -0.193859 -0.848705 -0.017842 -0.546826
    22 -0.024967 -1.127840 0.017597 -1.426290 -0.007143 -0.058652
    23 -0.020057 -0.906594 0.037435 -1.150334 0.002649 -0.047219
    24 0.634293 -1.197277 0.189285 0.637872 -1.179700 -0.617932
    25 1.403111 -0.286638 0.090949 0.114125 -0.276065 -1.098822
    26 1.018737 -0.171260 0.040104 0.072000 -0.228357 -0.957861
    27 0.120153 -0.050270 -0.054489 0.854291 3.110905 1.561085
    28 -2.458336 -7.321167 -6.032717 0.817049 -4.608712 1.259455
    29 -0.160876 -8.399636 0.010167 -1.034922 -1.302185 0.957363
    30 0.447953 -2.798986 -0.200443 -1.080560 -0.116016 0.286451
    31 -0.032909 -1.495829 0.016659 -0.905160 0.019307 -0.013373
    32 -0.027022 -1.104265 -0.028023 -0.674598 0.016910 -0.008461
    33 -0.249534 -2.846964 -0.174213 -0.688707 -0.073099 0.004763
    34 0.043235 -1.656596 0.076480 -1.199797 -0.019432 0.004064
    35 0.031729 -1.149111 0.058838 -0.771939 -0.008071 0.005292
    36 -0.963866 -2.785145 -0.085350 -0.241861 0.173673 -0.152618
    37 0.028479 -1.406973 -0.021074 -1.043443 -0.028571 -0.035594
    38 0.021413 -0.953875 0.020046 -0.368933 -0.005705 -0.015760
    39 1.164475 -2.543940 -0.170330 -1.151954 -0.221538 0.415811
    40 0.024032 -1.136855 -0.001725 -0.782021 0.004255 0.041695
    41 0.014898 -0.887895 -0.019848 -0.397734 -0.002433 0.018696
    42 -0.586770 -1.264477 0.200161 0.275615 -0.364880 -2.752412
    43 1.546273 0.039149 0.016848 -0.009856 -0.003491 0.553235
    44 1.117947 0.048424 -0.005766 0.001135 -0.023700 0.001868
    45 -0.088616 -0.135136 -0.087169 1.027532 0.175671 1.277098
    46 -5.526409 6.835210 -0.356624 1.580708 -0.019937 -1.001484
  time 9
    0 4.761864 -7.765862 -4.066530 1.567633 0.055598 -1.630592
    1 13.129183 -0.309364 0.018828 -1.570796 1.570796 0.000000
    2 -0.000001 0.000001 0.000000 -3.141592 1.570796 0.000000
    3 1.794164 -0.990051 0.000001 0.000000 0.000000 -1.570796
    4 4.370373 -0.738630 0.000002 0.000000 0.000000 0.000000
    5 1.186151 -0.106212 -0.611944 0.000000 0.000000 0.180210
    6 -1.186679 -0.214270 0.484543 0.000001 -3.141577 0.000000
    7 4.307622 0.479735 0.000041 1.570796 1.570796 0.000000
    8 0.743364 0.737039 -1.741621 0.066491 -0.025839 0.055838
    9 7.864747 0.692756 -5.909318 0.122883 -2.058730 -0.412069
    10 4.159612 7.868026 -0.282623 1.538995 -3.134674 1.237727
    11 0.017925 -8.459673 -0.068977 -0.138857 0.800116 0.345853
    12 -0.488518 -2.755602 -0.228260 -0.736912 -0.204372 -0.586780
    13 0.039887 -1.546198 0.022041 -1.899613 -0.006136 0.042319
    14 0.028786 -1.126514 -0.105143 -0.745689 -0.013327 0.014370
    15 0.250027 -2.820665 -0.238396 -0.355706 -0.250127 -0.609886
    16 -0.049759 -1.598510 0.002820 -1.930310 -0.008737 -0.047928
    17 -0.034142 -1.156125 0.061344 -0.700805 0.008209 -0.017234
    18 0.957766 -2.746780 -0.090302 0.472657 -0.181392 -0.284865
    19 -0.033420 -1.397129 -0.026882 -0.840083 0.006592 -0.041324
    20 -0.022360 -0.957436 0.010971 -0.316253 0.006436 -0.014753
    21 -1.180681 -2.507217 -0.193859 -0.848705 -0.017842 -0.546826
    22 -0.024967 -1.127840 0.017597 -1.426290 -0.007143 -0.058652
    23 -0.020057 -0.906594 0.037435 -1.150334 0.002649 -0.047219
    24 0.634293 -1.197277 0.189285 0.637872 -1.179700 -0.617932
    25 1.403111 -0.286638 0.090949 0.114125 -0.276065 -1.098822
    26 1.018737 -0.171260 0.040104 0.072000 -0.228357 -0.957861
    27 0.120153 -0.050270 -0.054489 0.854291 3.110905 1.561085
    28 -2.446617 -7.313355 -6.048343 1.024413 -4.607984 1.460632
    29 -0.160876 -8.399636 0.014073 -0.978175 -1.287344 0.932684
    30 0.447953 -2.798986 -0.200443 -1.080560 -0.116016 0.286451
    31 -0.032909 -1.495829 0.016659 -0.905160 0.019307 -0.013373
    32 -0.027022 -1.104265 -0.028023 -0.674598 0.016910 -0.008461
    33 -0.249534 -2.846964 -0.174213 -0.688707 -0.073099 0.004763
    34 0.043235 -1.656596 0.076480 -1.199797 -0.019432 0.004064
    35 0.031729 -1.149111 0.058838 -0.771939 -0.008071 0.005292
    36 -0.963866 -2.785145 -0.085350 -0.241861 0.173673 -0.152618
    37 0.028479 -1.406973 -0.021074 -1.043443 -0.028571 -0.035594
    38 0.021413 -0.953875 0.020046 -0.368933 -0.005705 -0.015760
    39 1.164475 -2.543940 -0.170330 -1.151954 -0.221538 0.415811
    40 0.024032 -1.136855 -0.001725 -0.782021 0.004255 0.041695
    41 0.014898 -0.887895 -0.019848 -0.397734 -0.002433 0.018696
    42 -0.586770 -1.264477 0.200161 0.275615 -0.364880 -2.752412
    43 1.546273 0.039149 0.016848 -0.009856 -0.003491 0.553235
    44 1.117947 0.048424 -0.005766 0.001135 -0.023700 0.001868
    45 -0.088616 -0.135136 -0.087169 1.027532 0.175671 1.277098
    46 -5.643600 6.725831 -0.360530 1.580517 -0.020415 -0.982374
  time 10
    0 4.777490 -7.816645 -3.972777 1.560922 0.060775 -1.633405
    1 13.129183 -0.309364 0.018828 -1.570796 1.570500 0.000000
    2 -0.000001 0.000001 0.000000 -3.141592 1.570796 0.000000
    3 1.794164 -0.990051 0.000001 0.000000 0.000000 -1.570796
    4 4.370373 -0.738630 0.000002 0.000000 0.000000 0.000000
    5 1.186151 -0.106212 -0.611944 0.000000 0.000000 0.180210
    6 -1.186679 -0.214270 0.484543 0.000001 -3.141577 0.000000
    7 4.307622 0.479735 0.000041 1.570796 1.570796 0.000000
    8 0.743364 0.737039 -1.741621 0.066491 -0.025839 0.055838
    9 7.868653 0.653693 -5.917131 0.146266 -2.064110 -0.433049
    10 4.179144 7.856307 -0.282623 1.538900 -3.134674 1.234607
    11 0.021832 -8.459673 -0.068977 -0.145522 0.813936 0.328338
    12 -0.488518 -2.755602 -0.228260 -0.736912 -0.204372 -0.586780
    13 0.039887 -1.546198 0.022041 -1.899613 -0.006136 0.042319
    14 0.028786 -1.126514 -0.105143 -0.745689 -0.013327 0.014370
    15 0.250027 -2.820665 -0.238396 -0.355706 -0.250127 -0.609886
    16 -0.049759 -1.598510 0.002820 -1.930310 -0.008737 -0.047928
    17 -0.034142 -1.156125 0.061344 -0.700805 0.008209 -0.017234
    18 0.957766 -2.746780 -0.090302 0.466337 -0.181117 -0.285028
    19 -0.033420 -1.393223 -0.022976 -0.808501 0.006999 -0.039778
    20 -0.022360 -0.957436 0.010971 -0.311135 0.006376 -0.014501
    21 -1.180681 -2.507217 -0.193859 -0.848705 -0.017842 -0.546826
    22 -0.024967 -1.127840 0.017597 -1.426290 -0.007143 -0.058652
    23 -0.020057 -0.906594 0.037435 -1.150334 0.002649 -0.047219
    24 0.634293 -1.197277 0.189285 0.637872 -1.179700 -0.617932
    25 1.403111 -0.286638 0.090949 0.114125 -0.276065 -1.098822
    26 1.018737 -0.171260 0.040104 0.072000 -0.228357 -0.957861
    27 0.120153 -0.050270 -0.054489 0.854291 3.110905 1.561085
    28 -2.415366 -7.317261 -6.048343 -1.921436 -4.817175 -1.490654
    29 -0.160876 -8.403542 0.014073 -0.929251 -1.271548 0.902688
    30 0.447953 -2.798986 -0.200443 -1.080560 -0.116016 0.286451
    31 -0.032909 -1.495829 0.016659 -0.905160 0.019307 -0.013373
    32 -0.027022 -1.104265 -0.028023 -0.674598 0.016910 -0.008461
    33 -0.249534 -2.846964 -0.174213 -0.688707 -0.073099 0.004763
    34 0.043235 -1.656596 0.076480 -1.199797 -0.019432 0.004064
    35 0.031729 -1.149111 0.058838 -0.771939 -0.008071 0.005292
    36 -0.963866 -2.785145 -0.085350 -0.241861 0.173673 -0.152618
    37 0.028479 -1.406973 -0.021074 -1.043443 -0.028571 -0.035594
    38 0.021413 -0.953875 0.020046 -0.368933 -0.005705 -0.015760
    39 1.164475 -2.543940 -0.170330 -1.151954 -0.221538 0.415811
    40 0.024032 -1.136855 -0.001725 -0.782021 0.004255 0.041695
    41 0.014898 -0.887895 -0.019848 -0.397734 -0.002433 0.018696
    42 -0.586770 -1.264477 0.200161 0.275615 -0.364880 -2.752412
    43 1.546273 0.039149 0.016848 -0.009856 -0.003491 0.553235
    44 1.117947 0.048424 -0.005766 0.001135 -0.023700 0.001868
    45 -0.088616 -0.135136 -0.087169 1.027532 0.175671 1.277098
    46 -5.710008 6.659423 -0.364437 1.580422 -0.020702 -0.970813
  time 11
    0 4.781396 -7.855708 -3.921995 1.559580 0.060583 -1.634094
    1 13.129183 -0.309364 0.018828 -1.570796 1.570500 0.000000
    2 -0.000001 0.000001 0.000000 -3.141592 1.570796 0.000000
    3 1.794164 -0.990051 0.000001 0.000000 0.000000 -1.570796
    4 4.370373 -0.738630 0.000002 0.000000 0.000000 0.000000
    5 1.186151 -0.106212 -0.611944 0.000000 0.000000 0.180210
    6 -1.186679 -0.214270 0.484543 0.000001 -3.141577 0.000000
    7 4.307622 0.479735 0.000041 1.570796 1.570796 0.000000
    8 0.743364 0.737039 -1.741621 0.066491 -0.025839 0.055838
    9 7.868653 0.610723 -5.928850 0.161120 -2.067612 -0.446377
    10 4.167425 7.864120 -0.282623 1.538995 -3.134674 1.236120
    11 0.021832 -8.455766 -0.068977 -0.148556 0.818625 0.319991
    12 -0.488518 -2.755602 -0.228260 -0.736912 -0.204372 -0.586780
    13 0.039887 -1.546198 0.022041 -1.899613 -0.006136 0.042319
    14 0.028786 -1.126514 -0.105143 -0.745689 -0.013327 0.014370
    15 0.250027 -2.820665 -0.238396 -0.355706 -0.250127 -0.609886
    16 -0.049759 -1.598510 0.002820 -1.930310 -0.008737 -0.047928
    17 -0.034142 -1.156125 0.061344 -0.700805 0.008209 -0.017234
    18 0.957766 -2.746780 -0.090302 0.453529 -0.180553 -0.285353
    19 -0.033420 -1.393223 -0.022976 -0.761840 0.007490 -0.037477
    20 -0.022360 -0.957436 0.010971 -0.318130 0.006460 -0.014849
    21 -1.180681 -2.507217 -0.193859 -0.848705 -0.017842 -0.546826
    22 -0.024967 -1.127840 0.017597 -1.426290 -0.007143 -0.058652
    23 -0.020057 -0.906594 0.037435 -1.150334 0.002649 -0.047219
    24 0.634293 -1.197277 0.189285 0.637872 -1.179700 -0.617932
    25 1.403111 -0.286638 0.090949 0.114125 -0.276065 -1.098822
    26 1.018737 -0.171260 0.040104 0.072000 -0.228357 -0.957861
    27 0.120153 -0.050270 -0.054489 0.854291 3.110905 1.561085
    28 -2.376302 -7.336793 -6.032717 -1.730223 -4.817357 -1.304277
    29 -0.156970 -8.399636 0.014073 -0.888884 -1.254644 0.869859
    30 0.447953 -2.798986 -0.200443 -1.080560 -0.116016 0.286451
    31 -0.032909 -1.495829 0.016659 -0.905160 0.019307 -0.013373
    32 -0.027022 -1.104265 -0.028023 -0.674598 0.016910 -0.008461
    33 -0.249534 -2.846964 -0.174213 -0.688707 -0.073099 0.004763
    34 0.043235 -1.656596 0.076480 -1.199797 -0.019432 0.004064
    35 0.031729 -1.149111 0.058838 -0.771939 -0.008071 0.005292
    36 -0.963866 -2.785145 -0.085350 -0.241861 0.173673 -0.152618
    37 0.028479 -1.406973 -0.021074 -1.043443 -0.028571 -0.035594
    38 0.021413 -0.953875 0.020046 -0.368933 -0.005705 -0.015760
    39 1.164475 -2.543940 -0.170330 -1.151954 -0.221538 0.415811
    40 0.024032 -1.136855 -0.001725 -0.782021 0.004255 0.041695
    41 0.014898 -0.887895 -0.019848 -0.397734 -0.002433 0.018696
    42 -0.586770 -1.264477 0.200161 0.275615 -0.364880 -2.752412
    43 1.546273 0.039149 0.016848 -0.009856 -0.003491 0.553235
    44 1.117947 0.048424 -0.005766 0.001135 -0.023700 0.001868
    45 -0.088616 -0.135136 -0.087169 1.027532 0.175671 1.277098
    46 -5.729540 6.643798 -0.364437 1.580422 -0.020702 -0.968042
  time 12
    0 4.781396 -7.871334 -3.886837 1.560060 0.057707 -1.633864
    1 13.129183 -0.309364 0.018828 -1.570796 1.570796 0.000000
    2 -0.000001 0.000001 0.000000 -3.141592 1.570796 0.000000
    3 1.794164 -0.990051 0.000001 0.000000 0.000000 -1.570796
    4 4.370373 -0.738630 0.000002 0.000000 0.000000 0.000000
    5 1.186151 -0.106212 -0.611944 0.000000 0.000000 0.180210
    6 -1.186679 -0.214270 0.484543 0.000001 -3.141577 0.000000
    7 4.307622 0.479735 0.000041 1.570796 1.570796 0.000000
    8 0.743364 0.737039 -1.741621 0.066491 -0.025839 0.055838
    9 7.868653 0.579472 -5.936663 0.170991 -2.070003 -0.455143
    10 4.163519 7.868026 -0.282623 1.538995 -3.134674 1.237065
    11 0.025738 -8.455766 -0.068977 -0.149278 0.819439 0.317270
    12 -0.488518 -2.755602 -0.228260 -0.736912 -0.204372 -0.586780
    13 0.039887 -1.546198 0.022041 -1.899613 -0.006136 0.042319
    14 0.028786 -1.126514 -0.105143 -0.745689 -0.013327 0.014370
    15 0.250027 -2.820665 -0.238396 -0.355706 -0.250127 -0.609886
    16 -0.049759 -1.598510 0.002820 -1.930310 -0.008737 -0.047928
    17 -0.034142 -1.156125 0.061344 -0.700805 0.008209 -0.017234
    18 0.957766 -2.746780 -0.090302 0.438508 -0.179894 -0.285752
    19 -0.033420 -1.393223 -0.022976 -0.710540 0.007922 -0.034912
    20 -0.022360 -0.957436 0.010971 -0.329882 0.006604 -0.015424
    21 -1.180681 -2.507217 -0.193859 -0.848705 -0.017842 -0.546826
    22 -0.024967 -1.127840 0.017597 -1.426290 -0.007143 -0.058652
    23 -0.020057 -0.906594 0.037435 -1.150334 0.002649 -0.047219
    24 0.634293 -1.197277 0.189285 0.637872 -1.179700 -0.617932
    25 1.403111 -0.286638 0.090949 0.114125 -0.276065 -1.098822
    26 1.018737 -0.171260 0.040104 0.072000 -0.228357 -0.957861
    27 0.120153 -0.050270 -0.054489 0.854291 3.110905 1.561085
    28 -2.329425 -7.348512 -6.017092 -1.537835 -4.821485 -1.116182
    29 -0.153064 -8.399636 0.017980 -0.851585 -1.236735 0.837204
    30 0.447953 -2.798986 -0.200443 -1.080560 -0.116016 0.286451
    31 -0.032909 -1.495829 0.016659 -0.905160 0.019307 -0.013373
    32 -0.027022 -1.104265 -0.028023 -0.674598 0.016910 -0.008461
    33 -0.249534 -2.846964 -0.174213 -0.688707 -0.073099 0.004763
    34 0.043235 -1.656596 0.076480 -1.199797 -0.019432 0.004064
    35 0.031729 -1.149111 0.058838 -0.771939 -0.008071 0.005292
    36 -0.963866 -2.785145 -0.085350 -0.241861 0.173673 -0.152618
    37 0.028479 -1.406973 -0.021074 -1.043443 -0.028571 -0.035594
    38 0.021413 -0.953875 0.020046 -0.368933 -0.005705 -0.015760
    39 1.164475 -2.543940 -0.170330 -1.151954 -0.221538 0.415811
    40 0.024032 -1.136855 -0.001725 -0.782021 0.004255 0.041695
    41 0.014898 -0.887895 -0.019848 -0.397734 -0.002433 0.018696
    42 -0.586770 -1.264477 0.200161 0.275615 -0.364880 -2.752412
    43 1.546273 0.039149 0.016848 -0.009856 -0.003491 0.553235
    44 1.117947 0.048424 -0.005766 0.001135 -0.023700 0.001868
    45 -0.088616 -0.135136 -0.087169 1.027532 0.175671 1.277098
    46 -5.752978 6.620359 -0.364437 1.580326 -0.020893 -0.963646
  time 13
    0 4.777490 -7.875240 -3.859493 1.562168 0.052818 -1.633060
    1 13.129183 -0.309364 0.018828 -1.570796 1.570796 0.000000
    2 -0.000001 0.000001 0.000000 -3.141592 1.570796 0.000000
    3 1.794164 -0.990051 0.000001 0.000000 0.000000 -1.570796
    4 4.370373 -0.738630 0.000002 0.000000 0.000000 0.000000
    5 1.186151 -0.106212 -0.611944 0.000000 0.000000 0.180210
    6 -1.186679 -0.214270 0.484543 0.000001 -3.141577 0.000000
    7 4.307622 0.479735 0.000041 1.570796 1.570796 0.000000
    8 0.743364 0.737039 -1.741621 0.066491 -0.025839 0.055838
    9 7.868653 0.563846 -5.944476 0.176933 -2.071540 -0.460464
    10 4.155706 7.868026 -0.282623 1.538995 -3.134674 1.237727
    11 0.021832 -8.455766 -0.068977 -0.148158 0.817218 0.318910
    12 -0.488518 -2.755602 -0.228260 -0.736912 -0.204372 -0.586780
    13 0.039887 -1.546198 0.022041 -1.899613 -0.006136 0.042319
    14 0.028786 -1.126514 -0.105143 -0.745689 -0.013327 0.014370
    15 0.250027 -2.820665 -0.238396 -0.355706 -0.250127 -0.609886
    16 -0.049759 -1.598510 0.002820 -1.930310 -0.008737 -0.047928
    17 -0.034142 -1.156125 0.061344 -0.700805 0.008209 -0.017234
    18 0.957766 -2.746780 -0.090302 0.421715 -0.179175 -0.286210
    19 -0.033420 -1.393223 -0.022976 -0.655672 0.008233 -0.032168
    20 -0.022360 -0.957436 0.010971 -0.345367 0.006783 -0.016191
    21 -1.180681 -2.507217 -0.193859 -0.848733 -0.017842 -0.546826
    22 -0.024967 -1.127840 0.017597 -1.426290 -0.007143 -0.058652
    23 -0.020057 -0.906594 0.037435 -1.150334 0.002649 -0.047219
    24 0.634293 -1.197277 0.189285 0.637872 -1.179700 -0.617932
    25 1.403111 -0.286638 0.090949 0.114125 -0.276065 -1.098822
    26 1.018737 -0.171260 0.040104 0.072000 -0.228357 -0.957861
    27 0.120153 -0.050270 -0.054489 0.854291 3.110905 1.561085
    28 -2.278643 -7.356325 -6.009279 -1.360546 -4.829680 -0.942694
    29 -0.145251 -8.399636 0.017980 -0.817831 -1.217971 0.805820
    30 0.447953 -2.798986 -0.200443 -1.080560 -0.116016 0.286451
    31 -0.032909 -1.495829 0.016659 -0.905160 0.019307 -0.013373
    32 -0.027022 -1.104265 -0.028023 -0.674598 0.016910 -0.008461
    33 -0.249534 -2.846964 -0.174213 -0.688707 -0.073099 0.004763
    34 0.043235 -1.656596 0.076480 -1.199797 -0.019432 0.004064
    35 0.031729 -1.149111 0.058838 -0.771939 -0.008071 0.005292
    36 -0.963866 -2.785145 -0.085350 -0.241861 0.173673 -0.152618
    37 0.028479 -1.406973 -0.021074 -1.043443 -0.028571 -0.035594
    38 0.021413 -0.953875 0.020046 -0.368933 -0.005705 -0.015760
    39 1.164475 -2.543940 -0.170330 -1.151954 -0.221538 0.415811
    40 0.024032 -1.136855 -0.001725 -0.782021 0.004255 0.041695
    41 0.014898 -0.887895 -0.019848 -0.397734 -0.002433 0.018696
    42 -0.586770 -1.264477 0.200161 0.275615 -0.364880 -2.752412
    43 1.546273 0.039149 0.016848 -0.009856 -0.003491 0.553235
    44 1.117947 0.048424 -0.005766 0.001135 -0.023700 0.001868
    45 -0.088616 -0.135136 -0.087169 1.027532 0.175671 1.277098
    46 -5.788135 6.585202 -0.368343 1.580326 -0.020989 -0.957722
  time 14
    0 4.769677 -7.863521 -3.843867 1.565332 0.046396 -1.631798
    1 13.129183 -0.309364 0.018828 -1.570796 1.570500 0.000000
    2 -0.000001 0.000001 0.000000 -3.141592 1.570796 0.000000
    3 1.794164 -0.990051 0.000001 0.000000 0.000000 -1.570796
    4 4.370373 -0.738630 0.000002 0.000000 0.000000 0.000000
    5 1.186151 -0.106212 -0.611944 0.000000 0.000000 0.180210
    6 -1.186679 -0.214270 0.484543 0.000001 -3.141577 0.000000
    7 4.307622 0.479735 0.000041 1.570796 1.570796 0.000000
    8 0.743364 0.737039 -1.741621 0.066491 -0.025839 0.055838
    9 7.868653 0.552127 -5.944476 0.180095 -2.072394 -0.463251
    10 4.155706 7.871933 -0.282623 1.538995 -3.134674 1.238105
    11 0.021832 -8.459673 -0.068977 -0.145746 0.812751 0.323680
    12 -0.488518 -2.755602 -0.228260 -0.736912 -0.204372 -0.586780
    13 0.039887 -1.546198 0.022041 -1.899613 -0.006136 0.042319
    14 0.028786 -1.126514 -0.105143 -0.745689 -0.013327 0.014370
    15 0.250027 -2.820665 -0.238396 -0.355706 -0.250127 -0.609886
    16 -0.049759 -1.598510 0.002820 -1.930310 -0.008737 -0.047928
    17 -0.034142 -1.156125 0.061344 -0.700805 0.008209 -0.017234
    18 0.957766 -2.746780 -0.090302 0.403656 -0.178408 -0.286713
    19 -0.033420 -1.393223 -0.019070 -0.598157 0.008389 -0.029255
    20 -0.022360 -0.957436 0.010971 -0.363560 0.006975 -0.017090
    21 -1.180681 -2.507217 -0.193859 -0.848705 -0.017842 -0.546826
    22 -0.024967 -1.127840 0.017597 -1.426290 -0.007143 -0.058652
    23 -0.020057 -0.906594 0.037435 -1.150334 0.002649 -0.047219
    24 0.634293 -1.197277 0.189285 0.637872 -1.179700 -0.617932
    25 1.403111 -0.286638 0.090949 0.114125 -0.276065 -1.098822
    26 1.018737 -0.171260 0.040104 0.072000 -0.228357 -0.957861
    27 0.120153 -0.050270 -0.054489 0.854291 3.110905 1.561085
    28 -2.227860 -7.360231 -5.997560 -1.208071 -4.841154 -0.793650
    29 -0.141345 -8.395729 0.017980 -0.787836 -1.198552 0.776633
    30 0.447953 -2.798986 -0.200443 -1.080560 -0.116016 0.286451
    31 -0.032909 -1.495829 0.016659 -0.905160 0.019307 -0.013373
    32 -0.027022 -1.104265 -0.028023 -0.674598 0.016910 -0.008461
    33 -0.249534 -2.846964 -0.174213 -0.688707 -0.073099 0.004763
    34 0.043235 -1.656596 0.076480 -1.199797 -0.019432 0.004064
    35 0.031729 -1.149111 0.058838 -0.771939 -0.008071 0.005292
    36 -0.963866 -2.785145 -0.085350 -0.241861 0.173673 -0.152618
    37 0.028479 -1.406973 -0.021074 -1.043443 -0.028571 -0.035594
    38 0.021413 -0.953875 0.020046 -0.368933 -0.005705 -0.015760
    39 1.164475 -2.543940 -0.170330 -1.151954 -0.221538 0.415811
    40 0.024032 -1.136855 -0.001725 -0.782021 0.004255 0.041695
    41 0.014898 -0.887895 -0.019848 -0.397734 -0.002433 0.018696
    42 -0.586770 -1.264477 0.200161 0.275615 -0.364880 -2.752412
    43 1.546273 0.039149 0.016848 -0.009856 -0.003491 0.553235
    44 1.117947 0.048424 -0.005766 0.001135 -0.023700 0.001868
    45 -0.088616 -0.135136 -0.087169 1.027532 0.175671 1.277098
    46 -5.827199 6.546138 -0.368343 1.580231 -0.021180 -0.950938
  time 15
    0 4.761864 -7.847896 -3.832148 1.569166 0.039015 -1.630248
    1 13.129183 -0.309364 0.018828 -1.570796 1.570796 0.000000
    2 -0.000001 0.000001 0.000000 -3.141592 1.570796 0.000000
    3 1.794164 -0.990051 0.000001 0.000000 0.000000 -1.570796
    4 4.370373 -0.738630 0.000002 0.000000 0.000000 0.000000
    5 1.186151 -0.106212 -0.611944 0.000000 0.000000 0.180210
    6 -1.186679 -0.214270 0.484543 0.000001 -3.141577 0.000000
    7 4.307622 0.479735 0.000041 1.570796 1.570796 0.000000
    8 0.743364 0.737039 -1.741621 0.066491 -0.025839 0.055838
    9 7.868653 0.548221 -5.944476 0.181533 -2.072821 -0.464569
    10 4.155706 7.871933 -0.282623 1.538995 -3.134674 1.238200
    11 0.021832 -8.459673 -0.068977 -0.142587 0.806902 0.330425
    12 -0.488518 -2.755602 -0.228260 -0.736912 -0.204372 -0.586780
    13 0.039887 -1.546198 0.022041 -1.899613 -0.006136 0.042319
    14 0.028786 -1.126514 -0.105143 -0.745689 -0.013327 0.014370
    15 0.250027 -2.820665 -0.238396 -0.355706 -0.250127 -0.609886
    16 -0.049759 -1.598510 0.002820 -1.930310 -0.008737 -0.047928
    17 -0.034142 -1.156125 0.061344 -0.700805 0.008209 -0.017234
    18 0.957766 -2.746780 -0.090302 0.384803 -0.177605 -0.287260
    19 -0.033420 -1.393223 -0.019070 -0.538976 0.008377 -0.026271
    20 -0.022360 -0.957436 0.010971 -0.383481 0.007167 -0.018073
    21 -1.180681 -2.507217 -0.193859 -0.848705 -0.017842 -0.546826
    22 -0.024967 -1.127840 0.017597 -1.426290 -0.007143 -0.058652
    23 -0.020057 -0.906594 0.037435 -1.150334 0.002649 -0.047219
    24 0.634293 -1.197277 0.189285 0.637872 -1.179700 -0.617932
    25 1.403111 -0.286638 0.090949 0.114125 -0.276065 -1.098822
    26 1.018737 -0.171260 0.040104 0.072000 -0.228357 -0.957861
    27 0.120153 -0.050270 -0.054489 0.854291 3.110905 1.561085
    28 -2.173171 -7.360231 -5.989747 -1.082762 -4.855177 -0.671627
    29 -0.137438 -8.395729 0.017980 -0.761602 -1.178731 0.750104
    30 0.447953 -2.798986 -0.200443 -1.080560 -0.116016 0.286451
    31 -0.032909 -1.495829 0.016659 -0.905160 0.019307 -0.013373
    32 -0.027022 -1.104265 -0.028023 -0.674598 0.016910 -0.008461
    33 -0.249534 -2.846964 -0.174213 -0.688707 -0.073099 0.004763
    34 0.043235 -1.656596 0.076480 -1.199797 -0.019432 0.004064
    35 0.031729 -1.149111 0.058838 -0.771939 -0.008071 0.005292
    36 -0.963866 -2.785145 -0.085350 -0.241861 0.173673 -0.152618
    37 0.028479 -1.406973 -0.021074 -1.043443 -0.028571 -0.035594
    38 0.021413 -0.953875 0.020046 -0.368933 -0.005705 -0.015760
    39 1.164475 -2.543940 -0.170330 -1.151954 -0.221538 0.415811
    40 0.024032 -1.136855 -0.001725 -0.782021 0.004255 0.041695
    41 0.014898 -0.887895 -0.019848 -0.397734 -0.002433 0.018696
    42 -0.586770 -1.264477 0.200161 0.275615 -0.364880 -2.752412
    43 1.546273 0.039149 0.016848 -0.009856 -0.003491 0.553235
    44 1.117947 0.048424 -0.005766 0.001135 -0.023700 0.001868
    45 -0.088616 -0.135136 -0.087169 1.027532 0.175671 1.277098
    46 -5.870169 6.503168 -0.368343 1.580135 -0.021371 -0.943581
  time 16
    0 4.754051 -7.824458 -3.824335 -1.568383 3.110341 -4.770152
    1 13.129183 -0.309364 0.018828 -1.570796 1.570796 0.000000
    2 -0.000001 0.000001 0.000000 -3.141592 1.570796 0.000000
    3 1.794164 -0.990051 0.000001 0.000000 0.000000 -1.570796
    4 4.370373 -0.738630 0.000002 0.000000 0.000000 0.000000
    5 1.186151 -0.106212 -0.611944 0.000000 0.000000 0.180210
    6 -1.186679 -0.214270 0.484543 0.000001 -3.141577 0.000000
    7 4.307622 0.479735 0.000041 1.570796 1.570796 0.000000
    8 0.743364 0.737039 -1.741621 0.066491 -0.025839 0.055838
    9 7.868653 0.544314 -5.948382 0.182299 -2.073077 -0.465228
    10 4.151800 7.871933 -0.282623 1.538995 -3.134674 1.238294
    11 0.017925 -8.459673 -0.068977 -0.139155 0.800461 0.337878
    12 -0.488518 -2.755602 -0.228260 -0.736912 -0.204372 -0.586780
    13 0.039887 -1.546198 0.022041 -1.899613 -0.006136 0.042319
    14 0.028786 -1.126514 -0.105143 -0.745689 -0.013327 0.014370
    15 0.250027 -2.820665 -0.238396 -0.355706 -0.250127 -0.609886
    16 -0.049759 -1.598510 0.002820 -1.930310 -0.008737 -0.047928
    17 -0.034142 -1.156125 0.061344 -0.700805 0.008209 -0.017234
    18 0.957766 -2.746780 -0.090302 0.365614 -0.176814 -0.287822
    19 -0.033420 -1.393223 -0.019070 -0.479112 0.008197 -0.023251
    20 -0.022360 -0.957436 0.010971 -0.404106 0.007347 -0.019103
    21 -1.180681 -2.507217 -0.193859 -0.848705 -0.017842 -0.546826
    22 -0.024967 -1.127840 0.017597 -1.426290 -0.007143 -0.058652
    23 -0.020057 -0.906594 0.037435 -1.150334 0.002649 -0.047219
    24 0.634293 -1.197277 0.189285 0.637872 -1.179700 -0.617932
    25 1.403111 -0.286638 0.090949 0.114125 -0.276065 -1.098822
    26 1.018737 -0.171260 0.040104 0.072000 -0.228357 -0.957861
    27 0.120153 -0.050270 -0.054489 0.854291 3.110905 1.561085
    28 -2.118482 -7.360231 -5.981935 -0.982205 -4.870778 -0.574142
    29 -0.133532 -8.395729 0.017980 -0.738826 -1.158860 0.726465
    30 0.447953 -2.798986 -0.200443 -1.080560 -0.116016 0.286451
    31 -0.032909 -1.495829 0.016659 -0.905160 0.019307 -0.013373
    32 -0.027022 -1.104265 -0.028023 -0.674598 0.016910 -0.008461
    33 -0.249534 -2.846964 -0.174213 -0.688707 -0.073099 0.004763
    34 0.043235 -1.656596 0.076480 -1.199797 -0.019432 0.004064
    35 0.031729 -1.149111 0.058838 -0.771939 -0.008071 0.005292
    36 -0.963866 -2.785145 -0.085350 -0.241861 0.173673 -0.152618
    37 0.028479 -1.406973 -0.021074 -1.043443 -0.028571 -0.035594
    38 0.021413 -0.953875 0.020046 -0.368933 -0.005705 -0.015760
    39 1.164475 -2.543940 -0.170330 -1.151954 -0.221538 0.415811
    40 0.024032 -1.136855 -0.001725 -0.782021 0.004255 0.041695
    41 0.014898 -0.887895 -0.019848 -0.397734 -0.002433 0.018696
    42 -0.586770 -1.264477 0.200161 0.275615 -0.364880 -2.752412
    43 1.546273 0.039149 0.016848 -0.009856 -0.003491 0.553235
    44 1.117947 0.048424 -0.005766 0.001135 -0.023700 0.001868
    45 -0.088616 -0.135136 -0.087169 1.027532 0.175671 1.277098
    46 -5.913139 6.460198 -0.372250 1.580135 -0.021563 -0.936033
  time 17
    0 4.742332 -7.804926 -3.812616 -1.564453 3.117722 -4.768660
    1 13.129183 -0.309364 0.018828 -1.570796 1.570796 0.000000
    2 -0.000001 0.000001 0.000000 -3.141592 1.570796 0.000000
    3 1.794164 -0.990051 0.000001 0.000000 0.000000 -1.570796
    4 4.370373 -0.738630 0.000002 0.000000 0.000000 0.000000
    5 1.186151 -0.106212 -0.611944 0.000000 0.000000 0.180210
    6 -1.186679 -0.214270 0.484543 0.000001 -3.141577 0.000000
    7 4.307622 0.479735 0.000041 1.570796 1.570796 0.000000
    8 0.743364 0.737039 -1.741621 0.066491 -0.025839 0.055838
    9 7.868653 0.540408 -5.948382 0.183353 -2.073419 -0.466140
    10 4.151800 7.871933 -0.282623 1.538995 -3.134674 1.238389
    11 0.017925 -8.459673 -0.068977 -0.136071 0.794415 0.344735
    12 -0.488518 -2.755602 -0.228260 -0.736912 -0.204372 -0.586780
    13 0.039887 -1.546198 0.022041 -1.899613 -0.006136 0.042319
    14 0.028786 -1.126514 -0.105143 -0.745689 -0.013327 0.014370
    15 0.250027 -2.820665 -0.238396 -0.355706 -0.250127 -0.609886
    16 -0.049759 -1.598510 0.002820 -1.930310 -0.008737 -0.047928
    17 -0.034142 -1.156125 0.061344 -0.700805 0.008209 -0.017234
    18 0.957766 -2.746780 -0.090302 0.347050 -0.176047 -0.288383
    19 -0.033420 -1.397129 -0.019070 -0.421061 0.007838 -0.020339
    20 -0.022360 -0.957436 0.007065 -0.423920 0.007502 -0.020086
    21 -1.180681 -2.507217 -0.193859 -0.848705 -0.017842 -0.546826
    22 -0.024967 -1.127840 0.017597 -1.426290 -0.007143 -0.058652
    23 -0.020057 -0.906594 0.037435 -1.150334 0.002649 -0.047219
    24 0.634293 -1.197277 0.189285 0.637872 -1.179700 -0.617932
    25 1.403111 -0.286638 0.090949 0.114125 -0.276065 -1.098822
    26 1.018737 -0.171260 0.040104 0.072000 -0.228357 -0.957861
    27 0.120153 -0.050270 -0.054489 0.854291 3.110905 1.561085
    28 -2.067699 -7.360231 -5.974122 -0.901945 -4.887169 -0.496899
    29 -0.125719 -8.391823 0.021886 -0.719031 -1.139240 0.706063
    30 0.447953 -2.798986 -0.200443 -1.080560 -0.116016 0.286451
    31 -0.032909 -1.495829 0.016659 -0.905160 0.019307 -0.013373
    32 -0.027022 -1.104265 -0.028023 -0.674598 0.016910 -0.008461
    33 -0.249534 -2.846964 -0.174213 -0.688707 -0.073099 0.004763
    34 0.043235 -1.656596 0.076480 -1.199797 -0.019432 0.004064
    35 0.031729 -1.149111 0.058838 -0.771939 -0.008071 0.005292
    36 -0.963866 -2.785145 -0.085350 -0.241861 0.173673 -0.152618
    37 0.028479 -1.406973 -0.021074 -1.043443 -0.028571 -0.035594
    38 0.021413 -0.953875 0.020046 -0.368933 -0.005705 -0.015760
    39 1.164475 -2.543940 -0.170330 -1.151954 -0.221538 0.415811
    40 0.024032 -1.136855 -0.001725 -0.782021 0.004255 0.041695
    41 0.014898 -0.887895 -0.019848 -0.397734 -0.002433 0.018696
    42 -0.586770 -1.264477 0.200161 0.275615 -0.364880 -2.752412
    43 1.546273 0.039149 0.016848 -0.009856 -0.003491 0.553235
    44 1.117947 0.048424 -0.005766 0.001135 -0.023700 0.001868
    45 -0.088616 -0.135136 -0.087169 1.027532 0.175671 1.277098
    46 -5.956109 6.417228 -0.372250 1.580039 -0.021754 -0.928771
  time 18
    0 4.738426 -7.793207 -3.804804 -1.561577 3.123570 -4.767569
    1 13.129183 -0.309364 0.018828 -1.570796 1.570796 0.000000
    2 -0.000001 0.000001 0.000000 -3.141592 1.570796 0.000000
    3 1.794164 -0.990051 0.000001 0.000000 0.000000 -1.570796
    4 4.370373 -0.738630 0.000002 0.000000 0.000000 0.000000
    5 1.186151 -0.106212 -0.611944 0.000000 0.000000 0.180210
    6 -1.186679 -0.214270 0.484543 0.000001 -3.141577 0.000000
    7 4.307622 0.479735 0.000041 1.570796 1.570796 0.000000
    8 0.743364 0.737039 -1.741621 0.066491 -0.025839 0.055838
    9 7.872560 0.536502 -5.948382 0.185174 -2.073931 -0.467711
    10 4.151800 7.871933 -0.282623 1.538995 -3.134674 1.238578
    11 0.017925 -8.463579 -0.068977 -0.133907 0.790047 0.349468
    12 -0.488518 -2.755602 -0.228260 -0.736912 -0.204372 -0.586780
    13 0.039887 -1.546198 0.022041 -1.899613 -0.006136 0.042319
    14 0.028786 -1.126514 -0.105143 -0.745689 -0.013327 0.014370
    15 0.250027 -2.820665 -0.238396 -0.355706 -0.250127 -0.609886
    16 -0.049759 -1.598510 0.002820 -1.930310 -0.008737 -0.047928
    17 -0.034142 -1.156125 0.061344 -0.700805 0.008209 -0.017234
    18 0.957766 -2.746780 -0.090302 0.331739 -0.175424 -0.288871
    19 -0.033420 -1.397129 -0.015163 -0.372735 0.007418 -0.017942
    20 -0.022360 -0.957436 0.007065 -0.439810 0.007610 -0.020877
    21 -1.180681 -2.507217 -0.193859 -0.848705 -0.017842 -0.546826
    22 -0.024967 -1.127840 0.017597 -1.426290 -0.007143 -0.058652
    23 -0.020057 -0.906594 0.037435 -1.150334 0.002649 -0.047219
    24 0.634293 -1.197277 0.189285 0.637872 -1.179700 -0.617932
    25 1.403111 -0.286638 0.090949 0.114125 -0.276065 -1.098822
    26 1.018737 -0.171260 0.040104 0.072000 -0.228357 -0.957861
    27 0.120153 -0.050270 -0.054489 0.854291 3.110905 1.561085
    28 -2.016916 -7.356325 -5.962403 -0.836722 -4.903316 -0.434837
    29 -0.121813 -8.391823 0.021886 -0.701484 -1.120476 0.689013
    30 0.447953 -2.798986 -0.200443 -1.080560 -0.116016 0.286451
    31 -0.032909 -1.495829 0.016659 -0.905160 0.019307 -0.013373
    32 -0.027022 -1.104265 -0.028023 -0.674598 0.016910 -0.008461
    33 -0.249534 -2.846964 -0.174213 -0.688707 -0.073099 0.004763
    34 0.043235 -1.656596 0.076480 -1.199797 -0.019432 0.004064
    35 0.031729 -1.149111 0.058838 -0.771939 -0.008071 0.005292
    36 -0.963866 -2.785145 -0.085350 -0.241861 0.173673 -0.152618
    37 0.028479 -1.406973 -0.021074 -1.043443 -0.028571 -0.035594
    38 0.021413 -0.953875 0.020046 -0.368933 -0.005705 -0.015760
    39 1.164475 -2.543940 -0.170330 -1.151954 -0.221538 0.415811
    40 0.024032 -1.136855 -0.001725 -0.782021 0.004255 0.041695
    41 0.014898 -0.887895 -0.019848 -0.397734 -0.002433 0.018696
    42 -0.586770 -1.264477 0.200161 0.275615 -0.364880 -2.752412
    43 1.546273 0.039149 0.016848 -0.009856 -0.003491 0.553235
    44 1.117947 0.048424 -0.005766 0.001135 -0.023700 0.001868
    45 -0.088616 -0.135136 -0.087169 1.027532 0.175671 1.277098
    46 -5.995173 6.374258 -0.372250 1.579944 -0.021945 -0.921891
  time 19
    0 4.734519 -7.789300 -3.793085 -1.559947 3.126925 -4.766938
    1 13.129183 -0.309364 0.018828 -1.570796 1.570500 0.000000
    2 -0.000001 0.000001 0.000000 -3.141592 1.570796 0.000000
    3 1.794164 -0.990051 0.000001 0.000000 0.000000 -1.570796
    4 4.370373 -0.738630 0.000002 0.000000 0.000000 0.000000
    5 1.186151 -0.106212 -0.611944 0.000000 0.000000 0.180210
    6 -1.186679 -0.214270 0.484543 0.000001 -3.141577 0.000000
    7 4.307622 0.479735 0.000041 1.570796 1.570796 0.000000
    8 0.743364 0.737039 -1.741621 0.066491 -0.025839 0.055838
    9 7.872560 0.528689 -5.952288 0.187091 -2.074529 -0.469434
    10 4.147893 7.875839 -0.282623 1.538995 -3.134674 1.238862
    11 0.017925 -8.463579 -0.068977 -0.132838 0.787752 0.351741
    12 -0.488518 -2.755602 -0.228260 -0.736912 -0.204372 -0.586780
    13 0.039887 -1.546198 0.022041 -1.899613 -0.006136 0.042319
    14 0.028786 -1.126514 -0.105143 -0.745689 -0.013327 0.014370
    15 0.250027 -2.820665 -0.238396 -0.355706 -0.250127 -0.609886
    16 -0.049759 -1.598510 0.002820 -1.930310 -0.008737 -0.047928
    17 -0.034142 -1.156125 0.061344 -0.700805 0.008209 -0.017234
    18 0.957766 -2.746780 -0.090302 0.321877 -0.175029 -0.289182
    19 -0.033420 -1.397129 -0.015163 -0.341182 0.007071 -0.016384
    20 -0.022360 -0.957436 0.007065 -0.449642 0.007670 -0.021381
    21 -1.180681 -2.507217 -0.193859 -0.848705 -0.017842 -0.546826
    22 -0.024967 -1.127840 0.017597 -1.426290 -0.007143 -0.058652
    23 -0.020057 -0.906594 0.037435 -1.150334 0.002649 -0.047219
    24 0.634293 -1.197277 0.189285 0.637872 -1.179700 -0.617932
    25 1.403111 -0.286638 0.090949 0.114125 -0.276065 -1.098822
    26 1.018737 -0.171260 0.040104 0.072000 -0.228357 -0.957861
    27 0.120153 -0.050270 -0.054489 0.854291 3.110905 1.561085
    28 -1.970039 -7.352418 -5.958496 -0.781958 -4.918553 -0.383373
    29 -0.117906 -8.391823 0.021886 -0.685622 -1.102969 0.675200
    30 0.447953 -2.798986 -0.200443 -1.080560 -0.116016 0.286451
    31 -0.032909 -1.495829 0.016659 -0.905160 0.019307 -0.013373
    32 -0.027022 -1.104265 -0.028023 -0.674598 0.016910 -0.008461
    33 -0.249534 -2.846964 -0.174213 -0.688707 -0.073099 0.004763
    34 0.043235 -1.656596 0.076480 -1.199797 -0.019432 0.004064
    35 0.031729 -1.149111 0.058838 -0.771939 -0.008071 0.005292
    36 -0.963866 -2.785145 -0.085350 -0.241861 0.173673 -0.152618
    37 0.028479 -1.406973 -0.021074 -1.043443 -0.028571 -0.035594
    38 0.021413 -0.953875 0.020046 -0.368933 -0.005705 -0.015760
    39 1.164475 -2.543940 -0.170330 -1.151954 -0.221538 0.415811
    40 0.024032 -1.136855 -0.001725 -0.782021 0.004255 0.041695
    41 0.014898 -0.887895 -0.019848 -0.397734 -0.002433 0.018696
    42 -0.586770 -1.264477 0.200161 0.275615 -0.364880 -2.752412
    43 1.546273 0.039149 0.016848 -0.009856 -0.003491 0.553235
    44 1.117947 0.048424 -0.005766 0.001135 -0.023700 0.001868
    45 -0.088616 -0.135136 -0.087169 1.027532 0.175671 1.277098
    46 -6.034237 6.335194 -0.376156 1.579944 -0.022041 -0.915107
  time 20
    0 4.734519 -7.789300 -3.789178 -1.559468 3.128075 -4.766766
    1 13.129183 -0.309364 0.018828 -1.570796 1.570796 0.000000
    2 -0.000001 0.000001 0.000000 -3.141592 1.570796 0.000000
    3 1.794164 -0.990051 0.000001 0.000000 0.000000 -1.570796
    4 4.370373 -0.738630 0.000002 0.000000 0.000000 0.000000
    5 1.186151 -0.106212 -0.611944 0.000000 0.000000 0.180210
    6 -1.186679 -0.214270 0.484543 0.000001 -3.141577 0.000000
    7 4.307622 0.479735 0.000041 1.570796 1.570796 0.000000
    8 0.743364 0.737039 -1.741621 0.066491 -0.025839 0.055838
    9 7.872560 0.528689 -5.952288 0.187953 -2.074785 -0.470245
    10 4.147893 7.875839 -0.282623 1.538995 -3.134674 1.238956
    11 0.017925 -8.463579 -0.068977 -0.132539 0.787085 0.352300
    12 -0.488518 -2.755602 -0.228260 -0.736912 -0.204372 -0.586780
    13 0.039887 -1.546198 0.022041 -1.899613 -0.006136 0.042319
    14 0.028786 -1.126514 -0.105143 -0.745689 -0.013327 0.014370
    15 0.250027 -2.820665 -0.238396 -0.355706 -0.250127 -0.609886
    16 -0.049759 -1.598510 0.002820 -1.930310 -0.008737 -0.047928
    17 -0.034142 -1.156125 0.061344 -0.700805 0.008209 -0.017234
    18 0.957766 -2.746780 -0.090302 0.318503 -0.174897 -0.289285
    19 -0.033420 -1.397129 -0.015163 -0.330298 0.006951 -0.015845
    20 -0.022360 -0.957436 0.007065 -0.452905 0.007694 -0.021536
    21 -1.180681 -2.507217 -0.193859 -0.848705 -0.017842 -0.546826
    22 -0.024967 -1.127840 0.017597 -1.426290 -0.007143 -0.058652
    23 -0.020057 -0.906594 0.037435 -1.150334 0.002649 -0.047219
    24 0.634293 -1.197277 0.189285 0.637872 -1.179700 -0.617932
    25 1.403111 -0.286638 0.090949 0.114125 -0.276065 -1.098822
    26 1.018737 -0.171260 0.040104 0.072000 -0.228357 -0.957861
    27 0.120153 -0.050270 -0.054489 0.854291 3.110905 1.561085
    28 -1.930976 -7.344606 -5.962403 -0.734742 -4.932273 -0.339357
    29 -0.114000 -8.387917 0.021886 -0.671403 -1.087173 0.664103
    30 0.447953 -2.798986 -0.200443 -1.080560 -0.116016 0.286451
    31 -0.032909 -1.495829 0.016659 -0.905160 0.019307 -0.013373
    32 -0.027022 -1.104265 -0.028023 -0.674598 0.016910 -0.008461
    33 -0.249534 -2.846964 -0.174213 -0.688707 -0.073099 0.004763
    34 0.043235 -1.656596 0.076480 -1.199797 -0.019432 0.004064
    35 0.031729 -1.149111 0.058838 -0.771939 -0.008071 0.005292
    36 -0.963866 -2.785145 -0.085350 -0.241861 0.173673 -0.152618
    37 0.028479 -1.406973 -0.021074 -1.043443 -0.028571 -0.035594
    38 0.021413 -0.953875 0.020046 -0.368933 -0.005705 -0.015760
    39 1.164475 -2.543940 -0.170330 -1.151954 -0.221538 0.415811
    40 0.024032 -1.136855 -0.001725 -0.782021 0.004255 0.041695
    41 0.014898 -0.887895 -0.019848 -0.397734 -0.002433 0.018696
    42 -0.586770 -1.264477 0.200161 0.275615 -0.364880 -2.752412
    43 1.546273 0.039149 0.016848 -0.009856 -0.003491 0.553235
    44 1.117947 0.048424 -0.005766 0.001135 -0.023700 0.001868
    45 -0.088616 -0.135136 -0.087169 1.027532 0.175671 1.277098
    46 -6.073300 6.292224 -0.376156 1.579848 -0.022232 -0.908228
end
