version 1
nodes
  0 "Bone_Root" -1
  1 "Bone01" 0
  2 "Bone_Lefthand" 1
  3 "Axe_Root" 2
  4 "storm_giant2" 3
  5 "ruby" 3
  6 "storm_giant1" 3
  7 "Point_glow" 3
  8 "glow_sg" 7
  9 "p_blade02" -1
  10 "ef_blade3" 9
  11 "ef_blade4" 9
  12 "Point_ef21" -1
  13 "ef_21" 12
  14 "Point_ef22" -1
  15 "ef_22" 14
  16 "Point_ef23" -1
  17 "ef_23" 16
  18 "Point_ef24" -1
  19 "ef_24" 18
  20 "Point_ef11" -1
  21 "ef_11" 20
  22 "Point_ef12" -1
  23 "ef_12" 22
  24 "Point_ef13" -1
  25 "ef_13" 24
  26 "Point_ef14" -1
  27 "ef_14" 26
  28 "p_blade01" -1
  29 "ef_blade2" 28
  30 "ef_blade1" 28
  31 "ef_sg2" 3
  32 "Bone13" 2
  33 "Bone14" 32
  34 "Bone15" 33
  35 "Bone17" 2
  36 "Bone18" 35
  37 "Bone19" 36
  38 "Bone21" 2
  39 "Bone22" 38
  40 "Bone23" 39
  41 "Bone09" 2
  42 "Bone10" 41
  43 "Bone11" 42
  44 "Bone05" 2
  45 "Bone06" 44
  46 "Bone07" 45
  47 "Bone_Se_Hand-L" 2
  48 "Bone_L_Upper" 1
  49 "Bone04" 0
  50 "Bone_Righthand" 49
  51 "Bone39" 50
  52 "Bone40" 51
  53 "Bone41" 52
  54 "Bone35" 50
  55 "Bone36" 54
  56 "Bone37" 55
  57 "Bone31" 50
  58 "Bone32" 57
  59 "Bone33" 58
  60 "Bone43" 50
  61 "Bone44" 60
  62 "Bone45" 61
  63 "Bone27" 50
  64 "Bone28" 63
  65 "Bone29" 64
  66 "Bone_Se_Hand-R" 50
  67 "Bone_R_Upper" 49
end
skeleton
  time 0
    0 3.067817 0.000000 -1.918442 0.000000 0.000000 0.000000
    1 8.815657 0.168160 -6.444128 -0.002684 -2.966835 0.003989
    2 -0.071918 -8.498728 -0.104138 0.156690 0.281205 0.066061
    3 5.428935 -2.742991 2.081221 2.137649 -0.175189 -0.077178
    4 0.434196 -0.023741 -0.000005 1.570797 0.000000 1.570796
    5 0.434196 -0.023741 -0.000005 1.570797 0.000000 1.570796
    6 0.434196 -0.023742 -0.000005 1.570797 0.000000 1.570796
    7 15.961483 -3.765536 -0.615457 -1.570796 -0.000002 0.007959
    8 0.000000 0.000000 0.000001 0.000000 0.000000 0.000000
    9 -50.000000 0.000000 -118.792725 0.000000 0.000000 0.000000
    10 -20.015503 -0.619970 -0.031143 -3.141592 -1.570796 0.000000
    11 19.849365 -0.727911 0.034821 -3.141592 -1.570796 0.000000
    12 0.000000 -20.000036 815.310364 1.570796 0.000000 -3.141592
    13 0.000000 0.000000 0.000000 0.000000 0.000000 0.000000
    14 -50.000000 -20.000036 815.310364 1.570796 0.000000 -3.141592
    15 0.000000 0.000000 0.000000 0.000000 0.000000 0.000000
    16 -100.000000 -20.000036 815.310364 1.570796 0.000000 -3.141592
    17 0.000000 0.000000 0.000000 0.000000 0.000000 0.000000
    18 -150.000000 -20.000036 815.310364 1.570796 0.000000 -3.141592
    19 0.000000 0.000000 0.000000 0.000000 0.000000 0.000000
    20 -178.552612 -3.500000 0.000000 1.570796 0.000000 -3.141592
    21 0.000000 0.000000 0.000000 0.000000 0.000000 0.000000
    22 -183.020752 -3.500000 0.000000 1.570796 0.000000 -3.141592
    23 0.000000 0.000000 0.000000 0.000000 0.000000 0.000000
    24 -187.558502 -3.499999 0.000000 1.570796 0.000000 -3.141592
    25 0.000000 0.000000 0.000000 0.000000 0.000000 0.000000
    26 -191.976624 -3.499999 0.000000 1.570796 0.000000 -3.141592
    27 0.000000 0.000000 0.000000 0.000000 0.000000 0.000000
    28 -44.754845 17.523100 -36.366337 0.909822 0.539335 2.573444
    29 19.998592 -0.028402 -0.021359 -3.141592 -1.570796 0.000000
    30 -19.865417 -0.019396 -0.021363 -3.141592 -1.570796 0.000000
    31 17.833788 -0.023750 -0.000008 1.570796 0.000000 1.570796
    32 -0.488517 -2.755600 -0.228261 0.106454 0.010332 -0.264490
    33 0.039887 -1.479790 0.029853 -0.055395 0.000000 0.000000
    34 0.028785 -1.075733 -0.023111 0.002099 0.000000 0.000000
    35 0.250028 -2.820663 -0.238396 0.041826 -0.002921 0.008443
    36 -0.049759 -1.680546 0.100480 0.019826 0.000000 -0.000002
    37 -0.034141 -1.148310 0.084779 -0.040115 0.000000 0.000000
    38 0.957766 -2.746775 -0.090300 -0.017221 -0.162277 0.191558
    39 -0.033419 -1.397129 -0.011255 0.013931 0.000000 -0.000001
    40 -0.022360 -0.957434 0.018783 0.003845 0.000000 0.000000
    41 -1.180680 -2.507215 -0.193861 0.082999 0.013293 -0.477915
    42 -0.024966 -1.123932 0.017594 -0.018065 0.000000 0.000001
    43 -0.020058 -0.890965 0.010091 -0.060797 0.000000 0.000000
    44 0.583510 -1.197275 0.185377 0.158049 -0.404972 -0.364290
    45 1.535926 0.010246 0.005008 -0.002964 -0.012979 0.000887
    46 1.100770 0.004526 -0.010676 -0.002796 0.015973 0.003458
    47 0.120152 -0.050266 -0.054488 0.287568 3.110905 1.561085
    48 1.257179 8.762579 -0.153718 -1.570562 0.002683 -1.566807
    49 -9.310107 0.236513 -0.105301 0.004984 -3.131565 -1.566847
    50 0.096944 -8.450419 -0.009364 -0.032965 -0.297907 -0.004663
    51 0.447952 -2.798983 -0.200442 0.106456 -0.010396 0.265094
    52 -0.032909 -1.480204 0.004936 -0.055403 0.000000 0.000002
    53 -0.027022 -1.076920 -0.020212 0.002094 0.000000 0.000000
    54 -0.249534 -2.846960 -0.174215 0.041903 -0.000125 -0.008396
    55 0.043235 -1.683941 0.096014 0.019757 0.002823 -0.000167
    56 0.031729 -1.160830 0.058836 -0.040181 0.000642 0.008372
    57 -0.963867 -2.785143 -0.085346 -0.017227 0.162276 -0.191556
    58 0.028479 -1.403067 0.006271 0.013941 0.000000 0.000000
    59 0.021414 -0.957779 0.020047 0.003851 0.000000 0.000000
    60 1.164475 -2.543938 -0.170328 0.083003 -0.013294 0.477915
    61 0.024033 -1.129042 0.017806 -0.018074 0.000000 0.000001
    62 0.014896 -0.883989 -0.019845 -0.060801 0.000000 0.000000
    63 -0.586770 -1.264477 0.200164 -0.152092 -0.410513 -2.814816
    64 1.522835 0.058681 0.016850 0.001410 0.008985 -0.046880
    65 1.117948 0.048424 -0.005764 -0.000243 -0.025198 0.065422
    66 -0.139399 -0.111698 0.014397 0.285382 -0.030687 1.580508
    67 -1.393470 8.839177 -0.239434 1.580804 -0.005023 -1.566847
end
triangles
end
