version 1
nodes
  0 "root" -1
  1 "Bone01" 0
  2 "Bone_Lefthand" 1
  3 "left_skull4_root" 2
  4 "left_skull4_grib" 3
  5 "left_skull4_magazine" 3
  6 "left_skull4_trigger" 3
  7 "Bone04" 0
  8 "Bone_Righthand" 7
  9 "right_skull4_root" 8
  10 "right_skull4_grib" 9
  11 "right_skull4_magazine" 9
  12 "right_skull4_trigger" 9
  13 "Bone_L_Upper" 1
  14 "Bone13" 2
  15 "Bone14" 14
  16 "Bone15" 15
  17 "Bone17" 2
  18 "Bone18" 17
  19 "Bone19" 18
  20 "Bone21" 2
  21 "Bone22" 20
  22 "Bone23" 21
  23 "Bone09" 2
  24 "Bone10" 23
  25 "Bone11" 24
  26 "Bone05" 2
  27 "Bone06" 26
  28 "Bone07" 27
  29 "Bone_Se_Hand-L" 2
  30 "Bone39" 8
  31 "Bone40" 30
  32 "Bone41" 31
  33 "Bone35" 8
  34 "Bone36" 33
  35 "Bone37" 34
  36 "Bone31" 8
  37 "Bone32" 36
  38 "Bone33" 37
  39 "Bone43" 8
  40 "Bone44" 39
  41 "Bone45" 40
  42 "Bone27" 8
  43 "Bone28" 42
  44 "Bone29" 43
  45 "Bone_Se_Hand-R" 8
  46 "Bone_R_Upper" 7
end
skeleton
  time 0
    0 0.000000 1.410199 -4.644612 -0.174533 0.000000 0.000000
    1 12.889416 4.357489 -7.910713 0.422454 -2.264821 -0.540887
    2 0.084337 -8.502637 0.173215 0.164431 0.543149 -0.359971
    3 1.776994 -2.723174 0.873419 0.134966 0.079135 3.004383
    4 -2.536482 9.152779 0.850404 0.000000 0.000000 -1.570796
    5 -1.546743 7.218124 0.000000 0.000000 0.000000 -0.002004
    6 -0.284830 1.799968 0.000000 0.000001 0.000000 0.000000
    7 -11.021444 4.818629 -7.640923 0.393734 2.082801 0.422417
    8 -0.227284 -8.466044 0.162515 0.053284 -0.334585 0.249785
    9 -1.471282 -3.093521 0.739297 3.070381 0.002168 0.135135
    10 -2.536482 9.152779 0.850403 0.000000 0.000000 -1.570796
    11 -1.546742 7.218122 -0.000001 0.000000 0.000000 -0.002004
    12 -0.284830 2.417173 0.000000 0.000001 0.000000 0.000000
    13 1.257180 8.762585 -0.153713 -1.570562 0.002683 -1.566807
    14 -0.488518 -2.755602 -0.228260 -0.647514 0.030346 -0.257527
    15 0.039887 -1.479790 0.029854 -1.670335 0.000000 0.000001
    16 0.028786 -1.075731 -0.023109 -1.197449 0.000000 0.000000
    17 0.250027 -2.820665 -0.238396 -0.482190 0.047366 -0.266951
    18 -0.049759 -1.680544 0.100479 -1.890537 0.000000 -0.000002
    19 -0.034142 -1.148312 0.084782 -1.087281 0.000000 0.000000
    20 0.953860 -3.043664 -0.031706 -0.200214 -0.028397 -0.018724
    21 -0.033420 -1.397129 -0.011257 -1.302073 0.136277 -0.074809
    22 -0.022360 -0.957436 0.018784 -0.829611 0.000000 0.000000
    23 -1.180681 -2.507217 -0.193859 -0.541359 0.150781 -0.464420
    24 -0.024967 -1.123934 0.017597 -1.488903 0.000000 0.000001
    25 -0.020057 -0.890968 0.010090 -1.277757 0.000000 0.000000
    26 0.583510 -1.197277 0.185379 0.316258 -1.087026 -0.583548
    27 1.535927 0.010246 0.005009 0.087412 0.030537 -1.135410
    28 1.100771 0.004527 -0.010679 -0.010778 0.012114 -0.550575
    29 0.120153 -0.050270 -0.054489 0.099906 3.110905 1.561085
    30 0.447953 -2.798986 -0.200443 -0.607948 0.000534 0.561976
    31 -0.032909 -1.480204 0.004940 -1.413633 0.000000 0.000002
    32 -0.027022 -1.076920 -0.020210 -1.481391 0.000000 0.000000
    33 -0.249534 -2.846964 -0.174213 -0.445831 0.004261 0.486845
    34 0.043235 -1.683941 0.096012 -1.469776 0.002823 -0.000167
    35 0.031729 -1.160830 0.058838 -1.698243 0.000642 0.008372
    36 -0.963866 -2.785145 -0.085350 0.057485 0.039254 0.065226
    37 0.028479 -1.403067 0.006271 -0.285462 0.000000 0.000000
    38 0.021413 -0.957781 0.020046 -0.387944 0.000000 0.000000
    39 1.164475 -2.543940 -0.170330 -0.557511 -0.035046 0.464229
    40 0.024032 -1.129042 0.017807 -1.373638 0.000000 0.000001
    41 0.014898 -0.883989 -0.019848 -1.103398 0.000000 0.000000
    42 -0.586770 -1.264477 0.200161 -0.683236 -0.842752 -2.270081
    43 1.522835 0.058681 0.016848 -0.059520 -0.122786 0.824758
    44 1.117947 0.048424 -0.005766 -0.016015 -0.019457 0.744725
    45 -0.041740 -0.115604 0.002678 0.136590 -0.022461 1.520273
    46 -1.393470 8.839177 -0.239433 1.580804 -0.005023 -1.566847
  time 1
    0 0.000000 3.945433 -4.644612 -0.174533 0.000000 0.000000
    1 12.889416 4.267642 -7.402885 0.422454 -2.264821 -0.540887
    2 0.084337 -8.502637 0.173215 0.141316 0.548150 -0.404039
    3 1.776994 -2.723174 0.873419 0.134966 0.079135 3.004383
    4 -2.540388 7.965242 0.795715 0.000000 0.000000 -1.570796
    5 -1.546743 7.218124 0.000000 0.000000 0.000000 -0.002004
    6 -0.284830 1.799968 0.000000 0.000001 0.000000 0.000000
    7 -11.091758 2.318553 -8.070624 0.392681 2.083875 0.414768
    8 -0.227284 -8.466044 0.162515 0.041373 -0.339164 0.249752
    9 -1.471282 -3.093521 0.739297 3.070381 0.001976 0.132535
    10 -2.536482 9.152779 0.850403 0.000000 0.000000 -1.570796
    11 -1.546742 7.218122 -0.000001 0.000000 0.000000 -0.002004
    12 -0.284830 2.417173 0.000000 0.000001 0.000000 0.000000
    13 1.257180 8.762585 -0.153713 -1.570562 0.002683 -1.566807
    14 -0.488518 -2.755602 -0.228260 -0.647514 0.030346 -0.257527
    15 0.039887 -1.479790 0.029854 -1.670335 0.000000 0.000001
    16 0.028786 -1.075731 -0.023109 -1.197449 0.000000 0.000000
    17 0.250027 -2.820665 -0.238396 -0.482190 0.047366 -0.266951
    18 -0.049759 -1.680544 0.100479 -1.890537 0.000000 -0.000002
    19 -0.034142 -1.148312 0.084782 -1.087313 0.000000 0.000000
    20 0.953860 -3.043664 -0.031706 -0.200214 -0.028397 -0.018724
    21 -0.033420 -1.397129 -0.011257 -1.302073 0.136277 -0.074809
    22 -0.022360 -0.957436 0.018784 -0.829611 0.000000 0.000000
    23 -1.180681 -2.507217 -0.193859 -0.541359 0.150781 -0.464420
    24 -0.024967 -1.123934 0.017597 -1.488903 0.000000 0.000001
    25 -0.020057 -0.890968 0.010090 -1.277757 0.000000 0.000000
    26 0.583510 -1.197277 0.185379 0.316258 -1.087026 -0.583548
    27 1.535927 0.010246 0.005009 0.087412 0.030537 -1.135410
    28 1.100771 0.004527 -0.010679 -0.010778 0.012114 -0.550575
    29 0.120153 -0.050270 -0.054489 0.099906 3.110905 1.561085
    30 0.447953 -2.798986 -0.200443 -0.607948 0.000534 0.561976
    31 -0.032909 -1.480204 0.004940 -1.413633 0.000000 0.000002
    32 -0.027022 -1.076920 -0.020210 -1.481391 0.000000 0.000000
    33 -0.249534 -2.846964 -0.174213 -0.445831 0.004261 0.486845
    34 0.043235 -1.683941 0.096012 -1.469776 0.002823 -0.000167
    35 0.031729 -1.160830 0.058838 -1.698243 0.000642 0.008372
    36 -0.963866 -2.785145 -0.085350 0.057485 0.039254 0.065226
    37 0.028479 -1.403067 0.006271 -0.285462 0.000000 0.000000
    38 0.021413 -0.957781 0.020046 -0.387944 0.000000 0.000000
    39 1.164475 -2.543940 -0.170330 -0.557511 -0.035046 0.464229
    40 0.024032 -1.129042 0.017807 -1.373638 0.000000 0.000001
    41 0.014898 -0.883989 -0.019848 -1.103398 0.000000 0.000000
    42 -0.586770 -1.264477 0.200161 -0.683236 -0.842752 -2.270081
    43 1.522835 0.058681 0.016848 -0.059520 -0.122786 0.824758
    44 1.117947 0.048424 -0.005766 -0.016015 -0.019457 0.744725
    45 -0.041740 -0.115604 0.002678 0.136590 -0.022461 1.520273
    46 -1.393470 8.839177 -0.239433 1.580804 -0.005023 -1.566847
  time 2
    0 0.000000 3.851680 -4.644612 -0.174533 0.000000 0.000000
    1 12.889416 4.283268 -7.500544 0.422454 -2.264821 -0.540887
    2 0.084337 -8.502637 0.173215 0.160547 0.546495 -0.369954
    3 1.776994 -2.723174 0.873419 0.134966 0.079135 3.004383
    4 -2.548201 7.250377 0.760558 0.000000 0.000000 -1.570796
    5 -1.546743 7.218124 0.000000 0.000000 0.000000 -0.002004
    6 -0.284830 1.799968 0.000000 0.000001 0.000000 0.000000
    7 -11.220669 2.408399 -8.051092 0.390958 2.085940 0.400547
    8 -0.227284 -8.466044 0.162515 0.029462 -0.348884 0.249685
    9 -1.471282 -3.093521 0.739297 3.070369 0.001533 0.126339
    10 -2.536482 9.152779 0.850403 0.000000 0.000000 -1.570796
    11 -1.546742 7.218122 -0.000001 0.000000 0.000000 -0.002004
    12 -0.284830 2.417173 0.000000 0.000001 0.000000 0.000000
    13 1.257180 8.762585 -0.153713 -1.570562 0.002683 -1.566807
    14 -0.488518 -2.755602 -0.228260 -0.647514 0.030346 -0.257527
    15 0.039887 -1.479790 0.029854 -1.670335 0.000000 0.000001
    16 0.028786 -1.075731 -0.023109 -1.197449 0.000000 0.000000
    17 0.250027 -2.820665 -0.238396 -0.482190 0.047366 -0.266951
    18 -0.049759 -1.680544 0.100479 -1.890537 0.000000 -0.000002
    19 -0.034142 -1.148312 0.084782 -1.087281 0.000000 0.000000
    20 0.953860 -3.043664 -0.031706 -0.200214 -0.028397 -0.018724
    21 -0.033420 -1.397129 -0.011257 -1.302073 0.136277 -0.074809
    22 -0.022360 -0.957436 0.018784 -0.829611 0.000000 0.000000
    23 -1.180681 -2.507217 -0.193859 -0.541359 0.150781 -0.464420
    24 -0.024967 -1.123934 0.017597 -1.488903 0.000000 0.000001
    25 -0.020057 -0.890968 0.010090 -1.277757 0.000000 0.000000
    26 0.583510 -1.197277 0.185379 0.316258 -1.087026 -0.583548
    27 1.535927 0.010246 0.005009 0.087412 0.030537 -1.135410
    28 1.100771 0.004527 -0.010679 -0.010778 0.012114 -0.550575
    29 0.120153 -0.050270 -0.054489 0.099906 3.110905 1.561085
    30 0.447953 -2.798986 -0.200443 -0.607948 0.000534 0.561976
    31 -0.032909 -1.480204 0.004940 -1.413633 0.000000 0.000002
    32 -0.027022 -1.076920 -0.020210 -1.481391 0.000000 0.000000
    33 -0.249534 -2.846964 -0.174213 -0.445831 0.004261 0.486845
    34 0.043235 -1.683941 0.096012 -1.469776 0.002823 -0.000167
    35 0.031729 -1.160830 0.058838 -1.698243 0.000642 0.008372
    36 -0.963866 -2.785145 -0.085350 0.057485 0.039254 0.065226
    37 0.028479 -1.403067 0.006271 -0.285462 0.000000 0.000000
    38 0.021413 -0.957781 0.020046 -0.387944 0.000000 0.000000
    39 1.164475 -2.543940 -0.170330 -0.557511 -0.035046 0.464229
    40 0.024032 -1.129042 0.017807 -1.373638 0.000000 0.000001
    41 0.014898 -0.883989 -0.019848 -1.103398 0.000000 0.000000
    42 -0.586770 -1.264477 0.200161 -0.683236 -0.842752 -2.270081
    43 1.522835 0.058681 0.016848 -0.059520 -0.122786 0.824758
    44 1.117947 0.048424 -0.005766 -0.016015 -0.019457 0.744725
    45 -0.041740 -0.115604 0.002678 0.136590 -0.022461 1.520273
    46 -1.393470 8.839177 -0.239433 1.580804 -0.005023 -1.566847
  time 3
    0 0.000000 3.597766 -4.644612 -0.174533 0.000000 0.000000
    1 12.889416 4.318425 -7.680237 0.422454 -2.264821 -0.540887
    2 0.084337 -8.502637 0.173215 0.196293 0.543396 -0.306699
    3 1.776994 -2.723174 0.873419 0.134966 0.079135 3.004383
    4 -2.548201 7.012088 0.748838 0.000000 0.000000 -1.570796
    5 -1.546743 7.218124 0.000000 0.000000 0.000000 -0.002004
    6 -0.284830 1.799968 0.000000 0.000001 0.000000 0.000000
    7 -11.290983 2.654500 -8.004215 0.390000 2.087054 0.392952
    8 -0.227284 -8.466044 0.162515 0.033060 -0.361495 0.249520
    9 -1.471282 -3.093521 0.739297 3.070369 0.001006 0.118932
    10 -2.536482 9.152779 0.850403 0.000000 0.000000 -1.570796
    11 -1.546742 7.218122 -0.000001 0.000000 0.000000 -0.002004
    12 -0.284830 2.417173 0.000000 0.000001 0.000000 0.000000
    13 1.257180 8.762585 -0.153713 -1.570562 0.002683 -1.566807
    14 -0.488518 -2.755602 -0.228260 -0.647514 0.030346 -0.257527
    15 0.039887 -1.479790 0.029854 -1.670335 0.000000 0.000001
    16 0.028786 -1.075731 -0.023109 -1.197449 0.000000 0.000000
    17 0.250027 -2.820665 -0.238396 -0.482190 0.047366 -0.266951
    18 -0.049759 -1.680544 0.100479 -1.890537 0.000000 -0.000002
    19 -0.034142 -1.148312 0.084782 -1.087281 0.000000 0.000000
    20 0.953860 -3.043664 -0.031706 -0.200214 -0.028397 -0.018724
    21 -0.033420 -1.397129 -0.011257 -1.302073 0.136277 -0.074809
    22 -0.022360 -0.957436 0.018784 -0.829611 0.000000 0.000000
    23 -1.180681 -2.507217 -0.193859 -0.541359 0.150781 -0.464420
    24 -0.024967 -1.123934 0.017597 -1.488903 0.000000 0.000001
    25 -0.020057 -0.890968 0.010090 -1.277757 0.000000 0.000000
    26 0.583510 -1.197277 0.185379 0.316258 -1.087026 -0.583548
    27 1.535927 0.010246 0.005009 0.087412 0.030537 -1.135410
    28 1.100771 0.004527 -0.010679 -0.010778 0.012114 -0.550575
    29 0.120153 -0.050270 -0.054489 0.099906 3.110905 1.561085
    30 0.447953 -2.798986 -0.200443 -0.607948 0.000534 0.561976
    31 -0.032909 -1.480204 0.004940 -1.413633 0.000000 0.000002
    32 -0.027022 -1.076920 -0.020210 -1.481391 0.000000 0.000000
    33 -0.249534 -2.846964 -0.174213 -0.445831 0.004261 0.486845
    34 0.043235 -1.683941 0.096012 -1.469776 0.002823 -0.000167
    35 0.031729 -1.160830 0.058838 -1.698243 0.000642 0.008372
    36 -0.963866 -2.785145 -0.085350 0.057485 0.039254 0.065226
    37 0.028479 -1.403067 0.006271 -0.285462 0.000000 0.000000
    38 0.021413 -0.957781 0.020046 -0.387944 0.000000 0.000000
    39 1.164475 -2.543940 -0.170330 -0.557511 -0.035046 0.464229
    40 0.024032 -1.129042 0.017807 -1.373638 0.000000 0.000001
    41 0.014898 -0.883989 -0.019848 -1.103398 0.000000 0.000000
    42 -0.586770 -1.264477 0.200161 -0.683236 -0.842752 -2.270081
    43 1.522835 0.058681 0.016848 -0.059520 -0.122786 0.824758
    44 1.117947 0.048424 -0.005766 -0.016015 -0.019457 0.744725
    45 -0.041740 -0.115604 0.002678 0.136590 -0.022461 1.520273
    46 -1.393470 8.839177 -0.239433 1.580804 -0.005023 -1.566847
  time 4
    0 0.000000 3.226661 -4.644612 -0.174533 0.000000 0.000000
    1 12.889416 4.337957 -7.789616 0.422454 -2.264821 -0.540887
    2 0.084337 -8.502637 0.173215 0.215524 0.541706 -0.272633
    3 1.776994 -2.723174 0.873419 0.134966 0.079135 3.004383
    4 -2.544295 7.258190 0.764464 0.000000 0.000000 -1.570796
    5 -1.546743 7.218124 0.000000 0.000000 0.000000 -0.002004
    6 -0.284830 1.799968 0.000000 0.000001 0.000000 0.000000
    7 -11.279264 3.021699 -7.941713 0.390096 2.086848 0.394190
    8 -0.227284 -8.466044 0.162515 0.041661 -0.376677 0.249354
    9 -1.471282 -3.093521 0.739297 3.070357 0.000562 0.112736
    10 -2.536482 9.152779 0.850403 0.000000 0.000000 -1.570796
    11 -1.546742 7.218122 -0.000001 0.000000 0.000000 -0.002004
    12 -0.284830 2.417173 0.000000 0.000001 0.000000 0.000000
    13 1.257180 8.762585 -0.153713 -1.570562 0.002683 -1.566807
    14 -0.488518 -2.755602 -0.228260 -0.647514 0.030346 -0.257527
    15 0.039887 -1.479790 0.029854 -1.670335 0.000000 0.000001
    16 0.028786 -1.075731 -0.023109 -1.197449 0.000000 0.000000
    17 0.250027 -2.820665 -0.238396 -0.482190 0.047366 -0.266951
    18 -0.049759 -1.680544 0.100479 -1.890537 0.000000 -0.000002
    19 -0.034142 -1.148312 0.084782 -1.087281 0.000000 0.000000
    20 0.953860 -3.043664 -0.031706 -0.200214 -0.028397 -0.018724
    21 -0.033420 -1.397129 -0.011257 -1.302073 0.136277 -0.074809
    22 -0.022360 -0.957436 0.018784 -0.829611 0.000000 0.000000
    23 -1.180681 -2.507217 -0.193859 -0.541359 0.150781 -0.464420
    24 -0.024967 -1.123934 0.017597 -1.488903 0.000000 0.000001
    25 -0.020057 -0.890968 0.010090 -1.277757 0.000000 0.000000
    26 0.583510 -1.197277 0.185379 0.316258 -1.087026 -0.583548
    27 1.535927 0.010246 0.005009 0.087412 0.030537 -1.135410
    28 1.100771 0.004527 -0.010679 -0.010778 0.012114 -0.550575
    29 0.120153 -0.050270 -0.054489 0.099906 3.110905 1.561085
    30 0.447953 -2.798986 -0.200443 -0.607948 0.000534 0.561976
    31 -0.032909 -1.480204 0.004940 -1.413633 0.000000 0.000002
    32 -0.027022 -1.076920 -0.020210 -1.481391 0.000000 0.000000
    33 -0.249534 -2.846964 -0.174213 -0.445831 0.004261 0.486845
    34 0.043235 -1.683941 0.096012 -1.469776 0.002823 -0.000167
    35 0.031729 -1.160830 0.058838 -1.698243 0.000642 0.008372
    36 -0.963866 -2.785145 -0.085350 0.057485 0.039254 0.065226
    37 0.028479 -1.403067 0.006271 -0.285462 0.000000 0.000000
    38 0.021413 -0.957781 0.020046 -0.387944 0.000000 0.000000
    39 1.164475 -2.543940 -0.170330 -0.557511 -0.035046 0.464229
    40 0.024032 -1.129042 0.017807 -1.373638 0.000000 0.000001
    41 0.014898 -0.883989 -0.019848 -1.103398 0.000000 0.000000
    42 -0.586770 -1.264477 0.200161 -0.683236 -0.842752 -2.270081
    43 1.522835 0.058681 0.016848 -0.059520 -0.122786 0.824758
    44 1.117947 0.048424 -0.005766 -0.016015 -0.019457 0.744725
    45 -0.041740 -0.115604 0.002678 0.136590 -0.022461 1.520273
    46 -1.393470 8.839177 -0.239433 1.580804 -0.005023 -1.566847
  time 5
    0 0.000000 2.773522 -4.644612 -0.174533 0.000000 0.000000
    1 12.889416 4.341863 -7.813054 0.422454 -2.264821 -0.540887
    2 0.084337 -8.502637 0.173215 0.213376 0.541670 -0.276334
    3 1.776994 -2.723174 0.873419 0.134966 0.079135 3.004383
    4 -2.540388 7.848051 0.791808 0.000000 0.000000 -1.570796
    5 -1.546743 7.218124 0.000000 0.000000 0.000000 -0.002004
    6 -0.284830 1.799968 0.000000 0.000001 0.000000 0.000000
    7 -11.248013 3.467025 -7.863586 0.390575 2.086394 0.397530
    8 -0.227284 -8.466044 0.162515 0.051937 -0.391314 0.249188
    9 -1.471282 -3.093521 0.739297 3.070357 0.000382 0.110136
    10 -2.536482 9.152779 0.850403 0.000000 0.000000 -1.570796
    11 -1.546742 7.218122 -0.000001 0.000000 0.000000 -0.002004
    12 -0.284830 2.417173 0.000000 0.000001 0.000000 0.000000
    13 1.257180 8.762585 -0.153713 -1.570562 0.002683 -1.566807
    14 -0.488518 -2.755602 -0.228260 -0.647514 0.030346 -0.257527
    15 0.039887 -1.479790 0.029854 -1.670335 0.000000 0.000001
    16 0.028786 -1.075731 -0.023109 -1.197449 0.000000 0.000000
    17 0.250027 -2.820665 -0.238396 -0.482190 0.047366 -0.266951
    18 -0.049759 -1.680544 0.100479 -1.890537 0.000000 -0.000002
    19 -0.034142 -1.148312 0.084782 -1.087281 0.000000 0.000000
    20 0.953860 -3.043664 -0.031706 -0.200214 -0.028397 -0.018724
    21 -0.033420 -1.397129 -0.011257 -1.302073 0.136277 -0.074809
    22 -0.022360 -0.957436 0.018784 -0.829611 0.000000 0.000000
    23 -1.180681 -2.507217 -0.193859 -0.541359 0.150781 -0.464420
    24 -0.024967 -1.123934 0.017597 -1.488903 0.000000 0.000001
    25 -0.020057 -0.890968 0.010090 -1.277757 0.000000 0.000000
    26 0.583510 -1.197277 0.185379 0.316258 -1.087026 -0.583548
    27 1.535927 0.010246 0.005009 0.087412 0.030537 -1.135410
    28 1.100771 0.004527 -0.010679 -0.010778 0.012114 -0.550575
    29 0.120153 -0.050270 -0.054489 0.099906 3.110905 1.561085
    30 0.447953 -2.798986 -0.200443 -0.607948 0.000534 0.561976
    31 -0.032909 -1.480204 0.004940 -1.413633 0.000000 0.000002
    32 -0.027022 -1.076920 -0.020210 -1.481391 0.000000 0.000000
    33 -0.249534 -2.846964 -0.174213 -0.445831 0.004261 0.486845
    34 0.043235 -1.683941 0.096012 -1.469776 0.002823 -0.000167
    35 0.031729 -1.160830 0.058838 -1.698243 0.000642 0.008372
    36 -0.963866 -2.785145 -0.085350 0.057485 0.039254 0.065226
    37 0.028479 -1.403067 0.006271 -0.285462 0.000000 0.000000
    38 0.021413 -0.957781 0.020046 -0.387944 0.000000 0.000000
    39 1.164475 -2.543940 -0.170330 -0.557511 -0.035046 0.464229
    40 0.024032 -1.129042 0.017807 -1.373638 0.000000 0.000001
    41 0.014898 -0.883989 -0.019848 -1.103398 0.000000 0.000000
    42 -0.586770 -1.264477 0.200161 -0.683236 -0.842752 -2.270081
    43 1.522835 0.058681 0.016848 -0.059520 -0.122786 0.824758
    44 1.117947 0.048424 -0.005766 -0.016015 -0.019457 0.744725
    45 -0.041740 -0.115604 0.002678 0.136590 -0.022461 1.520273
    46 -1.393470 8.839177 -0.239433 1.580804 -0.005023 -1.566847
  time 6
    0 0.000000 2.281320 -4.644612 -0.174533 0.000000 0.000000
    1 12.889416 4.341863 -7.836492 0.422454 -2.264821 -0.540887
    2 0.084337 -8.502637 0.173215 0.207440 0.541635 -0.286469
    3 1.776994 -2.723174 0.873419 0.134966 0.079135 3.004383
    4 -2.536482 8.551198 0.823059 0.000000 0.000000 -1.570796
    5 -1.546743 7.218124 0.000000 0.000000 0.000000 -0.002004
    6 -0.284830 1.811687 0.000000 0.000001 0.000000 0.000000
    7 -11.205043 3.955321 -7.781552 0.391149 2.085692 0.402217
    8 -0.227284 -8.466044 0.162515 0.060538 -0.402367 0.249056
    9 -1.471282 -3.093521 0.739297 3.070357 0.000490 0.111706
    10 -2.536482 9.152779 0.850403 0.000000 0.000000 -1.570796
    11 -1.546742 7.218122 -0.000001 0.000000 0.000000 -0.002004
    12 -0.284830 2.417173 0.000000 0.000001 0.000000 0.000000
    13 1.257180 8.762585 -0.153713 -1.570562 0.002683 -1.566807
    14 -0.488518 -2.755602 -0.228260 -0.647514 0.030346 -0.257527
    15 0.039887 -1.479790 0.029854 -1.670335 0.000000 0.000001
    16 0.028786 -1.075731 -0.023109 -1.197449 0.000000 0.000000
    17 0.250027 -2.820665 -0.238396 -0.482190 0.047366 -0.266951
    18 -0.049759 -1.680544 0.100479 -1.890537 0.000000 -0.000002
    19 -0.034142 -1.148312 0.084782 -1.087281 0.000000 0.000000
    20 0.953860 -3.031945 -0.035613 -0.200214 -0.028397 -0.018724
    21 -0.033420 -1.397129 -0.011257 -1.272232 0.136277 -0.074809
    22 -0.022360 -0.957436 0.018784 -0.815062 0.000000 0.000000
    23 -1.180681 -2.507217 -0.193859 -0.541359 0.150781 -0.464420
    24 -0.024967 -1.123934 0.017597 -1.488903 0.000000 0.000001
    25 -0.020057 -0.890968 0.010090 -1.277757 0.000000 0.000000
    26 0.583510 -1.197277 0.185379 0.316258 -1.087026 -0.583548
    27 1.535927 0.010246 0.005009 0.087412 0.030537 -1.135410
    28 1.100771 0.004527 -0.010679 -0.010778 0.012114 -0.550575
    29 0.120153 -0.050270 -0.054489 0.099906 3.110905 1.561085
    30 0.447953 -2.798986 -0.200443 -0.607948 0.000534 0.561976
    31 -0.032909 -1.480204 0.004940 -1.413633 0.000000 0.000002
    32 -0.027022 -1.076920 -0.020210 -1.481391 0.000000 0.000000
    33 -0.249534 -2.846964 -0.174213 -0.445831 0.004261 0.486845
    34 0.043235 -1.683941 0.096012 -1.469776 0.002823 -0.000167
    35 0.031729 -1.160830 0.058838 -1.698243 0.000642 0.008372
    36 -0.963866 -2.785145 -0.085350 0.057485 0.039254 0.065226
    37 0.028479 -1.403067 0.006271 -0.285462 0.000000 0.000000
    38 0.021413 -0.957781 0.020046 -0.387944 0.000000 0.000000
    39 1.164475 -2.543940 -0.170330 -0.557511 -0.035046 0.464229
    40 0.024032 -1.129042 0.017807 -1.373638 0.000000 0.000001
    41 0.014898 -0.883989 -0.019848 -1.103430 0.000000 0.000000
    42 -0.586770 -1.264477 0.200161 -0.683236 -0.842752 -2.270081
    43 1.522835 0.058681 0.016848 -0.059520 -0.122786 0.824758
    44 1.117947 0.048424 -0.005766 -0.016015 -0.019457 0.744725
    45 -0.041740 -0.115604 0.002678 0.136590 -0.022461 1.520273
    46 -1.393470 8.839177 -0.239433 1.580804 -0.005023 -1.566847
  time 7
    0 0.000000 1.789117 -4.644612 -0.174533 0.000000 0.000000
    1 12.889416 4.345770 -7.852118 0.422454 -2.264821 -0.540887
    2 0.084337 -8.502637 0.173215 0.198566 0.541600 -0.301632
    3 1.776994 -2.723174 0.873419 0.134966 0.079135 3.004383
    4 -2.532576 9.141060 0.850404 0.000000 0.000000 -1.570796
    5 -1.546743 7.218124 0.000000 0.000000 0.000000 -0.002004
    6 -0.284830 1.842938 0.000000 0.000001 0.000000 0.000000
    7 -11.158167 4.439711 -7.699518 0.391819 2.084907 0.407658
    8 -0.227284 -8.466044 0.162515 0.064156 -0.406721 0.249022
    9 -1.471282 -3.093521 0.739297 3.070357 0.000778 0.115696
    10 -2.536482 9.152779 0.850403 0.000000 0.000000 -1.570796
    11 -1.546742 7.218122 -0.000001 0.000000 0.000000 -0.002004
    12 -0.284830 2.417173 0.000000 0.000001 0.000000 0.000000
    13 1.257180 8.762585 -0.153713 -1.570562 0.002683 -1.566807
    14 -0.488518 -2.755602 -0.228260 -0.647514 0.030346 -0.257527
    15 0.039887 -1.479790 0.029854 -1.670335 0.000000 0.000001
    16 0.028786 -1.075731 -0.023109 -1.197449 0.000000 0.000000
    17 0.250027 -2.820665 -0.238396 -0.482190 0.047366 -0.266951
    18 -0.049759 -1.680544 0.100479 -1.890537 0.000000 -0.000002
    19 -0.034142 -1.148312 0.084782 -1.087281 0.000000 0.000000
    20 0.953860 -3.012413 -0.039519 -0.200214 -0.028397 -0.018724
    21 -0.033420 -1.397129 -0.011257 -1.191184 0.136277 -0.074809
    22 -0.022360 -0.957436 0.018784 -0.775612 0.000000 0.000000
    23 -1.180681 -2.507217 -0.193859 -0.541359 0.150781 -0.464420
    24 -0.024967 -1.123934 0.017597 -1.488903 0.000000 0.000001
    25 -0.020057 -0.890968 0.010090 -1.277757 0.000000 0.000000
    26 0.583510 -1.197277 0.185379 0.316258 -1.087026 -0.583548
    27 1.535927 0.010246 0.005009 0.087412 0.030537 -1.135410
    28 1.100771 0.004527 -0.010679 -0.010778 0.012114 -0.550575
    29 0.120153 -0.050270 -0.054489 0.099906 3.110905 1.561085
    30 0.447953 -2.798986 -0.200443 -0.607948 0.000534 0.561976
    31 -0.032909 -1.480204 0.004940 -1.413633 0.000000 0.000002
    32 -0.027022 -1.076920 -0.020210 -1.481391 0.000000 0.000000
    33 -0.249534 -2.846964 -0.174213 -0.445831 0.004261 0.486845
    34 0.043235 -1.683941 0.096012 -1.469776 0.002823 -0.000167
    35 0.031729 -1.160830 0.058838 -1.698243 0.000642 0.008372
    36 -0.963866 -2.785145 -0.085350 0.057485 0.039254 0.065226
    37 0.028479 -1.403067 0.006271 -0.285462 0.000000 0.000000
    38 0.021413 -0.957781 0.020046 -0.387944 0.000000 0.000000
    39 1.164475 -2.543940 -0.170330 -0.557511 -0.035046 0.464229
    40 0.024032 -1.129042 0.017807 -1.373638 0.000000 0.000001
    41 0.014898 -0.883989 -0.019848 -1.103430 0.000000 0.000000
    42 -0.586770 -1.264477 0.200161 -0.683236 -0.842752 -2.270081
    43 1.522835 0.058681 0.016848 -0.059520 -0.122786 0.824758
    44 1.117947 0.048424 -0.005766 -0.016015 -0.019457 0.744725
    45 -0.041740 -0.115604 0.002678 0.136590 -0.022461 1.520273
    46 -1.393470 8.839177 -0.239433 1.580804 -0.005023 -1.566847
  time 8
    0 0.000000 1.335978 -4.644612 -0.174533 0.000000 0.000000
    1 12.889416 4.349676 -7.867743 0.422454 -2.264821 -0.540887
    2 0.084337 -8.502637 0.173215 0.187609 0.541565 -0.320364
    3 1.776994 -2.723174 0.873419 0.134966 0.079135 3.004383
    4 -2.528669 9.383254 0.862123 0.000000 0.000000 -1.570796
    5 -1.546743 7.218124 0.000000 0.000000 0.000000 -0.002004
    6 -0.284830 1.889814 0.000000 0.000001 0.000000 0.000000
    7 -11.107384 4.888944 -7.621391 0.392489 2.084123 0.413044
    8 -0.227284 -8.466044 0.162515 0.063963 -0.403644 0.249420
    9 -1.471282 -3.093521 0.739297 3.070369 0.001161 0.121078
    10 -2.536482 9.152779 0.850403 0.000000 0.000000 -1.570796
    11 -1.546742 7.218122 -0.000001 0.000000 0.000000 -0.002004
    12 -0.284830 2.417173 0.000000 0.000001 0.000000 0.000000
    13 1.257180 8.762585 -0.153713 -1.570562 0.002683 -1.566807
    14 -0.488518 -2.755602 -0.228260 -0.647514 0.030346 -0.257527
    15 0.039887 -1.479790 0.029854 -1.670335 0.000000 0.000001
    16 0.028786 -1.075731 -0.023109 -1.197449 0.000000 0.000000
    17 0.250027 -2.820665 -0.238396 -0.482190 0.047366 -0.266951
    18 -0.049759 -1.680544 0.100479 -1.890537 0.000000 -0.000002
    19 -0.034142 -1.148312 0.084782 -1.087281 0.000000 0.000000
    20 0.953860 -2.977256 -0.043426 -0.200214 -0.028397 -0.018724
    21 -0.033420 -1.397129 -0.011257 -1.071781 0.136277 -0.074809
    22 -0.022360 -0.957436 0.018784 -0.717493 0.000000 0.000000
    23 -1.180681 -2.507217 -0.193859 -0.541359 0.150781 -0.464420
    24 -0.024967 -1.123934 0.017597 -1.488903 0.000000 0.000001
    25 -0.020057 -0.890968 0.010090 -1.277757 0.000000 0.000000
    26 0.583510 -1.197277 0.185379 0.316258 -1.087026 -0.583548
    27 1.535927 0.010246 0.005009 0.087412 0.030537 -1.135410
    28 1.100771 0.004527 -0.010679 -0.010778 0.012114 -0.550575
    29 0.120153 -0.050270 -0.054489 0.099906 3.110905 1.561085
    30 0.447953 -2.798986 -0.200443 -0.607948 0.000534 0.561976
    31 -0.032909 -1.480204 0.004940 -1.413633 0.000000 0.000002
    32 -0.027022 -1.076920 -0.020210 -1.481391 0.000000 0.000000
    33 -0.249534 -2.846964 -0.174213 -0.445831 0.004261 0.486845
    34 0.043235 -1.683941 0.096012 -1.469776 0.002823 -0.000167
    35 0.031729 -1.160830 0.058838 -1.698243 0.000642 0.008372
    36 -0.963866 -2.785145 -0.085350 0.057485 0.039254 0.065226
    37 0.028479 -1.403067 0.006271 -0.285462 0.000000 0.000000
    38 0.021413 -0.957781 0.020046 -0.387944 0.000000 0.000000
    39 1.164475 -2.543940 -0.170330 -0.557511 -0.035046 0.464229
    40 0.024032 -1.129042 0.017807 -1.373638 0.000000 0.000001
    41 0.014898 -0.883989 -0.019848 -1.103398 0.000000 0.000000
    42 -0.586770 -1.264477 0.200161 -0.683236 -0.842752 -2.270081
    43 1.522835 0.058681 0.016848 -0.059520 -0.122786 0.824758
    44 1.117947 0.048424 -0.005766 -0.016015 -0.019457 0.744725
    45 -0.041740 -0.115604 0.002678 0.136590 -0.022461 1.520273
    46 -1.393470 8.839177 -0.239433 1.580804 -0.005023 -1.566847
  time 9
    0 0.000000 0.964873 -4.644612 -0.174533 0.000000 0.000000
    1 12.889416 4.353582 -7.879462 0.422454 -2.264821 -0.540887
    2 0.084337 -8.502637 0.173215 0.175388 0.541529 -0.341240
    3 1.776994 -2.723174 0.873419 0.134966 0.079135 3.004383
    4 -2.532576 9.324659 0.858217 0.000000 0.000000 -1.570796
    5 -1.546743 7.218124 0.000000 0.000000 0.000000 -0.002004
    6 -0.284830 1.948410 0.000000 0.000001 0.000000 0.000000
    7 -11.064414 5.256142 -7.558889 0.393064 2.083462 0.417785
    8 -0.227284 -8.466044 0.162515 0.063463 -0.395537 0.250481
    9 -1.471282 -3.093521 0.739297 3.070369 0.001569 0.126806
    10 -2.536482 9.152779 0.850403 0.000000 0.000000 -1.570796
    11 -1.546742 7.218122 -0.000001 0.000000 0.000000 -0.002004
    12 -0.284830 2.417173 0.000000 0.000001 0.000000 0.000000
    13 1.257180 8.762585 -0.153713 -1.570562 0.002683 -1.566807
    14 -0.488518 -2.755602 -0.228260 -0.647514 0.030346 -0.257527
    15 0.039887 -1.479790 0.029854 -1.670335 0.000000 0.000001
    16 0.028786 -1.075731 -0.023109 -1.197449 0.000000 0.000000
    17 0.250027 -2.820665 -0.238396 -0.482190 0.047366 -0.266951
    18 -0.049759 -1.680544 0.100479 -1.890537 0.000000 -0.000002
    19 -0.034142 -1.148312 0.084782 -1.087281 0.000000 0.000000
    20 0.953860 -2.938192 -0.055145 -0.200214 -0.028397 -0.018724
    21 -0.033420 -1.397129 -0.011257 -0.926755 0.136277 -0.074809
    22 -0.022360 -0.957436 0.018784 -0.646911 0.000000 0.000000
    23 -1.180681 -2.507217 -0.193859 -0.541359 0.150781 -0.464420
    24 -0.024967 -1.123934 0.017597 -1.488903 0.000000 0.000001
    25 -0.020057 -0.890968 0.010090 -1.277757 0.000000 0.000000
    26 0.583510 -1.197277 0.185379 0.316258 -1.087026 -0.583548
    27 1.535927 0.010246 0.005009 0.087412 0.030537 -1.135410
    28 1.100771 0.004527 -0.010679 -0.010778 0.012114 -0.550575
    29 0.120153 -0.050270 -0.054489 0.099906 3.110905 1.561085
    30 0.447953 -2.798986 -0.200443 -0.607948 0.000534 0.561976
    31 -0.032909 -1.480204 0.004940 -1.413633 0.000000 0.000002
    32 -0.027022 -1.076920 -0.020210 -1.481391 0.000000 0.000000
    33 -0.249534 -2.846964 -0.174213 -0.445831 0.004261 0.486845
    34 0.043235 -1.683941 0.096012 -1.469776 0.002823 -0.000167
    35 0.031729 -1.160830 0.058838 -1.698243 0.000642 0.008372
    36 -0.963866 -2.785145 -0.085350 0.057485 0.039254 0.065226
    37 0.028479 -1.403067 0.006271 -0.285462 0.000000 0.000000
    38 0.021413 -0.957781 0.020046 -0.387944 0.000000 0.000000
    39 1.164475 -2.543940 -0.170330 -0.557511 -0.035046 0.464229
    40 0.024032 -1.129042 0.017807 -1.373638 0.000000 0.000001
    41 0.014898 -0.883989 -0.019848 -1.103398 0.000000 0.000000
    42 -0.586770 -1.264477 0.200161 -0.683236 -0.842752 -2.270081
    43 1.522835 0.058681 0.016848 -0.059520 -0.122786 0.824758
    44 1.117947 0.048424 -0.005766 -0.016015 -0.019457 0.744725
    45 -0.041740 -0.115604 0.002678 0.136590 -0.022461 1.520273
    46 -1.393470 8.839177 -0.239433 1.580804 -0.005023 -1.566847
  time 10
    0 0.000000 0.710959 -4.644612 -0.174533 0.000000 0.000000
    1 12.889416 4.353582 -7.891181 0.422454 -2.264821 -0.540887
    2 0.084337 -8.502637 0.173215 0.162757 0.541529 -0.362837
    3 1.776994 -2.723174 0.873419 0.134966 0.079135 3.004383
    4 -2.536482 9.211374 0.850404 0.000000 0.000000 -1.570796
    5 -1.546743 7.218124 0.000000 0.000000 0.000000 -0.002004
    6 -0.284830 2.010912 0.000000 0.000001 0.000000 0.000000
    7 -11.033163 5.506150 -7.519825 0.393542 2.082967 0.421125
    8 -0.227284 -8.466044 0.162515 0.062732 -0.384089 0.252005
    9 -1.471282 -3.093521 0.739297 3.070381 0.001928 0.131840
    10 -2.536482 9.152779 0.850403 0.000000 0.000000 -1.570796
    11 -1.546742 7.218122 -0.000001 0.000000 0.000000 -0.002004
    12 -0.284830 2.417173 0.000000 0.000001 0.000000 0.000000
    13 1.257180 8.762585 -0.153713 -1.570562 0.002683 -1.566807
    14 -0.488518 -2.755602 -0.228260 -0.647514 0.030346 -0.257527
    15 0.039887 -1.479790 0.029854 -1.670335 0.000000 0.000001
    16 0.028786 -1.075731 -0.023109 -1.197449 0.000000 0.000000
    17 0.250027 -2.820665 -0.238396 -0.482190 0.047366 -0.266951
    18 -0.049759 -1.680544 0.100479 -1.890537 0.000000 -0.000002
    19 -0.034142 -1.148312 0.084782 -1.087281 0.000000 0.000000
    20 0.957766 -2.895222 -0.062957 -0.200214 -0.028397 -0.018724
    21 -0.033420 -1.397129 -0.011257 -0.768956 0.136277 -0.074809
    22 -0.022360 -0.957436 0.018784 -0.570097 0.000000 0.000000
    23 -1.180681 -2.507217 -0.193859 -0.541359 0.150781 -0.464420
    24 -0.024967 -1.123934 0.017597 -1.488903 0.000000 0.000001
    25 -0.020057 -0.890968 0.010090 -1.277757 0.000000 0.000000
    26 0.583510 -1.197277 0.185379 0.316258 -1.087026 -0.583548
    27 1.535927 0.010246 0.005009 0.087412 0.030537 -1.135410
    28 1.100771 0.004527 -0.010679 -0.010778 0.012114 -0.550575
    29 0.120153 -0.050270 -0.054489 0.099906 3.110905 1.561085
    30 0.447953 -2.798986 -0.200443 -0.607948 0.000534 0.561976
    31 -0.032909 -1.480204 0.004940 -1.413633 0.000000 0.000002
    32 -0.027022 -1.076920 -0.020210 -1.481391 0.000000 0.000000
    33 -0.249534 -2.846964 -0.174213 -0.445831 0.004261 0.486845
    34 0.043235 -1.683941 0.096012 -1.469776 0.002823 -0.000167
    35 0.031729 -1.160830 0.058838 -1.698243 0.000642 0.008372
    36 -0.963866 -2.785145 -0.085350 0.057485 0.039254 0.065226
    37 0.028479 -1.403067 0.006271 -0.285462 0.000000 0.000000
    38 0.021413 -0.957781 0.020046 -0.387944 0.000000 0.000000
    39 1.164475 -2.543940 -0.170330 -0.557511 -0.035046 0.464229
    40 0.024032 -1.129042 0.017807 -1.373638 0.000000 0.000001
    41 0.014898 -0.883989 -0.019848 -1.103398 0.000000 0.000000
    42 -0.586770 -1.264477 0.200161 -0.683236 -0.842752 -2.270081
    43 1.522835 0.058681 0.016848 -0.059520 -0.122786 0.824758
    44 1.117947 0.048424 -0.005766 -0.016015 -0.019457 0.744725
    45 -0.041740 -0.115604 0.002678 0.136590 -0.022461 1.520273
    46 -1.393470 8.839177 -0.239433 1.580804 -0.005023 -1.566847
  time 11
    0 0.000000 0.617206 -4.644612 -0.174533 0.000000 0.000000
    1 12.889416 4.353582 -7.898994 0.422454 -2.264821 -0.540887
    2 0.084337 -8.502637 0.173215 0.150536 0.541494 -0.383713
    3 1.776994 -2.723174 0.873419 0.134966 0.079135 3.004383
    4 -2.536482 9.152779 0.850404 0.000000 0.000000 -1.570796
    5 -1.546743 7.218124 0.000000 0.000000 0.000000 -0.002004
    6 -0.284830 2.073414 0.000000 0.000001 0.000000 0.000000
    7 -11.021444 5.599903 -7.504200 0.393734 2.082801 0.422417
    8 -0.227284 -8.466044 0.162515 0.061866 -0.370934 0.253761
    9 -1.471282 -3.093521 0.739297 3.070381 0.002168 0.135135
    10 -2.536482 9.152779 0.850403 0.000000 0.000000 -1.570796
    11 -1.546742 7.218122 -0.000001 0.000000 0.000000 -0.002004
    12 -0.284830 2.417173 0.000000 0.000001 0.000000 0.000000
    13 1.257180 8.762585 -0.153713 -1.570562 0.002683 -1.566807
    14 -0.488518 -2.755602 -0.228260 -0.647514 0.030346 -0.257527
    15 0.039887 -1.479790 0.029854 -1.670335 0.000000 0.000001
    16 0.028786 -1.075731 -0.023109 -1.197449 0.000000 0.000000
    17 0.250027 -2.820665 -0.238396 -0.482190 0.047366 -0.266951
    18 -0.049759 -1.680544 0.100479 -1.890537 0.000000 -0.000002
    19 -0.034142 -1.148312 0.084782 -1.087281 0.000000 0.000000
    20 0.957766 -2.848346 -0.070770 -0.200214 -0.028397 -0.018724
    21 -0.033420 -1.397129 -0.011257 -0.611118 0.136277 -0.074809
    22 -0.022360 -0.957436 0.018784 -0.493309 0.000000 0.000000
    23 -1.180681 -2.507217 -0.193859 -0.541359 0.150781 -0.464420
    24 -0.024967 -1.123934 0.017597 -1.488903 0.000000 0.000001
    25 -0.020057 -0.890968 0.010090 -1.277757 0.000000 0.000000
    26 0.583510 -1.197277 0.185379 0.316258 -1.087026 -0.583548
    27 1.535927 0.010246 0.005009 0.087412 0.030537 -1.135410
    28 1.100771 0.004527 -0.010679 -0.010778 0.012114 -0.550575
    29 0.120153 -0.050270 -0.054489 0.099906 3.110905 1.561085
    30 0.447953 -2.798986 -0.200443 -0.607948 0.000534 0.561976
    31 -0.032909 -1.480204 0.004940 -1.413633 0.000000 0.000002
    32 -0.027022 -1.076920 -0.020210 -1.481391 0.000000 0.000000
    33 -0.249534 -2.846964 -0.174213 -0.445831 0.004261 0.486845
    34 0.043235 -1.683941 0.096012 -1.469776 0.002823 -0.000167
    35 0.031729 -1.160830 0.058838 -1.698243 0.000642 0.008372
    36 -0.963866 -2.785145 -0.085350 0.057485 0.039254 0.065226
    37 0.028479 -1.403067 0.006271 -0.285462 0.000000 0.000000
    38 0.021413 -0.957781 0.020046 -0.387944 0.000000 0.000000
    39 1.164475 -2.543940 -0.170330 -0.557511 -0.035046 0.464229
    40 0.024032 -1.129042 0.017807 -1.373638 0.000000 0.000001
    41 0.014898 -0.883989 -0.019848 -1.103398 0.000000 0.000000
    42 -0.586770 -1.264477 0.200161 -0.683236 -0.842752 -2.270081
    43 1.522835 0.058681 0.016848 -0.059520 -0.122786 0.824758
    44 1.117947 0.048424 -0.005766 -0.016015 -0.019457 0.744725
    45 -0.041740 -0.115604 0.002678 0.136590 -0.022461 1.520273
    46 -1.393470 8.839177 -0.239433 1.580804 -0.005023 -1.566847
  time 12
    0 0.000000 0.632832 -4.644612 -0.174533 0.000000 0.000000
    1 12.889416 4.357489 -7.902900 0.422454 -2.264821 -0.540887
    2 0.084337 -8.502637 0.173215 0.139579 0.541494 -0.402464
    3 1.776994 -2.723174 0.873419 0.134966 0.079135 3.004383
    4 -2.536482 9.152779 0.850404 0.000000 0.000000 -1.570796
    5 -1.546743 7.218124 0.000000 0.000000 0.000000 -0.002004
    6 -0.284830 2.132009 0.000000 0.000001 0.000000 0.000000
    7 -11.021444 5.584277 -7.504200 0.393734 2.082801 0.422417
    8 -0.227284 -8.466044 0.162515 0.060923 -0.357779 0.255485
    9 -1.471282 -3.093521 0.739297 3.070381 0.002300 0.137041
    10 -2.536482 9.152779 0.850403 0.000000 0.000000 -1.570796
    11 -1.546742 7.218122 -0.000001 0.000000 0.000000 -0.002004
    12 -0.284830 2.417173 0.000000 0.000001 0.000000 0.000000
    13 1.257180 8.762585 -0.153713 -1.570562 0.002683 -1.566807
    14 -0.488518 -2.755602 -0.228260 -0.647514 0.030346 -0.257527
    15 0.039887 -1.479790 0.029854 -1.670335 0.000000 0.000001
    16 0.028786 -1.075731 -0.023109 -1.197449 0.000000 0.000000
    17 0.250027 -2.820665 -0.238396 -0.482190 0.047366 -0.266951
    18 -0.049759 -1.680544 0.100479 -1.890537 0.000000 -0.000002
    19 -0.034142 -1.148312 0.084782 -1.087281 0.000000 0.000000
    20 0.957766 -2.809282 -0.078583 -0.200214 -0.028397 -0.018724
    21 -0.033420 -1.397129 -0.011257 -0.466091 0.136277 -0.074809
    22 -0.022360 -0.957436 0.018784 -0.422726 0.000000 0.000000
    23 -1.180681 -2.507217 -0.193859 -0.541359 0.150781 -0.464420
    24 -0.024967 -1.123934 0.017597 -1.488903 0.000000 0.000001
    25 -0.020057 -0.890968 0.010090 -1.277757 0.000000 0.000000
    26 0.583510 -1.197277 0.185379 0.316258 -1.087026 -0.583548
    27 1.535927 0.010246 0.005009 0.087412 0.030537 -1.135410
    28 1.100771 0.004527 -0.010679 -0.010778 0.012114 -0.550575
    29 0.120153 -0.050270 -0.054489 0.099906 3.110905 1.561085
    30 0.447953 -2.798986 -0.200443 -0.607948 0.000534 0.561976
    31 -0.032909 -1.480204 0.004940 -1.413633 0.000000 0.000002
    32 -0.027022 -1.076920 -0.020210 -1.481391 0.000000 0.000000
    33 -0.249534 -2.846964 -0.174213 -0.445831 0.004261 0.486845
    34 0.043235 -1.683941 0.096012 -1.469776 0.002823 -0.000167
    35 0.031729 -1.160830 0.058838 -1.698243 0.000642 0.008372
    36 -0.963866 -2.785145 -0.085350 0.057485 0.039254 0.065226
    37 0.028479 -1.403067 0.006271 -0.285462 0.000000 0.000000
    38 0.021413 -0.957781 0.020046 -0.387944 0.000000 0.000000
    39 1.164475 -2.543940 -0.170330 -0.557511 -0.035046 0.464229
    40 0.024032 -1.129042 0.017807 -1.373638 0.000000 0.000001
    41 0.014898 -0.883989 -0.019848 -1.103398 0.000000 0.000000
    42 -0.586770 -1.264477 0.200161 -0.683236 -0.842752 -2.270081
    43 1.522835 0.058681 0.016848 -0.059520 -0.122786 0.824758
    44 1.117947 0.048424 -0.005766 -0.016015 -0.019457 0.744725
    45 -0.041740 -0.115604 0.002678 0.136590 -0.022461 1.520273
    46 -1.393470 8.839177 -0.239433 1.580804 -0.005023 -1.566847
  time 13
    0 0.000000 0.675802 -4.644612 -0.174533 0.000000 0.000000
    1 12.889416 4.357489 -7.910713 0.422454 -2.264821 -0.540887
    2 0.084337 -8.502637 0.173215 0.130706 0.541459 -0.417608
    3 1.776994 -2.723174 0.873419 0.134966 0.079135 3.004383
    4 -2.536482 9.152779 0.850404 0.000000 0.000000 -1.570796
    5 -1.546743 7.218124 0.000000 0.000000 0.000000 -0.002004
    6 -0.284830 2.178886 0.000000 0.000001 0.000000 0.000000
    7 -11.021444 5.541307 -7.512013 0.393734 2.082801 0.422417
    8 -0.227284 -8.466044 0.162515 0.060019 -0.346295 0.257009
    9 -1.471282 -3.093521 0.739297 3.070393 0.002420 0.138635
    10 -2.536482 9.152779 0.850403 0.000000 0.000000 -1.570796
    11 -1.546742 7.218122 -0.000001 0.000000 0.000000 -0.002004
    12 -0.284830 2.417173 0.000000 0.000001 0.000000 0.000000
    13 1.257180 8.762585 -0.153713 -1.570562 0.002683 -1.566807
    14 -0.488518 -2.755602 -0.228260 -0.647514 0.030346 -0.257527
    15 0.039887 -1.479790 0.029854 -1.670335 0.000000 0.000001
    16 0.028786 -1.075731 -0.023109 -1.197449 0.000000 0.000000
    17 0.250027 -2.820665 -0.238396 -0.482190 0.047366 -0.266951
    18 -0.049759 -1.680544 0.100479 -1.890537 0.000000 -0.000002
    19 -0.034142 -1.148312 0.084782 -1.087281 0.000000 0.000000
    20 0.957766 -2.774125 -0.086396 -0.200214 -0.028397 -0.018724
    21 -0.033420 -1.397129 -0.011257 -0.346688 0.136277 -0.074809
    22 -0.022360 -0.957436 0.018784 -0.364582 0.000000 0.000000
    23 -1.180681 -2.507217 -0.193859 -0.541359 0.150781 -0.464420
    24 -0.024967 -1.123934 0.017597 -1.488903 0.000000 0.000001
    25 -0.020057 -0.890968 0.010090 -1.277757 0.000000 0.000000
    26 0.583510 -1.197277 0.185379 0.316258 -1.087026 -0.583548
    27 1.535927 0.010246 0.005009 0.087412 0.030537 -1.135410
    28 1.100771 0.004527 -0.010679 -0.010778 0.012114 -0.550575
    29 0.120153 -0.050270 -0.054489 0.099906 3.110905 1.561085
    30 0.447953 -2.798986 -0.200443 -0.607948 0.000534 0.561976
    31 -0.032909 -1.480204 0.004940 -1.413633 0.000000 0.000002
    32 -0.027022 -1.076920 -0.020210 -1.481391 0.000000 0.000000
    33 -0.249534 -2.846964 -0.174213 -0.445831 0.004261 0.486845
    34 0.043235 -1.683941 0.096012 -1.469776 0.002823 -0.000167
    35 0.031729 -1.160830 0.058838 -1.698243 0.000642 0.008372
    36 -0.963866 -2.785145 -0.085350 0.057485 0.039254 0.065226
    37 0.028479 -1.403067 0.006271 -0.285462 0.000000 0.000000
    38 0.021413 -0.957781 0.020046 -0.387944 0.000000 0.000000
    39 1.164475 -2.543940 -0.170330 -0.557511 -0.035046 0.464229
    40 0.024032 -1.129042 0.017807 -1.373638 0.000000 0.000001
    41 0.014898 -0.883989 -0.019848 -1.103398 0.000000 0.000000
    42 -0.586770 -1.264477 0.200161 -0.683236 -0.842752 -2.270081
    43 1.522835 0.058681 0.016848 -0.059520 -0.122786 0.824758
    44 1.117947 0.048424 -0.005766 -0.016015 -0.019457 0.744725
    45 -0.041740 -0.115604 0.002678 0.136590 -0.022461 1.520273
    46 -1.393470 8.839177 -0.239433 1.580804 -0.005023 -1.566847
  time 14
    0 0.000000 0.742210 -4.644612 -0.174533 0.000000 0.000000
    1 12.889416 4.357489 -7.910713 0.422454 -2.264821 -0.540887
    2 0.084337 -8.502637 0.173215 0.124769 0.541459 -0.427762
    3 1.776994 -2.723174 0.873419 0.134966 0.079135 3.004383
    4 -2.536482 9.152779 0.850404 0.000000 0.000000 -1.570796
    5 -1.546743 7.218124 0.000000 0.000000 0.000000 -0.002004
    6 -0.284830 2.210137 0.000000 0.000001 0.000000 0.000000
    7 -11.021444 5.474899 -7.523732 0.393734 2.082801 0.422417
    8 -0.227284 -8.466044 0.162515 0.059230 -0.338150 0.258103
    9 -1.471282 -3.093521 0.739297 3.070393 0.002504 0.139941
    10 -2.536482 9.152779 0.850403 0.000000 0.000000 -1.570796
    11 -1.546742 7.218122 -0.000001 0.000000 0.000000 -0.002004
    12 -0.284830 2.417173 0.000000 0.000001 0.000000 0.000000
    13 1.257180 8.762585 -0.153713 -1.570562 0.002683 -1.566807
    14 -0.488518 -2.755602 -0.228260 -0.647514 0.030346 -0.257527
    15 0.039887 -1.479790 0.029854 -1.670335 0.000000 0.000001
    16 0.028786 -1.075731 -0.023109 -1.197449 0.000000 0.000000
    17 0.250027 -2.820665 -0.238396 -0.482190 0.047366 -0.266951
    18 -0.049759 -1.680544 0.100479 -1.890537 0.000000 -0.000002
    19 -0.034142 -1.148312 0.084782 -1.087281 0.000000 0.000000
    20 0.957766 -2.754593 -0.090302 -0.200214 -0.028397 -0.018724
    21 -0.033420 -1.397129 -0.011257 -0.265640 0.136277 -0.074809
    22 -0.022360 -0.957436 0.018784 -0.325157 0.000000 0.000000
    23 -1.180681 -2.507217 -0.193859 -0.541359 0.150781 -0.464420
    24 -0.024967 -1.123934 0.017597 -1.488903 0.000000 0.000001
    25 -0.020057 -0.890968 0.010090 -1.277757 0.000000 0.000000
    26 0.583510 -1.197277 0.185379 0.316258 -1.087026 -0.583548
    27 1.535927 0.010246 0.005009 0.087412 0.030537 -1.135410
    28 1.100771 0.004527 -0.010679 -0.010778 0.012114 -0.550575
    29 0.120153 -0.050270 -0.054489 0.099906 3.110905 1.561085
    30 0.447953 -2.798986 -0.200443 -0.607948 0.000534 0.561976
    31 -0.032909 -1.480204 0.004940 -1.413633 0.000000 0.000002
    32 -0.027022 -1.076920 -0.020210 -1.481391 0.000000 0.000000
    33 -0.249534 -2.846964 -0.174213 -0.445831 0.004261 0.486845
    34 0.043235 -1.683941 0.096012 -1.469776 0.002823 -0.000167
    35 0.031729 -1.160830 0.058838 -1.698243 0.000642 0.008372
    36 -0.963866 -2.785145 -0.085350 0.057485 0.039254 0.065226
    37 0.028479 -1.403067 0.006271 -0.285462 0.000000 0.000000
    38 0.021413 -0.957781 0.020046 -0.387944 0.000000 0.000000
    39 1.164475 -2.543940 -0.170330 -0.557511 -0.035046 0.464229
    40 0.024032 -1.129042 0.017807 -1.373638 0.000000 0.000001
    41 0.014898 -0.883989 -0.019848 -1.103430 0.000000 0.000000
    42 -0.586770 -1.264477 0.200161 -0.683236 -0.842752 -2.270081
    43 1.522835 0.058681 0.016848 -0.059520 -0.122786 0.824758
    44 1.117947 0.048424 -0.005766 -0.016015 -0.019457 0.744725
    45 -0.041740 -0.115604 0.002678 0.136590 -0.022461 1.520273
    46 -1.393470 8.839177 -0.239433 1.580804 -0.005023 -1.566847
  time 15
    0 0.000000 0.824244 -4.644612 -0.174533 0.000000 0.000000
    1 12.889416 4.357489 -7.910713 0.422454 -2.264821 -0.540887
    2 0.084337 -8.502637 0.173215 0.122622 0.541459 -0.431462
    3 1.776994 -2.723174 0.873419 0.134966 0.079135 3.004383
    4 -2.536482 9.152779 0.850404 0.000000 0.000000 -1.570796
    5 -1.546743 7.218124 0.000000 0.000000 0.000000 -0.002004
    6 -0.284830 2.221856 0.000000 0.000001 0.000000 0.000000
    7 -11.021444 5.396772 -7.539357 0.393734 2.082801 0.422417
    8 -0.227284 -8.466044 0.162515 0.058633 -0.335016 0.258500
    9 -1.471282 -3.093521 0.739297 3.070393 0.002588 0.140984
    10 -2.536482 9.152779 0.850403 0.000000 0.000000 -1.570796
    11 -1.546742 7.218122 -0.000001 0.000000 0.000000 -0.002004
    12 -0.284830 2.417173 0.000000 0.000001 0.000000 0.000000
    13 1.257180 8.762585 -0.153713 -1.570562 0.002683 -1.566807
    14 -0.488518 -2.755602 -0.228260 -0.647514 0.030346 -0.257527
    15 0.039887 -1.479790 0.029854 -1.670335 0.000000 0.000001
    16 0.028786 -1.075731 -0.023109 -1.197449 0.000000 0.000000
    17 0.250027 -2.820665 -0.238396 -0.482190 0.047366 -0.266951
    18 -0.049759 -1.680544 0.100479 -1.890537 0.000000 -0.000002
    19 -0.034142 -1.148312 0.084782 -1.087281 0.000000 0.000000
    20 0.957766 -2.746780 -0.090302 -0.200214 -0.028397 -0.018724
    21 -0.033420 -1.397129 -0.011257 -0.235799 0.136277 -0.074809
    22 -0.022360 -0.957436 0.018784 -0.310609 0.000000 0.000000
    23 -1.180681 -2.507217 -0.193859 -0.541359 0.150781 -0.464420
    24 -0.024967 -1.123934 0.017597 -1.488903 0.000000 0.000001
    25 -0.020057 -0.890968 0.010090 -1.277757 0.000000 0.000000
    26 0.583510 -1.197277 0.185379 0.316258 -1.087026 -0.583548
    27 1.535927 0.010246 0.005009 0.087412 0.030537 -1.135410
    28 1.100771 0.004527 -0.010679 -0.010778 0.012114 -0.550575
    29 0.120153 -0.050270 -0.054489 0.099906 3.110905 1.561085
    30 0.447953 -2.798986 -0.200443 -0.607948 0.000534 0.561976
    31 -0.032909 -1.480204 0.004940 -1.413633 0.000000 0.000002
    32 -0.027022 -1.076920 -0.020210 -1.481391 0.000000 0.000000
    33 -0.249534 -2.846964 -0.174213 -0.445831 0.004261 0.486845
    34 0.043235 -1.683941 0.096012 -1.469776 0.002823 -0.000167
    35 0.031729 -1.160830 0.058838 -1.698243 0.000642 0.008372
    36 -0.963866 -2.785145 -0.085350 0.057485 0.039254 0.065226
    37 0.028479 -1.403067 0.006271 -0.285462 0.000000 0.000000
    38 0.021413 -0.957781 0.020046 -0.387944 0.000000 0.000000
    39 1.164475 -2.543940 -0.170330 -0.557511 -0.035046 0.464229
    40 0.024032 -1.129042 0.017807 -1.373638 0.000000 0.000001
    41 0.014898 -0.883989 -0.019848 -1.103398 0.000000 0.000000
    42 -0.586770 -1.264477 0.200161 -0.683236 -0.842752 -2.270081
    43 1.522835 0.058681 0.016848 -0.059520 -0.122786 0.824758
    44 1.117947 0.048424 -0.005766 -0.016015 -0.019457 0.744725
    45 -0.041740 -0.115604 0.002678 0.136590 -0.022461 1.520273
    46 -1.393470 8.839177 -0.239433 1.580804 -0.005023 -1.566847
  time 16
    0 0.000000 0.914090 -4.644612 -0.174533 0.000000 0.000000
    1 12.889416 4.357489 -7.910713 0.422454 -2.264821 -0.540887
    2 0.084337 -8.502637 0.173215 0.123948 0.541494 -0.429204
    3 1.776994 -2.723174 0.873419 0.134966 0.079135 3.004383
    4 -2.536482 9.152779 0.850404 0.000000 0.000000 -1.570796
    5 -1.546743 7.218124 0.000000 0.000000 0.000000 -0.002004
    6 -0.284830 2.221856 0.000000 0.000001 0.000000 0.000000
    7 -11.021444 5.303019 -7.554983 0.393734 2.082801 0.422417
    8 -0.227284 -8.466044 0.162515 0.058152 -0.334960 0.258368
    9 -1.471282 -3.093521 0.739297 3.070393 0.002636 0.141799
    10 -2.536482 9.152779 0.850403 0.000000 0.000000 -1.570796
    11 -1.546742 7.218122 -0.000001 0.000000 0.000000 -0.002004
    12 -0.284830 2.417173 0.000000 0.000001 0.000000 0.000000
    13 1.257180 8.762585 -0.153713 -1.570562 0.002683 -1.566807
    14 -0.488518 -2.755602 -0.228260 -0.647514 0.030346 -0.257527
    15 0.039887 -1.479790 0.029854 -1.670335 0.000000 0.000001
    16 0.028786 -1.075731 -0.023109 -1.197449 0.000000 0.000000
    17 0.250027 -2.820665 -0.238396 -0.482190 0.047366 -0.266951
    18 -0.049759 -1.680544 0.100479 -1.890537 0.000000 -0.000002
    19 -0.034142 -1.148312 0.084782 -1.087281 0.000000 0.000000
    20 0.957766 -2.746780 -0.090302 -0.200214 -0.028397 -0.018724
    21 -0.033420 -1.397129 -0.011257 -0.235799 0.136277 -0.074809
    22 -0.022360 -0.957436 0.018784 -0.310609 0.000000 0.000000
    23 -1.180681 -2.507217 -0.193859 -0.541359 0.150781 -0.464420
    24 -0.024967 -1.123934 0.017597 -1.488903 0.000000 0.000001
    25 -0.020057 -0.890968 0.010090 -1.277757 0.000000 0.000000
    26 0.583510 -1.197277 0.185379 0.316258 -1.087026 -0.583548
    27 1.535927 0.010246 0.005009 0.087412 0.030537 -1.135410
    28 1.100771 0.004527 -0.010679 -0.010778 0.012114 -0.550575
    29 0.120153 -0.050270 -0.054489 0.099906 3.110905 1.561085
    30 0.447953 -2.798986 -0.200443 -0.607948 0.000534 0.561976
    31 -0.032909 -1.480204 0.004940 -1.413633 0.000000 0.000002
    32 -0.027022 -1.076920 -0.020210 -1.481391 0.000000 0.000000
    33 -0.249534 -2.846964 -0.174213 -0.445831 0.004261 0.486845
    34 0.043235 -1.683941 0.096012 -1.469776 0.002823 -0.000167
    35 0.031729 -1.160830 0.058838 -1.698243 0.000642 0.008372
    36 -0.963866 -2.785145 -0.085350 0.057485 0.039254 0.065226
    37 0.028479 -1.403067 0.006271 -0.285462 0.000000 0.000000
    38 0.021413 -0.957781 0.020046 -0.387944 0.000000 0.000000
    39 1.164475 -2.543940 -0.170330 -0.557511 -0.035046 0.464229
    40 0.024032 -1.129042 0.017807 -1.373638 0.000000 0.000001
    41 0.014898 -0.883989 -0.019848 -1.103398 0.000000 0.000000
    42 -0.586770 -1.264477 0.200161 -0.683236 -0.842752 -2.270081
    43 1.522835 0.058681 0.016848 -0.059520 -0.122786 0.824758
    44 1.117947 0.048424 -0.005766 -0.016015 -0.019457 0.744725
    45 -0.041740 -0.115604 0.002678 0.136590 -0.022461 1.520273
    46 -1.393470 8.839177 -0.239433 1.580804 -0.005023 -1.566847
  time 17
    0 0.000000 1.015656 -4.644612 -0.174533 0.000000 0.000000
    1 12.889416 4.357489 -7.910713 0.422454 -2.264821 -0.540887
    2 0.084337 -8.502637 0.173215 0.127516 0.541635 -0.423093
    3 1.776994 -2.723174 0.873419 0.134966 0.079135 3.004383
    4 -2.536482 9.152779 0.850404 0.000000 0.000000 -1.570796
    5 -1.546743 7.218124 0.000000 0.000000 0.000000 -0.002004
    6 -0.284830 2.221856 0.000000 0.000001 0.000000 0.000000
    7 -11.021444 5.209266 -7.570608 0.393734 2.082801 0.422417
    8 -0.227284 -8.466044 0.162515 0.057652 -0.334904 0.258070
    9 -1.471282 -3.093521 0.739297 3.070405 0.002684 0.142398
    10 -2.536482 9.152779 0.850403 0.000000 0.000000 -1.570796
    11 -1.546742 7.218122 -0.000001 0.000000 0.000000 -0.002004
    12 -0.284830 2.417173 0.000000 0.000001 0.000000 0.000000
    13 1.257180 8.762585 -0.153713 -1.570562 0.002683 -1.566807
    14 -0.488518 -2.755602 -0.228260 -0.647514 0.030346 -0.257527
    15 0.039887 -1.479790 0.029854 -1.670335 0.000000 0.000001
    16 0.028786 -1.075731 -0.023109 -1.197449 0.000000 0.000000
    17 0.250027 -2.820665 -0.238396 -0.482190 0.047366 -0.266951
    18 -0.049759 -1.680544 0.100479 -1.890537 0.000000 -0.000002
    19 -0.034142 -1.148312 0.084782 -1.087313 0.000000 0.000000
    20 0.957766 -2.746780 -0.090302 -0.200214 -0.028397 -0.018724
    21 -0.033420 -1.397129 -0.011257 -0.235799 0.136277 -0.074809
    22 -0.022360 -0.957436 0.018784 -0.310609 0.000000 0.000000
    23 -1.180681 -2.507217 -0.193859 -0.541359 0.150781 -0.464420
    24 -0.024967 -1.123934 0.017597 -1.488903 0.000000 0.000001
    25 -0.020057 -0.890968 0.010090 -1.277757 0.000000 0.000000
    26 0.583510 -1.197277 0.185379 0.316258 -1.087026 -0.583548
    27 1.535927 0.010246 0.005009 0.087412 0.030537 -1.135410
    28 1.100771 0.004527 -0.010679 -0.010778 0.012114 -0.550575
    29 0.120153 -0.050270 -0.054489 0.099906 3.110905 1.561085
    30 0.447953 -2.798986 -0.200443 -0.607948 0.000534 0.561976
    31 -0.032909 -1.480204 0.004940 -1.413633 0.000000 0.000002
    32 -0.027022 -1.076920 -0.020210 -1.481391 0.000000 0.000000
    33 -0.249534 -2.846964 -0.174213 -0.445831 0.004261 0.486845
    34 0.043235 -1.683941 0.096012 -1.469776 0.002823 -0.000167
    35 0.031729 -1.160830 0.058838 -1.698243 0.000642 0.008372
    36 -0.963866 -2.785145 -0.085350 0.057485 0.039254 0.065226
    37 0.028479 -1.403067 0.006271 -0.285462 0.000000 0.000000
    38 0.021413 -0.957781 0.020046 -0.387944 0.000000 0.000000
    39 1.164475 -2.543940 -0.170330 -0.557511 -0.035046 0.464229
    40 0.024032 -1.129042 0.017807 -1.373638 0.000000 0.000001
    41 0.014898 -0.883989 -0.019848 -1.103398 0.000000 0.000000
    42 -0.586770 -1.264477 0.200161 -0.683236 -0.842752 -2.270081
    43 1.522835 0.058681 0.016848 -0.059520 -0.122786 0.824758
    44 1.117947 0.048424 -0.005766 -0.016015 -0.019457 0.744725
    45 -0.041740 -0.115604 0.002678 0.136590 -0.022461 1.520273
    46 -1.393470 8.839177 -0.239433 1.580804 -0.005023 -1.566847
  time 18
    0 0.000000 1.113315 -4.644612 -0.174533 0.000000 0.000000
    1 12.889416 4.357489 -7.910713 0.422454 -2.264821 -0.540887
    2 0.084337 -8.502637 0.173215 0.132790 0.541846 -0.414078
    3 1.776994 -2.723174 0.873419 0.134966 0.079135 3.004383
    4 -2.536482 9.152779 0.850404 0.000000 0.000000 -1.570796
    5 -1.546743 7.218124 0.000000 0.000000 0.000000 -0.002004
    6 -0.284830 2.221856 0.000000 0.000001 0.000000 0.000000
    7 -11.021444 5.111607 -7.590140 0.393734 2.082801 0.422417
    8 -0.227284 -8.466044 0.162515 0.057171 -0.334847 0.257573
    9 -1.471282 -3.093521 0.739297 3.070405 0.002707 0.142830
    10 -2.536482 9.152779 0.850403 0.000000 0.000000 -1.570796
    11 -1.546742 7.218122 -0.000001 0.000000 0.000000 -0.002004
    12 -0.284830 2.417173 0.000000 0.000001 0.000000 0.000000
    13 1.257180 8.762585 -0.153713 -1.570562 0.002683 -1.566807
    14 -0.488518 -2.755602 -0.228260 -0.647514 0.030346 -0.257527
    15 0.039887 -1.479790 0.029854 -1.670335 0.000000 0.000001
    16 0.028786 -1.075731 -0.023109 -1.197449 0.000000 0.000000
    17 0.250027 -2.820665 -0.238396 -0.482190 0.047366 -0.266951
    18 -0.049759 -1.680544 0.100479 -1.890537 0.000000 -0.000002
    19 -0.034142 -1.148312 0.084782 -1.087281 0.000000 0.000000
    20 0.957766 -2.746780 -0.090302 -0.200214 -0.028397 -0.018724
    21 -0.033420 -1.397129 -0.011257 -0.235799 0.136277 -0.074809
    22 -0.022360 -0.957436 0.018784 -0.310609 0.000000 0.000000
    23 -1.180681 -2.507217 -0.193859 -0.541359 0.150781 -0.464420
    24 -0.024967 -1.123934 0.017597 -1.488903 0.000000 0.000001
    25 -0.020057 -0.890968 0.010090 -1.277757 0.000000 0.000000
    26 0.583510 -1.197277 0.185379 0.316258 -1.087026 -0.583548
    27 1.535927 0.010246 0.005009 0.087412 0.030537 -1.135410
    28 1.100771 0.004527 -0.010679 -0.010778 0.012114 -0.550575
    29 0.120153 -0.050270 -0.054489 0.099906 3.110905 1.561085
    30 0.447953 -2.798986 -0.200443 -0.607948 0.000534 0.561976
    31 -0.032909 -1.480204 0.004940 -1.413633 0.000000 0.000002
    32 -0.027022 -1.076920 -0.020210 -1.481391 0.000000 0.000000
    33 -0.249534 -2.846964 -0.174213 -0.445831 0.004261 0.486845
    34 0.043235 -1.683941 0.096012 -1.469776 0.002823 -0.000167
    35 0.031729 -1.160830 0.058838 -1.698243 0.000642 0.008372
    36 -0.963866 -2.785145 -0.085350 0.057485 0.039254 0.065226
    37 0.028479 -1.403067 0.006271 -0.285462 0.000000 0.000000
    38 0.021413 -0.957781 0.020046 -0.387944 0.000000 0.000000
    39 1.164475 -2.543940 -0.170330 -0.557511 -0.035046 0.464229
    40 0.024032 -1.129042 0.017807 -1.373638 0.000000 0.000001
    41 0.014898 -0.883989 -0.019848 -1.103430 0.000000 0.000000
    42 -0.586770 -1.264477 0.200161 -0.683236 -0.842752 -2.270081
    43 1.522835 0.058681 0.016848 -0.059520 -0.122786 0.824758
    44 1.117947 0.048424 -0.005766 -0.016015 -0.019457 0.744725
    45 -0.041740 -0.115604 0.002678 0.136590 -0.022461 1.520273
    46 -1.393470 8.839177 -0.239433 1.580804 -0.005023 -1.566847
  time 19
    0 0.000000 1.203162 -4.644612 -0.174533 0.000000 0.000000
    1 12.889416 4.357489 -7.910713 0.422454 -2.264821 -0.540887
    2 0.084337 -8.502637 0.173215 0.139168 0.542058 -0.403147
    3 1.776994 -2.723174 0.873419 0.134966 0.079135 3.004383
    4 -2.536482 9.152779 0.850404 0.000000 0.000000 -1.570796
    5 -1.546743 7.218124 0.000000 0.000000 0.000000 -0.002004
    6 -0.284830 2.221856 0.000000 0.000001 0.000000 0.000000
    7 -11.021444 5.021760 -7.605766 0.393734 2.082801 0.422417
    8 -0.227284 -8.466044 0.162515 0.056671 -0.334810 0.256976
    9 -1.471282 -3.093521 0.739297 3.070405 0.002731 0.143093
    10 -2.536482 9.152779 0.850403 0.000000 0.000000 -1.570796
    11 -1.546742 7.218122 -0.000001 0.000000 0.000000 -0.002004
    12 -0.284830 2.417173 0.000000 0.000001 0.000000 0.000000
    13 1.257180 8.762585 -0.153713 -1.570562 0.002683 -1.566807
    14 -0.488518 -2.755602 -0.228260 -0.647514 0.030346 -0.257527
    15 0.039887 -1.479790 0.029854 -1.670335 0.000000 0.000001
    16 0.028786 -1.075731 -0.023109 -1.197449 0.000000 0.000000
    17 0.250027 -2.820665 -0.238396 -0.482190 0.047366 -0.266951
    18 -0.049759 -1.680544 0.100479 -1.890537 0.000000 -0.000002
    19 -0.034142 -1.148312 0.084782 -1.087313 0.000000 0.000000
    20 0.957766 -2.746780 -0.090302 -0.200214 -0.028397 -0.018724
    21 -0.033420 -1.397129 -0.011257 -0.235799 0.136277 -0.074809
    22 -0.022360 -0.957436 0.018784 -0.310609 0.000000 0.000000
    23 -1.180681 -2.507217 -0.193859 -0.541359 0.150781 -0.464420
    24 -0.024967 -1.123934 0.017597 -1.488903 0.000000 0.000001
    25 -0.020057 -0.890968 0.010090 -1.277757 0.000000 0.000000
    26 0.583510 -1.197277 0.185379 0.316258 -1.087026 -0.583548
    27 1.535927 0.010246 0.005009 0.087412 0.030537 -1.135410
    28 1.100771 0.004527 -0.010679 -0.010778 0.012114 -0.550575
    29 0.120153 -0.050270 -0.054489 0.099906 3.110905 1.561085
    30 0.447953 -2.798986 -0.200443 -0.607948 0.000534 0.561976
    31 -0.032909 -1.480204 0.004940 -1.413633 0.000000 0.000002
    32 -0.027022 -1.076920 -0.020210 -1.481391 0.000000 0.000000
    33 -0.249534 -2.846964 -0.174213 -0.445831 0.004261 0.486845
    34 0.043235 -1.683941 0.096012 -1.469776 0.002823 -0.000167
    35 0.031729 -1.160830 0.058838 -1.698243 0.000642 0.008372
    36 -0.963866 -2.785145 -0.085350 0.057485 0.039254 0.065226
    37 0.028479 -1.403067 0.006271 -0.285462 0.000000 0.000000
    38 0.021413 -0.957781 0.020046 -0.387944 0.000000 0.000000
    39 1.164475 -2.543940 -0.170330 -0.557511 -0.035046 0.464229
    40 0.024032 -1.129042 0.017807 -1.373638 0.000000 0.000001
    41 0.014898 -0.883989 -0.019848 -1.103398 0.000000 0.000000
    42 -0.586770 -1.264477 0.200161 -0.683236 -0.842752 -2.270081
    43 1.522835 0.058681 0.016848 -0.059520 -0.122786 0.824758
    44 1.117947 0.048424 -0.005766 -0.016015 -0.019457 0.744725
    45 -0.041740 -0.115604 0.002678 0.136590 -0.022461 1.520273
    46 -1.393470 8.839177 -0.239433 1.580804 -0.005023 -1.566847
  time 20
    0 0.000000 1.285195 -4.644612 -0.174533 0.000000 0.000000
    1 12.889416 4.357489 -7.910713 0.422454 -2.264821 -0.540887
    2 0.084337 -8.502637 0.173215 0.146147 0.542304 -0.391247
    3 1.776994 -2.723174 0.873419 0.134966 0.079135 3.004383
    4 -2.536482 9.152779 0.850404 0.000000 0.000000 -1.570796
    5 -1.546743 7.218124 0.000000 0.000000 0.000000 -0.002004
    6 -0.284830 2.221856 0.000000 0.000001 0.000000 0.000000
    7 -11.021444 4.939726 -7.617485 0.393734 2.082801 0.422417
    8 -0.227284 -8.466044 0.162515 0.056189 -0.334772 0.256247
    9 -1.471282 -3.093521 0.739297 3.070405 0.002743 0.143237
    10 -2.536482 9.152779 0.850403 0.000000 0.000000 -1.570796
    11 -1.546742 7.218122 -0.000001 0.000000 0.000000 -0.002004
    12 -0.284830 2.417173 0.000000 0.000001 0.000000 0.000000
    13 1.257180 8.762585 -0.153713 -1.570562 0.002683 -1.566807
    14 -0.488518 -2.755602 -0.228260 -0.647514 0.030346 -0.257527
    15 0.039887 -1.479790 0.029854 -1.670335 0.000000 0.000001
    16 0.028786 -1.075731 -0.023109 -1.197449 0.000000 0.000000
    17 0.250027 -2.820665 -0.238396 -0.482190 0.047366 -0.266951
    18 -0.049759 -1.680544 0.100479 -1.890537 0.000000 -0.000002
    19 -0.034142 -1.148312 0.084782 -1.087313 0.000000 0.000000
    20 0.957766 -2.746780 -0.090302 -0.200214 -0.028397 -0.018724
    21 -0.033420 -1.397129 -0.011257 -0.235799 0.136277 -0.074809
    22 -0.022360 -0.957436 0.018784 -0.310609 0.000000 0.000000
    23 -1.180681 -2.507217 -0.193859 -0.541359 0.150781 -0.464420
    24 -0.024967 -1.123934 0.017597 -1.488903 0.000000 0.000001
    25 -0.020057 -0.890968 0.010090 -1.277757 0.000000 0.000000
    26 0.583510 -1.197277 0.185379 0.316258 -1.087026 -0.583548
    27 1.535927 0.010246 0.005009 0.087412 0.030537 -1.135410
    28 1.100771 0.004527 -0.010679 -0.010778 0.012114 -0.550575
    29 0.120153 -0.050270 -0.054489 0.099906 3.110905 1.561085
    30 0.447953 -2.798986 -0.200443 -0.607948 0.000534 0.561976
    31 -0.032909 -1.480204 0.004940 -1.413633 0.000000 0.000002
    32 -0.027022 -1.076920 -0.020210 -1.481391 0.000000 0.000000
    33 -0.249534 -2.846964 -0.174213 -0.445831 0.004261 0.486845
    34 0.043235 -1.683941 0.096012 -1.469776 0.002823 -0.000167
    35 0.031729 -1.160830 0.058838 -1.698243 0.000642 0.008372
    36 -0.963866 -2.785145 -0.085350 0.057485 0.039254 0.065226
    37 0.028479 -1.403067 0.006271 -0.285462 0.000000 0.000000
    38 0.021413 -0.957781 0.020046 -0.387944 0.000000 0.000000
    39 1.164475 -2.543940 -0.170330 -0.557511 -0.035046 0.464229
    40 0.024032 -1.129042 0.017807 -1.373638 0.000000 0.000001
    41 0.014898 -0.883989 -0.019848 -1.103398 0.000000 0.000000
    42 -0.586770 -1.264477 0.200161 -0.683236 -0.842752 -2.270081
    43 1.522835 0.058681 0.016848 -0.059520 -0.122786 0.824758
    44 1.117947 0.048424 -0.005766 -0.016015 -0.019457 0.744725
    45 -0.041740 -0.115604 0.002678 0.136590 -0.022461 1.520273
    46 -1.393470 8.839177 -0.239433 1.580804 -0.005023 -1.566847
  time 21
    0 0.000000 1.351604 -4.644612 -0.174533 0.000000 0.000000
    1 12.889416 4.357489 -7.910713 0.422454 -2.264821 -0.540887
    2 0.084337 -8.502637 0.173215 0.153094 0.542586 -0.379329
    3 1.776994 -2.723174 0.873419 0.134966 0.079135 3.004383
    4 -2.536482 9.152779 0.850404 0.000000 0.000000 -1.570796
    5 -1.546743 7.218124 0.000000 0.000000 0.000000 -0.002004
    6 -0.284830 2.221856 0.000000 0.000001 0.000000 0.000000
    7 -11.021444 4.873318 -7.629204 0.393734 2.082801 0.422417
    8 -0.227284 -8.466044 0.162515 0.055728 -0.334735 0.255418
    9 -1.471282 -3.093521 0.739297 3.070405 0.002743 0.143285
    10 -2.536482 9.152779 0.850403 0.000000 0.000000 -1.570796
    11 -1.546742 7.218122 -0.000001 0.000000 0.000000 -0.002004
    12 -0.284830 2.417173 0.000000 0.000001 0.000000 0.000000
    13 1.257180 8.762585 -0.153713 -1.570562 0.002683 -1.566807
    14 -0.488518 -2.755602 -0.228260 -0.647514 0.030346 -0.257527
    15 0.039887 -1.479790 0.029854 -1.670335 0.000000 0.000001
    16 0.028786 -1.075731 -0.023109 -1.197449 0.000000 0.000000
    17 0.250027 -2.820665 -0.238396 -0.482190 0.047366 -0.266951
    18 -0.049759 -1.680544 0.100479 -1.890537 0.000000 -0.000002
    19 -0.034142 -1.148312 0.084782 -1.087313 0.000000 0.000000
    20 0.957766 -2.746780 -0.090302 -0.200214 -0.028397 -0.018724
    21 -0.033420 -1.397129 -0.011257 -0.235799 0.136277 -0.074809
    22 -0.022360 -0.957436 0.018784 -0.310609 0.000000 0.000000
    23 -1.180681 -2.507217 -0.193859 -0.541359 0.150781 -0.464420
    24 -0.024967 -1.123934 0.017597 -1.488903 0.000000 0.000001
    25 -0.020057 -0.890968 0.010090 -1.277757 0.000000 0.000000
    26 0.583510 -1.197277 0.185379 0.316258 -1.087026 -0.583548
    27 1.535927 0.010246 0.005009 0.087412 0.030537 -1.135410
    28 1.100771 0.004527 -0.010679 -0.010778 0.012114 -0.550575
    29 0.120153 -0.050270 -0.054489 0.099906 3.110905 1.561085
    30 0.447953 -2.798986 -0.200443 -0.607948 0.000534 0.561976
    31 -0.032909 -1.480204 0.004940 -1.413633 0.000000 0.000002
    32 -0.027022 -1.076920 -0.020210 -1.481391 0.000000 0.000000
    33 -0.249534 -2.846964 -0.174213 -0.445831 0.004261 0.486845
    34 0.043235 -1.683941 0.096012 -1.469776 0.002823 -0.000167
    35 0.031729 -1.160830 0.058838 -1.698243 0.000642 0.008372
    36 -0.963866 -2.785145 -0.085350 0.057485 0.039254 0.065226
    37 0.028479 -1.403067 0.006271 -0.285462 0.000000 0.000000
    38 0.021413 -0.957781 0.020046 -0.387944 0.000000 0.000000
    39 1.164475 -2.543940 -0.170330 -0.557511 -0.035046 0.464229
    40 0.024032 -1.129042 0.017807 -1.373638 0.000000 0.000001
    41 0.014898 -0.883989 -0.019848 -1.103398 0.000000 0.000000
    42 -0.586770 -1.264477 0.200161 -0.683236 -0.842752 -2.270081
    43 1.522835 0.058681 0.016848 -0.059520 -0.122786 0.824758
    44 1.117947 0.048424 -0.005766 -0.016015 -0.019457 0.744725
    45 -0.041740 -0.115604 0.002678 0.136590 -0.022461 1.520273
    46 -1.393470 8.839177 -0.239433 1.580804 -0.005023 -1.566847
  time 22
    0 0.000000 1.394574 -4.644612 -0.174533 0.000000 0.000000
    1 12.889416 4.357489 -7.910713 0.422454 -2.264821 -0.540887
    2 0.084337 -8.502637 0.173215 0.159505 0.542797 -0.368398
    3 1.776994 -2.723174 0.873419 0.134966 0.079135 3.004383
    4 -2.536482 9.152779 0.850404 0.000000 0.000000 -1.570796
    5 -1.546743 7.218124 0.000000 0.000000 0.000000 -0.002004
    6 -0.284830 2.221856 0.000000 0.000001 0.000000 0.000000
    7 -11.021444 4.834254 -7.637017 0.393734 2.082801 0.422417
    8 -0.227284 -8.466044 0.162515 0.055285 -0.334697 0.254557
    9 -1.471282 -3.093521 0.739297 3.070405 0.002719 0.142997
    10 -2.536482 9.152779 0.850403 0.000000 0.000000 -1.570796
    11 -1.546742 7.218122 -0.000001 0.000000 0.000000 -0.002004
    12 -0.284830 2.417173 0.000000 0.000001 0.000000 0.000000
    13 1.257180 8.762585 -0.153713 -1.570562 0.002683 -1.566807
    14 -0.488518 -2.755602 -0.228260 -0.647514 0.030346 -0.257527
    15 0.039887 -1.479790 0.029854 -1.670335 0.000000 0.000001
    16 0.028786 -1.075731 -0.023109 -1.197449 0.000000 0.000000
    17 0.250027 -2.820665 -0.238396 -0.482190 0.047366 -0.266951
    18 -0.049759 -1.680544 0.100479 -1.890537 0.000000 -0.000002
    19 -0.034142 -1.148312 0.084782 -1.087281 0.000000 0.000000
    20 0.957766 -2.746780 -0.090302 -0.200214 -0.028397 -0.018724
    21 -0.033420 -1.397129 -0.011257 -0.235799 0.136277 -0.074809
    22 -0.022360 -0.957436 0.018784 -0.310609 0.000000 0.000000
    23 -1.180681 -2.507217 -0.193859 -0.541359 0.150781 -0.464420
    24 -0.024967 -1.123934 0.017597 -1.488903 0.000000 0.000001
    25 -0.020057 -0.890968 0.010090 -1.277757 0.000000 0.000000
    26 0.583510 -1.197277 0.185379 0.316258 -1.087026 -0.583548
    27 1.535927 0.010246 0.005009 0.087412 0.030537 -1.135410
    28 1.100771 0.004527 -0.010679 -0.010778 0.012114 -0.550575
    29 0.120153 -0.050270 -0.054489 0.099906 3.110905 1.561085
    30 0.447953 -2.798986 -0.200443 -0.607948 0.000534 0.561976
    31 -0.032909 -1.480204 0.004940 -1.413633 0.000000 0.000002
    32 -0.027022 -1.076920 -0.020210 -1.481391 0.000000 0.000000
    33 -0.249534 -2.846964 -0.174213 -0.445831 0.004261 0.486845
    34 0.043235 -1.683941 0.096012 -1.469776 0.002823 -0.000167
    35 0.031729 -1.160830 0.058838 -1.698243 0.000642 0.008372
    36 -0.963866 -2.785145 -0.085350 0.057485 0.039254 0.065226
    37 0.028479 -1.403067 0.006271 -0.285462 0.000000 0.000000
    38 0.021413 -0.957781 0.020046 -0.387944 0.000000 0.000000
    39 1.164475 -2.543940 -0.170330 -0.557511 -0.035046 0.464229
    40 0.024032 -1.129042 0.017807 -1.373638 0.000000 0.000001
    41 0.014898 -0.883989 -0.019848 -1.103430 0.000000 0.000000
    42 -0.586770 -1.264477 0.200161 -0.683236 -0.842752 -2.270081
    43 1.522835 0.058681 0.016848 -0.059520 -0.122786 0.824758
    44 1.117947 0.048424 -0.005766 -0.016015 -0.019457 0.744725
    45 -0.041740 -0.115604 0.002678 0.136590 -0.022461 1.520273
    46 -1.393470 8.839177 -0.239433 1.580804 -0.005023 -1.566847
  time 23
    0 0.000000 1.410199 -4.644612 -0.174533 0.000000 0.000000
    1 12.889416 4.357489 -7.910713 0.422454 -2.264821 -0.540887
    2 0.084337 -8.502637 0.173215 0.164778 0.543008 -0.359383
    3 1.776994 -2.723174 0.873419 0.134966 0.079135 3.004383
    4 -2.536482 9.152779 0.850404 0.000000 0.000000 -1.570796
    5 -1.546743 7.218124 0.000000 0.000000 0.000000 -0.002004
    6 -0.284830 2.221856 0.000000 0.000001 0.000000 0.000000
    7 -11.021444 4.818629 -7.640923 0.393734 2.082801 0.422417
    8 -0.227284 -8.466044 0.162515 0.054862 -0.334679 0.253695
    9 -1.471282 -3.093521 0.739297 3.070405 0.002672 0.142254
    10 -2.536482 9.152779 0.850403 0.000000 0.000000 -1.570796
    11 -1.546742 7.218122 -0.000001 0.000000 0.000000 -0.002004
    12 -0.284830 2.417173 0.000000 0.000001 0.000000 0.000000
    13 1.257180 8.762585 -0.153713 -1.570562 0.002683 -1.566807
    14 -0.488518 -2.755602 -0.228260 -0.647514 0.030346 -0.257527
    15 0.039887 -1.479790 0.029854 -1.670335 0.000000 0.000001
    16 0.028786 -1.075731 -0.023109 -1.197449 0.000000 0.000000
    17 0.250027 -2.820665 -0.238396 -0.482190 0.047366 -0.266951
    18 -0.049759 -1.680544 0.100479 -1.890537 0.000000 -0.000002
    19 -0.034142 -1.148312 0.084782 -1.087281 0.000000 0.000000
    20 0.957766 -2.746780 -0.090302 -0.200214 -0.028397 -0.018724
    21 -0.033420 -1.397129 -0.011257 -0.235799 0.136277 -0.074809
    22 -0.022360 -0.957436 0.018784 -0.310609 0.000000 0.000000
    23 -1.180681 -2.507217 -0.193859 -0.541359 0.150781 -0.464420
    24 -0.024967 -1.123934 0.017597 -1.488903 0.000000 0.000001
    25 -0.020057 -0.890968 0.010090 -1.277757 0.000000 0.000000
    26 0.583510 -1.197277 0.185379 0.316258 -1.087026 -0.583548
    27 1.535927 0.010246 0.005009 0.087412 0.030537 -1.135410
    28 1.100771 0.004527 -0.010679 -0.010778 0.012114 -0.550575
    29 0.120153 -0.050270 -0.054489 0.099906 3.110905 1.561085
    30 0.447953 -2.798986 -0.200443 -0.607948 0.000534 0.561976
    31 -0.032909 -1.480204 0.004940 -1.413633 0.000000 0.000002
    32 -0.027022 -1.076920 -0.020210 -1.481391 0.000000 0.000000
    33 -0.249534 -2.846964 -0.174213 -0.445831 0.004261 0.486845
    34 0.043235 -1.683941 0.096012 -1.469776 0.002823 -0.000167
    35 0.031729 -1.160830 0.058838 -1.698243 0.000642 0.008372
    36 -0.963866 -2.785145 -0.085350 0.057485 0.039254 0.065226
    37 0.028479 -1.403067 0.006271 -0.285462 0.000000 0.000000
    38 0.021413 -0.957781 0.020046 -0.387944 0.000000 0.000000
    39 1.164475 -2.543940 -0.170330 -0.557511 -0.035046 0.464229
    40 0.024032 -1.129042 0.017807 -1.373638 0.000000 0.000001
    41 0.014898 -0.883989 -0.019848 -1.103398 0.000000 0.000000
    42 -0.586770 -1.264477 0.200161 -0.683236 -0.842752 -2.270081
    43 1.522835 0.058681 0.016848 -0.059520 -0.122786 0.824758
    44 1.117947 0.048424 -0.005766 -0.016015 -0.019457 0.744725
    45 -0.041740 -0.115604 0.002678 0.136590 -0.022461 1.520273
    46 -1.393470 8.839177 -0.239433 1.580804 -0.005023 -1.566847
  time 24
    0 0.000000 1.410199 -4.644612 -0.174533 0.000000 0.000000
    1 12.889416 4.357489 -7.910713 0.422454 -2.264821 -0.540887
    2 0.084337 -8.502637 0.173215 0.168346 0.543114 -0.353272
    3 1.776994 -2.723174 0.873419 0.134966 0.079135 3.004383
    4 -2.536482 9.152779 0.850404 0.000000 0.000000 -1.570796
    5 -1.546743 7.218124 0.000000 0.000000 0.000000 -0.002004
    6 -0.284830 2.221856 0.000000 0.000001 0.000000 0.000000
    7 -11.021444 4.818629 -7.640923 0.393734 2.082801 0.422417
    8 -0.227284 -8.466044 0.162515 0.054477 -0.334660 0.252834
    9 -1.471282 -3.093521 0.739297 3.070393 0.002600 0.141164
    10 -2.536482 9.152779 0.850403 0.000000 0.000000 -1.570796
    11 -1.546742 7.218122 -0.000001 0.000000 0.000000 -0.002004
    12 -0.284830 2.417173 0.000000 0.000001 0.000000 0.000000
    13 1.257180 8.762585 -0.153713 -1.570562 0.002683 -1.566807
    14 -0.488518 -2.755602 -0.228260 -0.647514 0.030346 -0.257527
    15 0.039887 -1.479790 0.029854 -1.670335 0.000000 0.000001
    16 0.028786 -1.075731 -0.023109 -1.197449 0.000000 0.000000
    17 0.250027 -2.820665 -0.238396 -0.482190 0.047366 -0.266951
    18 -0.049759 -1.680544 0.100479 -1.890537 0.000000 -0.000002
    19 -0.034142 -1.148312 0.084782 -1.087281 0.000000 0.000000
    20 0.957766 -2.746780 -0.090302 -0.200214 -0.028397 -0.018724
    21 -0.033420 -1.397129 -0.011257 -0.235799 0.136277 -0.074809
    22 -0.022360 -0.957436 0.018784 -0.310609 0.000000 0.000000
    23 -1.180681 -2.507217 -0.193859 -0.541359 0.150781 -0.464420
    24 -0.024967 -1.123934 0.017597 -1.488903 0.000000 0.000001
    25 -0.020057 -0.890968 0.010090 -1.277757 0.000000 0.000000
    26 0.583510 -1.197277 0.185379 0.316258 -1.087026 -0.583548
    27 1.535927 0.010246 0.005009 0.087412 0.030537 -1.135410
    28 1.100771 0.004527 -0.010679 -0.010778 0.012114 -0.550575
    29 0.120153 -0.050270 -0.054489 0.099906 3.110905 1.561085
    30 0.447953 -2.798986 -0.200443 -0.607948 0.000534 0.561976
    31 -0.032909 -1.480204 0.004940 -1.413633 0.000000 0.000002
    32 -0.027022 -1.076920 -0.020210 -1.481391 0.000000 0.000000
    33 -0.249534 -2.846964 -0.174213 -0.445831 0.004261 0.486845
    34 0.043235 -1.683941 0.096012 -1.469776 0.002823 -0.000167
    35 0.031729 -1.160830 0.058838 -1.698243 0.000642 0.008372
    36 -0.963866 -2.785145 -0.085350 0.057485 0.039254 0.065226
    37 0.028479 -1.403067 0.006271 -0.285462 0.000000 0.000000
    38 0.021413 -0.957781 0.020046 -0.387944 0.000000 0.000000
    39 1.164475 -2.543940 -0.170330 -0.557511 -0.035046 0.464229
    40 0.024032 -1.129042 0.017807 -1.373638 0.000000 0.000001
    41 0.014898 -0.883989 -0.019848 -1.103398 0.000000 0.000000
    42 -0.586770 -1.264477 0.200161 -0.683236 -0.842752 -2.270081
    43 1.522835 0.058681 0.016848 -0.059520 -0.122786 0.824758
    44 1.117947 0.048424 -0.005766 -0.016015 -0.019457 0.744725
    45 -0.041740 -0.115604 0.002678 0.136590 -0.022461 1.520273
    46 -1.393470 8.839177 -0.239433 1.580804 -0.005023 -1.566847
  time 25
    0 0.000000 1.410199 -4.644612 -0.174533 0.000000 0.000000
    1 12.889416 4.357489 -7.910713 0.422454 -2.264821 -0.540887
    2 0.084337 -8.502637 0.173215 0.169673 0.543185 -0.351014
    3 1.776994 -2.723174 0.873419 0.134966 0.079135 3.004383
    4 -2.536482 9.152779 0.850404 0.000000 0.000000 -1.570796
    5 -1.546743 7.218124 0.000000 0.000000 0.000000 -0.002004
    6 -0.284830 2.221856 0.000000 0.000001 0.000000 0.000000
    7 -11.021444 4.818629 -7.640923 0.393734 2.082801 0.422417
    8 -0.227284 -8.466044 0.162515 0.054150 -0.334641 0.252038
    9 -1.471282 -3.093521 0.739297 3.070393 0.002504 0.139881
    10 -2.536482 9.152779 0.850403 0.000000 0.000000 -1.570796
    11 -1.546742 7.218122 -0.000001 0.000000 0.000000 -0.002004
    12 -0.284830 2.417173 0.000000 0.000001 0.000000 0.000000
    13 1.257180 8.762585 -0.153713 -1.570562 0.002683 -1.566807
    14 -0.488518 -2.755602 -0.228260 -0.647514 0.030346 -0.257527
    15 0.039887 -1.479790 0.029854 -1.670335 0.000000 0.000001
    16 0.028786 -1.075731 -0.023109 -1.197449 0.000000 0.000000
    17 0.250027 -2.820665 -0.238396 -0.482190 0.047366 -0.266951
    18 -0.049759 -1.680544 0.100479 -1.890537 0.000000 -0.000002
    19 -0.034142 -1.148312 0.084782 -1.087281 0.000000 0.000000
    20 0.957766 -2.746780 -0.090302 -0.200214 -0.028397 -0.018724
    21 -0.033420 -1.397129 -0.011257 -0.235799 0.136277 -0.074809
    22 -0.022360 -0.957436 0.018784 -0.310609 0.000000 0.000000
    23 -1.180681 -2.507217 -0.193859 -0.541359 0.150781 -0.464420
    24 -0.024967 -1.123934 0.017597 -1.488903 0.000000 0.000001
    25 -0.020057 -0.890968 0.010090 -1.277757 0.000000 0.000000
    26 0.583510 -1.197277 0.185379 0.316258 -1.087026 -0.583548
    27 1.535927 0.010246 0.005009 0.087412 0.030537 -1.135410
    28 1.100771 0.004527 -0.010679 -0.010778 0.012114 -0.550575
    29 0.120153 -0.050270 -0.054489 0.099906 3.110905 1.561085
    30 0.447953 -2.798986 -0.200443 -0.607948 0.000534 0.561976
    31 -0.032909 -1.480204 0.004940 -1.413633 0.000000 0.000002
    32 -0.027022 -1.076920 -0.020210 -1.481391 0.000000 0.000000
    33 -0.249534 -2.846964 -0.174213 -0.445831 0.004261 0.486845
    34 0.043235 -1.683941 0.096012 -1.469776 0.002823 -0.000167
    35 0.031729 -1.160830 0.058838 -1.698243 0.000642 0.008372
    36 -0.963866 -2.785145 -0.085350 0.057485 0.039254 0.065226
    37 0.028479 -1.403067 0.006271 -0.285462 0.000000 0.000000
    38 0.021413 -0.957781 0.020046 -0.387944 0.000000 0.000000
    39 1.164475 -2.543940 -0.170330 -0.557511 -0.035046 0.464229
    40 0.024032 -1.129042 0.017807 -1.373638 0.000000 0.000001
    41 0.014898 -0.883989 -0.019848 -1.103398 0.000000 0.000000
    42 -0.586770 -1.264477 0.200161 -0.683236 -0.842752 -2.270081
    43 1.522835 0.058681 0.016848 -0.059520 -0.122786 0.824758
    44 1.117947 0.048424 -0.005766 -0.016015 -0.019457 0.744725
    45 -0.041740 -0.115604 0.002678 0.136590 -0.022461 1.520273
    46 -1.393470 8.839177 -0.239433 1.580804 -0.005023 -1.566847
  time 26
    0 0.000000 1.410199 -4.644612 -0.174533 0.000000 0.000000
    1 12.889416 4.357489 -7.910713 0.422454 -2.264821 -0.540887
    2 0.084337 -8.502637 0.173215 0.169104 0.543185 -0.351943
    3 1.776994 -2.723174 0.873419 0.134966 0.079135 3.004383
    4 -2.536482 9.152779 0.850404 0.000000 0.000000 -1.570796
    5 -1.546743 7.218124 0.000000 0.000000 0.000000 -0.002004
    6 -0.284830 2.221856 0.000000 0.000001 0.000000 0.000000
    7 -11.021444 4.818629 -7.640923 0.393734 2.082801 0.422417
    8 -0.227284 -8.466044 0.162515 0.053861 -0.334622 0.251309
    9 -1.471282 -3.093521 0.739297 3.070393 0.002408 0.138527
    10 -2.536482 9.152779 0.850403 0.000000 0.000000 -1.570796
    11 -1.546742 7.218122 -0.000001 0.000000 0.000000 -0.002004
    12 -0.284830 2.417173 0.000000 0.000001 0.000000 0.000000
    13 1.257180 8.762585 -0.153713 -1.570562 0.002683 -1.566807
    14 -0.488518 -2.755602 -0.228260 -0.647514 0.030346 -0.257527
    15 0.039887 -1.479790 0.029854 -1.670335 0.000000 0.000001
    16 0.028786 -1.075731 -0.023109 -1.197449 0.000000 0.000000
    17 0.250027 -2.820665 -0.238396 -0.482190 0.047366 -0.266951
    18 -0.049759 -1.680544 0.100479 -1.890537 0.000000 -0.000002
    19 -0.034142 -1.148312 0.084782 -1.087281 0.000000 0.000000
    20 0.957766 -2.746780 -0.090302 -0.200214 -0.028397 -0.018724
    21 -0.033420 -1.397129 -0.011257 -0.235799 0.136277 -0.074809
    22 -0.022360 -0.957436 0.018784 -0.310609 0.000000 0.000000
    23 -1.180681 -2.507217 -0.193859 -0.541359 0.150781 -0.464420
    24 -0.024967 -1.123934 0.017597 -1.488903 0.000000 0.000001
    25 -0.020057 -0.890968 0.010090 -1.277757 0.000000 0.000000
    26 0.583510 -1.197277 0.185379 0.316258 -1.087026 -0.583548
    27 1.535927 0.010246 0.005009 0.087412 0.030537 -1.135410
    28 1.100771 0.004527 -0.010679 -0.010778 0.012114 -0.550575
    29 0.120153 -0.050270 -0.054489 0.099906 3.110905 1.561085
    30 0.447953 -2.798986 -0.200443 -0.607948 0.000534 0.561976
    31 -0.032909 -1.480204 0.004940 -1.413633 0.000000 0.000002
    32 -0.027022 -1.076920 -0.020210 -1.481391 0.000000 0.000000
    33 -0.249534 -2.846964 -0.174213 -0.445831 0.004261 0.486845
    34 0.043235 -1.683941 0.096012 -1.469776 0.002823 -0.000167
    35 0.031729 -1.160830 0.058838 -1.698243 0.000642 0.008372
    36 -0.963866 -2.785145 -0.085350 0.057485 0.039254 0.065226
    37 0.028479 -1.403067 0.006271 -0.285462 0.000000 0.000000
    38 0.021413 -0.957781 0.020046 -0.387944 0.000000 0.000000
    39 1.164475 -2.543940 -0.170330 -0.557511 -0.035046 0.464229
    40 0.024032 -1.129042 0.017807 -1.373638 0.000000 0.000001
    41 0.014898 -0.883989 -0.019848 -1.103430 0.000000 0.000000
    42 -0.586770 -1.264477 0.200161 -0.683236 -0.842752 -2.270081
    43 1.522835 0.058681 0.016848 -0.059520 -0.122786 0.824758
    44 1.117947 0.048424 -0.005766 -0.016015 -0.019457 0.744725
    45 -0.041740 -0.115604 0.002678 0.136590 -0.022461 1.520273
    46 -1.393470 8.839177 -0.239433 1.580804 -0.005023 -1.566847
  time 27
    0 0.000000 1.410199 -4.644612 -0.174533 0.000000 0.000000
    1 12.889416 4.357489 -7.910713 0.422454 -2.264821 -0.540887
    2 0.084337 -8.502637 0.173215 0.167809 0.543149 -0.354164
    3 1.776994 -2.723174 0.873419 0.134966 0.079135 3.004383
    4 -2.536482 9.152779 0.850404 0.000000 0.000000 -1.570796
    5 -1.546743 7.218124 0.000000 0.000000 0.000000 -0.002004
    6 -0.284830 2.221856 0.000000 0.000001 0.000000 0.000000
    7 -11.021444 4.818629 -7.640923 0.393734 2.082801 0.422417
    8 -0.227284 -8.466044 0.162515 0.053611 -0.334603 0.250679
    9 -1.471282 -3.093521 0.739297 3.070393 0.002312 0.137245
    10 -2.536482 9.152779 0.850403 0.000000 0.000000 -1.570796
    11 -1.546742 7.218122 -0.000001 0.000000 0.000000 -0.002004
    12 -0.284830 2.417173 0.000000 0.000001 0.000000 0.000000
    13 1.257180 8.762585 -0.153713 -1.570562 0.002683 -1.566807
    14 -0.488518 -2.755602 -0.228260 -0.647514 0.030346 -0.257527
    15 0.039887 -1.479790 0.029854 -1.670335 0.000000 0.000001
    16 0.028786 -1.075731 -0.023109 -1.197449 0.000000 0.000000
    17 0.250027 -2.820665 -0.238396 -0.482190 0.047366 -0.266951
    18 -0.049759 -1.680544 0.100479 -1.890537 0.000000 -0.000002
    19 -0.034142 -1.148312 0.084782 -1.087281 0.000000 0.000000
    20 0.957766 -2.746780 -0.090302 -0.200214 -0.028397 -0.018724
    21 -0.033420 -1.397129 -0.011257 -0.235799 0.136277 -0.074809
    22 -0.022360 -0.957436 0.018784 -0.310609 0.000000 0.000000
    23 -1.180681 -2.507217 -0.193859 -0.541359 0.150781 -0.464420
    24 -0.024967 -1.123934 0.017597 -1.488903 0.000000 0.000001
    25 -0.020057 -0.890968 0.010090 -1.277757 0.000000 0.000000
    26 0.583510 -1.197277 0.185379 0.316258 -1.087026 -0.583548
    27 1.535927 0.010246 0.005009 0.087412 0.030537 -1.135410
    28 1.100771 0.004527 -0.010679 -0.010778 0.012114 -0.550575
    29 0.120153 -0.050270 -0.054489 0.099906 3.110905 1.561085
    30 0.447953 -2.798986 -0.200443 -0.607948 0.000534 0.561976
    31 -0.032909 -1.480204 0.004940 -1.413633 0.000000 0.000002
    32 -0.027022 -1.076920 -0.020210 -1.481391 0.000000 0.000000
    33 -0.249534 -2.846964 -0.174213 -0.445831 0.004261 0.486845
    34 0.043235 -1.683941 0.096012 -1.469776 0.002823 -0.000167
    35 0.031729 -1.160830 0.058838 -1.698243 0.000642 0.008372
    36 -0.963866 -2.785145 -0.085350 0.057485 0.039254 0.065226
    37 0.028479 -1.403067 0.006271 -0.285462 0.000000 0.000000
    38 0.021413 -0.957781 0.020046 -0.387944 0.000000 0.000000
    39 1.164475 -2.543940 -0.170330 -0.557511 -0.035046 0.464229
    40 0.024032 -1.129042 0.017807 -1.373638 0.000000 0.000001
    41 0.014898 -0.883989 -0.019848 -1.103430 0.000000 0.000000
    42 -0.586770 -1.264477 0.200161 -0.683236 -0.842752 -2.270081
    43 1.522835 0.058681 0.016848 -0.059520 -0.122786 0.824758
    44 1.117947 0.048424 -0.005766 -0.016015 -0.019457 0.744725
    45 -0.041740 -0.115604 0.002678 0.136590 -0.022461 1.520273
    46 -1.393470 8.839177 -0.239433 1.580804 -0.005023 -1.566847
  time 28
    0 0.000000 1.410199 -4.644612 -0.174533 0.000000 0.000000
    1 12.889416 4.357489 -7.910713 0.422454 -2.264821 -0.540887
    2 0.084337 -8.502637 0.173215 0.166262 0.543149 -0.356821
    3 1.776994 -2.723174 0.873419 0.134966 0.079135 3.004383
    4 -2.536482 9.152779 0.850404 0.000000 0.000000 -1.570796
    5 -1.546743 7.218124 0.000000 0.000000 0.000000 -0.002004
    6 -0.284830 2.221856 0.000000 0.000001 0.000000 0.000000
    7 -11.021444 4.818629 -7.640923 0.393734 2.082801 0.422417
    8 -0.227284 -8.466044 0.162515 0.053438 -0.334603 0.250215
    9 -1.471282 -3.093521 0.739297 3.070381 0.002240 0.136166
    10 -2.536482 9.152779 0.850403 0.000000 0.000000 -1.570796
    11 -1.546742 7.218122 -0.000001 0.000000 0.000000 -0.002004
    12 -0.284830 2.417173 0.000000 0.000001 0.000000 0.000000
    13 1.257180 8.762585 -0.153713 -1.570562 0.002683 -1.566807
    14 -0.488518 -2.755602 -0.228260 -0.647514 0.030346 -0.257527
    15 0.039887 -1.479790 0.029854 -1.670335 0.000000 0.000001
    16 0.028786 -1.075731 -0.023109 -1.197449 0.000000 0.000000
    17 0.250027 -2.820665 -0.238396 -0.482190 0.047366 -0.266951
    18 -0.049759 -1.680544 0.100479 -1.890537 0.000000 -0.000002
    19 -0.034142 -1.148312 0.084782 -1.087281 0.000000 0.000000
    20 0.957766 -2.746780 -0.090302 -0.200214 -0.028397 -0.018724
    21 -0.033420 -1.397129 -0.011257 -0.235799 0.136277 -0.074809
    22 -0.022360 -0.957436 0.018784 -0.310609 0.000000 0.000000
    23 -1.180681 -2.507217 -0.193859 -0.541359 0.150781 -0.464420
    24 -0.024967 -1.123934 0.017597 -1.488903 0.000000 0.000001
    25 -0.020057 -0.890968 0.010090 -1.277757 0.000000 0.000000
    26 0.583510 -1.197277 0.185379 0.316258 -1.087026 -0.583548
    27 1.535927 0.010246 0.005009 0.087412 0.030537 -1.135410
    28 1.100771 0.004527 -0.010679 -0.010778 0.012114 -0.550575
    29 0.120153 -0.050270 -0.054489 0.099906 3.110905 1.561085
    30 0.447953 -2.798986 -0.200443 -0.607948 0.000534 0.561976
    31 -0.032909 -1.480204 0.004940 -1.413633 0.000000 0.000002
    32 -0.027022 -1.076920 -0.020210 -1.481391 0.000000 0.000000
    33 -0.249534 -2.846964 -0.174213 -0.445831 0.004261 0.486845
    34 0.043235 -1.683941 0.096012 -1.469776 0.002823 -0.000167
    35 0.031729 -1.160830 0.058838 -1.698243 0.000642 0.008372
    36 -0.963866 -2.785145 -0.085350 0.057485 0.039254 0.065226
    37 0.028479 -1.403067 0.006271 -0.285462 0.000000 0.000000
    38 0.021413 -0.957781 0.020046 -0.387944 0.000000 0.000000
    39 1.164475 -2.543940 -0.170330 -0.557511 -0.035046 0.464229
    40 0.024032 -1.129042 0.017807 -1.373638 0.000000 0.000001
    41 0.014898 -0.883989 -0.019848 -1.103398 0.000000 0.000000
    42 -0.586770 -1.264477 0.200161 -0.683236 -0.842752 -2.270081
    43 1.522835 0.058681 0.016848 -0.059520 -0.122786 0.824758
    44 1.117947 0.048424 -0.005766 -0.016015 -0.019457 0.744725
    45 -0.041740 -0.115604 0.002678 0.136590 -0.022461 1.520273
    46 -1.393470 8.839177 -0.239433 1.580804 -0.005023 -1.566847
  time 29
    0 0.000000 1.410199 -4.644612 -0.174533 0.000000 0.000000
    1 12.889416 4.357489 -7.910713 0.422454 -2.264821 -0.540887
    2 0.084337 -8.502637 0.173215 0.164967 0.543149 -0.359041
    3 1.776994 -2.723174 0.873419 0.134966 0.079135 3.004383
    4 -2.536482 9.152779 0.850404 0.000000 0.000000 -1.570796
    5 -1.546743 7.218124 0.000000 0.000000 0.000000 -0.002004
    6 -0.284830 2.221856 0.000000 0.000001 0.000000 0.000000
    7 -11.021444 4.818629 -7.640923 0.393734 2.082801 0.422417
    8 -0.227284 -8.466044 0.162515 0.053322 -0.334585 0.249884
    9 -1.471282 -3.093521 0.739297 3.070381 0.002180 0.135411
    10 -2.536482 9.152779 0.850403 0.000000 0.000000 -1.570796
    11 -1.546742 7.218122 -0.000001 0.000000 0.000000 -0.002004
    12 -0.284830 2.417173 0.000000 0.000001 0.000000 0.000000
    13 1.257180 8.762585 -0.153713 -1.570562 0.002683 -1.566807
    14 -0.488518 -2.755602 -0.228260 -0.647514 0.030346 -0.257527
    15 0.039887 -1.479790 0.029854 -1.670335 0.000000 0.000001
    16 0.028786 -1.075731 -0.023109 -1.197449 0.000000 0.000000
    17 0.250027 -2.820665 -0.238396 -0.482190 0.047366 -0.266951
    18 -0.049759 -1.680544 0.100479 -1.890537 0.000000 -0.000002
    19 -0.034142 -1.148312 0.084782 -1.087281 0.000000 0.000000
    20 0.957766 -2.746780 -0.090302 -0.200214 -0.028397 -0.018724
    21 -0.033420 -1.397129 -0.011257 -0.235799 0.136277 -0.074809
    22 -0.022360 -0.957436 0.018784 -0.310609 0.000000 0.000000
    23 -1.180681 -2.507217 -0.193859 -0.541359 0.150781 -0.464420
    24 -0.024967 -1.123934 0.017597 -1.488903 0.000000 0.000001
    25 -0.020057 -0.890968 0.010090 -1.277757 0.000000 0.000000
    26 0.583510 -1.197277 0.185379 0.316258 -1.087026 -0.583548
    27 1.535927 0.010246 0.005009 0.087412 0.030537 -1.135410
    28 1.100771 0.004527 -0.010679 -0.010778 0.012114 -0.550575
    29 0.120153 -0.050270 -0.054489 0.099906 3.110905 1.561085
    30 0.447953 -2.798986 -0.200443 -0.607948 0.000534 0.561976
    31 -0.032909 -1.480204 0.004940 -1.413633 0.000000 0.000002
    32 -0.027022 -1.076920 -0.020210 -1.481391 0.000000 0.000000
    33 -0.249534 -2.846964 -0.174213 -0.445831 0.004261 0.486845
    34 0.043235 -1.683941 0.096012 -1.469776 0.002823 -0.000167
    35 0.031729 -1.160830 0.058838 -1.698243 0.000642 0.008372
    36 -0.963866 -2.785145 -0.085350 0.057485 0.039254 0.065226
    37 0.028479 -1.403067 0.006271 -0.285462 0.000000 0.000000
    38 0.021413 -0.957781 0.020046 -0.387944 0.000000 0.000000
    39 1.164475 -2.543940 -0.170330 -0.557511 -0.035046 0.464229
    40 0.024032 -1.129042 0.017807 -1.373638 0.000000 0.000001
    41 0.014898 -0.883989 -0.019848 -1.103398 0.000000 0.000000
    42 -0.586770 -1.264477 0.200161 -0.683236 -0.842752 -2.270081
    43 1.522835 0.058681 0.016848 -0.059520 -0.122786 0.824758
    44 1.117947 0.048424 -0.005766 -0.016015 -0.019457 0.744725
    45 -0.041740 -0.115604 0.002678 0.136590 -0.022461 1.520273
    46 -1.393470 8.839177 -0.239433 1.580804 -0.005023 -1.566847
  time 30
    0 0.000000 1.410199 -4.644612 -0.174533 0.000000 0.000000
    1 12.889416 4.357489 -7.910713 0.422454 -2.264821 -0.540887
    2 0.084337 -8.502637 0.173215 0.164431 0.543149 -0.359971
    3 1.776994 -2.723174 0.873419 0.134966 0.079135 3.004383
    4 -2.536482 9.152779 0.850404 0.000000 0.000000 -1.570796
    5 -1.546743 7.218124 0.000000 0.000000 0.000000 -0.002004
    6 -0.284830 2.221856 0.000000 0.000001 0.000000 0.000000
    7 -11.021444 4.818629 -7.640923 0.393734 2.082801 0.422417
    8 -0.227284 -8.466044 0.162515 0.053284 -0.334585 0.249785
    9 -1.471282 -3.093521 0.739297 3.070381 0.002168 0.135135
    10 -2.536482 9.152779 0.850403 0.000000 0.000000 -1.570796
    11 -1.546742 7.218122 -0.000001 0.000000 0.000000 -0.002004
    12 -0.284830 2.417173 0.000000 0.000001 0.000000 0.000000
    13 1.257180 8.762585 -0.153713 -1.570562 0.002683 -1.566807
    14 -0.488518 -2.755602 -0.228260 -0.647514 0.030346 -0.257527
    15 0.039887 -1.479790 0.029854 -1.670335 0.000000 0.000001
    16 0.028786 -1.075731 -0.023109 -1.197449 0.000000 0.000000
    17 0.250027 -2.820665 -0.238396 -0.482190 0.047366 -0.266951
    18 -0.049759 -1.680544 0.100479 -1.890537 0.000000 -0.000002
    19 -0.034142 -1.148312 0.084782 -1.087281 0.000000 0.000000
    20 0.957766 -2.746780 -0.090302 -0.200214 -0.028397 -0.018724
    21 -0.033420 -1.397129 -0.011257 -0.235799 0.136277 -0.074809
    22 -0.022360 -0.957436 0.018784 -0.310609 0.000000 0.000000
    23 -1.180681 -2.507217 -0.193859 -0.541359 0.150781 -0.464420
    24 -0.024967 -1.123934 0.017597 -1.488903 0.000000 0.000001
    25 -0.020057 -0.890968 0.010090 -1.277757 0.000000 0.000000
    26 0.583510 -1.197277 0.185379 0.316258 -1.087026 -0.583548
    27 1.535927 0.010246 0.005009 0.087412 0.030537 -1.135410
    28 1.100771 0.004527 -0.010679 -0.010778 0.012114 -0.550575
    29 0.120153 -0.050270 -0.054489 0.099906 3.110905 1.561085
    30 0.447953 -2.798986 -0.200443 -0.607948 0.000534 0.561976
    31 -0.032909 -1.480204 0.004940 -1.413633 0.000000 0.000002
    32 -0.027022 -1.076920 -0.020210 -1.481391 0.000000 0.000000
    33 -0.249534 -2.846964 -0.174213 -0.445831 0.004261 0.486845
    34 0.043235 -1.683941 0.096012 -1.469776 0.002823 -0.000167
    35 0.031729 -1.160830 0.058838 -1.698243 0.000642 0.008372
    36 -0.963866 -2.785145 -0.085350 0.057485 0.039254 0.065226
    37 0.028479 -1.403067 0.006271 -0.285462 0.000000 0.000000
    38 0.021413 -0.957781 0.020046 -0.387944 0.000000 0.000000
    39 1.164475 -2.543940 -0.170330 -0.557511 -0.035046 0.464229
    40 0.024032 -1.129042 0.017807 -1.373638 0.000000 0.000001
    41 0.014898 -0.883989 -0.019848 -1.103398 0.000000 0.000000
    42 -0.586770 -1.264477 0.200161 -0.683236 -0.842752 -2.270081
    43 1.522835 0.058681 0.016848 -0.059520 -0.122786 0.824758
    44 1.117947 0.048424 -0.005766 -0.016015 -0.019457 0.744725
    45 -0.041740 -0.115604 0.002678 0.136590 -0.022461 1.520273
    46 -1.393470 8.839177 -0.239433 1.580804 -0.005023 -1.566847
end
