version 1
nodes
  0 "Bone01" -1
  1 "Bone_Lefthand" 0
  2 "Bone02" 1
  3 "Bone03" 2
  4 "Bone50" 3
  5 "Bone51" 4
  6 "Bone25" 3
  7 "Bone48" 3
  8 "Bone 04" 1
  9 "Bone13" 8
  10 "Bone14" 9
  11 "Bone15" 10
  12 "Bone17" 8
  13 "Bone18" 12
  14 "Bone19" 13
  15 "Bone21" 8
  16 "Bone22" 15
  17 "Bone23" 16
  18 "Bone05" 8
  19 "Bone06" 18
  20 "Bone07" 19
  21 "Bone09" 8
  22 "Bone10" 21
  23 "Bone11" 22
  24 "Bone04" -1
  25 "Bone_Righthand" 24
  26 "Bone26" 25
  27 "Bone35" 26
  28 "Bone36" 27
  29 "Bone37" 28
  30 "Bone31" 26
  31 "Bone32" 30
  32 "Bone33" 31
  33 "Bone39" 26
  34 "Bone40" 33
  35 "Bone41" 34
  36 "Bone43" 26
  37 "Bone44" 36
  38 "Bone45" 37
  39 "Bone27" 26
  40 "Bone28" 39
  41 "Bone29" 40
end
skeleton
  time 0
    0 7.389354 5.368201 -7.205747 1.227405 -1.318413 -1.819356
    1 0.000000 -8.563283 -0.000004 0.330683 -0.143492 -0.601703
    2 -0.365361 -3.150737 0.772148 -1.247037 1.437608 -1.024404
    3 0.000000 2.038368 1.408873 0.000000 0.000000 0.000000
    4 0.000000 -2.240709 2.058080 0.000000 0.000000 0.000000
    5 0.000000 -0.974219 0.000000 0.000000 0.000000 0.000000
    6 0.000000 -2.855217 0.622003 0.000000 0.000000 0.000000
    7 0.000000 -5.238309 0.651979 0.000000 0.000000 0.000000
    8 -0.003480 -0.404828 0.000000 0.000000 0.000000 0.000000
    9 -0.519309 -2.501154 -0.278957 -1.247894 0.000000 -0.122173
    10 -0.010598 -1.208184 -0.000001 -0.820315 0.000000 0.000000
    11 0.000000 -0.763066 0.000000 -1.186845 0.000000 0.000000
    12 0.105982 -2.607133 -0.278958 -1.160622 0.000000 -0.148365
    13 0.000000 -1.250579 0.000000 -0.890128 0.000000 0.000000
    14 0.000000 -0.932634 0.000000 -1.431181 0.000000 0.000000
    15 0.763064 -2.490556 -0.278958 -0.496123 0.091514 0.385812
    16 -0.012321 -1.280917 0.000000 -0.740011 0.000000 0.000000
    17 -0.001696 -0.745903 0.000571 -0.811557 0.000000 0.000000
    18 0.354567 0.016267 0.318133 0.447314 -0.548032 -0.957455
    19 1.887165 0.012878 0.000000 0.005088 -0.086158 -0.597913
    20 1.001874 -0.000270 0.000001 0.000000 0.000000 -0.347338
    21 -1.123358 -2.195092 -0.278957 -1.143193 -0.000012 -0.087266
    22 0.010772 -0.963791 0.000001 -0.610865 0.000000 0.000000
    23 -0.010413 -0.631916 0.000000 -1.212992 0.000000 0.000000
    24 -6.214545 -0.657984 -8.904863 0.541059 0.255020 0.648680
    25 0.089928 -8.543163 -0.000001 0.398206 -0.270099 0.130607
    26 0.000001 -0.359714 0.000000 0.000000 0.000000 0.000000
    27 -0.170479 -2.636148 -0.277656 -1.274101 0.000000 0.000000
    28 0.010598 -1.261177 0.000001 -0.680651 0.000000 0.000000
    29 -0.000001 -0.943233 -0.000001 -0.532326 0.000000 0.000000
    30 -0.827562 -2.508973 -0.277656 -0.959961 0.000000 0.000000
    31 0.000000 -1.292971 0.000001 -0.907565 0.000000 0.000000
    32 -0.000001 -0.752466 0.000000 -0.445059 0.000000 0.000000
    33 0.444213 -2.561960 -0.277656 -1.448067 -0.046226 -0.024599
    34 0.021022 -1.208186 -0.000001 -0.375261 0.000000 0.000000
    35 0.010597 -0.741867 0.000000 -0.453786 0.000000 0.000000
    36 1.047445 -2.222821 -0.277656 -1.508123 -0.078971 -0.038609
    37 0.000000 -0.996223 -0.000001 -0.479986 0.000000 0.000000
    38 -0.000001 -0.614689 0.000000 -0.523599 0.000000 0.000000
    39 -0.308254 -0.007814 0.307166 0.260086 -0.189598 -2.510860
    40 1.978379 0.019543 0.000001 -0.000002 -0.000010 0.122129
    41 0.982426 0.003186 0.000001 0.000000 0.000000 0.288007
  time 1
    0 7.412792 5.430703 -7.022148 1.217138 -1.340494 -1.778254
    1 0.000000 -8.563283 -0.000004 0.321732 -0.129913 -0.606029
    2 -0.365361 -3.150737 0.772148 -1.247037 1.437608 -1.024404
    3 0.000000 2.038368 1.408873 0.000000 0.000000 0.000000
    4 0.000000 -2.240709 2.058080 0.000000 0.000000 0.000000
    5 0.000000 -0.974219 0.000000 0.000000 0.000000 0.000000
    6 0.000000 -2.855217 0.622003 0.000000 0.000000 0.000000
    7 0.000000 -5.238309 0.651979 0.000000 0.000000 0.000000
    8 -0.003480 -0.404828 0.000000 0.000000 0.000000 0.000000
    9 -0.519309 -2.501154 -0.278957 -1.247894 0.000000 -0.122173
    10 -0.010598 -1.208184 -0.000001 -0.820315 0.000000 0.000000
    11 0.000000 -0.763066 0.000000 -1.186845 0.000000 0.000000
    12 0.105982 -2.607133 -0.278958 -1.160622 0.000000 -0.148365
    13 0.000000 -1.250579 0.000000 -0.890128 0.000000 0.000000
    14 0.000000 -0.932634 0.000000 -1.431181 0.000000 0.000000
    15 0.763064 -2.490556 -0.278958 -0.496123 0.091514 0.385812
    16 -0.012321 -1.280917 0.000000 -0.740011 0.000000 0.000000
    17 -0.001696 -0.745903 0.000571 -0.811557 0.000000 0.000000
    18 0.354567 0.016267 0.318133 0.447314 -0.548032 -0.957455
    19 1.887165 0.012878 0.000000 0.005088 -0.086158 -0.597913
    20 1.001874 -0.000270 0.000001 0.000000 0.000000 -0.347338
    21 -1.123358 -2.195092 -0.278957 -1.143193 -0.000012 -0.087266
    22 0.010772 -0.963791 0.000001 -0.610865 0.000000 0.000000
    23 -0.010413 -0.631916 0.000000 -1.212992 0.000000 0.000000
    24 -6.120792 -0.786895 -8.982990 0.493450 0.255020 0.654337
    25 0.089928 -8.543163 -0.000001 0.396844 -0.259548 0.136353
    26 0.000001 -0.359714 0.000000 0.000000 0.000000 0.000000
    27 -0.170479 -2.636148 -0.277656 -1.274101 0.000000 0.000000
    28 0.010598 -1.261177 0.000001 -0.680651 0.000000 0.000000
    29 -0.000001 -0.943233 -0.000001 -0.532326 0.000000 0.000000
    30 -0.827562 -2.508973 -0.277656 -0.959961 0.000000 0.000000
    31 0.000000 -1.292971 0.000001 -0.907565 0.000000 0.000000
    32 -0.000001 -0.752466 0.000000 -0.445059 0.000000 0.000000
    33 0.444213 -2.561960 -0.277656 -1.448067 -0.046226 -0.024599
    34 0.021022 -1.208186 -0.000001 -0.375261 0.000000 0.000000
    35 0.010597 -0.741867 0.000000 -0.453786 0.000000 0.000000
    36 1.047445 -2.222821 -0.277656 -1.508123 -0.078971 -0.038609
    37 0.000000 -0.996223 -0.000001 -0.479986 0.000000 0.000000
    38 -0.000001 -0.614689 0.000000 -0.523599 0.000000 0.000000
    39 -0.308254 -0.007814 0.307166 0.260086 -0.189598 -2.510860
    40 1.978379 0.019543 0.000001 -0.000002 -0.000010 0.122129
    41 0.982426 0.003186 0.000001 0.000000 0.000000 0.288007
  time 2
    0 7.436230 5.477579 -6.854174 1.204091 -1.362621 -1.733259
    1 0.000000 -8.563283 -0.000004 0.311699 -0.115963 -0.614581
    2 -0.365361 -3.150737 0.772148 -1.247037 1.437608 -1.024404
    3 0.000000 2.038368 1.408873 0.000000 0.000000 0.000000
    4 0.000000 -2.240709 2.058080 0.000000 0.000000 0.000000
    5 0.000000 -0.974219 0.000000 0.000000 0.000000 0.000000
    6 0.000000 -2.855217 0.622003 0.000000 0.000000 0.000000
    7 0.000000 -5.238309 0.651979 0.000000 0.000000 0.000000
    8 -0.003480 -0.404828 0.000000 0.000000 0.000000 0.000000
    9 -0.519309 -2.501154 -0.278957 -1.247894 0.000000 -0.122173
    10 -0.010598 -1.208184 -0.000001 -0.820315 0.000000 0.000000
    11 0.000000 -0.763066 0.000000 -1.186845 0.000000 0.000000
    12 0.105982 -2.607133 -0.278958 -1.160622 0.000000 -0.148365
    13 0.000000 -1.250579 0.000000 -0.890128 0.000000 0.000000
    14 0.000000 -0.932634 0.000000 -1.431181 0.000000 0.000000
    15 0.763064 -2.490556 -0.278958 -0.496123 0.091514 0.385812
    16 -0.012321 -1.280917 0.000000 -0.740011 0.000000 0.000000
    17 -0.001696 -0.745903 0.000571 -0.811557 0.000000 0.000000
    18 0.354567 0.016267 0.318133 0.447314 -0.548032 -0.957455
    19 1.887165 0.012878 0.000000 0.005088 -0.086158 -0.597913
    20 1.001874 -0.000270 0.000001 0.000000 0.000000 -0.347338
    21 -1.123358 -2.195092 -0.278957 -1.143193 -0.000012 -0.087266
    22 0.010772 -0.963791 0.000001 -0.610865 0.000000 0.000000
    23 -0.010413 -0.631916 0.000000 -1.212992 0.000000 0.000000
    24 -5.991882 -0.950962 -9.033773 0.446057 0.255116 0.660371
    25 0.089928 -8.543163 -0.000001 0.395605 -0.249782 0.141837
    26 0.000001 -0.359714 0.000000 0.000000 0.000000 0.000000
    27 -0.170479 -2.636148 -0.277656 -1.274101 0.000000 0.000000
    28 0.010598 -1.261177 0.000001 -0.680651 0.000000 0.000000
    29 -0.000001 -0.943233 -0.000001 -0.532326 0.000000 0.000000
    30 -0.827562 -2.508973 -0.277656 -0.959961 0.000000 0.000000
    31 0.000000 -1.292971 0.000001 -0.907565 0.000000 0.000000
    32 -0.000001 -0.752466 0.000000 -0.445059 0.000000 0.000000
    33 0.444213 -2.561960 -0.277656 -1.448067 -0.046226 -0.024599
    34 0.021022 -1.208186 -0.000001 -0.375261 0.000000 0.000000
    35 0.010597 -0.741867 0.000000 -0.453786 0.000000 0.000000
    36 1.047445 -2.222821 -0.277656 -1.508123 -0.078971 -0.038609
    37 0.000000 -0.996223 -0.000001 -0.479986 0.000000 0.000000
    38 -0.000001 -0.614689 0.000000 -0.523599 0.000000 0.000000
    39 -0.308254 -0.007814 0.307166 0.260086 -0.189598 -2.510860
    40 1.978379 0.019543 0.000001 -0.000002 -0.000010 0.122129
    41 0.982426 0.003186 0.000001 0.000000 0.000000 0.288007
  time 3
    0 7.451856 5.516643 -6.694013 1.186241 -1.384748 -1.682948
    1 0.000000 -8.563283 -0.000004 0.301105 -0.101905 -0.625375
    2 -0.365361 -3.150737 0.772148 -1.247037 1.437608 -1.024404
    3 0.000000 2.038368 1.408873 0.000000 0.000000 0.000000
    4 0.000000 -2.240709 2.058080 0.000000 0.000000 0.000000
    5 0.000000 -0.974219 0.000000 0.000000 0.000000 0.000000
    6 0.000000 -2.855217 0.622003 0.000000 0.000000 0.000000
    7 0.000000 -5.238309 0.651979 0.000000 0.000000 0.000000
    8 -0.003480 -0.404828 0.000000 0.000000 0.000000 0.000000
    9 -0.519309 -2.501154 -0.278957 -1.247894 0.000000 -0.122173
    10 -0.010598 -1.208184 -0.000001 -0.820315 0.000000 0.000000
    11 0.000000 -0.763066 0.000000 -1.186845 0.000000 0.000000
    12 0.105982 -2.607133 -0.278958 -1.160622 0.000000 -0.148365
    13 0.000000 -1.250579 0.000000 -0.890128 0.000000 0.000000
    14 0.000000 -0.932634 0.000000 -1.431181 0.000000 0.000000
    15 0.763064 -2.490556 -0.278958 -0.496123 0.091514 0.385812
    16 -0.012321 -1.280917 0.000000 -0.740011 0.000000 0.000000
    17 -0.001696 -0.745903 0.000571 -0.811557 0.000000 0.000000
    18 0.354567 0.016267 0.318133 0.447314 -0.548032 -0.957455
    19 1.887165 0.012878 0.000000 0.005088 -0.086158 -0.597913
    20 1.001874 -0.000270 0.000001 0.000000 0.000000 -0.347338
    21 -1.123358 -2.195092 -0.278957 -1.143193 -0.000012 -0.087266
    22 0.010772 -0.963791 0.000001 -0.610865 0.000000 0.000000
    23 -0.010413 -0.631916 0.000000 -1.212992 0.000000 0.000000
    24 -5.831721 -1.150187 -9.057211 0.398719 0.255785 0.666858
    25 0.089928 -8.543163 -0.000001 0.394491 -0.240678 0.147084
    26 0.000001 -0.359714 0.000000 0.000000 0.000000 0.000000
    27 -0.170479 -2.636148 -0.277656 -1.274101 0.000000 0.000000
    28 0.010598 -1.261177 0.000001 -0.680651 0.000000 0.000000
    29 -0.000001 -0.943233 -0.000001 -0.532326 0.000000 0.000000
    30 -0.827562 -2.508973 -0.277656 -0.959961 0.000000 0.000000
    31 0.000000 -1.292971 0.000001 -0.907565 0.000000 0.000000
    32 -0.000001 -0.752466 0.000000 -0.445059 0.000000 0.000000
    33 0.444213 -2.561960 -0.277656 -1.448067 -0.046226 -0.024599
    34 0.021022 -1.208186 -0.000001 -0.375261 0.000000 0.000000
    35 0.010597 -0.741867 0.000000 -0.453786 0.000000 0.000000
    36 1.047445 -2.222821 -0.277656 -1.508123 -0.078971 -0.038609
    37 0.000000 -0.996223 -0.000001 -0.479986 0.000000 0.000000
    38 -0.000001 -0.614689 0.000000 -0.523599 0.000000 0.000000
    39 -0.308254 -0.007814 0.307166 0.260086 -0.189598 -2.510860
    40 1.978379 0.019543 0.000001 -0.000002 -0.000010 0.122129
    41 0.982426 0.003186 0.000001 0.000000 0.000000 0.288007
  time 4
    0 7.475294 5.547894 -6.545571 1.160948 -1.406736 -1.624551
    1 0.000000 -8.563283 -0.000004 0.290337 -0.087943 -0.636268
    2 -0.365361 -3.150737 0.772148 -1.247037 1.437608 -1.024404
    3 0.000000 2.038368 1.408873 0.000000 0.000000 0.000000
    4 0.000000 -2.240709 2.058080 0.000000 0.000000 0.000000
    5 0.000000 -0.974219 0.000000 0.000000 0.000000 0.000000
    6 0.000000 -2.855217 0.622003 0.000000 0.000000 0.000000
    7 0.000000 -5.238309 0.651979 0.000000 0.000000 0.000000
    8 -0.003480 -0.404828 0.000000 0.000000 0.000000 0.000000
    9 -0.519309 -2.501154 -0.278957 -1.247894 0.000000 -0.122173
    10 -0.010598 -1.208184 -0.000001 -0.820315 0.000000 0.000000
    11 0.000000 -0.763066 0.000000 -1.186845 0.000000 0.000000
    12 0.105982 -2.607133 -0.278958 -1.160622 0.000000 -0.148365
    13 0.000000 -1.250579 0.000000 -0.890128 0.000000 0.000000
    14 0.000000 -0.932634 0.000000 -1.431181 0.000000 0.000000
    15 0.763064 -2.490556 -0.278958 -0.496123 0.091514 0.385812
    16 -0.012321 -1.280917 0.000000 -0.740011 0.000000 0.000000
    17 -0.001696 -0.745903 0.000571 -0.811557 0.000000 0.000000
    18 0.354567 0.016267 0.318133 0.447314 -0.548032 -0.957455
    19 1.887165 0.012878 0.000000 0.005088 -0.086158 -0.597913
    20 1.001874 -0.000270 0.000001 0.000000 0.000000 -0.347338
    21 -1.123358 -2.195092 -0.278957 -1.143193 -0.000012 -0.087266
    22 0.010772 -0.963791 0.000001 -0.610865 0.000000 0.000000
    23 -0.010413 -0.631916 0.000000 -1.212992 0.000000 0.000000
    24 -5.640309 -1.384569 -9.045492 0.351489 0.256549 0.673496
    25 0.089928 -8.543163 -0.000001 0.393458 -0.232090 0.152122
    26 0.000001 -0.359714 0.000000 0.000000 0.000000 0.000000
    27 -0.170479 -2.636148 -0.277656 -1.274101 0.000000 0.000000
    28 0.010598 -1.261177 0.000001 -0.680651 0.000000 0.000000
    29 -0.000001 -0.943233 -0.000001 -0.532326 0.000000 0.000000
    30 -0.827562 -2.508973 -0.277656 -0.959961 0.000000 0.000000
    31 0.000000 -1.292971 0.000001 -0.907565 0.000000 0.000000
    32 -0.000001 -0.752466 0.000000 -0.445059 0.000000 0.000000
    33 0.444213 -2.561960 -0.277656 -1.448067 -0.046226 -0.024599
    34 0.021022 -1.208186 -0.000001 -0.375261 0.000000 0.000000
    35 0.010597 -0.741867 0.000000 -0.453786 0.000000 0.000000
    36 1.047445 -2.222821 -0.277656 -1.508123 -0.078971 -0.038609
    37 0.000000 -0.996223 -0.000001 -0.479986 0.000000 0.000000
    38 -0.000001 -0.614689 0.000000 -0.523599 0.000000 0.000000
    39 -0.308254 -0.007814 0.307166 0.260086 -0.189598 -2.510860
    40 1.978379 0.019543 0.000001 -0.000002 -0.000010 0.122129
    41 0.982426 0.003186 0.000001 0.000000 0.000000 0.288007
  time 5
    0 7.490919 5.563519 -6.404941 1.123740 -1.428493 -1.554251
    1 0.000000 -8.563283 -0.000004 0.280002 -0.074269 -0.645217
    2 -0.365361 -3.150737 0.772148 -1.247037 1.437608 -1.024404
    3 0.000000 2.038368 1.408873 0.000000 0.000000 0.000000
    4 0.000000 -2.240709 2.058080 0.000000 0.000000 0.000000
    5 0.000000 -0.974219 0.000000 0.000000 0.000000 0.000000
    6 0.000000 -2.855217 0.622003 0.000000 0.000000 0.000000
    7 0.000000 -5.238309 0.651979 0.000000 0.000000 0.000000
    8 -0.003480 -0.404828 0.000000 0.000000 0.000000 0.000000
    9 -0.519309 -2.501154 -0.278957 -1.247894 0.000000 -0.122173
    10 -0.010598 -1.208184 -0.000001 -0.820315 0.000000 0.000000
    11 0.000000 -0.763066 0.000000 -1.186845 0.000000 0.000000
    12 0.105982 -2.607133 -0.278958 -1.160622 0.000000 -0.148365
    13 0.000000 -1.250579 0.000000 -0.890128 0.000000 0.000000
    14 0.000000 -0.932634 0.000000 -1.431181 0.000000 0.000000
    15 0.763064 -2.490556 -0.278958 -0.496123 0.091514 0.385812
    16 -0.012321 -1.280917 0.000000 -0.740011 0.000000 0.000000
    17 -0.001696 -0.745903 0.000571 -0.811557 0.000000 0.000000
    18 0.354567 0.016267 0.318133 0.447314 -0.548032 -0.957455
    19 1.887165 0.012878 0.000000 0.005088 -0.086158 -0.597913
    20 1.001874 -0.000270 0.000001 0.000000 0.000000 -0.347338
    21 -1.123358 -2.195092 -0.278957 -1.143193 -0.000012 -0.087266
    22 0.010772 -0.963791 0.000001 -0.610865 0.000000 0.000000
    23 -0.010413 -0.631916 0.000000 -1.212992 0.000000 0.000000
    24 -5.417646 -1.654109 -9.006428 0.304259 0.257697 0.680360
    25 0.089928 -8.543163 -0.000001 0.392509 -0.223919 0.157028
    26 0.000001 -0.359714 0.000000 0.000000 0.000000 0.000000
    27 -0.170479 -2.636148 -0.277656 -1.274101 0.000000 0.000000
    28 0.010598 -1.261177 0.000001 -0.680651 0.000000 0.000000
    29 -0.000001 -0.943233 -0.000001 -0.532326 0.000000 0.000000
    30 -0.827562 -2.508973 -0.277656 -0.959961 0.000000 0.000000
    31 0.000000 -1.292971 0.000001 -0.907565 0.000000 0.000000
    32 -0.000001 -0.752466 0.000000 -0.445059 0.000000 0.000000
    33 0.444213 -2.561960 -0.277656 -1.448067 -0.046226 -0.024599
    34 0.021022 -1.208186 -0.000001 -0.375261 0.000000 0.000000
    35 0.010597 -0.741867 0.000000 -0.453786 0.000000 0.000000
    36 1.047445 -2.222821 -0.277656 -1.508123 -0.078971 -0.038609
    37 0.000000 -0.996223 -0.000001 -0.479986 0.000000 0.000000
    38 -0.000001 -0.614689 0.000000 -0.523599 0.000000 0.000000
    39 -0.308254 -0.007814 0.307166 0.260086 -0.189598 -2.510860
    40 1.978379 0.019543 0.000001 -0.000002 -0.000010 0.122129
    41 0.982426 0.003186 0.000001 0.000000 0.000000 0.288007
  time 6
    0 7.506545 5.571332 -6.272125 1.067786 -1.449742 -1.465009
    1 0.000000 -8.563283 -0.000004 0.270618 -0.060990 -0.650177
    2 -0.365361 -3.150737 0.772148 -1.247037 1.437608 -1.024404
    3 0.000000 2.038368 1.408873 0.000000 0.000000 0.000000
    4 0.000000 -2.240709 2.058080 0.000000 0.000000 0.000000
    5 0.000000 -0.974219 0.000000 0.000000 0.000000 0.000000
    6 0.000000 -2.855217 0.622003 0.000000 0.000000 0.000000
    7 0.000000 -5.238309 0.651979 0.000000 0.000000 0.000000
    8 -0.003480 -0.404828 0.000000 0.000000 0.000000 0.000000
    9 -0.519309 -2.501154 -0.278957 -1.247894 0.000000 -0.122173
    10 -0.010598 -1.208184 -0.000001 -0.820315 0.000000 0.000000
    11 0.000000 -0.763066 0.000000 -1.186845 0.000000 0.000000
    12 0.105982 -2.607133 -0.278958 -1.160622 0.000000 -0.148365
    13 0.000000 -1.250579 0.000000 -0.890128 0.000000 0.000000
    14 0.000000 -0.932634 0.000000 -1.431181 0.000000 0.000000
    15 0.763064 -2.490556 -0.278958 -0.496123 0.091514 0.385812
    16 -0.012321 -1.280917 0.000000 -0.740011 0.000000 0.000000
    17 -0.001696 -0.745903 0.000571 -0.811557 0.000000 0.000000
    18 0.354567 0.016267 0.318133 0.447314 -0.548032 -0.957455
    19 1.887165 0.012878 0.000000 0.005088 -0.086158 -0.597913
    20 1.001874 -0.000270 0.000001 0.000000 0.000000 -0.347338
    21 -1.123358 -2.195092 -0.278957 -1.143193 -0.000012 -0.087266
    22 0.010772 -0.963791 0.000001 -0.610865 0.000000 0.000000
    23 -0.010413 -0.631916 0.000000 -1.212992 0.000000 0.000000
    24 -5.163732 -1.958805 -8.940020 0.257138 0.259322 0.687299
    25 0.089928 -8.543163 -0.000001 0.391642 -0.216043 0.161804
    26 0.000001 -0.359714 0.000000 0.000000 0.000000 0.000000
    27 -0.170479 -2.636148 -0.277656 -1.274101 0.000000 0.000000
    28 0.010598 -1.261177 0.000001 -0.680651 0.000000 0.000000
    29 -0.000001 -0.943233 -0.000001 -0.532326 0.000000 0.000000
    30 -0.827562 -2.508973 -0.277656 -0.959961 0.000000 0.000000
    31 0.000000 -1.292971 0.000001 -0.907565 0.000000 0.000000
    32 -0.000001 -0.752466 0.000000 -0.445059 0.000000 0.000000
    33 0.444213 -2.561960 -0.277656 -1.448067 -0.046226 -0.024599
    34 0.021022 -1.208186 -0.000001 -0.375261 0.000000 0.000000
    35 0.010597 -0.741867 0.000000 -0.453786 0.000000 0.000000
    36 1.047445 -2.222821 -0.277656 -1.508123 -0.078971 -0.038609
    37 0.000000 -0.996223 -0.000001 -0.479986 0.000000 0.000000
    38 -0.000001 -0.614689 0.000000 -0.523599 0.000000 0.000000
    39 -0.308254 -0.007814 0.307166 0.260086 -0.189598 -2.510860
    40 1.978379 0.019543 0.000001 -0.000002 -0.000010 0.122129
    41 0.982426 0.003186 0.000001 0.000000 0.000000 0.288007
  time 7
    0 7.514358 5.563519 -6.158840 0.981030 -1.470113 -1.345146
    1 0.000000 -8.563283 -0.000004 0.262921 -0.048190 -0.648967
    2 -0.365361 -3.150737 0.772148 -1.247037 1.437608 -1.024404
    3 0.000000 2.038368 1.408873 0.000000 0.000000 0.000000
    4 0.000000 -2.240709 2.058080 0.000000 0.000000 0.000000
    5 0.000000 -0.974219 0.000000 0.000000 0.000000 0.000000
    6 0.000000 -2.855217 0.622003 0.000000 0.000000 0.000000
    7 0.000000 -5.238309 0.651979 0.000000 0.000000 0.000000
    8 -0.003480 -0.404828 0.000000 0.000000 0.000000 0.000000
    9 -0.519309 -2.501154 -0.278957 -1.247894 0.000000 -0.122173
    10 -0.010598 -1.208184 -0.000001 -0.820315 0.000000 0.000000
    11 0.000000 -0.763066 0.000000 -1.186845 0.000000 0.000000
    12 0.105982 -2.607133 -0.278958 -1.160622 0.000000 -0.148365
    13 0.000000 -1.250579 0.000000 -0.890128 0.000000 0.000000
    14 0.000000 -0.932634 0.000000 -1.431181 0.000000 0.000000
    15 0.763064 -2.490556 -0.278958 -0.496123 0.091514 0.385812
    16 -0.012321 -1.280917 0.000000 -0.740011 0.000000 0.000000
    17 -0.001696 -0.745903 0.000571 -0.811557 0.000000 0.000000
    18 0.354567 0.016267 0.318133 0.447314 -0.548032 -0.957455
    19 1.887165 0.012878 0.000000 0.005088 -0.086158 -0.597913
    20 1.001874 -0.000270 0.000001 0.000000 0.000000 -0.347338
    21 -1.123358 -2.195092 -0.278957 -1.143193 -0.000012 -0.087266
    22 0.010772 -0.963791 0.000001 -0.610865 0.000000 0.000000
    23 -0.010413 -0.631916 0.000000 -1.212992 0.000000 0.000000
    24 -4.874660 -2.294753 -8.838454 0.210016 0.261138 0.694238
    25 0.089928 -8.543163 -0.000001 0.390816 -0.208240 0.166553
    26 0.000001 -0.359714 0.000000 0.000000 0.000000 0.000000
    27 -0.170479 -2.636148 -0.277656 -1.274101 0.000000 0.000000
    28 0.010598 -1.261177 0.000001 -0.680651 0.000000 0.000000
    29 -0.000001 -0.943233 -0.000001 -0.532326 0.000000 0.000000
    30 -0.827562 -2.508973 -0.277656 -0.959961 0.000000 0.000000
    31 0.000000 -1.292971 0.000001 -0.907565 0.000000 0.000000
    32 -0.000001 -0.752466 0.000000 -0.445059 0.000000 0.000000
    33 0.444213 -2.561960 -0.277656 -1.448067 -0.046226 -0.024599
    34 0.021022 -1.208186 -0.000001 -0.375261 0.000000 0.000000
    35 0.010597 -0.741867 0.000000 -0.453786 0.000000 0.000000
    36 1.047445 -2.222821 -0.277656 -1.508123 -0.078971 -0.038609
    37 0.000000 -0.996223 -0.000001 -0.479986 0.000000 0.000000
    38 -0.000001 -0.614689 0.000000 -0.523599 0.000000 0.000000
    39 -0.308254 -0.007814 0.307166 0.260086 -0.189598 -2.510860
    40 1.978379 0.019543 0.000001 -0.000002 -0.000010 0.122129
    41 0.982426 0.003186 0.000001 0.000000 0.000000 0.288007
  time 8
    0 7.529983 5.547894 -6.049462 0.842982 -1.488729 -1.174448
    1 0.000000 -8.563283 -0.000004 0.257558 -0.035954 -0.639502
    2 -0.365361 -3.150737 0.772148 -1.247037 1.437608 -1.024404
    3 0.000000 2.038368 1.408873 0.000000 0.000000 0.000000
    4 0.000000 -2.240709 2.058080 0.000000 0.000000 0.000000
    5 0.000000 -0.974219 0.000000 0.000000 0.000000 0.000000
    6 0.000000 -2.855217 0.622003 0.000000 0.000000 0.000000
    7 0.000000 -5.238309 0.651979 0.000000 0.000000 0.000000
    8 -0.003480 -0.404828 0.000000 0.000000 0.000000 0.000000
    9 -0.519309 -2.501154 -0.278957 -1.247894 0.000000 -0.122173
    10 -0.010598 -1.208184 -0.000001 -0.820315 0.000000 0.000000
    11 0.000000 -0.763066 0.000000 -1.186845 0.000000 0.000000
    12 0.105982 -2.607133 -0.278958 -1.160622 0.000000 -0.148365
    13 0.000000 -1.250579 0.000000 -0.890128 0.000000 0.000000
    14 0.000000 -0.932634 0.000000 -1.431181 0.000000 0.000000
    15 0.763064 -2.490556 -0.278958 -0.496123 0.091514 0.385812
    16 -0.012321 -1.280917 0.000000 -0.740011 0.000000 0.000000
    17 -0.001696 -0.745903 0.000571 -0.811557 0.000000 0.000000
    18 0.354567 0.016267 0.318133 0.447314 -0.548032 -0.957455
    19 1.887165 0.012878 0.000000 0.005088 -0.086158 -0.597913
    20 1.001874 -0.000270 0.000001 0.000000 0.000000 -0.347338
    21 -1.123358 -2.195092 -0.278957 -1.143193 -0.000012 -0.087266
    22 0.010772 -0.963791 0.000001 -0.610865 0.000000 0.000000
    23 -0.010413 -0.631916 0.000000 -1.212992 0.000000 0.000000
    24 -4.554338 -2.669765 -8.709544 0.162895 0.263337 0.701102
    25 0.089928 -8.543163 -0.000001 0.390032 -0.200461 0.171275
    26 0.000001 -0.359714 0.000000 0.000000 0.000000 0.000000
    27 -0.170479 -2.636148 -0.277656 -1.274101 0.000000 0.000000
    28 0.010598 -1.261177 0.000001 -0.680651 0.000000 0.000000
    29 -0.000001 -0.943233 -0.000001 -0.532326 0.000000 0.000000
    30 -0.827562 -2.508973 -0.277656 -0.959961 0.000000 0.000000
    31 0.000000 -1.292971 0.000001 -0.907565 0.000000 0.000000
    32 -0.000001 -0.752466 0.000000 -0.445059 0.000000 0.000000
    33 0.444213 -2.561960 -0.277656 -1.448067 -0.046226 -0.024599
    34 0.021022 -1.208186 -0.000001 -0.375261 0.000000 0.000000
    35 0.010597 -0.741867 0.000000 -0.453786 0.000000 0.000000
    36 1.047445 -2.222821 -0.277656 -1.508123 -0.078971 -0.038609
    37 0.000000 -0.996223 -0.000001 -0.479986 0.000000 0.000000
    38 -0.000001 -0.614689 0.000000 -0.523599 0.000000 0.000000
    39 -0.308254 -0.007814 0.307166 0.260086 -0.189598 -2.510860
    40 1.978379 0.019543 0.000001 -0.000002 -0.000010 0.122129
    41 0.982426 0.003186 0.000001 0.000000 0.000000 0.288007
  time 9
    0 7.541702 5.516643 -5.955709 0.621710 -1.504112 -0.921172
    1 0.000000 -8.563283 -0.000004 0.255310 -0.024401 -0.619680
    2 -0.365361 -3.150737 0.772148 -1.247037 1.437608 -1.024404
    3 0.000000 2.038368 1.408873 0.000000 0.000000 0.000000
    4 0.000000 -2.240709 2.058080 0.000000 0.000000 0.000000
    5 0.000000 -0.974219 0.000000 0.000000 0.000000 0.000000
    6 0.000000 -2.855217 0.622003 0.000000 0.000000 0.000000
    7 0.000000 -5.238309 0.651979 0.000000 0.000000 0.000000
    8 -0.003480 -0.404828 0.000000 0.000000 0.000000 0.000000
    9 -0.519309 -2.501154 -0.278957 -1.247894 0.000000 -0.122173
    10 -0.010598 -1.208184 -0.000001 -0.820315 0.000000 0.000000
    11 0.000000 -0.763066 0.000000 -1.186845 0.000000 0.000000
    12 0.105982 -2.607133 -0.278958 -1.160622 0.000000 -0.148365
    13 0.000000 -1.250579 0.000000 -0.890128 0.000000 0.000000
    14 0.000000 -0.932634 0.000000 -1.431181 0.000000 0.000000
    15 0.763064 -2.490556 -0.278958 -0.496123 0.091514 0.385812
    16 -0.012321 -1.280917 0.000000 -0.740011 0.000000 0.000000
    17 -0.001696 -0.745903 0.000571 -0.811557 0.000000 0.000000
    18 0.354567 0.016267 0.318133 0.447314 -0.548032 -0.957455
    19 1.887165 0.012878 0.000000 0.005088 -0.086158 -0.597913
    20 1.001874 -0.000270 0.000001 0.000000 0.000000 -0.347338
    21 -1.123358 -2.195092 -0.278957 -1.143193 -0.000012 -0.087266
    22 0.010772 -0.963791 0.000001 -0.610865 0.000000 0.000000
    23 -0.010413 -0.631916 0.000000 -1.212992 0.000000 0.000000
    24 -4.198858 -3.076027 -8.553289 0.115665 0.265726 0.707740
    25 0.089928 -8.543163 -0.000001 0.389247 -0.192536 0.176051
    26 0.000001 -0.359714 0.000000 0.000000 0.000000 0.000000
    27 -0.170479 -2.636148 -0.277656 -1.274101 0.000000 0.000000
    28 0.010598 -1.261177 0.000001 -0.680651 0.000000 0.000000
    29 -0.000001 -0.943233 -0.000001 -0.532326 0.000000 0.000000
    30 -0.827562 -2.508973 -0.277656 -0.959961 0.000000 0.000000
    31 0.000000 -1.292971 0.000001 -0.907565 0.000000 0.000000
    32 -0.000001 -0.752466 0.000000 -0.445059 0.000000 0.000000
    33 0.444213 -2.561960 -0.277656 -1.448067 -0.046226 -0.024599
    34 0.021022 -1.208186 -0.000001 -0.375261 0.000000 0.000000
    35 0.010597 -0.741867 0.000000 -0.453786 0.000000 0.000000
    36 1.047445 -2.222821 -0.277656 -1.508123 -0.078971 -0.038609
    37 0.000000 -0.996223 -0.000001 -0.479986 0.000000 0.000000
    38 -0.000001 -0.614689 0.000000 -0.523599 0.000000 0.000000
    39 -0.308254 -0.007814 0.307166 0.260086 -0.189598 -2.510860
    40 1.978379 0.019543 0.000001 -0.000002 -0.000010 0.122129
    41 0.982426 0.003186 0.000001 0.000000 0.000000 0.288007
  time 10
    0 7.545609 5.477579 -5.869769 0.290508 -1.513443 -0.558739
    1 0.000000 -8.563283 -0.000004 0.255656 -0.018612 -0.603608
    2 -0.365361 -3.150737 0.772148 -1.247037 1.437608 -1.024404
    3 0.000000 2.038368 1.408873 0.000000 0.000000 0.000000
    4 0.000000 -2.240709 2.058080 0.000000 0.000000 0.000000
    5 0.000000 -0.974219 0.000000 0.000000 0.000000 0.000000
    6 0.000000 -2.855217 0.622003 0.000000 0.000000 0.000000
    7 0.000000 -5.238309 0.651979 0.000000 0.000000 0.000000
    8 -0.003480 -0.404828 0.000000 0.000000 0.000000 0.000000
    9 -0.519309 -2.501154 -0.278957 -1.247894 0.000000 -0.122173
    10 -0.010598 -1.208184 -0.000001 -0.820315 0.000000 0.000000
    11 0.000000 -0.763066 0.000000 -1.186845 0.000000 0.000000
    12 0.105982 -2.607133 -0.278958 -1.160622 0.000000 -0.148365
    13 0.000000 -1.250579 0.000000 -0.890128 0.000000 0.000000
    14 0.000000 -0.932634 0.000000 -1.431181 0.000000 0.000000
    15 0.763064 -2.490556 -0.278958 -0.496123 0.091514 0.385812
    16 -0.012321 -1.280917 0.000000 -0.740011 0.000000 0.000000
    17 -0.001696 -0.745903 0.000571 -0.811557 0.000000 0.000000
    18 0.354567 0.016267 0.318133 0.447314 -0.548032 -0.957455
    19 1.887165 0.012878 0.000000 0.005088 -0.086158 -0.597913
    20 1.001874 -0.000270 0.000001 0.000000 0.000000 -0.347338
    21 -1.123358 -2.195092 -0.278957 -1.143193 -0.000012 -0.087266
    22 0.010772 -0.963791 0.000001 -0.610865 0.000000 0.000000
    23 -0.010413 -0.631916 0.000000 -1.212992 0.000000 0.000000
    24 -3.816034 -3.517447 -8.361877 0.068435 0.268499 0.714151
    25 0.089928 -8.543163 -0.000001 0.388504 -0.184365 0.180852
    26 0.000001 -0.359714 0.000000 0.000000 0.000000 0.000000
    27 -0.170479 -2.636148 -0.277656 -1.274101 0.000000 0.000000
    28 0.010598 -1.261177 0.000001 -0.680651 0.000000 0.000000
    29 -0.000001 -0.943233 -0.000001 -0.532326 0.000000 0.000000
    30 -0.827562 -2.508973 -0.277656 -0.959961 0.000000 0.000000
    31 0.000000 -1.292971 0.000001 -0.907565 0.000000 0.000000
    32 -0.000001 -0.752466 0.000000 -0.445059 0.000000 0.000000
    33 0.444213 -2.561960 -0.277656 -1.448067 -0.046226 -0.024599
    34 0.021022 -1.208186 -0.000001 -0.375261 0.000000 0.000000
    35 0.010597 -0.741867 0.000000 -0.453786 0.000000 0.000000
    36 1.047445 -2.222821 -0.277656 -1.508123 -0.078971 -0.038609
    37 0.000000 -0.996223 -0.000001 -0.479986 0.000000 0.000000
    38 -0.000001 -0.614689 0.000000 -0.523599 0.000000 0.000000
    39 -0.308254 -0.007814 0.307166 0.260086 -0.189598 -2.510860
    40 1.978379 0.019543 0.000001 -0.000002 -0.000010 0.122129
    41 0.982426 0.003186 0.000001 0.000000 0.000000 0.288007
  time 11
    0 7.549515 5.430703 -5.799454 -0.103665 -1.513674 -0.134391
    1 0.000000 -8.563283 -0.000004 0.259202 -0.011385 -0.569183
    2 -0.365361 -3.150737 0.772148 -1.247037 1.437608 -1.024404
    3 0.000000 2.038368 1.408873 0.000000 0.000000 0.000000
    4 0.000000 -2.240709 2.058080 0.000000 0.000000 0.000000
    5 0.000000 -0.974219 0.000000 0.000000 0.000000 0.000000
    6 0.000000 -2.855217 0.622003 0.000000 0.000000 0.000000
    7 0.000000 -5.238309 0.651979 0.000000 0.000000 0.000000
    8 -0.003480 -0.404828 0.000000 0.000000 0.000000 0.000000
    9 -0.519309 -2.501154 -0.278957 -1.247894 0.000000 -0.122173
    10 -0.010598 -1.208184 -0.000001 -0.820315 0.000000 0.000000
    11 0.000000 -0.763066 0.000000 -1.186845 0.000000 0.000000
    12 0.105982 -2.607133 -0.278958 -1.160622 0.000000 -0.148365
    13 0.000000 -1.250579 0.000000 -0.890128 0.000000 0.000000
    14 0.000000 -0.932634 0.000000 -1.431181 0.000000 0.000000
    15 0.763064 -2.490556 -0.278958 -0.496123 0.091514 0.385812
    16 -0.012321 -1.280917 0.000000 -0.740011 0.000000 0.000000
    17 -0.001696 -0.745903 0.000571 -0.811557 0.000000 0.000000
    18 0.354567 0.016267 0.318133 0.447314 -0.548032 -0.957455
    19 1.887165 0.012878 0.000000 0.005088 -0.086158 -0.597913
    20 1.001874 -0.000270 0.000001 0.000000 0.000000 -0.347338
    21 -1.123358 -2.195092 -0.278957 -1.143193 -0.000012 -0.087266
    22 0.010772 -0.963791 0.000001 -0.610865 0.000000 0.000000
    23 -0.010413 -0.631916 0.000000 -1.212992 0.000000 0.000000
    24 -3.374615 -4.029181 -8.111870 0.021097 0.271366 0.720185
    25 0.089928 -8.543163 -0.000001 0.387761 -0.175777 0.185785
    26 0.000001 -0.359714 0.000000 0.000000 0.000000 0.000000
    27 -0.170479 -2.636148 -0.277656 -1.274101 0.000000 0.000000
    28 0.010598 -1.261177 0.000001 -0.680651 0.000000 0.000000
    29 -0.000001 -0.943233 -0.000001 -0.532326 0.000000 0.000000
    30 -0.827562 -2.508973 -0.277656 -0.959961 0.000000 0.000000
    31 0.000000 -1.292971 0.000001 -0.907565 0.000000 0.000000
    32 -0.000001 -0.752466 0.000000 -0.445059 0.000000 0.000000
    33 0.444213 -2.561960 -0.277656 -1.448067 -0.046226 -0.024599
    34 0.021022 -1.208186 -0.000001 -0.375261 0.000000 0.000000
    35 0.010597 -0.741867 0.000000 -0.453786 0.000000 0.000000
    36 1.047445 -2.222821 -0.277656 -1.508123 -0.078971 -0.038609
    37 0.000000 -0.996223 -0.000001 -0.479986 0.000000 0.000000
    38 -0.000001 -0.614689 0.000000 -0.523599 0.000000 0.000000
    39 -0.308254 -0.007814 0.307166 0.260086 -0.189598 -2.510860
    40 1.978379 0.019543 0.000001 -0.000002 -0.000010 0.122129
    41 0.982426 0.003186 0.000001 0.000000 0.000000 0.288007
  time 12
    0 7.561234 5.368201 -5.733046 -0.438399 -1.504528 0.229240
    1 0.000000 -8.563283 -0.000004 0.265775 -0.007934 -0.529797
    2 -0.365361 -3.150737 0.772148 -1.247037 1.437608 -1.024404
    3 0.000000 2.038368 1.408873 0.000000 0.000000 0.000000
    4 0.000000 -2.240709 2.058080 0.000000 0.000000 0.000000
    5 0.000000 -0.974219 0.000000 0.000000 0.000000 0.000000
    6 0.000000 -2.855217 0.622003 0.000000 0.000000 0.000000
    7 0.000000 -5.238309 0.651979 0.000000 0.000000 0.000000
    8 -0.003480 -0.404828 0.000000 0.000000 0.000000 0.000000
    9 -0.519309 -2.501154 -0.278957 -1.247894 0.000000 -0.122173
    10 -0.010598 -1.208184 -0.000001 -0.820315 0.000000 0.000000
    11 0.000000 -0.763066 0.000000 -1.186845 0.000000 0.000000
    12 0.105982 -2.607133 -0.278958 -1.160622 0.000000 -0.148365
    13 0.000000 -1.250579 0.000000 -0.890128 0.000000 0.000000
    14 0.000000 -0.932634 0.000000 -1.431181 0.000000 0.000000
    15 0.763064 -2.490556 -0.278958 -0.496123 0.091514 0.385812
    16 -0.012321 -1.280917 0.000000 -0.740011 0.000000 0.000000
    17 -0.001696 -0.745903 0.000571 -0.811557 0.000000 0.000000
    18 0.354567 0.016267 0.318133 0.447314 -0.548032 -0.957455
    19 1.887165 0.012878 0.000000 0.005088 -0.086158 -0.597913
    20 1.001874 -0.000270 0.000001 0.000000 0.000000 -0.347338
    21 -1.123358 -2.195092 -0.278957 -1.143193 -0.000012 -0.087266
    22 0.010772 -0.963791 0.000001 -0.610865 0.000000 0.000000
    23 -0.010413 -0.631916 0.000000 -1.212992 0.000000 0.000000
    24 -2.874599 -4.611230 -7.803266 -0.026295 0.274521 0.725767
    25 0.089928 -8.543163 -0.000001 0.387100 -0.166624 0.190849
    26 0.000001 -0.359714 0.000000 0.000000 0.000000 0.000000
    27 -0.170479 -2.636148 -0.277656 -1.274101 0.000000 0.000000
    28 0.010598 -1.261177 0.000001 -0.680651 0.000000 0.000000
    29 -0.000001 -0.943233 -0.000001 -0.532326 0.000000 0.000000
    30 -0.827562 -2.508973 -0.277656 -0.959961 0.000000 0.000000
    31 0.000000 -1.292971 0.000001 -0.907565 0.000000 0.000000
    32 -0.000001 -0.752466 0.000000 -0.445059 0.000000 0.000000
    33 0.444213 -2.561960 -0.277656 -1.448067 -0.046226 -0.024599
    34 0.021022 -1.208186 -0.000001 -0.375261 0.000000 0.000000
    35 0.010597 -0.741867 0.000000 -0.453786 0.000000 0.000000
    36 1.047445 -2.222821 -0.277656 -1.508123 -0.078971 -0.038609
    37 0.000000 -0.996223 -0.000001 -0.479986 0.000000 0.000000
    38 -0.000001 -0.614689 0.000000 -0.523599 0.000000 0.000000
    39 -0.308254 -0.007814 0.307166 0.260086 -0.189598 -2.510860
    40 1.978379 0.019543 0.000001 -0.000002 -0.000010 0.122129
    41 0.982426 0.003186 0.000001 0.000000 0.000000 0.288007
  time 13
    0 7.557328 5.274448 -5.678357 -0.661367 -1.489145 0.479597
    1 0.000000 -8.563283 -0.000004 0.274596 -0.007694 -0.487593
    2 -0.365361 -3.150737 0.772148 -1.247037 1.437608 -1.024404
    3 0.000000 2.038368 1.408873 0.000000 0.000000 0.000000
    4 0.000000 -2.240709 2.058080 0.000000 0.000000 0.000000
    5 0.000000 -0.974219 0.000000 0.000000 0.000000 0.000000
    6 0.000000 -2.855217 0.622003 0.000000 0.000000 0.000000
    7 0.000000 -5.238309 0.651979 0.000000 0.000000 0.000000
    8 -0.003480 -0.404828 0.000000 0.000000 0.000000 0.000000
    9 -0.519309 -2.501154 -0.278957 -1.247894 0.000000 -0.122173
    10 -0.010598 -1.208184 -0.000001 -0.820315 0.000000 0.000000
    11 0.000000 -0.763066 0.000000 -1.186845 0.000000 0.000000
    12 0.105982 -2.607133 -0.278958 -1.160622 0.000000 -0.148365
    13 0.000000 -1.250579 0.000000 -0.890128 0.000000 0.000000
    14 0.000000 -0.932634 0.000000 -1.431181 0.000000 0.000000
    15 0.763064 -2.490556 -0.278958 -0.496123 0.091514 0.385812
    16 -0.012321 -1.280917 0.000000 -0.740011 0.000000 0.000000
    17 -0.001696 -0.745903 0.000571 -0.811557 0.000000 0.000000
    18 0.354567 0.016267 0.318133 0.447314 -0.548032 -0.957455
    19 1.887165 0.012878 0.000000 0.005088 -0.086158 -0.597913
    20 1.001874 -0.000270 0.000001 0.000000 0.000000 -0.347338
    21 -1.123358 -2.195092 -0.278957 -1.143193 -0.000012 -0.087266
    22 0.010772 -0.963791 0.000001 -0.610865 0.000000 0.000000
    23 -0.010413 -0.631916 0.000000 -1.212992 0.000000 0.000000
    24 -2.358959 -5.204998 -7.479038 -0.073905 0.277867 0.730896
    25 0.089928 -8.543163 -0.000001 0.386398 -0.156809 0.196149
    26 0.000001 -0.359714 0.000000 0.000000 0.000000 0.000000
    27 -0.170479 -2.636148 -0.277656 -1.274101 0.000000 0.000000
    28 0.010598 -1.261177 0.000001 -0.680651 0.000000 0.000000
    29 -0.000001 -0.943233 -0.000001 -0.532326 0.000000 0.000000
    30 -0.827562 -2.508973 -0.277656 -0.959961 0.000000 0.000000
    31 0.000000 -1.292971 0.000001 -0.907565 0.000000 0.000000
    32 -0.000001 -0.752466 0.000000 -0.445059 0.000000 0.000000
    33 0.444213 -2.561960 -0.277656 -1.448067 -0.046226 -0.024599
    34 0.021022 -1.208186 -0.000001 -0.375261 0.000000 0.000000
    35 0.010597 -0.741867 0.000000 -0.453786 0.000000 0.000000
    36 1.047445 -2.222821 -0.277656 -1.508123 -0.078971 -0.038609
    37 0.000000 -0.996223 -0.000001 -0.479986 0.000000 0.000000
    38 -0.000001 -0.614689 0.000000 -0.523599 0.000000 0.000000
    39 -0.308254 -0.007814 0.307166 0.260086 -0.189598 -2.510860
    40 1.978379 0.019543 0.000001 -0.000002 -0.000010 0.122129
    41 0.982426 0.003186 0.000001 0.000000 0.000000 0.288007
  time 14
    0 7.545609 5.141632 -5.639293 -0.797437 -1.470252 0.641460
    1 0.000000 -8.563283 -0.000004 0.284802 -0.010007 -0.444636
    2 -0.365361 -3.150737 0.772148 -1.247037 1.437608 -1.024404
    3 0.000000 2.038368 1.408873 0.000000 0.000000 0.000000
    4 0.000000 -2.240709 2.058080 0.000000 0.000000 0.000000
    5 0.000000 -0.974219 0.000000 0.000000 0.000000 0.000000
    6 0.000000 -2.855217 0.622003 0.000000 0.000000 0.000000
    7 0.000000 -5.238309 0.651979 0.000000 0.000000 0.000000
    8 -0.003480 -0.404828 0.000000 0.000000 0.000000 0.000000
    9 -0.519309 -2.501154 -0.278957 -1.247894 0.000000 -0.122173
    10 -0.010598 -1.208184 -0.000001 -0.820315 0.000000 0.000000
    11 0.000000 -0.763066 0.000000 -1.186845 0.000000 0.000000
    12 0.105982 -2.607133 -0.278958 -1.160622 0.000000 -0.148365
    13 0.000000 -1.250579 0.000000 -0.890128 0.000000 0.000000
    14 0.000000 -0.932634 0.000000 -1.431181 0.000000 0.000000
    15 0.763064 -2.490556 -0.278958 -0.496123 0.091514 0.385812
    16 -0.012321 -1.280917 0.000000 -0.740011 0.000000 0.000000
    17 -0.001696 -0.745903 0.000571 -0.811557 0.000000 0.000000
    18 0.354567 0.016267 0.318133 0.447314 -0.548032 -0.957455
    19 1.887165 0.012878 0.000000 0.005088 -0.086158 -0.597913
    20 1.001874 -0.000270 0.000001 0.000000 0.000000 -0.347338
    21 -1.123358 -2.195092 -0.278957 -1.143193 -0.000012 -0.087266
    22 0.010772 -0.963791 0.000001 -0.610865 0.000000 0.000000
    23 -0.010413 -0.631916 0.000000 -1.212992 0.000000 0.000000
    24 -1.855037 -5.771422 -7.186060 -0.121623 0.281308 0.735346
    25 0.089928 -8.543163 -0.000001 0.385738 -0.146184 0.201633
    26 0.000001 -0.359714 0.000000 0.000000 0.000000 0.000000
    27 -0.170479 -2.636148 -0.277656 -1.274101 0.000000 0.000000
    28 0.010598 -1.261177 0.000001 -0.680651 0.000000 0.000000
    29 -0.000001 -0.943233 -0.000001 -0.532326 0.000000 0.000000
    30 -0.827562 -2.508973 -0.277656 -0.959961 0.000000 0.000000
    31 0.000000 -1.292971 0.000001 -0.907565 0.000000 0.000000
    32 -0.000001 -0.752466 0.000000 -0.445059 0.000000 0.000000
    33 0.444213 -2.561960 -0.277656 -1.448067 -0.046226 -0.024599
    34 0.021022 -1.208186 -0.000001 -0.375261 0.000000 0.000000
    35 0.010597 -0.741867 0.000000 -0.453786 0.000000 0.000000
    36 1.047445 -2.222821 -0.277656 -1.508123 -0.078971 -0.038609
    37 0.000000 -0.996223 -0.000001 -0.479986 0.000000 0.000000
    38 -0.000001 -0.614689 0.000000 -0.523599 0.000000 0.000000
    39 -0.308254 -0.007814 0.307166 0.260086 -0.189598 -2.510860
    40 1.978379 0.019543 0.000001 -0.000002 -0.000010 0.122129
    41 0.982426 0.003186 0.000001 0.000000 0.000000 0.288007
  time 15
    0 7.529983 4.973658 -5.608042 -0.879201 -1.449511 0.747098
    1 0.000000 -8.563283 -0.000004 0.295742 -0.014142 -0.403126
    2 -0.365361 -3.150737 0.772148 -1.247037 1.437608 -1.024404
    3 0.000000 2.038368 1.408873 0.000000 0.000000 0.000000
    4 0.000000 -2.240709 2.058080 0.000000 0.000000 0.000000
    5 0.000000 -0.974219 0.000000 0.000000 0.000000 0.000000
    6 0.000000 -2.855217 0.622003 0.000000 0.000000 0.000000
    7 0.000000 -5.238309 0.651979 0.000000 0.000000 0.000000
    8 -0.003480 -0.404828 0.000000 0.000000 0.000000 0.000000
    9 -0.519309 -2.501154 -0.278957 -1.247894 0.000000 -0.122173
    10 -0.010598 -1.208184 -0.000001 -0.820315 0.000000 0.000000
    11 0.000000 -0.763066 0.000000 -1.186845 0.000000 0.000000
    12 0.105982 -2.607133 -0.278958 -1.160622 0.000000 -0.148365
    13 0.000000 -1.250579 0.000000 -0.890128 0.000000 0.000000
    14 0.000000 -0.932634 0.000000 -1.431181 0.000000 0.000000
    15 0.763064 -2.490556 -0.278958 -0.496123 0.091514 0.385812
    16 -0.012321 -1.280917 0.000000 -0.740011 0.000000 0.000000
    17 -0.001696 -0.745903 0.000571 -0.811557 0.000000 0.000000
    18 0.354567 0.016267 0.318133 0.447314 -0.548032 -0.957455
    19 1.887165 0.012878 0.000000 0.005088 -0.086158 -0.597913
    20 1.001874 -0.000270 0.000001 0.000000 0.000000 -0.347338
    21 -1.123358 -2.195092 -0.278957 -1.143193 -0.000012 -0.087266
    22 0.010772 -0.963791 0.000001 -0.610865 0.000000 0.000000
    23 -0.010413 -0.631916 0.000000 -1.212992 0.000000 0.000000
    24 -1.409711 -6.251905 -6.979023 -0.169503 0.284749 0.739268
    25 0.089928 -8.543163 -0.000001 0.385118 -0.134627 0.207405
    26 0.000001 -0.359714 0.000000 0.000000 0.000000 0.000000
    27 -0.170479 -2.636148 -0.277656 -1.274101 0.000000 0.000000
    28 0.010598 -1.261177 0.000001 -0.680651 0.000000 0.000000
    29 -0.000001 -0.943233 -0.000001 -0.532326 0.000000 0.000000
    30 -0.827562 -2.508973 -0.277656 -0.959961 0.000000 0.000000
    31 0.000000 -1.292971 0.000001 -0.907565 0.000000 0.000000
    32 -0.000001 -0.752466 0.000000 -0.445059 0.000000 0.000000
    33 0.444213 -2.561960 -0.277656 -1.448067 -0.046226 -0.024599
    34 0.021022 -1.208186 -0.000001 -0.375261 0.000000 0.000000
    35 0.010597 -0.741867 0.000000 -0.453786 0.000000 0.000000
    36 1.047445 -2.222821 -0.277656 -1.508123 -0.078971 -0.038609
    37 0.000000 -0.996223 -0.000001 -0.479986 0.000000 0.000000
    38 -0.000001 -0.614689 0.000000 -0.523599 0.000000 0.000000
    39 -0.308254 -0.007814 0.307166 0.260086 -0.189598 -2.510860
    40 1.978379 0.019543 0.000001 -0.000002 -0.000010 0.122129
    41 0.982426 0.003186 0.000001 0.000000 0.000000 0.288007
  time 16
    0 7.506545 4.797871 -5.592417 -0.927713 -1.427569 0.817323
    1 0.000000 -8.563283 -0.000004 0.306640 -0.019211 -0.365090
    2 -0.365361 -3.150737 0.772148 -1.247037 1.437608 -1.024404
    3 0.000000 2.038368 1.408873 0.000000 0.000000 0.000000
    4 0.000000 -2.240709 2.058080 0.000000 0.000000 0.000000
    5 0.000000 -0.974219 0.000000 0.000000 0.000000 0.000000
    6 0.000000 -2.855217 0.622003 0.000000 0.000000 0.000000
    7 0.000000 -5.238309 0.651979 0.000000 0.000000 0.000000
    8 -0.003480 -0.404828 0.000000 0.000000 0.000000 0.000000
    9 -0.519309 -2.501154 -0.278957 -1.247894 0.000000 -0.122173
    10 -0.010598 -1.208184 -0.000001 -0.820315 0.000000 0.000000
    11 0.000000 -0.763066 0.000000 -1.186845 0.000000 0.000000
    12 0.105982 -2.607133 -0.278958 -1.160622 0.000000 -0.148365
    13 0.000000 -1.250579 0.000000 -0.890128 0.000000 0.000000
    14 0.000000 -0.932634 0.000000 -1.431181 0.000000 0.000000
    15 0.763064 -2.490556 -0.278958 -0.496123 0.091514 0.385812
    16 -0.012321 -1.280917 0.000000 -0.740011 0.000000 0.000000
    17 -0.001696 -0.745903 0.000571 -0.811557 0.000000 0.000000
    18 0.354567 0.016267 0.318133 0.447314 -0.548032 -0.957455
    19 1.887165 0.012878 0.000000 0.005088 -0.086158 -0.597913
    20 1.001874 -0.000270 0.000001 0.000000 0.000000 -0.347338
    21 -1.123358 -2.195092 -0.278957 -1.143193 -0.000012 -0.087266
    22 0.010772 -0.963791 0.000001 -0.610865 0.000000 0.000000
    23 -0.010413 -0.631916 0.000000 -1.212992 0.000000 0.000000
    24 -0.991729 -6.650355 -6.850112 -0.217655 0.288286 0.742361
    25 0.089928 -8.543163 -0.000001 0.384499 -0.121966 0.213466
    26 0.000001 -0.359714 0.000000 0.000000 0.000000 0.000000
    27 -0.170479 -2.636148 -0.277656 -1.274101 0.000000 0.000000
    28 0.010598 -1.261177 0.000001 -0.680651 0.000000 0.000000
    29 -0.000001 -0.943233 -0.000001 -0.532326 0.000000 0.000000
    30 -0.827562 -2.508973 -0.277656 -0.959961 0.000000 0.000000
    31 0.000000 -1.292971 0.000001 -0.907565 0.000000 0.000000
    32 -0.000001 -0.752466 0.000000 -0.445059 0.000000 0.000000
    33 0.444213 -2.561960 -0.277656 -1.448067 -0.046226 -0.024599
    34 0.021022 -1.208186 -0.000001 -0.375261 0.000000 0.000000
    35 0.010597 -0.741867 0.000000 -0.453786 0.000000 0.000000
    36 1.047445 -2.222821 -0.277656 -1.508123 -0.078971 -0.038609
    37 0.000000 -0.996223 -0.000001 -0.479986 0.000000 0.000000
    38 -0.000001 -0.614689 0.000000 -0.523599 0.000000 0.000000
    39 -0.308254 -0.007814 0.307166 0.260086 -0.189598 -2.510860
    40 1.978379 0.019543 0.000001 -0.000002 -0.000010 0.122129
    41 0.982426 0.003186 0.000001 0.000000 0.000000 0.288007
  time 17
    0 7.487013 4.618178 -5.580698 -0.939582 -1.419485 0.836414
    1 0.000000 -8.563283 -0.000004 0.317018 -0.024305 -0.332648
    2 -0.365361 -3.150737 0.772148 -1.247037 1.437608 -1.024404
    3 0.000000 2.038368 1.408873 0.000000 0.000000 0.000000
    4 0.000000 -2.240709 2.058080 0.000000 0.000000 0.000000
    5 0.000000 -0.974219 0.000000 0.000000 0.000000 0.000000
    6 0.000000 -2.855217 0.622003 0.000000 0.000000 0.000000
    7 0.000000 -5.238309 0.651979 0.000000 0.000000 0.000000
    8 -0.003480 -0.404828 0.000000 0.000000 0.000000 0.000000
    9 -0.519309 -2.501154 -0.278957 -1.247894 0.000000 -0.122173
    10 -0.010598 -1.208184 -0.000001 -0.820315 0.000000 0.000000
    11 0.000000 -0.763066 0.000000 -1.186845 0.000000 0.000000
    12 0.105982 -2.607133 -0.278958 -1.160622 0.000000 -0.148365
    13 0.000000 -1.250579 0.000000 -0.890128 0.000000 0.000000
    14 0.000000 -0.932634 0.000000 -1.431181 0.000000 0.000000
    15 0.763064 -2.490556 -0.278958 -0.496123 0.091514 0.385812
    16 -0.012321 -1.280917 0.000000 -0.740011 0.000000 0.000000
    17 -0.001696 -0.745903 0.000571 -0.811557 0.000000 0.000000
    18 0.354567 0.016267 0.318133 0.447314 -0.548032 -0.957455
    19 1.887165 0.012878 0.000000 0.005088 -0.086158 -0.597913
    20 1.001874 -0.000270 0.000001 0.000000 0.000000 -0.347338
    21 -1.123358 -2.195092 -0.278957 -1.143193 -0.000012 -0.087266
    22 0.010772 -0.963791 0.000001 -0.610865 0.000000 0.000000
    23 -0.010413 -0.631916 0.000000 -1.212992 0.000000 0.000000
    24 -0.604999 -7.001928 -6.775891 -0.266023 0.291632 0.744775
    25 0.089928 -8.543163 -0.000001 0.383962 -0.108102 0.219894
    26 0.000001 -0.359714 0.000000 0.000000 0.000000 0.000000
    27 -0.170479 -2.636148 -0.277656 -1.274101 0.000000 0.000000
    28 0.010598 -1.261177 0.000001 -0.680651 0.000000 0.000000
    29 -0.000001 -0.943233 -0.000001 -0.532326 0.000000 0.000000
    30 -0.827562 -2.508973 -0.277656 -0.959961 0.000000 0.000000
    31 0.000000 -1.292971 0.000001 -0.907565 0.000000 0.000000
    32 -0.000001 -0.752466 0.000000 -0.445059 0.000000 0.000000
    33 0.444213 -2.561960 -0.277656 -1.448067 -0.046226 -0.024599
    34 0.021022 -1.208186 -0.000001 -0.375261 0.000000 0.000000
    35 0.010597 -0.741867 0.000000 -0.453786 0.000000 0.000000
    36 1.047445 -2.222821 -0.277656 -1.508123 -0.078971 -0.038609
    37 0.000000 -0.996223 -0.000001 -0.479986 0.000000 0.000000
    38 -0.000001 -0.614689 0.000000 -0.523599 0.000000 0.000000
    39 -0.308254 -0.007814 0.307166 0.260086 -0.189598 -2.510860
    40 1.978379 0.019543 0.000001 -0.000002 -0.000010 0.122129
    41 0.982426 0.003186 0.000001 0.000000 0.000000 0.288007
  time 18
    0 7.475294 4.442392 -5.580698 -0.957291 -1.401331 0.868533
    1 0.000000 -8.563283 -0.000004 0.326359 -0.028368 -0.307826
    2 -0.365361 -3.150737 0.772148 -1.247037 1.437608 -1.024404
    3 0.000000 2.038368 1.408873 0.000000 0.000000 0.000000
    4 0.000000 -2.240709 2.058080 0.000000 0.000000 0.000000
    5 0.000000 -0.974219 0.000000 0.000000 0.000000 0.000000
    6 0.000000 -2.855217 0.622003 0.000000 0.000000 0.000000
    7 0.000000 -5.238309 0.651979 0.000000 0.000000 0.000000
    8 -0.003480 -0.404828 0.000000 0.000000 0.000000 0.000000
    9 -0.519309 -2.501154 -0.278957 -1.247894 0.000000 -0.122173
    10 -0.010598 -1.208184 -0.000001 -0.820315 0.000000 0.000000
    11 0.000000 -0.763066 0.000000 -1.186845 0.000000 0.000000
    12 0.105982 -2.607133 -0.278958 -1.160622 0.000000 -0.148365
    13 0.000000 -1.250579 0.000000 -0.890128 0.000000 0.000000
    14 0.000000 -0.932634 0.000000 -1.431181 0.000000 0.000000
    15 0.763064 -2.490556 -0.278958 -0.496123 0.091514 0.385812
    16 -0.012321 -1.280917 0.000000 -0.740011 0.000000 0.000000
    17 -0.001696 -0.745903 0.000571 -0.811557 0.000000 0.000000
    18 0.354567 0.016267 0.318133 0.447314 -0.548032 -0.957455
    19 1.887165 0.012878 0.000000 0.005088 -0.086158 -0.597913
    20 1.001874 -0.000270 0.000001 0.000000 0.000000 -0.347338
    21 -1.123358 -2.195092 -0.278957 -1.143193 -0.000012 -0.087266
    22 0.010772 -0.963791 0.000001 -0.610865 0.000000 0.000000
    23 -0.010413 -0.631916 0.000000 -1.212992 0.000000 0.000000
    24 -0.308115 -7.294906 -6.748547 -0.314609 0.294882 0.746283
    25 0.089928 -8.543163 -0.000001 0.383467 -0.092889 0.226690
    26 0.000001 -0.359714 0.000000 0.000000 0.000000 0.000000
    27 -0.170479 -2.636148 -0.277656 -1.274101 0.000000 0.000000
    28 0.010598 -1.261177 0.000001 -0.680651 0.000000 0.000000
    29 -0.000001 -0.943233 -0.000001 -0.532326 0.000000 0.000000
    30 -0.827562 -2.508973 -0.277656 -0.959961 0.000000 0.000000
    31 0.000000 -1.292971 0.000001 -0.907565 0.000000 0.000000
    32 -0.000001 -0.752466 0.000000 -0.445059 0.000000 0.000000
    33 0.444213 -2.561960 -0.277656 -1.448067 -0.046226 -0.024599
    34 0.021022 -1.208186 -0.000001 -0.375261 0.000000 0.000000
    35 0.010597 -0.741867 0.000000 -0.453786 0.000000 0.000000
    36 1.047445 -2.222821 -0.277656 -1.508123 -0.078971 -0.038609
    37 0.000000 -0.996223 -0.000001 -0.479986 0.000000 0.000000
    38 -0.000001 -0.614689 0.000000 -0.523599 0.000000 0.000000
    39 -0.308254 -0.007814 0.307166 0.260086 -0.189598 -2.510860
    40 1.978379 0.019543 0.000001 -0.000002 -0.000010 0.122129
    41 0.982426 0.003186 0.000001 0.000000 0.000000 0.288007
  time 19
    0 7.467481 4.293949 -5.596323 -0.962520 -1.386688 0.882383
    1 0.000000 -8.563283 -0.000004 0.329775 -0.029650 -0.300088
    2 -0.365361 -3.150737 0.772148 -1.247037 1.437608 -1.024404
    3 0.000000 2.038368 1.408873 0.000000 0.000000 0.000000
    4 0.000000 -2.240709 2.058080 0.000000 0.000000 0.000000
    5 0.000000 -0.974219 0.000000 0.000000 0.000000 0.000000
    6 0.000000 -2.855217 0.622003 0.000000 0.000000 0.000000
    7 0.000000 -5.238309 0.651979 0.000000 0.000000 0.000000
    8 -0.003480 -0.404828 0.000000 0.000000 0.000000 0.000000
    9 -0.519309 -2.501154 -0.278957 -1.247894 0.000000 -0.122173
    10 -0.010598 -1.208184 -0.000001 -0.820315 0.000000 0.000000
    11 0.000000 -0.763066 0.000000 -1.186845 0.000000 0.000000
    12 0.105982 -2.607133 -0.278958 -1.160622 0.000000 -0.148365
    13 0.000000 -1.250579 0.000000 -0.890128 0.000000 0.000000
    14 0.000000 -0.932634 0.000000 -1.431181 0.000000 0.000000
    15 0.763064 -2.490556 -0.278958 -0.496123 0.091514 0.385812
    16 -0.012321 -1.280917 0.000000 -0.740011 0.000000 0.000000
    17 -0.001696 -0.745903 0.000571 -0.811557 0.000000 0.000000
    18 0.354567 0.016267 0.318133 0.447314 -0.548032 -0.957455
    19 1.887165 0.012878 0.000000 0.005088 -0.086158 -0.597913
    20 1.001874 -0.000270 0.000001 0.000000 0.000000 -0.347338
    21 -1.123358 -2.195092 -0.278957 -1.143193 -0.000012 -0.087266
    22 0.010772 -0.963791 0.000001 -0.610865 0.000000 0.000000
    23 -0.010413 -0.631916 0.000000 -1.212992 0.000000 0.000000
    24 -0.128422 -7.537101 -6.775891 -0.363465 0.297941 0.746962
    25 0.089928 -8.543163 -0.000001 0.383054 -0.076179 0.233879
    26 0.000001 -0.359714 0.000000 0.000000 0.000000 0.000000
    27 -0.170479 -2.636148 -0.277656 -1.274101 0.000000 0.000000
    28 0.010598 -1.261177 0.000001 -0.680651 0.000000 0.000000
    29 -0.000001 -0.943233 -0.000001 -0.532326 0.000000 0.000000
    30 -0.827562 -2.508973 -0.277656 -0.959961 0.000000 0.000000
    31 0.000000 -1.292971 0.000001 -0.907565 0.000000 0.000000
    32 -0.000001 -0.752466 0.000000 -0.445059 0.000000 0.000000
    33 0.444213 -2.561960 -0.277656 -1.448067 -0.046226 -0.024599
    34 0.021022 -1.208186 -0.000001 -0.375261 0.000000 0.000000
    35 0.010597 -0.741867 0.000000 -0.453786 0.000000 0.000000
    36 1.047445 -2.222821 -0.277656 -1.508123 -0.078971 -0.038609
    37 0.000000 -0.996223 -0.000001 -0.479986 0.000000 0.000000
    38 -0.000001 -0.614689 0.000000 -0.523599 0.000000 0.000000
    39 -0.308254 -0.007814 0.307166 0.260086 -0.189598 -2.510860
    40 1.978379 0.019543 0.000001 -0.000002 -0.000010 0.122129
    41 0.982426 0.003186 0.000001 0.000000 0.000000 0.288007
  time 20
    0 7.467481 4.184571 -5.615855 -0.959223 -1.376109 0.881560
    1 0.000000 -8.563283 -0.000004 0.336391 -0.032406 -0.287151
    2 -0.365361 -3.150737 0.772148 -1.247037 1.437608 -1.024404
    3 0.000000 2.038368 1.408873 0.000000 0.000000 0.000000
    4 0.000000 -2.240709 2.058080 0.000000 0.000000 0.000000
    5 0.000000 -0.974219 0.000000 0.000000 0.000000 0.000000
    6 0.000000 -2.855217 0.622003 0.000000 0.000000 0.000000
    7 0.000000 -5.238309 0.651979 0.000000 0.000000 0.000000
    8 -0.003480 -0.404828 0.000000 0.000000 0.000000 0.000000
    9 -0.519309 -2.501154 -0.278957 -1.247894 0.000000 -0.122173
    10 -0.010598 -1.208184 -0.000001 -0.820315 0.000000 0.000000
    11 0.000000 -0.763066 0.000000 -1.186845 0.000000 0.000000
    12 0.105982 -2.607133 -0.278958 -1.160622 0.000000 -0.148365
    13 0.000000 -1.250579 0.000000 -0.890128 0.000000 0.000000
    14 0.000000 -0.932634 0.000000 -1.431181 0.000000 0.000000
    15 0.763064 -2.490556 -0.278958 -0.496123 0.091514 0.385812
    16 -0.012321 -1.280917 0.000000 -0.740011 0.000000 0.000000
    17 -0.001696 -0.745903 0.000571 -0.811557 0.000000 0.000000
    18 0.354567 0.016267 0.318133 0.447314 -0.548032 -0.957455
    19 1.887165 0.012878 0.000000 0.005088 -0.086158 -0.597913
    20 1.001874 -0.000270 0.000001 0.000000 0.000000 -0.347338
    21 -1.123358 -2.195092 -0.278957 -1.143193 -0.000012 -0.087266
    22 0.010772 -0.963791 0.000001 -0.610865 0.000000 0.000000
    23 -0.010413 -0.631916 0.000000 -1.212992 0.000000 0.000000
    24 -0.042482 -7.724606 -6.850112 -0.412539 0.300618 0.746736
    25 0.089928 -8.543163 -0.000001 0.382765 -0.057873 0.241566
    26 0.000001 -0.359714 0.000000 0.000000 0.000000 0.000000
    27 -0.170479 -2.636148 -0.277656 -1.274101 0.000000 0.000000
    28 0.010598 -1.261177 0.000001 -0.680651 0.000000 0.000000
    29 -0.000001 -0.943233 -0.000001 -0.532326 0.000000 0.000000
    30 -0.827562 -2.508973 -0.277656 -0.959961 0.000000 0.000000
    31 0.000000 -1.292971 0.000001 -0.907565 0.000000 0.000000
    32 -0.000001 -0.752466 0.000000 -0.445059 0.000000 0.000000
    33 0.444213 -2.561960 -0.277656 -1.448067 -0.046226 -0.024599
    34 0.021022 -1.208186 -0.000001 -0.375261 0.000000 0.000000
    35 0.010597 -0.741867 0.000000 -0.453786 0.000000 0.000000
    36 1.047445 -2.222821 -0.277656 -1.508123 -0.078971 -0.038609
    37 0.000000 -0.996223 -0.000001 -0.479986 0.000000 0.000000
    38 -0.000001 -0.614689 0.000000 -0.523599 0.000000 0.000000
    39 -0.308254 -0.007814 0.307166 0.260086 -0.189598 -2.510860
    40 1.978379 0.019543 0.000001 -0.000002 -0.000010 0.122129
    41 0.982426 0.003186 0.000001 0.000000 0.000000 0.288007
  time 21
    0 7.483107 4.122069 -5.654919 -0.950038 -1.368903 0.869506
    1 0.000000 -8.563283 -0.000004 0.341407 -0.034767 -0.280881
    2 -0.365361 -3.150737 0.772148 -1.247037 1.437608 -1.024404
    3 0.000000 2.038368 1.408873 0.000000 0.000000 0.000000
    4 0.000000 -2.240709 2.058080 0.000000 0.000000 0.000000
    5 0.000000 -0.974219 0.000000 0.000000 0.000000 0.000000
    6 0.000000 -2.855217 0.622003 0.000000 0.000000 0.000000
    7 0.000000 -5.238309 0.651979 0.000000 0.000000 0.000000
    8 -0.003480 -0.404828 0.000000 0.000000 0.000000 0.000000
    9 -0.519309 -2.501154 -0.278957 -1.247894 0.000000 -0.122173
    10 -0.010598 -1.208184 -0.000001 -0.820315 0.000000 0.000000
    11 0.000000 -0.763066 0.000000 -1.186845 0.000000 0.000000
    12 0.105982 -2.607133 -0.278958 -1.160622 0.000000 -0.148365
    13 0.000000 -1.250579 0.000000 -0.890128 0.000000 0.000000
    14 0.000000 -0.932634 0.000000 -1.431181 0.000000 0.000000
    15 0.763064 -2.490556 -0.278958 -0.496123 0.091514 0.385812
    16 -0.012321 -1.280917 0.000000 -0.740011 0.000000 0.000000
    17 -0.001696 -0.745903 0.000571 -0.811557 0.000000 0.000000
    18 0.354567 0.016267 0.318133 0.447314 -0.548032 -0.957455
    19 1.887165 0.012878 0.000000 0.005088 -0.086158 -0.597913
    20 1.001874 -0.000270 0.000001 0.000000 0.000000 -0.347338
    21 -1.123358 -2.195092 -0.278957 -1.143193 -0.000012 -0.087266
    22 0.010772 -0.963791 0.000001 -0.610865 0.000000 0.000000
    23 -0.010413 -0.631916 0.000000 -1.212992 0.000000 0.000000
    24 -0.022950 -7.841797 -6.975116 -0.461992 0.302912 0.745529
    25 0.089928 -8.543163 -0.000001 0.382559 -0.037802 0.249726
    26 0.000001 -0.359714 0.000000 0.000000 0.000000 0.000000
    27 -0.170479 -2.636148 -0.277656 -1.274101 0.000000 0.000000
    28 0.010598 -1.261177 0.000001 -0.680651 0.000000 0.000000
    29 -0.000001 -0.943233 -0.000001 -0.532326 0.000000 0.000000
    30 -0.827562 -2.508973 -0.277656 -0.959961 0.000000 0.000000
    31 0.000000 -1.292971 0.000001 -0.907565 0.000000 0.000000
    32 -0.000001 -0.752466 0.000000 -0.445059 0.000000 0.000000
    33 0.444213 -2.561960 -0.277656 -1.448067 -0.046226 -0.024599
    34 0.021022 -1.208186 -0.000001 -0.375261 0.000000 0.000000
    35 0.010597 -0.741867 0.000000 -0.453786 0.000000 0.000000
    36 1.047445 -2.222821 -0.277656 -1.508123 -0.078971 -0.038609
    37 0.000000 -0.996223 -0.000001 -0.479986 0.000000 0.000000
    38 -0.000001 -0.614689 0.000000 -0.523599 0.000000 0.000000
    39 -0.308254 -0.007814 0.307166 0.260086 -0.189598 -2.510860
    40 1.978379 0.019543 0.000001 -0.000002 -0.000010 0.122129
    41 0.982426 0.003186 0.000001 0.000000 0.000000 0.288007
  time 22
    0 7.514358 4.118163 -5.693982 -0.936144 -1.364284 0.848318
    1 0.000000 -8.563283 -0.000004 0.345040 -0.036757 -0.280524
    2 -0.365361 -3.150737 0.772148 -1.247037 1.437608 -1.024404
    3 0.000000 2.038368 1.408873 0.000000 0.000000 0.000000
    4 0.000000 -2.240709 2.058080 0.000000 0.000000 0.000000
    5 0.000000 -0.974219 0.000000 0.000000 0.000000 0.000000
    6 0.000000 -2.855217 0.622003 0.000000 0.000000 0.000000
    7 0.000000 -5.238309 0.651979 0.000000 0.000000 0.000000
    8 -0.003480 -0.404828 0.000000 0.000000 0.000000 0.000000
    9 -0.519309 -2.501154 -0.278957 -1.247894 0.000000 -0.122173
    10 -0.010598 -1.208184 -0.000001 -0.820315 0.000000 0.000000
    11 0.000000 -0.763066 0.000000 -1.186845 0.000000 0.000000
    12 0.105982 -2.607133 -0.278958 -1.160622 0.000000 -0.148365
    13 0.000000 -1.250579 0.000000 -0.890128 0.000000 0.000000
    14 0.000000 -0.932634 0.000000 -1.431181 0.000000 0.000000
    15 0.763064 -2.490556 -0.278958 -0.496123 0.091514 0.385812
    16 -0.012321 -1.280917 0.000000 -0.740011 0.000000 0.000000
    17 -0.001696 -0.745903 0.000571 -0.811557 0.000000 0.000000
    18 0.354567 0.016267 0.318133 0.447314 -0.548032 -0.957455
    19 1.887165 0.012878 0.000000 0.005088 -0.086158 -0.597913
    20 1.001874 -0.000270 0.000001 0.000000 0.000000 -0.347338
    21 -1.123358 -2.195092 -0.278957 -1.143193 -0.000012 -0.087266
    22 0.010772 -0.963791 0.000001 -0.610865 0.000000 0.000000
    23 -0.010413 -0.631916 0.000000 -1.212992 0.000000 0.000000
    24 -0.101077 -7.892580 -7.182154 -0.486718 0.303677 0.744171
    25 0.089928 -8.543163 -0.000001 0.382559 -0.026245 0.254265
    26 0.000001 -0.359714 0.000000 0.000000 0.000000 0.000000
    27 -0.170479 -2.636148 -0.277656 -1.274101 0.000000 0.000000
    28 0.010598 -1.261177 0.000001 -0.680651 0.000000 0.000000
    29 -0.000001 -0.943233 -0.000001 -0.532326 0.000000 0.000000
    30 -0.827562 -2.508973 -0.277656 -0.959961 0.000000 0.000000
    31 0.000000 -1.292971 0.000001 -0.907565 0.000000 0.000000
    32 -0.000001 -0.752466 0.000000 -0.445059 0.000000 0.000000
    33 0.444213 -2.561960 -0.277656 -1.448067 -0.046226 -0.024599
    34 0.021022 -1.208186 -0.000001 -0.375261 0.000000 0.000000
    35 0.010597 -0.741867 0.000000 -0.453786 0.000000 0.000000
    36 1.047445 -2.222821 -0.277656 -1.508123 -0.078971 -0.038609
    37 0.000000 -0.996223 -0.000001 -0.479986 0.000000 0.000000
    38 -0.000001 -0.614689 0.000000 -0.523599 0.000000 0.000000
    39 -0.308254 -0.007814 0.307166 0.260086 -0.189598 -2.510860
    40 1.978379 0.019543 0.000001 -0.000002 -0.000010 0.122129
    41 0.982426 0.003186 0.000001 0.000000 0.000000 0.288007
  time 23
    0 7.557328 4.165039 -5.752578 -0.918435 -1.361558 0.819644
    1 0.000000 -8.563283 -0.000004 0.347591 -0.038471 -0.285028
    2 -0.365361 -3.150737 0.772148 -1.247037 1.437608 -1.024404
    3 0.000000 2.038368 1.408873 0.000000 0.000000 0.000000
    4 0.000000 -2.240709 2.058080 0.000000 0.000000 0.000000
    5 0.000000 -0.974219 0.000000 0.000000 0.000000 0.000000
    6 0.000000 -2.855217 0.622003 0.000000 0.000000 0.000000
    7 0.000000 -5.238309 0.651979 0.000000 0.000000 0.000000
    8 -0.003480 -0.404828 0.000000 0.000000 0.000000 0.000000
    9 -0.519309 -2.501154 -0.278957 -1.247894 0.000000 -0.122173
    10 -0.010598 -1.208184 -0.000001 -0.820315 0.000000 0.000000
    11 0.000000 -0.763066 0.000000 -1.186845 0.000000 0.000000
    12 0.105982 -2.607133 -0.278958 -1.160622 0.000000 -0.148365
    13 0.000000 -1.250579 0.000000 -0.890128 0.000000 0.000000
    14 0.000000 -0.932634 0.000000 -1.431181 0.000000 0.000000
    15 0.763064 -2.490556 -0.278958 -0.496123 0.091514 0.385812
    16 -0.012321 -1.280917 0.000000 -0.740011 0.000000 0.000000
    17 -0.001696 -0.745903 0.000571 -0.811557 0.000000 0.000000
    18 0.354567 0.016267 0.318133 0.447314 -0.548032 -0.957455
    19 1.887165 0.012878 0.000000 0.005088 -0.086158 -0.597913
    20 1.001874 -0.000270 0.000001 0.000000 0.000000 -0.347338
    21 -1.123358 -2.195092 -0.278957 -1.143193 -0.000012 -0.087266
    22 0.010772 -0.963791 0.000001 -0.610865 0.000000 0.000000
    23 -0.010413 -0.631916 0.000000 -1.212992 0.000000 0.000000
    24 -0.269051 -7.880861 -7.459506 -0.512801 0.302816 0.739495
    25 0.089928 -8.543163 -0.000001 0.382641 -0.007866 0.260799
    26 0.000001 -0.359714 0.000000 0.000000 0.000000 0.000000
    27 -0.170479 -2.636148 -0.277656 -1.274101 0.000000 0.000000
    28 0.010598 -1.261177 0.000001 -0.680651 0.000000 0.000000
    29 -0.000001 -0.943233 -0.000001 -0.532326 0.000000 0.000000
    30 -0.827562 -2.508973 -0.277656 -0.959961 0.000000 0.000000
    31 0.000000 -1.292971 0.000001 -0.907565 0.000000 0.000000
    32 -0.000001 -0.752466 0.000000 -0.445059 0.000000 0.000000
    33 0.444213 -2.561960 -0.277656 -1.448067 -0.046226 -0.024599
    34 0.021022 -1.208186 -0.000001 -0.375261 0.000000 0.000000
    35 0.010597 -0.741867 0.000000 -0.453786 0.000000 0.000000
    36 1.047445 -2.222821 -0.277656 -1.508123 -0.078971 -0.038609
    37 0.000000 -0.996223 -0.000001 -0.479986 0.000000 0.000000
    38 -0.000001 -0.614689 0.000000 -0.523599 0.000000 0.000000
    39 -0.308254 -0.007814 0.307166 0.260086 -0.189598 -2.510860
    40 1.978379 0.019543 0.000001 -0.000002 -0.000010 0.122129
    41 0.982426 0.003186 0.000001 0.000000 0.000000 0.288007
  time 24
    0 7.604204 4.239260 -5.815080 -0.897475 -1.359849 0.785055
    1 0.000000 -8.563283 -0.000004 0.349494 -0.040005 -0.293401
    2 -0.365361 -3.150737 0.772148 -1.247037 1.437608 -1.024404
    3 0.000000 2.038368 1.408873 0.000000 0.000000 0.000000
    4 0.000000 -2.240709 2.058080 0.000000 0.000000 0.000000
    5 0.000000 -0.974219 0.000000 0.000000 0.000000 0.000000
    6 0.000000 -2.855217 0.622003 0.000000 0.000000 0.000000
    7 0.000000 -5.238309 0.651979 0.000000 0.000000 0.000000
    8 -0.003480 -0.404828 0.000000 0.000000 0.000000 0.000000
    9 -0.519309 -2.501154 -0.278957 -1.247894 0.000000 -0.122173
    10 -0.010598 -1.208184 -0.000001 -0.820315 0.000000 0.000000
    11 0.000000 -0.763066 0.000000 -1.186845 0.000000 0.000000
    12 0.105982 -2.607133 -0.278958 -1.160622 0.000000 -0.148365
    13 0.000000 -1.250579 0.000000 -0.890128 0.000000 0.000000
    14 0.000000 -0.932634 0.000000 -1.431181 0.000000 0.000000
    15 0.763064 -2.490556 -0.278958 -0.496123 0.091514 0.385812
    16 -0.012321 -1.280917 0.000000 -0.740011 0.000000 0.000000
    17 -0.001696 -0.745903 0.000571 -0.811557 0.000000 0.000000
    18 0.354567 0.016267 0.318133 0.447314 -0.548032 -0.957455
    19 1.887165 0.012878 0.000000 0.005088 -0.086158 -0.597913
    20 1.001874 -0.000270 0.000001 0.000000 0.000000 -0.347338
    21 -1.123358 -2.195092 -0.278957 -1.143193 -0.000012 -0.087266
    22 0.010772 -0.963791 0.000001 -0.610865 0.000000 0.000000
    23 -0.010413 -0.631916 0.000000 -1.212992 0.000000 0.000000
    24 -0.464370 -7.791015 -7.740764 -0.518494 0.299375 0.732555
    25 0.089928 -8.543163 -0.000001 0.382848 0.008231 0.265679
    26 0.000001 -0.359714 0.000000 0.000000 0.000000 0.000000
    27 -0.170479 -2.636148 -0.277656 -1.274101 0.000000 0.000000
    28 0.010598 -1.261177 0.000001 -0.680651 0.000000 0.000000
    29 -0.000001 -0.943233 -0.000001 -0.532326 0.000000 0.000000
    30 -0.827562 -2.508973 -0.277656 -0.959961 0.000000 0.000000
    31 0.000000 -1.292971 0.000001 -0.907565 0.000000 0.000000
    32 -0.000001 -0.752466 0.000000 -0.445059 0.000000 0.000000
    33 0.444213 -2.561960 -0.277656 -1.448067 -0.046226 -0.024599
    34 0.021022 -1.208186 -0.000001 -0.375261 0.000000 0.000000
    35 0.010597 -0.741867 0.000000 -0.453786 0.000000 0.000000
    36 1.047445 -2.222821 -0.277656 -1.508123 -0.078971 -0.038609
    37 0.000000 -0.996223 -0.000001 -0.479986 0.000000 0.000000
    38 -0.000001 -0.614689 0.000000 -0.523599 0.000000 0.000000
    39 -0.308254 -0.007814 0.307166 0.260086 -0.189598 -2.510860
    40 1.978379 0.019543 0.000001 -0.000002 -0.000010 0.122129
    41 0.982426 0.003186 0.000001 0.000000 0.000000 0.288007
  time 25
    0 7.666706 4.348639 -5.893207 -0.874256 -1.358463 0.746124
    1 0.000000 -8.563283 -0.000004 0.351008 -0.041479 -0.304552
    2 -0.365361 -3.150737 0.772148 -1.247037 1.437608 -1.024404
    3 0.000000 2.038368 1.408873 0.000000 0.000000 0.000000
    4 0.000000 -2.240709 2.058080 0.000000 0.000000 0.000000
    5 0.000000 -0.974219 0.000000 0.000000 0.000000 0.000000
    6 0.000000 -2.855217 0.622003 0.000000 0.000000 0.000000
    7 0.000000 -5.238309 0.651979 0.000000 0.000000 0.000000
    8 -0.003480 -0.404828 0.000000 0.000000 0.000000 0.000000
    9 -0.519309 -2.501154 -0.278957 -1.247894 0.000000 -0.122173
    10 -0.010598 -1.208184 -0.000001 -0.820315 0.000000 0.000000
    11 0.000000 -0.763066 0.000000 -1.186845 0.000000 0.000000
    12 0.105982 -2.607133 -0.278958 -1.160622 0.000000 -0.148365
    13 0.000000 -1.250579 0.000000 -0.890128 0.000000 0.000000
    14 0.000000 -0.932634 0.000000 -1.431181 0.000000 0.000000
    15 0.763064 -2.490556 -0.278958 -0.496123 0.091514 0.385812
    16 -0.012321 -1.280917 0.000000 -0.740011 0.000000 0.000000
    17 -0.001696 -0.745903 0.000571 -0.811557 0.000000 0.000000
    18 0.354567 0.016267 0.318133 0.447314 -0.548032 -0.957455
    19 1.887165 0.012878 0.000000 0.005088 -0.086158 -0.597913
    20 1.001874 -0.000270 0.000001 0.000000 0.000000 -0.347338
    21 -1.123358 -2.195092 -0.278957 -1.143193 -0.000012 -0.087266
    22 0.010772 -0.963791 0.000001 -0.610865 0.000000 0.000000
    23 -0.010413 -0.631916 0.000000 -1.212992 0.000000 0.000000
    24 -0.624531 -7.611322 -7.943896 -0.508300 0.294022 0.723278
    25 0.089928 -8.543163 -0.000001 0.383095 0.023150 0.269483
    26 0.000001 -0.359714 0.000000 0.000000 0.000000 0.000000
    27 -0.170479 -2.636148 -0.277656 -1.274101 0.000000 0.000000
    28 0.010598 -1.261177 0.000001 -0.680651 0.000000 0.000000
    29 -0.000001 -0.943233 -0.000001 -0.532326 0.000000 0.000000
    30 -0.827562 -2.508973 -0.277656 -0.959961 0.000000 0.000000
    31 0.000000 -1.292971 0.000001 -0.907565 0.000000 0.000000
    32 -0.000001 -0.752466 0.000000 -0.445059 0.000000 0.000000
    33 0.444213 -2.561960 -0.277656 -1.448067 -0.046226 -0.024599
    34 0.021022 -1.208186 -0.000001 -0.375261 0.000000 0.000000
    35 0.010597 -0.741867 0.000000 -0.453786 0.000000 0.000000
    36 1.047445 -2.222821 -0.277656 -1.508123 -0.078971 -0.038609
    37 0.000000 -0.996223 -0.000001 -0.479986 0.000000 0.000000
    38 -0.000001 -0.614689 0.000000 -0.523599 0.000000 0.000000
    39 -0.308254 -0.007814 0.307166 0.260086 -0.189598 -2.510860
    40 1.978379 0.019543 0.000001 -0.000002 -0.000010 0.122129
    41 0.982426 0.003186 0.000001 0.000000 0.000000 0.288007
  time 26
    0 7.740927 4.493174 -5.986960 -0.849811 -1.356616 0.704872
    1 0.000000 -8.563283 -0.000004 0.352521 -0.043013 -0.317509
    2 -0.365361 -3.150737 0.772148 -1.247037 1.437608 -1.024404
    3 0.000000 2.038368 1.408873 0.000000 0.000000 0.000000
    4 0.000000 -2.240709 2.058080 0.000000 0.000000 0.000000
    5 0.000000 -0.974219 0.000000 0.000000 0.000000 0.000000
    6 0.000000 -2.855217 0.622003 0.000000 0.000000 0.000000
    7 0.000000 -5.238309 0.651979 0.000000 0.000000 0.000000
    8 -0.003480 -0.404828 0.000000 0.000000 0.000000 0.000000
    9 -0.519309 -2.501154 -0.278957 -1.247894 0.000000 -0.122173
    10 -0.010598 -1.208184 -0.000001 -0.820315 0.000000 0.000000
    11 0.000000 -0.763066 0.000000 -1.186845 0.000000 0.000000
    12 0.105982 -2.607133 -0.278958 -1.160622 0.000000 -0.148365
    13 0.000000 -1.250579 0.000000 -0.890128 0.000000 0.000000
    14 0.000000 -0.932634 0.000000 -1.431181 0.000000 0.000000
    15 0.763064 -2.490556 -0.278958 -0.496123 0.091514 0.385812
    16 -0.012321 -1.280917 0.000000 -0.740011 0.000000 0.000000
    17 -0.001696 -0.745903 0.000571 -0.811557 0.000000 0.000000
    18 0.354567 0.016267 0.318133 0.447314 -0.548032 -0.957455
    19 1.887165 0.012878 0.000000 0.005088 -0.086158 -0.597913
    20 1.001874 -0.000270 0.000001 0.000000 0.000000 -0.347338
    21 -1.123358 -2.195092 -0.278957 -1.143193 -0.000012 -0.087266
    22 0.010772 -0.963791 0.000001 -0.610865 0.000000 0.000000
    23 -0.010413 -0.631916 0.000000 -1.212992 0.000000 0.000000
    24 -0.737815 -7.345688 -8.061087 -0.486935 0.287330 0.711888
    25 0.089928 -8.543163 -0.000001 0.383384 0.038118 0.272763
    26 0.000001 -0.359714 0.000000 0.000000 0.000000 0.000000
    27 -0.170479 -2.636148 -0.277656 -1.274101 0.000000 0.000000
    28 0.010598 -1.261177 0.000001 -0.680651 0.000000 0.000000
    29 -0.000001 -0.943233 -0.000001 -0.532326 0.000000 0.000000
    30 -0.827562 -2.508973 -0.277656 -0.959961 0.000000 0.000000
    31 0.000000 -1.292971 0.000001 -0.907565 0.000000 0.000000
    32 -0.000001 -0.752466 0.000000 -0.445059 0.000000 0.000000
    33 0.444213 -2.561960 -0.277656 -1.448067 -0.046226 -0.024599
    34 0.021022 -1.208186 -0.000001 -0.375261 0.000000 0.000000
    35 0.010597 -0.741867 0.000000 -0.453786 0.000000 0.000000
    36 1.047445 -2.222821 -0.277656 -1.508123 -0.078971 -0.038609
    37 0.000000 -0.996223 -0.000001 -0.479986 0.000000 0.000000
    38 -0.000001 -0.614689 0.000000 -0.523599 0.000000 0.000000
    39 -0.308254 -0.007814 0.307166 0.260086 -0.189598 -2.510860
    40 1.978379 0.019543 0.000001 -0.000002 -0.000010 0.122129
    41 0.982426 0.003186 0.000001 0.000000 0.000000 0.288007
  time 27
    0 7.819054 4.661148 -6.080713 -0.825743 -1.353613 0.663621
    1 0.000000 -8.563283 -0.000004 0.354294 -0.044703 -0.331200
    2 -0.365361 -3.150737 0.772148 -1.247037 1.437608 -1.024404
    3 0.000000 2.038368 1.408873 0.000000 0.000000 0.000000
    4 0.000000 -2.240709 2.058080 0.000000 0.000000 0.000000
    5 0.000000 -0.974219 0.000000 0.000000 0.000000 0.000000
    6 0.000000 -2.855217 0.622003 0.000000 0.000000 0.000000
    7 0.000000 -5.238309 0.651979 0.000000 0.000000 0.000000
    8 -0.003480 -0.404828 0.000000 0.000000 0.000000 0.000000
    9 -0.519309 -2.501154 -0.278957 -1.247894 0.000000 -0.122173
    10 -0.010598 -1.208184 -0.000001 -0.820315 0.000000 0.000000
    11 0.000000 -0.763066 0.000000 -1.186845 0.000000 0.000000
    12 0.105982 -2.607133 -0.278958 -1.160622 0.000000 -0.148365
    13 0.000000 -1.250579 0.000000 -0.890128 0.000000 0.000000
    14 0.000000 -0.932634 0.000000 -1.431181 0.000000 0.000000
    15 0.763064 -2.490556 -0.278958 -0.496123 0.091514 0.385812
    16 -0.012321 -1.280917 0.000000 -0.740011 0.000000 0.000000
    17 -0.001696 -0.745903 0.000571 -0.811557 0.000000 0.000000
    18 0.354567 0.016267 0.318133 0.447314 -0.548032 -0.957455
    19 1.887165 0.012878 0.000000 0.005088 -0.086158 -0.597913
    20 1.001874 -0.000270 0.000001 0.000000 0.000000 -0.347338
    21 -1.123358 -2.195092 -0.278957 -1.143193 -0.000012 -0.087266
    22 0.010772 -0.963791 0.000001 -0.610865 0.000000 0.000000
    23 -0.010413 -0.631916 0.000000 -1.212992 0.000000 0.000000
    24 -0.839381 -6.994115 -8.135308 -0.458901 0.279587 0.698538
    25 0.089928 -8.543163 -0.000001 0.383797 0.054386 0.276069
    26 0.000001 -0.359714 0.000000 0.000000 0.000000 0.000000
    27 -0.170479 -2.636148 -0.277656 -1.274101 0.000000 0.000000
    28 0.010598 -1.261177 0.000001 -0.680651 0.000000 0.000000
    29 -0.000001 -0.943233 -0.000001 -0.532326 0.000000 0.000000
    30 -0.827562 -2.508973 -0.277656 -0.959961 0.000000 0.000000
    31 0.000000 -1.292971 0.000001 -0.907565 0.000000 0.000000
    32 -0.000001 -0.752466 0.000000 -0.445059 0.000000 0.000000
    33 0.444213 -2.561960 -0.277656 -1.448067 -0.046226 -0.024599
    34 0.021022 -1.208186 -0.000001 -0.375261 0.000000 0.000000
    35 0.010597 -0.741867 0.000000 -0.453786 0.000000 0.000000
    36 1.047445 -2.222821 -0.277656 -1.508123 -0.078971 -0.038609
    37 0.000000 -0.996223 -0.000001 -0.479986 0.000000 0.000000
    38 -0.000001 -0.614689 0.000000 -0.523599 0.000000 0.000000
    39 -0.308254 -0.007814 0.307166 0.260086 -0.189598 -2.510860
    40 1.978379 0.019543 0.000001 -0.000002 -0.000010 0.122129
    41 0.982426 0.003186 0.000001 0.000000 0.000000 0.288007
  time 28
    0 7.901088 4.868186 -6.190091 -0.803889 -1.348809 0.625214
    1 0.000000 -8.563283 -0.000004 0.356802 -0.046704 -0.344633
    2 -0.365361 -3.150737 0.772148 -1.247037 1.437608 -1.024404
    3 0.000000 2.038368 1.408873 0.000000 0.000000 0.000000
    4 0.000000 -2.240709 2.058080 0.000000 0.000000 0.000000
    5 0.000000 -0.974219 0.000000 0.000000 0.000000 0.000000
    6 0.000000 -2.855217 0.622003 0.000000 0.000000 0.000000
    7 0.000000 -5.238309 0.651979 0.000000 0.000000 0.000000
    8 -0.003480 -0.404828 0.000000 0.000000 0.000000 0.000000
    9 -0.519309 -2.501154 -0.278957 -1.247894 0.000000 -0.122173
    10 -0.010598 -1.208184 -0.000001 -0.820315 0.000000 0.000000
    11 0.000000 -0.763066 0.000000 -1.186845 0.000000 0.000000
    12 0.105982 -2.607133 -0.278958 -1.160622 0.000000 -0.148365
    13 0.000000 -1.250579 0.000000 -0.890128 0.000000 0.000000
    14 0.000000 -0.932634 0.000000 -1.431181 0.000000 0.000000
    15 0.763064 -2.490556 -0.278958 -0.496123 0.091514 0.385812
    16 -0.012321 -1.280917 0.000000 -0.740011 0.000000 0.000000
    17 -0.001696 -0.745903 0.000571 -0.811557 0.000000 0.000000
    18 0.354567 0.016267 0.318133 0.447314 -0.548032 -0.957455
    19 1.887165 0.012878 0.000000 0.005088 -0.086158 -0.597913
    20 1.001874 -0.000270 0.000001 0.000000 0.000000 -0.347338
    21 -1.123358 -2.195092 -0.278957 -1.143193 -0.000012 -0.087266
    22 0.010772 -0.963791 0.000001 -0.610865 0.000000 0.000000
    23 -0.010413 -0.631916 0.000000 -1.212992 0.000000 0.000000
    24 -0.921415 -6.560508 -8.158746 -0.428752 0.271462 0.683377
    25 0.089928 -8.543163 -0.000001 0.384293 0.073084 0.280005
    26 0.000001 -0.359714 0.000000 0.000000 0.000000 0.000000
    27 -0.170479 -2.636148 -0.277656 -1.274101 0.000000 0.000000
    28 0.010598 -1.261177 0.000001 -0.680651 0.000000 0.000000
    29 -0.000001 -0.943233 -0.000001 -0.532326 0.000000 0.000000
    30 -0.827562 -2.508973 -0.277656 -0.959961 0.000000 0.000000
    31 0.000000 -1.292971 0.000001 -0.907565 0.000000 0.000000
    32 -0.000001 -0.752466 0.000000 -0.445059 0.000000 0.000000
    33 0.444213 -2.561960 -0.277656 -1.448067 -0.046226 -0.024599
    34 0.021022 -1.208186 -0.000001 -0.375261 0.000000 0.000000
    35 0.010597 -0.741867 0.000000 -0.453786 0.000000 0.000000
    36 1.047445 -2.222821 -0.277656 -1.508123 -0.078971 -0.038609
    37 0.000000 -0.996223 -0.000001 -0.479986 0.000000 0.000000
    38 -0.000001 -0.614689 0.000000 -0.523599 0.000000 0.000000
    39 -0.308254 -0.007814 0.307166 0.260086 -0.189598 -2.510860
    40 1.978379 0.019543 0.000001 -0.000002 -0.000010 0.122129
    41 0.982426 0.003186 0.000001 0.000000 0.000000 0.288007
  time 29
    0 8.002654 5.098662 -6.315095 -0.786180 -1.341556 0.592272
    1 0.000000 -8.563283 -0.000004 0.360218 -0.049077 -0.356756
    2 -0.365361 -3.150737 0.772148 -1.247037 1.437608 -1.024404
    3 0.000000 2.038368 1.408873 0.000000 0.000000 0.000000
    4 0.000000 -2.240709 2.058080 0.000000 0.000000 0.000000
    5 0.000000 -0.974219 0.000000 0.000000 0.000000 0.000000
    6 0.000000 -2.855217 0.622003 0.000000 0.000000 0.000000
    7 0.000000 -5.238309 0.651979 0.000000 0.000000 0.000000
    8 -0.003480 -0.404828 0.000000 0.000000 0.000000 0.000000
    9 -0.519309 -2.501154 -0.278957 -1.247894 0.000000 -0.122173
    10 -0.010598 -1.208184 -0.000001 -0.820315 0.000000 0.000000
    11 0.000000 -0.763066 0.000000 -1.186845 0.000000 0.000000
    12 0.105982 -2.607133 -0.278958 -1.160622 0.000000 -0.148365
    13 0.000000 -1.250579 0.000000 -0.890128 0.000000 0.000000
    14 0.000000 -0.932634 0.000000 -1.431181 0.000000 0.000000
    15 0.763064 -2.490556 -0.278958 -0.496123 0.091514 0.385812
    16 -0.012321 -1.280917 0.000000 -0.740011 0.000000 0.000000
    17 -0.001696 -0.745903 0.000571 -0.811557 0.000000 0.000000
    18 0.354567 0.016267 0.318133 0.447314 -0.548032 -0.957455
    19 1.887165 0.012878 0.000000 0.005088 -0.086158 -0.597913
    20 1.001874 -0.000270 0.000001 0.000000 0.000000 -0.347338
    21 -1.123358 -2.195092 -0.278957 -1.143193 -0.000012 -0.087266
    22 0.010772 -0.963791 0.000001 -0.610865 0.000000 0.000000
    23 -0.010413 -0.631916 0.000000 -1.212992 0.000000 0.000000
    24 -0.991729 -6.040961 -8.131401 -0.401043 0.263241 0.666632
    25 0.089928 -8.543163 -0.000001 0.385036 0.095462 0.285121
    26 0.000001 -0.359714 0.000000 0.000000 0.000000 0.000000
    27 -0.170479 -2.636148 -0.277656 -1.274101 0.000000 0.000000
    28 0.010598 -1.261177 0.000001 -0.680651 0.000000 0.000000
    29 -0.000001 -0.943233 -0.000001 -0.532326 0.000000 0.000000
    30 -0.827562 -2.508973 -0.277656 -0.959961 0.000000 0.000000
    31 0.000000 -1.292971 0.000001 -0.907565 0.000000 0.000000
    32 -0.000001 -0.752466 0.000000 -0.445059 0.000000 0.000000
    33 0.444213 -2.561960 -0.277656 -1.448067 -0.046226 -0.024599
    34 0.021022 -1.208186 -0.000001 -0.375261 0.000000 0.000000
    35 0.010597 -0.741867 0.000000 -0.453786 0.000000 0.000000
    36 1.047445 -2.222821 -0.277656 -1.508123 -0.078971 -0.038609
    37 0.000000 -0.996223 -0.000001 -0.479986 0.000000 0.000000
    38 -0.000001 -0.614689 0.000000 -0.523599 0.000000 0.000000
    39 -0.308254 -0.007814 0.307166 0.260086 -0.189598 -2.510860
    40 1.978379 0.019543 0.000001 -0.000002 -0.000010 0.122129
    41 0.982426 0.003186 0.000001 0.000000 0.000000 0.288007
  time 30
    0 8.108126 5.368201 -6.440099 -0.774264 -1.331348 0.567266
    1 0.000000 -8.563283 -0.000004 0.364975 -0.051929 -0.366558
    2 -0.365361 -3.150737 0.772148 -1.247037 1.437608 -1.024404
    3 0.000000 2.038368 1.408873 0.000000 0.000000 0.000000
    4 0.000000 -2.240709 2.058080 0.000000 0.000000 0.000000
    5 0.000000 -0.974219 0.000000 0.000000 0.000000 0.000000
    6 0.000000 -2.855217 0.622003 0.000000 0.000000 0.000000
    7 0.000000 -5.238309 0.651979 0.000000 0.000000 0.000000
    8 -0.003480 -0.404828 0.000000 0.000000 0.000000 0.000000
    9 -0.519309 -2.501154 -0.278957 -1.247894 0.000000 -0.122173
    10 -0.010598 -1.208184 -0.000001 -0.820315 0.000000 0.000000
    11 0.000000 -0.763066 0.000000 -1.186845 0.000000 0.000000
    12 0.105982 -2.607133 -0.278958 -1.160622 0.000000 -0.148365
    13 0.000000 -1.250579 0.000000 -0.890128 0.000000 0.000000
    14 0.000000 -0.932634 0.000000 -1.431181 0.000000 0.000000
    15 0.763064 -2.490556 -0.278958 -0.496123 0.091514 0.385812
    16 -0.012321 -1.280917 0.000000 -0.740011 0.000000 0.000000
    17 -0.001696 -0.745903 0.000571 -0.811557 0.000000 0.000000
    18 0.354567 0.016267 0.318133 0.447314 -0.548032 -0.957455
    19 1.887165 0.012878 0.000000 0.005088 -0.086158 -0.597913
    20 1.001874 -0.000270 0.000001 0.000000 0.000000 -0.347338
    21 -1.123358 -2.195092 -0.278957 -1.143193 -0.000012 -0.087266
    22 0.010772 -0.963791 0.000001 -0.610865 0.000000 0.000000
    23 -0.010413 -0.631916 0.000000 -1.212992 0.000000 0.000000
    24 -1.050325 -5.439380 -8.057180 -0.380492 0.255020 0.648680
    25 0.089928 -8.543163 -0.000001 0.386068 0.122625 0.292074
    26 0.000001 -0.359714 0.000000 0.000000 0.000000 0.000000
    27 -0.170479 -2.636148 -0.277656 -1.274101 0.000000 0.000000
    28 0.010598 -1.261177 0.000001 -0.680651 0.000000 0.000000
    29 -0.000001 -0.943233 -0.000001 -0.532326 0.000000 0.000000
    30 -0.827562 -2.508973 -0.277656 -0.959961 0.000000 0.000000
    31 0.000000 -1.292971 0.000001 -0.907565 0.000000 0.000000
    32 -0.000001 -0.752466 0.000000 -0.445059 0.000000 0.000000
    33 0.444213 -2.561960 -0.277656 -1.448067 -0.046226 -0.024599
    34 0.021022 -1.208186 -0.000001 -0.375261 0.000000 0.000000
    35 0.010597 -0.741867 0.000000 -0.453786 0.000000 0.000000
    36 1.047445 -2.222821 -0.277656 -1.508123 -0.078971 -0.038609
    37 0.000000 -0.996223 -0.000001 -0.479986 0.000000 0.000000
    38 -0.000001 -0.614689 0.000000 -0.523599 0.000000 0.000000
    39 -0.308254 -0.007814 0.307166 0.260086 -0.189598 -2.510860
    40 1.978379 0.019543 0.000001 -0.000002 -0.000010 0.122129
    41 0.982426 0.003186 0.000001 0.000000 0.000000 0.288007
end
