version 1
nodes
  0 "vulcanus11_root" -1
  1 "bullet" 0
  2 "triger" 0
  3 "pump" 0
  4 "bmode01" 0
  5 "bmode02" 0
  6 "bmode03" 5
  7 "bmode04" 0
  8 "button" 7
  9 "pump02" 0
  10 "root" -1
  11 "Bone01" 10
  12 "Bone_L_Upper" 11
  13 "Bone_Lefthand" 11
  14 "Bone13" 13
  15 "Bone14" 14
  16 "Bone15" 15
  17 "Bone17" 13
  18 "Bone18" 17
  19 "Bone19" 18
  20 "Bone21" 13
  21 "Bone22" 20
  22 "Bone23" 21
  23 "Bone09" 13
  24 "Bone10" 23
  25 "Bone11" 24
  26 "Bone05" 13
  27 "Bone06" 26
  28 "Bone07" 27
  29 "Bone_Se_Hand-L" 13
  30 "Bone04" 10
  31 "Bone_Righthand" 30
  32 "Bone39" 31
  33 "Bone40" 32
  34 "Bone41" 33
  35 "Bone35" 31
  36 "Bone36" 35
  37 "Bone37" 36
  38 "Bone31" 31
  39 "Bone32" 38
  40 "Bone33" 39
  41 "Bone43" 31
  42 "Bone44" 41
  43 "Bone45" 42
  44 "Bone27" 31
  45 "Bone28" 44
  46 "Bone29" 45
  47 "Bone_Se_Hand-R" 31
  48 "Bone_R_Upper" 30
end
skeleton
  time 0
    0 5.531419 -5.808771 -3.011811 1.479428 -0.433650 -1.569106
    1 -0.413560 -6.281051 0.019683 0.000000 0.000000 0.777745
    2 0.444448 -1.806709 0.000000 -0.000010 0.000000 -1.570796
    3 7.631212 -2.347096 -0.000001 0.000000 0.000000 0.000000
    4 -0.755742 1.477742 -0.015625 0.000000 0.000000 0.000000
    5 5.490753 0.355225 -0.000002 0.000000 0.000000 0.000000
    6 -5.047834 0.000001 0.000002 0.000000 0.000000 0.000000
    7 0.485187 1.671306 0.000000 0.000000 0.000000 0.000000
    8 0.651094 0.256233 0.000151 0.000000 0.000000 1.570796
    9 4.102913 -1.089239 0.701719 1.570797 -1.570796 0.000000
    10 -1.393420 -1.134112 -3.632304 0.000000 0.000000 0.000000
    11 7.770994 5.720254 -2.143578 5.770016 -2.301782 0.395798
    12 5.804194 6.797681 -0.333406 1.539710 -3.127538 0.969119
    13 0.060896 -8.576864 -0.072883 0.460120 0.614722 1.031992
    14 -0.488518 -2.755602 -0.228260 -0.314476 -0.184849 -0.218889
    15 0.039887 -1.534479 0.014229 -1.583297 -0.011050 0.035439
    16 0.028786 -1.212454 -0.132487 -1.414985 -0.014010 0.031975
    17 0.250027 -2.820665 -0.238396 -0.275538 -0.272562 -0.142119
    18 -0.049759 -1.598510 0.041883 -1.441468 0.002505 -0.039204
    19 -0.034142 -1.179563 0.045718 -1.331148 0.004566 -0.035115
    20 0.957766 -2.746780 -0.090302 -0.004290 -0.208897 0.116786
    21 -0.033420 -1.397129 -0.015163 -0.407067 0.007730 -0.019644
    22 -0.022360 -0.957436 0.010971 -0.359191 0.006927 -0.016874
    23 -1.180681 -2.507217 -0.193859 -0.151468 0.006019 -0.125748
    24 -0.024967 -1.127840 0.017597 -1.126753 0.001366 -0.048021
    25 -0.020057 -0.906594 0.037435 -1.249434 0.000324 -0.051102
    26 0.618667 -1.197277 0.185379 0.882438 -1.106479 -1.143102
    27 1.481238 -0.212417 0.067511 0.047072 -0.212187 -0.756130
    28 1.034363 -0.159541 0.036197 0.054227 -0.208894 -0.860780
    29 0.120153 -0.050270 -0.054489 0.589772 3.217556 1.464753
    30 -4.333393 -3.145259 -8.958588 0.245281 -3.926734 0.973247
    31 -0.039779 -8.450418 -0.142182 -0.015207 -0.346055 0.006366
    32 0.447953 -2.798986 -0.200443 -0.860365 -0.248265 0.060517
    33 -0.032909 -1.499736 0.028378 -1.459098 0.023358 -0.028413
    34 -0.027022 -1.135516 -0.020210 -1.478450 0.024904 -0.029266
    35 -0.249534 -2.846964 -0.174213 -0.728010 -0.204834 -0.077919
    36 0.043235 -1.656596 0.064761 -1.553241 -0.023339 0.009816
    37 0.031729 -1.141298 0.054932 -1.235496 -0.013811 0.006802
    38 -0.963866 -2.785145 -0.085350 -0.553581 -0.132173 -0.400172
    39 0.028479 -1.403067 -0.013261 -0.756192 -0.017258 -0.029278
    40 0.021413 -0.942156 0.012233 -1.061279 -0.029386 -0.035319
    41 1.164475 -2.543940 -0.170330 -0.986277 -0.449500 0.112790
    42 0.024032 -1.144668 -0.005631 -1.188796 0.018672 0.059277
    43 0.014898 -0.907427 -0.008129 -1.374452 0.024113 0.064309
    44 -0.586770 -1.264477 0.200161 -0.114281 -0.697282 -2.953363
    45 1.522835 0.058681 0.016848 0.001434 0.009033 -0.049019
    46 1.114041 0.044518 -0.005766 -0.017429 -0.034318 0.680501
    47 -0.002676 -0.002320 0.002678 0.391247 0.025623 1.274548
    48 -7.010829 1.639739 -4.958327 1.741504 -0.572528 -0.317328
  time 1
    0 5.504074 -5.812677 -3.011811 1.477798 -0.433171 -1.571429
    1 -0.311994 -5.527122 0.019683 0.000000 0.000000 0.647009
    2 0.444448 -1.806709 0.000000 -0.000010 0.000000 -1.570796
    3 7.631212 -2.347096 -0.000001 0.000000 0.000000 0.000000
    4 -0.755742 1.477742 -0.015625 0.000000 0.000000 0.000000
    5 5.490753 0.355225 -0.000002 0.000000 0.000000 0.000000
    6 -5.047834 0.000001 0.000002 0.000000 0.000000 0.000000
    7 0.485187 1.671306 0.000000 0.000000 0.000000 0.000000
    8 0.651094 0.256233 0.000151 0.000000 0.000000 1.570796
    9 4.102913 -1.089239 0.701719 1.570797 -1.570796 0.000000
    10 -1.393420 -1.134112 -3.632304 0.000000 0.000000 0.000000
    11 7.770994 5.716347 -2.143578 5.768618 -2.299482 0.393831
    12 5.812006 6.789868 -0.333406 1.539710 -3.127538 0.967972
    13 0.060896 -8.576864 -0.072883 0.459042 0.614272 1.030734
    14 -0.488518 -2.755602 -0.228260 -0.314476 -0.184849 -0.218889
    15 0.039887 -1.534479 0.014229 -1.583297 -0.011050 0.035439
    16 0.028786 -1.212454 -0.132487 -1.414985 -0.014010 0.031975
    17 0.250027 -2.820665 -0.238396 -0.275538 -0.272562 -0.142119
    18 -0.049759 -1.598510 0.041883 -1.441468 0.002505 -0.039204
    19 -0.034142 -1.179563 0.045718 -1.331148 0.004566 -0.035115
    20 0.957766 -2.746780 -0.090302 -0.004290 -0.208897 0.116786
    21 -0.033420 -1.397129 -0.015163 -0.407067 0.007730 -0.019644
    22 -0.022360 -0.957436 0.010971 -0.359191 0.006927 -0.016874
    23 -1.180681 -2.507217 -0.193859 -0.151468 0.006019 -0.125748
    24 -0.024967 -1.127840 0.017597 -1.126753 0.001366 -0.048021
    25 -0.020057 -0.906594 0.037435 -1.249434 0.000324 -0.051102
    26 0.618667 -1.197277 0.185379 0.882438 -1.106479 -1.143078
    27 1.481238 -0.212417 0.067511 0.047072 -0.212187 -0.756153
    28 1.034363 -0.159541 0.036197 0.054227 -0.208894 -0.860780
    29 0.120153 -0.050270 -0.054489 0.589772 3.217556 1.464753
    30 -4.681060 -4.090600 -8.669517 0.481853 -3.683063 1.276814
    31 0.011004 -8.458231 -0.189058 0.001472 -0.079662 -0.028038
    32 0.447953 -2.798986 -0.200443 -0.855242 -0.235686 0.065491
    33 -0.032909 -1.499736 0.028378 -1.472805 0.023346 -0.028809
    34 -0.027022 -1.135516 -0.016304 -1.504981 0.024856 -0.030021
    35 -0.249534 -2.846964 -0.174213 -0.791061 -0.199249 -0.068055
    36 0.043235 -1.656596 0.064761 -1.565969 -0.023435 0.010044
    37 0.031729 -1.141298 0.054932 -1.248216 -0.013955 0.006886
    38 -0.963866 -2.785145 -0.085350 -0.333128 -0.090719 -0.332615
    39 0.028479 -1.403067 -0.021074 -0.994277 -0.026510 -0.034755
    40 0.021413 -0.942156 0.012233 -1.099949 -0.031052 -0.035882
    41 1.164475 -2.543940 -0.170330 -0.976576 -0.434500 0.110237
    42 0.024032 -1.144668 -0.009538 -1.219839 0.020050 0.060355
    43 0.014898 -0.907427 -0.008129 -1.405514 0.025611 0.065208
    44 -0.586770 -1.264477 0.200161 -0.175738 -0.516143 -2.645110
    45 1.522835 0.062587 0.016848 0.002644 0.012125 -0.165845
    46 1.117947 0.048424 -0.005766 -0.005300 -0.029405 0.270655
    47 -0.002676 -0.002320 0.002678 0.327251 -0.007771 1.367051
    48 -7.014735 -0.059532 -4.973952 1.611127 -0.595454 -0.074821
  time 2
    0 5.445479 -5.820490 -3.011811 1.472909 -0.432500 -1.576832
    1 0.441935 -4.956792 0.019683 0.000000 0.000000 0.647009
    2 0.444448 -1.806709 0.000000 -0.000010 0.000000 -1.570796
    3 7.631212 -2.347096 -0.000001 0.000000 0.000000 0.000000
    4 -0.755742 1.477742 -0.015625 0.000000 0.000000 0.000000
    5 5.490753 0.355225 -0.000002 0.000000 0.000000 0.000000
    6 -5.047834 0.000001 0.000002 0.000000 0.000000 0.000000
    7 0.485187 1.671306 0.000000 0.000000 0.000000 0.000000
    8 0.651094 0.256233 0.000151 0.000000 0.000000 1.570796
    9 4.102913 -1.089239 0.701719 1.570797 -1.570796 0.000000
    10 -1.393420 -1.134112 -3.632304 0.000000 0.000000 0.000000
    11 7.778807 5.708534 -2.147485 5.765916 -2.294041 0.388584
    12 5.827632 6.774243 -0.333406 1.539710 -3.127538 0.965296
    13 0.060896 -8.576864 -0.072883 0.457393 0.613994 1.028764
    14 -0.488518 -2.755602 -0.228260 -0.314476 -0.184849 -0.218889
    15 0.039887 -1.534479 0.014229 -1.583297 -0.011050 0.035439
    16 0.028786 -1.212454 -0.132487 -1.414985 -0.014010 0.031975
    17 0.250027 -2.820665 -0.238396 -0.275538 -0.272562 -0.142119
    18 -0.049759 -1.598510 0.041883 -1.441468 0.002505 -0.039204
    19 -0.034142 -1.179563 0.045718 -1.331148 0.004566 -0.035115
    20 0.957766 -2.746780 -0.090302 -0.004290 -0.208897 0.116786
    21 -0.033420 -1.397129 -0.015163 -0.407067 0.007730 -0.019644
    22 -0.022360 -0.957436 0.010971 -0.359191 0.006927 -0.016874
    23 -1.180681 -2.507217 -0.193859 -0.151468 0.006019 -0.125748
    24 -0.024967 -1.127840 0.017597 -1.126753 0.001366 -0.048021
    25 -0.020057 -0.906594 0.037435 -1.249434 0.000324 -0.051102
    26 0.618667 -1.197277 0.185379 0.882438 -1.106479 -1.143102
    27 1.481238 -0.212417 0.067511 0.047072 -0.212187 -0.756153
    28 1.034363 -0.159541 0.036197 0.054227 -0.208894 -0.860780
    29 0.120153 -0.050270 -0.054489 0.589772 3.217556 1.464753
    30 -4.556056 -5.508612 -8.294505 0.529632 -3.456433 1.375967
    31 0.034442 -8.473857 -0.228122 0.014092 0.094892 -0.093653
    32 0.447953 -2.798986 -0.200443 -0.860365 -0.248265 0.060517
    33 -0.032909 -1.499736 0.028378 -1.459098 0.023358 -0.028413
    34 -0.027022 -1.135516 -0.020210 -1.478450 0.024904 -0.029266
    35 -0.249534 -2.846964 -0.174213 -0.728010 -0.204834 -0.077919
    36 0.043235 -1.656596 0.064761 -1.553241 -0.023339 0.009816
    37 0.031729 -1.141298 0.054932 -1.235496 -0.013811 0.006802
    38 -0.963866 -2.785145 -0.085350 0.039899 -0.015491 -0.206776
    39 0.028479 -1.406973 -0.024980 -1.147834 -0.033054 -0.037056
    40 0.021413 -0.942156 0.012233 -1.061279 -0.029386 -0.035319
    41 1.164475 -2.543940 -0.170330 -0.986277 -0.449500 0.112790
    42 0.024032 -1.144668 -0.005631 -1.188796 0.018672 0.059277
    43 0.014898 -0.907427 -0.008129 -1.374452 0.024113 0.064309
    44 -0.586770 -1.264477 0.200161 -0.179081 -0.238052 -2.330051
    45 1.522835 0.062587 0.016848 0.002752 0.012485 -0.179219
    46 1.117947 0.048424 -0.005766 0.005605 -0.016965 -0.250321
    47 -0.002676 -0.002320 0.002678 0.231027 -0.081223 1.570572
    48 -7.026454 0.100629 -4.981765 1.623657 -0.594403 -0.097876
  time 3
    0 5.386883 -5.828303 -3.000092 1.464472 -0.433267 -1.582990
    1 1.301336 -4.308335 0.019683 0.000000 0.000000 0.647009
    2 0.444448 -1.806709 0.000000 -0.000010 0.000000 -1.570796
    3 7.631212 -2.347096 -0.000001 0.000000 0.000000 0.000000
    4 -0.755742 1.477742 -0.015625 0.000000 0.000000 0.000000
    5 5.490753 0.355225 -0.000002 0.000000 0.000000 0.000000
    6 -5.047834 0.000001 0.000002 0.000000 0.000000 0.000000
    7 0.485187 1.671306 0.000000 0.000000 0.000000 0.000000
    8 0.651094 0.256233 0.000151 0.000000 0.000000 1.570796
    9 4.102913 -1.089239 0.701719 1.570797 -1.570796 0.000000
    10 -1.393420 -1.134112 -3.632304 0.000000 0.000000 0.000000
    11 7.790526 5.689003 -2.159204 5.764332 -2.287297 0.380641
    12 5.843257 6.758617 -0.333406 1.539710 -3.127443 0.962428
    13 0.060896 -8.576864 -0.072883 0.457499 0.615536 1.028722
    14 -0.488518 -2.755602 -0.228260 -0.314476 -0.184849 -0.218889
    15 0.039887 -1.534479 0.014229 -1.583297 -0.011050 0.035439
    16 0.028786 -1.212454 -0.132487 -1.414985 -0.014010 0.031975
    17 0.250027 -2.820665 -0.238396 -0.275538 -0.272562 -0.142119
    18 -0.049759 -1.598510 0.041883 -1.441468 0.002505 -0.039204
    19 -0.034142 -1.179563 0.045718 -1.331148 0.004566 -0.035115
    20 0.957766 -2.746780 -0.090302 -0.004290 -0.208897 0.116786
    21 -0.033420 -1.397129 -0.015163 -0.407067 0.007730 -0.019644
    22 -0.022360 -0.957436 0.010971 -0.359191 0.006927 -0.016874
    23 -1.180681 -2.507217 -0.193859 -0.151468 0.006019 -0.125748
    24 -0.024967 -1.127840 0.017597 -1.126753 0.001366 -0.048021
    25 -0.020057 -0.906594 0.037435 -1.249434 0.000324 -0.051102
    26 0.618667 -1.197277 0.185379 0.882438 -1.106479 -1.143078
    27 1.481238 -0.212417 0.067511 0.047072 -0.212187 -0.756153
    28 1.034363 -0.159541 0.036197 0.054227 -0.208894 -0.860780
    29 0.120153 -0.050270 -0.054489 0.589772 3.217556 1.464753
    30 -3.403677 -5.696118 -8.610921 0.599051 -3.564016 1.404162
    31 0.034442 -8.524639 -0.220309 0.146185 0.096378 -0.242260
    32 0.447953 -2.798986 -0.200443 -0.962145 -0.246912 0.057844
    33 -0.032909 -1.499736 0.032285 -1.561554 0.023166 -0.031326
    34 -0.027022 -1.135516 -0.020210 -1.478450 0.024904 -0.029266
    35 -0.249534 -2.846964 -0.174213 -0.551323 -0.207638 -0.089939
    36 0.043235 -1.656596 0.064761 -1.586141 -0.023591 0.010415
    37 0.031729 -1.141298 0.054932 -1.268380 -0.014183 0.007018
    38 -0.963866 -2.785145 -0.085350 0.088026 0.056979 -0.195835
    39 0.028479 -1.403067 -0.017167 -0.877329 -0.021800 -0.032334
    40 0.021413 -0.946062 0.016140 -0.751884 -0.017138 -0.028643
    41 1.164475 -2.543940 -0.170330 -1.049631 -0.447167 0.115658
    42 0.024032 -1.148574 -0.009538 -1.250842 0.021452 0.061386
    43 0.014898 -0.907427 -0.008129 -1.436486 0.027133 0.066059
    44 -0.586770 -1.264477 0.200161 -0.173029 -0.209314 -2.294974
    45 1.518929 0.062587 0.016848 0.002824 0.012712 -0.187365
    46 1.121853 0.048424 -0.005766 0.006384 -0.015263 -0.308457
    47 -0.002676 -0.002320 0.002678 0.143361 -0.154711 1.774067
    48 -7.018642 1.530360 -4.966140 1.733278 -0.574821 -0.301801
  time 4
    0 5.359539 -5.832209 -2.972747 1.452008 -0.436718 -1.587521
    1 2.141206 -3.675503 0.019683 0.000000 0.000000 0.647009
    2 0.444448 -1.806709 0.000000 -0.000010 0.000000 -1.570796
    3 7.631212 -2.347096 -0.000001 0.000000 0.000000 0.000000
    4 -0.755742 1.477742 -0.015625 0.000000 0.000000 0.000000
    5 5.490753 0.355225 -0.000002 0.000000 0.000000 0.000000
    6 -5.047834 0.000001 0.000002 0.000000 0.000000 0.000000
    7 0.485187 1.671306 0.000000 0.000000 0.000000 0.000000
    8 0.651094 0.256233 0.000151 0.000000 0.000000 1.570796
    9 4.102913 -1.089239 0.701719 1.570797 -1.570796 0.000000
    10 -1.393420 -1.134112 -3.632304 0.000000 0.000000 0.000000
    11 7.806151 5.665564 -2.178736 5.766196 -2.281396 0.370877
    12 5.854977 6.746898 -0.333406 1.539710 -3.127443 0.960516
    13 0.060896 -8.576864 -0.072883 0.461684 0.620570 1.033334
    14 -0.488518 -2.755602 -0.228260 -0.314476 -0.184849 -0.218889
    15 0.039887 -1.534479 0.014229 -1.583297 -0.011050 0.035439
    16 0.028786 -1.212454 -0.132487 -1.414985 -0.014010 0.031975
    17 0.250027 -2.820665 -0.238396 -0.275538 -0.272562 -0.142119
    18 -0.049759 -1.598510 0.041883 -1.441468 0.002505 -0.039204
    19 -0.034142 -1.179563 0.045718 -1.331148 0.004566 -0.035115
    20 0.957766 -2.746780 -0.090302 -0.004290 -0.208897 0.116786
    21 -0.033420 -1.397129 -0.015163 -0.407067 0.007730 -0.019644
    22 -0.022360 -0.957436 0.010971 -0.359191 0.006927 -0.016874
    23 -1.180681 -2.507217 -0.193859 -0.151468 0.006019 -0.125748
    24 -0.024967 -1.127840 0.017597 -1.126753 0.001366 -0.048021
    25 -0.020057 -0.906594 0.037435 -1.249434 0.000324 -0.051102
    26 0.618667 -1.197277 0.185379 0.882438 -1.106479 -1.143102
    27 1.481238 -0.212417 0.067511 0.047072 -0.212187 -0.756153
    28 1.034363 -0.159541 0.036197 0.054227 -0.208894 -0.860780
    29 0.120153 -0.050270 -0.054489 0.589772 3.217556 1.464753
    30 -2.169264 -5.575020 -8.810146 0.653293 -3.731986 1.413090
    31 0.018817 -8.571516 -0.208590 0.271945 0.055492 -0.379315
    32 0.447953 -2.798986 -0.200443 -1.063889 -0.245849 0.055052
    33 -0.032909 -1.499736 0.036191 -1.664060 0.022675 -0.034202
    34 -0.027022 -1.135516 -0.020210 -1.478450 0.024904 -0.029266
    35 -0.249534 -2.846964 -0.174213 -0.379218 -0.198590 -0.079656
    36 0.043235 -1.656596 0.060855 -1.619041 -0.023831 0.011027
    37 0.031729 -1.141298 0.054932 -1.301304 -0.014542 0.007233
    38 -0.963866 -2.785145 -0.085350 0.063665 0.127641 -0.195487
    39 0.028479 -1.403067 -0.009354 -0.601880 -0.012056 -0.024628
    40 0.021413 -0.949968 0.020046 -0.442415 -0.007502 -0.018552
    41 1.164475 -2.543940 -0.170330 -1.112873 -0.444646 0.118348
    42 0.024032 -1.148574 -0.009538 -1.312928 0.024365 0.063316
    43 0.014898 -0.907427 -0.004223 -1.498566 0.030261 0.067617
    44 -0.586770 -1.264477 0.200161 -0.179081 -0.238052 -2.330051
    45 1.522835 0.062587 0.016848 0.002752 0.012485 -0.179219
    46 1.117947 0.048424 -0.005766 0.005605 -0.016965 -0.250321
    47 -0.002676 -0.002320 0.002678 0.105066 -0.188105 1.866571
    48 -6.749102 3.171035 -4.778634 1.850168 -0.529447 -0.530945
  time 5
    0 5.394696 -5.832209 -2.921964 1.435326 -0.444197 -1.588102
    1 2.766225 -3.206739 0.019683 0.000000 0.000000 0.647009
    2 0.444448 -1.806709 0.000000 -0.000010 0.000000 -1.570796
    3 7.631212 -2.347096 -0.000001 0.000000 0.000000 0.000000
    4 -0.755742 1.477742 -0.015625 0.000000 0.000000 0.000000
    5 5.490753 0.355225 -0.000002 0.000000 0.000000 0.000000
    6 -5.047834 0.000001 0.000002 0.000000 0.000000 0.000000
    7 0.485187 1.671306 0.000000 0.000000 0.000000 0.000000
    8 0.651094 0.256233 0.000151 0.000000 0.000000 1.570796
    9 4.102913 -1.089239 0.701719 1.570797 -1.570796 0.000000
    10 -1.393420 -1.134112 -3.632304 0.000000 0.000000 0.000000
    11 7.825683 5.638220 -2.202174 5.773836 -2.278561 0.359873
    12 5.851070 6.750805 -0.333406 1.539710 -3.127443 0.960899
    13 0.064802 -8.576864 -0.072883 0.472506 0.630680 1.045452
    14 -0.488518 -2.755602 -0.228260 -0.314476 -0.184849 -0.218889
    15 0.039887 -1.534479 0.014229 -1.583297 -0.011050 0.035439
    16 0.028786 -1.212454 -0.132487 -1.414985 -0.014010 0.031975
    17 0.250027 -2.820665 -0.238396 -0.275538 -0.272562 -0.142119
    18 -0.049759 -1.598510 0.041883 -1.441468 0.002505 -0.039204
    19 -0.034142 -1.179563 0.045718 -1.331148 0.004566 -0.035115
    20 0.957766 -2.746780 -0.090302 -0.004290 -0.208897 0.116786
    21 -0.033420 -1.397129 -0.015163 -0.407067 0.007730 -0.019644
    22 -0.022360 -0.957436 0.010971 -0.359191 0.006927 -0.016874
    23 -1.180681 -2.507217 -0.193859 -0.151468 0.006019 -0.125748
    24 -0.024967 -1.127840 0.017597 -1.126753 0.001366 -0.048021
    25 -0.020057 -0.906594 0.037435 -1.249434 0.000324 -0.051102
    26 0.618667 -1.197277 0.185379 0.882438 -1.106479 -1.143102
    27 1.481238 -0.212417 0.067511 0.047072 -0.212187 -0.756153
    28 1.034363 -0.159541 0.036197 0.054227 -0.208894 -0.860780
    29 0.120153 -0.050270 -0.054489 0.589772 3.217556 1.464753
    30 -1.727845 -6.035972 -8.583576 0.692640 -3.706307 1.409049
    31 0.014910 -8.575422 -0.204683 0.238329 0.030003 -0.426278
    32 0.447953 -2.798986 -0.200443 -1.084202 -0.273161 0.040491
    33 -0.032909 -1.499736 0.036191 -1.676873 0.022591 -0.034562
    34 -0.027022 -1.135516 -0.016304 -1.515075 0.024844 -0.030309
    35 -0.249534 -2.846964 -0.174213 -0.342690 -0.172260 -0.001157
    36 0.043235 -1.656596 0.060855 -1.623166 -0.023855 0.011099
    37 0.031729 -1.141298 0.054932 -1.305414 -0.014590 0.007257
    38 -0.963866 -2.785145 -0.085350 0.123783 0.153060 -0.118102
    39 0.028479 -1.403067 -0.013261 -0.718661 -0.015928 -0.028224
    40 0.021413 -0.953875 0.020046 -0.369946 -0.005729 -0.015796
    41 1.164475 -2.543940 -0.170330 -1.126709 -0.481375 0.103924
    42 0.024032 -1.148574 -0.009538 -1.320679 0.024736 0.063543
    43 0.014898 -0.907427 -0.004223 -1.533809 0.032071 0.068420
    44 -0.586770 -1.264477 0.200161 -0.161021 -0.216748 -2.301019
    45 1.518929 0.066494 0.016848 0.003076 0.013575 -0.219097
    46 1.117947 0.048424 -0.005766 0.005893 -0.016353 -0.271308
    47 -0.002676 -0.002320 0.002678 0.105066 -0.188105 1.866571
    48 -6.561597 3.819493 -4.649724 1.893021 -0.504611 -0.620815
  time 6
    0 5.632984 -5.808771 -2.785241 1.397936 -0.466153 -1.577820
    1 2.922479 -3.066109 0.047027 0.000000 0.000000 0.552494
    2 0.444448 -1.806709 0.000000 -0.000010 0.000000 -1.570796
    3 7.631212 -2.347096 -0.000001 0.000000 0.000000 0.000000
    4 -0.755742 1.477742 -0.015625 0.000000 0.000000 0.000000
    5 5.490753 0.355225 -0.000002 0.000000 0.000000 0.000000
    6 -5.047834 0.000001 0.000002 0.000000 0.000000 0.000000
    7 0.485187 1.671306 0.000000 0.000000 0.000000 0.000000
    8 0.651094 0.256233 0.000151 0.000000 0.000000 1.570796
    9 4.102913 -1.089239 0.701719 1.570797 -1.570796 0.000000
    10 -1.393420 -1.134112 -3.632304 0.000000 0.000000 0.000000
    11 7.860840 5.575718 -2.260769 5.800856 -2.282469 0.340198
    12 5.812006 6.789868 -0.333406 1.539710 -3.127538 0.967781
    13 0.076521 -8.572957 -0.072883 0.508480 0.659362 1.085663
    14 -0.488518 -2.755602 -0.228260 -0.314476 -0.184849 -0.218889
    15 0.039887 -1.534479 0.014229 -1.583297 -0.011050 0.035439
    16 0.028786 -1.212454 -0.132487 -1.414985 -0.014010 0.031975
    17 0.250027 -2.820665 -0.238396 -0.275538 -0.272562 -0.142119
    18 -0.049759 -1.598510 0.041883 -1.441468 0.002505 -0.039204
    19 -0.034142 -1.179563 0.045718 -1.331148 0.004566 -0.035115
    20 0.957766 -2.746780 -0.090302 -0.004290 -0.208897 0.116786
    21 -0.033420 -1.397129 -0.015163 -0.407067 0.007730 -0.019644
    22 -0.022360 -0.957436 0.010971 -0.359191 0.006927 -0.016874
    23 -1.180681 -2.507217 -0.193859 -0.151468 0.006019 -0.125748
    24 -0.024967 -1.127840 0.017597 -1.126753 0.001366 -0.048021
    25 -0.020057 -0.906594 0.037435 -1.249434 0.000324 -0.051102
    26 0.618667 -1.197277 0.185379 0.882438 -1.106479 -1.143102
    27 1.481238 -0.212417 0.067511 0.047072 -0.212187 -0.756153
    28 1.034363 -0.159541 0.036197 0.054227 -0.208894 -0.860780
    29 0.120153 -0.050270 -0.054489 0.589772 3.217556 1.464753
    30 -1.466118 -6.368013 -8.345288 0.748217 -3.665866 1.423522
    31 0.018817 -8.548078 -0.200777 0.180552 0.014559 -0.336630
    32 0.447953 -2.798986 -0.200443 -1.063889 -0.245849 0.055052
    33 -0.032909 -1.499736 0.036191 -1.664060 0.022675 -0.034202
    34 -0.027022 -1.135516 -0.020210 -1.478450 0.024904 -0.029266
    35 -0.249534 -2.846964 -0.174213 -0.408396 -0.117730 0.097608
    36 0.043235 -1.656596 0.060855 -1.619041 -0.023831 0.011027
    37 0.031729 -1.141298 0.054932 -1.301304 -0.014542 0.007233
    38 -0.963866 -2.785145 -0.085350 0.100443 0.161904 -0.039963
    39 0.028479 -1.403067 -0.021074 -0.954191 -0.024868 -0.033988
    40 0.021413 -0.949968 0.020046 -0.442415 -0.007502 -0.018552
    41 1.164475 -2.543940 -0.170330 -1.112873 -0.444646 0.118348
    42 0.024032 -1.148574 -0.009538 -1.312928 0.024365 0.063316
    43 0.014898 -0.907427 -0.004223 -1.498566 0.030261 0.067617
    44 -0.586770 -1.264477 0.200161 -0.179081 -0.238052 -2.330051
    45 1.522835 0.062587 0.016848 0.002752 0.012485 -0.179219
    46 1.117947 0.048424 -0.005766 0.005605 -0.016965 -0.250321
    47 -0.002676 -0.002320 0.002678 0.105066 -0.188105 1.866571
    48 -6.499095 4.003092 -4.606754 1.904882 -0.496778 -0.646411
  time 7
    0 5.992370 -5.769707 -2.605548 1.348081 -0.496162 -1.560275
    1 3.434214 -2.652034 0.074372 0.000000 0.000000 0.350124
    2 0.444448 -1.806709 0.000000 -0.000010 0.000000 -1.570796
    3 7.631212 -2.347096 -0.000001 0.000000 0.000000 0.000000
    4 -0.755742 1.477742 -0.015625 0.000000 0.000000 0.000000
    5 5.490753 0.355225 -0.000002 0.000000 0.000000 0.000000
    6 -5.047834 0.000001 0.000002 0.000000 0.000000 0.000000
    7 0.485187 1.671306 0.000000 0.000000 0.000000 0.000000
    8 0.651094 0.256233 0.000151 0.000000 0.000000 1.570796
    9 4.102913 -1.089239 0.701719 1.570797 -1.570796 0.000000
    10 -1.393420 -1.134112 -3.632304 0.000000 0.000000 0.000000
    11 7.907717 5.493684 -2.338897 5.838778 -2.291282 0.316880
    12 5.745598 6.856277 -0.333406 1.539710 -3.127826 0.978678
    13 0.088240 -8.569051 -0.072883 0.562568 0.696783 1.145706
    14 -0.488518 -2.755602 -0.228260 -0.314476 -0.184849 -0.218889
    15 0.039887 -1.534479 0.014229 -1.583344 -0.011050 0.035439
    16 0.028786 -1.212454 -0.132487 -1.414985 -0.014010 0.031975
    17 0.250027 -2.820665 -0.238396 -0.275538 -0.272562 -0.142119
    18 -0.049759 -1.598510 0.041883 -1.441468 0.002505 -0.039204
    19 -0.034142 -1.179563 0.045718 -1.331148 0.004566 -0.035115
    20 0.957766 -2.746780 -0.090302 -0.004290 -0.208897 0.116786
    21 -0.033420 -1.397129 -0.015163 -0.407067 0.007730 -0.019644
    22 -0.022360 -0.957436 0.010971 -0.359191 0.006927 -0.016874
    23 -1.180681 -2.507217 -0.193859 -0.151468 0.006019 -0.125748
    24 -0.024967 -1.127840 0.017597 -1.126753 0.001366 -0.048021
    25 -0.020057 -0.906594 0.037435 -1.249434 0.000324 -0.051102
    26 0.618667 -1.197277 0.185379 0.882438 -1.106479 -1.143102
    27 1.481238 -0.212417 0.067511 0.047072 -0.212187 -0.756153
    28 1.034363 -0.159541 0.036197 0.054227 -0.208894 -0.860780
    29 0.120153 -0.050270 -0.054489 0.589772 3.217556 1.464753
    30 -0.837192 -5.825028 -8.368726 -2.226683 -5.704751 -1.562148
    31 0.022723 -8.458231 -0.208590 0.221228 0.060797 0.101587
    32 0.447953 -2.798986 -0.200443 -0.988962 -0.005011 0.188656
    33 -0.032909 -1.499736 0.036191 -1.682733 0.022555 -0.034729
    34 -0.027022 -1.123796 -0.024116 -1.159848 0.023777 -0.020302
    35 -0.249534 -2.846964 -0.174213 -0.677620 0.032629 0.179415
    36 0.043235 -1.656596 0.060855 -1.628599 -0.023891 0.011194
    37 0.031729 -1.141298 0.054932 -1.310882 -0.014650 0.007293
    38 -0.963866 -2.785145 -0.085350 -0.251262 0.195797 -0.026552
    39 0.028479 -1.410880 -0.024980 -1.210706 -0.035834 -0.037704
    40 0.021413 -0.946062 0.016140 -0.745923 -0.016934 -0.028475
    41 1.164475 -2.543940 -0.170330 -1.041472 -0.117814 0.253866
    42 0.024032 -1.148574 -0.009538 -1.334012 0.025383 0.063939
    43 0.014898 -0.907427 -0.012035 -1.272589 0.019403 0.061050
    44 -0.586770 -1.264477 0.200161 -0.311811 -0.430773 -2.575559
    45 1.530648 0.050868 0.016848 -0.001646 0.003880 0.162927
    46 1.117947 0.048424 -0.005766 0.002885 -0.021471 -0.086349
    47 -0.002676 -0.002320 0.002678 0.031187 -0.152715 1.626206
    48 -6.663162 3.499170 -4.716132 1.871881 -0.517507 -0.576115
  time 8
    0 6.183782 -5.742363 -2.523515 1.325263 -0.510735 -1.549760
    1 2.699816 -1.788727 0.019683 0.000000 0.000000 0.000000
    2 0.444448 -1.806709 0.000000 -0.000010 0.000000 -1.570796
    3 7.631212 -2.347096 -0.000001 0.000000 0.000000 0.000000
    4 -0.755742 1.477742 -0.015625 0.000000 0.000000 0.000000
    5 5.490753 0.355225 -0.000002 0.000000 0.000000 0.000000
    6 -5.047834 0.000001 0.000002 0.000000 0.000000 0.000000
    7 0.485187 1.671306 0.000000 0.000000 0.000000 0.000000
    8 0.651094 0.256233 0.000151 0.000000 0.000000 1.570796
    9 4.102913 -1.089239 0.701719 1.570797 -1.570796 0.000000
    10 -1.393420 -1.134112 -3.632304 0.000000 0.000000 0.000000
    11 7.931155 5.458527 -2.374054 5.857505 -2.297413 0.307990
    12 5.706535 6.891434 -0.329500 1.539805 -3.127922 0.984795
    13 0.096053 -8.569051 -0.072883 0.590828 0.713876 1.176860
    14 -0.488518 -2.755602 -0.228260 -0.314476 -0.184849 -0.218889
    15 0.039887 -1.534479 0.014229 -1.583297 -0.011050 0.035439
    16 0.028786 -1.212454 -0.132487 -1.414985 -0.014010 0.031975
    17 0.250027 -2.820665 -0.238396 -0.275538 -0.272562 -0.142119
    18 -0.049759 -1.598510 0.041883 -1.441468 0.002505 -0.039204
    19 -0.034142 -1.179563 0.045718 -1.331148 0.004566 -0.035115
    20 0.957766 -2.746780 -0.090302 -0.004290 -0.208897 0.116786
    21 -0.033420 -1.397129 -0.015163 -0.407067 0.007730 -0.019644
    22 -0.022360 -0.957436 0.010971 -0.359191 0.006927 -0.016874
    23 -1.180681 -2.507217 -0.193859 -0.151468 0.006019 -0.125748
    24 -0.024967 -1.127840 0.017597 -1.126753 0.001366 -0.048021
    25 -0.020057 -0.906594 0.037435 -1.249434 0.000324 -0.051102
    26 0.618667 -1.197277 0.185379 0.882438 -1.106479 -1.143102
    27 1.481238 -0.212417 0.067511 0.047072 -0.212187 -0.756153
    28 1.034363 -0.159541 0.036197 0.054227 -0.208894 -0.860780
    29 0.120153 -0.050270 -0.054489 0.589772 3.217556 1.464753
    30 -0.512964 -5.235166 -8.435134 -2.102319 -5.646719 -1.452657
    31 -0.004622 -8.395729 -0.208590 0.275933 0.064263 0.456213
    32 0.447953 -2.798986 -0.200443 -0.889907 0.171468 0.314123
    33 -0.032909 -1.499736 0.036191 -1.664060 0.022675 -0.034202
    34 -0.027022 -1.112077 -0.028023 -0.891900 0.020697 -0.013339
    35 -0.249534 -2.846964 -0.174213 -0.873871 0.143187 0.195570
    36 0.043235 -1.656596 0.060855 -1.619041 -0.023831 0.011027
    37 0.031729 -1.141298 0.054932 -1.301304 -0.014542 0.007233
    38 -0.963866 -2.785145 -0.085350 -0.548192 0.208357 -0.041533
    39 0.028479 -1.414786 -0.028886 -1.358567 -0.042461 -0.038542
    40 0.021413 -0.942156 0.012233 -0.983249 -0.026114 -0.034000
    41 1.164475 -2.543940 -0.170330 -0.949091 0.129414 0.380561
    42 0.024032 -1.148574 -0.009538 -1.312928 0.024365 0.063316
    43 0.014898 -0.903521 -0.015942 -1.059289 0.010750 0.052756
    44 -0.586770 -1.264477 0.200161 -0.388284 -0.632786 -2.778105
    45 1.542367 0.043056 0.016848 -0.007614 -0.002017 0.458778
    46 1.117947 0.048424 -0.005766 -0.000686 -0.025641 0.085452
    47 -0.002676 -0.002320 0.002678 -0.042691 -0.105458 1.371479
    48 -6.784260 3.030406 -4.802072 1.840315 -0.534415 -0.510901
  time 9
    0 6.156438 -5.742363 -2.550859 1.337247 -0.505941 -1.549644
    1 2.699816 -1.788727 0.019683 0.000000 0.000000 0.000000
    2 0.444448 -1.806709 0.000000 -0.000010 0.000000 -1.570796
    3 7.631212 -2.347096 -0.000001 0.000000 0.000000 0.000000
    4 -0.755742 1.477742 -0.015625 0.000000 0.000000 0.000000
    5 5.490753 0.355225 -0.000002 0.000000 0.000000 0.000000
    6 -5.047834 0.000001 0.000002 0.000000 0.000000 0.000000
    7 0.485187 1.671306 0.000000 0.000000 0.000000 0.000000
    8 0.651094 0.256233 0.000151 0.000000 0.000000 1.570796
    9 4.102913 -1.089239 0.701719 1.570797 -1.570796 0.000000
    10 -1.393420 -1.134112 -3.632304 0.000000 0.000000 0.000000
    11 7.915530 5.478059 -2.354522 5.852194 -2.299099 0.315714
    12 5.710441 6.887527 -0.329500 1.539805 -3.127922 0.984509
    13 0.096053 -8.569051 -0.072883 0.581676 0.707707 1.166881
    14 -0.488518 -2.755602 -0.228260 -0.314476 -0.184849 -0.218889
    15 0.039887 -1.534479 0.014229 -1.583344 -0.011050 0.035439
    16 0.028786 -1.212454 -0.132487 -1.414985 -0.014010 0.031975
    17 0.250027 -2.820665 -0.238396 -0.275538 -0.272562 -0.142119
    18 -0.049759 -1.598510 0.041883 -1.441468 0.002505 -0.039204
    19 -0.034142 -1.179563 0.045718 -1.331148 0.004566 -0.035115
    20 0.957766 -2.746780 -0.090302 -0.004290 -0.208897 0.116786
    21 -0.033420 -1.397129 -0.015163 -0.407067 0.007730 -0.019644
    22 -0.022360 -0.957436 0.010971 -0.359191 0.006927 -0.016874
    23 -1.180681 -2.507217 -0.193859 -0.151468 0.006019 -0.125748
    24 -0.024967 -1.127840 0.017597 -1.126753 0.001366 -0.048021
    25 -0.020057 -0.906594 0.037435 -1.249434 0.000324 -0.051102
    26 0.618667 -1.197277 0.185379 0.882438 -1.106500 -1.143102
    27 1.481238 -0.212417 0.067511 0.047072 -0.212187 -0.756153
    28 1.034363 -0.159541 0.036197 0.054227 -0.208894 -0.860780
    29 0.120153 -0.050270 -0.054489 0.589772 3.217556 1.464753
    30 -0.735627 -5.180477 -8.567951 -2.154243 -5.605964 -1.517882
    31 -0.004622 -8.403542 -0.200777 0.273423 0.018568 0.431599
    32 0.447953 -2.798986 -0.200443 -0.860474 0.133952 0.309653
    33 -0.032909 -1.499736 0.032285 -1.573771 0.023118 -0.031673
    34 -0.027022 -1.112077 -0.028023 -0.884538 0.020590 -0.013159
    35 -0.249534 -2.846964 -0.174213 -0.816019 0.108827 0.187432
    36 0.043235 -1.656596 0.064761 -1.572810 -0.023495 0.010176
    37 0.031729 -1.141298 0.054932 -1.255079 -0.014027 0.006934
    38 -0.963866 -2.785145 -0.085350 -0.542137 0.186365 -0.041593
    39 0.028479 -1.410880 -0.028886 -1.291590 -0.039441 -0.038279
    40 0.021413 -0.942156 0.012233 -0.942871 -0.024461 -0.033209
    41 1.164475 -2.543940 -0.170330 -0.949806 0.090122 0.370708
    42 0.024032 -1.144668 -0.005631 -1.211085 0.019655 0.060056
    43 0.014898 -0.903521 -0.015942 -0.993074 0.008449 0.049832
    44 -0.586770 -1.264477 0.200161 -0.388392 -0.690939 -2.779152
    45 1.542367 0.039149 0.016848 -0.008178 -0.002412 0.483125
    46 1.117947 0.048424 -0.005766 -0.002999 -0.027703 0.181451
    47 -0.002676 -0.002320 0.002678 -0.018646 -0.083504 1.344993
    48 -6.756915 3.147597 -4.782540 1.848541 -0.530307 -0.527651
  time 10
    0 6.066591 -5.750175 -2.617267 1.360928 -0.495011 -1.552142
    1 2.699816 -1.788727 0.019683 0.000000 0.000000 0.000000
    2 0.444448 -1.806709 0.000000 -0.000010 0.000000 -1.570796
    3 7.631212 -2.347096 -0.000001 0.000000 0.000000 0.000000
    4 -0.755742 1.477742 -0.015625 0.000000 0.000000 0.000000
    5 5.490753 0.355225 -0.000002 0.000000 0.000000 0.000000
    6 -5.047834 0.000001 0.000002 0.000000 0.000000 0.000000
    7 0.485187 1.671306 0.000000 0.000000 0.000000 0.000000
    8 0.651094 0.256233 0.000151 0.000000 0.000000 1.570796
    9 4.102913 -1.089239 0.701719 1.570797 -1.570796 0.000000
    10 -1.393420 -1.134112 -3.632304 0.000000 0.000000 0.000000
    11 7.892091 5.521029 -2.323271 5.839523 -2.300172 0.329341
    12 5.722160 6.875808 -0.329500 1.539805 -3.127826 0.982501
    13 0.088240 -8.569051 -0.072883 0.561089 0.693913 1.144281
    14 -0.488518 -2.755602 -0.228260 -0.314476 -0.184849 -0.218889
    15 0.039887 -1.534479 0.014229 -1.583297 -0.011050 0.035439
    16 0.028786 -1.212454 -0.132487 -1.414985 -0.014010 0.031975
    17 0.250027 -2.820665 -0.238396 -0.275538 -0.272562 -0.142119
    18 -0.049759 -1.598510 0.041883 -1.441468 0.002505 -0.039204
    19 -0.034142 -1.179563 0.045718 -1.331148 0.004566 -0.035115
    20 0.957766 -2.746780 -0.090302 -0.004290 -0.208897 0.116786
    21 -0.033420 -1.397129 -0.015163 -0.407067 0.007730 -0.019644
    22 -0.022360 -0.957436 0.010971 -0.359191 0.006927 -0.016874
    23 -1.180681 -2.507217 -0.193859 -0.151468 0.006019 -0.125748
    24 -0.024967 -1.127840 0.017597 -1.126753 0.001366 -0.048021
    25 -0.020057 -0.906594 0.037435 -1.249434 0.000324 -0.051102
    26 0.618667 -1.197277 0.185379 0.882438 -1.106479 -1.143078
    27 1.481238 -0.212417 0.067511 0.047072 -0.212187 -0.756130
    28 1.034363 -0.159541 0.036197 0.054227 -0.208894 -0.860780
    29 0.120153 -0.050270 -0.054489 0.589772 3.217556 1.464753
    30 -1.106732 -5.231260 -8.716393 0.886774 -3.846165 1.512713
    31 -0.004622 -8.426980 -0.189058 0.269224 -0.037055 0.316932
    32 0.447953 -2.798986 -0.200443 -0.845431 0.048412 0.272345
    33 -0.032909 -1.499736 0.028378 -1.461879 0.023358 -0.028497
    34 -0.027022 -1.115984 -0.028023 -0.935146 0.021321 -0.014405
    35 -0.249534 -2.846964 -0.174213 -0.697351 0.039640 0.166771
    36 0.043235 -1.656596 0.064761 -1.515563 -0.023016 0.009145
    37 0.031729 -1.141298 0.054932 -1.197803 -0.013380 0.006586
    38 -0.963866 -2.785145 -0.085350 -0.468700 0.154642 -0.041988
    39 0.028479 -1.406973 -0.024980 -1.167479 -0.033916 -0.037272
    40 0.021413 -0.942156 0.016140 -0.837873 -0.020326 -0.030872
    41 1.164475 -2.543940 -0.170330 -0.971651 -0.014961 0.328755
    42 0.024032 -1.140761 -0.005631 -1.084944 0.014334 0.055370
    43 0.014898 -0.899614 -0.015942 -0.955808 0.007239 0.048118
    44 -0.586770 -1.264477 0.200161 -0.378085 -0.719247 -2.733081
    45 1.542367 0.043056 0.016848 -0.007291 -0.001777 0.444809
    46 1.117947 0.048424 -0.005766 -0.005241 -0.029357 0.268384
    47 -0.002676 -0.002320 0.002678 0.043342 -0.064419 1.322934
    48 -6.698319 3.374167 -4.743477 1.863559 -0.522188 -0.558612
  time 11
    0 5.937681 -5.761895 -2.711020 1.391129 -0.480246 -1.556151
    1 2.699816 -1.788727 0.019683 0.000000 0.000000 0.000000
    2 0.444448 -1.806709 0.000000 -0.000010 0.000000 -1.570796
    3 7.631212 -2.347096 -0.000001 0.000000 0.000000 0.000000
    4 -0.755742 1.477742 -0.015625 0.000000 0.000000 0.000000
    5 5.490753 0.355225 -0.000002 0.000000 0.000000 0.000000
    6 -5.047834 0.000001 0.000002 0.000000 0.000000 0.000000
    7 0.485187 1.671306 0.000000 0.000000 0.000000 0.000000
    8 0.651094 0.256233 0.000151 0.000000 0.000000 1.570796
    9 4.102913 -1.089239 0.701719 1.570797 -1.570796 0.000000
    10 -1.393420 -1.134112 -3.632304 0.000000 0.000000 0.000000
    11 7.860840 5.571812 -2.280301 5.822472 -2.300785 0.346319
    12 5.741692 6.860183 -0.333406 1.539710 -3.127826 0.979443
    13 0.080427 -8.572957 -0.072883 0.534584 0.675149 1.115014
    14 -0.488518 -2.755602 -0.228260 -0.314476 -0.184849 -0.218889
    15 0.039887 -1.534479 0.014229 -1.583297 -0.011050 0.035439
    16 0.028786 -1.212454 -0.132487 -1.414985 -0.014010 0.031975
    17 0.250027 -2.820665 -0.238396 -0.275538 -0.272562 -0.142119
    18 -0.049759 -1.598510 0.041883 -1.441468 0.002505 -0.039204
    19 -0.034142 -1.179563 0.045718 -1.331148 0.004566 -0.035115
    20 0.957766 -2.746780 -0.090302 -0.004290 -0.208897 0.116786
    21 -0.033420 -1.397129 -0.015163 -0.407067 0.007730 -0.019644
    22 -0.022360 -0.957436 0.010971 -0.359191 0.006927 -0.016874
    23 -1.180681 -2.507217 -0.193859 -0.151468 0.006019 -0.125748
    24 -0.024967 -1.127840 0.017597 -1.126753 0.001366 -0.048021
    25 -0.020057 -0.906594 0.037435 -1.249434 0.000324 -0.051102
    26 0.618667 -1.197277 0.185379 0.882438 -1.106479 -1.143078
    27 1.481238 -0.212417 0.067511 0.047072 -0.212187 -0.756153
    28 1.034363 -0.159541 0.036197 0.054227 -0.208894 -0.860780
    29 0.120153 -0.050270 -0.054489 0.589772 3.217556 1.464753
    30 -1.571590 -5.289855 -8.857022 0.756789 -3.866032 1.369106
    31 -0.000715 -8.458231 -0.177339 0.266057 -0.099609 0.161243
    32 0.447953 -2.798986 -0.200443 -0.834493 -0.060049 0.217911
    33 -0.032909 -1.499736 0.028378 -1.342885 0.023214 -0.025106
    34 -0.027022 -1.119890 -0.028023 -1.016220 0.022363 -0.016467
    35 -0.249534 -2.846964 -0.174213 -0.547745 -0.042431 0.130434
    36 0.043235 -1.656596 0.068667 -1.454592 -0.022453 0.008078
    37 0.031729 -1.141298 0.054932 -1.136882 -0.012661 0.006263
    38 -0.963866 -2.785145 -0.085350 -0.360859 0.119108 -0.045716
    39 0.028479 -1.406973 -0.021074 -1.016602 -0.027433 -0.035151
    40 0.021413 -0.946062 0.016140 -0.700966 -0.015352 -0.027193
    41 1.164475 -2.543940 -0.170330 -0.998308 -0.153897 0.273642
    42 0.024032 -1.140761 -0.005631 -0.950732 0.009360 0.049689
    43 0.014898 -0.899614 -0.015942 -0.936568 0.006639 0.047219
    44 -0.586770 -1.264477 0.200161 -0.363081 -0.729938 -2.662070
    45 1.538460 0.043056 0.016848 -0.005793 -0.000567 0.377291
    46 1.117947 0.048424 -0.005766 -0.007290 -0.030627 0.343471
    47 -0.002676 -0.002320 0.002678 0.128118 -0.047134 1.305185
    48 -6.608473 3.674957 -4.680975 1.883455 -0.510629 -0.600394
  time 12
    0 5.797052 -5.777520 -2.812586 1.422767 -0.464043 -1.560740
    1 2.699816 -1.788727 0.019683 0.000000 0.000000 0.000000
    2 0.444448 -1.806709 0.000000 -0.000010 0.000000 -1.570796
    3 7.631212 -2.347096 -0.000001 0.000000 0.000000 0.000000
    4 -0.755742 1.477742 -0.015625 0.000000 0.000000 0.000000
    5 5.490753 0.355225 -0.000002 0.000000 0.000000 0.000000
    6 -5.047834 0.000001 0.000002 0.000000 0.000000 0.000000
    7 0.485187 1.671306 0.000000 0.000000 0.000000 0.000000
    8 0.651094 0.256233 0.000151 0.000000 0.000000 1.570796
    9 4.102913 -1.089239 0.701719 1.570797 -1.570796 0.000000
    10 -1.393420 -1.134112 -3.632304 0.000000 0.000000 0.000000
    11 7.829589 5.626501 -2.229518 5.804024 -2.301168 0.364027
    12 5.761224 6.836745 -0.333406 1.539710 -3.127730 0.975906
    13 0.072615 -8.572957 -0.072883 0.507212 0.654371 1.084656
    14 -0.488518 -2.755602 -0.228260 -0.314476 -0.184849 -0.218889
    15 0.039887 -1.534479 0.014229 -1.583297 -0.011050 0.035439
    16 0.028786 -1.212454 -0.132487 -1.414985 -0.014010 0.031975
    17 0.250027 -2.820665 -0.238396 -0.275538 -0.272562 -0.142119
    18 -0.049759 -1.598510 0.041883 -1.441468 0.002505 -0.039204
    19 -0.034142 -1.179563 0.045718 -1.331148 0.004566 -0.035115
    20 0.957766 -2.746780 -0.090302 -0.004290 -0.208897 0.116786
    21 -0.033420 -1.397129 -0.015163 -0.407067 0.007730 -0.019644
    22 -0.022360 -0.957436 0.010971 -0.359191 0.006927 -0.016874
    23 -1.180681 -2.507217 -0.193859 -0.151468 0.006019 -0.125748
    24 -0.024967 -1.127840 0.017597 -1.126753 0.001366 -0.048021
    25 -0.020057 -0.906594 0.037435 -1.249434 0.000324 -0.051102
    26 0.618667 -1.197277 0.185379 0.882438 -1.106479 -1.143102
    27 1.481238 -0.212417 0.067511 0.047072 -0.212187 -0.756153
    28 1.034363 -0.159541 0.036197 0.054227 -0.208894 -0.860780
    29 0.120153 -0.050270 -0.054489 0.589772 3.217556 1.464753
    30 -2.048167 -5.274230 -8.993745 0.613595 -3.887784 1.204823
    31 -0.008528 -8.485576 -0.161713 0.261271 -0.166667 0.013642
    32 0.447953 -2.798986 -0.200443 -0.820794 -0.166619 0.161224
    33 -0.032909 -1.499736 0.024472 -1.231042 0.022711 -0.021966
    34 -0.027022 -1.123796 -0.024116 -1.100350 0.023262 -0.018696
    35 -0.249534 -2.846964 -0.174213 -0.397189 -0.116855 0.083106
    36 0.043235 -1.656596 0.068667 -1.397345 -0.021865 0.007108
    37 0.031729 -1.141298 0.054932 -1.079644 -0.011966 0.005999
    38 -0.963866 -2.785145 -0.085350 -0.251001 0.085778 -0.053062
    39 0.028479 -1.403067 -0.017167 -0.869412 -0.021488 -0.032155
    40 0.021413 -0.949968 0.020046 -0.565040 -0.010942 -0.022903
    41 1.164475 -2.543940 -0.170330 -1.018800 -0.293272 0.220258
    42 0.024032 -1.136855 -0.001725 -0.824552 0.005417 0.043793
    43 0.014898 -0.899614 -0.015942 -0.924386 0.006268 0.046644
    44 -0.586770 -1.264477 0.200161 -0.347884 -0.734991 -2.588901
    45 1.534554 0.046962 0.016848 -0.004474 0.000644 0.314033
    46 1.117947 0.048424 -0.005766 -0.009004 -0.031538 0.403916
    47 -0.002676 -0.002320 0.002678 0.220460 -0.030562 1.291586
    48 -6.491282 4.026530 -4.602847 1.906221 -0.495919 -0.649328
  time 13
    0 5.664235 -5.793146 -2.910245 1.451146 -0.448991 -1.564923
    1 2.699816 -1.788727 0.019683 0.000000 0.000000 0.000000
    2 0.444448 -1.806709 0.000000 -0.000010 0.000000 -1.570796
    3 7.631212 -2.347096 -0.000001 0.000000 0.000000 0.000000
    4 -0.755742 1.477742 -0.015625 0.000000 0.000000 0.000000
    5 5.490753 0.355225 -0.000002 0.000000 0.000000 0.000000
    6 -5.047834 0.000001 0.000002 0.000000 0.000000 0.000000
    7 0.485187 1.671306 0.000000 0.000000 0.000000 0.000000
    8 0.651094 0.256233 0.000151 0.000000 0.000000 1.570796
    9 4.102913 -1.089239 0.701719 1.570797 -1.570796 0.000000
    10 -1.393420 -1.134112 -3.632304 0.000000 0.000000 0.000000
    11 7.798339 5.673377 -2.186548 5.787067 -2.301475 0.379912
    12 5.780756 6.817213 -0.333406 1.539710 -3.127634 0.972560
    13 0.068708 -8.576864 -0.072883 0.483285 0.634878 1.057989
    14 -0.488518 -2.755602 -0.228260 -0.314476 -0.184849 -0.218889
    15 0.039887 -1.534479 0.014229 -1.583297 -0.011050 0.035439
    16 0.028786 -1.212454 -0.132487 -1.414985 -0.014010 0.031975
    17 0.250027 -2.820665 -0.238396 -0.275538 -0.272562 -0.142119
    18 -0.049759 -1.598510 0.041883 -1.441468 0.002505 -0.039204
    19 -0.034142 -1.179563 0.045718 -1.331148 0.004566 -0.035115
    20 0.957766 -2.746780 -0.090302 -0.004290 -0.208897 0.116786
    21 -0.033420 -1.397129 -0.015163 -0.407067 0.007730 -0.019644
    22 -0.022360 -0.957436 0.010971 -0.359191 0.006927 -0.016874
    23 -1.180681 -2.507217 -0.193859 -0.151468 0.006019 -0.125748
    24 -0.024967 -1.127840 0.017597 -1.126753 0.001366 -0.048021
    25 -0.020057 -0.906594 0.037435 -1.249434 0.000324 -0.051102
    26 0.618667 -1.197277 0.185379 0.882438 -1.106479 -1.143078
    27 1.481238 -0.212417 0.067511 0.047072 -0.212187 -0.756153
    28 1.034363 -0.159541 0.036197 0.054227 -0.208894 -0.860780
    29 0.120153 -0.050270 -0.054489 0.589772 3.217556 1.464753
    30 -2.458336 -5.090631 -9.142187 0.464288 -3.925320 1.025220
    31 -0.020247 -8.497295 -0.149994 0.245320 -0.236673 -0.075348
    32 0.447953 -2.798986 -0.200443 -0.803098 -0.246415 0.117432
    33 -0.032909 -1.499736 0.020565 -1.140704 0.022052 -0.019485
    34 -0.027022 -1.123796 -0.024116 -1.160033 0.023789 -0.020302
    35 -0.249534 -2.846964 -0.174213 -0.278969 -0.168233 0.039231
    36 0.043235 -1.656596 0.072574 -1.351114 -0.021350 0.006353
    37 0.031729 -1.145205 0.058838 -1.033420 -0.011403 0.005819
    38 -0.963866 -2.785145 -0.085350 -0.171414 0.060059 -0.061080
    39 0.028479 -1.403067 -0.013261 -0.756192 -0.017258 -0.029278
    40 0.021413 -0.949968 0.020046 -0.462841 -0.008042 -0.019307
    41 1.164475 -2.543940 -0.170330 -1.028538 -0.398375 0.181064
    42 0.024032 -1.132948 0.002182 -0.722668 0.002792 0.038699
    43 0.014898 -0.899614 -0.015942 -0.908383 0.005789 0.045877
    44 -0.586770 -1.264477 0.200161 -0.338141 -0.745466 -2.535802
    45 1.534554 0.046962 0.016848 -0.003959 0.001159 0.288495
    46 1.117947 0.048424 -0.005766 -0.010262 -0.032125 0.446942
    47 -0.002676 -0.002320 0.002678 0.305214 -0.013634 1.282032
    48 -6.346746 4.405448 -4.505188 1.929944 -0.478724 -0.702027
  time 14
    0 5.570482 -5.804865 -2.984466 1.471567 -0.437965 -1.567944
    1 2.699816 -1.788727 0.019683 0.000000 0.000000 0.000000
    2 0.444448 -1.806709 0.000000 -0.000010 0.000000 -1.570796
    3 7.631212 -2.347096 -0.000001 0.000000 0.000000 0.000000
    4 -0.755742 1.477742 -0.015625 0.000000 0.000000 0.000000
    5 5.490753 0.355225 -0.000002 0.000000 0.000000 0.000000
    6 -5.047834 0.000001 0.000002 0.000000 0.000000 0.000000
    7 0.485187 1.671306 0.000000 0.000000 0.000000 0.000000
    8 0.651094 0.256233 0.000151 0.000000 0.000000 1.570796
    9 4.102913 -1.089239 0.701719 1.570797 -1.570796 0.000000
    10 -1.393420 -1.134112 -3.632304 0.000000 0.000000 0.000000
    11 7.778807 5.708534 -2.155297 5.774768 -2.301705 0.391426
    12 5.796381 6.805494 -0.333406 1.539710 -3.127634 0.970075
    13 0.060896 -8.576864 -0.072883 0.466482 0.620398 1.039120
    14 -0.488518 -2.755602 -0.228260 -0.314476 -0.184849 -0.218889
    15 0.039887 -1.534479 0.014229 -1.583297 -0.011050 0.035439
    16 0.028786 -1.212454 -0.132487 -1.414985 -0.014010 0.031975
    17 0.250027 -2.820665 -0.238396 -0.275538 -0.272562 -0.142119
    18 -0.049759 -1.598510 0.041883 -1.441468 0.002505 -0.039204
    19 -0.034142 -1.179563 0.045718 -1.331148 0.004566 -0.035115
    20 0.957766 -2.746780 -0.090302 -0.004290 -0.208897 0.116786
    21 -0.033420 -1.397129 -0.015163 -0.407067 0.007730 -0.019644
    22 -0.022360 -0.957436 0.010971 -0.359191 0.006927 -0.016862
    23 -1.180681 -2.507217 -0.193859 -0.151468 0.006019 -0.125748
    24 -0.024967 -1.127840 0.017597 -1.126753 0.001366 -0.048021
    25 -0.020057 -0.906594 0.037435 -1.249434 0.000324 -0.051102
    26 0.618667 -1.197277 0.185379 0.882438 -1.106479 -1.143102
    27 1.481238 -0.212417 0.067511 0.047072 -0.212187 -0.756153
    28 1.034363 -0.159541 0.036197 0.054227 -0.208894 -0.860780
    29 0.120153 -0.050270 -0.054489 0.589772 3.217556 1.464753
    30 -2.700531 -4.024192 -9.411727 0.178532 -4.070517 0.703890
    31 -0.035873 -8.458231 -0.142182 0.099245 -0.318751 0.040074
    32 0.447953 -2.798986 -0.200443 -0.800954 -0.248099 0.119122
    33 -0.032909 -1.499736 0.020565 -1.122030 0.021884 -0.018970
    34 -0.027022 -1.123796 -0.024116 -1.169618 0.023861 -0.020566
    35 -0.249534 -2.846964 -0.174213 -0.257029 -0.176275 0.033370
    36 0.043235 -1.656596 0.072574 -1.341556 -0.021242 0.006197
    37 0.031729 -1.145205 0.058838 -1.023842 -0.011283 0.005783
    38 -0.963866 -2.785145 -0.085350 -0.157976 0.054966 -0.062806
    39 0.028479 -1.403067 -0.013261 -0.734704 -0.016491 -0.028679
    40 0.021413 -0.949968 0.020046 -0.394369 -0.006304 -0.016742
    41 1.164475 -2.543940 -0.170330 -1.030456 -0.397917 0.176864
    42 0.024032 -1.132948 0.002182 -0.701584 0.002313 0.037621
    43 0.014898 -0.899614 -0.015942 -0.902989 0.005633 0.045625
    44 -0.586770 -1.264477 0.200161 -0.344109 -0.749322 -2.499249
    45 1.542367 0.043056 0.016848 -0.006704 -0.001322 0.418509
    46 1.117947 0.048424 -0.005766 -0.010262 -0.032125 0.446979
    47 -0.002676 -0.002320 0.002678 0.367202 0.004738 1.276406
    48 -6.182679 4.780460 -4.395810 1.952996 -0.460002 -0.755008
  time 15
    0 5.531419 -5.808771 -3.011811 1.479428 -0.433650 -1.569106
    1 2.699816 -1.788727 0.019683 0.000000 0.000000 0.000000
    2 0.444448 -1.806709 0.000000 -0.000010 0.000000 -1.570796
    3 7.631212 -2.347096 -0.000001 0.000000 0.000000 0.000000
    4 -0.755742 1.477742 -0.015625 0.000000 0.000000 0.000000
    5 5.490753 0.355225 -0.000002 0.000000 0.000000 0.000000
    6 -5.047834 0.000001 0.000002 0.000000 0.000000 0.000000
    7 0.485187 1.671306 0.000000 0.000000 0.000000 0.000000
    8 0.651094 0.256233 0.000151 0.000000 0.000000 1.570796
    9 4.102913 -1.089239 0.701719 1.570797 -1.570796 0.000000
    10 -1.393420 -1.134112 -3.632304 0.000000 0.000000 0.000000
    11 7.770994 5.720254 -2.143578 5.770016 -2.301782 0.395798
    12 5.804194 6.797681 -0.333406 1.539710 -3.127538 0.969119
    13 0.060896 -8.576864 -0.072883 0.460120 0.614722 1.031992
    14 -0.488518 -2.755602 -0.228260 -0.314476 -0.184849 -0.218889
    15 0.039887 -1.534479 0.014229 -1.583297 -0.011050 0.035439
    16 0.028786 -1.212454 -0.132487 -1.414985 -0.014010 0.031975
    17 0.250027 -2.820665 -0.238396 -0.275538 -0.272562 -0.142119
    18 -0.049759 -1.598510 0.041883 -1.441468 0.002505 -0.039204
    19 -0.034142 -1.179563 0.045718 -1.331148 0.004566 -0.035115
    20 0.957766 -2.746780 -0.090302 -0.004290 -0.208897 0.116786
    21 -0.033420 -1.397129 -0.015163 -0.407067 0.007730 -0.019644
    22 -0.022360 -0.957436 0.010971 -0.359191 0.006927 -0.016862
    23 -1.180681 -2.507217 -0.193859 -0.151468 0.006019 -0.125748
    24 -0.024967 -1.127840 0.017597 -1.126753 0.001366 -0.048021
    25 -0.020057 -0.906594 0.037435 -1.249434 0.000324 -0.051102
    26 0.618667 -1.197277 0.185379 0.882438 -1.106479 -1.143078
    27 1.481238 -0.212417 0.067511 0.047072 -0.212187 -0.756153
    28 1.034363 -0.159541 0.036197 0.054227 -0.208894 -0.860780
    29 0.120153 -0.050270 -0.054489 0.589772 3.217556 1.464753
    30 -2.579433 -3.313233 -9.532824 -0.216201 -4.151479 0.227018
    31 -0.063217 -8.423074 -0.134369 -0.022995 -0.396962 0.202361
    32 0.447953 -2.798986 -0.200443 -0.803098 -0.246415 0.117432
    33 -0.032909 -1.499736 0.020565 -1.140704 0.022052 -0.019485
    34 -0.027022 -1.123796 -0.024116 -1.160033 0.023789 -0.020302
    35 -0.249534 -2.846964 -0.174213 -0.278969 -0.168233 0.039231
    36 0.043235 -1.656596 0.072574 -1.351114 -0.021350 0.006353
    37 0.031729 -1.145205 0.058838 -1.033420 -0.011403 0.005819
    38 -0.963866 -2.785145 -0.085350 -0.171414 0.060059 -0.061080
    39 0.028479 -1.403067 -0.013261 -0.756192 -0.017258 -0.029278
    40 0.021413 -0.949968 0.020046 -0.462841 -0.008042 -0.019307
    41 1.164475 -2.543940 -0.170330 -1.028538 -0.398375 0.181064
    42 0.024032 -1.132948 0.002182 -0.722668 0.002792 0.038699
    43 0.014898 -0.899614 -0.015942 -0.908383 0.005789 0.045877
    44 -0.586770 -1.264477 0.200161 -0.338141 -0.745466 -2.535802
    45 1.546273 0.039149 0.016848 -0.008333 -0.002520 0.490026
    46 1.117947 0.048424 -0.005766 -0.006619 -0.030232 0.319105
    47 -0.002676 -0.002320 0.002678 0.391247 0.025623 1.274548
    48 -5.698289 5.690644 -4.071581 2.005320 -0.407941 -0.885060
end
